1519402479023,-0.500000,0.798096,-0.203125
1519402479080,-0.471680,0.826416,-0.244873
1519402479083,-0.475098,0.948730,-0.276123
1519402479140,-0.482178,0.973389,-0.299805
1519402479173,-0.480469,0.891113,-0.286133
1519402479178,-0.456299,0.897949,-0.217041
1519402479237,-0.462402,0.865234,-0.266113
1519402479245,-0.445801,0.842529,-0.208740
1519402479295,-0.465088,0.862061,-0.198975
1519402479327,-0.449463,0.871582,-0.237305
1519402479359,-0.464844,0.819092,-0.298828
1519402479392,-0.473877,0.848877,-0.313477
1519402479426,-0.471924,0.865234,-0.324463
1519402479458,-0.445068,0.909912,-0.269287
1519402479529,-0.435791,0.906006,-0.214600
1519402479532,-0.447998,0.862061,-0.251953
1519402479596,-0.433594,0.860352,-0.255859
1519402479599,-0.427734,0.884033,-0.232422
1519402479646,-0.420410,0.829102,-0.232666
1519402479651,-0.412598,0.847900,-0.241699
1519402479679,-0.395020,0.887451,-0.214600
1519402479712,-0.402588,0.936279,-0.227295
1519402479745,-0.407227,0.966064,-0.258545
1519402479754,-0.411865,0.976318,-0.309082
1519402479808,-0.404297,0.953125,-0.300049
1519402479841,-0.397461,0.893799,-0.250977
1519402479874,-0.394287,0.863037,-0.221924
1519402479905,-0.391357,0.890625,-0.238770
1519402479938,-0.394043,0.918945,-0.250244
1519402479952,-0.392578,0.917236,-0.252441
1519402480009,-0.388672,0.935791,-0.214111
1519402480041,-0.384033,0.917969,-0.175049
1519402480075,-0.390869,0.944336,-0.202881
1519402480083,-0.394531,0.930908,-0.206787
1519402480164,-0.395996,0.895508,-0.208252
1519402480167,-0.402588,0.977051,-0.205322
1519402480198,-0.391846,0.922119,-0.147217
1519402480257,-0.400635,0.875732,-0.041748
1519402480265,-0.374268,0.930420,0.000000
1519402480317,-0.362793,0.950928,-0.004639
1519402480323,-0.371094,0.948730,0.007568
1519402480361,-0.367676,0.962158,-0.003662
1519402480374,-0.375488,0.935303,-0.001221
1519402480407,-0.361084,0.936523,0.034668
1519402480441,-0.347168,0.940674,0.067627
1519402480474,-0.352295,0.971680,0.055420
1519402480511,-0.360107,0.924805,0.014160
1519402480544,-0.349121,0.963135,0.027100
1519402480574,-0.373535,0.950684,0.032959
1519402480607,-0.369873,0.955811,0.009033
1519402480641,-0.360596,0.992920,0.031982
1519402480673,-0.369385,0.932617,0.042725
1519402480705,-0.369385,0.933594,0.001221
1519402480738,-0.376221,0.936523,-0.006836
1519402480771,-0.375977,0.978027,0.009277
1519402480791,-0.372559,0.955322,0.024414
1519402480823,-0.366943,0.960449,0.031738
1519402480855,-0.365723,0.978027,0.047607
1519402480888,-0.372803,0.970947,0.027344
1519402480921,-0.374268,0.946045,0.024414
1519402480953,-0.388428,0.923340,-0.010986
1519402480985,-0.392334,0.911865,-0.031738
1519402481019,-0.391602,0.926514,-0.003174
1519402481052,-0.387451,0.931885,0.013184
1519402481082,-0.376465,0.961914,0.004883
1519402481115,-0.383789,0.943604,-0.024170
1519402481147,-0.382080,0.941406,-0.033203
1519402481187,-0.378418,0.946045,-0.023193
1519402481221,-0.384033,0.939941,-0.014893
1519402481253,-0.378906,0.947510,-0.006104
1519402481285,-0.378418,0.942871,-0.019531
1519402481318,-0.377930,0.935059,-0.024902
1519402481358,-0.377686,0.944580,-0.049316
1519402481367,-0.370361,0.979248,-0.052734
1519402481419,-0.373779,0.958496,-0.053711
1519402481453,-0.372559,0.944580,-0.045898
1519402481479,-0.370605,0.954590,-0.041260
1519402481511,-0.370850,0.939453,-0.037598
1519402481544,-0.373535,0.944580,-0.048584
1519402481575,-0.374268,0.949219,-0.053223
1519402481608,-0.367920,0.940918,-0.042969
1519402481641,-0.370850,0.940918,-0.030029
1519402481674,-0.364990,0.947266,-0.036133
1519402481707,-0.369873,0.939453,-0.064941
1519402481740,-0.364990,0.951172,-0.059570
1519402481773,-0.368164,0.947998,-0.070801
1519402481782,-0.366455,0.974365,-0.088379
1519402481835,-0.371582,0.948486,-0.114258
1519402481868,-0.374023,0.944824,-0.121826
1519402481877,-0.374023,0.967041,-0.126465
1519402481931,-0.379639,0.969482,-0.135986
1519402481965,-0.377686,0.940430,-0.113525
1519402481996,-0.367188,0.911621,-0.047607
1519402482010,-0.348145,0.963867,0.047363
1519402482069,-0.341064,0.937500,0.113525
1519402482077,-0.343750,0.950439,0.079102
1519402482131,-0.359619,0.966553,0.006836
1519402482164,-0.359619,0.937500,-0.015137
1519402482198,-0.362549,0.952881,-0.005615
1519402482230,-0.357422,0.965820,0.026611
1519402482263,-0.353271,0.951660,0.036133
1519402482271,-0.357666,0.946045,0.014893
1519402482320,-0.359863,0.950684,0.006592
1519402482354,-0.354736,0.971924,-0.011475
1519402482363,-0.368408,0.953857,-0.054443
1519402482418,-0.365234,0.948975,-0.049805
1519402482427,-0.354004,0.964355,-0.033447
1519402482485,-0.357666,0.950195,-0.039307
1519402482517,-0.362793,0.959473,-0.041748
1519402482525,-0.358643,0.961426,-0.039063
1519402482579,-0.358643,0.962891,-0.038086
1519402482654,-0.356934,0.952881,-0.029297
1519402482662,-0.361084,0.947021,-0.029785
1519402482721,-0.353760,0.957520,-0.033203
1519402482729,-0.359619,0.965332,-0.051270
1519402482789,-0.363525,0.950684,-0.045898
1519402482797,-0.361572,0.962158,-0.053223
1519402482805,-0.364014,0.925049,-0.060791
1519402482837,-0.364746,0.932373,-0.066650
1519402482846,-0.370361,0.936768,-0.077393
1519402482901,-0.366455,0.949219,-0.063232
1519402482931,-0.361572,0.963135,-0.052246
1519402482939,-0.358643,0.954102,-0.054199
1519402482996,-0.363770,0.937744,-0.067871
1519402483030,-0.364014,0.949219,-0.072754
1519402483061,-0.361084,0.951904,-0.071289
1519402483098,-0.361084,0.946289,-0.055664
1519402483104,-0.359131,0.956055,-0.078125
1519402483162,-0.363037,0.951416,-0.092529
1519402483196,-0.356445,0.945313,-0.094727
1519402483208,-0.360352,0.942383,-0.091797
1519402483242,-0.363037,0.954346,-0.083740
1519402483275,-0.359375,0.950195,-0.090820
1519402483308,-0.357666,0.948975,-0.092285
1519402483343,-0.356201,0.955811,-0.084717
1519402483371,-0.357422,0.950928,-0.097656
1519402483408,-0.356445,0.950684,-0.102783
1519402483424,-0.357422,0.955322,-0.094482
1519402483481,-0.358398,0.952637,-0.084229
1519402483514,-0.354980,0.949707,-0.089844
1519402483524,-0.353516,0.952148,-0.094238
1519402483576,-0.354004,0.953125,-0.090088
1519402483609,-0.353760,0.948975,-0.091553
1519402483623,-0.355469,0.947021,-0.088135
1519402483680,-0.353516,0.950439,-0.090576
1519402483686,-0.353027,0.953125,-0.090820
1519402483743,-0.351563,0.949951,-0.091797
1519402483777,-0.350830,0.949951,-0.092529
1519402483809,-0.349609,0.958740,-0.085205
1519402483841,-0.352295,0.954590,-0.088867
1519402483873,-0.350342,0.952393,-0.090820
1519402483907,-0.350342,0.952148,-0.088867
1519402483939,-0.349609,0.952881,-0.088623
1519402483970,-0.350098,0.949463,-0.088135
1519402484003,-0.350098,0.953613,-0.091797
1519402484009,-0.350098,0.954346,-0.093262
1519402484039,-0.349854,0.950684,-0.090088
1519402484146,-0.349121,0.955078,-0.091553
1519402484151,-0.349365,0.955811,-0.093262
1519402484157,-0.349121,0.955322,-0.092529
1519402484206,-0.347900,0.953857,-0.092285
1519402484211,-0.347900,0.954346,-0.093994
1519402484265,-0.350098,0.951172,-0.091064
1519402484273,-0.347168,0.954834,-0.096680
1519402484300,-0.349854,0.956055,-0.097656
1519402484356,-0.350830,0.951172,-0.088867
1519402484367,-0.347900,0.953613,-0.087158
1519402484424,-0.348145,0.952148,-0.090820
1519402484438,-0.348389,0.952881,-0.093506
1519402484472,-0.348145,0.953857,-0.091797
1519402484504,-0.347900,0.949707,-0.093018
1519402484536,-0.349365,0.950928,-0.095459
1519402484569,-0.345947,0.952393,-0.090332
1519402484600,-0.346436,0.949219,-0.092041
1519402484635,-0.354980,0.944824,-0.095703
1519402484668,-0.351807,0.955078,-0.100830
1519402484701,-0.349854,0.965332,-0.099365
1519402484734,-0.342285,0.955811,-0.098389
1519402484767,-0.345215,0.946777,-0.101074
1519402484798,-0.353271,0.946777,-0.097900
1519402484830,-0.353027,0.950439,-0.096680
1519402484872,-0.351807,0.949219,-0.093506
1519402484904,-0.351074,0.950684,-0.092773
1519402484937,-0.345947,0.951660,-0.095703
1519402484969,-0.343994,0.952148,-0.093506
1519402484978,-0.344727,0.954346,-0.093262
1519402485028,-0.349609,0.954102,-0.095703
1519402485034,-0.350586,0.952148,-0.098633
1519402485068,-0.350830,0.953125,-0.097900
1519402485152,-0.347900,0.952637,-0.099854
1519402485158,-0.349609,0.949707,-0.096924
1519402485212,-0.346436,0.951904,-0.097900
1519402485218,-0.348877,0.955566,-0.097412
1519402485273,-0.347412,0.953857,-0.098877
1519402485282,-0.345215,0.947510,-0.091797
1519402485320,-0.349854,0.953857,-0.096436
1519402485331,-0.350830,0.950684,-0.101563
1519402485364,-0.347900,0.949463,-0.095703
1519402485422,-0.347900,0.955078,-0.098389
1519402485456,-0.347168,0.953369,-0.100830
1519402485464,-0.348633,0.950439,-0.096436
1519402485512,-0.349365,0.952637,-0.095459
1519402485546,-0.350342,0.948975,-0.095459
1519402485554,-0.347412,0.951416,-0.100830
1519402485635,-0.348145,0.952148,-0.099365
1519402485641,-0.347900,0.950439,-0.097412
1519402485700,-0.347412,0.953613,-0.097656
1519402485709,-0.348389,0.951904,-0.097900
1519402485774,-0.347168,0.951416,-0.099609
1519402485783,-0.349609,0.952148,-0.098389
1519402485859,-0.350342,0.951416,-0.097412
1519402485867,-0.346924,0.952881,-0.098877
1519402485905,-0.346924,0.950439,-0.099121
1519402485914,-0.349854,0.951660,-0.098389
1519402485921,-0.347900,0.954102,-0.099121
1519402485994,-0.349609,0.953857,-0.099121
1519402486000,-0.347900,0.950195,-0.097656
1519402486055,-0.347168,0.951660,-0.099365
1519402486063,-0.346191,0.952881,-0.100098
1519402486119,-0.348877,0.951172,-0.098389
1519402486124,-0.350098,0.951904,-0.099121
1519402486129,-0.347900,0.953857,-0.098389
1519402486185,-0.346924,0.951172,-0.096680
1519402486251,-0.345947,0.947754,-0.098145
1519402486259,-0.348633,0.951904,-0.101318
1519402486293,-0.348389,0.951660,-0.097168
1519402486296,-0.349121,0.951904,-0.098389
1519402486330,-0.347900,0.950195,-0.102539
1519402486361,-0.346191,0.956299,-0.097900
1519402486393,-0.348145,0.952881,-0.094482
1519402486453,-0.346680,0.950684,-0.097900
1519402486466,-0.351074,0.953613,-0.106445
1519402486499,-0.350342,0.949707,-0.099854
1519402486530,-0.347168,0.953613,-0.101074
1519402486562,-0.349365,0.952148,-0.100098
1519402486597,-0.346191,0.950928,-0.097900
1519402486630,-0.345703,0.953125,-0.094971
1519402486664,-0.348633,0.949463,-0.094727
1519402486696,-0.349854,0.956055,-0.096680
1519402486728,-0.351563,0.947754,-0.104736
1519402486761,-0.351318,0.947266,-0.096436
1519402486793,-0.348145,0.946777,-0.085693
1519402486826,-0.348389,0.953369,-0.093262
1519402486857,-0.350586,0.952148,-0.101318
1519402486871,-0.348877,0.953857,-0.094238
1519402486929,-0.350586,0.953613,-0.096436
1519402486963,-0.349365,0.951416,-0.094482
1519402486994,-0.349121,0.951660,-0.095459
1519402487028,-0.348633,0.949707,-0.097168
1519402487059,-0.347168,0.956787,-0.099121
1519402487094,-0.350342,0.950439,-0.095947
1519402487126,-0.348389,0.952393,-0.092285
1519402487159,-0.349121,0.947021,-0.093262
1519402487214,-0.346680,0.961182,-0.094971
1519402487222,-0.350098,0.952148,-0.096191
1519402487267,-0.348877,0.949707,-0.093994
1519402487270,-0.348877,0.953857,-0.094727
1519402487288,-0.350342,0.952637,-0.098145
1519402487347,-0.348145,0.952637,-0.094727
1519402487378,-0.348877,0.953125,-0.095215
1519402487410,-0.348633,0.952881,-0.094238
1519402487442,-0.346680,0.957031,-0.098877
1519402487476,-0.349121,0.954834,-0.093262
1519402487509,-0.349609,0.955811,-0.088379
1519402487541,-0.350098,0.951172,-0.077881
1519402487574,-0.352295,0.948486,-0.071777
1519402487605,-0.348389,0.953125,-0.073975
1519402487638,-0.351563,0.947754,-0.067139
1519402487671,-0.345215,0.954590,-0.070313
1519402487688,-0.350342,0.955322,-0.073486
1519402487744,-0.351074,0.951660,-0.072510
1519402487777,-0.351563,0.955078,-0.070557
1519402487785,-0.349609,0.953857,-0.070557
1519402487835,-0.348877,0.953857,-0.070557
1519402487841,-0.350830,0.962158,-0.071777
1519402487877,-0.352051,0.955811,-0.071045
1519402487939,-0.348145,0.953125,-0.072754
1519402487944,-0.350098,0.963867,-0.076416
1519402487973,-0.350342,0.962891,-0.069580
1519402488005,-0.353516,0.951660,-0.086914
1519402488063,-0.354248,0.940186,-0.082520
1519402488072,-0.350830,0.947510,-0.085205
1519402488108,-0.352539,0.957031,-0.079102
1519402488141,-0.351318,0.955322,-0.080078
1519402488175,-0.351563,0.951172,-0.075684
1519402488206,-0.349854,0.953125,-0.082031
1519402488241,-0.353516,0.950928,-0.079590
1519402488275,-0.351074,0.950928,-0.079834
1519402488308,-0.350098,0.951172,-0.083252
1519402488340,-0.351074,0.950684,-0.085938
1519402488372,-0.349365,0.955078,-0.093994
1519402488404,-0.350830,0.953857,-0.100342
1519402488438,-0.351318,0.952881,-0.098145
1519402488471,-0.352783,0.951416,-0.094482
1519402488503,-0.350586,0.951172,-0.093994
1519402488536,-0.349121,0.951172,-0.098145
1519402488567,-0.352295,0.949463,-0.094727
1519402488599,-0.351074,0.951660,-0.095947
1519402488631,-0.349609,0.951904,-0.095947
1519402488665,-0.349609,0.950195,-0.097168
1519402488698,-0.348633,0.951416,-0.098145
1519402488730,-0.349609,0.953125,-0.092773
1519402488761,-0.354736,0.952393,-0.100342
1519402488795,-0.347168,0.958496,-0.103271
1519402488828,-0.349854,0.951660,-0.096436
1519402488901,-0.349121,0.953857,-0.098633
1519402488909,-0.348633,0.953369,-0.103271
1519402488966,-0.349121,0.953613,-0.101807
1519402488974,-0.346191,0.958984,-0.094238
1519402489006,-0.352295,0.947021,-0.095459
1519402489009,-0.346191,0.962402,-0.115479
1519402489040,-0.348145,0.945557,-0.113770
1519402489074,-0.340576,0.951416,-0.115967
1519402489105,-0.344727,0.950439,-0.111816
1519402489159,-0.347168,0.950195,-0.108887
1519402489191,-0.347168,0.955811,-0.113525
1519402489200,-0.342529,0.956055,-0.107910
1519402489262,-0.345947,0.949463,-0.111572
1519402489270,-0.350830,0.950439,-0.113281
1519402489325,-0.350098,0.944824,-0.104248
1519402489336,-0.347412,0.946045,-0.111572
1519402489386,-0.347900,0.950684,-0.115723
1519402489444,-0.345703,0.946777,-0.113037
1519402489448,-0.351807,0.948486,-0.103516
1519402489505,-0.353027,0.952637,-0.110352
1519402489508,-0.346924,0.952148,-0.108154
1519402489513,-0.349121,0.952148,-0.105957
1519402489564,-0.347656,0.946045,-0.105225
1519402489631,-0.345947,0.949707,-0.109131
1519402489634,-0.349121,0.957031,-0.105957
1519402489692,-0.349854,0.951172,-0.106689
1519402489701,-0.347900,0.951660,-0.108887
1519402489751,-0.348145,0.950439,-0.108643
1519402489754,-0.347168,0.948730,-0.105225
1519402489817,-0.344238,0.950928,-0.108398
1519402489822,-0.346191,0.951416,-0.109619
1519402489851,-0.341309,0.952881,-0.109131
1519402489884,-0.347656,0.951660,-0.109863
1519402489915,-0.349365,0.954346,-0.104736
1519402489948,-0.347656,0.951904,-0.110352
1519402489981,-0.343262,0.948486,-0.107178
1519402490013,-0.342041,0.950195,-0.108154
1519402490045,-0.350342,0.952148,-0.112061
1519402490079,-0.349365,0.956543,-0.109131
1519402490110,-0.347656,0.949707,-0.102539
1519402490143,-0.347412,0.945557,-0.105469
1519402490179,-0.347656,0.950684,-0.108154
1519402490221,-0.348145,0.953369,-0.112061
1519402490254,-0.345459,0.950928,-0.101563
1519402490264,-0.347412,0.950195,-0.101807
1519402490317,-0.348389,0.951660,-0.103271
1519402490353,-0.348877,0.953857,-0.098877
1519402490382,-0.348633,0.945557,-0.110596
1519402490391,-0.342773,0.962402,-0.105469
1519402490438,-0.346436,0.942139,-0.099609
1519402490471,-0.347656,0.949951,-0.107910
1519402490480,-0.345703,0.940674,-0.089844
1519402490534,-0.347656,0.970703,-0.115967
1519402490566,-0.348145,0.935547,-0.103271
1519402490597,-0.344238,0.951172,-0.099609
1519402490611,-0.349365,0.954590,-0.094727
1519402490644,-0.347656,0.952393,-0.103760
1519402490677,-0.345215,0.954102,-0.103760
1519402490711,-0.345459,0.947510,-0.094727
1519402490768,-0.347168,0.955078,-0.104248
1519402490798,-0.347168,0.953369,-0.101807
1519402490832,-0.348145,0.953125,-0.095459
1519402490841,-0.345215,0.949951,-0.094482
1519402490897,-0.346436,0.955811,-0.105225
1519402490929,-0.348145,0.950928,-0.109375
1519402490962,-0.347168,0.953125,-0.096191
1519402490970,-0.349609,0.951416,-0.087891
1519402491019,-0.347900,0.957031,-0.099854
1519402491027,-0.346436,0.952148,-0.097656
1519402491056,-0.343018,0.950439,-0.094238
1519402491113,-0.349609,0.952637,-0.090088
1519402491125,-0.353271,0.950928,-0.088379
1519402491181,-0.351807,0.952393,-0.087402
1519402491214,-0.345947,0.956543,-0.087891
1519402491247,-0.345215,0.947998,-0.088135
1519402491279,-0.351074,0.946777,-0.088623
1519402491291,-0.349365,0.958008,-0.089111
1519402491324,-0.350342,0.958496,-0.091797
1519402491381,-0.346680,0.945313,-0.093994
1519402491413,-0.346680,0.953125,-0.090576
1519402491426,-0.349609,0.962402,-0.084961
1519402491459,-0.358643,0.945068,-0.071777
1519402491492,-0.354004,0.952148,-0.065186
1519402491546,-0.348389,0.959473,-0.064209
1519402491554,-0.353516,0.946289,-0.063232
1519402491602,-0.355957,0.951904,-0.064209
1519402491607,-0.350586,0.954346,-0.059326
1519402491666,-0.351318,0.956055,-0.060791
1519402491719,-0.353516,0.948975,-0.068359
1519402491727,-0.354492,0.957520,-0.071533
1519402491780,-0.352539,0.957031,-0.067871
1519402491788,-0.355225,0.948242,-0.070557
1519402491813,-0.354980,0.957031,-0.078369
1519402491854,-0.354004,0.955566,-0.078125
1519402491887,-0.352295,0.953613,-0.078125
1519402491920,-0.354980,0.951416,-0.074219
1519402491952,-0.354980,0.949951,-0.071777
1519402492024,-0.351074,0.955322,-0.071533
1519402492030,-0.357910,0.950684,-0.070313
1519402492092,-0.355225,0.950928,-0.074707
1519402492103,-0.356934,0.952637,-0.068604
1519402492124,-0.354492,0.956055,-0.070313
1519402492128,-0.352539,0.953125,-0.072266
1519402492187,-0.352051,0.953369,-0.077637
1519402492195,-0.354736,0.955811,-0.073730
1519402492227,-0.358887,0.953613,-0.072266
1519402492287,-0.357178,0.951416,-0.074219
1519402492294,-0.354492,0.952881,-0.072998
1519402492318,-0.356934,0.956055,-0.071045
1519402492376,-0.354980,0.947998,-0.058350
1519402492410,-0.354736,0.956055,-0.060059
1519402492443,-0.358398,0.955322,-0.063965
1519402492475,-0.357422,0.948975,-0.056641
1519402492508,-0.359131,0.956055,-0.071533
1519402492540,-0.355713,0.947510,-0.060547
1519402492572,-0.357422,0.956543,-0.064209
1519402492604,-0.357910,0.949951,-0.065918
1519402492612,-0.357666,0.951172,-0.062500
1519402492650,-0.355225,0.952148,-0.062012
1519402492709,-0.357178,0.950928,-0.062744
1519402492717,-0.357422,0.954834,-0.063232
1519402492768,-0.357422,0.953125,-0.063232
1519402492777,-0.357910,0.953857,-0.067627
1519402492827,-0.357666,0.955322,-0.062988
1519402492859,-0.362061,0.956299,-0.071777
1519402492868,-0.354736,0.953613,-0.051270
1519402492923,-0.362549,0.947510,-0.065918
1519402492953,-0.356689,0.954834,-0.061768
1519402492997,-0.357666,0.948730,-0.063721
1519402493011,-0.354980,0.954590,-0.060791
1519402493043,-0.358154,0.950684,-0.056885
1519402493079,-0.356934,0.958008,-0.068848
1519402493112,-0.357666,0.953125,-0.061523
1519402493144,-0.354492,0.953613,-0.063721
1519402493178,-0.357910,0.959717,-0.073975
1519402493186,-0.359863,0.948730,-0.065674
1519402493241,-0.358887,0.951172,-0.066650
1519402493273,-0.356934,0.953613,-0.064209
1519402493307,-0.358887,0.947754,-0.062988
1519402493339,-0.359131,0.953857,-0.067627
1519402493372,-0.357422,0.955811,-0.067627
1519402493403,-0.357422,0.947266,-0.061035
1519402493417,-0.356445,0.961426,-0.069824
1519402493451,-0.357422,0.951660,-0.068359
1519402493483,-0.358887,0.950195,-0.065918
1519402493515,-0.360352,0.952393,-0.066650
1519402493572,-0.358398,0.951172,-0.066406
1519402493604,-0.358154,0.951416,-0.067139
1519402493636,-0.357666,0.952881,-0.067139
1519402493669,-0.358398,0.954590,-0.066650
1519402493702,-0.360840,0.949707,-0.064209
1519402493735,-0.358398,0.954346,-0.067139
1519402493768,-0.358887,0.949951,-0.066406
1519402493776,-0.357666,0.953125,-0.066162
1519402493833,-0.357422,0.953369,-0.065186
1519402493866,-0.357666,0.952881,-0.067383
1519402493874,-0.356201,0.954590,-0.064697
1519402493929,-0.359131,0.942627,-0.059570
1519402493937,-0.359131,0.962891,-0.071289
1519402493986,-0.357910,0.947754,-0.066650
1519402494019,-0.357666,0.953857,-0.065674
1519402494026,-0.357422,0.952881,-0.065918
1519402494085,-0.357178,0.951416,-0.065186
1519402494116,-0.356689,0.953125,-0.067383
1519402494149,-0.358643,0.952637,-0.066650
1519402494182,-0.358398,0.951660,-0.064941
1519402494215,-0.357910,0.954834,-0.065186
1519402494248,-0.356934,0.952148,-0.068848
1519402494280,-0.358154,0.949463,-0.067871
1519402494313,-0.354492,0.955322,-0.066650
1519402494345,-0.360107,0.950195,-0.065430
1519402494355,-0.358398,0.952637,-0.072510
1519402494404,-0.357666,0.954590,-0.062256
1519402494441,-0.357422,0.948730,-0.064209
1519402494449,-0.356201,0.952148,-0.069824
1519402494500,-0.359619,0.951660,-0.065430
1519402494532,-0.358154,0.954834,-0.065430
1519402494545,-0.357422,0.949463,-0.063721
1519402494602,-0.359619,0.953857,-0.064453
1519402494616,-0.360352,0.952881,-0.064453
1519402494648,-0.360107,0.953613,-0.065430
1519402494680,-0.360596,0.952881,-0.065430
1519402494713,-0.357666,0.951660,-0.066650
1519402494747,-0.357910,0.952637,-0.067627
1519402494779,-0.356934,0.952393,-0.064697
1519402494836,-0.360352,0.948730,-0.064941
1519402494841,-0.357422,0.954590,-0.067383
1519402494899,-0.355225,0.952393,-0.069092
1519402494930,-0.356201,0.953369,-0.066406
1519402494936,-0.354492,0.953369,-0.067871
1519402494990,-0.357910,0.951416,-0.069580
1519402494995,-0.356201,0.952393,-0.066162
1519402495035,-0.355957,0.954102,-0.068848
1519402495135,-0.356201,0.950928,-0.069580
1519402495141,-0.355957,0.951904,-0.067383
1519402495204,-0.355713,0.953369,-0.069580
1519402495212,-0.354980,0.952881,-0.067139
1519402495246,-0.355469,0.954102,-0.072510
1519402495251,-0.356934,0.955322,-0.071289
1519402495281,-0.355225,0.953369,-0.074707
1519402495313,-0.354004,0.950928,-0.070313
1519402495348,-0.355225,0.952393,-0.063721
1519402495378,-0.352295,0.958252,-0.070068
1519402495411,-0.357178,0.938721,-0.056885
1519402495419,-0.349854,0.957764,-0.072021
1519402495456,-0.354248,0.951172,-0.063477
1519402495490,-0.352051,0.950439,-0.062500
1519402495523,-0.354248,0.957764,-0.072021
1519402495559,-0.355225,0.946777,-0.064697
1519402495593,-0.356201,0.956055,-0.067627
1519402495624,-0.355957,0.956299,-0.072266
1519402495656,-0.353271,0.947754,-0.068604
1519402495695,-0.352295,0.952637,-0.069092
1519402495728,-0.354492,0.952148,-0.068604
1519402495764,-0.356445,0.952881,-0.069092
1519402495775,-0.355469,0.951660,-0.067139
1519402495830,-0.354004,0.953125,-0.069580
1519402495844,-0.353760,0.951416,-0.071289
1519402495876,-0.353760,0.954346,-0.071289
1519402495910,-0.354004,0.950684,-0.066895
1519402495942,-0.355469,0.951416,-0.067139
1519402495981,-0.354492,0.953369,-0.069824
1519402496011,-0.356201,0.950928,-0.071289
1519402496044,-0.355225,0.952393,-0.070313
1519402496077,-0.355957,0.952637,-0.068604
1519402496110,-0.356445,0.953125,-0.069824
1519402496142,-0.354980,0.951904,-0.069824
1519402496174,-0.355469,0.952881,-0.068848
1519402496207,-0.355225,0.951660,-0.070801
1519402496240,-0.355225,0.954102,-0.069580
1519402496254,-0.355469,0.949951,-0.069824
1519402496310,-0.356934,0.950928,-0.070801
1519402496345,-0.356201,0.951904,-0.070557
1519402496374,-0.355957,0.952148,-0.071045
1519402496407,-0.356201,0.954102,-0.070557
1519402496439,-0.357178,0.949463,-0.067627
1519402496472,-0.356689,0.952881,-0.069824
1519402496504,-0.357422,0.951904,-0.071533
1519402496538,-0.355957,0.953369,-0.072021
1519402496546,-0.354492,0.954102,-0.069824
1519402496573,-0.357178,0.949463,-0.066406
1519402496606,-0.358398,0.953369,-0.071533
1519402496638,-0.357910,0.951172,-0.068604
1519402496680,-0.357666,0.946777,-0.064209
1519402496714,-0.357666,0.956055,-0.072266
1519402496746,-0.357422,0.951660,-0.068359
1519402496779,-0.354492,0.954590,-0.069580
1519402496812,-0.356445,0.952637,-0.069336
1519402496838,-0.355469,0.951172,-0.068848
1519402496871,-0.356934,0.953369,-0.069824
1519402496904,-0.355713,0.954102,-0.068359
1519402496940,-0.355957,0.953369,-0.067383
1519402496973,-0.356201,0.951904,-0.070557
1519402497055,-0.355469,0.951904,-0.067627
1519402497061,-0.356689,0.953857,-0.068115
1519402497121,-0.356689,0.952637,-0.071533
1519402497127,-0.357422,0.952637,-0.067871
1519402497132,-0.355713,0.951172,-0.067627
1519402497182,-0.355225,0.952393,-0.070313
1519402497198,-0.355225,0.952881,-0.068848
1519402497220,-0.355225,0.951416,-0.070068
1519402497253,-0.356934,0.952148,-0.069824
1519402497286,-0.356445,0.953857,-0.069092
1519402497319,-0.356689,0.952148,-0.070068
1519402497351,-0.355713,0.950684,-0.068115
1519402497407,-0.356934,0.952393,-0.069336
1519402497412,-0.355713,0.951904,-0.070557
1519402497470,-0.357178,0.952881,-0.069092
1519402497485,-0.356445,0.955078,-0.069580
1519402497516,-0.356445,0.952881,-0.070068
1519402497550,-0.356201,0.952881,-0.068604
1519402497607,-0.354736,0.953125,-0.069336
1519402497615,-0.359375,0.948975,-0.066895
1519402497639,-0.355957,0.952881,-0.066895
1519402497698,-0.357422,0.953369,-0.069824
1519402497707,-0.354736,0.950439,-0.068604
1519402497756,-0.356934,0.952881,-0.067627
1519402497789,-0.357666,0.951416,-0.066406
1519402497822,-0.358887,0.949463,-0.064209
1519402497832,-0.358154,0.953613,-0.066650
1519402497885,-0.357910,0.954590,-0.066650
1519402497899,-0.358154,0.951904,-0.062500
1519402497931,-0.358154,0.960938,-0.076660
1519402497990,-0.354248,0.949951,-0.056396
1519402498022,-0.362061,0.946289,-0.059570
1519402498029,-0.358154,0.953369,-0.068604
1519402498086,-0.357910,0.943359,-0.062500
1519402498119,-0.357910,0.949463,-0.059326
1519402498127,-0.358643,0.956299,-0.063721
1519402498176,-0.356445,0.956787,-0.066650
1519402498181,-0.357666,0.947510,-0.057861
1519402498254,-0.357666,0.955811,-0.067383
1519402498322,-0.357666,0.951172,-0.069336
1519402498331,-0.357178,0.952881,-0.068848
1519402498367,-0.358643,0.951904,-0.065430
1519402498370,-0.357666,0.954834,-0.067139
1519402498400,-0.358398,0.952148,-0.067139
1519402498434,-0.358154,0.949951,-0.066650
1519402498466,-0.357178,0.952393,-0.068848
1519402498497,-0.356934,0.954102,-0.066895
1519402498531,-0.359131,0.951660,-0.066162
1519402498563,-0.358398,0.952148,-0.067627
1519402498596,-0.358887,0.949463,-0.067139
1519402498599,-0.355225,0.952881,-0.068115
1519402498654,-0.359131,0.951416,-0.065918
1519402498688,-0.358154,0.951660,-0.066895
1519402498697,-0.356934,0.954102,-0.065918
1519402498752,-0.361572,0.947998,-0.063477
1519402498789,-0.354248,0.954102,-0.068115
1519402498816,-0.356934,0.956299,-0.068115
1519402498848,-0.357910,0.949463,-0.066650
1519402498859,-0.359131,0.953613,-0.066406
1519402498917,-0.357422,0.951416,-0.065674
1519402498949,-0.359131,0.951416,-0.066895
1519402498982,-0.358643,0.953857,-0.067627
1519402499014,-0.358887,0.951904,-0.067383
1519402499045,-0.358398,0.949707,-0.065674
1519402499079,-0.357422,0.953369,-0.065430
1519402499111,-0.358398,0.952148,-0.068115
1519402499127,-0.357910,0.953125,-0.067627
1519402499165,-0.358887,0.953857,-0.066650
1519402499197,-0.357910,0.952148,-0.069092
1519402499230,-0.356934,0.950439,-0.066650
1519402499262,-0.357666,0.953613,-0.067139
1519402499296,-0.358154,0.953613,-0.067139
1519402499329,-0.357666,0.954590,-0.066406
1519402499365,-0.358398,0.945313,-0.063965
1519402499397,-0.356445,0.959717,-0.068848
1519402499430,-0.358643,0.946533,-0.065186
1519402499464,-0.356201,0.953857,-0.068359
1519402499496,-0.357178,0.955322,-0.064941
1519402499529,-0.357178,0.949219,-0.065430
1519402499542,-0.356445,0.952148,-0.068848
1519402499601,-0.359375,0.951904,-0.066406
1519402499610,-0.357910,0.952881,-0.067383
1519402499662,-0.358154,0.953613,-0.067871
1519402499695,-0.358643,0.951660,-0.066650
1519402499728,-0.356445,0.954102,-0.066406
1519402499762,-0.358154,0.950439,-0.070801
1519402499770,-0.360596,0.955322,-0.071045
1519402499819,-0.360840,0.948486,-0.065918
1519402499857,-0.359619,0.949463,-0.065674
1519402499864,-0.356201,0.953613,-0.067871
1519402499917,-0.359131,0.952148,-0.063965
1519402499925,-0.355225,0.954834,-0.064453
1519402499962,-0.357422,0.951172,-0.062988
1519402499996,-0.359863,0.951416,-0.070313
1519402500025,-0.361328,0.949707,-0.066650
1519402500058,-0.359863,0.947266,-0.063721
1519402500090,-0.360107,0.951416,-0.069824
1519402500123,-0.360352,0.952637,-0.069824
1519402500155,-0.357910,0.951904,-0.070068
1519402500213,-0.357666,0.948242,-0.063721
1519402500218,-0.358887,0.954590,-0.065674
1519402500277,-0.357422,0.954346,-0.068604
1519402500310,-0.358887,0.954102,-0.067383
1519402500354,-0.359131,0.950195,-0.067139
1519402500357,-0.358154,0.951904,-0.071777
1519402500412,-0.355957,0.952393,-0.068848
1519402500419,-0.357178,0.953613,-0.069336
1519402500451,-0.358887,0.953369,-0.071045
1519402500509,-0.358643,0.950684,-0.070068
1519402500515,-0.358154,0.950439,-0.070801
1519402500542,-0.356689,0.950928,-0.070801
1519402500575,-0.357910,0.950439,-0.070068
1519402500607,-0.358154,0.952393,-0.068115
1519402500640,-0.357666,0.950928,-0.072266
1519402500678,-0.357666,0.954834,-0.069824
1519402500740,-0.357910,0.952881,-0.068604
1519402500745,-0.358643,0.952148,-0.070557
1519402500805,-0.357178,0.951904,-0.070801
1519402500810,-0.357422,0.952881,-0.069580
1519402500865,-0.357178,0.951904,-0.068848
1519402500871,-0.359375,0.951416,-0.069580
1519402500926,-0.358398,0.951660,-0.069824
1519402500941,-0.357910,0.953857,-0.067627
1519402500994,-0.359131,0.950195,-0.067627
1519402501001,-0.357666,0.953857,-0.065918
1519402501028,-0.359375,0.951416,-0.067871
1519402501084,-0.353760,0.956543,-0.076904
1519402501088,-0.359131,0.955566,-0.058105
1519402501120,-0.362061,0.949951,-0.072754
1519402501153,-0.355713,0.957520,-0.060791
1519402501185,-0.365234,0.950439,-0.068115
1519402501218,-0.352295,0.953369,-0.062988
1519402501250,-0.359619,0.952148,-0.070801
1519402501283,-0.361572,0.950439,-0.072754
1519402501358,-0.357910,0.953857,-0.068115
1519402501362,-0.357422,0.951660,-0.064209
1519402501425,-0.358643,0.950195,-0.061768
1519402501433,-0.362061,0.948975,-0.064453
1519402501485,-0.358398,0.958008,-0.063721
1519402501488,-0.360352,0.951660,-0.066650
1519402501519,-0.360352,0.944580,-0.066162
1519402501552,-0.358154,0.950684,-0.067871
1519402501585,-0.358154,0.955566,-0.067139
1519402501617,-0.357178,0.956543,-0.069092
1519402501648,-0.359619,0.950195,-0.069092
1519402501681,-0.358887,0.949219,-0.065918
1519402501715,-0.359619,0.952393,-0.067383
1519402501747,-0.357910,0.952637,-0.069824
1519402501785,-0.358643,0.946777,-0.066406
1519402501797,-0.359375,0.951904,-0.068115
1519402501854,-0.358643,0.950195,-0.068848
1519402501886,-0.357666,0.951904,-0.067383
1519402501920,-0.358398,0.951904,-0.069824
1519402501958,-0.358887,0.952637,-0.067871
1519402501972,-0.359375,0.952393,-0.067871
1519402502004,-0.358154,0.952393,-0.068604
1519402502038,-0.360107,0.950439,-0.067139
1519402502069,-0.359375,0.951904,-0.069824
1519402502102,-0.356934,0.954102,-0.068359
1519402502136,-0.359619,0.950439,-0.065430
1519402502167,-0.357178,0.954346,-0.067139
1519402502199,-0.360596,0.949219,-0.069336
1519402502233,-0.354980,0.953369,-0.068604
1519402502263,-0.357910,0.954102,-0.068359
1519402502297,-0.358643,0.951660,-0.067871
1519402502328,-0.360840,0.951660,-0.070557
1519402502361,-0.359131,0.950928,-0.066406
1519402502403,-0.361084,0.947510,-0.066650
1519402502436,-0.359619,0.952637,-0.071045
1519402502468,-0.359131,0.952148,-0.068359
1519402502500,-0.357910,0.951416,-0.068359
1519402502533,-0.358398,0.950928,-0.069580
1519402502566,-0.358887,0.948730,-0.069092
1519402502574,-0.359131,0.958252,-0.069092
1519402502625,-0.361328,0.946289,-0.067139
1519402502658,-0.357422,0.955322,-0.069092
1519402502664,-0.359131,0.947754,-0.065430
1519402502719,-0.359375,0.956055,-0.072754
1519402502730,-0.358643,0.951904,-0.068115
1519402502787,-0.358643,0.949463,-0.067627
1519402502793,-0.359619,0.951172,-0.070068
1519402502851,-0.357666,0.951172,-0.070801
1519402502883,-0.358154,0.952637,-0.068359
1519402502915,-0.358154,0.951904,-0.069092
1519402502949,-0.359375,0.950439,-0.070801
1519402502981,-0.358887,0.952148,-0.070313
1519402503012,-0.359375,0.949219,-0.068848
1519402503044,-0.359131,0.950928,-0.071289
1519402503078,-0.357666,0.952637,-0.069824
1519402503111,-0.358887,0.951416,-0.070068
1519402503120,-0.358887,0.951660,-0.071289
1519402503169,-0.359619,0.948975,-0.067383
1519402503183,-0.359619,0.952393,-0.069824
1519402503239,-0.360352,0.951660,-0.068848
1519402503247,-0.357178,0.952393,-0.069824
1519402503302,-0.359131,0.950684,-0.066895
1519402503334,-0.358887,0.949707,-0.066895
1519402503366,-0.359131,0.955566,-0.073730
1519402503399,-0.359863,0.947754,-0.066162
1519402503431,-0.358154,0.955322,-0.070557
1519402503464,-0.358887,0.951660,-0.067871
1519402503497,-0.360107,0.949951,-0.071045
1519402503529,-0.360107,0.951660,-0.067871
1519402503562,-0.359863,0.947266,-0.065186
1519402503594,-0.360596,0.951904,-0.070313
1519402503626,-0.359375,0.952637,-0.070068
1519402503659,-0.358398,0.950928,-0.069580
1519402503690,-0.358887,0.948486,-0.066406
1519402503696,-0.358887,0.952881,-0.070068
1519402503727,-0.358887,0.951416,-0.067627
1519402503786,-0.357910,0.953857,-0.068115
1519402503795,-0.359131,0.951416,-0.068115
1519402503847,-0.358398,0.952881,-0.068848
1519402503880,-0.359863,0.950684,-0.070801
1519402503913,-0.358643,0.953369,-0.068604
1519402503945,-0.358643,0.952637,-0.068848
1519402503978,-0.358154,0.951660,-0.069336
1519402503991,-0.358643,0.954590,-0.066406
1519402504024,-0.357422,0.949463,-0.068848
1519402504080,-0.357910,0.951416,-0.069092
1519402504114,-0.359131,0.952637,-0.066895
1519402504122,-0.360352,0.951660,-0.069824
1519402504211,-0.358643,0.948975,-0.066895
1519402504214,-0.357910,0.953613,-0.068359
1519402504219,-0.359619,0.951416,-0.067383
1519402504272,-0.358398,0.950439,-0.067383
1519402504275,-0.356689,0.952148,-0.069824
1519402504333,-0.358887,0.950928,-0.067871
1519402504390,-0.359131,0.952148,-0.068848
1519402504399,-0.360107,0.951904,-0.067871
1519402504428,-0.357910,0.954102,-0.070313
1519402504502,-0.357910,0.949707,-0.069092
1519402504511,-0.357178,0.952393,-0.067871
1519402504570,-0.355957,0.954834,-0.068359
1519402504635,-0.360596,0.946289,-0.067383
1519402504643,-0.355469,0.953613,-0.071777
1519402504652,-0.357422,0.954346,-0.067627
1519402504660,-0.356934,0.950928,-0.070801
1519402504673,-0.358154,0.949707,-0.068115
1519402504706,-0.357178,0.952148,-0.071289
1519402504740,-0.357666,0.952393,-0.072021
1519402504773,-0.358887,0.952881,-0.070801
1519402504808,-0.358887,0.950928,-0.072021
1519402504848,-0.354492,0.950928,-0.068848
1519402504854,-0.354980,0.949463,-0.068115
1519402504914,-0.354492,0.952881,-0.071045
1519402504944,-0.357178,0.953369,-0.071289
1519402504975,-0.357178,0.951660,-0.070801
1519402504984,-0.357422,0.950928,-0.072510
1519402505042,-0.355225,0.952881,-0.072754
1519402505074,-0.356445,0.951172,-0.072021
1519402505107,-0.356445,0.952637,-0.073730
1519402505141,-0.355225,0.951172,-0.070313
1519402505172,-0.356934,0.952881,-0.072510
1519402505177,-0.354980,0.951172,-0.075684
1519402505231,-0.356201,0.951904,-0.072754
1519402505265,-0.358643,0.954590,-0.072754
1519402505273,-0.354736,0.949463,-0.067139
1519402505326,-0.356445,0.949463,-0.065674
1519402505361,-0.356934,0.959229,-0.075439
1519402505390,-0.357422,0.952637,-0.069336
1519402505423,-0.357666,0.954834,-0.074219
1519402505455,-0.356445,0.947266,-0.057129
1519402505488,-0.355225,0.959961,-0.072754
1519402505521,-0.359131,0.948242,-0.071045
1519402505554,-0.357178,0.947021,-0.063965
1519402505587,-0.357178,0.958008,-0.067139
1519402505618,-0.360596,0.946045,-0.063965
1519402505631,-0.356201,0.952881,-0.071045
1519402505688,-0.356689,0.954102,-0.067383
1519402505721,-0.356689,0.955322,-0.071045
1519402505756,-0.356934,0.953125,-0.068848
1519402505764,-0.358154,0.952637,-0.068115
1519402505798,-0.359131,0.952148,-0.068604
1519402505856,-0.358154,0.952148,-0.066895
1519402505865,-0.358887,0.947754,-0.065918
1519402505913,-0.357910,0.952393,-0.071289
1519402505917,-0.355713,0.952637,-0.069824
1519402505974,-0.359131,0.948730,-0.065918
1519402506007,-0.358154,0.952637,-0.069092
1519402506038,-0.358643,0.951660,-0.070068
1519402506051,-0.358887,0.953369,-0.067139
1519402506090,-0.358887,0.950439,-0.069092
1519402506158,-0.359131,0.952148,-0.070313
1519402506166,-0.358154,0.951416,-0.067627
1519402506220,-0.360352,0.950195,-0.070313
1519402506229,-0.358643,0.948975,-0.066895
1519402506276,-0.358643,0.956787,-0.071289
1519402506281,-0.358398,0.949951,-0.067871
1519402506315,-0.356934,0.953369,-0.068115
1519402506348,-0.358154,0.952393,-0.067871
1519402506383,-0.357910,0.952637,-0.068359
1519402506413,-0.359375,0.949707,-0.068359
1519402506446,-0.358643,0.952881,-0.068848
1519402506502,-0.358154,0.951660,-0.069824
1519402506505,-0.358398,0.951904,-0.069580
1519402506536,-0.356445,0.954102,-0.067627
1519402506570,-0.358398,0.951660,-0.067139
1519402506608,-0.358398,0.952393,-0.068359
1519402506639,-0.358398,0.953369,-0.069336
1519402506672,-0.358887,0.952637,-0.070068
1519402506704,-0.358643,0.952393,-0.068604
1519402506737,-0.358643,0.951416,-0.066406
1519402506771,-0.356445,0.953857,-0.070313
1519402506802,-0.361816,0.947510,-0.066650
1519402506836,-0.354492,0.952637,-0.070557
1519402506876,-0.359375,0.953857,-0.065674
1519402506908,-0.358398,0.951660,-0.069824
1519402506918,-0.359375,0.951660,-0.068115
1519402506971,-0.359619,0.947510,-0.063965
1519402507003,-0.358887,0.949951,-0.067139
1519402507011,-0.360107,0.953613,-0.070068
1519402507078,-0.358887,0.950195,-0.069824
1519402507083,-0.357666,0.952393,-0.066895
1519402507112,-0.360352,0.950684,-0.066650
1519402507171,-0.359131,0.952637,-0.070313
1519402507178,-0.359619,0.952881,-0.067383
1519402507237,-0.360107,0.949707,-0.065430
1519402507251,-0.357910,0.951172,-0.069580
1519402507302,-0.358154,0.952881,-0.070313
1519402507335,-0.358398,0.952148,-0.068604
1519402507367,-0.358398,0.953369,-0.068604
1519402507376,-0.359375,0.949951,-0.068115
1519402507430,-0.358887,0.951904,-0.069824
1519402507463,-0.357910,0.949463,-0.066650
1519402507520,-0.358154,0.952393,-0.067871
1519402507523,-0.356445,0.953125,-0.069336
1519402507595,-0.358643,0.951172,-0.070313
1519402507604,-0.357666,0.953125,-0.068604
1519402507712,-0.358154,0.951660,-0.069336
1519402507715,-0.358398,0.952637,-0.068604
1519402507718,-0.360107,0.951660,-0.071289
1519402507830,-0.360107,0.951660,-0.068359
1519402507836,-0.357422,0.950928,-0.068604
1519402507841,-0.359375,0.950439,-0.068604
1519402507844,-0.359375,0.952148,-0.070313
1519402507847,-0.357910,0.953369,-0.067871
1519402507892,-0.357422,0.948486,-0.061035
1519402507894,-0.359619,0.956787,-0.076904
1519402507958,-0.364746,0.948242,-0.065674
1519402507962,-0.352539,0.944336,-0.060547
1519402508016,-0.363281,0.952148,-0.065186
1519402508023,-0.360596,0.949951,-0.066895
1519402508057,-0.361816,0.947510,-0.063721
1519402508089,-0.357666,0.952393,-0.062744
1519402508128,-0.360352,0.946045,-0.066895
1519402508187,-0.360352,0.954346,-0.065430
1519402508192,-0.361084,0.946533,-0.063721
1519402508249,-0.357422,0.947510,-0.061035
1519402508257,-0.357178,0.968506,-0.068848
1519402508309,-0.361328,0.939941,-0.062988
1519402508316,-0.362061,0.956543,-0.072266
1519402508362,-0.361816,0.951172,-0.065430
1519402508391,-0.360107,0.951172,-0.067871
1519402508422,-0.359619,0.949707,-0.069824
1519402508455,-0.361328,0.949951,-0.065918
1519402508489,-0.357910,0.956787,-0.067871
1519402508521,-0.359131,0.950928,-0.070557
1519402508541,-0.359863,0.944336,-0.064453
1519402508567,-0.358887,0.954346,-0.066162
1519402508625,-0.362061,0.947510,-0.065918
1519402508657,-0.358154,0.950684,-0.069336
1519402508671,-0.359619,0.951416,-0.069336
1519402508715,-0.360107,0.951660,-0.068115
1519402508723,-0.360352,0.951416,-0.070313
1519402508779,-0.359131,0.951904,-0.068115
1519402508811,-0.359131,0.953369,-0.068359
1519402508844,-0.357910,0.951416,-0.069824
1519402508877,-0.358643,0.951904,-0.068359
1519402508910,-0.359131,0.949219,-0.066895
1519402508943,-0.358643,0.953857,-0.068359
1519402508956,-0.359863,0.952148,-0.066406
1519402508989,-0.360840,0.948486,-0.066650
1519402509021,-0.357910,0.951660,-0.067139
1519402509053,-0.356689,0.955322,-0.068115
1519402509110,-0.364746,0.946533,-0.064697
1519402509144,-0.356689,0.952637,-0.069824
1519402509153,-0.358398,0.952881,-0.067627
1519402509202,-0.357666,0.949219,-0.068848
1519402509235,-0.358643,0.953125,-0.068848
1519402509250,-0.360352,0.947998,-0.062988
1519402509292,-0.360596,0.949707,-0.068115
1519402509324,-0.360107,0.950439,-0.067871
1519402509363,-0.359619,0.951660,-0.069336
1519402509374,-0.359863,0.948975,-0.065674
1519402509403,-0.358887,0.952393,-0.068115
1519402509436,-0.360840,0.948486,-0.067871
1519402509468,-0.361084,0.950439,-0.066650
1519402509503,-0.359619,0.952881,-0.068359
1519402509536,-0.359619,0.950439,-0.067139
1519402509569,-0.359375,0.950439,-0.068359
1519402509602,-0.359131,0.951904,-0.069336
1519402509639,-0.360596,0.949707,-0.068604
1519402509671,-0.360352,0.951904,-0.066895
1519402509703,-0.361572,0.949707,-0.065186
1519402509735,-0.358887,0.950195,-0.068359
1519402509769,-0.360596,0.952881,-0.068115
1519402509801,-0.361084,0.951660,-0.066895
1519402509834,-0.358398,0.948975,-0.066895
1519402509865,-0.360352,0.948975,-0.068115
1519402509902,-0.359131,0.953613,-0.068604
1519402509935,-0.359131,0.950684,-0.067627
1519402509968,-0.359619,0.951416,-0.069824
1519402510000,-0.359375,0.950195,-0.066650
1519402510034,-0.361084,0.952148,-0.067383
1519402510066,-0.359131,0.949707,-0.071777
1519402510098,-0.358643,0.952637,-0.070801
1519402510131,-0.357422,0.952637,-0.070557
1519402510164,-0.359131,0.950684,-0.071045
1519402510208,-0.360596,0.950195,-0.067627
1519402510214,-0.359131,0.954102,-0.070068
1519402510272,-0.361328,0.946777,-0.066895
1519402510281,-0.356689,0.952881,-0.071777
1519402510305,-0.359375,0.955322,-0.063721
1519402510339,-0.357178,0.951660,-0.068848
1519402510374,-0.359863,0.947998,-0.066406
1519402510403,-0.359863,0.950684,-0.066162
1519402510436,-0.358643,0.951660,-0.070068
1519402510472,-0.360840,0.946289,-0.065918
1519402510506,-0.358887,0.957764,-0.069580
1519402510538,-0.360107,0.949463,-0.072266
1519402510569,-0.357178,0.946777,-0.059570
1519402510602,-0.357910,0.953125,-0.052979
1519402510636,-0.362061,0.951416,-0.078857
1519402510668,-0.357178,0.947510,-0.058105
1519402510739,-0.358154,0.950439,-0.061035
1519402510743,-0.359863,0.946533,-0.064697
1519402510807,-0.356689,0.955566,-0.060547
1519402510815,-0.359619,0.955078,-0.068115
1519402510845,-0.358887,0.955078,-0.067383
1519402510848,-0.359863,0.950439,-0.067627
1519402510918,-0.359863,0.952637,-0.068848
1519402510922,-0.357178,0.952393,-0.068604
1519402510955,-0.361816,0.949219,-0.063965
1519402510998,-0.358398,0.955811,-0.066650
1519402511030,-0.358154,0.950928,-0.067627
1519402511062,-0.362305,0.948975,-0.063721
1519402511094,-0.359375,0.951660,-0.066162
1519402511129,-0.359863,0.954102,-0.066650
1519402511162,-0.359375,0.950195,-0.068359
1519402511194,-0.360107,0.950195,-0.065674
1519402511227,-0.360107,0.950195,-0.068115
1519402511260,-0.356689,0.954346,-0.068604
1519402511268,-0.360352,0.950928,-0.064941
1519402511319,-0.359131,0.950439,-0.067383
1519402511351,-0.356934,0.954590,-0.069580
1519402511388,-0.363770,0.950195,-0.066895
1519402511425,-0.355713,0.955078,-0.067383
1519402511430,-0.359863,0.951904,-0.066895
1519402511487,-0.360596,0.950195,-0.065430
1519402511520,-0.362061,0.951416,-0.066162
1519402511551,-0.360840,0.947266,-0.061768
1519402511560,-0.362305,0.949219,-0.064941
1519402511616,-0.361328,0.951660,-0.068359
1519402511649,-0.360352,0.949707,-0.067139
1519402511680,-0.361572,0.949219,-0.064453
1519402511712,-0.360596,0.951172,-0.065918
1519402511744,-0.362061,0.949707,-0.067383
1519402511751,-0.360352,0.949951,-0.067627
1519402511804,-0.362305,0.949463,-0.064941
1519402511847,-0.361572,0.949707,-0.065918
1519402511855,-0.358887,0.951172,-0.067871
1519402511905,-0.360352,0.950439,-0.064209
1519402511914,-0.363281,0.949707,-0.064941
1519402511969,-0.362061,0.946777,-0.064453
1519402512002,-0.361572,0.951904,-0.065674
1519402512011,-0.359863,0.947510,-0.064941
1519402512063,-0.361328,0.950195,-0.067139
1519402512097,-0.361816,0.951904,-0.066406
1519402512129,-0.361816,0.951660,-0.067139
1519402512162,-0.359863,0.950928,-0.067871
1519402512198,-0.360107,0.951660,-0.065918
1519402512212,-0.360840,0.950195,-0.066895
1519402512245,-0.362061,0.951416,-0.067383
1519402512277,-0.359863,0.951172,-0.066406
1519402512320,-0.360840,0.948730,-0.064697
1519402512329,-0.360107,0.949951,-0.068115
1519402512385,-0.362061,0.948486,-0.065186
1519402512420,-0.361328,0.952148,-0.066650
1519402512425,-0.362549,0.949219,-0.063965
1519402512481,-0.359863,0.951660,-0.064453
1519402512514,-0.360352,0.949707,-0.064697
1519402512547,-0.362793,0.948730,-0.062744
1519402512578,-0.360107,0.953857,-0.071533
1519402512613,-0.362305,0.950684,-0.072754
1519402512625,-0.359863,0.947754,-0.062744
1519402512658,-0.362305,0.950684,-0.064209
1519402512713,-0.359863,0.949707,-0.065674
1519402512746,-0.360352,0.951172,-0.065430
1519402512753,-0.361328,0.949707,-0.066650
1519402512810,-0.360352,0.949463,-0.069336
1519402512842,-0.360352,0.949463,-0.067627
1519402512875,-0.362061,0.948242,-0.065674
1519402512907,-0.364258,0.950439,-0.065430
1519402512911,-0.361572,0.950684,-0.068848
1519402512967,-0.362549,0.951904,-0.066162
1519402513000,-0.361572,0.950928,-0.063965
1519402513009,-0.362793,0.953125,-0.072021
1519402513061,-0.362061,0.964600,-0.083740
1519402513094,-0.365479,0.951416,-0.059570
1519402513127,-0.365234,0.962891,-0.050781
1519402513160,-0.356445,0.957275,-0.065430
1519402513222,-0.364014,0.927002,-0.070068
1519402513225,-0.359619,0.958740,-0.062744
1519402513282,-0.363525,0.954102,-0.054688
1519402513286,-0.360352,0.942871,-0.056152
1519402513345,-0.363281,0.954102,-0.049561
1519402513353,-0.363770,0.949463,-0.053955
1519402513388,-0.360596,0.953857,-0.049561
1519402513422,-0.365723,0.952148,-0.061035
1519402513437,-0.361084,0.952148,-0.046143
1519402513479,-0.363525,0.948486,-0.033691
1519402513489,-0.358887,0.962158,-0.038818
1519402513545,-0.361572,0.946289,-0.042480
1519402513579,-0.364990,0.965576,-0.054199
1519402513588,-0.362793,0.946289,-0.041504
1519402513643,-0.360840,0.952637,-0.038086
1519402513675,-0.363281,0.954834,-0.048584
1519402513706,-0.369141,0.946045,-0.043701
1519402513739,-0.360107,0.952148,-0.042725
1519402513772,-0.363525,0.956543,-0.043701
1519402513846,-0.364258,0.950195,-0.046387
1519402513854,-0.364746,0.952393,-0.046143
1519402513912,-0.364014,0.952393,-0.044922
1519402513917,-0.365479,0.952148,-0.044922
1519402513967,-0.364258,0.952637,-0.047119
1519402513975,-0.362305,0.950684,-0.044189
1519402513999,-0.364258,0.948486,-0.040283
1519402514031,-0.363770,0.952393,-0.045654
1519402514065,-0.364990,0.950928,-0.045898
1519402514074,-0.365723,0.948975,-0.041260
1519402514127,-0.364258,0.955078,-0.044189
1519402514160,-0.364258,0.951172,-0.041504
1519402514169,-0.362793,0.953125,-0.043457
1519402514229,-0.362305,0.949707,-0.044434
1519402514235,-0.362793,0.950439,-0.038330
1519402514275,-0.363770,0.953125,-0.037109
1519402514308,-0.364502,0.951416,-0.042480
1519402514346,-0.365479,0.953613,-0.041260
1519402514379,-0.365234,0.952881,-0.040771
1519402514412,-0.363281,0.951172,-0.040283
1519402514442,-0.363770,0.950928,-0.040039
1519402514475,-0.363525,0.952393,-0.041992
1519402514506,-0.363281,0.953125,-0.041260
1519402514539,-0.365234,0.951904,-0.041260
1519402514572,-0.364746,0.959229,-0.050781
1519402514605,-0.367676,0.955566,-0.038574
1519402514647,-0.361084,0.958252,-0.034424
1519402514655,-0.361816,0.939697,-0.035645
1519402514716,-0.363037,0.960449,-0.046631
1519402514719,-0.363525,0.954102,-0.041016
1519402514757,-0.362305,0.949707,-0.041748
1519402514815,-0.362061,0.951660,-0.036133
1519402514818,-0.363525,0.946533,-0.035400
1519402514849,-0.362549,0.952393,-0.041504
1519402514882,-0.359619,0.959229,-0.048828
1519402514939,-0.360596,0.951416,-0.038574
1519402514944,-0.361084,0.952148,-0.040771
1519402515003,-0.362305,0.949951,-0.042969
1519402515036,-0.361572,0.952148,-0.041992
1519402515049,-0.361084,0.950684,-0.039795
1519402515082,-0.362305,0.953125,-0.042725
1519402515139,-0.361328,0.950928,-0.046875
1519402515147,-0.357910,0.951660,-0.043213
1519402515196,-0.358398,0.953125,-0.042725
1519402515229,-0.360840,0.957764,-0.048584
1519402515233,-0.361084,0.954590,-0.043701
1519402515289,-0.356934,0.950684,-0.045898
1519402515299,-0.358398,0.950684,-0.045410
1519402515357,-0.359863,0.955566,-0.048340
1519402515373,-0.359375,0.951660,-0.046875
1519402515417,-0.356201,0.953369,-0.044922
1519402515451,-0.359375,0.951904,-0.044922
1519402515485,-0.361328,0.950684,-0.044189
1519402515498,-0.358643,0.954834,-0.044434
1519402515532,-0.359863,0.952881,-0.044434
1519402515565,-0.361328,0.952148,-0.047852
1519402515598,-0.359863,0.951416,-0.045410
1519402515630,-0.360596,0.953125,-0.045410
1519402515663,-0.359375,0.950195,-0.043213
1519402515719,-0.359131,0.952148,-0.043945
1519402515722,-0.359131,0.954590,-0.044922
1519402515777,-0.359619,0.951904,-0.046143
1519402515812,-0.359375,0.953125,-0.045898
1519402515820,-0.360352,0.953613,-0.044434
1519402515846,-0.363281,0.949951,-0.044678
1519402515902,-0.359863,0.951416,-0.043701
1519402515916,-0.359131,0.954102,-0.045898
1519402515948,-0.361816,0.947998,-0.043945
1519402515982,-0.358887,0.958008,-0.048828
1519402516012,-0.361572,0.951904,-0.044189
1519402516043,-0.360840,0.951172,-0.045166
1519402516100,-0.362549,0.952637,-0.046875
1519402516133,-0.361084,0.949707,-0.042725
1519402516139,-0.362793,0.953857,-0.049316
1519402516196,-0.362305,0.952881,-0.047852
1519402516229,-0.364258,0.951416,-0.047607
1519402516262,-0.360596,0.947266,-0.043945
1519402516271,-0.363037,0.954102,-0.042725
1519402516299,-0.362305,0.950928,-0.043945
1519402516340,-0.362061,0.949951,-0.046143
1519402516374,-0.363037,0.953369,-0.043701
1519402516405,-0.363037,0.954102,-0.044678
1519402516438,-0.363037,0.949707,-0.047119
1519402516471,-0.364014,0.951660,-0.046387
1519402516504,-0.365967,0.952393,-0.047607
1519402516535,-0.362549,0.950684,-0.046875
1519402516568,-0.362549,0.948975,-0.044678
1519402516601,-0.363281,0.950928,-0.042969
1519402516635,-0.361572,0.952393,-0.044922
1519402516667,-0.363770,0.950684,-0.047119
1519402516698,-0.364258,0.949951,-0.044678
1519402516739,-0.363770,0.952393,-0.047119
1519402516772,-0.365234,0.950684,-0.047852
1519402516781,-0.364014,0.950684,-0.045898
1519402516832,-0.362305,0.949951,-0.044678
1519402516865,-0.363525,0.949219,-0.043457
1519402516896,-0.362549,0.950684,-0.042969
1519402516968,-0.362549,0.949219,-0.044922
1519402516973,-0.363525,0.953369,-0.047607
1519402517037,-0.362061,0.954346,-0.043213
1519402517045,-0.367188,0.954834,-0.048828
1519402517085,-0.367188,0.937500,-0.042969
1519402517090,-0.361572,0.947754,-0.036377
1519402517119,-0.364746,0.960938,-0.049805
1519402517152,-0.361816,0.937012,-0.035156
1519402517186,-0.363281,0.947266,-0.039063
1519402517216,-0.360596,0.960449,-0.071045
1519402517253,-0.362305,0.957764,-0.072754
1519402517259,-0.366943,0.945313,-0.055420
1519402517317,-0.361816,0.948975,-0.057129
1519402517324,-0.359375,0.952148,-0.060791
1519402517357,-0.364014,0.950439,-0.058594
1519402517414,-0.363770,0.952881,-0.065674
1519402517420,-0.360352,0.953125,-0.062012
1519402517479,-0.362793,0.949951,-0.060303
1519402517512,-0.363281,0.952393,-0.066895
1519402517525,-0.361084,0.951660,-0.063721
1519402517568,-0.364746,0.950684,-0.062744
1519402517600,-0.362305,0.950439,-0.062744
1519402517633,-0.361084,0.947510,-0.059082
1519402517666,-0.363037,0.950684,-0.064697
1519402517696,-0.361816,0.945313,-0.061279
1519402517729,-0.363281,0.953613,-0.065918
1519402517761,-0.361572,0.949219,-0.062012
1519402517796,-0.362061,0.951904,-0.066895
1519402517828,-0.363281,0.947266,-0.064941
1519402517860,-0.361816,0.946777,-0.062500
1519402517893,-0.362061,0.946533,-0.063721
1519402517926,-0.360596,0.951660,-0.071777
1519402517939,-0.360840,0.946289,-0.067383
1519402517997,-0.360596,0.947021,-0.073975
1519402518006,-0.358154,0.950684,-0.083984
1519402518061,-0.359619,0.958252,-0.092773
1519402518092,-0.360107,0.947510,-0.082764
1519402518124,-0.360840,0.946777,-0.081055
1519402518132,-0.356445,0.954102,-0.085938
1519402518195,-0.361084,0.946533,-0.088135
1519402518247,-0.354736,0.953125,-0.093262
1519402518252,-0.359131,0.951416,-0.091797
1519402518307,-0.361084,0.947998,-0.086182
1519402518315,-0.358398,0.949707,-0.087646
1519402518365,-0.359619,0.947266,-0.085205
1519402518370,-0.360596,0.949463,-0.086914
1519402518407,-0.357910,0.948486,-0.085205
1519402518440,-0.359619,0.949707,-0.089355
1519402518473,-0.358154,0.948486,-0.086670
1519402518507,-0.359619,0.947021,-0.086426
1519402518538,-0.361084,0.949219,-0.087646
1519402518570,-0.361572,0.947998,-0.091309
1519402518600,-0.361084,0.949951,-0.090576
1519402518632,-0.359375,0.948730,-0.089600
1519402518664,-0.358887,0.947998,-0.088623
1519402518696,-0.359863,0.949463,-0.089844
1519402518727,-0.357666,0.952881,-0.091064
1519402518760,-0.359619,0.945801,-0.086426
1519402518801,-0.360352,0.961426,-0.096680
1519402518835,-0.361084,0.934570,-0.084473
1519402518868,-0.357666,0.951904,-0.090332
1519402518900,-0.361084,0.953613,-0.087402
1519402518909,-0.360840,0.946533,-0.087646
1519402518959,-0.358643,0.949951,-0.089600
1519402518990,-0.361572,0.948730,-0.088135
1519402518996,-0.362061,0.949707,-0.087891
1519402519055,-0.359375,0.948975,-0.088379
1519402519088,-0.359131,0.948975,-0.086670
1519402519119,-0.358643,0.949219,-0.085205
1519402519152,-0.359619,0.949707,-0.087646
1519402519167,-0.360352,0.948242,-0.086182
1519402519199,-0.360596,0.948975,-0.088623
1519402519231,-0.359131,0.947021,-0.085693
1519402519289,-0.358643,0.944336,-0.088135
1519402519321,-0.358643,0.944580,-0.086182
1519402519330,-0.356934,0.959473,-0.109131
1519402519389,-0.360352,0.950195,-0.094727
1519402519419,-0.360596,0.944092,-0.091797
1519402519451,-0.359619,0.949219,-0.094238
1519402519484,-0.361328,0.945068,-0.094727
1519402519492,-0.357910,0.949463,-0.098145
1519402519541,-0.359375,0.944092,-0.099365
1519402519582,-0.355713,0.949707,-0.097168
1519402519591,-0.356934,0.951172,-0.100586
1519402519642,-0.356689,0.950439,-0.102295
1519402519650,-0.357910,0.947998,-0.103027
1519402519703,-0.360107,0.947510,-0.103027
1519402519736,-0.354980,0.949219,-0.106201
1519402519743,-0.353271,0.944336,-0.101807
1519402519801,-0.353027,0.948730,-0.106201
1519402519833,-0.351807,0.952148,-0.110107
1519402519879,-0.349121,0.949219,-0.116211
1519402519887,-0.347900,0.948242,-0.114258
1519402519946,-0.350342,0.948975,-0.117188
1519402519954,-0.350830,0.947998,-0.109131
1519402519986,-0.350586,0.944824,-0.116455
1519402520016,-0.346680,0.950928,-0.130615
1519402520089,-0.347900,0.951660,-0.138184
1519402520097,-0.343506,0.951660,-0.136475
1519402520155,-0.345459,0.949707,-0.137207
1519402520163,-0.345947,0.947510,-0.135742
1519402520207,-0.345703,0.952393,-0.135498
1519402520219,-0.350830,0.944580,-0.142578
1519402520227,-0.343994,0.946777,-0.123779
1519402520284,-0.335449,0.959717,-0.146240
1519402520315,-0.338623,0.935791,-0.137451
1519402520323,-0.335693,0.952637,-0.136475
1519402520361,-0.334961,0.956055,-0.137939
1519402520394,-0.335205,0.951904,-0.141846
1519402520425,-0.340332,0.950684,-0.135010
1519402520484,-0.339844,0.946533,-0.129150
1519402520516,-0.339111,0.947021,-0.140625
1519402520524,-0.340820,0.951416,-0.139160
1519402520580,-0.343994,0.947754,-0.133545
1519402520612,-0.343750,0.948730,-0.135742
1519402520645,-0.341309,0.950195,-0.137939
1519402520654,-0.341553,0.948486,-0.136230
1519402520704,-0.337402,0.949951,-0.136963
1519402520714,-0.339600,0.947266,-0.133057
1519402520739,-0.339844,0.950195,-0.138916
1519402520806,-0.338867,0.942383,-0.131348
1519402520814,-0.340088,0.941162,-0.127441
1519402520865,-0.340332,0.949219,-0.143799
1519402520897,-0.337891,0.953125,-0.155762
1519402520929,-0.337158,0.952148,-0.157227
1519402520962,-0.337646,0.947021,-0.151367
1519402520995,-0.342041,0.948730,-0.150879
1519402521028,-0.341309,0.950439,-0.150391
1519402521059,-0.338867,0.946289,-0.148682
1519402521093,-0.339600,0.945801,-0.151123
1519402521128,-0.341309,0.946045,-0.145996
1519402521158,-0.340576,0.946289,-0.143555
1519402521173,-0.339355,0.947754,-0.147217
1519402521229,-0.341309,0.948975,-0.152344
1519402521235,-0.341309,0.948486,-0.152344
1519402521289,-0.339844,0.947998,-0.147949
1519402521297,-0.341064,0.944336,-0.147217
1519402521323,-0.341553,0.947510,-0.142578
1519402521385,-0.343994,0.944092,-0.151855
1519402521412,-0.338135,0.949707,-0.153076
1519402521444,-0.338623,0.945313,-0.149170
1519402521477,-0.342041,0.947754,-0.151123
1519402521509,-0.343750,0.942627,-0.150635
1519402521542,-0.340820,0.947998,-0.147949
1519402521575,-0.343018,0.951172,-0.152344
1519402521589,-0.341797,0.955566,-0.156250
1519402521622,-0.341797,0.960449,-0.167969
1519402521680,-0.338867,0.947021,-0.132568
1519402521711,-0.339844,0.953125,-0.121094
1519402521722,-0.343994,0.945068,-0.105957
1519402521769,-0.339111,0.965576,-0.123779
1519402521823,-0.342529,0.971924,-0.136230
1519402521832,-0.342529,0.940430,-0.063477
1519402521886,-0.341309,0.954590,-0.027832
1519402521893,-0.335449,0.937500,-0.025635
1519402521947,-0.329834,0.958496,-0.026611
1519402521954,-0.342285,0.959473,-0.030762
1519402521984,-0.342041,0.956299,-0.028809
1519402522025,-0.338623,0.960205,-0.037842
1519402522058,-0.339844,0.963379,-0.042480
1519402522094,-0.339600,0.955322,-0.032715
1519402522126,-0.336426,0.961182,-0.036865
1519402522133,-0.339355,0.957520,-0.034912
1519402522191,-0.338623,0.964355,-0.034668
1519402522222,-0.340088,0.962402,-0.047363
1519402522254,-0.339355,0.958496,-0.039551
1519402522291,-0.338623,0.958740,-0.044434
1519402522297,-0.339600,0.964111,-0.048340
1519402522352,-0.337402,0.957275,-0.043945
1519402522383,-0.338379,0.964600,-0.045166
1519402522389,-0.341309,0.958496,-0.043945
1519402522439,-0.333496,0.960693,-0.032471
1519402522471,-0.337158,0.957520,-0.049561
1519402522505,-0.336914,0.958984,-0.042236
1519402522537,-0.338867,0.963867,-0.040527
1519402522568,-0.343506,0.948730,-0.037354
1519402522601,-0.341797,0.959473,-0.047607
1519402522634,-0.338867,0.971680,-0.052490
1519402522667,-0.338867,0.948486,-0.042725
1519402522701,-0.342285,0.955566,-0.048584
1519402522733,-0.340332,0.971191,-0.047119
1519402522767,-0.342285,0.959961,-0.047852
1519402522801,-0.339844,0.954834,-0.048584
1519402522835,-0.340332,0.959473,-0.043701
1519402522843,-0.339355,0.971924,-0.045166
1519402522893,-0.343506,0.948975,-0.042725
1519402522924,-0.338623,0.969727,-0.046631
1519402522931,-0.341309,0.959961,-0.049072
1519402522989,-0.340332,0.953125,-0.048828
1519402523022,-0.339355,0.968994,-0.047119
1519402523034,-0.340820,0.956299,-0.038330
1519402523089,-0.343750,0.952637,-0.044189
1519402523155,-0.339111,0.972656,-0.046631
1519402523160,-0.343018,0.955322,-0.043457
1519402523225,-0.336670,0.954346,-0.045898
1519402523324,-0.341553,0.968506,-0.047363
1519402523357,-0.343018,0.954834,-0.043213
1519402523365,-0.338623,0.967529,-0.049561
1519402523374,-0.341553,0.958252,-0.046631
1519402523382,-0.343506,0.969727,-0.058105
1519402523389,-0.346436,0.956055,-0.052490
1519402523419,-0.337158,0.963867,-0.037598
1519402523422,-0.335693,0.964844,-0.038086
1519402523452,-0.336914,0.949463,-0.025146
1519402523486,-0.338379,0.954346,-0.033691
1519402523517,-0.334961,0.983154,-0.038818
1519402523550,-0.340820,0.944336,-0.033936
1519402523584,-0.341064,0.956055,-0.042480
1519402523617,-0.345947,0.948242,-0.042480
1519402523658,-0.345947,0.990967,-0.079590
1519402523690,-0.354980,0.946045,-0.069824
1519402523718,-0.343506,0.978516,-0.064941
1519402523753,-0.345703,0.953369,-0.061768
1519402523786,-0.344482,0.952881,-0.062012
1519402523819,-0.340576,0.961426,-0.054443
1519402523852,-0.342773,0.958496,-0.050537
1519402523882,-0.344238,0.957275,-0.046631
1519402523915,-0.344727,0.960205,-0.048340
1519402523948,-0.343018,0.956787,-0.056641
1519402523981,-0.344971,0.958740,-0.058838
1519402524020,-0.345947,0.957520,-0.060059
1519402524080,-0.347656,0.959229,-0.059814
1519402524086,-0.344482,0.961182,-0.051270
1519402524140,-0.346436,0.952881,-0.043945
1519402524145,-0.340820,0.957275,-0.038330
1519402524200,-0.337891,0.960205,-0.035156
1519402524208,-0.335449,0.958740,-0.028320
1519402524262,-0.336182,0.960693,-0.031006
1519402524267,-0.339600,0.958008,-0.035156
1519402524323,-0.341064,0.958252,-0.035400
1519402524332,-0.341553,0.958496,-0.039795
1519402524391,-0.343262,0.959229,-0.044189
1519402524412,-0.346436,0.957275,-0.046143
1519402524415,-0.346436,0.957520,-0.045654
1519402524473,-0.344971,0.961426,-0.050293
1519402524481,-0.344482,0.958984,-0.043457
1519402524511,-0.342529,0.956543,-0.043945
1519402524569,-0.340332,0.959229,-0.040283
1519402524580,-0.342041,0.952637,-0.039795
1519402524633,-0.340576,0.969238,-0.045654
1519402524666,-0.341309,0.956787,-0.035645
1519402524698,-0.346680,0.956055,-0.046631
1519402524729,-0.344238,0.956787,-0.046387
1519402524762,-0.346191,0.955078,-0.040039
1519402524794,-0.345703,0.945068,-0.044189
1519402524827,-0.342285,0.965332,-0.044922
1519402524843,-0.345459,0.957764,-0.041748
1519402524901,-0.343262,0.960693,-0.041504
1519402524909,-0.340576,0.956299,-0.037354
1519402524960,-0.344238,0.961426,-0.037842
1519402525000,-0.343994,0.958740,-0.036621
1519402525008,-0.343750,0.958252,-0.041992
1519402525058,-0.343018,0.959229,-0.044434
1519402525066,-0.341309,0.957275,-0.043213
1519402525116,-0.345215,0.959717,-0.044678
1519402525148,-0.344727,0.960205,-0.039551
1519402525156,-0.343018,0.955566,-0.039063
1519402525212,-0.344727,0.956543,-0.041504
1519402525245,-0.343994,0.959473,-0.042236
1519402525258,-0.339844,0.964355,-0.043945
1519402525315,-0.342773,0.958252,-0.044922
1519402525320,-0.347168,0.958008,-0.044189
1519402525379,-0.345459,0.962891,-0.050049
1519402525412,-0.342773,0.959961,-0.045410
1519402525423,-0.343750,0.953613,-0.045410
1519402525480,-0.343994,0.958984,-0.043945
1519402525489,-0.347656,0.956055,-0.039063
1519402525538,-0.344238,0.959473,-0.041504
1519402525571,-0.341553,0.955811,-0.039307
1519402525582,-0.342285,0.961670,-0.046875
1519402525629,-0.342041,0.957764,-0.046387
1519402525662,-0.349121,0.954102,-0.040039
1519402525677,-0.347900,0.960449,-0.046875
1519402525734,-0.352783,0.955322,-0.040527
1519402525742,-0.343994,0.957764,-0.043457
1519402525792,-0.341064,0.961182,-0.043701
1519402525826,-0.345459,0.958496,-0.040771
1519402525859,-0.344727,0.960693,-0.039307
1519402525891,-0.346191,0.953857,-0.033936
1519402525922,-0.347656,0.958252,-0.036621
1519402525957,-0.350342,0.957275,-0.037598
1519402525991,-0.348145,0.957275,-0.040039
1519402526022,-0.344482,0.956055,-0.037109
1519402526055,-0.346680,0.957520,-0.035400
1519402526061,-0.348389,0.957275,-0.035156
1519402526115,-0.348145,0.958984,-0.034180
1519402526147,-0.348145,0.957764,-0.031738
1519402526153,-0.346436,0.956299,-0.032959
1519402526210,-0.343506,0.958252,-0.035889
1519402526243,-0.346191,0.957520,-0.035400
1519402526365,-0.347412,0.957031,-0.035400
1519402526374,-0.349121,0.954346,-0.032959
1519402526484,-0.347412,0.948486,-0.026367
1519402526492,-0.346436,0.950439,-0.031982
1519402526597,-0.349365,0.972656,-0.065186
1519402526606,-0.348145,0.959229,-0.058838
1519402526614,-0.349854,0.955811,-0.042480
1519402526623,-0.347656,0.957031,-0.043457
1519402526626,-0.349365,0.958008,-0.047607
1519402526629,-0.347900,0.957764,-0.044189
1519402526632,-0.345215,0.954346,-0.045654
1519402526637,-0.347900,0.956055,-0.046143
1519402526641,-0.348633,0.960449,-0.047363
1519402526701,-0.350098,0.956299,-0.045410
1519402526732,-0.349854,0.958008,-0.050781
1519402526737,-0.349854,0.957520,-0.048584
1519402526790,-0.350098,0.953857,-0.041260
1519402526823,-0.346924,0.961426,-0.041016
1519402526855,-0.343262,0.957275,-0.036865
1519402526893,-0.347656,0.950928,-0.046875
1519402526902,-0.356934,0.962158,-0.047852
1519402526951,-0.352051,0.970703,-0.043701
1519402527000,-0.343506,0.957520,-0.043213
1519402527008,-0.339600,0.950928,-0.045654
1519402527059,-0.343750,0.947754,-0.039551
1519402527091,-0.359131,0.953369,-0.045654
1519402527100,-0.361816,0.962402,-0.042969
1519402527154,-0.350830,0.963379,-0.036621
1519402527187,-0.337646,0.957275,-0.046387
1519402527220,-0.340332,0.954834,-0.049561
1519402527229,-0.348145,0.953369,-0.040039
1519402527277,-0.352783,0.955811,-0.031006
1519402527284,-0.357422,0.958496,-0.039795
1519402527318,-0.350342,0.955078,-0.039307
1519402527376,-0.344727,0.957520,-0.044434
1519402527385,-0.343506,0.956787,-0.054688
1519402527439,-0.348389,0.954590,-0.040771
1519402527471,-0.351807,0.957764,-0.038086
1519402527505,-0.363770,0.958984,-0.061279
1519402527514,-0.345947,0.963623,-0.038818
1519402527557,-0.348633,0.949219,-0.039551
1519402527617,-0.343262,0.968018,-0.043945
1519402527619,-0.348633,0.965820,-0.050781
1519402527677,-0.347900,0.956543,-0.044922
1519402527682,-0.352783,0.960938,-0.042725
1519402527740,-0.351563,0.951660,-0.043701
1519402527744,-0.347412,0.959717,-0.052246
1519402527803,-0.349121,0.956787,-0.046387
1519402527805,-0.348877,0.957275,-0.047363
1519402527862,-0.349609,0.956787,-0.046631
1519402527865,-0.351318,0.954590,-0.044189
1519402527897,-0.348877,0.957764,-0.044678
1519402527955,-0.347412,0.957764,-0.046387
1519402527961,-0.352539,0.952881,-0.046875
1519402528018,-0.348877,0.960205,-0.046387
1519402528051,-0.351074,0.955322,-0.043945
1519402528083,-0.350342,0.951172,-0.047607
1519402528115,-0.348877,0.960205,-0.044189
1519402528173,-0.352539,0.951904,-0.042480
1519402528175,-0.349609,0.960205,-0.049805
1519402528238,-0.350342,0.958984,-0.047363
1519402528240,-0.350586,0.955566,-0.042480
1519402528298,-0.350342,0.955078,-0.042969
1519402528302,-0.351318,0.955322,-0.045166
1519402528337,-0.350830,0.958008,-0.045166
1519402528370,-0.350098,0.957764,-0.044678
1519402528377,-0.351563,0.955078,-0.044922
1519402528434,-0.349365,0.956787,-0.042480
1519402528466,-0.350830,0.958008,-0.047852
1519402528498,-0.350098,0.955811,-0.043701
1519402528530,-0.351563,0.958008,-0.046631
1519402528563,-0.350098,0.955566,-0.044678
1519402528596,-0.349609,0.957275,-0.040039
1519402528609,-0.350586,0.962158,-0.043213
1519402528667,-0.352539,0.951172,-0.044922
1519402528699,-0.352539,0.953125,-0.044434
1519402528707,-0.352539,0.957275,-0.042236
1519402528764,-0.352539,0.956543,-0.038574
1519402528795,-0.353516,0.946533,-0.030029
1519402528837,-0.353027,0.960205,-0.039307
1519402528890,-0.352539,0.956787,-0.035889
1519402528892,-0.353516,0.952393,-0.037598
1519402528952,-0.352295,0.955322,-0.035400
1519402528954,-0.351807,0.954346,-0.036865
1519402528957,-0.352051,0.957520,-0.036377
1519402529016,-0.351074,0.958496,-0.036865
1519402529030,-0.354980,0.953369,-0.036133
1519402529084,-0.352051,0.956299,-0.038086
1519402529091,-0.352051,0.955078,-0.034180
1519402529157,-0.355957,0.953613,-0.033691
1519402529159,-0.356445,0.954590,-0.034180
1519402529219,-0.355957,0.953857,-0.034180
1519402529225,-0.353760,0.954834,-0.036865
1519402529281,-0.356445,0.956055,-0.038330
1519402529287,-0.356201,0.957031,-0.040039
1519402529344,-0.357178,0.953857,-0.033203
1519402529417,-0.354736,0.955322,-0.038818
1519402529420,-0.356689,0.953125,-0.033691
1519402529534,-0.354980,0.956543,-0.034668
1519402529540,-0.354492,0.956543,-0.034912
1519402529546,-0.355225,0.952148,-0.033203
1519402529653,-0.357910,0.954834,-0.034424
1519402529657,-0.355713,0.955322,-0.037354
1519402529705,-0.357422,0.957520,-0.035889
1519402529709,-0.357178,0.951660,-0.029297
1519402529712,-0.357178,0.963379,-0.034668
1519402529717,-0.356689,0.950439,-0.027100
1519402529723,-0.358887,0.961426,-0.032227
1519402529769,-0.363525,0.971924,-0.046631
1519402529772,-0.339111,0.927734,0.009033
1519402529816,-0.364990,0.943359,-0.022461
1519402529849,-0.350098,0.945557,-0.013916
1519402529883,-0.357666,0.971924,-0.028564
1519402529916,-0.361328,0.948975,-0.019531
1519402529922,-0.355713,0.945068,-0.012451
1519402529979,-0.357666,0.958496,-0.013916
1519402530011,-0.358643,0.952637,-0.017090
1519402530044,-0.354980,0.955322,-0.006836
1519402530075,-0.356445,0.960205,-0.015137
1519402530118,-0.361328,0.947266,-0.009277
1519402530123,-0.354980,0.956299,-0.007568
1519402530179,-0.356689,0.956543,-0.006836
1519402530239,-0.356689,0.958252,-0.009521
1519402530244,-0.356689,0.954834,-0.004150
1519402530303,-0.356689,0.954102,-0.000488
1519402530309,-0.357178,0.953369,-0.004150
1519402530362,-0.358643,0.957031,-0.007324
1519402530365,-0.356934,0.958252,-0.006348
1519402530395,-0.354492,0.945801,0.001953
1519402530428,-0.353027,0.959229,-0.005371
1519402530461,-0.356934,0.958252,-0.012207
1519402530493,-0.355225,0.958252,-0.008789
1519402530501,-0.357666,0.955322,-0.007568
1519402530558,-0.355713,0.957275,-0.008789
1519402530590,-0.357422,0.956543,-0.009033
1519402530623,-0.355957,0.955322,-0.008057
1519402530656,-0.356934,0.957764,-0.011230
1519402530673,-0.353516,0.952393,-0.006348
1519402530702,-0.354980,0.959229,-0.011719
1519402530759,-0.355469,0.955078,-0.008301
1519402530769,-0.354492,0.955811,-0.008545
1519402530825,-0.355469,0.957764,-0.010986
1519402530858,-0.356201,0.957031,-0.009766
1519402530891,-0.355225,0.955078,-0.008057
1519402530923,-0.355225,0.955078,-0.009033
1519402530957,-0.356934,0.956055,-0.008789
1519402530990,-0.355225,0.957031,-0.011719
1519402531000,-0.354248,0.957031,-0.009033
1519402531052,-0.357422,0.952637,-0.011230
1519402531060,-0.358398,0.957031,-0.014893
1519402531086,-0.356934,0.958984,-0.016357
1519402531144,-0.358643,0.950928,-0.010742
1519402531152,-0.351318,0.963623,-0.019531
1519402531206,-0.353027,0.951416,-0.005127
1519402531239,-0.353516,0.961914,-0.009766
1519402531271,-0.354736,0.955078,-0.010986
1519402531303,-0.356445,0.955322,-0.008057
1519402531337,-0.356689,0.952393,-0.007813
1519402531370,-0.354248,0.956543,-0.012939
1519402531399,-0.354736,0.955811,-0.014893
1519402531432,-0.356201,0.955078,-0.008789
1519402531465,-0.358154,0.955322,-0.010742
1519402531475,-0.358643,0.955322,-0.010498
1519402531516,-0.356445,0.956299,-0.009277
1519402531548,-0.356689,0.957275,-0.010498
1519402531580,-0.355225,0.953125,-0.008057
1519402531639,-0.354248,0.957764,-0.009521
1519402531648,-0.352539,0.955322,-0.006104
1519402531673,-0.355225,0.955811,-0.007568
1519402531730,-0.359131,0.955566,-0.010986
1519402531739,-0.357178,0.956055,-0.011475
1519402531768,-0.358154,0.956299,-0.011230
1519402531799,-0.355225,0.956787,-0.010254
1519402531832,-0.353516,0.956787,-0.006836
1519402531890,-0.355225,0.955322,-0.008789
1519402531904,-0.357178,0.955566,-0.006348
1519402531937,-0.359131,0.956299,-0.009033
1519402531968,-0.355225,0.955566,-0.011719
1519402532001,-0.358154,0.953857,-0.011719
1519402532034,-0.352295,0.958252,-0.010498
1519402532066,-0.354248,0.955811,-0.006348
1519402532098,-0.354492,0.953613,-0.006104
1519402532167,-0.346191,0.961914,-0.007813
1519402532176,-0.355225,0.955078,0.000000
1519402532223,-0.352051,0.957275,-0.004883
1519402532226,-0.356689,0.961182,-0.010986
1519402532286,-0.359863,0.950928,-0.007324
1519402532299,-0.360840,0.958740,-0.010742
1519402532352,-0.352051,0.961182,-0.005615
1519402532360,-0.357422,0.953125,-0.001221
1519402532414,-0.356934,0.947998,-0.015869
1519402532423,-0.354492,0.967773,-0.017334
1519402532470,-0.356201,0.944580,-0.000488
1519402532476,-0.348877,0.967285,0.008789
1519402532548,-0.356689,0.949951,-0.003174
1519402532556,-0.354004,0.960205,-0.009521
1519402532636,-0.356934,0.952637,-0.007568
1519402532644,-0.360352,0.951416,-0.011230
1519402532653,-0.362305,0.956299,-0.016357
1519402532703,-0.358643,0.962646,-0.016357
1519402532734,-0.355713,0.953613,-0.012939
1519402532742,-0.354980,0.957275,-0.011719
1519402532792,-0.354736,0.957520,-0.008545
1519402532798,-0.353516,0.958252,-0.010010
1519402532851,-0.354492,0.953613,-0.005371
1519402532883,-0.356689,0.956787,-0.011719
1519402532916,-0.355957,0.955811,-0.014893
1519402532950,-0.356689,0.954834,-0.012695
1519402532980,-0.354492,0.958984,-0.011963
1519402533012,-0.355713,0.956055,-0.012451
1519402533044,-0.353271,0.955566,-0.013428
1519402533077,-0.356201,0.952881,-0.006348
1519402533110,-0.356201,0.958008,-0.009277
1519402533123,-0.356201,0.958008,-0.006104
1519402533181,-0.354492,0.954590,-0.007813
1519402533214,-0.357178,0.956543,-0.016113
1519402533218,-0.358643,0.950195,-0.014648
1519402533273,-0.347168,0.959717,-0.007324
1519402533290,-0.353027,0.958008,-0.013428
1519402533318,-0.355469,0.956787,-0.016602
1519402533373,-0.357666,0.952148,-0.013672
1519402533376,-0.356201,0.950928,-0.023438
1519402533433,-0.354736,0.951904,-0.024414
1519402533465,-0.356445,0.952148,-0.031006
1519402533473,-0.359863,0.953857,-0.033936
1519402533529,-0.357910,0.955811,-0.041016
1519402533542,-0.352051,0.957031,-0.042236
1519402533575,-0.355713,0.961670,-0.041260
1519402533608,-0.355957,0.951416,-0.031006
1519402533666,-0.354492,0.959473,-0.045166
1519402533674,-0.345459,0.946289,-0.017090
1519402533727,-0.352051,0.950928,-0.029541
1519402533760,-0.358154,0.954346,-0.034668
1519402533792,-0.352539,0.956055,-0.038818
1519402533794,-0.353271,0.955566,-0.041992
1519402533851,-0.352783,0.954590,-0.035156
1519402533857,-0.352295,0.956055,-0.031982
1519402533890,-0.350098,0.956543,-0.028076
1519402533958,-0.352539,0.956787,-0.035645
1519402533969,-0.351074,0.953125,-0.030273
1519402534011,-0.350830,0.958252,-0.030273
1519402534043,-0.354736,0.956055,-0.026123
1519402534077,-0.354248,0.958252,-0.033203
1519402534110,-0.353271,0.955078,-0.036133
1519402534143,-0.352051,0.957764,-0.031250
1519402534174,-0.353027,0.955078,-0.028564
1519402534207,-0.351807,0.956299,-0.030518
1519402534240,-0.352295,0.956055,-0.027588
1519402534272,-0.350098,0.959473,-0.030762
1519402534305,-0.350830,0.956543,-0.029297
1519402534342,-0.348145,0.957520,-0.029297
1519402534375,-0.348389,0.961182,-0.030029
1519402534381,-0.350830,0.957031,-0.028320
1519402534422,-0.355713,0.953125,-0.032715
1519402534455,-0.353271,0.954590,-0.029053
1519402534488,-0.355469,0.955078,-0.031250
1519402534519,-0.354004,0.954590,-0.035645
1519402534552,-0.355713,0.958496,-0.034424
1519402534585,-0.350586,0.955322,-0.029785
1519402534617,-0.346436,0.956543,-0.029297
1519402534653,-0.352051,0.953369,-0.026611
1519402534687,-0.352295,0.955811,-0.028076
1519402534718,-0.354736,0.954590,-0.030762
1519402534751,-0.352539,0.960205,-0.032471
1519402534783,-0.351807,0.955322,-0.031006
1519402534816,-0.353760,0.955322,-0.032471
1519402534848,-0.352051,0.958008,-0.035156
1519402534854,-0.354736,0.955811,-0.031982
1519402534913,-0.351807,0.956055,-0.028320
1519402534946,-0.353271,0.952637,-0.029053
1519402534955,-0.350586,0.956299,-0.030762
1519402535007,-0.352783,0.953369,-0.031738
1519402535041,-0.354980,0.955078,-0.031982
1519402535074,-0.352539,0.955811,-0.031494
1519402535107,-0.354004,0.958740,-0.032715
1519402535138,-0.354004,0.952637,-0.031494
1519402535171,-0.353271,0.956299,-0.031006
1519402535185,-0.354492,0.956787,-0.032715
1519402535242,-0.352051,0.958496,-0.031494
1519402535271,-0.351074,0.956055,-0.029541
1519402535303,-0.353271,0.955566,-0.032959
1519402535339,-0.353516,0.958008,-0.033447
1519402535368,-0.351807,0.954590,-0.028809
1519402535405,-0.352051,0.958740,-0.030518
1519402535434,-0.352783,0.957520,-0.035400
1519402535442,-0.354248,0.948730,-0.029053
1519402535493,-0.350342,0.963135,-0.034912
1519402535526,-0.354004,0.953125,-0.030029
1519402535535,-0.355713,0.956543,-0.033936
1519402535588,-0.353271,0.955078,-0.030029
1519402535604,-0.353760,0.953369,-0.029785
1519402535635,-0.354248,0.951904,-0.031982
1519402535706,-0.352051,0.957764,-0.032227
1519402535714,-0.351074,0.956543,-0.028809
1519402535772,-0.352295,0.954102,-0.028076
1519402535780,-0.352783,0.954102,-0.031494
1519402535807,-0.354736,0.956543,-0.031738
1519402535840,-0.353271,0.955322,-0.031250
1519402535874,-0.353516,0.952393,-0.029785
1519402535906,-0.353760,0.959229,-0.033691
1519402535948,-0.353760,0.956055,-0.032959
1519402535980,-0.353027,0.956055,-0.032227
1519402535989,-0.354980,0.957764,-0.033203
1519402536037,-0.354492,0.958008,-0.033447
1519402536071,-0.351807,0.954590,-0.029541
1519402536080,-0.350586,0.956055,-0.028809
1519402536136,-0.352295,0.956787,-0.030762
1519402536169,-0.352539,0.957520,-0.030518
1519402536200,-0.354248,0.953125,-0.031494
1519402536233,-0.354004,0.954590,-0.031982
1519402536266,-0.353760,0.955078,-0.032471
1519402536297,-0.352539,0.957275,-0.030762
1519402536330,-0.351318,0.958008,-0.030273
1519402536363,-0.352295,0.954590,-0.030518
1519402536394,-0.354004,0.957031,-0.031982
1519402536402,-0.351074,0.955811,-0.030518
1519402536465,-0.353271,0.954346,-0.028320
1519402536517,-0.351807,0.955566,-0.029541
1519402536521,-0.356445,0.956787,-0.033691
1519402536554,-0.353516,0.958496,-0.034424
1519402536562,-0.350342,0.955322,-0.029297
1519402536621,-0.357422,0.952637,-0.034668
1519402536653,-0.353760,0.956055,-0.031250
1519402536660,-0.348389,0.963379,-0.031006
1519402536717,-0.352539,0.948975,-0.027100
1519402536750,-0.355957,0.958496,-0.035889
1519402536783,-0.355469,0.955566,-0.034668
1519402536814,-0.354248,0.956055,-0.033936
1519402536829,-0.354248,0.953125,-0.034912
1519402536862,-0.352783,0.960205,-0.036621
1519402536895,-0.353516,0.954834,-0.032471
1519402536927,-0.353516,0.955811,-0.031494
1519402536985,-0.354736,0.954834,-0.035400
1519402536993,-0.356445,0.960205,-0.041992
1519402537042,-0.355225,0.950684,-0.033691
1519402537045,-0.354736,0.956543,-0.034912
1519402537076,-0.352051,0.956543,-0.036865
1519402537139,-0.354004,0.953125,-0.036133
1519402537148,-0.352783,0.956055,-0.033691
1519402537200,-0.355225,0.957764,-0.035889
1519402537233,-0.356934,0.954590,-0.033691
1519402537247,-0.353027,0.954834,-0.036621
1519402537280,-0.352295,0.955811,-0.035400
1519402537312,-0.354004,0.953613,-0.034668
1519402537345,-0.356201,0.958496,-0.034912
1519402537378,-0.355713,0.952148,-0.032227
1519402537436,-0.354248,0.956543,-0.030518
1519402537467,-0.354492,0.954102,-0.030762
1519402537473,-0.355469,0.957031,-0.024902
1519402537531,-0.356934,0.955811,-0.024414
1519402537543,-0.355469,0.953125,-0.025635
1519402537567,-0.354492,0.958252,-0.024170
1519402537625,-0.357666,0.953857,-0.026611
1519402537634,-0.354248,0.953369,-0.022949
1519402537672,-0.356201,0.959229,-0.025879
1519402537726,-0.355713,0.954590,-0.021729
1519402537732,-0.356445,0.955811,-0.021240
1519402537760,-0.354492,0.952393,-0.018066
1519402537799,-0.356201,0.956055,-0.020508
1519402537830,-0.358643,0.952393,-0.022461
1519402537864,-0.354492,0.958252,-0.027100
1519402537897,-0.358887,0.954590,-0.017578
1519402537931,-0.357910,0.956787,-0.022461
1519402537965,-0.357178,0.955322,-0.021484
1519402537997,-0.356934,0.953125,-0.020020
1519402538030,-0.357422,0.958984,-0.020020
1519402538061,-0.356445,0.953613,-0.020996
1519402538103,-0.356445,0.957520,-0.021973
1519402538135,-0.357666,0.952148,-0.016602
1519402538143,-0.359131,0.955566,-0.019287
1519402538197,-0.358154,0.956055,-0.020020
1519402538230,-0.360352,0.952637,-0.018799
1519402538264,-0.357422,0.955566,-0.020020
1519402538297,-0.357178,0.956787,-0.022217
1519402538329,-0.358398,0.951904,-0.021484
1519402538361,-0.358887,0.954590,-0.022217
1519402538394,-0.359863,0.954590,-0.020752
1519402538427,-0.356689,0.956055,-0.019531
1519402538460,-0.359131,0.952881,-0.019287
1519402538492,-0.359131,0.951660,-0.021729
1519402538505,-0.358398,0.958740,-0.021973
