1519402411782,-0.053223,1.002197,-0.142090
1519402411838,-0.052979,0.999023,-0.148438
1519402411871,-0.050781,1.002441,-0.139893
1519402411903,-0.049805,1.003906,-0.139404
1519402411936,-0.053223,1.001465,-0.143066
1519402411968,-0.053955,1.008301,-0.143799
1519402412005,-0.053467,1.001465,-0.142822
1519402412038,-0.051514,1.001221,-0.142090
1519402412073,-0.052490,1.007568,-0.145020
1519402412109,-0.051270,1.006592,-0.143311
1519402412140,-0.053955,1.002441,-0.141602
1519402412154,-0.051758,1.007080,-0.146240
1519402412186,-0.051514,1.000977,-0.144531
1519402412222,-0.052246,1.008301,-0.134033
1519402412255,-0.052734,1.006836,-0.143066
1519402412288,-0.051514,0.996094,-0.147705
1519402412321,-0.052246,1.002441,-0.151123
1519402412357,-0.052979,1.005127,-0.145508
1519402412365,-0.052979,1.007080,-0.156006
1519402412422,-0.049316,0.995361,-0.132324
1519402412453,-0.052246,1.000977,-0.145264
1519402412486,-0.052246,1.009033,-0.142578
1519402412517,-0.048584,1.007080,-0.147705
1519402412550,-0.051270,1.001465,-0.149170
1519402412564,-0.045898,1.008057,-0.137451
1519402412597,-0.057617,0.992188,-0.150391
1519402412629,-0.045654,0.991211,-0.138428
1519402412688,-0.046875,1.012939,-0.139648
1519402412698,-0.050293,1.009277,-0.148193
1519402412730,-0.054688,1.002441,-0.150146
1519402412762,-0.048340,1.003418,-0.146729
1519402412794,-0.047852,0.996826,-0.155029
1519402412852,-0.051025,0.993652,-0.143799
1519402412855,-0.048096,0.997559,-0.150635
1519402412886,-0.053223,1.011719,-0.158203
1519402412943,-0.052490,1.004883,-0.144043
1519402412945,-0.049316,0.989746,-0.141602
1519402412977,-0.050049,1.000244,-0.148926
1519402413035,-0.054443,1.002686,-0.145996
1519402413067,-0.051270,1.007324,-0.153076
1519402413099,-0.050293,1.002930,-0.143311
1519402413134,-0.052002,1.006104,-0.155273
1519402413167,-0.051270,1.003662,-0.153076
1519402413177,-0.051270,1.006348,-0.155518
1519402413236,-0.049805,0.996338,-0.147217
1519402413244,-0.050293,1.003418,-0.145996
1519402413269,-0.050049,1.009521,-0.144531
1519402413325,-0.050781,1.012207,-0.150879
1519402413366,-0.052490,0.994873,-0.149902
1519402413368,-0.050049,1.007813,-0.149170
1519402413412,-0.048584,1.006836,-0.148926
1519402413445,-0.050537,1.005615,-0.146973
1519402413477,-0.051025,0.995361,-0.147949
1519402413510,-0.051514,1.005127,-0.154297
1519402413543,-0.049561,1.002197,-0.148926
1519402413576,-0.049561,1.005371,-0.147217
1519402413608,-0.049316,1.002197,-0.147217
1519402413636,-0.050537,1.002197,-0.147949
1519402413676,-0.051025,1.006836,-0.145020
1519402413709,-0.050781,1.005615,-0.151367
1519402413741,-0.050781,1.000977,-0.147217
1519402413774,-0.051758,1.003418,-0.153076
1519402413814,-0.051025,1.004883,-0.149658
1519402413847,-0.049805,0.999512,-0.152344
1519402413850,-0.051758,0.996094,-0.148193
1519402413907,-0.052490,1.005859,-0.145996
1519402413909,-0.051025,1.004395,-0.142578
1519402413981,-0.050293,0.999512,-0.150391
1519402414048,-0.052002,1.006348,-0.153320
1519402414049,-0.050781,1.001709,-0.146729
1519402414115,-0.051758,0.999023,-0.154297
1519402414116,-0.052246,1.004883,-0.151367
1519402414126,-0.051514,1.001709,-0.145020
1519402414161,-0.049072,1.008789,-0.147461
1519402414193,-0.049805,1.004395,-0.146973
1519402414207,-0.051270,1.001221,-0.149170
1519402414240,-0.051025,0.999512,-0.147949
1519402414272,-0.051025,0.999756,-0.151855
1519402414329,-0.053467,1.001953,-0.150635
1519402414362,-0.052979,1.005615,-0.150635
1519402414394,-0.049316,1.002441,-0.147217
1519402414427,-0.050781,1.005127,-0.148682
1519402414428,-0.051514,1.003174,-0.145264
1519402414485,-0.050293,1.006348,-0.149414
1519402414487,-0.051758,1.007568,-0.150635
1519402414544,-0.051758,1.000244,-0.150879
1519402414577,-0.051514,1.000488,-0.153320
1519402414609,-0.050293,1.001221,-0.147949
1519402414623,-0.050537,1.003418,-0.145020
1519402414656,-0.052002,1.005127,-0.149170
1519402414696,-0.050781,1.002441,-0.147949
1519402414728,-0.050781,1.002686,-0.149658
1519402414761,-0.052490,1.003174,-0.147461
1519402414796,-0.052002,0.998535,-0.150391
1519402414828,-0.051514,1.002686,-0.148926
1519402414861,-0.053467,1.006836,-0.151123
1519402414915,-0.051758,1.006836,-0.152100
1519402414917,-0.053223,0.999512,-0.150146
1519402414974,-0.051758,1.002441,-0.145020
1519402415007,-0.053467,1.003174,-0.148926
1519402415009,-0.052490,1.003418,-0.146729
1519402415053,-0.050293,1.004395,-0.148926
1519402415086,-0.050293,1.003174,-0.148926
1519402415121,-0.051514,1.000244,-0.149902
1519402415153,-0.052490,1.001709,-0.151367
1519402415186,-0.052979,1.001465,-0.149414
1519402415218,-0.052246,1.000732,-0.149170
1519402415251,-0.052002,1.003906,-0.152344
1519402415283,-0.050293,1.001465,-0.148193
1519402415315,-0.052979,1.002197,-0.150879
1519402415348,-0.052979,1.003662,-0.149902
1519402415382,-0.051514,1.001953,-0.148193
1519402415414,-0.051270,1.000977,-0.148438
1519402415456,-0.051270,1.001465,-0.148926
1519402415488,-0.050293,1.002686,-0.148193
1519402415490,-0.051758,1.002930,-0.148438
1519402415547,-0.052734,1.000732,-0.152832
1519402415551,-0.049805,1.001465,-0.149658
1519402415608,-0.051025,1.002441,-0.146973
1519402415641,-0.053223,1.003174,-0.151611
1519402415673,-0.052246,1.003906,-0.150879
1519402415706,-0.052246,1.002686,-0.148193
1519402415738,-0.051758,1.001953,-0.150391
1519402415771,-0.053955,1.004150,-0.152100
1519402415803,-0.053223,1.001221,-0.148438
1519402415836,-0.051514,1.001465,-0.147461
1519402415850,-0.051270,1.000732,-0.151367
1519402415882,-0.050293,1.006592,-0.149902
1519402415941,-0.050781,1.000244,-0.150146
1519402415977,-0.053711,1.002930,-0.148926
1519402416006,-0.049316,0.999023,-0.152588
1519402416038,-0.050293,1.004395,-0.148438
1519402416071,-0.052002,1.003906,-0.149414
1519402416076,-0.052246,1.003418,-0.154785
1519402416132,-0.049316,1.000732,-0.146240
1519402416138,-0.050049,1.000488,-0.147949
1519402416166,-0.054688,1.000977,-0.150635
1519402416222,-0.051270,1.001953,-0.148438
1519402416236,-0.049805,0.999268,-0.151855
1519402416268,-0.049316,1.006348,-0.147461
1519402416301,-0.052734,1.003174,-0.149170
1519402416333,-0.053223,0.998047,-0.154541
1519402416365,-0.051758,1.000977,-0.152344
1519402416398,-0.051514,1.003906,-0.148438
1519402416431,-0.049316,1.005859,-0.154541
1519402416463,-0.051758,1.001465,-0.156006
1519402416521,-0.049805,1.001709,-0.141602
1519402416553,-0.048828,0.994873,-0.141357
1519402416555,-0.049072,1.004883,-0.147705
1519402416612,-0.049805,1.001465,-0.151367
1519402416653,-0.051270,1.007568,-0.160400
1519402416655,-0.050537,1.002686,-0.159180
1519402416713,-0.049805,0.999268,-0.155518
1519402416715,-0.049561,0.999512,-0.147705
1519402416747,-0.048340,1.009033,-0.149170
1519402416779,-0.048828,0.994385,-0.144287
1519402416818,-0.053467,0.997803,-0.156982
1519402416851,-0.050781,0.997070,-0.148926
1519402416883,-0.049316,1.010010,-0.155762
1519402416918,-0.048828,0.999268,-0.159668
1519402416951,-0.052734,1.004883,-0.158691
1519402416983,-0.048340,0.995850,-0.140625
1519402417016,-0.049805,0.996094,-0.147217
1519402417060,-0.051270,1.012207,-0.152832
1519402417133,-0.051758,1.003418,-0.154053
1519402417134,-0.051514,0.993652,-0.158203
1519402417201,-0.050537,1.008057,-0.154785
1519402417202,-0.050781,1.006104,-0.150879
1519402417243,-0.050537,0.995605,-0.148193
1519402417245,-0.051270,0.998535,-0.156006
1519402417277,-0.052979,1.011230,-0.151123
1519402417295,-0.051514,0.999023,-0.153809
1519402417351,-0.052979,1.006592,-0.151855
1519402417384,-0.052002,1.000244,-0.149902
1519402417416,-0.052979,0.994385,-0.154053
1519402417448,-0.052490,1.003418,-0.156494
1519402417476,-0.050781,1.008301,-0.151611
1519402417509,-0.050781,1.006348,-0.150635
1519402417541,-0.049805,1.008057,-0.151367
1519402417573,-0.053467,0.996582,-0.155029
1519402417606,-0.053223,0.999512,-0.150879
1519402417643,-0.050537,1.007813,-0.151367
1519402417672,-0.050781,1.000977,-0.153564
1519402417704,-0.050293,1.001709,-0.153809
1519402417710,-0.052246,1.007080,-0.150879
1519402417767,-0.051270,1.003662,-0.153320
1519402417800,-0.051025,0.999268,-0.150146
1519402417832,-0.051514,1.007813,-0.145264
1519402417865,-0.052002,1.004639,-0.154053
1519402417878,-0.052979,0.999023,-0.162598
1519402417912,-0.052979,0.999756,-0.156250
1519402417946,-0.049805,1.000977,-0.146729
1519402417979,-0.049805,1.005859,-0.155029
1519402418014,-0.050537,0.998291,-0.152588
1519402418093,-0.047852,1.006592,-0.147217
1519402418094,-0.053955,1.004150,-0.151367
1519402418160,-0.049072,1.002930,-0.153320
1519402418162,-0.048340,0.994141,-0.155518
1519402418220,-0.044189,1.000000,-0.147461
1519402418222,-0.051270,0.996582,-0.134766
1519402418257,-0.049072,1.005127,-0.158447
1519402418297,-0.049072,0.999756,-0.147705
1519402418302,-0.049561,1.008789,-0.156738
1519402418356,-0.050537,0.999023,-0.159180
1519402418363,-0.050293,0.998291,-0.152588
1519402418415,-0.050781,0.994873,-0.147705
1519402418449,-0.049316,1.006592,-0.153076
1519402418480,-0.050537,1.008301,-0.153076
1519402418512,-0.049805,1.001465,-0.152344
1519402418544,-0.050049,1.005127,-0.153320
1519402418577,-0.050537,0.997314,-0.153076
1519402418610,-0.052002,0.998047,-0.151611
1519402418644,-0.050293,1.001709,-0.152100
1519402418674,-0.051270,1.006348,-0.153564
1519402418688,-0.052490,1.001953,-0.151611
1519402418759,-0.052002,1.003174,-0.152100
1519402418769,-0.051025,1.004395,-0.154053
1519402418791,-0.051514,1.000244,-0.152344
1519402418827,-0.049561,0.998291,-0.154297
1519402418857,-0.049805,1.002441,-0.154541
1519402418889,-0.050537,1.002686,-0.151855
1519402418946,-0.049072,1.001709,-0.153809
1519402418951,-0.050293,1.000244,-0.149658
1519402418983,-0.050293,0.997803,-0.151367
1519402419014,-0.050537,1.002441,-0.154541
1519402419049,-0.050537,0.999268,-0.154053
1519402419103,-0.050781,0.995850,-0.152100
1519402419105,-0.048828,1.014404,-0.156494
1519402419167,-0.050293,1.001465,-0.150391
1519402419170,-0.050537,0.995605,-0.150879
1519402419228,-0.050781,1.002686,-0.156250
1519402419236,-0.051025,1.004883,-0.150635
1519402419292,-0.050537,1.003418,-0.147949
1519402419325,-0.050781,0.998291,-0.153320
1519402419357,-0.051514,1.002441,-0.150879
1519402419360,-0.052002,1.007568,-0.157227
1519402419416,-0.050293,0.995117,-0.153564
1519402419418,-0.050049,1.004395,-0.149170
1519402419474,-0.051514,0.995117,-0.151611
1519402419508,-0.051514,1.010986,-0.150146
1519402419521,-0.049805,1.008057,-0.147705
1519402419553,-0.052490,1.000732,-0.154541
1519402419629,-0.049072,0.993408,-0.152100
1519402419633,-0.051758,1.006104,-0.154785
1519402419690,-0.051025,1.006348,-0.155029
1519402419692,-0.050781,0.999023,-0.156006
1519402419748,-0.050293,1.007324,-0.150635
1519402419751,-0.052734,1.000977,-0.148926
1519402419808,-0.052002,1.000977,-0.153076
1519402419866,-0.049316,0.999023,-0.153809
1519402419869,-0.050537,1.007324,-0.153076
1519402419925,-0.050781,1.002197,-0.149658
1519402419929,-0.051758,1.001221,-0.151367
1519402419995,-0.051758,1.000000,-0.156494
1519402420001,-0.051758,1.004395,-0.152832
1519402420004,-0.051025,0.999756,-0.156494
1519402420036,-0.051270,1.007568,-0.152832
1519402420098,-0.049316,0.999512,-0.145508
1519402420100,-0.049072,1.003906,-0.147461
1519402420157,-0.051270,1.000244,-0.148438
1519402420230,-0.050049,0.995605,-0.153809
1519402420233,-0.049561,1.005859,-0.156250
1519402420297,-0.052246,1.001709,-0.156250
1519402420299,-0.049561,1.003418,-0.153076
1519402420363,-0.049561,0.996826,-0.144775
1519402420378,-0.050049,0.999512,-0.154785
1519402420381,-0.049561,0.999023,-0.147217
1519402420411,-0.051270,1.004150,-0.158203
1519402420415,-0.051025,1.002197,-0.152344
1519402420474,-0.049805,1.005127,-0.155273
1519402420507,-0.052490,0.999756,-0.155273
1519402420539,-0.045166,1.010986,-0.158447
1519402420571,-0.049072,0.993652,-0.142578
1519402420605,-0.050293,0.996582,-0.147461
1519402420637,-0.049561,0.996338,-0.155273
1519402420670,-0.052002,1.013916,-0.154053
1519402420702,-0.045898,1.007568,-0.148193
1519402420736,-0.050781,0.995605,-0.168945
1519402420771,-0.054199,1.005615,-0.158447
1519402420783,-0.049561,0.991943,-0.142822
1519402420815,-0.051758,1.002686,-0.146973
1519402420872,-0.051025,1.019287,-0.150635
1519402420904,-0.053467,0.991943,-0.153564
1519402420915,-0.052002,1.003418,-0.150391
1519402420970,-0.049561,0.999023,-0.151123
1519402421002,-0.054932,0.996338,-0.166748
1519402421004,-0.052246,0.999756,-0.163330
1519402421061,-0.051514,1.005859,-0.144775
1519402421064,-0.051025,1.006348,-0.153320
1519402421121,-0.053711,0.998779,-0.150879
1519402421154,-0.050537,0.998047,-0.151855
1519402421187,-0.054443,1.001465,-0.165771
1519402421200,-0.052979,0.995117,-0.163330
1519402421231,-0.050537,1.000732,-0.147217
1519402421265,-0.051514,1.000000,-0.142822
1519402421316,-0.047607,0.995117,-0.149170
1519402421349,-0.059082,0.971436,-0.156738
1519402421381,-0.045166,1.004150,-0.145996
1519402421413,-0.047119,1.004150,-0.136719
1519402421446,-0.048828,0.999268,-0.154541
1519402421478,-0.050537,1.003662,-0.148926
1519402421481,-0.048340,1.005615,-0.164551
1519402421537,-0.047852,1.007813,-0.155029
1519402421570,-0.047119,1.004639,-0.153564
1519402421578,-0.050537,1.006836,-0.156250
1519402421642,-0.046875,0.989746,-0.143799
1519402421644,-0.049561,1.008301,-0.152100
1519402421701,-0.048096,1.007324,-0.155762
1519402421733,-0.049316,0.998535,-0.153809
1519402421766,-0.049072,0.996094,-0.146729
1519402421798,-0.047363,1.004883,-0.153564
1519402421834,-0.048584,1.002197,-0.144775
1519402421842,-0.049805,1.005371,-0.151611
1519402421879,-0.050537,1.002686,-0.155518
1519402421911,-0.049316,1.004883,-0.153320
1519402421943,-0.050537,1.000488,-0.153564
1519402421976,-0.048584,0.998047,-0.148438
1519402422008,-0.048096,1.001465,-0.148193
1519402422066,-0.049805,1.003418,-0.150879
1519402422068,-0.049805,1.002930,-0.151611
1519402422124,-0.048340,1.001221,-0.144775
1519402422157,-0.049072,1.000732,-0.150146
1519402422159,-0.052979,1.003418,-0.151367
1519402422216,-0.049072,0.997314,-0.149170
1519402422249,-0.046875,0.996582,-0.155029
1519402422281,-0.050781,1.011230,-0.154785
1519402422313,-0.048096,1.000488,-0.147949
1519402422346,-0.048340,0.997314,-0.153564
1519402422379,-0.047852,1.001709,-0.147949
1519402422411,-0.048340,1.007568,-0.146729
1519402422425,-0.050049,0.999512,-0.152832
1519402422457,-0.050781,1.001465,-0.156250
1519402422490,-0.050293,0.992676,-0.142822
1519402422547,-0.049805,0.994873,-0.145996
1519402422596,-0.051758,1.007813,-0.158691
1519402422598,-0.051025,1.001221,-0.148926
1519402422630,-0.049316,1.004150,-0.149658
1519402422662,-0.051270,1.006348,-0.149658
1519402422694,-0.050049,1.009766,-0.152344
1519402422727,-0.049805,0.995605,-0.147705
1519402422760,-0.049072,1.000000,-0.143799
1519402422792,-0.048828,0.998779,-0.161865
1519402422825,-0.050049,1.006104,-0.145020
1519402422838,-0.051270,1.003418,-0.153809
1519402422896,-0.048340,0.999756,-0.149414
1519402422929,-0.049561,0.996582,-0.153809
1519402422961,-0.051514,1.002197,-0.150391
1519402422993,-0.048828,1.007813,-0.145508
1519402423026,-0.050049,1.007568,-0.140869
1519402423058,-0.049805,1.001465,-0.141357
1519402423091,-0.049805,1.000488,-0.145508
1519402423123,-0.051758,0.993652,-0.158936
1519402423127,-0.049072,1.008789,-0.159180
1519402423182,-0.048828,1.003906,-0.141602
1519402423214,-0.050781,1.001465,-0.142578
1519402423221,-0.049072,1.003662,-0.147461
1519402423278,-0.048584,1.000000,-0.155518
1519402423311,-0.047119,1.003174,-0.147461
1519402423381,-0.049561,1.008545,-0.148438
1519402423383,-0.053223,0.998047,-0.157715
1519402423448,-0.047852,1.003418,-0.151611
1519402423450,-0.048584,1.001709,-0.151123
1519402423483,-0.046875,0.987793,-0.138184
1519402423485,-0.044434,1.010986,-0.146484
1519402423543,-0.048096,1.016602,-0.162842
1519402423575,-0.050049,0.994629,-0.155029
1519402423607,-0.049316,0.997314,-0.150879
1519402423640,-0.047852,0.996338,-0.145752
1519402423654,-0.052002,1.000732,-0.142822
1519402423686,-0.049316,1.003418,-0.152344
1519402423719,-0.048340,1.007568,-0.149902
1519402423777,-0.049072,1.002930,-0.149414
1519402423785,-0.051270,1.003906,-0.152588
1519402423821,-0.051025,0.998779,-0.150146
1519402423876,-0.052002,0.995361,-0.150146
1519402423879,-0.048584,1.003662,-0.146973
1519402423910,-0.050293,1.002930,-0.146484
1519402423942,-0.048828,0.996582,-0.148926
1519402423974,-0.050049,1.003418,-0.150391
1519402424007,-0.049072,1.003662,-0.147217
1519402424039,-0.048584,1.000977,-0.149658
1519402424081,-0.049805,0.996826,-0.155762
1519402424113,-0.046631,1.010742,-0.147705
1519402424146,-0.050293,0.995850,-0.148193
1519402424178,-0.047119,1.001709,-0.146484
1519402424211,-0.051025,0.994629,-0.151367
1519402424243,-0.051025,1.008057,-0.149658
1519402424276,-0.049316,1.001465,-0.151611
1519402424284,-0.051270,1.001709,-0.148438
1519402424340,-0.049561,1.001953,-0.147949
1519402424372,-0.051270,1.003906,-0.149902
1519402424405,-0.048340,1.006348,-0.148682
1519402424437,-0.048828,0.999023,-0.153320
1519402424451,-0.050293,1.006592,-0.153320
1519402424484,-0.052002,1.001953,-0.143066
1519402424516,-0.050049,0.995361,-0.160889
1519402424549,-0.047363,1.005127,-0.155029
1519402424606,-0.047119,1.005127,-0.136719
1519402424638,-0.051270,1.006104,-0.155518
1519402424671,-0.046143,1.007813,-0.140625
1519402424704,-0.045410,0.996582,-0.160400
1519402424761,-0.048828,0.994141,-0.141113
1519402424764,-0.048584,0.993164,-0.157715
1519402424766,-0.047607,0.995361,-0.162109
1519402424822,-0.049316,1.022217,-0.158203
1519402424882,-0.050293,0.993896,-0.150146
1519402424885,-0.049316,0.998291,-0.155518
1519402424918,-0.049805,1.001221,-0.144287
1519402424951,-0.052246,1.006592,-0.148438
1519402424983,-0.050293,1.004639,-0.150391
1519402425016,-0.048096,1.001465,-0.152344
1519402425048,-0.050293,1.003906,-0.151611
1519402425081,-0.050293,0.999512,-0.153076
1519402425113,-0.048340,1.001465,-0.148438
1519402425156,-0.049561,0.997314,-0.152832
1519402425168,-0.049072,1.008789,-0.145996
1519402425201,-0.048828,1.002441,-0.151855
1519402425234,-0.048828,0.999512,-0.149414
1519402425266,-0.049805,1.000732,-0.150391
1519402425298,-0.049316,1.000244,-0.153076
1519402425331,-0.049316,0.998047,-0.154053
1519402425363,-0.049316,1.002441,-0.150391
1519402425396,-0.051514,1.003662,-0.149414
1519402425428,-0.051270,0.999756,-0.153076
1519402425480,-0.047607,0.997070,-0.153564
1519402425538,-0.051514,1.004883,-0.151123
1519402425542,-0.047363,1.003418,-0.147217
1519402425545,-0.049805,0.997070,-0.156006
1519402425603,-0.049561,1.000244,-0.155518
1519402425611,-0.048584,1.002930,-0.147461
1519402425661,-0.048340,1.003906,-0.145996
1519402425741,-0.050293,1.000488,-0.160889
1519402425744,-0.051514,0.999023,-0.151855
1519402425746,-0.049316,1.001709,-0.153320
1519402425803,-0.049561,0.999756,-0.148926
1519402425811,-0.048340,1.006348,-0.157959
1519402425862,-0.048584,0.996094,-0.153564
1519402425920,-0.048096,0.999756,-0.147217
1519402425922,-0.048340,1.002930,-0.138428
1519402425927,-0.050537,1.003418,-0.150635
1519402425983,-0.049805,1.000244,-0.152832
1519402426041,-0.051270,0.996338,-0.164795
1519402426044,-0.049072,0.996094,-0.162109
1519402426102,-0.051270,0.998779,-0.135742
1519402426104,-0.046875,1.003174,-0.144287
1519402426146,-0.048828,1.003174,-0.150391
1519402426178,-0.046631,1.004883,-0.146973
1519402426211,-0.048340,1.005859,-0.150879
1519402426243,-0.048096,1.000977,-0.154541
1519402426276,-0.049316,0.993896,-0.163086
1519402426308,-0.046631,0.996826,-0.147217
1519402426341,-0.049316,1.014160,-0.154297
1519402426373,-0.052490,1.010742,-0.156982
1519402426406,-0.049316,0.990234,-0.141846
1519402426408,-0.047852,0.994141,-0.143311
1519402426478,-0.050049,1.010254,-0.151611
1519402426546,-0.048584,1.004883,-0.143799
1519402426548,-0.045654,1.001221,-0.146240
1519402426603,-0.053467,1.001709,-0.158447
1519402426606,-0.049316,0.996826,-0.153564
1519402426608,-0.047119,1.000977,-0.155273
1519402426664,-0.050049,1.012207,-0.157959
1519402426696,-0.047607,1.013428,-0.146484
1519402426731,-0.047852,0.992676,-0.140137
1519402426764,-0.050049,0.999756,-0.159668
1519402426796,-0.047363,0.999756,-0.148193
1519402426829,-0.047852,0.998047,-0.145752
1519402426861,-0.048828,1.003906,-0.153320
1519402426893,-0.047852,1.003662,-0.145264
1519402426926,-0.049805,1.006592,-0.142822
1519402426958,-0.049316,1.003174,-0.154297
1519402426972,-0.049805,1.003418,-0.154541
1519402427005,-0.050293,1.000732,-0.144287
1519402427062,-0.050293,0.994629,-0.139160
1519402427065,-0.047119,1.007568,-0.141357
1519402427096,-0.050293,0.999756,-0.145752
1519402427153,-0.049805,1.010498,-0.138428
1519402427156,-0.051270,1.002686,-0.134277
1519402427210,-0.051270,1.001221,-0.128174
1519402427266,-0.052246,1.009521,-0.127441
1519402427268,-0.052246,1.007568,-0.129150
1519402427300,-0.051514,1.000000,-0.120605
1519402427332,-0.048340,1.016846,-0.106934
1519402427365,-0.049561,1.008545,-0.106689
1519402427406,-0.050781,1.013672,-0.091553
1519402427438,-0.053467,1.010010,-0.090576
1519402427471,-0.052979,1.012451,-0.108887
1519402427473,-0.055420,0.996582,-0.088379
1519402427530,-0.055420,1.008057,-0.080811
1519402427562,-0.050293,1.012207,-0.075684
1519402427595,-0.053223,1.015381,-0.079102
1519402427627,-0.054199,1.008301,-0.079590
1519402427660,-0.051270,1.011963,-0.081787
1519402427670,-0.053223,1.008301,-0.081055
1519402427716,-0.052490,1.008789,-0.089844
1519402427749,-0.052734,1.022705,-0.092529
1519402427781,-0.052734,1.006836,-0.085693
1519402427821,-0.051270,1.017822,-0.083252
1519402427853,-0.048828,1.007568,-0.076660
1519402427886,-0.053223,1.008301,-0.081299
1519402427918,-0.052246,1.013184,-0.085938
1519402427951,-0.050781,1.014648,-0.086182
1519402427983,-0.050293,1.012695,-0.085205
1519402428016,-0.051514,1.010742,-0.088867
1519402428048,-0.049561,1.005615,-0.084961
1519402428051,-0.052246,1.013428,-0.089355
1519402428107,-0.051758,1.015625,-0.086670
1519402428140,-0.053955,1.012207,-0.086670
1519402428172,-0.051025,1.011230,-0.083740
1519402428235,-0.052734,1.008301,-0.087891
1519402428237,-0.051270,1.012695,-0.091309
1519402428285,-0.049316,1.010254,-0.084229
1519402428287,-0.052002,1.015381,-0.093506
1519402428319,-0.052246,1.012939,-0.089355
1519402428352,-0.049805,1.007813,-0.086670
1519402428383,-0.052246,1.014404,-0.087646
1519402428441,-0.051758,1.008301,-0.085205
1519402428473,-0.052734,1.016113,-0.089111
1519402428506,-0.051025,1.016846,-0.083008
1519402428538,-0.052490,1.006836,-0.088135
1519402428541,-0.049561,1.008057,-0.086914
1519402428603,-0.053711,1.015381,-0.091797
1519402428636,-0.051025,1.003662,-0.090820
1519402428638,-0.049561,1.011963,-0.090576
1519402428696,-0.053467,1.009277,-0.087646
1519402428699,-0.053467,1.011475,-0.088867
1519402428751,-0.051514,1.013672,-0.089600
1519402428796,-0.049561,1.011963,-0.081299
1519402428798,-0.053223,1.009766,-0.078857
1519402428854,-0.051514,1.014404,-0.091064
1519402428887,-0.054199,1.011719,-0.087402
1519402428920,-0.050537,1.011963,-0.085449
1519402428952,-0.053467,1.007080,-0.089111
1519402428996,-0.055420,1.019775,-0.104004
1519402428998,-0.052979,1.009521,-0.072510
1519402429042,-0.048828,1.019531,-0.086426
1519402429075,-0.051270,1.011719,-0.085205
1519402429107,-0.052246,1.007813,-0.090088
1519402429115,-0.052734,1.006592,-0.081055
1519402429171,-0.050537,1.013916,-0.090332
1519402429203,-0.051270,1.013916,-0.086914
1519402429257,-0.052490,1.013184,-0.089111
1519402429263,-0.052490,1.014893,-0.090332
1519402429308,-0.052246,1.013184,-0.087891
1519402429313,-0.053467,1.011719,-0.086426
1519402429371,-0.049805,1.007568,-0.076416
1519402429403,-0.047607,0.972656,-0.078369
1519402429418,-0.050293,1.000000,-0.087158
1519402429450,-0.049561,1.042969,-0.096436
1519402429482,-0.052246,1.028320,-0.095703
1519402429519,-0.050049,0.992188,-0.078857
1519402429551,-0.050293,1.013672,-0.087646
1519402429621,-0.052002,1.007324,-0.078125
1519402429687,-0.052002,1.013184,-0.081543
1519402429689,-0.048828,1.009033,-0.082031
1519402429723,-0.048828,1.025635,-0.080566
1519402429725,-0.056152,0.993164,-0.089355
1519402429758,-0.051025,1.008057,-0.075928
1519402429762,-0.050781,1.010010,-0.089844
1519402429794,-0.052734,1.008301,-0.082275
1519402429852,-0.052490,1.009766,-0.083252
1519402429885,-0.051025,0.995850,-0.089600
1519402429917,-0.050537,1.023926,-0.079834
1519402429927,-0.050781,1.022217,-0.078613
1519402429984,-0.050049,1.013184,-0.083252
1519402430017,-0.051270,0.998291,-0.085938
1519402430050,-0.052002,0.996826,-0.092041
1519402430082,-0.050049,1.027588,-0.086182
1519402430114,-0.050293,1.017578,-0.082764
1519402430147,-0.049316,1.007080,-0.085449
1519402430180,-0.051025,1.009521,-0.086182
1519402430182,-0.052490,1.012451,-0.085938
1519402430239,-0.050537,1.013916,-0.082275
1519402430276,-0.049805,1.011230,-0.092773
1519402430278,-0.048828,1.011230,-0.084473
1519402430334,-0.048584,1.011230,-0.083740
1519402430367,-0.050293,1.011719,-0.086670
1519402430400,-0.051270,1.013428,-0.101563
1519402430413,-0.050293,1.014160,-0.095215
1519402430446,-0.051025,1.001953,-0.083984
1519402430479,-0.051270,1.016113,-0.083252
1519402430511,-0.050781,1.011230,-0.083740
1519402430543,-0.051025,0.992676,-0.090332
1519402430578,-0.048340,1.024658,-0.087646
1519402430611,-0.049805,1.015869,-0.082031
1519402430643,-0.051758,1.006836,-0.095459
1519402430676,-0.047363,1.009521,-0.090576
1519402430709,-0.047607,1.008057,-0.084717
1519402430741,-0.053467,1.007813,-0.081299
1519402430774,-0.051025,1.014404,-0.089355
1519402430832,-0.046387,1.012451,-0.089111
1519402430834,-0.050781,1.009521,-0.086914
1519402430865,-0.052002,1.010010,-0.091309
1519402430922,-0.048828,1.011963,-0.093018
1519402430925,-0.047363,1.010010,-0.083496
1519402430981,-0.050537,1.008545,-0.084717
1519402431013,-0.048828,1.008789,-0.086670
1519402431027,-0.050049,1.012207,-0.086182
1519402431060,-0.046875,1.015381,-0.086426
1519402431093,-0.048584,1.003662,-0.083984
1519402431160,-0.051025,1.014160,-0.090576
1519402431162,-0.050537,1.011963,-0.083008
1519402431220,-0.049561,1.010986,-0.083496
1519402431222,-0.049561,1.012695,-0.084473
1519402431280,-0.048096,1.009033,-0.082520
1519402431312,-0.047363,1.015137,-0.085938
1519402431345,-0.047363,1.010742,-0.084961
1519402431348,-0.050049,1.008301,-0.086182
1519402431403,-0.047607,1.010742,-0.082275
1519402431406,-0.048584,1.012939,-0.083740
1519402431462,-0.046875,1.010498,-0.080811
1519402431495,-0.047607,1.015137,-0.084961
1519402431527,-0.047363,1.012451,-0.086426
1519402431556,-0.048096,1.008301,-0.090332
1519402431589,-0.047852,1.011475,-0.090820
1519402431621,-0.047363,1.012451,-0.085938
1519402431653,-0.049072,1.012451,-0.088867
1519402431686,-0.048828,1.009766,-0.089111
1519402431718,-0.045654,1.008789,-0.085449
1519402431751,-0.049316,1.010742,-0.087646
1519402431783,-0.048096,1.013428,-0.090820
1519402431816,-0.047363,1.012939,-0.091064
1519402431834,-0.046631,1.008545,-0.086426
1519402431887,-0.046631,1.013672,-0.084961
1519402431889,-0.047607,1.012207,-0.086426
1519402431921,-0.046875,1.013672,-0.087646
1519402431978,-0.046143,1.014404,-0.092041
1519402431986,-0.048584,1.011963,-0.089600
1519402432036,-0.048340,1.010986,-0.088379
1519402432094,-0.049561,1.002441,-0.086670
1519402432097,-0.048340,1.014648,-0.090576
1519402432156,-0.047852,1.006592,-0.092529
1519402432158,-0.046143,1.009277,-0.088867
1519402432190,-0.046143,1.013184,-0.094727
1519402432228,-0.045654,1.014404,-0.102295
1519402432261,-0.048828,1.010010,-0.102539
1519402432293,-0.050049,1.010010,-0.104492
1519402432326,-0.048096,1.005371,-0.106689
1519402432359,-0.049805,1.008301,-0.096436
1519402432391,-0.048340,1.008057,-0.096680
1519402432423,-0.047119,1.013916,-0.098877
1519402432456,-0.046875,1.011719,-0.095703
1519402432489,-0.047119,1.009521,-0.096680
1519402432523,-0.047852,1.008057,-0.099854
1519402432556,-0.046143,1.010254,-0.099121
1519402432588,-0.047363,1.010742,-0.098389
1519402432621,-0.047119,1.010986,-0.102539
1519402432635,-0.048340,1.009277,-0.098145
1519402432667,-0.046631,1.010010,-0.099609
1519402432740,-0.048096,1.003174,-0.101074
1519402432742,-0.046143,1.009766,-0.093750
1519402432807,-0.049561,1.010010,-0.096191
1519402432810,-0.047852,1.008789,-0.094482
1519402432866,-0.046387,1.011230,-0.095703
1519402432869,-0.046875,1.013184,-0.100342
1519402432900,-0.046875,1.009521,-0.094238
1519402432932,-0.046631,1.012207,-0.095703
1519402432966,-0.046143,1.011475,-0.095947
1519402433000,-0.045166,1.012695,-0.097412
1519402433038,-0.047363,1.011719,-0.097168
1519402433048,-0.046631,1.011719,-0.097900
1519402433106,-0.048096,1.010010,-0.094482
1519402433139,-0.050049,1.000244,-0.087158
1519402433171,-0.045898,1.010010,-0.094482
1519402433204,-0.045654,1.015137,-0.096191
1519402433237,-0.045654,1.010742,-0.093994
1519402433269,-0.045654,1.012207,-0.097900
1519402433303,-0.047119,1.016602,-0.096680
1519402433336,-0.045654,1.011230,-0.091309
1519402433368,-0.048096,1.009521,-0.095947
1519402433401,-0.046631,1.008789,-0.095215
1519402433433,-0.044678,1.012695,-0.092041
1519402433448,-0.044189,1.011475,-0.093018
1519402433482,-0.044922,1.012939,-0.099365
1519402433515,-0.045654,1.012695,-0.095215
1519402433547,-0.047607,1.007080,-0.094971
1519402433580,-0.047119,1.013184,-0.095215
1519402433615,-0.049316,1.009521,-0.095703
1519402433647,-0.047607,1.013672,-0.097656
1519402433680,-0.045654,1.011963,-0.091309
1519402433716,-0.046875,1.010742,-0.094727
1519402433748,-0.044678,1.008301,-0.092773
1519402433781,-0.046387,1.012207,-0.096680
1519402433813,-0.045166,1.011719,-0.093994
1519402433846,-0.046387,1.011963,-0.095947
1519402433862,-0.046631,1.011963,-0.095703
1519402433918,-0.043457,1.011475,-0.092041
1519402433951,-0.045166,1.010742,-0.090332
1519402433952,-0.045410,1.011230,-0.092773
1519402434010,-0.046143,1.011475,-0.098877
1519402434042,-0.042480,1.011475,-0.092285
1519402434044,-0.044189,1.008057,-0.093018
1519402434116,-0.047852,1.012207,-0.099854
1519402434117,-0.044678,1.010498,-0.091064
1519402434150,-0.047363,1.011719,-0.093506
1519402434182,-0.048096,1.009521,-0.096680
1519402434215,-0.045410,1.012451,-0.092529
1519402434247,-0.047119,1.011719,-0.093506
1519402434289,-0.046875,1.008789,-0.100098
1519402434321,-0.046875,1.013184,-0.093750
1519402434353,-0.046875,1.015625,-0.091309
1519402434387,-0.049072,1.010498,-0.094238
1519402434419,-0.046387,1.009033,-0.094971
1519402434454,-0.046875,1.009521,-0.093994
1519402434486,-0.046875,1.012939,-0.094727
1519402434519,-0.046143,1.013672,-0.093750
1519402434526,-0.045166,1.015137,-0.092041
1519402434583,-0.046387,1.008789,-0.094238
1519402434616,-0.047852,1.010986,-0.096436
1519402434649,-0.047363,1.009766,-0.090820
1519402434691,-0.046143,1.010742,-0.093018
1519402434701,-0.047852,1.012451,-0.096680
1519402434726,-0.047119,1.013916,-0.094971
1519402434783,-0.047363,1.007813,-0.094482
1519402434817,-0.048096,1.010010,-0.095459
1519402434849,-0.047607,1.010254,-0.093018
1519402434881,-0.045898,1.009766,-0.092041
1519402434913,-0.046875,1.010498,-0.096924
1519402434947,-0.045166,1.010010,-0.092773
1519402434978,-0.046143,1.012695,-0.095703
1519402435011,-0.047607,1.013428,-0.093750
1519402435016,-0.044189,1.013184,-0.093506
1519402435077,-0.044678,1.010254,-0.091553
1519402435108,-0.046143,1.009521,-0.092285
1519402435114,-0.045654,1.010986,-0.092041
1519402435169,-0.042725,1.011719,-0.091309
1519402435178,-0.045898,1.012451,-0.090576
1519402435232,-0.045166,1.012207,-0.093018
1519402435265,-0.044678,1.013428,-0.093506
1519402435298,-0.042969,1.012207,-0.091553
1519402435329,-0.047363,1.011475,-0.094971
1519402435363,-0.044434,1.014404,-0.097168
1519402435398,-0.046387,1.011719,-0.094238
1519402435409,-0.046387,1.010742,-0.090088
1519402435441,-0.044678,1.012207,-0.092285
1519402435480,-0.043457,1.011475,-0.090332
1519402435512,-0.045898,1.011230,-0.093750
1519402435569,-0.046875,1.011963,-0.098145
1519402435573,-0.045654,1.013184,-0.093750
1519402435631,-0.046143,1.009277,-0.093262
1519402435639,-0.046875,1.010986,-0.096924
1519402435690,-0.045898,1.011230,-0.091309
1519402435692,-0.045410,1.011719,-0.089844
1519402435750,-0.043701,1.011230,-0.092773
1519402435755,-0.043945,1.012695,-0.090576
1519402435827,-0.046631,1.010498,-0.089600
1519402435830,-0.047363,1.011230,-0.096191
1519402435895,-0.046631,1.010742,-0.093750
1519402435897,-0.047852,1.011475,-0.094238
1519402435962,-0.048340,1.010742,-0.093994
1519402435965,-0.046143,1.011963,-0.095703
1519402436003,-0.045654,1.011963,-0.091553
1519402436036,-0.048584,1.009766,-0.088623
1519402436068,-0.046631,1.010742,-0.089355
1519402436071,-0.044434,1.008301,-0.093506
1519402436127,-0.046387,1.013672,-0.093750
1519402436160,-0.048828,1.013428,-0.096191
1519402436192,-0.047852,1.010254,-0.095459
1519402436225,-0.045166,1.011963,-0.088379
1519402436239,-0.044678,1.008545,-0.089355
1519402436273,-0.043213,1.010742,-0.092041
1519402436330,-0.044678,1.015625,-0.091064
1519402436336,-0.043457,1.014160,-0.090576
1519402436394,-0.045898,1.012207,-0.095703
1519402436453,-0.044678,1.010742,-0.092773
1519402436455,-0.045410,1.008789,-0.091553
1519402436489,-0.049072,1.011475,-0.095459
1519402436521,-0.045166,1.013916,-0.093994
1519402436553,-0.046143,1.012939,-0.092041
1519402436586,-0.046143,1.011230,-0.094238
1519402436619,-0.045898,1.006592,-0.088867
1519402436635,-0.044434,1.010254,-0.091553
1519402436676,-0.046143,1.013184,-0.093750
1519402436709,-0.046143,1.013184,-0.093506
1519402436741,-0.047363,1.011230,-0.095215
1519402436773,-0.046143,1.010986,-0.091797
1519402436806,-0.045898,1.011230,-0.092041
1519402436840,-0.046387,1.009521,-0.091064
1519402436871,-0.045654,1.011475,-0.093750
1519402436903,-0.045410,1.013916,-0.092285
1519402436936,-0.046143,1.011475,-0.090820
1519402436968,-0.042725,1.010498,-0.092285
1519402437002,-0.047119,1.010986,-0.088379
1519402437033,-0.046631,1.009521,-0.087646
1519402437050,-0.043701,1.011719,-0.092285
1519402437106,-0.042969,1.017090,-0.090820
1519402437139,-0.047363,1.013672,-0.090088
1519402437171,-0.043457,1.011719,-0.092285
1519402437203,-0.042236,1.008301,-0.092285
1519402437236,-0.044189,1.010986,-0.091553
1519402437239,-0.047119,1.015869,-0.095459
1519402437295,-0.044189,1.015137,-0.089844
1519402437298,-0.045166,1.010254,-0.086670
1519402437333,-0.046143,1.011963,-0.090332
1519402437366,-0.045898,1.010254,-0.090088
1519402437398,-0.044678,1.009277,-0.089355
1519402437431,-0.047119,1.012939,-0.095459
1519402437489,-0.046143,1.011230,-0.092773
1519402437521,-0.046631,1.010498,-0.093018
1519402437553,-0.044922,1.011230,-0.091064
1519402437586,-0.046143,1.010742,-0.089600
1519402437618,-0.045898,1.010986,-0.088379
1519402437651,-0.043701,1.012939,-0.092529
1519402437683,-0.044678,1.012695,-0.092773
1519402437716,-0.045654,1.012207,-0.094482
1519402437718,-0.045410,1.010742,-0.090820
1519402437775,-0.044678,1.011230,-0.090332
1519402437807,-0.043457,1.015381,-0.091309
1519402437813,-0.045410,1.013184,-0.093506
1519402437871,-0.044678,1.011475,-0.089844
1519402437904,-0.046143,1.008301,-0.088135
1519402437956,-0.045166,1.012695,-0.096191
1519402437958,-0.046143,1.015137,-0.092041
1519402437990,-0.047363,1.010742,-0.088623
1519402438022,-0.044434,1.013184,-0.093262
1519402438054,-0.046631,1.008789,-0.087402
1519402438087,-0.044189,1.012207,-0.092285
1519402438119,-0.044434,1.015137,-0.090332
1519402438152,-0.043213,1.012451,-0.091309
1519402438185,-0.043213,1.009277,-0.090576
1519402438218,-0.044922,1.014160,-0.090576
1519402438250,-0.045166,1.012695,-0.090820
1519402438291,-0.043213,1.012207,-0.092773
1519402438295,-0.043457,1.011963,-0.090576
1519402438353,-0.045898,1.012451,-0.093750
1519402438386,-0.044922,1.011963,-0.093262
1519402438417,-0.045654,1.012451,-0.088867
1519402438451,-0.046631,1.012451,-0.089111
1519402438483,-0.046631,1.008057,-0.089600
1519402438515,-0.042236,1.010986,-0.091309
1519402438548,-0.044678,1.014160,-0.090820
1519402438580,-0.046631,1.013428,-0.092041
1519402438613,-0.047852,1.011719,-0.093262
1519402438645,-0.045898,1.011963,-0.089355
1519402438660,-0.045410,1.011963,-0.092285
1519402438717,-0.044678,1.011963,-0.090088
1519402438749,-0.045166,1.013672,-0.090820
1519402438781,-0.046631,1.012207,-0.095459
1519402438783,-0.045898,1.009521,-0.088867
1519402438840,-0.044678,1.014160,-0.093018
1519402438872,-0.045410,1.010742,-0.088867
1519402438876,-0.044678,1.012207,-0.090332
1519402438976,-0.045654,1.013672,-0.091309
1519402438978,-0.045898,1.010742,-0.089111
1519402439043,-0.044189,1.011475,-0.093506
1519402439085,-0.045166,1.010498,-0.089600
1519402439087,-0.045654,1.012939,-0.091309
1519402439091,-0.044922,1.011475,-0.090820
1519402439120,-0.044922,1.012939,-0.088867
1519402439152,-0.044189,1.012695,-0.091064
1519402439185,-0.044678,1.011719,-0.092529
1519402439236,-0.046875,1.011230,-0.088623
1519402439241,-0.045166,1.011475,-0.091797
1519402439276,-0.044678,1.014648,-0.092285
1519402439308,-0.044922,1.015137,-0.090576
1519402439341,-0.046143,1.010986,-0.092529
1519402439373,-0.044922,1.014404,-0.090820
1519402439431,-0.046387,1.011963,-0.089111
1519402439433,-0.043213,1.008057,-0.092773
1519402439465,-0.043945,1.009766,-0.087158
1519402439522,-0.046631,1.014648,-0.091553
1519402439524,-0.044922,1.013184,-0.095215
1519402439556,-0.044189,1.010742,-0.086914
1519402439615,-0.047363,1.008057,-0.091797
1519402439646,-0.045898,1.014160,-0.091797
1519402439679,-0.044678,1.011963,-0.092285
1519402439712,-0.044189,1.014160,-0.090820
1519402439748,-0.043457,1.013916,-0.092041
1519402439779,-0.045654,1.013184,-0.093506
1519402439810,-0.045166,1.010986,-0.089111
1519402439843,-0.045898,1.010742,-0.089355
1519402439851,-0.044434,1.011963,-0.092041
1519402439902,-0.043945,1.011475,-0.090820
1519402439935,-0.046631,1.014404,-0.089600
1519402439944,-0.046387,1.010498,-0.089600
1519402439996,-0.045654,1.010742,-0.092285
1519402440029,-0.044922,1.009766,-0.088135
1519402440061,-0.043457,1.012451,-0.090820
1519402440121,-0.047607,1.011963,-0.092773
1519402440123,-0.044434,1.010986,-0.091064
1519402440176,-0.045898,1.008301,-0.088867
1519402440178,-0.045654,1.012207,-0.090820
1519402440236,-0.044189,1.013916,-0.092773
1519402440238,-0.044434,1.013184,-0.091064
1519402440276,-0.044678,1.013184,-0.093262
1519402440309,-0.046143,1.013428,-0.096680
1519402440341,-0.043457,1.012207,-0.089844
1519402440374,-0.046143,1.011475,-0.090576
1519402440406,-0.044189,1.013184,-0.093262
1519402440439,-0.044434,1.013916,-0.089844
1519402440471,-0.043213,1.010498,-0.089600
1519402440517,-0.045166,1.012451,-0.093262
1519402440524,-0.043701,1.011230,-0.089355
1519402440575,-0.046143,1.012939,-0.093018
1519402440607,-0.045410,1.010986,-0.094238
1519402440640,-0.043213,1.010742,-0.090332
1519402440654,-0.046631,1.012207,-0.093994
1519402440686,-0.044678,1.012451,-0.097168
1519402440719,-0.043701,1.013672,-0.091553
1519402440779,-0.044434,1.012695,-0.091309
1519402440786,-0.045654,1.011230,-0.090820
1519402440843,-0.045166,1.010986,-0.088135
1519402440875,-0.044678,1.013428,-0.091064
1519402440908,-0.043701,1.012695,-0.094727
1519402440918,-0.045410,1.011963,-0.091797
1519402440975,-0.044922,1.012451,-0.091309
1519402441008,-0.044189,1.010498,-0.091064
1519402441011,-0.045410,1.011963,-0.094238
1519402441073,-0.042969,1.012939,-0.092529
1519402441079,-0.044678,1.010986,-0.092041
1519402441133,-0.044434,1.012207,-0.092773
1519402441136,-0.043701,1.009766,-0.092529
1519402441195,-0.044922,1.013184,-0.092041
1519402441205,-0.044922,1.012939,-0.088135
1519402441259,-0.046631,1.010986,-0.093994
1519402441291,-0.044189,1.012939,-0.091064
1519402441331,-0.045654,1.012695,-0.092041
1519402441356,-0.044189,1.011963,-0.091309
1519402441389,-0.044189,1.015381,-0.093018
1519402441421,-0.044678,1.012207,-0.091064
1519402441453,-0.044922,1.014404,-0.094971
1519402441467,-0.044189,1.011230,-0.092285
1519402441500,-0.044922,1.011719,-0.091309
1519402441532,-0.047363,1.011475,-0.093994
1519402441565,-0.045898,1.013184,-0.094482
1519402441597,-0.045410,1.011230,-0.089844
1519402441655,-0.045654,1.014160,-0.090576
1519402441657,-0.045410,1.014893,-0.092529
1519402441689,-0.047119,1.011963,-0.093018
1519402441721,-0.043701,1.011963,-0.090332
1519402441753,-0.039063,1.003174,-0.090332
1519402441796,-0.044922,1.010498,-0.082764
1519402441828,-0.044189,1.014648,-0.085449
1519402441861,-0.047119,1.012939,-0.089844
1519402441904,-0.046143,1.014160,-0.098877
1519402441936,-0.045898,1.006104,-0.100098
1519402441969,-0.047363,1.006836,-0.096680
1519402442001,-0.045166,1.013672,-0.093994
1519402442073,-0.044922,1.006836,-0.086426
1519402442075,-0.044922,1.015869,-0.091553
1519402442192,-0.045410,1.016602,-0.090332
1519402442194,-0.045898,1.010010,-0.093750
1519402442195,-0.046387,1.012451,-0.097900
1519402442307,-0.046143,1.008057,-0.096680
1519402442309,-0.047119,1.009277,-0.097168
1519402442310,-0.046631,1.010986,-0.094727
1519402442311,-0.045898,1.015381,-0.095215
1519402442373,-0.044189,1.010498,-0.093506
1519402442375,-0.043701,1.010498,-0.092041
1519402442376,-0.047852,1.010254,-0.094971
1519402442421,-0.045410,1.012695,-0.093506
1519402442429,-0.045166,1.015381,-0.094482
1519402442485,-0.047119,1.012451,-0.094971
1519402442519,-0.043457,1.010986,-0.091553
1519402442556,-0.046387,1.009277,-0.096191
1519402442562,-0.045166,1.011475,-0.097900
1519402442611,-0.045898,1.013916,-0.093750
1519402442644,-0.047119,1.011963,-0.093506
1519402442649,-0.046387,1.010742,-0.094971
1519402442703,-0.046143,1.010986,-0.094238
1519402442734,-0.046143,1.010742,-0.093262
1519402442748,-0.045410,1.010986,-0.096436
1519402442780,-0.048340,1.009277,-0.096191
1519402442813,-0.044922,1.010742,-0.091797
1519402442846,-0.042725,1.011719,-0.094238
1519402442878,-0.047119,1.016357,-0.095703
1519402442912,-0.045410,1.011230,-0.098389
1519402442968,-0.043701,1.009766,-0.099121
1519402443001,-0.046387,1.010986,-0.088867
1519402443035,-0.045654,1.010254,-0.093018
1519402443077,-0.046143,1.012939,-0.099609
1519402443082,-0.043457,1.012939,-0.092041
1519402443110,-0.044922,1.013428,-0.098633
1519402443145,-0.046387,1.011475,-0.097412
1519402443187,-0.046631,1.011719,-0.094971
1519402443193,-0.047852,1.010254,-0.096680
1519402443226,-0.047607,1.010498,-0.095703
1519402443284,-0.046631,1.011475,-0.094727
1519402443316,-0.044922,1.013428,-0.095703
1519402443348,-0.046631,1.011475,-0.093506
1519402443382,-0.046875,1.009033,-0.097412
1519402443414,-0.047607,1.010742,-0.095459
1519402443446,-0.045410,1.012207,-0.094238
1519402443479,-0.046143,1.010742,-0.093994
1519402443513,-0.045654,1.009277,-0.093994
1519402443544,-0.043945,1.010742,-0.091797
1519402443576,-0.046631,1.012451,-0.095215
1519402443592,-0.046387,1.010986,-0.094727
1519402443617,-0.045410,1.010986,-0.093018
1519402443675,-0.044434,1.012939,-0.099854
1519402443707,-0.044434,1.016357,-0.091064
1519402443715,-0.044678,1.009033,-0.089355
1519402443766,-0.047852,1.012451,-0.095703
1519402443799,-0.045654,1.012451,-0.092041
1519402443832,-0.044434,1.010010,-0.092773
1519402443866,-0.044434,1.012207,-0.094727
1519402443897,-0.046387,1.012939,-0.093994
1519402443929,-0.043457,1.011230,-0.093018
1519402443963,-0.042725,1.009521,-0.093018
1519402443993,-0.045898,1.012451,-0.098877
1519402444006,-0.046143,1.010986,-0.100830
1519402444040,-0.042725,1.011963,-0.090332
1519402444098,-0.043945,1.009521,-0.091553
1519402444106,-0.045898,1.007813,-0.092529
1519402444164,-0.045410,1.014404,-0.097900
1519402444197,-0.045898,1.013428,-0.095215
1519402444205,-0.044189,1.007324,-0.091797
1519402444255,-0.045410,1.015869,-0.092773
1519402444258,-0.046387,1.011963,-0.093994
1519402444290,-0.045654,1.009766,-0.093506
1519402444362,-0.043701,1.010254,-0.094482
1519402444370,-0.043945,1.013672,-0.094238
1519402444390,-0.043701,1.010986,-0.093506
1519402444433,-0.043945,1.008301,-0.091309
1519402444467,-0.043457,1.011230,-0.092041
1519402444496,-0.043701,1.012939,-0.093018
1519402444530,-0.044189,1.013672,-0.094727
1519402444564,-0.044922,1.009521,-0.090576
1519402444595,-0.043945,1.010254,-0.090576
1519402444627,-0.043213,1.010498,-0.090576
1519402444660,-0.043213,1.012207,-0.092529
1519402444693,-0.043213,1.012207,-0.091553
1519402444726,-0.046143,1.010010,-0.089355
1519402444759,-0.045898,1.010010,-0.093018
1519402444791,-0.042236,1.011230,-0.091309
1519402444833,-0.043701,1.010010,-0.093262
1519402444841,-0.045410,1.013672,-0.100342
1519402444869,-0.043945,1.015869,-0.091309
1519402444908,-0.044434,1.010254,-0.088135
1519402444941,-0.044678,1.013184,-0.094727
1519402444974,-0.044678,1.012207,-0.090820
1519402445009,-0.041992,1.010010,-0.092773
1519402445041,-0.043213,1.011719,-0.094482
1519402445080,-0.045166,1.013672,-0.095459
1519402445114,-0.043457,1.009277,-0.094238
1519402445145,-0.043945,1.010254,-0.091064
1519402445267,-0.045654,1.010742,-0.088379
1519402445275,-0.044678,1.013428,-0.092529
1519402445391,-0.045410,1.009277,-0.087646
1519402445394,-0.042725,1.013428,-0.092041
1519402445437,-0.045410,1.013184,-0.095947
1519402445441,-0.043945,1.012451,-0.091553
1519402445445,-0.044434,1.010254,-0.092529
1519402445448,-0.043457,1.010254,-0.090576
1519402445451,-0.045654,1.010010,-0.094727
1519402445474,-0.045654,1.010498,-0.094238
1519402445507,-0.044434,1.014160,-0.092285
1519402445539,-0.042480,1.011719,-0.090332
1519402445571,-0.043457,1.010254,-0.092773
1519402445604,-0.044678,1.013672,-0.093018
1519402445636,-0.044434,1.012451,-0.089844
1519402445670,-0.042969,1.011963,-0.092529
1519402445683,-0.043457,1.008057,-0.093018
1519402445715,-0.042969,1.010986,-0.092041
1519402445773,-0.045166,1.014160,-0.094727
1519402445806,-0.043945,1.011230,-0.092041
1519402445838,-0.043701,1.008301,-0.092041
1519402445844,-0.044189,1.011963,-0.091797
1519402445900,-0.044678,1.011475,-0.093018
1519402445903,-0.044922,1.012695,-0.093750
1519402445933,-0.043945,1.012451,-0.093994
1519402445991,-0.043213,1.009277,-0.092529
1519402445999,-0.044922,1.010254,-0.095459
1519402446037,-0.044434,1.012939,-0.089600
1519402446070,-0.041748,1.010742,-0.091797
1519402446111,-0.043213,1.011230,-0.094238
1519402446144,-0.044922,1.012939,-0.093018
1519402446178,-0.045410,1.014404,-0.099854
1519402446209,-0.045166,1.010254,-0.093994
1519402446241,-0.044922,1.009033,-0.089600
1519402446273,-0.044678,1.006348,-0.095459
1519402446309,-0.045166,1.014893,-0.093506
1519402446318,-0.041992,1.011475,-0.092041
1519402446371,-0.044434,1.009766,-0.088867
1519402446404,-0.044434,1.013672,-0.095703
1519402446436,-0.042725,1.012939,-0.094238
1519402446470,-0.045654,1.011475,-0.095459
1519402446484,-0.045410,1.010742,-0.095459
1519402446516,-0.042480,1.013428,-0.092285
1519402446548,-0.043701,1.010498,-0.089111
1519402446581,-0.042969,1.013916,-0.097900
1519402446615,-0.041992,1.010254,-0.091309
1519402446647,-0.043213,1.010010,-0.090088
1519402446680,-0.046143,1.011963,-0.095947
1519402446712,-0.044678,1.012207,-0.092773
1519402446770,-0.043213,1.013184,-0.093018
1519402446802,-0.042969,1.010986,-0.093018
1519402446835,-0.042480,1.011475,-0.092773
1519402446868,-0.042725,1.013184,-0.093262
1519402446917,-0.042236,1.010498,-0.090576
1519402446923,-0.042480,1.010254,-0.092529
1519402446964,-0.042969,1.011475,-0.092773
1519402446969,-0.041504,1.009521,-0.091064
1519402447001,-0.043213,1.012939,-0.093994
1519402447058,-0.041992,1.007080,-0.092529
1519402447064,-0.044189,1.013672,-0.098389
1519402447117,-0.040039,1.010986,-0.091553
1519402447150,-0.043457,1.011963,-0.091553
1519402447182,-0.041748,1.010742,-0.093994
1519402447215,-0.040771,1.010010,-0.091553
1519402447247,-0.043945,1.012695,-0.094971
1519402447279,-0.043701,1.014160,-0.099365
1519402447312,-0.042236,1.010498,-0.092041
1519402447325,-0.043945,1.010010,-0.089844
1519402447382,-0.043701,1.008545,-0.089844
1519402447384,-0.042969,1.012207,-0.093506
1519402447441,-0.042725,1.011963,-0.089844
1519402447474,-0.042969,1.010742,-0.094971
1519402447478,-0.042236,1.013184,-0.093506
1519402447533,-0.044678,1.013428,-0.093994
1519402447566,-0.043701,1.008057,-0.093994
1519402447598,-0.043701,1.010742,-0.095215
1519402447630,-0.041992,1.010498,-0.092285
1519402447642,-0.042725,1.012207,-0.089844
1519402447700,-0.043701,1.010742,-0.090576
1519402447731,-0.047119,1.009033,-0.095703
1519402447745,-0.045166,1.014160,-0.096436
1519402447803,-0.044922,1.014404,-0.098145
1519402447808,-0.047119,1.011230,-0.094727
1519402447865,-0.046631,1.003174,-0.086670
1519402447925,-0.044922,1.011719,-0.092773
1519402447930,-0.044189,1.014160,-0.090088
1519402447962,-0.044678,1.013672,-0.093506
1519402447967,-0.046631,1.010986,-0.094482
1519402448023,-0.045166,1.012939,-0.092285
1519402448026,-0.042725,1.008545,-0.091797
1519402448056,-0.045654,1.014648,-0.092041
1519402448114,-0.044678,1.011719,-0.091064
1519402448147,-0.044678,1.010742,-0.094727
1519402448161,-0.043457,1.011963,-0.091064
1519402448198,-0.045410,1.012939,-0.090332
1519402448231,-0.046631,1.007813,-0.089355
1519402448262,-0.045410,1.014160,-0.093506
1519402448334,-0.045654,1.008545,-0.094971
1519402448337,-0.047363,1.012451,-0.094238
1519402448402,-0.047363,1.008545,-0.100098
1519402448405,-0.046387,1.012451,-0.095459
1519402448444,-0.042969,1.012207,-0.084229
1519402448477,-0.046387,1.013184,-0.091064
1519402448510,-0.042725,1.010498,-0.084961
1519402448542,-0.044678,1.012695,-0.091064
1519402448548,-0.043945,1.004639,-0.099854
1519402448602,-0.048096,1.003418,-0.087646
1519402448612,-0.044434,1.010010,-0.094971
1519402448638,-0.046143,1.009521,-0.094238
1519402448697,-0.045410,1.022217,-0.097168
1519402448731,-0.043945,1.007080,-0.093750
1519402448761,-0.044434,1.009277,-0.090332
1519402448772,-0.043945,1.010986,-0.091309
1519402448831,-0.045166,1.008301,-0.093018
1519402448862,-0.044189,1.014893,-0.092529
1519402448893,-0.046387,1.014648,-0.093994
1519402448927,-0.044678,1.014404,-0.093506
1519402448941,-0.046875,1.005127,-0.095947
1519402448975,-0.046387,1.009766,-0.092773
1519402449008,-0.044189,1.008789,-0.092041
1519402449040,-0.045166,1.013672,-0.094971
1519402449073,-0.042236,1.012207,-0.092285
1519402449107,-0.044922,1.012207,-0.096436
1519402449138,-0.043701,1.012207,-0.089600
1519402449170,-0.044678,1.012207,-0.096924
1519402449208,-0.046387,1.012451,-0.094238
1519402449240,-0.042969,1.010986,-0.090820
1519402449272,-0.044922,1.012939,-0.094971
1519402449306,-0.044189,1.014160,-0.091064
1519402449339,-0.045410,1.009277,-0.093262
1519402449371,-0.041260,1.013428,-0.092529
1519402449388,-0.041992,1.011719,-0.090576
1519402449444,-0.047119,1.010254,-0.094727
1519402449479,-0.043945,1.009521,-0.093750
1519402449487,-0.045166,1.008301,-0.089600
1519402449543,-0.041992,1.014893,-0.090576
1519402449575,-0.044678,1.009766,-0.091553
1519402449611,-0.045898,1.009277,-0.094727
1519402449656,-0.044189,1.010742,-0.088135
1519402449660,-0.045654,1.013916,-0.096680
1519402449718,-0.045654,1.014404,-0.091797
1519402449726,-0.043701,1.012207,-0.092041
1519402449777,-0.044434,1.012451,-0.094727
1519402449783,-0.043457,1.008301,-0.090576
1519402449823,-0.043701,1.013184,-0.091309
1519402449861,-0.043945,1.014648,-0.095459
1519402449886,-0.042725,1.008545,-0.091309
1519402449922,-0.042725,1.011963,-0.092285
1519402449956,-0.043701,1.010986,-0.090332
1519402449987,-0.044189,1.011230,-0.093506
1519402450021,-0.043701,1.012207,-0.091064
1519402450054,-0.042725,1.013428,-0.089600
1519402450087,-0.042480,1.011719,-0.091309
1519402450095,-0.044189,1.011230,-0.092529
1519402450144,-0.042480,1.011963,-0.092041
1519402450178,-0.043213,1.010498,-0.090820
1519402450192,-0.043213,1.011230,-0.090332
1519402450248,-0.043457,1.012939,-0.093994
1519402450255,-0.043701,1.011475,-0.092041
1519402450282,-0.041992,1.013428,-0.093506
1519402450314,-0.044189,1.011230,-0.091553
1519402450373,-0.044922,1.012939,-0.094482
1519402450405,-0.043213,1.011230,-0.090088
1519402450438,-0.042969,1.011475,-0.091553
1519402450470,-0.045410,1.014160,-0.093262
1519402450503,-0.044678,1.010742,-0.090332
1519402450537,-0.041992,1.012939,-0.092773
1519402450568,-0.044434,1.011963,-0.093994
1519402450600,-0.046143,1.010254,-0.094238
1519402450614,-0.043701,1.010498,-0.089355
1519402450672,-0.043945,1.013916,-0.092285
1519402450679,-0.045410,1.007568,-0.088867
1519402450730,-0.042236,1.011230,-0.091064
1519402450739,-0.042480,1.012695,-0.092285
1519402450788,-0.043701,1.014648,-0.091553
1519402450819,-0.045166,1.013428,-0.096680
1519402450861,-0.045166,1.012451,-0.090088
1519402450871,-0.044189,1.010742,-0.090332
1519402450903,-0.044434,1.010986,-0.093994
1519402450933,-0.042236,1.010254,-0.092773
1519402450966,-0.043213,1.013428,-0.093262
1519402450999,-0.043945,1.011963,-0.088135
1519402451038,-0.043945,1.008301,-0.093262
1519402451071,-0.042725,1.009277,-0.092041
1519402451105,-0.043213,1.010742,-0.091797
1519402451136,-0.043457,1.014160,-0.094238
1519402451168,-0.044922,1.013916,-0.094727
1519402451203,-0.042480,1.010498,-0.091064
1519402451234,-0.042969,1.008301,-0.093750
1519402451266,-0.046387,1.012207,-0.093750
1519402451299,-0.044678,1.013428,-0.091309
1519402451332,-0.045654,1.011230,-0.094727
1519402451365,-0.043701,1.010986,-0.093506
1519402451437,-0.042725,1.009277,-0.092041
1519402451444,-0.044434,1.014404,-0.093506
1519402451505,-0.044678,1.011230,-0.089111
1519402451514,-0.044189,1.012207,-0.092773
1519402451565,-0.044189,1.012207,-0.093506
1519402451568,-0.044189,1.009033,-0.093018
1519402451578,-0.043945,1.011475,-0.090820
1519402451610,-0.045166,1.013428,-0.092773
1519402451643,-0.044189,1.010498,-0.091064
1519402451676,-0.044678,1.012695,-0.093750
1519402451736,-0.045898,1.013184,-0.092529
1519402451744,-0.046143,1.011963,-0.096924
1519402451794,-0.045898,1.014404,-0.095947
1519402451803,-0.044189,1.008789,-0.089600
1519402451831,-0.044434,1.011719,-0.090332
1519402451898,-0.043701,1.011719,-0.090820
1519402451907,-0.041992,1.009277,-0.090088
1519402451931,-0.044434,1.014648,-0.092773
1519402451964,-0.043701,1.012695,-0.093262
1519402451997,-0.044434,1.012451,-0.092285
1519402452037,-0.044434,1.009521,-0.093018
1519402452071,-0.045410,1.013184,-0.096924
1519402452103,-0.044434,1.012451,-0.092285
1519402452135,-0.044434,1.013184,-0.092041
1519402452167,-0.043457,1.009766,-0.090576
1519402452201,-0.043701,1.010010,-0.092041
1519402452233,-0.042969,1.011230,-0.091553
1519402452275,-0.042969,1.011963,-0.092285
1519402452308,-0.044189,1.011963,-0.093018
1519402452316,-0.045410,1.009521,-0.089355
1519402452365,-0.042725,1.009277,-0.091553
1519402452397,-0.044434,1.010498,-0.090088
1519402452430,-0.045898,1.012207,-0.093262
1519402452464,-0.044678,1.011963,-0.094727
1519402452497,-0.043945,1.011475,-0.093994
1519402452529,-0.043457,1.012695,-0.091309
1519402452561,-0.044922,1.011719,-0.093506
1519402452594,-0.043945,1.012207,-0.093262
1519402452624,-0.044189,1.013184,-0.093506
1519402452656,-0.044189,1.010742,-0.092041
1519402452672,-0.043457,1.011963,-0.092041
1519402452731,-0.043213,1.011230,-0.091309
1519402452763,-0.042969,1.011963,-0.092529
1519402452797,-0.043945,1.014648,-0.093018
1519402452805,-0.045166,1.012451,-0.092041
1519402452858,-0.042236,1.007568,-0.094238
1519402452890,-0.042236,1.010498,-0.092285
1519402452893,-0.043213,1.014648,-0.094971
1519402452950,-0.044678,1.014648,-0.099609
1519402452959,-0.043457,1.011963,-0.090088
1519402453013,-0.044678,1.009277,-0.086182
1519402453045,-0.044434,1.010010,-0.092041
1519402453078,-0.042969,1.012207,-0.090088
1519402453091,-0.042236,1.011475,-0.092529
1519402453124,-0.045410,1.014893,-0.096680
1519402453156,-0.044434,1.009521,-0.091064
1519402453189,-0.044678,1.009277,-0.092529
1519402453223,-0.046143,1.011475,-0.093994
1519402453254,-0.043457,1.011719,-0.093750
1519402453319,-0.043213,1.012695,-0.092773
1519402453327,-0.045654,1.013428,-0.095459
1519402453376,-0.045898,1.010254,-0.088379
1519402453379,-0.042236,1.008057,-0.092529
1519402453438,-0.041504,1.012207,-0.093262
1519402453446,-0.046387,1.011475,-0.094727
1519402453494,-0.045166,1.012695,-0.096436
1519402453536,-0.043213,1.011475,-0.092041
1519402453544,-0.044922,1.009521,-0.090088
1519402453571,-0.044189,1.010010,-0.093506
1519402453627,-0.043701,1.011963,-0.092041
1519402453659,-0.044189,1.013428,-0.093018
1519402453691,-0.045166,1.011475,-0.093018
1519402453723,-0.043701,1.011719,-0.092529
1519402453756,-0.046387,1.010986,-0.093506
1519402453793,-0.046143,1.012451,-0.094727
1519402453825,-0.042480,1.010010,-0.092285
1519402453867,-0.045410,1.011719,-0.093262
1519402453876,-0.045654,1.010742,-0.091309
1519402453916,-0.044434,1.014648,-0.095215
1519402453948,-0.042725,1.011719,-0.091064
1519402453953,-0.046875,1.010498,-0.093994
1519402454009,-0.041504,1.009766,-0.091309
1519402454040,-0.046143,1.013672,-0.089355
1519402454072,-0.047119,1.018311,-0.093750
1519402454105,-0.044678,1.009766,-0.092773
1519402454138,-0.048340,1.004150,-0.089111
1519402454170,-0.049316,1.010742,-0.095215
1519402454202,-0.046143,1.009521,-0.089111
1519402454235,-0.044922,1.012939,-0.094482
1519402454387,-0.044189,1.014404,-0.095703
1519402454389,-0.048340,1.003906,-0.097656
1519402454389,-0.041748,1.010010,-0.091309
1519402454390,-0.044922,1.013916,-0.092041
1519402454404,-0.045654,1.014404,-0.096924
1519402454436,-0.044189,1.018066,-0.088867
1519402454438,-0.045410,1.010742,-0.094727
1519402454496,-0.045410,1.008789,-0.096924
1519402454498,-0.045898,1.009766,-0.089600
1519402454570,-0.046875,1.012451,-0.094971
1519402454639,-0.044434,1.015625,-0.097168
1519402454645,-0.042969,1.009277,-0.091797
1519402454705,-0.044189,1.010498,-0.089844
1519402454720,-0.043213,1.010498,-0.092529
1519402454728,-0.043701,1.011963,-0.092529
1519402454737,-0.045898,1.011963,-0.094727
1519402454786,-0.045410,1.012939,-0.097656
1519402454819,-0.044678,1.009766,-0.093018
1519402454852,-0.046387,1.009033,-0.096924
1519402454884,-0.043457,1.014404,-0.091309
1519402454916,-0.046875,1.010498,-0.090088
1519402454920,-0.045410,1.010498,-0.094971
1519402454975,-0.046143,1.012695,-0.095459
1519402455009,-0.043457,1.010254,-0.090332
1519402455012,-0.042969,1.008789,-0.094482
1519402455070,-0.045410,1.011719,-0.090576
1519402455103,-0.043945,1.009521,-0.092773
1519402455117,-0.043945,1.010986,-0.095947
1519402455150,-0.044434,1.015137,-0.095703
1519402455183,-0.047119,1.011719,-0.095215
1519402455221,-0.045410,1.011963,-0.094971
1519402455252,-0.045166,1.010742,-0.090088
1519402455284,-0.045166,1.009033,-0.093506
1519402455316,-0.045898,1.011963,-0.094238
1519402455349,-0.043945,1.012695,-0.089844
1519402455382,-0.044678,1.011719,-0.094727
1519402455415,-0.044434,1.013916,-0.096924
1519402455450,-0.045898,1.013428,-0.091309
1519402455482,-0.044922,1.010742,-0.093262
1519402455514,-0.046387,1.012451,-0.096924
1519402455555,-0.042969,1.011963,-0.093994
1519402455561,-0.043701,1.012207,-0.092529
1519402455619,-0.045166,1.012207,-0.094238
1519402455651,-0.044434,1.012207,-0.092773
1519402455684,-0.042725,1.010498,-0.091797
1519402455694,-0.044189,1.012451,-0.093994
1519402455752,-0.044434,1.011475,-0.091064
1519402455784,-0.045654,1.011719,-0.095947
1519402455816,-0.044678,1.010742,-0.093262
1519402455849,-0.044922,1.012451,-0.093994
1519402455879,-0.044434,1.007568,-0.092529
1519402455909,-0.044434,1.013428,-0.096436
1519402455925,-0.043457,1.011475,-0.092773
1519402455983,-0.044434,1.011719,-0.092529
1519402456016,-0.043945,1.009766,-0.091553
1519402456048,-0.042725,1.009521,-0.090088
1519402456081,-0.044189,1.011230,-0.097168
1519402456090,-0.044189,1.012939,-0.096924
1519402456140,-0.044922,1.011230,-0.093994
1519402456145,-0.043213,1.011230,-0.092285
1519402456199,-0.044189,1.011475,-0.091309
1519402456232,-0.043945,1.012695,-0.091553
1519402456264,-0.042236,1.009033,-0.093018
1519402456296,-0.044434,1.014160,-0.094971
1519402456329,-0.048096,1.012695,-0.096436
1519402456344,-0.047363,1.004883,-0.096924
1519402456375,-0.045410,1.009766,-0.090088
1519402456432,-0.045166,1.010010,-0.094238
1519402456467,-0.043213,1.014648,-0.092529
1519402456498,-0.042725,1.013184,-0.089844
1519402456531,-0.041016,1.011719,-0.091064
1519402456564,-0.044189,1.011475,-0.093018
1519402456572,-0.045898,1.010010,-0.094238
1519402456622,-0.047363,1.005859,-0.093018
1519402456654,-0.044434,1.011475,-0.099609
1519402456662,-0.044678,1.012207,-0.097900
1519402456715,-0.043945,1.015137,-0.090576
1519402456749,-0.044678,1.015137,-0.092285
1519402456762,-0.043701,1.010254,-0.088867
1519402456795,-0.044678,1.009277,-0.088379
1519402456828,-0.044678,1.011475,-0.094727
1519402456866,-0.045654,1.011719,-0.101074
1519402456892,-0.045898,1.010254,-0.093506
1519402456925,-0.045166,1.010254,-0.094238
1519402456960,-0.046143,1.012207,-0.095703
1519402456993,-0.043701,1.014893,-0.091309
1519402457027,-0.041016,1.012451,-0.090576
1519402457062,-0.042969,1.013428,-0.092773
1519402457095,-0.045410,1.008301,-0.094971
1519402457128,-0.046631,1.010254,-0.095947
1519402457160,-0.044678,1.009766,-0.092041
1519402457201,-0.043457,1.011230,-0.093262
1519402457207,-0.044434,1.011230,-0.095703
1519402457263,-0.045898,1.010254,-0.088135
1519402457297,-0.042725,1.012207,-0.091309
1519402457328,-0.044434,1.011719,-0.089600
1519402457361,-0.044189,1.009277,-0.090332
1519402457394,-0.042725,1.011719,-0.096680
1519402457427,-0.042725,1.012207,-0.092773
1519402457459,-0.045898,1.011230,-0.097900
1519402457491,-0.043213,1.009033,-0.094238
1519402457524,-0.041992,1.010986,-0.091553
1519402457557,-0.043945,1.009766,-0.086670
1519402457589,-0.041260,1.011719,-0.092285
1519402457605,-0.041992,1.009521,-0.092529
1519402457683,-0.044189,1.013672,-0.094727
1519402457688,-0.043945,1.010498,-0.094482
1519402457751,-0.042725,1.010254,-0.091553
1519402457760,-0.043701,1.009277,-0.090576
1519402457806,-0.044922,1.010986,-0.095215
1519402457814,-0.041992,1.010742,-0.093018
1519402457841,-0.043213,1.009521,-0.092285
1519402457872,-0.041748,1.013916,-0.095215
1519402457904,-0.041992,1.010010,-0.093018
1519402457935,-0.042236,1.010010,-0.091797
1519402457970,-0.041992,1.010986,-0.088623
1519402458003,-0.042969,1.011230,-0.090088
1519402458044,-0.042480,1.011230,-0.093750
1519402458075,-0.043945,1.011475,-0.094238
1519402458108,-0.045166,1.011230,-0.096191
1519402458141,-0.043457,1.009766,-0.094482
1519402458172,-0.044678,1.012939,-0.096680
1519402458205,-0.043213,1.009277,-0.092773
1519402458211,-0.040039,1.009766,-0.091553
1519402458264,-0.042480,1.010498,-0.090332
1519402458273,-0.042725,1.011719,-0.092285
1519402458327,-0.042969,1.013916,-0.097900
1519402458359,-0.044678,1.011475,-0.093750
1519402458392,-0.043213,1.010742,-0.091309
1519402458438,-0.043945,1.009521,-0.090576
1519402458446,-0.041260,1.011230,-0.091797
1519402458485,-0.040771,1.010742,-0.090576
1519402458518,-0.041016,1.012207,-0.093018
1519402458549,-0.045410,1.014160,-0.098389
1519402458583,-0.047119,1.010742,-0.095703
1519402458619,-0.043945,1.010254,-0.089600
1519402458650,-0.046387,1.009521,-0.094971
1519402458683,-0.043213,1.010254,-0.091309
1519402458686,-0.042725,1.010498,-0.092773
1519402458743,-0.043457,1.013184,-0.096191
1519402458777,-0.044189,1.013184,-0.095215
1519402458785,-0.044434,1.010010,-0.087646
1519402458840,-0.044434,1.010986,-0.090820
1519402458875,-0.043701,1.008545,-0.093506
1519402458885,-0.045166,1.013428,-0.091797
1519402458918,-0.044922,1.012939,-0.095215
1519402458951,-0.044678,1.013672,-0.096680
1519402458984,-0.043945,1.010498,-0.091309
1519402459017,-0.046387,1.008789,-0.092041
1519402459048,-0.042969,1.011475,-0.091064
1519402459106,-0.043213,1.013184,-0.092041
1519402459138,-0.042969,1.011475,-0.089844
1519402459170,-0.042236,1.010010,-0.090820
1519402459202,-0.042236,1.009521,-0.090820
1519402459215,-0.045654,1.013916,-0.093262
1519402459248,-0.043701,1.010986,-0.089355
1519402459281,-0.044434,1.015137,-0.095215
1519402459322,-0.042725,1.010742,-0.091064
1519402459354,-0.044189,1.009521,-0.089844
1519402459386,-0.045166,1.012939,-0.098633
1519402459419,-0.043701,1.012695,-0.090088
1519402459450,-0.045410,1.013672,-0.090088
1519402459483,-0.044189,1.010254,-0.091064
1519402459515,-0.043213,1.008301,-0.095459
1519402459547,-0.041748,1.007813,-0.090576
1519402459583,-0.044678,1.012207,-0.088623
1519402459617,-0.045898,1.020020,-0.094238
1519402459649,-0.044434,1.004639,-0.090088
1519402459679,-0.044922,1.009521,-0.088623
1519402459693,-0.045410,1.010498,-0.091797
1519402459749,-0.043945,1.012939,-0.091309
1519402459782,-0.043213,1.017090,-0.090332
1519402459815,-0.043701,1.017334,-0.092285
1519402459848,-0.044434,1.011475,-0.087646
1519402459855,-0.044922,1.007324,-0.088867
1519402459906,-0.046143,1.010498,-0.093994
1519402459914,-0.041504,1.011719,-0.090820
1519402459970,-0.044189,1.011230,-0.088379
1519402460003,-0.042969,1.010742,-0.091797
1519402460035,-0.042725,1.012207,-0.090332
1519402460066,-0.043945,1.009033,-0.088623
1519402460099,-0.044189,1.010986,-0.089355
1519402460113,-0.042236,1.010986,-0.092041
1519402460146,-0.043213,1.015381,-0.090332
1519402460177,-0.041260,1.012695,-0.090576
1519402460210,-0.039795,1.010254,-0.091553
1519402460243,-0.043213,1.015625,-0.090332
1519402460301,-0.043457,1.008789,-0.089111
1519402460334,-0.042969,1.014648,-0.091797
1519402460342,-0.042969,1.007813,-0.088135
1519402460395,-0.044678,1.010498,-0.088379
1519402460428,-0.042480,1.011963,-0.089600
1519402460436,-0.041016,1.008057,-0.092529
1519402460487,-0.044922,1.011963,-0.092285
1519402460495,-0.044189,1.013184,-0.091553
1519402460543,-0.042236,1.012207,-0.089600
1519402460575,-0.042969,1.014893,-0.091553
1519402460608,-0.041748,1.012695,-0.091064
1519402460639,-0.044189,1.009277,-0.089111
1519402460671,-0.043457,1.009033,-0.085938
1519402460704,-0.043457,1.012451,-0.090820
1519402460737,-0.043457,1.010742,-0.092285
1519402460811,-0.043945,1.011719,-0.091553
1519402460819,-0.045166,1.011475,-0.088623
1519402460880,-0.043213,1.010498,-0.093018
1519402460884,-0.042725,1.006348,-0.093262
1519402460925,-0.041992,1.010498,-0.085449
1519402460939,-0.042236,1.014404,-0.089355
1519402460972,-0.042725,1.012207,-0.090332
1519402460980,-0.041016,1.011230,-0.085693
1519402461029,-0.042725,1.015625,-0.087646
1519402461060,-0.044922,1.009766,-0.086914
1519402461092,-0.043457,1.011719,-0.096924
1519402461125,-0.043701,1.010986,-0.088379
1519402461161,-0.041748,1.012939,-0.082520
1519402461191,-0.045898,1.014893,-0.081299
1519402461224,-0.045654,0.998779,-0.083252
1519402461266,-0.043701,1.013672,-0.085693
1519402461308,-0.043701,1.008789,-0.078857
1519402461316,-0.043701,1.008301,-0.094971
1519402461369,-0.041504,1.007324,-0.089600
1519402461378,-0.041260,1.013672,-0.085693
1519402461429,-0.040771,1.032227,-0.110107
1519402461477,-0.042969,1.015137,-0.103516
1519402461485,-0.042480,1.002197,-0.096191
1519402461514,-0.039551,1.006836,-0.100830
1519402461547,-0.043945,1.009033,-0.104004
1519402461579,-0.040039,1.011963,-0.099365
1519402461611,-0.038574,1.015625,-0.091553
1519402461643,-0.040283,1.016602,-0.101563
1519402461676,-0.042236,1.006348,-0.102295
1519402461707,-0.042236,1.002197,-0.101563
1519402461740,-0.040771,1.011475,-0.098145
1519402461755,-0.044922,1.008057,-0.097900
1519402461836,-0.042480,1.012695,-0.103760
1519402461839,-0.043457,1.015381,-0.105713
1519402461896,-0.044434,1.011230,-0.094238
1519402461900,-0.041748,1.004639,-0.097656
1519402461957,-0.040527,1.012695,-0.098877
1519402461965,-0.043701,1.005371,-0.094238
1519402461991,-0.038330,1.009033,-0.107422
1519402462024,-0.043457,1.015381,-0.104736
1519402462041,-0.041260,1.013428,-0.086182
1519402462068,-0.040527,1.010742,-0.099121
1519402462128,-0.041504,0.998291,-0.158691
1519402462136,-0.044189,0.999023,-0.058105
1519402462188,-0.034424,1.017578,-0.089600
1519402462202,-0.041992,1.000732,-0.103516
1519402462274,-0.045654,1.005127,-0.107422
1519402462282,-0.043457,1.005127,-0.088623
1519402462320,-0.037842,1.012939,-0.092041
1519402462352,-0.036133,1.022949,-0.093506
1519402462387,-0.041748,1.009277,-0.097656
1519402462421,-0.040283,1.017822,-0.108398
1519402462452,-0.037598,0.992676,-0.075195
1519402462489,-0.038574,1.015869,-0.077393
1519402462527,-0.044922,1.026611,-0.094727
1519402462552,-0.042236,1.006592,-0.094482
1519402462557,-0.045898,1.006104,-0.099365
1519402462611,-0.044189,1.007080,-0.102783
1519402462617,-0.044922,1.018799,-0.092529
1519402462651,-0.041748,1.018311,-0.100098
1519402462707,-0.042236,0.972168,-0.093994
1519402462740,-0.045166,1.034912,-0.140869
1519402462772,-0.047607,1.021484,-0.115479
1519402462805,-0.045166,1.007324,-0.081787
1519402462838,-0.042725,1.005127,-0.067383
1519402462876,-0.042480,1.013428,-0.067139
1519402462902,-0.042969,1.011475,-0.085938
1519402462936,-0.041748,1.008789,-0.070557
1519402462968,-0.043213,1.011719,-0.078125
1519402463002,-0.045654,1.016113,-0.088135
1519402463016,-0.043457,1.010010,-0.092773
1519402463049,-0.044922,1.008301,-0.090332
1519402463130,-0.041748,1.009033,-0.085449
1519402463135,-0.045898,1.009766,-0.088867
1519402463141,-0.046387,1.020752,-0.089355
1519402463190,-0.042969,1.010010,-0.099609
1519402463251,-0.041992,1.010986,-0.074951
1519402463259,-0.043213,1.015869,-0.088379
1519402463313,-0.046875,1.012451,-0.094727
1519402463318,-0.043701,1.005859,-0.083496
1519402463373,-0.047363,1.012451,-0.088623
1519402463382,-0.044434,1.007324,-0.090088
1519402463415,-0.044922,1.015381,-0.098145
1519402463431,-0.046387,1.010254,-0.091797
1519402463489,-0.045166,0.988037,-0.084229
1519402463521,-0.045410,1.017822,-0.095703
1519402463559,-0.042725,1.018311,-0.093262
1519402463568,-0.045654,1.012939,-0.098389
1519402463598,-0.042236,1.005127,-0.085693
1519402463630,-0.041016,1.012695,-0.083740
1519402463686,-0.044678,1.016357,-0.089844
1519402463691,-0.044189,1.010010,-0.093750
1519402463719,-0.044434,1.012695,-0.093994
1519402463778,-0.043701,0.999268,-0.090088
1519402463786,-0.041748,1.008057,-0.086670
1519402463819,-0.043945,1.020264,-0.092285
1519402463851,-0.048584,1.011963,-0.103760
1519402463922,-0.041748,1.001221,-0.099854
1519402463927,-0.039307,1.001221,-0.069580
1519402463991,-0.047119,1.014404,-0.083008
1519402463999,-0.045166,1.013428,-0.083008
1519402464044,-0.041260,1.019287,-0.085693
1519402464047,-0.044434,0.997803,-0.093018
1519402464082,-0.046387,1.011719,-0.102783
1519402464135,-0.045410,1.020264,-0.100098
1519402464144,-0.043945,1.011475,-0.089600
1519402464195,-0.044678,1.017334,-0.081543
1519402464202,-0.048096,1.005127,-0.078369
1519402464255,-0.051514,1.040527,-0.119141
1519402464264,-0.052002,0.977783,-0.074463
1519402464318,-0.041016,1.047852,-0.111572
1519402464380,-0.043701,1.012695,-0.096436
1519402464385,-0.043701,0.991943,-0.083984
1519402464437,-0.044434,0.999268,-0.086914
1519402464445,-0.039551,1.011475,-0.077881
1519402464470,-0.044189,1.018555,-0.089355
1519402464503,-0.045898,1.025391,-0.096680
1519402464535,-0.044922,1.012207,-0.099121
1519402464567,-0.044678,1.012695,-0.102783
1519402464600,-0.044434,0.999756,-0.093994
1519402464633,-0.045166,1.001953,-0.090576
1519402464665,-0.045166,1.021484,-0.092529
1519402464695,-0.040771,1.014160,-0.090576
1519402464729,-0.043945,1.014404,-0.086670
1519402464763,-0.045166,0.986816,-0.086426
1519402464795,-0.045898,1.027832,-0.101563
1519402464839,-0.045410,1.006592,-0.091309
1519402464890,-0.046387,1.000244,-0.094971
1519402464899,-0.049805,1.015137,-0.097412
1519402464951,-0.046143,1.011475,-0.089111
1519402464957,-0.044678,1.010498,-0.086914
1519402465011,-0.043457,1.015625,-0.091797
1519402465017,-0.045166,1.016602,-0.092529
1519402465076,-0.045654,1.010010,-0.083740
1519402465082,-0.047363,1.002197,-0.086426
1519402465135,-0.048340,1.008301,-0.098145
1519402465141,-0.043213,1.016602,-0.098877
1519402465206,-0.047119,1.008545,-0.104248
1519402465213,-0.042725,1.014893,-0.098145
1519402465266,-0.043213,1.016602,-0.094238
1519402465269,-0.045410,1.011719,-0.090576
1519402465336,-0.045410,1.009033,-0.085449
1519402465340,-0.046631,1.009277,-0.087158
1519402465400,-0.048340,0.996338,-0.081543
1519402465405,-0.045166,1.008545,-0.097900
1519402465464,-0.043457,1.018799,-0.097900
1519402465473,-0.048828,1.020752,-0.098633
1519402465524,-0.046875,0.996094,-0.095703
1519402465533,-0.044922,1.008057,-0.099609
1519402465563,-0.046387,1.006104,-0.090820
1519402465597,-0.045410,1.013428,-0.086182
1519402465627,-0.045410,1.011719,-0.086670
1519402465659,-0.044922,1.014404,-0.098633
1519402465693,-0.046631,1.012939,-0.093262
1519402465724,-0.046631,1.010498,-0.090332
1519402465756,-0.045166,1.010986,-0.092041
1519402465790,-0.045166,1.017822,-0.093262
1519402465823,-0.046143,1.010010,-0.090088
1519402465855,-0.043457,1.007568,-0.093262
1519402465913,-0.046631,1.010010,-0.096680
1519402465921,-0.045410,1.016113,-0.090820
1519402465945,-0.044922,1.005615,-0.092773
1519402465978,-0.045898,1.016846,-0.091064
1519402466010,-0.047363,1.003174,-0.095459
1519402466042,-0.044922,1.014160,-0.099365
1519402466076,-0.042969,1.006836,-0.092773
1519402466117,-0.045654,1.015869,-0.094238
1519402466151,-0.046631,1.016602,-0.093018
1519402466184,-0.044678,1.010010,-0.091064
1519402466215,-0.044678,1.012451,-0.090332
1519402466256,-0.047119,1.011963,-0.093506
1519402466288,-0.045410,1.012451,-0.090332
1519402466320,-0.045166,1.013184,-0.094482
1519402466323,-0.045654,1.013184,-0.090088
1519402466381,-0.044922,1.019775,-0.074219
1519402466387,-0.049561,1.009521,-0.078857
1519402466443,-0.047363,0.999268,-0.070068
1519402466477,-0.051758,1.016846,-0.049805
1519402466509,-0.052490,1.004639,-0.066406
1519402466541,-0.058838,0.978516,-0.105225
1519402466574,-0.062500,0.993408,-0.165283
1519402466607,-0.052490,1.015625,-0.108398
1519402466621,-0.043213,1.039795,-0.089355
1519402466679,-0.045410,1.005859,-0.107422
1519402466710,-0.047607,1.013672,-0.101563
1519402466716,-0.047363,0.997314,-0.114502
1519402466769,-0.047363,0.996582,-0.100098
1519402466803,-0.044434,1.013184,-0.093994
1519402466811,-0.047852,1.009521,-0.109131
1519402466861,-0.048828,1.011719,-0.118164
1519402466918,-0.049561,1.012451,-0.114502
1519402466927,-0.049561,1.000732,-0.114014
1519402466977,-0.055908,1.034668,-0.125244
1519402466985,-0.044678,0.951904,-0.067139
1519402467051,-0.049561,1.031494,-0.090820
1519402467056,-0.048584,1.041016,-0.140381
1519402467118,-0.043701,1.024414,-0.126221
1519402467123,-0.050293,0.968994,-0.092041
1519402467167,-0.047119,1.017578,-0.102051
1519402467175,-0.045654,1.026367,-0.116455
1519402467225,-0.046143,1.013428,-0.114014
1519402467259,-0.046387,1.005615,-0.107666
1519402467295,-0.046387,1.003174,-0.100586
1519402467302,-0.046387,1.020752,-0.110107
1519402467330,-0.050049,1.009277,-0.103760
1519402467398,-0.046631,1.007813,-0.099609
1519402467407,-0.048340,1.011963,-0.103271
1519402467456,-0.045410,1.011719,-0.108398
1519402467460,-0.047852,0.985352,-0.124023
1519402467504,-0.051514,1.010986,-0.096680
1519402467537,-0.048096,1.014404,-0.110840
1519402467570,-0.052734,1.022705,-0.112549
1519402467603,-0.047852,0.998291,-0.092285
1519402467637,-0.047363,1.013916,-0.092041
1519402467668,-0.048340,1.009277,-0.087158
1519402467700,-0.044189,1.015137,-0.094727
1519402467732,-0.043945,0.992920,-0.085693
1519402467765,-0.046631,1.012207,-0.109131
1519402467798,-0.048828,1.018311,-0.098633
1519402467830,-0.050537,1.019775,-0.110107
1519402467863,-0.059814,1.046387,-0.128906
1519402467876,-0.034180,0.958740,-0.030029
1519402467934,-0.053955,0.935791,-0.057129
1519402467967,-0.045166,1.088623,-0.102783
1519402467975,-0.035889,1.028076,-0.101807
1519402468027,-0.039551,1.006348,-0.074951
1519402468035,-0.041016,0.956299,-0.060791
1519402468089,-0.042725,1.022705,-0.086914
1519402468121,-0.044434,1.030029,-0.091797
1519402468129,-0.037842,1.011230,-0.069580
1519402468186,-0.039551,1.004883,-0.073242
1519402468218,-0.040527,1.020020,-0.098633
1519402468252,-0.042725,1.018311,-0.093750
1519402468272,-0.043457,1.009033,-0.087891
1519402468303,-0.041016,1.011963,-0.081787
1519402468336,-0.042969,1.017334,-0.092529
1519402468369,-0.048096,1.012939,-0.080078
1519402468403,-0.042236,1.010742,-0.078369
1519402468435,-0.042236,1.009766,-0.086182
1519402468468,-0.048096,1.006104,-0.087646
1519402468498,-0.046387,1.015137,-0.072021
1519402468532,-0.045898,1.028809,-0.065674
1519402468564,-0.049072,1.020996,-0.073975
1519402468598,-0.055176,1.021973,-0.069336
1519402468631,-0.055176,1.028076,-0.059326
1519402468678,-0.054199,1.021973,-0.058594
1519402468686,-0.067871,1.026123,-0.034180
1519402468723,-0.083740,1.045166,0.003174
1519402468755,-0.091309,1.051758,-0.016846
1519402468789,-0.119385,1.016846,-0.013916
1519402468823,-0.128174,1.037354,-0.009766
1519402468855,-0.090088,1.037354,-0.004639
1519402468888,-0.079346,1.059814,0.021240
1519402468918,-0.130859,1.049805,-0.014404
1519402468925,-0.274658,1.031738,0.025146
1519402468983,-0.296143,1.055420,0.033447
1519402469017,-0.296387,1.048340,0.054199
1519402469049,-0.295166,1.047607,0.065430
1519402469081,-0.267578,1.021240,0.032959
1519402469113,-0.163330,1.032959,0.019043
1519402469147,-0.140625,1.067627,0.063721
1519402469179,-0.062744,1.002197,0.035156
1519402469212,-0.201660,0.933350,-0.005371
1519402469249,-0.018311,0.902832,-0.063232
1519402469282,0.141113,0.848389,-0.027344
1519402469315,0.038086,0.907959,0.073486
1519402469323,-0.042725,0.973877,0.179199
1519402469372,-0.140381,0.983398,0.087891
1519402469405,-0.189697,0.964111,0.008789
1519402469414,-0.216064,0.943604,0.002686
1519402469468,-0.296143,0.877930,-0.064697
1519402469501,-0.348389,0.877441,-0.082275
1519402469513,-0.318115,0.856201,-0.057861
1519402469572,-0.406494,0.940674,-0.177002
1519402469580,-0.514160,1.022217,-0.284424
1519402469633,-0.499023,1.028564,-0.300537
1519402469665,-0.451660,1.010254,-0.184814
1519402469697,-0.458984,0.991455,-0.186035
1519402469729,-0.449951,0.998779,-0.160400
1519402469761,-0.421143,0.996826,-0.120605
1519402469795,-0.415771,0.983887,-0.126709
1519402469827,-0.437744,0.946777,-0.135742
1519402469861,-0.469727,0.888672,-0.147461
1519402469894,-0.469482,0.866455,-0.146240
1519402469902,-0.478027,0.806396,-0.143311
1519402469958,-0.510254,0.746094,-0.132568
1519402469990,-0.520264,0.755127,-0.141357
1519402469999,-0.539063,0.784424,-0.176270
1519402470050,-0.563477,0.773926,-0.200928
1519402470082,-0.602051,0.778809,-0.238525
1519402470114,-0.612549,0.792725,-0.272217
1519402470185,-0.608887,0.801758,-0.292725
1519402470193,-0.591309,0.822021,-0.287598
1519402470251,-0.603027,0.858398,-0.277344
1519402470254,-0.581543,0.856445,-0.289795
1519402470286,-0.583008,0.851074,-0.312988
1519402470302,-0.543701,0.818359,-0.315430
1519402470327,-0.535156,0.801270,-0.255127
1519402470356,-0.560547,0.788818,-0.252197
1519402470389,-0.553711,0.783203,-0.247803
1519402470447,-0.549072,0.797607,-0.291748
1519402470481,-0.549072,0.780029,-0.316162
1519402470489,-0.542480,0.775879,-0.301758
1519402470539,-0.522705,0.757813,-0.282471
1519402470571,-0.539307,0.740967,-0.349365
1519402470579,-0.535156,0.767334,-0.391357
1519402470631,-0.515869,0.826904,-0.345947
1519402470639,-0.512207,0.864258,-0.282959
1519402470696,-0.522461,0.936523,-0.260498
1519402470709,-0.479004,0.928467,-0.246582
1519402470740,-0.479004,0.904541,-0.264893
1519402470773,-0.468506,0.890869,-0.269043
1519402470807,-0.481445,0.883789,-0.245605
1519402470839,-0.471436,0.842773,-0.227783
1519402470871,-0.470215,0.840332,-0.230957
1519402470929,-0.488281,0.862305,-0.253418
1519402470938,-0.495850,0.887939,-0.254395
1519402470994,-0.494873,0.862793,-0.250732
1519402471027,-0.486084,0.880371,-0.269775
1519402471059,-0.492432,0.873779,-0.279541
1519402471068,-0.496582,0.859131,-0.290039
1519402471116,-0.513672,0.837158,-0.311768
1519402471149,-0.520264,0.792725,-0.337402
1519402471154,-0.534180,0.768799,-0.371826
1519402471212,-0.546875,0.766113,-0.371582
1519402471238,-0.548584,0.769287,-0.345459
1519402471271,-0.542236,0.790283,-0.333496
1519402471303,-0.543945,0.791504,-0.297852
1519402471336,-0.541504,0.787109,-0.295410
1519402471368,-0.528320,0.802734,-0.278564
1519402471401,-0.532227,0.868652,-0.225830
1519402471434,-0.531982,0.892578,-0.176025
1519402471467,-0.531250,0.882568,-0.130859
