1519417170651,-0.229492,0.978027,-0.067871
1519417170683,-0.222412,0.986572,-0.080811
1519417170716,-0.221924,0.993652,-0.077881
1519417170773,-0.221680,1.001953,-0.082764
1519417170806,-0.214600,1.006104,-0.082275
1519417170838,-0.222412,0.976074,-0.094971
1519417170871,-0.223389,1.007813,-0.074951
1519417170872,-0.224365,0.995117,-0.078369
1519417170930,-0.227051,0.976563,-0.083496
1519417170931,-0.229492,0.973877,-0.094727
1519417170969,-0.222412,0.988037,-0.083252
1519417171002,-0.227539,0.991699,-0.089844
1519417171035,-0.220703,1.004639,-0.089844
1519417171067,-0.226563,1.002930,-0.094238
1519417171099,-0.220703,0.970947,-0.092773
1519417171132,-0.226563,0.981445,-0.099365
1519417171203,-0.221436,0.986816,-0.098633
1519417171205,-0.216553,1.022217,-0.083984
1519417171271,-0.225830,0.995117,-0.102539
1519417171272,-0.225342,0.975830,-0.114014
1519417171333,-0.225586,1.010742,-0.105713
1519417171335,-0.241211,0.952881,-0.124268
1519417171367,-0.228760,0.990723,-0.139160
1519417171408,-0.232666,1.040527,-0.147461
1519417171441,-0.218750,0.974609,-0.148682
1519417171447,-0.235107,0.958740,-0.131104
1519417171505,-0.235596,0.957031,-0.119141
1519417171537,-0.241699,0.970459,-0.208008
1519417171570,-0.220215,0.975586,-0.122559
1519417171602,-0.171875,1.088867,0.003662
1519417171635,-0.226563,0.983398,-0.095703
1519417171667,-0.223145,0.973389,-0.162842
1519417171700,-0.194824,1.096680,-0.064453
1519417171725,-0.228027,0.989502,-0.118896
1519417171757,-0.237793,0.934082,-0.164063
1519417171790,-0.231201,0.990723,-0.155762
1519417171823,-0.230225,0.976074,-0.139893
1519417171855,-0.222656,0.981934,-0.142822
1519417171896,-0.224854,0.988525,-0.151367
1519417171929,-0.210693,0.976807,-0.134521
1519417171931,-0.219482,0.978271,-0.118164
1519417171987,-0.230469,0.983643,-0.122070
1519417171995,-0.224121,0.992920,-0.169434
1519417172030,-0.232178,0.978516,-0.161377
1519417172087,-0.232178,0.973633,-0.109863
1519417172094,-0.235596,0.961182,-0.133057
1519417172151,-0.213867,0.985840,-0.184814
1519417172186,-0.212402,1.022461,-0.160156
1519417172197,-0.223389,0.981201,-0.122559
1519417172230,-0.236572,0.955078,-0.115723
1519417172262,-0.236084,0.974121,-0.158447
1519417172295,-0.229492,0.994629,-0.178955
1519417172327,-0.225098,0.995605,-0.127930
1519417172360,-0.234375,0.970703,-0.098877
1519417172392,-0.236816,0.976074,-0.135254
1519417172427,-0.229736,0.983398,-0.094482
1519417172460,-0.217041,0.981689,-0.087402
1519417172492,-0.230957,1.016113,-0.111816
1519417172525,-0.215820,0.986328,-0.106445
1519417172582,-0.228027,0.960205,-0.075684
1519417172584,-0.225586,1.005371,-0.069092
1519417172629,-0.239746,0.999023,-0.094971
1519417172661,-0.237305,0.987061,-0.103760
1519417172694,-0.234863,0.982178,-0.104492
1519417172726,-0.232666,0.998291,-0.090820
1519417172759,-0.223877,0.976563,-0.085693
1519417172791,-0.229248,0.985596,-0.079834
1519417172824,-0.221191,0.988281,-0.091797
1519417172856,-0.229736,1.007568,-0.094482
1519417172889,-0.229248,0.970459,-0.093994
1519417172921,-0.229980,0.970215,-0.085693
1519417172954,-0.236328,0.976563,-0.107178
1519417173005,-0.227539,1.004883,-0.095215
1519417173007,-0.232666,0.986328,-0.095947
1519417173052,-0.227783,0.975098,-0.106689
1519417173058,-0.223145,1.005615,-0.095215
1519417173092,-0.226318,0.987305,-0.091797
1519417173150,-0.230713,0.990967,-0.088623
1519417173183,-0.230713,0.990234,-0.072266
1519417173213,-0.234619,0.980957,-0.093506
1519417173246,-0.233398,0.987305,-0.106689
1519417173279,-0.224854,0.989990,-0.100830
1519417173311,-0.227783,0.999512,-0.086182
1519417173344,-0.228271,0.978027,-0.101563
1519417173378,-0.225098,0.978516,-0.086914
1519417173391,-0.233643,1.000000,-0.079346
1519417173427,-0.228760,1.004150,-0.088135
1519417173460,-0.229492,0.985840,-0.104004
1519417173494,-0.231689,0.986328,-0.100830
1519417173526,-0.223145,0.968506,-0.084473
1519417173559,-0.232178,0.974854,-0.067627
1519417173591,-0.232910,0.986328,-0.089844
1519417173623,-0.232666,1.002686,-0.093994
1519417173657,-0.225586,0.993408,-0.086914
1519417173689,-0.231201,0.976807,-0.083008
1519417173720,-0.236084,0.984863,-0.088867
1519417173740,-0.228271,0.992676,-0.084229
1519417173772,-0.230469,0.994385,-0.085205
1519417173830,-0.233154,0.979736,-0.093506
1519417173844,-0.227783,0.992432,-0.086426
1519417173877,-0.231934,0.982178,-0.077393
1519417173909,-0.232422,0.995117,-0.089111
1519417173941,-0.224609,1.000977,-0.084473
1519417173974,-0.231201,0.987305,-0.074219
1519417174007,-0.235840,0.974121,-0.087891
1519417174038,-0.221924,0.994629,-0.088623
1519417174070,-0.233887,1.008057,-0.072266
1519417174127,-0.230713,0.979736,-0.079834
1519417174129,-0.229492,1.006104,-0.086426
1519417174161,-0.224609,1.002197,-0.061768
1519417174218,-0.237305,1.006592,-0.067627
1519417174221,-0.221191,1.056641,-0.104736
1519417174305,-0.208252,1.046875,-0.110596
1519417174307,-0.249756,0.974365,0.022949
1519417174373,-0.255859,0.896729,0.098633
1519417174375,-0.236328,0.915283,0.115967
1519417174441,-0.218994,0.939209,0.053467
1519417174442,-0.231445,1.053955,0.033936
1519417174455,-0.227295,1.080078,0.042969
1519417174487,-0.239014,0.980469,0.114258
1519417174520,-0.245117,0.954102,0.145752
1519417174553,-0.231689,0.956543,0.062256
1519417174585,-0.222412,1.028564,0.162354
1519417174618,-0.230957,0.994629,0.201416
1519417174659,-0.228516,0.962891,0.127197
1519417174691,-0.238770,0.944336,0.247803
1519417174724,-0.210205,0.962158,0.151367
1519417174756,-0.249268,0.960938,0.118164
1519417174789,-0.223877,1.036621,0.063965
1519417174821,-0.205566,0.995850,0.051758
1519417174854,-0.257324,1.045898,0.100830
1519417174887,-0.219971,0.977539,0.125244
1519417174919,-0.231934,1.005615,0.104980
1519417174951,-0.222900,0.986328,0.084473
1519417174984,-0.239258,0.955811,0.074463
1519417175016,-0.226318,0.994873,0.089844
1519417175033,-0.235840,1.029297,0.100586
1519417175088,-0.220215,0.988037,0.106689
1519417175121,-0.253662,0.952393,0.113281
1519417175122,-0.233398,0.991211,0.051025
1519417175180,-0.221436,1.042480,0.024658
1519417175181,-0.226318,1.007568,0.059814
1519417175238,-0.247803,0.999756,0.023682
1519417175271,-0.247070,0.918701,0.031494
1519417175303,-0.230957,0.966553,0.077637
1519417175340,-0.227539,0.998779,0.076660
1519417175371,-0.231689,0.981934,0.100098
1519417175403,-0.223633,0.976807,0.122314
1519417175436,-0.241699,0.998779,0.058105
1519417175449,-0.221436,1.010254,0.020508
1519417175482,-0.221191,1.035400,0.074463
1519417175514,-0.244141,0.965088,0.096191
1519417175564,-0.227539,1.017334,0.072754
1519417175597,-0.244629,1.007813,-0.016602
1519417175599,-0.235840,0.957520,-0.025635
1519417175652,-0.231201,0.980225,0.108154
1519417175684,-0.240479,0.989746,0.076904
1519417175717,-0.232178,0.983154,0.017090
1519417175749,-0.217529,0.981201,0.034424
1519417175782,-0.220215,1.011475,0.083984
1519417175814,-0.229004,1.004883,0.056152
1519417175847,-0.226318,0.989258,0.025391
1519417175862,-0.239990,0.971191,0.025635
1519417175919,-0.230957,0.976074,0.031250
1519417175952,-0.227051,1.020264,0.023438
1519417175984,-0.229248,0.999023,0.017334
1519417176017,-0.224854,0.981934,0.036865
1519417176049,-0.229492,0.996338,0.038086
1519417176082,-0.228516,0.997803,0.023193
1519417176114,-0.233154,1.006592,0.007813
1519417176147,-0.227783,0.999023,0.015381
1519417176179,-0.224854,0.982666,0.018311
1519417176181,-0.232910,0.972900,0.021240
1519417176238,-0.243652,0.993896,-0.009521
1519417176245,-0.239990,0.937988,0.013184
1519417176289,-0.237061,0.966309,0.030518
1519417176347,-0.235596,1.016602,-0.012695
1519417176349,-0.238281,1.011963,-0.006348
1519417176381,-0.229248,0.938965,-0.013672
1519417176413,-0.235596,1.011719,-0.034424
1519417176446,-0.222656,1.027100,-0.059570
1519417176478,-0.223877,1.018066,-0.064209
1519417176511,-0.241455,0.970947,-0.053467
1519417176543,-0.244385,0.967285,-0.059082
1519417176576,-0.218994,1.016602,-0.089111
1519417176633,-0.233398,0.974609,-0.074707
1519417176666,-0.226807,0.978760,-0.040771
1519417176667,-0.228760,1.024902,-0.044922
1519417176712,-0.219727,0.970459,-0.012939
1519417176744,-0.232666,0.981201,0.003174
1519417176777,-0.210938,1.044922,-0.053467
1519417176812,-0.219482,0.973877,-0.069824
1519417176844,-0.236328,0.959717,-0.049316
1519417176877,-0.235352,0.972168,-0.035400
1519417176909,-0.224854,1.014160,-0.045410
1519417176942,-0.219727,1.008301,-0.055176
1519417176974,-0.220215,0.981201,-0.050537
1519417177007,-0.224365,0.996094,-0.050049
1519417177039,-0.214355,0.997803,-0.037842
1519417177072,-0.227783,0.999268,-0.037109
1519417177113,-0.224121,0.984131,-0.053711
1519417177147,-0.223389,0.992432,-0.063477
1519417177179,-0.210938,0.985352,-0.064697
1519417177212,-0.235840,0.970215,-0.053955
1519417177244,-0.232422,1.077393,-0.089600
1519417177246,-0.219971,0.972412,-0.045898
1519417177303,-0.244629,0.954590,-0.022705
1519417177304,-0.221680,0.998535,-0.071777
1519417177362,-0.222656,0.998047,-0.050537
1519417177394,-0.238281,0.964355,-0.025146
1519417177467,-0.227051,1.019287,-0.057129
1519417177468,-0.216797,1.010254,-0.076904
1519417177534,-0.235352,0.983887,-0.053711
1519417177536,-0.236084,0.970703,-0.042725
1519417177574,-0.226074,1.005859,-0.051514
1519417177577,-0.224609,0.991943,-0.070557
1519417177622,-0.237305,0.971436,-0.067139
1519417177654,-0.232422,0.972412,-0.065430
1519417177687,-0.229980,1.020508,-0.083740
1519417177719,-0.219238,0.995117,-0.086914
1519417177721,-0.238281,0.987305,-0.047119
1519417177778,-0.225830,0.952881,0.015381
1519417177811,-0.197754,1.045654,-0.074707
1519417177843,-0.229980,1.030273,-0.107910
1519417177876,-0.236084,0.917725,-0.096924
1519417177889,-0.229736,1.002441,-0.059326
1519417177922,-0.222412,0.991699,-0.062744
1519417177954,-0.219727,1.003662,-0.083008
1519417177987,-0.224121,0.975342,-0.084473
1519417178044,-0.224609,0.992676,-0.066650
1519417178077,-0.219482,0.975098,-0.074951
1519417178124,-0.224854,0.994873,-0.083984
1519417178126,-0.221924,1.010986,-0.077881
1519417178158,-0.224365,0.979248,-0.076660
1519417178193,-0.224121,0.978027,-0.077881
1519417178227,-0.229248,0.986084,-0.087891
1519417178259,-0.217529,1.015381,-0.064453
1519417178292,-0.218750,0.987061,-0.072021
1519417178324,-0.217285,1.003174,-0.085449
1519417178357,-0.216553,0.989014,-0.079102
1519417178389,-0.229492,0.979492,-0.075195
1519417178422,-0.216797,0.996826,-0.083252
1519417178454,-0.230225,0.995850,-0.082764
1519417178476,-0.230225,0.979248,-0.090088
1519417178508,-0.219238,0.968750,-0.092041
1519417178541,-0.231689,0.999268,-0.094482
1519417178573,-0.223145,0.999756,-0.073975
1519417178606,-0.223633,0.982910,-0.077637
1519417178638,-0.222900,0.990479,-0.081055
1519417178671,-0.228027,0.985352,-0.079834
1519417178712,-0.226074,0.991699,-0.081543
1519417178744,-0.227539,0.975098,-0.085449
1519417178777,-0.227539,0.982910,-0.085205
1519417178785,-0.221436,1.010742,-0.080322
1519417178841,-0.216309,0.994141,-0.077393
1519417178873,-0.228760,0.978760,-0.085938
1519417178906,-0.222900,0.981201,-0.074707
1519417178938,-0.220703,0.996826,-0.076904
1519417178971,-0.218506,0.990967,-0.080078
1519417179003,-0.221191,0.995361,-0.084961
1519417179036,-0.229736,0.969727,-0.070313
1519417179068,-0.218506,0.994141,-0.063721
1519417179082,-0.218506,1.010742,-0.092285
1519417179139,-0.228271,0.982178,-0.096680
1519417179172,-0.220215,0.985596,-0.077881
1519417179206,-0.222168,1.009766,-0.046143
1519417179238,-0.226807,0.982910,-0.059570
1519417179271,-0.230957,0.965576,-0.078125
1519417179303,-0.217773,0.980225,-0.090332
1519417179336,-0.227539,1.007568,-0.083008
1519417179368,-0.221436,1.031494,-0.079346
1519417179369,-0.224609,0.984375,-0.062744
1519417179430,-0.237061,0.965820,-0.028809
1519417179431,-0.201904,1.043213,-0.066406
1519417179488,-0.206787,1.214355,-0.096680
1519417179529,-0.177979,1.227539,0.004883
1519417179531,-0.208496,1.144287,0.175293
1519417179588,-0.298584,0.399902,0.339355
1519417179621,-0.427490,0.464111,0.741211
1519417179653,-0.277344,0.634766,0.827637
1519417179686,-0.285645,0.527832,0.969238
1519417179719,-0.324219,0.432373,0.832031
1519417179751,-0.280273,0.414795,0.885010
1519417179784,-0.290771,0.372803,0.881836
1519417179817,-0.299561,0.306152,0.905273
1519417179849,-0.337891,0.254150,0.904541
1519417179852,-0.364258,0.243896,0.869629
1519417179908,-0.343506,0.210693,0.917480
1519417179949,-0.336914,0.234375,0.858887
1519417179954,-0.322021,0.205078,0.850098
1519417180008,-0.301270,0.143799,0.985596
1519417180014,-0.302246,0.131104,1.004639
1519417180046,-0.286133,0.144531,1.031006
1519417180104,-0.269043,0.117188,1.032715
1519417180136,-0.275635,0.091064,0.986084
1519417180147,-0.273193,0.027832,0.984619
1519417180203,-0.287354,0.091553,1.007080
1519417180235,-0.292725,0.130127,0.994385
1519417180267,-0.283203,0.162842,1.003174
1519417180300,-0.263428,0.227051,0.947021
1519417180313,-0.249756,0.260498,0.864990
1519417180346,-0.243408,0.279785,0.786621
1519417180378,-0.275391,0.223389,0.847168
1519417180411,-0.196045,0.446289,0.954590
1519417180444,-0.189941,0.475098,1.045410
1519417180501,-0.206543,0.447021,1.013672
1519417180502,-0.200195,0.436768,0.932373
1519417180575,-0.212402,0.410400,0.908203
1519417180577,-0.242676,0.370605,0.875732
1519417180642,-0.225830,0.344727,0.953857
1519417180644,-0.210449,0.311768,0.927002
1519417180710,-0.166016,0.340820,0.976074
1519417180724,-0.156250,0.241699,0.974365
1519417180725,-0.142578,0.299561,0.965332
1519417180782,-0.153076,0.275635,0.934570
1519417180815,-0.144531,0.279053,0.962402
1519417180848,-0.132568,0.330078,0.964844
1519417180880,-0.155029,0.320068,0.951660
1519417180912,-0.153320,0.294922,0.980469
1519417180945,-0.151855,0.308105,1.004395
1519417180977,-0.144775,0.299072,0.942383
1519417181010,-0.154297,0.277832,0.944824
1519417181011,-0.145508,0.321289,0.956787
1519417181069,-0.128662,0.279053,0.973877
1519417181075,-0.153076,0.276611,0.944580
1519417181116,-0.143311,0.323242,0.907715
1519417181149,-0.126465,0.345947,1.014404
1519417181181,-0.140625,0.327393,0.994629
1519417181214,-0.144531,0.332764,0.949463
1519417181246,-0.145264,0.325684,0.927490
1519417181279,-0.143311,0.359131,0.950684
1519417181311,-0.148193,0.362061,0.929932
1519417181345,-0.156982,0.367676,0.922363
1519417181390,-0.135010,0.387939,0.946045
1519417181423,-0.146973,0.338379,0.945313
1519417181455,-0.140869,0.373047,0.948975
1519417181487,-0.145508,0.360107,0.949463
1519417181490,-0.145508,0.341064,0.933838
1519417181547,-0.152832,0.308838,0.934814
1519417181579,-0.147705,0.312744,0.948242
1519417181611,-0.144287,0.354004,0.965820
1519417181644,-0.138916,0.322998,0.947510
1519417181677,-0.152100,0.350830,0.951172
1519417181709,-0.145996,0.350098,0.970947
1519417181742,-0.138428,0.314941,0.951416
1519417181775,-0.139404,0.317627,0.946777
1519417181807,-0.153809,0.330322,0.955566
1519417181840,-0.144531,0.335205,0.946777
1519417181872,-0.152832,0.331543,0.938477
1519417181905,-0.147217,0.327881,0.957764
1519417181967,-0.138916,0.314697,0.953125
1519417181970,-0.140381,0.317627,0.954102
1519417181999,-0.135254,0.342529,0.967529
1519417182031,-0.143311,0.351074,0.963379
1519417182064,-0.148193,0.326660,0.915283
1519417182071,-0.153809,0.321777,0.909668
1519417182130,-0.144287,0.335205,0.970215
1519417182161,-0.147949,0.329102,0.971680
1519417182200,-0.145508,0.328369,0.940918
1519417182226,-0.143311,0.320313,0.964355
1519417182259,-0.142578,0.324219,0.946533
1519417182291,-0.149170,0.321289,0.937012
1519417182324,-0.149902,0.328369,0.947998
1519417182338,-0.148193,0.333984,0.955566
1519417182371,-0.139893,0.302246,0.951660
1519417182428,-0.137939,0.295166,0.971924
1519417182461,-0.136719,0.331543,0.982910
1519417182493,-0.133301,0.317383,0.947998
1519417182526,-0.143799,0.296631,0.962402
1519417182558,-0.155518,0.305664,0.947754
1519417182563,-0.159424,0.284668,0.934326
1519417182616,-0.133301,0.312256,0.961426
1519417182618,-0.132813,0.293213,0.968018
1519417182675,-0.138672,0.302490,0.974609
1519417182708,-0.130371,0.281006,0.979736
1519417182741,-0.139893,0.279785,0.978760
1519417182755,-0.146729,0.287354,0.976074
1519417182789,-0.139648,0.273193,0.975098
1519417182821,-0.140869,0.259277,0.953125
1519417182854,-0.141113,0.242920,0.948242
1519417182888,-0.130859,0.273682,0.985596
1519417182919,-0.123291,0.292725,1.013672
1519417182977,-0.125244,0.253662,0.960205
1519417183008,-0.130615,0.274414,0.972900
1519417183041,-0.145264,0.293457,0.957520
1519417183053,-0.148926,0.312500,0.956299
1519417183109,-0.158447,0.290527,0.949463
1519417183140,-0.154785,0.294678,0.958008
1519417183144,-0.149170,0.309570,0.967285
1519417183204,-0.138916,0.308350,0.956787
1519417183207,-0.136230,0.299561,0.952881
1519417183245,-0.141357,0.292725,0.979492
1519417183278,-0.132324,0.332275,0.964355
1519417183311,-0.145508,0.294678,0.939941
1519417183348,-0.155273,0.304199,0.954834
1519417183391,-0.148193,0.345947,0.950928
1519417183421,-0.143311,0.314697,0.964355
1519417183455,-0.145020,0.255859,0.966797
1519417183489,-0.145996,0.310303,0.966064
1519417183521,-0.143066,0.303223,0.974854
1519417183554,-0.136230,0.292725,0.940430
1519417183568,-0.139160,0.334961,0.917969
1519417183600,-0.151123,0.310791,0.949951
1519417183632,-0.143311,0.320801,0.972656
1519417183705,-0.144287,0.346680,0.973389
1519417183710,-0.135498,0.317627,0.980957
1519417183773,-0.138428,0.320068,0.956299
1519417183778,-0.141602,0.342285,0.934570
1519417183814,-0.122559,0.307861,0.946289
1519417183817,-0.132080,0.334961,0.972412
1519417183874,-0.135254,0.300049,0.952881
1519417183907,-0.140869,0.306641,0.949463
1519417183939,-0.138916,0.329346,0.945068
1519417183971,-0.133545,0.364990,0.967529
1519417183986,-0.128906,0.335205,0.965820
1519417184023,-0.133057,0.338135,0.954346
1519417184055,-0.140381,0.329590,0.942139
1519417184087,-0.140869,0.311768,0.929932
1519417184119,-0.131592,0.322021,0.951416
1519417184151,-0.133789,0.337646,0.946045
1519417184184,-0.130859,0.368164,0.961182
1519417184216,-0.118408,0.391113,0.953613
1519417184250,-0.128662,0.385010,0.943115
1519417184284,-0.140137,0.434570,0.918213
1519417184317,-0.136230,0.430420,0.895752
1519417184350,-0.129150,0.407227,0.901367
1519417184382,-0.131104,0.426270,0.916504
1519417184398,-0.123779,0.433838,0.916504
1519417184453,-0.129639,0.434082,0.924316
1519417184486,-0.128906,0.441895,0.910889
1519417184527,-0.137451,0.457520,0.910645
1519417184536,-0.135254,0.449951,0.907227
1519417184587,-0.120605,0.436279,0.935303
1519417184621,-0.132813,0.442871,0.957764
1519417184653,-0.145752,0.366211,0.896729
1519417184685,-0.137939,0.418701,0.911133
1519417184689,-0.138428,0.425537,0.913086
1519417184745,-0.145752,0.388428,0.916748
1519417184777,-0.142334,0.406250,0.921875
1519417184786,-0.147705,0.407959,0.921143
1519417184835,-0.137451,0.408447,0.932373
1519417184869,-0.141602,0.416260,0.921631
1519417184903,-0.133301,0.416992,0.914551
1519417184934,-0.135254,0.416992,0.918701
1519417184966,-0.138184,0.406006,0.934570
1519417184980,-0.135986,0.406982,0.925293
1519417185035,-0.139893,0.401855,0.922852
1519417185067,-0.148193,0.397949,0.922852
1519417185100,-0.144775,0.394287,0.918457
1519417185132,-0.143799,0.399658,0.916504
1519417185164,-0.149170,0.430176,0.913086
1519417185197,-0.144775,0.412598,0.926270
1519417185210,-0.143311,0.411621,0.929688
1519417185246,-0.150391,0.416260,0.902588
1519417185278,-0.149902,0.364990,0.902588
1519417185311,-0.138672,0.437744,0.945313
1519417185344,-0.141602,0.396729,0.938721
1519417185376,-0.145264,0.384033,0.908203
1519417185432,-0.147705,0.418701,0.897949
1519417185439,-0.137939,0.408447,0.927002
1519417185475,-0.148438,0.424316,0.940186
1519417185498,-0.145264,0.424805,0.927246
1519417185531,-0.139404,0.407471,0.924561
1519417185568,-0.145752,0.406738,0.913818
1519417185596,-0.144043,0.390137,0.912354
1519417185629,-0.142090,0.420166,0.935791
1519417185661,-0.141113,0.415771,0.931885
1519417185693,-0.148193,0.394775,0.933594
1519417185726,-0.150635,0.394775,0.944580
1519417185759,-0.139404,0.391357,0.953857
1519417185807,-0.157959,0.399414,0.922607
1519417185839,-0.153564,0.337891,0.933594
1519417185844,-0.151367,0.333008,0.923828
1519417185898,-0.154785,0.488281,0.879883
1519417185931,-0.167236,0.490479,0.873535
1519417185941,-0.163330,0.435547,0.837158
1519417185974,-0.162354,0.561768,0.896240
1519417186012,-0.165527,0.582520,0.877197
1519417186045,-0.177002,0.496826,0.803955
1519417186078,-0.121582,0.639648,0.809326
1519417186110,-0.143555,0.717529,0.780518
1519417186142,-0.144287,0.688232,0.727783
1519417186175,-0.132080,0.748047,0.703857
1519417186210,-0.152344,0.734131,0.684570
1519417186239,-0.150391,0.769531,0.634766
1519417186272,-0.152344,0.837891,0.597656
1519417186331,-0.133057,0.831543,0.553467
1519417186340,-0.162598,0.841553,0.502686
1519417186390,-0.145996,0.868896,0.516602
1519417186398,-0.147461,0.927246,0.480225
1519417186435,-0.152832,0.939209,0.426270
1519417186492,-0.148926,0.884521,0.449219
1519417186497,-0.167725,0.919189,0.480469
1519417186528,-0.183350,0.881836,0.416748
1519417186561,-0.162598,0.900391,0.431885
1519417186597,-0.165039,0.874512,0.435547
1519417186629,-0.158936,0.922852,0.435791
1519417186661,-0.150879,0.937744,0.432373
1519417186693,-0.141357,0.920410,0.408691
1519417186728,-0.159180,0.944580,0.409180
1519417186761,-0.156250,0.911133,0.424805
1519417186833,-0.169189,0.885254,0.418701
1519417186838,-0.168701,0.903564,0.377930
1519417186901,-0.148926,0.958252,0.399658
1519417186910,-0.150879,0.945801,0.408691
1519417186936,-0.156494,0.924316,0.387207
1519417186969,-0.151123,0.931885,0.379883
1519417186970,-0.149902,0.944580,0.386475
1519417187004,-0.157227,0.932617,0.392822
1519417187036,-0.159424,0.928467,0.377686
1519417187085,-0.169922,0.924316,0.367676
1519417187120,-0.159180,0.928467,0.355957
1519417187152,-0.151855,0.955078,0.368164
1519417187186,-0.154297,0.959717,0.365234
1519417187218,-0.145508,0.947754,0.368408
1519417187250,-0.157959,0.919434,0.374756
1519417187282,-0.166260,0.947754,0.387695
1519417187315,-0.165039,0.930664,0.366943
1519417187348,-0.164551,0.915039,0.360596
1519417187367,-0.162598,0.943848,0.366699
1519417187400,-0.161377,0.939453,0.362549
1519417187437,-0.159668,0.947021,0.386475
1519417187470,-0.163574,0.961914,0.372070
1519417187504,-0.157715,0.921143,0.362793
1519417187536,-0.166992,0.933594,0.376709
1519417187570,-0.173340,0.899902,0.370850
1519417187604,-0.165283,0.944580,0.362061
1519417187637,-0.172852,0.940186,0.361084
1519417187653,-0.167969,0.945313,0.353760
1519417187685,-0.164307,0.950195,0.350830
1519417187718,-0.171143,0.956787,0.368408
1519417187750,-0.159912,0.926025,0.367432
1519417187782,-0.166748,0.936768,0.364258
1519417187815,-0.164307,0.948486,0.364258
1519417187872,-0.169189,0.923096,0.364502
1519417187876,-0.171143,0.910645,0.362549
1519417187936,-0.168701,0.968262,0.360596
1519417187969,-0.170166,0.947754,0.351074
1519417187979,-0.169434,0.937500,0.358154
1519417188027,-0.172607,0.933594,0.354004
1519417188032,-0.165039,0.936279,0.357910
1519417188065,-0.167236,0.943848,0.348633
1519417188097,-0.166260,0.947266,0.364746
1519417188156,-0.170898,0.948730,0.354492
1519417188164,-0.171875,0.931641,0.346680
1519417188220,-0.177002,0.936279,0.346191
1519417188253,-0.169434,0.932861,0.336426
1519417188285,-0.158447,0.959717,0.353760
1519417188317,-0.165283,0.960693,0.358643
1519417188365,-0.164795,0.950195,0.355469
1519417188367,-0.166260,0.930176,0.350098
1519417188399,-0.171631,0.933594,0.354248
1519417188432,-0.167969,0.936279,0.352051
1519417188464,-0.162842,0.951660,0.361084
1519417188505,-0.162598,0.949707,0.353027
1519417188513,-0.164795,0.949707,0.354004
1519417188569,-0.163330,0.931641,0.361328
1519417188601,-0.162598,0.942139,0.361328
1519417188636,-0.166748,0.948486,0.360107
1519417188668,-0.165527,0.937256,0.361816
1519417188701,-0.166992,0.942139,0.356445
1519417188734,-0.166504,0.956055,0.353027
1519417188765,-0.163818,0.918213,0.356201
1519417188797,-0.172119,0.939453,0.375000
1519417188830,-0.168457,0.939697,0.365234
1519417188865,-0.164307,0.930420,0.361328
1519417188880,-0.162598,0.950928,0.363037
1519417188912,-0.166260,0.946289,0.364746
1519417188944,-0.164307,0.927734,0.371826
1519417189002,-0.172852,0.922607,0.373291
1519417189034,-0.164063,0.942139,0.370117
1519417189036,-0.157471,0.953613,0.354248
1519417189095,-0.166748,0.942139,0.369141
1519417189100,-0.169189,0.933594,0.391846
1519417189129,-0.163818,0.917725,0.383545
1519417189161,-0.161377,0.931641,0.375244
1519417189219,-0.157715,0.940918,0.382568
1519417189251,-0.169189,0.943359,0.388916
1519417189283,-0.165283,0.930176,0.372559
1519417189297,-0.168701,0.930664,0.374512
1519417189331,-0.170898,0.915771,0.376221
1519417189364,-0.166504,0.937988,0.384766
1519417189398,-0.161377,0.949951,0.392822
1519417189431,-0.155762,0.940186,0.375000
1519417189462,-0.158203,0.933594,0.383301
1519417189496,-0.170410,0.921631,0.389404
1519417189528,-0.172363,0.919189,0.389648
1519417189560,-0.167725,0.939697,0.395508
1519417189593,-0.164795,0.931885,0.388428
1519417189646,-0.163330,0.935059,0.391113
1519417189678,-0.159180,0.928223,0.382568
1519417189683,-0.160645,0.937012,0.397217
1519417189725,-0.169922,0.926514,0.393555
1519417189758,-0.164551,0.918213,0.386719
1519417189790,-0.166992,0.914795,0.395508
1519417189827,-0.166748,0.936523,0.394531
1519417189859,-0.159668,0.917236,0.380859
1519417189932,-0.162109,0.924561,0.407959
1519417189940,-0.166748,0.918945,0.396484
1519417189999,-0.165771,0.937744,0.392578
1519417190012,-0.164063,0.935059,0.390137
1519417190054,-0.161133,0.940186,0.394043
1519417190058,-0.161377,0.935791,0.402344
1519417190090,-0.161377,0.927246,0.392334
1519417190095,-0.163330,0.919189,0.384521
1519417190148,-0.159668,0.923340,0.398193
1519417190181,-0.168945,0.932129,0.403320
1519417190214,-0.159912,0.925781,0.392334
1519417190247,-0.156982,0.920654,0.396484
1519417190279,-0.159668,0.928223,0.399902
1519417190318,-0.165771,0.927734,0.397217
1519417190344,-0.165039,0.925049,0.395752
1519417190376,-0.161865,0.931152,0.391357
1519417190409,-0.171387,0.926514,0.389160
1519417190441,-0.160400,0.931152,0.391113
1519417190473,-0.156738,0.937500,0.400635
1519417190490,-0.162109,0.924561,0.404785
1519417190547,-0.170410,0.911865,0.394775
1519417190579,-0.163574,0.917969,0.384277
1519417190584,-0.163574,0.945557,0.394775
1519417190636,-0.164795,0.934570,0.392090
1519417190638,-0.163330,0.921143,0.394531
1519417190697,-0.162842,0.923340,0.401123
1519417190728,-0.155518,0.918945,0.418457
1519417190760,-0.159180,0.930664,0.450928
1519417190771,-0.165771,0.921631,0.407227
1519417190827,-0.159424,0.931152,0.376953
1519417190860,-0.160889,0.941162,0.365723
1519417190892,-0.163574,0.925781,0.374023
1519417190926,-0.174072,0.910889,0.393311
1519417190960,-0.176270,0.921143,0.402100
1519417190993,-0.164307,0.943848,0.394287
1519417191024,-0.145996,0.952148,0.416016
1519417191057,-0.171143,0.918945,0.397949
1519417191090,-0.154785,0.883545,0.391846
1519417191122,-0.180176,0.911133,0.397949
1519417191155,-0.157227,0.930908,0.404541
1519417191160,-0.157227,0.963623,0.384521
1519417191213,-0.145508,0.931396,0.365723
1519417191221,-0.162598,0.918213,0.371094
1519417191276,-0.165527,0.913818,0.379883
1519417191309,-0.165771,0.956055,0.384277
1519417191322,-0.153564,0.934570,0.396484
1519417191356,-0.156494,0.934570,0.384766
1519417191396,-0.145752,0.951904,0.379395
1519417191429,-0.145996,0.968506,0.376221
1519417191461,-0.149902,0.941162,0.395020
1519417191494,-0.166260,0.873779,0.384033
1519417191526,-0.168701,0.924805,0.379150
1519417191559,-0.148193,0.948730,0.380127
1519417191591,-0.152100,0.936523,0.387695
1519417191624,-0.159180,0.925537,0.401367
1519417191657,-0.154785,0.921875,0.395020
1519417191689,-0.155029,0.935059,0.394043
1519417191728,-0.153076,0.938477,0.386230
1519417191732,-0.158203,0.936035,0.373535
1519417191790,-0.150146,0.930420,0.376709
1519417191823,-0.161133,0.937256,0.384033
1519417191855,-0.149658,0.943604,0.382813
1519417191887,-0.160156,0.939941,0.366211
1519417191920,-0.152832,0.937012,0.362549
1519417191954,-0.149414,0.936279,0.364014
1519417191986,-0.154297,0.944580,0.361328
1519417192020,-0.156250,0.924316,0.348389
1519417192052,-0.147461,0.948486,0.365234
1519417192085,-0.146240,0.960693,0.356201
1519417192117,-0.155518,0.958008,0.350586
1519417192133,-0.151367,0.922852,0.343750
1519417192205,-0.155518,0.942383,0.339111
1519417192214,-0.149414,0.957275,0.346436
1519417192216,-0.156738,0.953369,0.349121
1519417192272,-0.152344,0.943115,0.347900
1519417192305,-0.148682,0.943115,0.338135
1519417192337,-0.155762,0.947998,0.358643
1519417192351,-0.151611,0.956787,0.356934
1519417192384,-0.149902,0.932617,0.339844
1519417192416,-0.153076,0.960938,0.333740
1519417192449,-0.149414,0.957031,0.353271
1519417192481,-0.154541,0.940918,0.349854
1519417192521,-0.160400,0.950195,0.343506
1519417192554,-0.154785,0.938477,0.329590
1519417192586,-0.153564,0.956299,0.352295
1519417192618,-0.154297,0.948975,0.350586
1519417192651,-0.151611,0.940674,0.347168
1519417192684,-0.151855,0.956787,0.360107
1519417192719,-0.157715,0.956299,0.340332
1519417192751,-0.154541,0.943359,0.334229
1519417192784,-0.153320,0.947754,0.339355
1519417192816,-0.159180,0.953857,0.332520
1519417192849,-0.161621,0.946289,0.343750
1519417192881,-0.152344,0.946289,0.351563
1519417192914,-0.157227,0.952881,0.337402
1519417192929,-0.155518,0.964355,0.357666
1519417192986,-0.149170,0.931396,0.347412
1519417193059,-0.154785,0.943604,0.335205
1519417193060,-0.155762,0.959961,0.342285
1519417193127,-0.163086,0.953125,0.339600
1519417193176,-0.161377,0.941162,0.333252
1519417193182,-0.153564,0.951416,0.333008
1519417193187,-0.155762,0.959473,0.342041
1519417193215,-0.150146,0.938477,0.345947
1519417193242,-0.149414,0.945313,0.345215
1519417193275,-0.149414,0.937744,0.350098
1519417193277,-0.147949,0.956299,0.345215
1519417193340,-0.147705,0.946045,0.350830
1519417193344,-0.153809,0.945068,0.339111
1519417193390,-0.150635,0.933105,0.354980
1519417193449,-0.154053,0.972656,0.332275
1519417193451,-0.155518,0.955078,0.326416
1519417193485,-0.161865,0.925293,0.327393
1519417193518,-0.156250,0.955566,0.351807
1519417193551,-0.143799,0.958740,0.351318
1519417193584,-0.150146,0.945557,0.357422
1519417193619,-0.155762,0.948242,0.344727
1519417193649,-0.152832,0.951660,0.341309
1519417193684,-0.148682,0.947021,0.338135
1519417193716,-0.151611,0.951904,0.359863
1519417193749,-0.148438,0.957520,0.345703
1519417193781,-0.152344,0.966309,0.326172
1519417193815,-0.152832,0.933105,0.336426
1519417193847,-0.162842,0.935791,0.341553
1519417193879,-0.155029,0.952881,0.346191
1519417193911,-0.153564,0.960449,0.344238
1519417193944,-0.148438,0.945801,0.348633
1519417193976,-0.155762,0.946289,0.348389
1519417194009,-0.147217,0.942139,0.350342
1519417194041,-0.157715,0.947754,0.345703
1519417194074,-0.155762,0.940430,0.358154
1519417194107,-0.137207,0.963623,0.361084
1519417194147,-0.152588,0.945313,0.348877
1519417194180,-0.158691,0.943115,0.339600
1519417194216,-0.155273,0.929932,0.331787
1519417194245,-0.171631,0.948975,0.339844
1519417194279,-0.157715,0.948730,0.359863
1519417194311,-0.160645,0.946777,0.357178
1519417194344,-0.148193,0.947021,0.346436
1519417194345,-0.156494,0.937744,0.349609
1519417194404,-0.150635,0.942627,0.367920
1519417194409,-0.150879,0.943359,0.355713
1519417194464,-0.150146,0.944336,0.364746
1519417194496,-0.148926,0.952393,0.367920
1519417194529,-0.149170,0.941162,0.352539
1519417194544,-0.152832,0.937256,0.345947
1519417194576,-0.161133,0.947754,0.356201
1519417194609,-0.157471,0.938232,0.342041
1519417194644,-0.155029,0.951416,0.346191
1519417194677,-0.146484,0.952637,0.357422
1519417194710,-0.156494,0.922119,0.367432
1519417194765,-0.151367,0.939941,0.372314
1519417194771,-0.153564,0.986084,0.329834
1519417194829,-0.152100,0.939453,0.352051
1519417194830,-0.167969,0.912598,0.332275
1519417194889,-0.165283,0.962158,0.337402
1519417194921,-0.150391,0.942627,0.338867
1519417194923,-0.156250,0.957520,0.342529
1519417194994,-0.150146,0.961914,0.348877
1519417194998,-0.145508,0.944336,0.359863
1519417195027,-0.160889,0.947998,0.346191
1519417195059,-0.160400,0.944336,0.326416
1519417195091,-0.152832,0.942627,0.344238
1519417195125,-0.157715,0.949707,0.356445
1519417195156,-0.162354,0.956055,0.342529
1519417195189,-0.154297,0.943359,0.329346
1519417195221,-0.160156,0.945801,0.342285
1519417195270,-0.152344,0.937988,0.351074
1519417195301,-0.151367,0.955322,0.351563
1519417195334,-0.155518,0.949463,0.346680
1519417195375,-0.160400,0.939453,0.339600
1519417195409,-0.158447,0.949219,0.340332
1519417195411,-0.151855,0.962402,0.339844
1519417195469,-0.143799,0.950928,0.345215
1519417195474,-0.154541,0.943848,0.356689
1519417195526,-0.153809,0.945801,0.346924
1519417195559,-0.154053,0.950195,0.340332
1519417195591,-0.155029,0.954102,0.338135
1519417195602,-0.157227,0.953613,0.339111
1519417195658,-0.149414,0.949219,0.355225
1519417195690,-0.153564,0.947021,0.359619
1519417195724,-0.165283,0.950684,0.335938
1519417195755,-0.156494,0.936279,0.327637
1519417195769,-0.161377,0.940918,0.334717
1519417195802,-0.153564,0.965576,0.350098
1519417195838,-0.145752,0.962158,0.351074
1519417195892,-0.150879,0.941406,0.327637
1519417195896,-0.152588,0.923828,0.337158
1519417195951,-0.160156,0.953369,0.359619
1519417195984,-0.153076,0.955322,0.366699
1519417195985,-0.156250,0.963135,0.343750
1519417196046,-0.151855,0.958496,0.329834
1519417196050,-0.148926,0.945801,0.340088
1519417196108,-0.146729,0.942627,0.346924
1519417196180,-0.147461,0.945557,0.341309
1519417196182,-0.146729,0.947510,0.339844
1519417196229,-0.151123,0.964600,0.336182
1519417196231,-0.151855,0.939697,0.339111
1519417196262,-0.154785,0.957520,0.353027
1519417196295,-0.159424,0.934082,0.355713
1519417196328,-0.158691,0.955811,0.334961
1519417196361,-0.150146,0.949951,0.335205
1519417196394,-0.147949,0.945068,0.347656
1519417196427,-0.146484,0.950684,0.337891
1519417196459,-0.155518,0.950928,0.338867
1519417196465,-0.154297,0.953613,0.339600
1519417196522,-0.159180,0.948730,0.335205
1519417196532,-0.152588,0.940918,0.332520
1519417196568,-0.150391,0.954590,0.333740
1519417196626,-0.149414,0.961182,0.338867
1519417196632,-0.152344,0.942627,0.334961
1519417196665,-0.149902,0.934814,0.344971
1519417196721,-0.142822,0.960205,0.367432
1519417196754,-0.155273,0.958252,0.334229
1519417196786,-0.147217,0.959717,0.325439
1519417196819,-0.147949,0.943604,0.348877
1519417196851,-0.153320,0.948242,0.352295
1519417196884,-0.152100,0.950928,0.332031
1519417196917,-0.152832,0.953857,0.322510
1519417196949,-0.146729,0.949463,0.339844
1519417196950,-0.148438,0.960449,0.351074
1519417197015,-0.144043,0.950684,0.338623
1519417197047,-0.149902,0.943115,0.341553
1519417197048,-0.156006,0.942383,0.346924
1519417197105,-0.150146,0.952148,0.325439
1519417197117,-0.159912,0.951416,0.334961
1519417197149,-0.145020,0.957764,0.347656
1519417197182,-0.135986,0.964844,0.352295
1519417197216,-0.145508,0.956055,0.344727
1519417197246,-0.151123,0.945313,0.343506
1519417197281,-0.145264,0.933350,0.351074
1519417197325,-0.141602,0.961426,0.358154
1519417197358,-0.146729,0.964844,0.344238
1519417197391,-0.152832,0.956055,0.321777
1519417197424,-0.157471,0.940674,0.333252
1519417197456,-0.152588,0.950439,0.337402
1519417197489,-0.148926,0.947510,0.319580
1519417197522,-0.140625,0.957031,0.335449
1519417197528,-0.138916,0.961426,0.347900
1519417197585,-0.146240,0.956787,0.354004
1519417197618,-0.152344,0.946045,0.354004
1519417197650,-0.144775,0.949707,0.337402
1519417197683,-0.136230,0.950195,0.342773
1519417197715,-0.138184,0.945068,0.351318
1519417197748,-0.144531,0.952148,0.342773
1519417197780,-0.139160,0.954834,0.337158
1519417197794,-0.146240,0.946289,0.343750
1519417197826,-0.145996,0.959717,0.340088
1519417197885,-0.142090,0.948730,0.333252
1519417197893,-0.138672,0.952637,0.337402
1519417197950,-0.140625,0.950195,0.342773
1519417197981,-0.146973,0.945557,0.344727
1519417198014,-0.144287,0.948242,0.342041
1519417198016,-0.145020,0.952881,0.338867
1519417198073,-0.143066,0.958252,0.338135
1519417198107,-0.141357,0.946533,0.343018
1519417198111,-0.144043,0.945557,0.340576
1519417198168,-0.137695,0.950439,0.345459
1519417198176,-0.143066,0.957520,0.346191
1519417198212,-0.142090,0.943604,0.345459
1519417198245,-0.144043,0.952148,0.336426
1519417198279,-0.144775,0.951904,0.335449
1519417198312,-0.139648,0.959473,0.340332
1519417198344,-0.137451,0.948730,0.345215
1519417198377,-0.140625,0.948486,0.342529
1519417198409,-0.142822,0.951172,0.340820
1519417198441,-0.139404,0.953613,0.337891
1519417198474,-0.145508,0.944336,0.344727
1519417198509,-0.138672,0.952637,0.345215
1519417198541,-0.145752,0.955078,0.338379
1519417198576,-0.139404,0.944092,0.337646
1519417198605,-0.140381,0.952148,0.338135
1519417198655,-0.142578,0.954346,0.343750
1519417198657,-0.136963,0.960938,0.344482
1519417198714,-0.139404,0.948242,0.346680
1519417198746,-0.147217,0.942383,0.333740
1519417198779,-0.143555,0.943115,0.339111
1519417198811,-0.145264,0.953857,0.340576
1519417198844,-0.141357,0.955566,0.346191
1519417198877,-0.141846,0.947266,0.335205
1519417198909,-0.142334,0.948486,0.341797
1519417198941,-0.134033,0.955566,0.345215
1519417198974,-0.145020,0.951660,0.341553
1519417198990,-0.144775,0.947021,0.339600
1519417199029,-0.137451,0.956299,0.327393
1519417199061,-0.141602,0.961426,0.337158
1519417199094,-0.149902,0.936279,0.349365
1519417199126,-0.146973,0.942383,0.330322
1519417199161,-0.145264,0.947754,0.324219
1519417199192,-0.140381,0.945068,0.330811
1519417199225,-0.132080,0.960693,0.325195
1519417199299,-0.137451,0.988770,0.312500
1519417199366,-0.137451,0.967773,0.302490
1519417199375,-0.145508,0.951904,0.310547
1519417199416,-0.151611,0.949951,0.320313
1519417199425,-0.141357,0.941895,0.329834
1519417199434,-0.129150,0.989014,0.306396
1519417199440,-0.132080,0.961182,0.275879
1519417199472,-0.121826,0.977783,0.272217
1519417199505,-0.136963,0.985840,0.311768
1519417199538,-0.140869,0.963623,0.295410
1519417199595,-0.152100,0.974609,0.289307
1519417199627,-0.153564,0.961426,0.271973
1519417199660,-0.130615,0.932129,0.290527
1519417199665,-0.160156,0.961914,0.310059
1519417199720,-0.125732,0.946045,0.288086
1519417199721,-0.151855,0.980713,0.263916
1519417199753,-0.137207,0.980713,0.244629
1519417199810,-0.141846,0.980713,0.289551
1519417199824,-0.136230,0.974609,0.303711
1519417199857,-0.143799,0.965576,0.269531
1519417199886,-0.139648,0.968750,0.252441
1519417199944,-0.132324,0.975830,0.274902
1519417199952,-0.147705,0.966064,0.278809
1519417200008,-0.135986,0.989014,0.269775
1519417200040,-0.127197,0.974854,0.266113
1519417200073,-0.147461,0.970459,0.264160
1519417200105,-0.144043,0.973633,0.264893
1519417200137,-0.144775,0.965576,0.274414
1519417200170,-0.148193,0.956787,0.262695
1519417200202,-0.152100,0.945068,0.257324
1519417200235,-0.146240,0.976563,0.286377
1519417200237,-0.132813,0.999023,0.268555
1519417200284,-0.123779,1.004883,0.259521
1519417200316,-0.136475,0.975342,0.251221
1519417200349,-0.142090,0.945313,0.258301
1519417200381,-0.147949,0.961426,0.271484
1519417200414,-0.146729,0.979736,0.263916
1519417200449,-0.137207,0.997314,0.248291
1519417200481,-0.143799,0.969727,0.249756
1519417200514,-0.130371,0.991943,0.276123
1519417200547,-0.143799,0.959229,0.265137
1519417200585,-0.134766,0.970215,0.232666
1519417200618,-0.138916,0.979980,0.252930
1519417200651,-0.134766,0.992676,0.259277
1519417200665,-0.136719,0.983398,0.245117
1519417200722,-0.140381,0.986816,0.243408
1519417200728,-0.145508,0.973389,0.251953
1519417200782,-0.132324,0.962402,0.250977
1519417200814,-0.134766,0.983887,0.237793
1519417200823,-0.132813,0.985596,0.252197
1519417200872,-0.133789,0.982910,0.256836
1519417200907,-0.134521,0.986084,0.249268
1519417200939,-0.140625,0.985596,0.242188
1519417200970,-0.149414,0.975830,0.238281
1519417201002,-0.147949,0.978516,0.249023
1519417201035,-0.140137,0.970703,0.252197
1519417201069,-0.136475,0.982666,0.248779
1519417201082,-0.134277,0.981689,0.247559
1519417201139,-0.136963,0.984863,0.253174
1519417201167,-0.140625,0.975830,0.245361
1519417201199,-0.135986,0.976563,0.249268
1519417201232,-0.142090,0.982178,0.247314
1519417201265,-0.145264,0.979980,0.244141
1519417201297,-0.144531,0.991943,0.241455
1519417201305,-0.138916,0.988037,0.249756
1519417201355,-0.134521,0.975098,0.241699
1519417201388,-0.135742,0.969238,0.244141
1519417201396,-0.124756,0.981689,0.245361
1519417201453,-0.129150,0.992432,0.259766
1519417201486,-0.140869,0.971191,0.260498
1519417201499,-0.141113,0.979492,0.250732
1519417201532,-0.143555,0.980469,0.244629
1519417201567,-0.143066,0.974609,0.241943
1519417201599,-0.144531,0.980957,0.240967
1519417201629,-0.139404,0.987549,0.247803
1519417201663,-0.143311,0.976074,0.246094
1519417201697,-0.147217,0.976318,0.248047
1519417201730,-0.135498,0.979492,0.247559
1519417201763,-0.136719,0.979248,0.252930
1519417201794,-0.140381,0.976074,0.260986
1519417201852,-0.133301,0.972168,0.263428
1519417201884,-0.135010,0.981934,0.248291
1519417201890,-0.139160,0.971436,0.249023
1519417201930,-0.138428,0.979980,0.261963
1519417201962,-0.139893,0.983887,0.264404
1519417201994,-0.148438,0.971924,0.244873
1519417202027,-0.151123,0.961914,0.247559
1519417202059,-0.147705,0.977783,0.233643
1519417202094,-0.143555,0.961182,0.223145
1519417202126,-0.142090,0.983887,0.239014
1519417202159,-0.136475,1.003662,0.225830
1519417202192,-0.136475,1.003906,0.229980
1519417202226,-0.146484,0.974609,0.219482
1519417202261,-0.145752,0.970703,0.229980
1519417202292,-0.137207,0.990479,0.228760
1519417202332,-0.132324,1.005371,0.227783
1519417202364,-0.134766,0.989746,0.236328
1519417202369,-0.133789,0.974854,0.238281
1519417202433,-0.128418,0.971191,0.231689
1519417202441,-0.123535,0.979736,0.228760
1519417202499,-0.111328,0.996094,0.228760
1519417202567,-0.115723,0.991455,0.236572
1519417202576,-0.117676,0.974365,0.239014
1519417202584,-0.128174,0.977051,0.233643
1519417202600,-0.123047,0.990723,0.227051
1519417202633,-0.122314,0.994873,0.233887
1519417202667,-0.121826,0.990479,0.217773
1519417202699,-0.123291,0.989014,0.222412
1519417202733,-0.126953,0.988525,0.228760
1519417202774,-0.127686,0.982666,0.221436
1519417202805,-0.129883,0.990234,0.209717
1519417202838,-0.127441,0.991943,0.209473
1519417202843,-0.124756,0.990723,0.217773
1519417202900,-0.132080,0.983398,0.226318
1519417202933,-0.136719,0.984131,0.217041
1519417202965,-0.130615,0.985107,0.210693
1519417202998,-0.132568,0.988037,0.208008
1519417203030,-0.130371,0.989258,0.213379
1519417203063,-0.127441,0.985107,0.223633
1519417203096,-0.133057,0.991455,0.207275
1519417203108,-0.134033,0.990479,0.220215
1519417203141,-0.137939,0.981201,0.215576
1519417203173,-0.141602,0.988281,0.194824
1519417203206,-0.136719,0.990723,0.206055
1519417203269,-0.123779,0.993408,0.221191
1519417203297,-0.129395,0.984619,0.215820
1519417203330,-0.126465,0.978271,0.214111
1519417203338,-0.127197,0.987305,0.214844
1519417203373,-0.129883,0.990479,0.216064
1519417203407,-0.128906,0.988525,0.220215
1519417203438,-0.126465,0.988037,0.217041
1519417203495,-0.142090,0.986084,0.215576
1519417203501,-0.136475,0.990234,0.204102
1519417203529,-0.135010,0.987305,0.206299
1519417203590,-0.129883,0.986084,0.220459
1519417203599,-0.131104,0.993408,0.216309
1519417203645,-0.127930,0.988037,0.209229
1519417203679,-0.133789,0.991943,0.211914
1519417203728,-0.139648,0.985596,0.220947
1519417203736,-0.136475,0.981201,0.208252
1519417203762,-0.136230,0.989746,0.208984
1519417203794,-0.131348,0.995117,0.208008
1519417203825,-0.131836,0.992920,0.219482
1519417203857,-0.134033,0.979736,0.214111
1519417203890,-0.131592,0.994629,0.204346
1519417203923,-0.129150,0.989502,0.209961
1519417203964,-0.129150,0.982666,0.214844
1519417203996,-0.128662,0.988770,0.211426
1519417204004,-0.126221,0.992920,0.211670
1519417204060,-0.139160,0.984863,0.212158
1519417204093,-0.134766,0.987793,0.211182
1519417204126,-0.140381,0.986572,0.202393
1519417204158,-0.138916,0.996338,0.201416
1519417204189,-0.137207,0.995117,0.208496
1519417204231,-0.136475,0.981445,0.204102
1519417204254,-0.133789,0.986816,0.206787
1519417204288,-0.140381,0.985596,0.204834
1519417204325,-0.145264,0.985352,0.208008
1519417204339,-0.142822,0.985596,0.204102
1519417204370,-0.136719,1.001953,0.199463
1519417204403,-0.132813,0.988525,0.204346
1519417204436,-0.129883,0.987061,0.216309
1519417204467,-0.135742,0.982178,0.212402
1519417204499,-0.132813,0.990723,0.205566
1519417204558,-0.138428,0.983398,0.199219
1519417204563,-0.137451,1.000244,0.200684
1519417204592,-0.141846,0.992676,0.205566
1519417204651,-0.145264,0.983154,0.201660
1519417204659,-0.139648,0.989502,0.208008
1519417204709,-0.133545,0.989014,0.199219
1519417204742,-0.139160,0.988525,0.208496
1519417204755,-0.132813,0.988281,0.216553
1519417204787,-0.134277,0.986816,0.208496
1519417204820,-0.133301,0.990234,0.203613
1519417204853,-0.140381,0.993652,0.203613
1519417204884,-0.143066,0.979736,0.209229
1519417204916,-0.139893,0.996094,0.201660
1519417204950,-0.132568,0.990723,0.202148
1519417205006,-0.139160,0.992676,0.209961
1519417205039,-0.129883,0.996094,0.209717
1519417205071,-0.131592,0.991211,0.207764
1519417205076,-0.131104,0.994629,0.212891
1519417205132,-0.131592,0.984131,0.214355
1519417205140,-0.133301,0.986816,0.215332
1519417205190,-0.131104,0.990479,0.212158
1519417205223,-0.138184,0.991211,0.200439
1519417205256,-0.144775,0.994141,0.206543
1519417205266,-0.147705,0.982910,0.197998
1519417205323,-0.137207,0.980469,0.194580
1519417205355,-0.134033,0.997803,0.209717
1519417205388,-0.126709,0.992920,0.211914
1519417205420,-0.127441,0.989502,0.213623
1519417205454,-0.132813,0.990967,0.217041
1519417205525,-0.134033,0.988525,0.217529
1519417205529,-0.139160,0.979004,0.207031
1519417205593,-0.134277,0.982666,0.206787
1519417205660,-0.135010,0.988037,0.212402
1519417205668,-0.143311,0.990967,0.215576
1519417205679,-0.140625,0.996094,0.192383
1519417205686,-0.137695,1.001953,0.190186
1519417205720,-0.140381,0.983398,0.204834
1519417205723,-0.143555,0.975830,0.201416
1519417205755,-0.138184,0.995850,0.202881
1519417205786,-0.133789,0.995605,0.205078
1519417205819,-0.141602,0.998291,0.209473
1519417205852,-0.140869,0.973877,0.199463
1519417205886,-0.144531,0.983643,0.200195
1519417205917,-0.133057,0.996826,0.203125
1519417205949,-0.128662,1.005859,0.203613
1519417205981,-0.123047,0.989990,0.213867
1519417206014,-0.124268,0.989990,0.211670
1519417206046,-0.135010,0.989258,0.203125
1519417206079,-0.137939,0.988525,0.189209
1519417206113,-0.141357,0.978516,0.216553
1519417206144,-0.132813,0.985840,0.212646
1519417206201,-0.125244,1.008789,0.197754
1519417206208,-0.123779,1.008057,0.208984
1519417206238,-0.122803,0.993164,0.218750
1519417206287,-0.144043,0.979248,0.217285
1519417206296,-0.145020,0.970459,0.208252
1519417206350,-0.142578,0.984619,0.187500
1519417206385,-0.145996,1.002686,0.173340
1519417206416,-0.140381,0.990967,0.195313
1519417206429,-0.154785,1.003174,0.200928
1519417206461,-0.138672,0.988770,0.177734
1519417206496,-0.143555,0.989990,0.189697
1519417206526,-0.146973,0.989258,0.191650
1519417206583,-0.150391,0.995117,0.190430
1519417206616,-0.151123,0.985596,0.200928
1519417206620,-0.150635,0.995361,0.200928
1519417206675,-0.151611,0.991943,0.185059
1519417206681,-0.151855,0.985840,0.200684
1519417206710,-0.150879,0.991211,0.208008
1519417206768,-0.147705,0.983887,0.201904
1519417206801,-0.149170,0.974854,0.192871
1519417206832,-0.150146,1.010254,0.181885
1519417206845,-0.146484,1.003418,0.163330
1519417206878,-0.145752,0.989014,0.172852
1519417206910,-0.164795,0.982666,0.170654
1519417206942,-0.154541,0.982666,0.184082
1519417206974,-0.161621,1.000977,0.178223
1519417207007,-0.161865,1.002197,0.175537
1519417207066,-0.168945,0.989258,0.166016
1519417207099,-0.170410,0.993652,0.150879
1519417207129,-0.158691,0.972168,0.143799
1519417207162,-0.166748,1.008057,0.153564
1519417207195,-0.177490,1.015137,0.150879
1519417207204,-0.157227,0.978516,0.162598
1519417207257,-0.155518,0.977051,0.173096
1519417207262,-0.190674,0.991455,0.161621
1519417207291,-0.173340,0.993164,0.158691
1519417207348,-0.183350,0.973389,0.148682
1519417207356,-0.171387,0.996582,0.147461
1519417207415,-0.174316,0.997803,0.151367
1519417207448,-0.180908,0.988770,0.162354
1519417207483,-0.174561,0.989746,0.159180
1519417207511,-0.170166,0.999268,0.156982
1519417207566,-0.173340,0.993408,0.155273
1519417207571,-0.170898,0.979980,0.160156
1519417207600,-0.166016,0.994873,0.165039
1519417207633,-0.172607,0.993164,0.175293
1519417207666,-0.172607,0.979004,0.164795
1519417207675,-0.177734,0.986328,0.163574
1519417207731,-0.166016,0.997070,0.163330
1519417207761,-0.172363,0.980713,0.168701
1519417207794,-0.172607,0.994873,0.172363
1519417207827,-0.175781,0.992188,0.170410
1519417207861,-0.177979,0.975830,0.173340
1519417207892,-0.170410,0.985840,0.168701
1519417207924,-0.168945,1.006592,0.174805
1519417207957,-0.167725,0.995361,0.180664
1519417207990,-0.176758,0.989014,0.172607
1519417208022,-0.174561,0.977783,0.163818
1519417208055,-0.171143,0.988281,0.172852
1519417208070,-0.176270,0.994385,0.175537
1519417208130,-0.174316,0.985107,0.170410
1519417208162,-0.167725,0.987549,0.181641
1519417208171,-0.172363,0.998291,0.175781
1519417208235,-0.165527,0.986328,0.171631
1519417208261,-0.166748,0.986816,0.180664
1519417208270,-0.155518,0.986328,0.181152
1519417208320,-0.154785,0.989258,0.182861
1519417208329,-0.154053,1.007568,0.183350
1519417208353,-0.147217,0.996582,0.189697
1519417208423,-0.163818,0.992920,0.187012
1519417208428,-0.154541,0.986572,0.187744
1519417208457,-0.152344,0.988525,0.181152
1519417208490,-0.156006,0.988037,0.187256
1519417208520,-0.155762,0.993896,0.191650
1519417208553,-0.152832,0.999512,0.186035
1519417208587,-0.156006,0.993164,0.179199
1519417208661,-0.161377,0.986572,0.175537
1519417208669,-0.169678,0.989014,0.177979
1519417208728,-0.166504,0.972168,0.179199
1519417208737,-0.163330,0.995117,0.181152
1519417208775,-0.157227,0.997070,0.175049
1519417208808,-0.152588,0.987305,0.194824
1519417208848,-0.159668,0.975342,0.193604
1519417208857,-0.152832,1.000244,0.181885
1519417208905,-0.151611,1.004150,0.173584
1519417208911,-0.136963,0.980713,0.188232
1519417208939,-0.145264,0.990723,0.200928
1519417208972,-0.156982,0.986816,0.193604
1519417209005,-0.155029,1.000977,0.181885
1519417209036,-0.147217,0.980469,0.178711
1519417209069,-0.158203,0.989014,0.194824
1519417209102,-0.153809,0.995117,0.197266
1519417209141,-0.153564,0.961182,0.176270
1519417209173,-0.149170,0.991943,0.172363
1519417209205,-0.164307,1.009521,0.175537
1519417209242,-0.138916,0.992920,0.180908
1519417209270,-0.139160,0.967285,0.161377
1519417209304,-0.146484,1.011475,0.178955
1519417209336,-0.150879,1.017334,0.171387
1519417209369,-0.131592,1.000244,0.167236
1519417209402,-0.134521,0.970459,0.167725
1519417209433,-0.145508,1.002686,0.196289
1519417209466,-0.140381,0.997803,0.152832
1519417209498,-0.117188,1.014893,0.133545
1519417209530,-0.131348,1.013672,0.157471
1519417209562,-0.147217,0.998047,0.153564
1519417209594,-0.130615,0.962646,0.168213
1519417209627,-0.091553,0.969238,0.192383
1519417209661,-0.111084,1.041016,0.152100
1519417209703,-0.086914,1.033203,0.194580
1519417209736,-0.094238,0.979004,0.208496
1519417209768,-0.118652,0.956787,0.169678
1519417209801,-0.118896,1.027100,0.145752
1519417209809,-0.118408,0.992432,0.152832
1519417209859,-0.128418,1.020020,0.131592
1519417209891,-0.127197,1.025635,0.137451
1519417209900,-0.099121,0.975342,0.141113
1519417209953,-0.116699,0.998535,0.161865
1519417209987,-0.127441,1.035645,0.146484
1519417210019,-0.098633,0.999756,0.174561
1519417210052,-0.140625,0.990967,0.140869
1519417210085,-0.133545,1.020752,0.135010
1519417210100,-0.105713,1.013428,0.143555
1519417210131,-0.129883,0.977539,0.152588
1519417210186,-0.138672,0.989014,0.106934
1519417210312,-0.131104,1.010010,0.124756
1519417210313,-0.117676,1.053467,0.149170
1519417210314,-0.120850,1.007080,0.174072
1519417210315,-0.135742,0.951416,0.184814
1519417210330,-0.186523,1.028809,0.121338
1519417210363,-0.155273,0.950439,0.023682
1519417210396,-0.206543,1.036133,-0.036377
1519417210429,-0.325195,1.052002,0.048340
1519417210460,-0.415527,1.127930,0.080078
1519417210493,-0.499023,0.930420,0.040283
1519417210534,-0.333740,0.927002,0.004395
1519417210567,-0.215820,0.896484,0.002441
1519417210599,-0.183594,0.907471,-0.042480
1519417210632,0.047852,0.938232,-0.031982
1519417210664,-0.041992,1.008057,0.108887
1519417210696,-0.011230,0.988770,0.094482
1519417210729,0.012939,0.952881,-0.037354
1519417210762,0.121582,0.988525,0.042236
1519417210794,0.134033,1.050049,0.059814
1519417210827,0.174316,1.131836,-0.032959
1519417210859,0.174561,1.010498,0.003662
1519417210865,0.097656,0.959961,0.061035
1519417210924,0.083984,0.998535,0.038574
1519417210957,0.059570,1.110352,0.035889
1519417210966,0.015869,1.142090,0.105713
1519417211014,-0.026611,1.043701,-0.010010
1519417211047,-0.031738,1.017822,-0.129395
1519417211084,0.000488,1.146484,-0.054688
1519417211117,0.057861,1.030273,0.020508
1519417211149,0.058105,0.937988,-0.015869
1519417211182,-0.013428,0.965088,-0.037598
1519417211214,0.028076,1.024658,-0.010986
1519417211247,0.039551,1.026123,-0.061035
1519417211279,-0.031250,1.049316,-0.026123
1519417211312,-0.009766,1.011475,-0.017090
1519417211325,-0.004639,1.000000,-0.022705
1519417211358,0.054932,1.054199,0.002197
1519417211407,0.025879,1.082275,-0.020996
1519417211439,0.063721,1.072998,-0.017822
1519417211445,0.070313,1.032715,0.005615
1519417211499,-0.018555,0.956299,0.016846
1519417211529,-0.014648,0.876953,-0.055420
1519417211562,-0.010742,0.875000,-0.115967
1519417211595,-0.089111,0.977295,-0.041260
1519417211627,0.002930,1.035645,-0.049561
1519417211659,0.007324,1.065674,-0.035645
1519417211691,-0.043701,1.029053,-0.027344
1519417211764,-0.102051,1.006348,-0.034912
1519417211767,-0.102783,1.051025,-0.015381
1519417211834,-0.052002,1.002197,-0.061035
1519417211839,-0.091064,0.993652,-0.081787
1519417211894,-0.071777,0.972412,-0.080078
1519417211900,-0.006836,1.074219,-0.059814
1519417211928,0.001709,1.035156,-0.076660
1519417211933,-0.020996,1.011719,-0.076172
1519417211987,-0.098877,1.038330,-0.071533
1519417212020,-0.092285,1.020264,-0.064209
1519417212023,-0.017822,1.034668,-0.049561
1519417212080,0.016846,1.038818,-0.078613
1519417212088,-0.031738,1.007813,-0.099609
1519417212122,-0.040527,0.990967,-0.097656
1519417212178,0.009277,0.997314,-0.088623
1519417212193,-0.046631,1.036865,-0.049561
1519417212225,-0.046143,1.032471,-0.029053
1519417212257,-0.027832,0.998535,-0.068115
1519417212292,0.000732,1.004395,-0.036865
1519417212322,-0.001465,0.991943,-0.040039
1519417212356,-0.059570,1.034668,-0.094971
1519417212387,-0.054932,1.077393,-0.103271
1519417212444,-0.020020,1.037109,-0.063721
1519417212477,-0.040283,0.984375,0.000732
1519417212509,-0.074707,0.985352,-0.006592
1519417212516,-0.060303,0.992920,-0.044434
1519417212567,-0.036133,0.960205,-0.013672
1519417212570,-0.071533,1.018555,0.050293
1519417212628,-0.039795,1.026123,0.089111
1519417212663,-0.045410,1.000488,0.079346
1519417212687,-0.044189,1.034912,0.080811
1519417212720,-0.043213,1.010986,0.141846
1519417212753,-0.039795,0.998291,0.143555
1519417212784,-0.033203,1.003174,0.113281
1519417212817,-0.036865,1.041016,0.129150
1519417212851,-0.022949,1.010498,0.143555
1519417212883,-0.021484,0.973633,0.178467
1519417212914,-0.046387,0.989014,0.187256
1519417212947,-0.028320,1.025635,0.208984
1519417212980,-0.021240,1.003174,0.211914
1519417213016,-0.025391,0.994629,0.204590
1519417213048,-0.037842,0.996826,0.149658
1519417213081,-0.024414,1.005127,0.145508
1519417213085,-0.018311,1.001953,0.187012
1519417213141,-0.027832,1.020996,0.188232
1519417213174,-0.042725,1.000244,0.157959
1519417213205,-0.035645,1.009766,0.185303
1519417213248,-0.039063,0.997070,0.169434
1519417213269,-0.040283,1.022217,0.156006
1519417213302,-0.021729,0.989990,0.154541
1519417213336,-0.031250,0.982178,0.173096
1519417213368,-0.031250,1.007324,0.201904
1519417213401,-0.020020,1.003662,0.197998
1519417213418,-0.035645,1.020020,0.160889
1519417213473,-0.026611,1.021240,0.156494
1519417213506,-0.035645,0.993164,0.177002
1519417213537,-0.039551,0.985352,0.170166
1519417213570,-0.017090,1.016357,0.161377
1519417213573,-0.008789,1.036133,0.182373
1519417213630,-0.016357,0.999268,0.189209
1519417213638,-0.010498,0.991455,0.188477
1519417213689,-0.008789,1.023438,0.158203
1519417213719,-0.010986,1.015381,0.157227
1519417213754,-0.030029,0.984863,0.200684
1519417213785,-0.015137,0.996582,0.227295
1519417213818,-0.029541,1.018799,0.204102
1519417213832,-0.045898,0.968506,0.178223
1519417213889,-0.028564,0.995117,0.181396
1519417213923,-0.036133,1.005371,0.161377
1519417213967,-0.030273,1.002930,0.180908
1519417213972,-0.026611,1.016357,0.179932
1519417214017,-0.030762,1.014404,0.166016
1519417214049,-0.033936,0.993408,0.165283
1519417214081,-0.040283,0.991699,0.164063
1519417214115,-0.034180,0.997803,0.168457
1519417214149,-0.028809,1.001953,0.158203
1519417214158,-0.031738,1.003418,0.160645
1519417214207,-0.029297,1.029541,0.171631
1519417214212,-0.039795,1.006104,0.147217
1519417214255,-0.044922,0.994873,0.150391
1519417214286,-0.042725,1.002441,0.145508
1519417214320,-0.032715,0.993164,0.127197
1519417214353,-0.033936,1.001953,0.138916
1519417214384,-0.031738,1.031006,0.160156
1519417214416,-0.025391,1.036133,0.133789
1519417214450,-0.020020,1.024902,0.114502
1519417214482,-0.039795,1.012451,0.135742
1519417214514,-0.031494,1.024414,0.154053
1519417214546,-0.022217,1.024414,0.131592
1519417214579,-0.026123,1.039063,0.082031
1519417214612,0.083008,1.093506,0.008789
1519417214646,0.182373,1.140869,-0.123047
1519417214703,-0.073975,1.084229,-0.096924
1519417214736,-0.293213,0.904297,0.156982
1519417214744,-0.297119,0.886475,0.286377
1519417214795,-0.103271,0.968506,0.150146
1519417214802,-0.014160,0.974121,0.017334
1519417214826,-0.050293,0.956055,-0.045898
1519417214899,-0.134277,0.967285,0.008057
1519417214905,-0.161865,1.012939,0.028809
1519417214967,-0.115967,1.039551,0.045410
1519417214972,-0.050049,1.098633,0.009033
1519417215014,-0.107178,1.040771,-0.004395
1519417215046,-0.127686,0.951416,-0.038818
1519417215060,-0.120850,0.996338,-0.090576
1519417215092,-0.098145,1.066650,-0.050293
1519417215151,-0.092041,1.052246,0.042236
1519417215182,-0.118408,0.984863,0.121338
1519417215216,-0.121338,0.985840,0.090088
1519417215220,-0.093994,1.024170,0.059570
1519417215275,-0.115234,1.018311,0.056641
1519417215286,-0.113281,1.030762,0.047852
1519417215332,-0.114746,1.018311,0.087646
1519417215366,-0.133545,1.017334,0.107910
1519417215399,-0.166504,1.010986,0.055176
1519417215430,-0.152588,1.029297,0.043213
1519417215463,-0.142578,1.054932,0.041260
1519417215478,-0.166992,1.163818,0.108887
1519417215511,-0.142090,1.090820,0.159668
1519417215541,-0.157959,1.126709,0.110107
1519417215574,-0.153809,1.196045,0.073486
1519417215641,-0.164307,1.162354,0.128906
1519417215665,-0.255859,1.117188,0.100586
1519417215699,-0.285889,1.036621,0.002441
1519417215703,-0.362305,0.937256,-0.054199
1519417215757,-0.467285,0.843018,-0.137939
1519417215789,-0.506104,0.812744,-0.141602
1519417215797,-0.536133,0.771973,-0.110107
1519417215846,-0.537109,0.692383,0.007568
1519417215865,-0.559814,0.692871,0.099854
1519417215910,-0.586914,0.634766,0.029541
1519417215941,-0.629639,0.614258,0.060059
1519417215974,-0.631104,0.626709,0.104736
1519417216007,-0.605469,0.778320,0.079834
1519417216039,-0.640625,0.757813,-0.020996
1519417216071,-0.662842,0.683838,-0.020508
1519417216104,-0.657959,0.795898,0.003906
1519417216137,-0.740234,0.712158,-0.168945
1519417216171,-0.707275,0.772217,-0.198242
1519417216203,-0.675049,0.787109,-0.157471
1519417216236,-0.642578,0.644043,-0.159668
1519417216268,-0.704834,0.679443,-0.205078
1519417216283,-0.667236,0.758545,-0.261963
1519417216342,-0.681885,0.768799,-0.241943
1519417216350,-0.672363,0.685791,-0.231445
1519417216376,-0.670898,0.690674,-0.263184
1519417216433,-0.659912,0.778076,-0.224609
1519417216441,-0.653564,0.696045,-0.225830
1519417216470,-0.664063,0.653564,-0.271973
1519417216527,-0.652100,0.747314,-0.305176
1519417216558,-0.678711,0.755127,-0.302490
1519417216592,-0.665771,0.685791,-0.273682
1519417216626,-0.653320,0.703125,-0.273193
1519417216657,-0.672852,0.677734,-0.337646
1519417216691,-0.671875,0.716797,-0.322998
1519417216705,-0.662842,0.781982,-0.339355
1519417216737,-0.645020,0.732666,-0.352783
1519417216771,-0.649902,0.645264,-0.321045
1519417216829,-0.640869,0.701416,-0.309326
1519417216854,-0.631836,0.780518,-0.310303
1519417216860,-0.644043,0.717529,-0.347168
1519417216916,-0.642822,0.679199,-0.365723
1519417216925,-0.640137,0.739746,-0.326660
1519417216976,-0.636475,0.702148,-0.363281
1519417217009,-0.622070,0.724121,-0.380371
1519417217041,-0.647461,0.659180,-0.391113
1519417217074,-0.656006,0.658691,-0.398193
1519417217106,-0.633057,0.717285,-0.339844
1519417217120,-0.627441,0.677734,-0.341064
1519417217157,-0.624023,0.737061,-0.371582
1519417217186,-0.614014,0.777344,-0.369873
1519417217219,-0.619385,0.732910,-0.399170
1519417217278,-0.621826,0.711182,-0.391357
1519417217308,-0.627441,0.697021,-0.365967
1519417217340,-0.627197,0.685791,-0.366455
1519417217343,-0.627441,0.667725,-0.353516
1519417217400,-0.623047,0.705322,-0.368652
1519417217405,-0.627441,0.683105,-0.414307
1519417217459,-0.629395,0.708496,-0.413818
1519417217490,-0.621582,0.721436,-0.396484
1519417217523,-0.621826,0.720459,-0.371582
1519417217536,-0.617188,0.702148,-0.349121
1519417217569,-0.627441,0.687744,-0.380371
1519417217601,-0.627930,0.706299,-0.395020
1519417217634,-0.638672,0.710205,-0.404785
1519417217668,-0.624268,0.713623,-0.380127
1519417217701,-0.621338,0.671875,-0.358887
1519417217757,-0.624023,0.676270,-0.381592
1519417217808,-0.615234,0.702148,-0.392334
1519417217817,-0.621826,0.693359,-0.380127
1519417217825,-0.625488,0.702637,-0.405762
1519417217873,-0.626953,0.709717,-0.429443
1519417217905,-0.630371,0.704102,-0.388672
1519417217938,-0.620361,0.706543,-0.390869
1519417218019,-0.626465,0.659912,-0.380615
1519417218025,-0.624023,0.704102,-0.388184
1519417218086,-0.617920,0.659668,-0.414795
1519417218091,-0.621338,0.690430,-0.414551
1519417218135,-0.625488,0.731934,-0.404053
1519417218143,-0.617188,0.675049,-0.409424
1519417218167,-0.620850,0.690918,-0.403564
1519417218199,-0.620117,0.675049,-0.417969
1519417218233,-0.629639,0.673828,-0.435059
1519417218266,-0.621582,0.702637,-0.407959
1519417218299,-0.614258,0.712158,-0.400146
1519417218310,-0.608643,0.694824,-0.421143
1519417218356,-0.624756,0.661133,-0.463867
1519417218370,-0.620361,0.684814,-0.439697
1519417218403,-0.618408,0.686768,-0.391357
1519417218461,-0.615479,0.673584,-0.422607
1519417218470,-0.630615,0.687012,-0.466797
1519417218521,-0.635254,0.734131,-0.488770
1519417218553,-0.620117,0.664063,-0.389893
1519417218586,-0.614746,0.698730,-0.350830
1519417218619,-0.618164,0.685303,-0.373291
1519417218653,-0.617676,0.674072,-0.434814
1519417218684,-0.631104,0.659424,-0.437256
1519417218716,-0.638672,0.679932,-0.417480
1519417218751,-0.612305,0.669922,-0.390137
1519417218783,-0.622070,0.693848,-0.364746
1519417218792,-0.639893,0.666504,-0.384766
1519417218846,-0.623291,0.701660,-0.410889
1519417218878,-0.639893,0.695068,-0.403320
1519417218883,-0.625000,0.690674,-0.403564
1519417218937,-0.624756,0.702637,-0.399658
1519417218969,-0.625732,0.707764,-0.391602
1519417219003,-0.630859,0.694092,-0.371094
1519417219034,-0.623291,0.678223,-0.379883
1519417219086,-0.640137,0.677002,-0.424316
1519417219091,-0.633301,0.689941,-0.401123
1519417219120,-0.638184,0.680176,-0.378662
1519417219153,-0.629395,0.687012,-0.396240
1519417219187,-0.629395,0.700439,-0.392578
1519417219220,-0.628418,0.726318,-0.356201
1519417219258,-0.616699,0.695557,-0.391113
1519417219283,-0.636230,0.669922,-0.399902
1519417219317,-0.636719,0.682373,-0.400146
1519417219349,-0.633789,0.705566,-0.386475
1519417219380,-0.635498,0.688965,-0.382324
1519417219438,-0.625488,0.691406,-0.391113
1519417219443,-0.635254,0.717529,-0.369873
1519417219475,-0.620361,0.701660,-0.371582
1519417219535,-0.636230,0.691406,-0.402100
1519417219542,-0.632080,0.702393,-0.376221
1519417219567,-0.626709,0.678711,-0.364014
1519417219608,-0.625244,0.693115,-0.409912
1519417219642,-0.645752,0.704834,-0.424072
1519417219675,-0.632568,0.704346,-0.384277
1519417219708,-0.625244,0.675537,-0.362793
1519417219741,-0.623047,0.698975,-0.382568
1519417219778,-0.640381,0.679199,-0.395996
1519417219811,-0.634033,0.695068,-0.417725
1519417219843,-0.641846,0.714111,-0.386963
1519417219875,-0.631836,0.676025,-0.392822
1519417219908,-0.624268,0.697754,-0.364746
1519417219941,-0.620850,0.751465,-0.357422
1519417219949,-0.629395,0.675293,-0.391602
1519417220003,-0.631348,0.693604,-0.368408
1519417220035,-0.631348,0.735352,-0.365479
1519417220043,-0.640137,0.652344,-0.406006
1519417220097,-0.647461,0.664551,-0.413330
1519417220130,-0.646729,0.708496,-0.435059
1519417220167,-0.636230,0.685059,-0.432129
1519417220197,-0.629639,0.709961,-0.364502
1519417220229,-0.616943,0.687012,-0.335938
1519417220261,-0.625000,0.648682,-0.361816
1519417220295,-0.639648,0.658203,-0.382568
1519417220326,-0.637695,0.690674,-0.412598
1519417220367,-0.649414,0.691162,-0.414063
1519417220400,-0.631836,0.687744,-0.357910
1519417220414,-0.622314,0.687256,-0.382324
1519417220446,-0.627441,0.685059,-0.432129
1519417220478,-0.639648,0.700684,-0.421631
1519417220511,-0.622070,0.675049,-0.361816
1519417220544,-0.635742,0.668457,-0.363770
1519417220576,-0.635010,0.680664,-0.455811
1519417220608,-0.641846,0.677490,-0.424805
1519417220642,-0.624512,0.689941,-0.390869
1519417220675,-0.620850,0.664063,-0.421387
1519417220708,-0.635010,0.681396,-0.424316
1519417220744,-0.625000,0.698486,-0.391846
1519417220776,-0.630859,0.709229,-0.399658
1519417220808,-0.612061,0.632324,-0.401367
1519417220823,-0.635986,0.682373,-0.423340
1519417220855,-0.626465,0.720215,-0.447754
1519417220913,-0.630127,0.663574,-0.410400
1519417220945,-0.619629,0.651855,-0.428467
1519417220978,-0.622314,0.689941,-0.386230
1519417221010,-0.625977,0.704102,-0.368896
1519417221016,-0.618896,0.697266,-0.389893
1519417221069,-0.631104,0.683105,-0.401123
1519417221075,-0.627686,0.667969,-0.378418
1519417221143,-0.623047,0.648926,-0.413818
1519417221150,-0.644531,0.689209,-0.421875
1519417221210,-0.635254,0.663086,-0.471191
1519417221260,-0.634277,0.668945,-0.445313
1519417221267,-0.626221,0.688721,-0.394043
1519417221288,-0.619873,0.698242,-0.378662
1519417221322,-0.625977,0.680420,-0.388428
1519417221355,-0.635010,0.674316,-0.429199
1519417221388,-0.631592,0.695801,-0.413086
1519417221421,-0.625977,0.678223,-0.398438
1519417221453,-0.631592,0.675049,-0.443359
1519417221485,-0.639160,0.693848,-0.430420
1519417221490,-0.619385,0.697266,-0.383545
1519417221544,-0.606689,0.658936,-0.375732
1519417221576,-0.657227,0.697510,-0.409180
1519417221608,-0.613281,0.693359,-0.421631
1519417221646,-0.630127,0.695068,-0.389160
1519417221651,-0.636230,0.697266,-0.395996
1519417221688,-0.628174,0.677979,-0.402344
1519417221720,-0.629395,0.697021,-0.389160
1519417221778,-0.635742,0.670654,-0.402344
1519417221812,-0.626221,0.676025,-0.404053
1519417221820,-0.635254,0.685059,-0.422607
1519417221875,-0.640869,0.686035,-0.395508
1519417221907,-0.628662,0.701660,-0.379639
1519417221939,-0.626221,0.698242,-0.395020
1519417221972,-0.639893,0.685547,-0.406250
1519417221977,-0.628174,0.671143,-0.407959
1519417222024,-0.634277,0.650879,-0.383301
1519417222057,-0.642578,0.686279,-0.387451
1519417222089,-0.631348,0.700684,-0.395508
1519417222124,-0.640625,0.685791,-0.408936
1519417222157,-0.635254,0.693604,-0.391113
1519417222189,-0.621338,0.683838,-0.391113
1519417222222,-0.629639,0.691895,-0.395996
1519417222263,-0.634033,0.701172,-0.402588
1519417222287,-0.632080,0.671631,-0.392578
1519417222321,-0.634766,0.676514,-0.388672
1519417222353,-0.644775,0.691162,-0.392090
1519417222386,-0.629395,0.687256,-0.399414
1519417222418,-0.628662,0.689941,-0.383301
1519417222430,-0.622314,0.703125,-0.380859
1519417222489,-0.630859,0.690430,-0.402344
1519417222522,-0.636230,0.702881,-0.389893
1519417222555,-0.631836,0.680176,-0.382568
1519417222562,-0.631836,0.672852,-0.390625
1519417222611,-0.630615,0.685303,-0.381836
1519417222645,-0.625244,0.682617,-0.381836
1519417222654,-0.628906,0.681641,-0.395020
1519417222706,-0.638428,0.705566,-0.408447
1519417222738,-0.626953,0.704834,-0.382568
1519417222771,-0.631104,0.698975,-0.416748
1519417222803,-0.631348,0.697021,-0.409424
1519417222835,-0.625488,0.703369,-0.358643
1519417222849,-0.627197,0.676025,-0.372070
1519417222885,-0.639648,0.671875,-0.415283
1519417222926,-0.647949,0.693115,-0.408936
1519417222958,-0.630371,0.725586,-0.390137
1519417222992,-0.640869,0.681641,-0.420898
1519417223024,-0.627686,0.659180,-0.382813
1519417223056,-0.623291,0.705078,-0.332275
1519417223088,-0.628906,0.694580,-0.384766
1519417223121,-0.632568,0.676514,-0.374268
1519417223153,-0.629883,0.696533,-0.361816
1519417223186,-0.627686,0.664795,-0.396973
1519417223218,-0.630859,0.678711,-0.413086
1519417223251,-0.649170,0.706787,-0.420410
1519417223292,-0.628662,0.714844,-0.379883
1519417223295,-0.627441,0.677002,-0.401855
1519417223350,-0.632080,0.692383,-0.390381
1519417223383,-0.622314,0.687744,-0.374512
1519417223416,-0.641846,0.687988,-0.365967
1519417223449,-0.632324,0.699951,-0.420166
1519417223481,-0.631836,0.708252,-0.390625
1519417223513,-0.628662,0.708252,-0.361816
1519417223546,-0.634277,0.689453,-0.361084
1519417223578,-0.629639,0.655762,-0.402100
1519417223611,-0.630615,0.705322,-0.379150
1519417223646,-0.641357,0.711670,-0.383301
1519417223680,-0.629395,0.697021,-0.371338
1519417223695,-0.636963,0.651123,-0.372070
1519417223726,-0.639404,0.713379,-0.359375
1519417223784,-0.627441,0.710449,-0.369629
1519417223789,-0.634277,0.676270,-0.400391
1519417223819,-0.639893,0.669678,-0.393066
1519417223876,-0.637451,0.713623,-0.378174
1519417223881,-0.640137,0.693115,-0.390625
1519417223934,-0.640625,0.697266,-0.370117
1519417223968,-0.623535,0.707275,-0.388184
1519417224000,-0.644043,0.685059,-0.384521
1519417224009,-0.630615,0.698730,-0.353516
1519417224063,-0.632813,0.688232,-0.384033
1519417224096,-0.644531,0.706055,-0.387939
1519417224113,-0.640137,0.699463,-0.376221
1519417224146,-0.638184,0.687256,-0.382324
1519417224180,-0.620850,0.708008,-0.358643
1519417224248,-0.631592,0.715088,-0.380127
1519417224250,-0.633057,0.688477,-0.369385
1519417224315,-0.630615,0.698730,-0.335938
1519417224317,-0.636963,0.703125,-0.387451
1519417224374,-0.636475,0.687256,-0.402100
1519417224376,-0.644043,0.708008,-0.377930
1519417224408,-0.630615,0.691895,-0.358887
1519417224440,-0.639648,0.699463,-0.402344
1519417224473,-0.636719,0.689697,-0.383057
1519417224505,-0.634521,0.692627,-0.378906
1519417224547,-0.652832,0.718750,-0.401855
1519417224579,-0.640381,0.681152,-0.371094
1519417224614,-0.631836,0.671631,-0.359619
1519417224622,-0.642578,0.682373,-0.385254
1519417224678,-0.641113,0.688965,-0.378662
1519417224713,-0.640381,0.709961,-0.368408
1519417224743,-0.637695,0.677734,-0.374756
1519417224745,-0.632324,0.681885,-0.382568
1519417224777,-0.645508,0.689697,-0.345947
1519417224834,-0.630371,0.695801,-0.383057
1519417224838,-0.648438,0.682617,-0.418945
1519417224895,-0.645264,0.695557,-0.399658
1519417224928,-0.636475,0.688965,-0.340332
1519417224941,-0.634521,0.681152,-0.386963
1519417224974,-0.643311,0.693115,-0.399414
1519417225006,-0.634766,0.708984,-0.368896
1519417225039,-0.633789,0.693848,-0.373535
1519417225072,-0.635498,0.695801,-0.371582
1519417225129,-0.638428,0.687012,-0.383545
1519417225161,-0.637939,0.707764,-0.381836
1519417225163,-0.637451,0.685547,-0.387207
1519417225220,-0.644287,0.705566,-0.372559
1519417225253,-0.629639,0.697998,-0.382568
1519417225257,-0.640381,0.699219,-0.395508
1519417225312,-0.633789,0.687988,-0.368652
1519417225344,-0.630371,0.713135,-0.344971
1519417225358,-0.628418,0.692627,-0.374756
1519417225393,-0.641357,0.693848,-0.391602
1519417225425,-0.635498,0.690186,-0.380371
1519417225458,-0.634521,0.706787,-0.359375
1519417225487,-0.641602,0.694580,-0.386719
1519417225544,-0.642090,0.677490,-0.395020
1519417225555,-0.636475,0.681885,-0.387939
1519417225610,-0.638184,0.714111,-0.371826
1519417225618,-0.628662,0.693359,-0.352051
1519417225674,-0.625732,0.699219,-0.349854
1519417225707,-0.644531,0.699463,-0.374756
1519417225739,-0.643799,0.669922,-0.386719
1519417225740,-0.650146,0.667236,-0.410156
1519417225810,-0.650146,0.674316,-0.385010
1519417225816,-0.639893,0.689453,-0.377197
1519417225849,-0.641357,0.697754,-0.382324
1519417225906,-0.630371,0.691162,-0.395020
1519417225908,-0.634033,0.714111,-0.375000
1519417225940,-0.635498,0.691895,-0.391602
1519417225979,-0.638184,0.691895,-0.366943
1519417226011,-0.639160,0.689209,-0.361084
1519417226044,-0.641357,0.692871,-0.397949
1519417226076,-0.639404,0.696045,-0.371826
1519417226109,-0.626709,0.694580,-0.368896
1519417226141,-0.637451,0.683594,-0.378418
1519417226183,-0.634766,0.705566,-0.379395
1519417226215,-0.627930,0.692871,-0.375488
1519417226248,-0.635498,0.698975,-0.398193
1519417226280,-0.637695,0.711670,-0.375488
1519417226313,-0.637939,0.703125,-0.347656
1519417226318,-0.637207,0.678711,-0.386719
1519417226375,-0.638672,0.690186,-0.379395
1519417226408,-0.637939,0.695313,-0.362305
1519417226414,-0.635254,0.703369,-0.384521
1519417226472,-0.639893,0.687012,-0.387939
1519417226505,-0.636475,0.695068,-0.344727
1519417226540,-0.641113,0.707520,-0.353027
1519417226571,-0.647949,0.674316,-0.401855
1519417226587,-0.637939,0.678223,-0.397949
1519417226618,-0.634277,0.700684,-0.366455
1519417226650,-0.632568,0.714600,-0.362305
1519417226683,-0.635010,0.701172,-0.370117
1519417226715,-0.645752,0.696533,-0.376709
1519417226765,-0.644287,0.681641,-0.387207
1519417226798,-0.638916,0.682373,-0.347900
1519417226830,-0.635986,0.695313,-0.349854
1519417226863,-0.645752,0.683594,-0.384277
1519417226895,-0.637695,0.699707,-0.382324
1519417226896,-0.644287,0.703369,-0.365479
1519417226954,-0.642578,0.682373,-0.384277
1519417226987,-0.639404,0.698242,-0.372314
1519417227000,-0.639648,0.697754,-0.360596
1519417227058,-0.638672,0.687500,-0.363037
1519417227063,-0.645508,0.705566,-0.377197
1519417227120,-0.637451,0.693604,-0.384277
1519417227153,-0.641846,0.700195,-0.357910
1519417227185,-0.633545,0.696777,-0.354492
1519417227218,-0.640137,0.697021,-0.384033
1519417227250,-0.637695,0.705811,-0.373535
1519417227283,-0.634766,0.688721,-0.363281
1519417227315,-0.643311,0.694580,-0.366455
1519417227391,-0.642822,0.709229,-0.389648
1519417227457,-0.638916,0.718262,-0.336914
1519417227459,-0.631592,0.704834,-0.332520
1519417227495,-0.641602,0.677979,-0.361816
1519417227496,-0.643311,0.687500,-0.370605
1519417227497,-0.646973,0.711182,-0.367676
1519417227530,-0.641602,0.696045,-0.364746
1519417227563,-0.638916,0.689941,-0.353516
1519417227595,-0.644287,0.692383,-0.370605
1519417227627,-0.637939,0.720703,-0.346436
1519417227660,-0.642334,0.705811,-0.349854
1519417227733,-0.642578,0.695557,-0.357422
1519417227734,-0.645752,0.703125,-0.376465
1519417227800,-0.645752,0.681885,-0.374512
1519417227801,-0.638184,0.698486,-0.343262
1519417227854,-0.635254,0.710205,-0.331055
1519417227856,-0.637939,0.708984,-0.364258
1519417227888,-0.647705,0.710205,-0.375488
1519417227920,-0.641846,0.707520,-0.374756
1519417227953,-0.636230,0.699707,-0.336426
1519417227985,-0.634277,0.680664,-0.328857
1519417228048,-0.641846,0.718994,-0.353760
1519417228049,-0.646729,0.711670,-0.376953
1519417228090,-0.638428,0.707764,-0.356201
1519417228091,-0.644775,0.693115,-0.357178
1519417228180,-0.642090,0.695068,-0.368408
1519417228181,-0.631348,0.696533,-0.356445
1519417228223,-0.629883,0.725098,-0.334473
1519417228224,-0.626221,0.709473,-0.334473
1519417228314,-0.648682,0.697754,-0.378906
1519417228356,-0.638916,0.705078,-0.352539
1519417228374,-0.641602,0.689697,-0.342529
1519417228376,-0.646729,0.700195,-0.358887
1519417228448,-0.633789,0.684326,-0.347412
1519417228489,-0.630371,0.693115,-0.354248
1519417228491,-0.631104,0.698242,-0.391846
1519417228493,-0.645264,0.750000,-0.414551
1519417228524,-0.649902,0.710693,-0.398193
1519417228580,-0.638916,0.679932,-0.372559
1519417228583,-0.632324,0.676025,-0.351318
1519417228623,-0.629883,0.695801,-0.339111
1519417228656,-0.638428,0.696289,-0.353271
1519417228714,-0.640137,0.691162,-0.366211
1519417228736,-0.644043,0.700195,-0.377686
1519417228742,-0.652100,0.684082,-0.407959
1519417228799,-0.637939,0.696777,-0.380127
1519417228806,-0.635498,0.695068,-0.361572
1519417228852,-0.627686,0.686523,-0.362793
1519417228884,-0.635254,0.696533,-0.368164
1519417228917,-0.643066,0.727295,-0.376953
1519417228925,-0.637451,0.706055,-0.375977
1519417228981,-0.640137,0.691650,-0.365234
1519417229013,-0.637695,0.692871,-0.366699
1519417229045,-0.631104,0.684082,-0.370850
1519417229078,-0.635254,0.692139,-0.379883
1519417229110,-0.640869,0.700195,-0.379150
1519417229143,-0.635498,0.701416,-0.383545
1519417229176,-0.638672,0.713135,-0.363525
1519417229189,-0.634521,0.689209,-0.379395
1519417229222,-0.630859,0.696533,-0.357666
1519417229254,-0.643066,0.698730,-0.378418
1519417229327,-0.635254,0.686523,-0.380371
1519417229336,-0.635498,0.703125,-0.375977
1519417229358,-0.642578,0.691162,-0.382813
1519417229387,-0.628418,0.685059,-0.371094
1519417229426,-0.632324,0.695313,-0.362793
1519417229458,-0.625977,0.696533,-0.349609
1519417229491,-0.628418,0.689209,-0.345215
1519417229522,-0.628662,0.690186,-0.348389
1519417229580,-0.619385,0.669922,-0.406982
1519417229590,-0.619385,0.759766,-0.456787
1519417229625,-0.644287,0.797119,-0.498047
1519417229658,-0.646240,0.756104,-0.496826
1519417229691,-0.629883,0.718018,-0.335205
1519417229725,-0.604004,0.757324,-0.289551
1519417229756,-0.632080,0.708496,-0.278076
1519417229790,-0.625488,0.706299,-0.314697
1519417229821,-0.643066,0.632568,-0.349609
1519417229855,-0.643799,0.666504,-0.300781
1519417229886,-0.679932,0.605469,-0.307373
1519417229920,-0.662354,0.650635,-0.337402
1519417229952,-0.668457,0.715332,-0.341797
1519417229986,-0.639648,0.659180,-0.309814
1519417230025,-0.655273,0.788574,-0.311523
1519417230058,-0.637451,0.723877,-0.308838
1519417230090,-0.646729,0.730469,-0.359131
1519417230096,-0.653809,0.702881,-0.346924
1519417230149,-0.655762,0.720459,-0.274902
1519417230155,-0.647461,0.728760,-0.302246
1519417230189,-0.653320,0.759277,-0.323242
1519417230245,-0.639893,0.710449,-0.314941
1519417230250,-0.634766,0.622314,-0.279785
1519417230309,-0.659424,0.687988,-0.283447
1519417230341,-0.644043,0.696533,-0.354980
