1519241899700,-0.116211,-0.327637,0.969238
1519241899735,-0.153564,-0.322998,1.000000
1519241899769,-0.192871,-0.295166,1.005859
1519241899802,-0.176270,-0.336914,0.959961
1519241899820,-0.145508,-0.397461,0.897705
1519241899871,-0.122559,-0.439453,0.872559
1519241899900,-0.097900,-0.419678,0.861328
1519241899918,-0.070068,-0.407227,0.857422
1519241899968,-0.057617,-0.385498,0.839844
1519241899985,-0.088867,-0.306885,0.840088
1519241900019,-0.093994,-0.341309,0.917480
1519241900054,-0.085205,-0.273193,0.961670
1519241900088,-0.072754,-0.292236,0.996582
1519241900115,-0.037598,-0.294189,1.057373
1519241900150,-0.037354,-0.423096,0.987061
1519241900184,-0.059082,-0.308105,0.923584
1519241900219,-0.074463,-0.349609,0.883057
1519241900253,-0.057617,-0.398926,0.946045
1519241900286,-0.089111,-0.365723,0.888916
1519241900338,-0.182373,-0.366943,0.938721
1519241900350,-0.182129,-0.407471,0.927734
1519241900384,-0.205322,-0.449951,0.909668
1519241900413,-0.190674,-0.345947,0.869385
1519241900451,-0.193604,-0.429199,0.883545
1519241900485,-0.200928,-0.465820,0.881104
1519241900497,-0.225586,-0.544434,0.852295
1519241900554,-0.220703,-0.523682,0.887939
1519241900566,-0.221924,-0.448486,0.872070
1519241900600,-0.190674,-0.467285,0.883301
1519241900641,-0.166260,-0.418945,0.890381
1519241900667,-0.121826,-0.455811,0.920654
1519241900704,-0.130127,-0.453613,0.894287
1519241900731,-0.125732,-0.457520,0.874268
1519241900778,-0.116455,-0.477295,0.886475
1519241900799,-0.119141,-0.492432,0.877197
1519241900833,-0.136719,-0.501465,0.817871
1519241900868,-0.074219,-0.118164,0.856689
1519241900885,0.024902,-0.092773,1.122314
1519241900941,-0.121826,-0.290283,0.890625
1519241900964,-0.024658,-0.421875,0.929932
1519241901000,-0.060303,-0.393799,0.893799
1519241901033,-0.156006,-0.368652,0.966064
1519241901073,-0.249756,-0.430664,0.926758
1519241901084,-0.253418,-0.491211,0.848877
1519241901129,-0.239746,-0.541260,0.815918
1519241901146,-0.271729,-0.624268,0.851074
1519241901180,-0.291504,-0.671875,0.757080
1519241901220,-0.150635,-0.338867,0.882324
1519241901247,-0.116455,-0.320313,0.980713
1519241901293,-0.152832,-0.325195,0.922363
1519241901311,-0.117676,-0.461670,0.866211
1519241901345,-0.130859,-0.451904,0.883545
1519241901380,-0.186768,-0.471191,0.872314
1519241901414,-0.156982,-0.473389,0.913818
1519241901448,-0.147949,-0.402344,0.891846
1519241901465,-0.065186,-0.454102,0.894043
1519241901510,-0.141602,-0.334229,0.963379
1519241901545,-0.160889,-0.382324,0.898438
1519241901561,-0.211426,-0.308350,0.855713
1519241901665,-0.158203,-0.496582,0.908203
1519241901798,-0.183594,-0.414551,0.910645
1519241901865,-0.204590,-0.448242,0.888428
1519241901869,-0.186035,-0.347656,0.953125
1519241901936,-0.189697,-0.331543,0.939941
1519241901945,-0.237793,-0.275879,0.876465
1519241902004,-0.013184,-0.526611,1.077637
1519241902010,-0.173828,-0.365723,0.987793
1519241902074,-0.215820,-0.282715,0.846436
1519241902189,-0.184570,-0.375488,0.881592
1519241902192,-0.172119,-0.440186,0.894043
1519241902195,-0.173340,-0.451172,0.957520
1519241902198,-0.187988,-0.351807,0.871582
1519241902200,-0.210449,-0.424805,0.842773
1519241902202,-0.125488,-0.636230,0.860596
1519241902204,-0.101318,-0.564209,0.844971
1519241902210,-0.145996,-0.307617,0.875732
1519241902213,-0.026855,-0.090088,1.100830
1519241902262,-0.134766,-0.505371,0.784424
1519241902268,-0.091064,-0.502197,0.774414
1519241902272,-0.161377,-0.660156,0.777832
1519241902279,-0.211426,-0.509277,0.881104
1519241902306,-0.168457,-0.529785,0.886475
1519241902342,-0.155518,-0.536865,0.887939
1519241902378,-0.147217,-0.432861,0.873779
1519241902415,0.002441,-0.092041,1.092529
1519241902444,-0.091309,-0.231934,0.984619
1519241902489,-0.115234,-0.438721,0.775146
1519241902507,-0.118896,-0.706299,0.755859
1519241902542,-0.149170,-0.561523,0.966797
1519241902576,-0.117432,-0.232178,1.013916
1519241902610,-0.115234,-0.488770,0.849854
1519241902637,-0.119141,-0.428223,0.836426
1519241902683,-0.143066,-0.598389,0.803711
1519241902709,-0.163086,-0.592285,0.857666
1519241902723,-0.179688,-0.536621,0.916260
1519241902774,-0.252441,-0.532715,0.869141
1519241902791,-0.207520,-0.510254,0.847656
1519241902825,-0.104980,-0.330811,0.783203
1519241902861,-0.146729,-0.300049,1.035400
1519241902889,-0.175537,-0.256348,0.909668
1519241902933,-0.160889,-0.089844,0.841553
1519241902959,-0.116211,-0.605225,0.884277
1519241902993,-0.172607,-0.450439,0.916992
1519241903027,-0.204346,-0.325928,0.957764
1519241903062,-0.217773,-0.410400,0.808105
1519241903087,-0.161377,-0.675049,0.929443
1519241903123,-0.136963,-0.453369,0.968018
1519241903157,-0.111328,-0.335449,0.840576
1519241903202,-0.020996,-0.142334,1.055176
1519241903210,-0.028076,-0.341309,0.938477
1519241903261,-0.109619,-0.332031,0.853271
1519241903278,-0.129639,-0.518066,0.828857
1519241903305,-0.164307,-0.517822,0.887451
1519241903357,-0.182373,-0.490723,0.878906
1519241903374,-0.187744,-0.517090,0.802979
1519241903421,-0.213379,-0.460205,0.847900
1519241903442,-0.132080,-0.539795,0.893066
1519241903475,-0.159180,-0.504395,0.828857
1519241903504,-0.132568,-0.480225,0.908936
1519241903539,-0.114746,-0.412598,0.911865
1519241903573,-0.110840,-0.515625,0.873047
1519241903613,-0.152832,-0.492920,0.878662
1519241903639,-0.162354,-0.488525,0.856689
1519241903685,-0.144531,-0.481201,0.814697
1519241903703,-0.134277,-0.497070,0.903076
1519241903737,-0.108398,-0.485107,0.859863
1519241903771,-0.138184,-0.464111,0.830078
1519241903789,-0.136230,-0.453369,0.886719
1519241903846,-0.139648,-0.480225,0.906982
1519241903855,-0.124756,-0.471436,0.869629
1519241903884,-0.130371,-0.530273,0.820801
1519241903919,-0.133789,-0.561768,0.873779
1519241903953,-0.095947,-0.384277,0.913330
1519241903987,-0.066895,-0.173584,0.941406
1519241904022,-0.077881,-0.431396,0.904053
1519241904056,-0.063232,-0.618408,0.788330
1519241904083,-0.139160,-0.648682,0.877686
1519241904129,-0.218750,-0.432129,0.849121
1519241904152,-0.234131,-0.311523,0.695068
1519241904186,-0.092285,-0.475586,0.948975
1519241904221,-0.168945,-0.478027,0.861816
1519241904254,-0.187988,-0.561768,0.901367
1519241904272,-0.206787,-0.190430,0.998047
1519241904324,-0.183350,-0.206055,1.021240
1519241904352,-0.189697,-0.202637,0.874512
1519241904368,-0.020020,-0.465332,0.910400
1519241904403,-0.166748,-0.322754,0.883545
1519241904438,-0.186279,-0.545410,0.867188
1519241904480,-0.177490,-0.630127,0.891846
1519241904499,-0.172607,-0.640137,0.755615
1519241904533,-0.095459,-0.111816,1.032227
1519241904568,-0.132568,-0.413818,0.918213
1519241904602,-0.019775,-0.716309,0.808350
1519241904641,-0.108643,-0.408447,1.008789
1519241904669,-0.129883,-0.457275,0.968506
1519241904698,-0.230713,-0.245361,0.787354
1519241904733,-0.140381,-0.369385,0.949707
1519241904766,-0.160889,-0.421143,0.882813
1519241904801,-0.092285,-0.565918,0.941162
1519241904818,-0.139404,-0.410156,0.888428
1519241904852,-0.111328,-0.407959,0.843018
1519241904898,-0.144775,-0.381348,0.879639
1519241904915,-0.098145,-0.505615,0.948730
1519241904949,0.016846,-0.457031,1.026367
1519241904983,0.214844,-0.614990,0.971436
1519241905022,0.243164,-1.016602,0.744385
1519241905052,-0.114746,-0.639404,0.727295
1519241905079,-0.219971,-0.047852,0.665771
1519241905114,-0.372314,-0.015625,0.805176
1519241905147,-0.385498,0.180664,0.848877
1519241905183,-0.310547,0.462646,1.463867
1519241905215,-0.247070,-0.182861,1.159668
1519241905254,-0.048828,-0.125244,1.011475
1519241905278,-0.035400,0.016846,0.828125
1519241905315,-0.066406,-0.163818,0.984131
1519241905336,-0.135498,-0.067139,1.218506
1519241905383,-0.169434,-0.135010,1.020264
1519241905421,-0.169189,-0.162842,0.922852
1519241905434,-0.135010,0.089355,0.998779
1519241905481,-0.123779,-0.193604,0.978760
1519241905496,-0.116943,-0.050293,1.000977
1519241905530,-0.109619,-0.232178,0.970459
1519241905566,-0.082275,-0.056396,1.016602
1519241905600,-0.156250,-0.133301,1.042236
1519241905636,-0.161865,-0.002441,1.044189
1519241905667,-0.149414,-0.098633,1.022705
1519241905710,-0.111328,-0.087158,1.050293
1519241905730,-0.150635,-0.114014,1.034180
1519241905763,-0.140381,-0.157959,0.927979
1519241905805,-0.099121,-0.228271,0.937744
1519241905816,-0.115479,-0.039307,1.010498
1519241905866,-0.121582,-0.130371,0.986328
1519241905894,-0.111816,-0.162109,0.985596
1519241905911,-0.133789,-0.135742,1.006348
1519241905963,-0.129639,-0.192627,0.991211
1519241905981,-0.124268,-0.186523,0.997314
1519241906014,-0.115723,-0.162109,0.987793
1519241906049,-0.141113,-0.150635,0.992920
1519241906078,-0.142090,-0.143555,1.027832
1519241906118,-0.143066,-0.188965,0.986816
1519241906145,-0.075928,-0.130615,0.984863
1519241906181,-0.066650,-0.234375,1.009521
1519241906222,-0.186768,-0.335693,1.010498
1519241906246,-0.198486,-0.396729,0.776123
1519241906283,-0.098877,0.331299,1.082764
1519241906309,-0.060547,-0.115967,1.057617
1519241906358,-0.060791,-0.099609,0.815430
1519241906377,-0.027100,-0.190186,0.924072
1519241906394,-0.068115,-0.165283,1.073486
1519241906445,-0.158447,-0.294434,1.078369
1519241906463,-0.222656,-0.182129,1.005859
1519241906491,-0.180664,-0.136230,0.885742
1519241906543,-0.083496,-0.135986,1.023682
1519241906559,-0.097412,-0.135986,1.086914
1519241906594,-0.145996,-0.147461,0.926025
1519241906661,-0.062744,-0.177734,0.943115
1519241906664,-0.107178,-0.143066,1.063721
1519241906730,-0.153809,-0.182129,1.077881
1519241906732,-0.119385,-0.274902,0.988770
1519241906799,-0.119873,-0.142090,1.031738
1519241906801,-0.154297,-0.143555,1.025635
1519241906867,-0.108398,-0.089111,1.002930
1519241906870,-0.109619,0.109863,1.131104
1519241906936,-0.088135,-0.087646,1.065918
1519241906939,-0.189941,-0.125488,1.094238
1519241907005,-0.348145,-0.276123,0.951904
1519241907071,-0.288086,-0.587891,0.754395
1519241907073,-0.221680,-0.402100,0.747070
1519241907140,-0.143066,-0.672852,0.649902
1519241907142,-0.103760,-0.563477,0.808105
1519241907158,-0.006836,-0.322754,0.999268
1519241907160,-0.038086,-0.340820,0.890137
1519241907175,0.017334,-0.414795,0.873779
1519241907209,0.196045,-0.772949,0.824463
1519241907241,0.101318,-0.652344,0.853271
1519241907274,-0.045654,-0.269531,0.815430
1519241907308,-0.302490,-0.096680,1.046143
1519241907341,-0.104980,-0.410645,0.983887
1519241907375,0.001953,-0.685303,0.916260
1519241907411,-0.040771,-0.484131,0.980225
1519241907440,-0.193359,-0.433105,0.832275
1519241907458,-0.260010,-0.319092,0.932373
1519241907508,-0.223389,0.098145,1.093994
1519241907541,-0.177246,-0.029541,1.106689
1519241907558,-0.123779,-0.219482,0.951660
1519241907606,0.004639,-0.338623,0.824951
1519241907624,0.098877,-0.581299,1.094971
1519241907658,0.004883,-0.282715,0.927002
1519241907690,-0.061279,-0.346924,0.717285
1519241907724,-0.115723,-0.421143,0.965820
1519241907756,-0.118164,-0.234863,1.121582
1519241907790,-0.177979,-0.058105,1.072754
1519241907823,-0.143066,-0.254883,0.981201
1519241907856,-0.037109,-0.386230,0.729980
1519241907889,0.005371,-0.326904,1.024902
1519241907923,-0.057617,-0.344971,0.865723
1519241907956,-0.043457,-0.281738,0.877686
1519241907989,-0.030029,-0.285156,0.957764
1519241908023,-0.111328,-0.355469,0.998291
1519241908039,-0.091797,-0.407959,0.961426
1519241908088,-0.139648,-0.409668,0.851074
1519241908106,-0.138672,-0.452148,0.863281
1519241908139,-0.133789,-0.501221,0.896240
1519241908189,-0.173340,-0.555908,0.859863
1519241908205,-0.016113,-0.842773,0.865234
1519241908238,-0.109375,-0.444336,0.848877
1519241908271,0.046143,-0.108154,1.107422
1519241908320,-0.001465,-0.143066,0.972656
1519241908338,-0.082764,-0.233643,0.871582
1519241908371,-0.153809,-0.649902,0.763428
1519241908404,-0.208252,-0.506348,0.922363
1519241908438,-0.238770,-0.439209,0.885986
1519241908470,-0.161865,-0.466309,0.940674
1519241908504,-0.283936,-0.614258,0.938232
1519241908538,-0.130371,-0.394043,0.930420
1519241908570,0.031494,-0.309570,1.114746
1519241908606,-0.009521,-0.308594,0.948730
1519241908621,-0.068604,-0.350342,0.778076
1519241908672,-0.118896,-0.685791,0.754883
1519241908689,-0.104736,-0.608398,0.882568
1519241908721,-0.038574,-0.341309,1.052002
1519241908754,-0.084717,-0.193848,1.019043
1519241908788,-0.093994,-0.345215,0.895020
1519241908820,-0.066895,-0.502441,0.884277
1519241908854,-0.145264,-0.440674,0.888916
1519241908886,-0.105957,-0.455322,0.839355
1519241908920,-0.168457,-0.313477,0.896240
1519241908954,-0.185059,-0.598145,0.736572
1519241908988,-0.166016,-0.703613,0.750732
1519241909020,-0.049316,-0.197998,1.046387
1519241909054,-0.075195,-0.069092,1.033936
1519241909086,0.015869,-0.333740,0.957275
1519241909103,-0.050781,-0.384766,0.861572
1519241909153,-0.041748,-0.479248,0.896484
1519241909186,-0.083740,-0.524414,0.898926
1519241909203,-0.145996,-0.477783,0.847656
1519241909252,-0.155518,-0.496826,0.910156
1519241909269,-0.107910,-0.419922,0.958252
1519241909302,-0.116211,-0.409424,0.915283
1519241909335,-0.103027,-0.476563,0.880615
1519241909370,-0.101563,-0.407227,0.863770
1519241909402,-0.079834,-0.426514,0.889404
1519241909435,-0.068359,-0.417236,0.927979
1519241909469,-0.087891,-0.437744,0.871338
1519241909501,-0.088623,-0.481445,0.917480
1519241909535,-0.074463,-0.438232,0.881592
1519241909568,-0.084961,-0.430908,0.879639
1519241909601,-0.094482,-0.422852,0.935791
1519241909634,-0.112793,-0.433350,0.922363
1519241909669,-0.095215,-0.547363,0.901367
1519241909686,-0.123047,-0.596191,0.787598
1519241909732,-0.070557,-0.322998,0.968506
1519241909750,-0.079834,-0.184082,0.955811
1519241909785,0.001465,-0.246582,1.027588
1519241909834,-0.073486,-0.341064,0.801758
1519241909851,-0.042969,-0.526123,0.845215
1519241909882,-0.077881,-0.666260,0.929199
1519241909915,-0.095703,-0.354736,0.747314
1519241909949,-0.057861,-0.269287,1.060791
1519241909983,-0.164307,-0.431641,0.888428
1519241910016,-0.201416,-0.808105,0.733154
1519241910049,-0.079102,-0.385986,0.960693
1519241910084,-0.090820,-0.326416,1.030029
1519241910123,-0.073975,-0.350830,0.842285
1519241910149,-0.076172,-0.508057,0.813965
1519241910183,-0.163818,-0.447021,0.862061
1519241910214,-0.134521,-0.443604,0.951660
1519241910249,-0.140137,-0.343994,0.891357
1519241910265,-0.091797,-0.260986,1.078125
1519241910313,-0.170654,-0.442871,0.820557
1519241910332,-0.130127,-0.686035,0.786377
1519241910365,-0.098877,-0.426758,0.845947
1519241910415,-0.107422,-0.368408,1.015869
1519241910431,-0.185059,-0.299072,0.879639
1519241910464,-0.124268,-0.261475,0.995850
1519241910497,-0.098145,-0.395996,0.841064
1519241910529,-0.094727,-0.482910,0.817627
1519241910564,-0.196289,-0.536865,0.790527
1519241910598,-0.169922,-0.468750,0.882080
1519241910632,-0.140869,-0.456787,0.898193
1519241910664,-0.170898,-0.267334,0.981934
1519241910696,-0.103516,-0.352783,0.936035
1519241910731,-0.067383,-0.493652,0.877441
1519241910747,-0.056641,-0.713379,0.917236
1519241910796,-0.109375,-0.201416,1.007813
1519241910829,-0.156738,-0.302490,0.869385
1519241910847,-0.168701,-0.491943,0.751953
1519241910895,-0.078613,-0.389404,0.900391
1519241910912,-0.067139,-0.370605,1.037842
1519241910947,-0.045654,-0.474854,0.911621
1519241910981,-0.139160,-0.432373,0.825684
1519241911013,-0.032715,-0.493164,0.794922
1519241911045,-0.104980,-0.524902,0.846191
1519241911081,-0.136963,-0.494873,0.886963
1519241911112,-0.158936,-0.535400,0.842773
1519241911145,-0.155029,-0.467529,0.866943
1519241911179,-0.139893,-0.543945,0.866699
1519241911212,-0.130127,-0.603516,0.832764
1519241911243,-0.143799,-0.490479,0.864258
1519241911278,-0.151855,-0.490234,0.837402
1519241911310,-0.098633,-0.433594,0.796631
1519241911333,-0.101318,-0.494385,0.848145
1519241911376,-0.106201,-0.515137,0.865479
1519241911393,-0.122803,-0.509033,0.858643
1519241911427,-0.129883,-0.499756,0.877686
1519241911476,-0.135498,-0.526123,0.872314
1519241911495,-0.121338,-0.509277,0.854980
1519241911526,-0.133301,-0.612061,0.794922
1519241911560,-0.098877,-0.586426,0.852783
1519241911736,-0.120117,-0.461914,0.953369
1519241911804,-0.156250,-0.408936,0.838379
1519241911875,-0.133057,-0.275146,0.955322
1519241911946,-0.146729,-0.497803,0.779053
1519241912174,-0.110840,-0.565674,0.904053
1519241912183,-0.091553,-0.389893,0.878174
1519241912192,0.006836,-0.464844,0.998535
1519241912206,-0.080322,-0.384033,0.914795
1519241912213,-0.111084,-0.414063,0.859375
1519241912216,-0.116699,-0.427979,0.885986
1519241912219,-0.115234,-0.420166,0.908936
1519241912224,-0.123291,-0.421143,0.892578
1519241912227,-0.104492,-0.566162,0.878662
1519241912230,-0.148926,-0.761230,0.820068
1519241912234,-0.145752,-0.348877,0.830566
1519241912237,-0.063965,-0.322754,1.075439
1519241912240,-0.185303,-0.365234,0.920166
1519241912242,-0.160889,-0.384033,0.872070
1519241912245,-0.144531,-0.412109,0.906982
1519241912247,-0.114746,-0.442139,0.898682
1519241912250,-0.084229,-0.371582,0.935059
1519241912273,-0.106934,-0.363281,0.909912
1519241912309,-0.097168,-0.392090,0.917969
1519241912340,-0.109375,-0.372070,0.920654
1519241912384,-0.104736,-0.363525,0.936279
1519241912390,-0.127197,-0.356689,0.957275
1519241912439,-0.090820,-0.470703,1.031738
1519241912473,-0.096924,-0.423096,0.964600
1519241912490,0.141846,-0.049805,0.998779
1519241912538,0.032959,-0.242432,0.838623
1519241912555,0.041748,-0.239014,0.812012
1519241912588,0.016113,-0.409912,0.815430
1519241912622,-0.104248,-0.346436,0.885254
1519241912659,-0.129150,-0.413086,0.985596
1519241912688,-0.159180,-0.506104,0.929443
1519241912720,-0.205078,-0.398193,0.928223
1519241912754,-0.187988,-0.431885,0.937744
1519241912788,-0.201172,-0.482666,0.872559
1519241912820,-0.223877,-0.435791,0.950195
1519241912856,-0.168945,-0.467773,0.864990
1519241912886,-0.163574,-0.479248,0.839111
1519241912934,-0.149170,-0.433105,0.871582
1519241912952,-0.152832,-0.462402,0.884521
1519241912970,-0.187500,-0.572510,0.803223
1519241913019,-0.169922,-0.421143,1.002930
1519241913036,-0.121582,-0.254395,1.059326
1519241913070,-0.102051,-0.356934,0.981201
1519241913119,-0.163818,-0.390625,0.854248
1519241913135,-0.186523,-0.446289,0.786865
1519241913169,-0.179688,-0.460449,0.835938
1519241913203,-0.180420,-0.411377,0.884521
1519241913237,-0.163818,-0.408447,0.935547
1519241913269,-0.193115,-0.405762,0.895020
1519241913303,-0.168213,-0.392578,0.948486
1519241913340,-0.173584,-0.399902,0.901611
1519241913369,-0.168457,-0.362549,0.893799
1519241913404,-0.156250,-0.399902,0.908936
1519241913442,-0.211426,-0.393066,0.941895
1519241913469,-0.172607,-0.447998,0.976563
1519241913510,-0.162842,-0.439941,0.817139
1519241913535,-0.109863,-0.427734,0.943604
1519241913584,-0.171387,-0.306152,0.835938
1519241913602,-0.190186,-0.359619,0.904785
1519241913619,-0.220459,-0.725830,0.764404
1519241913652,-0.236328,-0.462646,0.871094
1519241913701,-0.245605,-0.339600,0.929199
1519241913719,-0.187256,-0.422607,0.863037
1519241913751,-0.126953,-0.218262,1.022461
1519241913784,-0.138184,-0.362549,0.943115
1519241913818,-0.159180,-0.401123,0.843994
1519241913858,-0.144775,-0.453125,0.859863
1519241913893,-0.168945,-0.509277,0.857422
1519241913917,-0.210449,-0.456055,0.883057
1519241913949,-0.197021,-0.479004,0.954834
1519241913983,-0.188232,-0.400635,0.924561
1519241914015,-0.210938,-0.593262,0.840332
1519241914033,-0.135986,-0.339355,0.883301
1519241914083,0.022949,-0.264160,1.105469
1519241914121,-0.132324,-0.329834,0.816895
1519241914132,-0.149902,-0.350098,0.820801
1519241914184,-0.124756,-0.616455,0.813965
1519241914201,-0.100586,-0.458496,0.985107
1519241914232,-0.176758,-0.189941,1.033936
1519241914268,-0.171631,-0.606201,0.809814
1519241914300,-0.117188,-0.358643,0.898682
1519241914337,-0.164063,-0.796875,0.802002
1519241914365,-0.162354,-0.166748,0.912598
1519241914399,-0.054688,-0.073975,1.128418
1519241914432,-0.093750,-0.296875,0.839355
1519241914466,-0.067627,-0.534668,0.864746
1519241914501,-0.094238,-0.424316,0.916504
1519241914531,-0.139160,-0.418945,0.918701
1519241914565,-0.237793,-0.471436,0.907715
1519241914598,-0.250977,-0.384521,0.863525
1519241914615,-0.199219,-0.390869,0.949707
1519241914665,-0.106201,-0.597168,0.888672
1519241914682,-0.160400,-0.406982,0.943359
1519241914722,-0.119385,-0.416260,0.901855
1519241914764,-0.177734,-0.561035,0.854980
1519241914781,-0.229004,-0.328857,0.855225
1519241914814,-0.169678,-0.280029,0.956787
1519241914848,-0.184570,-0.450684,0.890381
1519241914881,-0.167969,-0.389648,0.981201
1519241914912,-0.221436,-0.573486,0.899414
1519241914946,-0.111816,-0.327148,1.035645
1519241914981,-0.205566,-0.297607,0.907715
1519241915013,-0.215820,-0.366211,0.812012
1519241915044,-0.236084,-0.432861,0.946289
1519241915078,-0.204102,-0.399658,0.885498
1519241915114,-0.115723,-0.394775,0.892090
1519241915146,-0.100342,-0.403564,0.937256
1519241915179,-0.091309,-0.345215,0.891113
1519241915195,-0.138672,-0.426514,0.870361
1519241915245,-0.153564,-0.487793,0.936523
1519241915262,-0.172363,-0.255127,0.939209
1519241915295,-0.124023,-0.247559,1.052246
1519241915346,-0.131104,-0.452393,0.775635
1519241915362,-0.082764,-0.356689,0.890625
1519241915397,-0.169434,-0.364990,0.885986
1519241915431,-0.306396,-0.523682,0.922607
1519241915462,-0.485352,-0.476807,0.695068
1519241915495,-0.450195,-0.445557,0.991455
1519241915528,-0.331543,-0.323486,0.850098
1519241915559,-0.214111,-0.342529,0.903076
1519241915594,-0.134033,-0.406494,0.870117
1519241915627,-0.032471,-0.038818,1.044678
1519241915661,0.063232,-0.275391,1.083252
1519241915679,-0.022705,-0.208496,0.911133
1519241915727,-0.070313,-0.384033,0.792236
1519241915761,-0.204102,-0.405273,0.895996
1519241915777,-0.190918,-0.481201,0.911133
1519241915828,-0.262451,-0.518311,0.909912
1519241915844,-0.260742,-0.595215,0.855713
1519241915878,-0.212158,-0.585449,0.843994
1519241915911,-0.167236,-0.449219,0.874512
1519241915942,-0.170410,-0.424561,0.860596
1519241915975,-0.179688,-0.416016,0.856445
1519241916008,-0.164795,-0.468994,0.889404
1519241916041,-0.154541,-0.417725,0.911377
1519241916075,-0.155029,-0.468750,0.872803
1519241916109,-0.140137,-0.447998,0.917725
1519241916142,-0.167236,-0.435303,0.916992
1519241916175,-0.162842,-0.422607,0.890381
1519241916209,-0.164307,-0.473389,0.874268
1519241916243,-0.171875,-0.460449,0.865479
1519241916259,-0.158447,-0.461182,0.888184
1519241916308,-0.150146,-0.496094,0.858887
1519241916347,-0.149414,-0.470459,0.870605
1519241916359,-0.167725,-0.455566,0.870605
1519241916409,-0.167236,-0.497070,0.861084
1519241916425,-0.183838,-0.480225,0.862061
1519241916461,-0.202393,-0.537842,0.871338
1519241916492,-0.181152,-0.453125,0.914551
1519241916525,-0.172363,-0.403320,0.885498
1519241916556,-0.150146,-0.449219,0.877930
1519241916590,-0.104736,-0.454102,0.898682
1519241916659,-0.087158,-0.476074,0.967773
1519241916667,-0.143066,-0.495605,0.882080
1519241916726,0.045654,0.002930,1.063232
1519241916736,-0.044434,-0.246338,1.002930
1519241916793,0.002930,-0.458740,0.881348
1519241916802,-0.113281,-0.641602,0.892334
1519241916861,-0.284668,-0.639404,0.781738
1519241916865,-0.258789,-0.603760,0.836914
1519241916929,-0.177246,-0.362061,1.019287
1519241916934,-0.200195,-0.223877,1.049805
1519241916999,-0.213623,-0.358154,0.860352
1519241917007,-0.169678,-0.465332,0.763916
1519241917066,-0.150635,-0.539795,0.845215
1519241917134,-0.170898,-0.540283,0.858398
1519241917144,-0.173096,-0.556152,0.883301
1519241917152,-0.149658,-0.474854,0.878174
1519241917162,-0.172119,-0.379395,0.884766
1519241917171,-0.101807,-0.470703,0.915039
1519241917204,-0.088135,-0.456055,0.900391
1519241917238,-0.033447,-0.442871,0.884766
1519241917283,-0.013672,-0.442383,0.868408
1519241917306,-0.048828,-0.443359,0.838867
1519241917322,-0.043457,-0.412598,0.853027
1519241917372,-0.124756,-0.447021,0.913574
1519241917405,-0.124512,-0.502930,0.905762
1519241917420,-0.159668,-0.497803,0.911865
1519241917478,-0.181641,-0.477783,0.910889
1519241917488,-0.182373,-0.372803,0.924805
1519241917520,-0.173828,-0.378662,0.913818
1519241917552,-0.137695,-0.474365,0.867188
1519241917586,-0.118896,-0.454590,0.910889
1519241917620,-0.120605,-0.412354,0.914307
1519241917653,-0.124023,-0.408691,0.875244
1519241917687,-0.111572,-0.390869,0.902100
1519241917719,-0.098877,-0.335205,0.929688
1519241917753,-0.098877,-0.344971,0.928955
1519241917784,-0.130859,-0.439941,0.905762
1519241917818,-0.181396,-0.444336,0.893555
1519241917851,-0.187988,-0.484863,0.887695
1519241917885,-0.174561,-0.457520,0.915771
1519241917901,-0.172607,-0.425781,0.918213
1519241917953,-0.121338,-0.370850,0.931885
1519241917985,-0.099854,-0.402588,0.949951
1519241918001,-0.206787,-0.399414,0.868896
1519241918052,-0.177979,-0.369629,0.962891
1519241918068,-0.156006,-0.303711,0.830566
1519241918099,0.083496,-0.199219,1.132568
1519241918133,0.095703,-0.413330,0.915283
1519241918170,0.116943,-0.577148,0.909180
1519241918201,0.045410,-0.238037,0.923828
1519241918233,-0.199951,-0.267822,0.968506
1519241918273,-0.452881,-0.389404,0.670166
1519241918301,-0.533936,-0.287109,0.514893
1519241918334,-0.419189,-0.410156,1.028809
1519241918368,-0.297363,-0.561279,1.129395
1519241918401,-0.171631,-0.391602,1.004883
1519241918432,-0.001221,-0.213867,1.145508
1519241918467,-0.020264,-0.205078,1.016357
1519241918483,-0.098633,-0.296631,0.892090
1519241918531,-0.187988,-0.419189,0.800781
1519241918560,-0.233643,-0.435791,0.683594
1519241918581,-0.105957,-0.645020,1.066895
1519241918636,-0.239990,-0.322021,0.929443
1519241918658,-0.186523,-0.458008,0.875244
1519241918680,-0.199951,-0.367188,0.868164
1519241918714,-0.186279,-0.388184,0.881592
1519241918748,-0.188721,-0.371338,0.930908
1519241918780,-0.249512,-0.393555,0.907959
1519241918815,-0.262939,-0.432373,0.886475
1519241918846,-0.226318,-0.441406,0.913574
1519241918880,-0.228027,-0.442139,0.894531
1519241918912,-0.220459,-0.391357,0.883789
1519241918949,-0.207764,-0.389648,0.876709
1519241918988,-0.201904,-0.414307,0.901611
1519241919013,-0.199219,-0.401611,0.857178
1519241919056,-0.206299,-0.448975,0.883301
1519241919082,-0.157471,-0.493652,0.877197
1519241919113,-0.157471,-0.463867,0.904541
1519241919129,-0.096680,-0.446045,0.948242
1519241919181,-0.135498,-0.455811,0.883301
1519241919222,-0.111572,-0.393799,0.878906
1519241919265,-0.163086,-0.412109,0.835693
1519241919270,-0.208740,-0.429932,0.890869
1519241919321,-0.188477,-0.577393,0.799561
1519241919328,-0.210938,-0.653564,0.917236
1519241919361,-0.168457,-0.471436,0.889893
1519241919395,-0.133057,-0.399414,0.921387
1519241919428,-0.143555,-0.326660,0.865723
1519241919480,-0.113525,-0.451904,0.836426
1519241919494,-0.152100,-0.602295,0.843018
1519241919589,-0.098389,-0.284424,0.863525
1519241919591,0.027344,0.010010,1.218994
1519241919594,-0.120850,-0.347412,0.739502
1519241919627,-0.125244,-0.740723,0.650635
1519241919665,-0.103516,-0.634521,0.922119
1519241919692,-0.102051,-0.172852,1.152100
1519241919739,-0.189941,-0.194336,0.893555
1519241919744,-0.252197,-0.368652,0.825928
1519241919776,-0.193115,-0.765137,0.766846
1519241919812,-0.261230,-0.438232,0.939941
1519241919842,-0.304688,-0.346680,0.833252
1519241919904,-0.228271,-0.413086,0.916016
1519241919909,-0.152832,-0.449707,0.917969
1519241919943,-0.087646,-0.399414,0.986084
1519241919975,-0.145508,-0.190186,0.908936
1519241920008,-0.169922,-0.312500,0.906250
1519241920041,-0.220947,-0.553711,0.834961
1519241920075,-0.245117,-0.704102,0.809814
1519241920111,-0.122314,-0.143311,0.993164
1519241920125,-0.203125,-0.410889,0.833984
1519241920173,-0.131836,-0.719971,0.708740
1519241920191,-0.118408,-1.114014,0.733887
1519241920225,-0.103516,-0.331055,0.975098
1519241920273,-0.138916,-0.300293,0.906738
1519241920292,-0.166504,-0.344727,0.838867
1519241920336,-0.152100,-0.372559,0.864014
1519241920357,-0.171631,-0.636719,0.850098
1519241920390,-0.218750,-0.586426,0.747314
1519241920423,-0.097656,-0.652344,0.977783
1519241920457,-0.280762,-0.309814,0.890625
1519241920489,-0.188721,-0.359375,0.984131
1519241920523,-0.191895,-0.352783,0.866211
1519241920561,-0.142090,-0.668701,0.746582
1519241920589,-0.178223,-0.863281,0.710449
1519241920623,-0.188965,-0.581299,0.816406
1519241920656,-0.180664,-0.519531,0.853027
1519241920689,-0.180420,-0.594238,0.832520
1519241920717,-0.134766,-0.534912,0.866699
1519241920755,-0.086670,-0.388184,0.864014
1519241920790,-0.044189,-0.638672,0.794922
1519241920805,0.046875,-0.263428,0.892822
1519241920839,0.188232,-0.200195,1.197510
1519241920873,0.036377,-0.218750,0.839844
1519241920905,0.022949,-0.289795,0.841309
1519241920939,-0.065186,-0.409424,0.797119
1519241920971,-0.094971,-0.558350,0.787598
1519241921014,-0.166748,-0.561768,0.817627
1519241921038,-0.177979,-0.604980,0.859375
1519241921120,-0.184082,-0.584473,0.826416
1519241921122,-0.192139,-0.628906,0.838379
1519241921173,-0.217773,-0.654053,0.869141
1519241921175,-0.243164,-0.542969,0.757080
1519241921188,-0.251221,-0.549072,0.775146
1519241921238,-0.244385,-0.538818,0.786377
1519241921270,-0.203613,-0.589600,0.798096
1519241921317,-0.211426,-0.659180,0.745361
1519241921336,-0.194092,-0.829102,0.798828
1519241921353,-0.126221,-0.539063,0.839844
1519241921390,-0.023438,-0.341309,0.981445
1519241921420,-0.102783,-0.290771,0.889893
1519241921465,-0.167969,-0.291260,0.816406
1519241921486,-0.124023,-0.745361,0.698730
1519241921519,-0.133789,-0.566406,0.877686
1519241921553,-0.213135,-0.536377,0.905029
1519241921585,-0.234131,-0.493896,0.856201
1519241922183,-0.205078,-0.510254,0.871338
1519241922192,-0.192139,-0.473877,0.857178
1519241922200,-0.174805,-0.582764,0.835693
1519241922209,-0.160889,-0.473633,0.871094
1519241922217,-0.169678,-0.480957,0.855225
1519241922222,-0.169678,-0.515381,0.829346
1519241922225,-0.184570,-0.514893,0.834717
1519241922228,-0.212891,-0.500732,0.878662
1519241922231,-0.171387,-0.540527,0.889648
1519241922234,-0.189697,-0.512939,0.865234
1519241922237,-0.162842,-0.498291,0.855469
1519241922240,-0.159424,-0.488770,0.886230
1519241922243,-0.118652,-0.484619,0.877197
1519241922246,-0.096436,-0.560791,0.868652
1519241922249,-0.029785,-0.331299,0.885254
1519241922252,0.201660,-0.169922,1.301025
1519241922254,0.107666,-0.151855,0.854004
1519241922257,0.083740,-0.197510,0.863037
1519241922259,-0.054443,-0.636230,0.650879
1519241922262,-0.205322,-0.707031,0.835205
1519241922265,-0.172119,-0.206055,0.845215
1519241922300,-0.140625,-0.464844,1.046631
1519241922333,-0.193359,-0.539307,0.884766
1519241922351,-0.317627,-0.546143,0.712158
1519241922401,-0.292480,-0.530762,0.840332
1519241922418,-0.310791,-0.486328,0.777832
1519241922459,-0.256836,-0.585693,0.869629
1519241922484,-0.167480,-0.575684,0.931641
1519241922518,-0.120361,-0.354004,0.845215
1519241922551,-0.145752,-0.327393,0.875732
1519241922584,-0.228516,-0.331055,0.834961
1519241922616,-0.265869,-0.374023,0.918457
1519241922651,-0.226074,-0.418701,0.967529
1519241922688,-0.277832,-0.432617,0.957031
1519241922716,-0.316895,-0.449707,0.902100
1519241922749,-0.243652,-0.408691,0.762451
1519241922784,-0.170898,-0.422607,0.926758
1519241922817,-0.201172,-0.362793,0.855957
1519241922834,-0.174316,-0.426270,0.845459
1519241922882,-0.170410,-0.457520,0.849121
1519241922916,-0.188721,-0.441406,0.905518
1519241922949,-0.218994,-0.494141,0.858398
1519241922981,-0.198975,-0.492920,0.874512
1519241923026,-0.211426,-0.469482,0.920410
1519241923035,-0.173584,-0.506104,0.892578
1519241923073,-0.184570,-0.480713,0.874756
1519241923097,-0.181641,-0.438965,0.840820
1519241923132,-0.185547,-0.426025,0.853760
1519241923165,-0.176514,-0.427979,0.931396
1519241923199,-0.154297,-0.451660,0.932373
1519241923231,-0.220459,-0.390625,0.885254
1519241923265,-0.159668,-0.404541,0.899170
1519241923298,-0.009277,-0.395996,0.935059
1519241923331,-0.202393,-0.378662,0.883057
1519241923364,-0.217773,-0.471680,0.803711
1519241923395,-0.201172,-0.544189,0.809814
1519241923413,-0.196045,-0.483887,0.962158
1519241923470,-0.145020,-0.229736,1.011963
1519241923481,-0.125244,-0.510986,0.910400
1519241923514,-0.115967,-0.271973,0.960205
1519241923563,-0.167969,-0.569824,0.789307
1519241923579,-0.202148,-0.409912,0.884277
1519241923612,0.067139,-0.029297,1.140137
1519241923646,-0.102295,-0.254639,0.797119
1519241923681,-0.141113,-0.141846,1.030273
1519241923712,-0.157227,-0.274414,0.943359
1519241923745,-0.226318,-0.534424,0.746338
1519241923779,-0.301514,-0.933105,0.831787
1519241923811,-0.317139,-0.282227,0.843018
1519241923846,-0.186768,-0.228516,1.062256
1519241923878,-0.177246,-0.306885,0.915283
1519241923912,-0.155518,-0.384277,0.867920
1519241923949,-0.068359,-0.523193,0.815674
1519241923977,-0.009521,-0.576416,1.034424
1519241924021,-0.061768,-0.490234,0.961426
1519241924047,-0.157471,-0.119141,0.933838
1519241924093,-0.111572,-0.420654,1.009277
1519241924098,-0.304199,-0.411377,0.869141
1519241924145,-0.282959,-0.403320,0.913086
1519241924168,-0.287354,-0.359619,0.986572
1519241924195,-0.297363,-0.335693,0.990479
1519241924243,-0.302246,-0.509766,0.849365
1519241924268,-0.267578,-0.475342,0.899902
1519241924294,-0.274902,-0.257568,0.882080
1519241924328,-0.228516,-0.313477,0.947021
1519241924361,-0.122803,-0.397705,0.857910
1519241924393,-0.248535,-0.345947,0.875732
1519241924425,-0.108643,-0.374756,0.895508
1519241924460,-0.118408,-0.284668,0.936768
1519241924477,-0.120117,-0.295410,0.932617
1519241924525,-0.129395,-0.419189,0.880615
1519241924559,-0.110352,-0.295654,1.040283
1519241924575,-0.103760,-0.294189,0.963623
1519241924625,-0.047363,-0.282227,1.084961
1519241924642,-0.044678,-0.471191,0.851807
1519241924677,0.106934,-0.084229,1.102539
1519241924711,-0.038818,-0.287109,0.843018
1519241924742,-0.033936,-0.333252,0.843750
1519241924776,-0.125977,-0.502930,0.736084
1519241924808,-0.152832,-0.456299,0.981445
1519241924841,-0.207764,-0.541992,0.859375
1519241924875,-0.269775,-0.527344,0.822510
1519241924908,-0.245361,-0.544434,0.925293
1519241924961,-0.244141,-0.459229,0.854492
1519241924974,-0.233643,-0.447510,0.865234
1519241925008,-0.225586,-0.516602,0.835693
1519241925048,-0.209961,-0.461182,0.804199
1519241925056,-0.185547,-0.498047,0.841309
1519241925106,-0.183350,-0.538330,0.849609
1519241925125,-0.195313,-0.464844,0.850830
1519241925158,-0.190186,-0.449219,0.826172
1519241925206,-0.181641,-0.644287,0.875732
1519241925224,-0.228760,-0.608643,0.904785
1519241925268,-0.233154,-0.151367,0.979248
1519241925290,-0.217773,-0.378906,0.903809
1519241925324,-0.201660,-0.344482,0.854492
1519241925356,-0.156494,-0.556152,0.815674
1519241925391,-0.189697,-0.533691,0.848877
1519241925422,-0.197510,-0.498535,0.905029
1519241925462,-0.204834,-0.482910,0.850586
1519241925488,-0.207031,-0.472168,0.835205
1519241925520,-0.237061,-0.468262,0.864014
1519241925554,-0.250244,-0.463623,0.884766
1519241925587,-0.237061,-0.609375,0.825684
1519241925622,-0.212158,-0.534668,0.841553
1519241925638,-0.175537,-0.462646,0.885986
1519241925688,-0.176514,-0.500977,0.816162
1519241925705,-0.169434,-0.505127,0.828125
1519241925736,-0.177002,-0.489258,0.867188
1519241925787,-0.197510,-0.477295,0.885254
1519241925805,-0.185791,-0.521484,0.912842
1519241925837,-0.241455,-0.493408,0.838867
1519241925870,-0.126221,-0.545898,0.855713
1519241925904,-0.224365,-0.544189,0.819580
1519241925938,-0.132568,-0.066895,1.155273
1519241925970,-0.202881,-0.270996,0.849121
1519241926003,-0.264404,-0.281250,0.815674
1519241926037,-0.195068,-0.564697,0.862061
1519241926069,-0.191406,-0.567383,0.854248
1519241926102,-0.199219,-0.446777,0.947754
1519241926118,-0.145020,-0.416748,0.970947
1519241926168,-0.204834,-0.594482,0.868164
1519241926203,-0.171143,-0.353516,0.926025
1519241926242,-0.007080,-0.028564,1.086914
1519241926271,-0.171631,-0.291504,0.735352
1519241926286,-0.117920,-0.344971,0.801758
1519241926321,-0.158691,-0.889160,0.695557
1519241926361,-0.128906,-0.334961,1.000244
1519241926384,-0.158936,-0.364258,1.034424
1519241926417,-0.191406,-0.358154,0.841553
1519241926452,-0.164307,-0.761963,0.702881
1519241926483,-0.189209,-0.524902,0.806396
1519241926517,-0.243652,-0.457031,0.883301
1519241926550,-0.299561,-0.519531,0.816406
1519241926583,-0.265381,-0.459961,0.861572
1519241926651,-0.220215,-0.471680,0.857666
1519241926660,-0.198486,-0.544434,0.851074
1519241926718,-0.184570,-0.516113,0.883789
1519241926721,-0.167236,-0.443115,0.869629
1519241926785,-0.190918,-0.457520,0.842773
1519241926790,-0.187500,-0.501709,0.862793
1519241926852,-0.178711,-0.473389,0.839111
1519241927172,-0.220459,-0.521973,0.862305
1519241927176,-0.175049,-0.514160,0.866699
1519241927180,-0.188232,-0.487793,0.876465
1519241927184,-0.184326,-0.475830,0.872559
1519241927187,-0.202881,-0.482178,0.839844
1519241927190,-0.206299,-0.488281,0.875000
1519241927193,-0.217285,-0.498779,0.853027
1519241927196,-0.211670,-0.496094,0.893799
1519241927199,-0.233154,-0.468506,0.813477
1519241927202,-0.120605,-0.441650,0.928711
1519241927205,-0.223877,-0.408447,0.917969
1519241927209,-0.180908,-0.373291,0.913574
1519241927241,-0.171631,-0.490479,0.865723
1519241927265,-0.198975,-0.466309,0.862549
1519241927281,-0.210938,-0.441895,0.848389
1519241927331,-0.202881,-0.543945,0.882813
1519241927349,-0.241211,-0.443359,0.885986
1519241927384,-0.195313,-0.455566,0.885498
1519241927432,-0.045166,-0.534180,0.944336
1519241927449,-0.220459,-0.293213,0.889404
1519241927480,-0.134277,-0.375488,0.904053
1519241927522,-0.237061,-0.582031,0.782959
1519241927548,-0.216064,-0.654541,0.850586
1519241927580,-0.200195,-0.379639,0.866455
1519241927613,-0.200439,-0.421387,0.873291
1519241927646,-0.229736,-0.582764,0.782471
1519241927681,-0.218750,-0.546631,0.822510
1519241927713,-0.226074,-0.668945,0.833984
1519241927756,-0.186279,-0.424072,0.896729
1519241927762,-0.200928,-0.424316,0.844727
1519241927812,-0.210693,-0.469727,0.839111
1519241927847,-0.131836,-0.503174,0.905273
1519241927864,-0.160156,-0.441406,0.838867
1519241927914,-0.128662,-0.432373,0.943848
1519241927929,-0.027588,-0.272949,1.031250
1519241927976,-0.083252,-0.442871,0.885742
1519241927995,-0.234619,-0.195068,0.929443
1519241928030,-0.150146,-0.255859,1.078369
1519241928062,-0.250244,-0.380615,0.734863
1519241928095,-0.127930,-0.833252,0.934082
1519241928128,-0.275146,-0.401855,0.839600
1519241928162,-0.208984,-0.390869,0.824463
1519241928195,-0.169678,-0.448975,0.890869
1519241928228,-0.168945,-0.490967,0.894043
1519241928262,-0.155518,-0.474365,0.882080
1519241928295,-0.236084,-0.450684,0.890381
1519241928329,-0.269287,-0.418701,0.882813
1519241928345,-0.248291,-0.419922,0.897461
1519241928395,-0.275635,-0.270508,0.934814
1519241928428,-0.276611,-0.337891,0.817627
1519241928444,-0.213135,-0.352051,0.911621
1519241928495,-0.230225,-0.462646,0.915283
1519241928511,-0.235352,-0.379883,0.868408
1519241928543,-0.235352,-0.458008,0.873535
1519241928577,-0.216553,-0.585693,0.857666
1519241928610,-0.222168,-0.412842,0.800293
1519241928644,-0.127686,-0.285400,0.980225
1519241928678,-0.187500,-0.441162,0.865479
1519241928711,-0.195068,-0.409668,0.831787
1519241928743,-0.217041,-0.489014,0.830566
1519241928777,-0.236816,-0.479248,0.888184
1519241928811,-0.222900,-0.453857,0.885254
1519241928841,-0.215820,-0.457764,0.871826
1519241928875,-0.202148,-0.459229,0.869385
1519241928909,-0.190674,-0.462402,0.890625
1519241928925,-0.195313,-0.473877,0.880371
1519241928975,-0.205322,-0.456299,0.834229
1519241928994,-0.208008,-0.486328,0.858398
1519241929026,-0.210205,-0.482178,0.847900
1519241929075,-0.210938,-0.487549,0.855225
1519241929091,-0.174072,-0.506104,0.903564
1519241929124,-0.158447,-0.534180,0.894287
1519241929158,-0.152832,-0.471191,0.895996
1519241929191,-0.185791,-0.449707,0.852295
1519241929225,-0.237061,-0.416260,0.812256
1519241929259,-0.228760,-0.480469,0.872559
1519241929291,-0.217529,-0.477295,0.883057
1519241929325,-0.260986,-0.452148,0.854004
1519241929358,-0.256592,-0.453369,0.871338
1519241929391,-0.263428,-0.478760,0.834229
1519241929407,-0.279297,-0.469971,0.819336
1519241929458,-0.279785,-0.464844,0.863281
1519241929489,-0.275635,-0.473633,0.887451
1519241929506,-0.275635,-0.466064,0.896484
1519241929554,-0.250732,-0.402344,0.842041
1519241929572,-0.267822,-0.437256,0.822021
1519241929606,-0.235596,-0.489746,0.883545
1519241929639,-0.241211,-0.463379,0.822021
1519241929674,-0.257324,-0.479248,0.819580
1519241929707,-0.226807,-0.546875,0.815186
1519241929741,-0.206299,-0.547363,0.854980
1519241929770,-0.210938,-0.519531,0.851807
1519241929808,-0.220459,-0.516357,0.814697
1519241929837,-0.210693,-0.526611,0.828369
1519241929876,-0.236328,-0.473877,0.890869
1519241929903,-0.257568,-0.422119,0.887451
1519241929938,-0.291016,-0.311035,0.900146
1519241929970,-0.189697,-0.771484,0.804199
1519241929988,-0.326416,-0.929199,0.819580
1519241930038,-0.408936,-0.612305,0.805420
1519241930080,-0.425293,-0.449463,0.734375
1519241930085,-0.315430,-0.479004,0.782471
1519241930137,-0.196045,-0.385254,0.895020
1519241930155,-0.234131,-0.434326,0.868408
1519241930186,-0.110840,-0.410400,0.857422
1519241930220,0.037598,-0.461182,0.810791
1519241930253,0.084473,-0.583740,0.795410
1519241930286,0.228271,-0.381348,1.181885
1519241930328,0.034180,-0.240723,0.871094
1519241930353,-0.069336,-0.101807,0.963135
1519241930386,-0.078857,-0.270996,1.204834
1519241930419,-0.367432,-0.412354,0.659180
1519241930454,-0.453613,-0.620605,0.739014
1519241930487,-0.274902,-0.652588,0.948486
1519241930519,-0.268066,-0.319336,0.843018
1519241930551,-0.251221,-0.422852,0.856934
1519241930568,-0.186279,-0.706299,0.713135
1519241930618,0.015381,-0.171631,1.103516
1519241930635,-0.069824,-0.259277,0.996826
1519241930678,-0.080811,-0.165283,0.956055
1519241930719,-0.088867,-0.358643,0.953857
1519241930736,-0.181152,-0.460938,0.876953
1519241930769,-0.206299,-0.461426,0.873535
1519241930802,-0.258545,-0.458008,0.931152
1519241930835,-0.313965,-0.476807,0.785156
1519241930869,-0.139404,-0.453613,0.840820
1519241930901,-0.068359,-0.515381,1.024902
1519241930933,-0.111572,-0.395996,0.843750
1519241930966,-0.091553,-0.152588,0.989746
1519241931000,-0.196289,-0.300049,0.901611
1519241931033,-0.347168,-0.280762,0.766113
1519241931068,-0.263184,-0.451416,0.935791
1519241931100,-0.318115,-0.290039,0.885986
1519241931134,-0.324951,-0.325195,0.920898
1519241931151,-0.291504,-0.377930,0.914063
1519241931199,-0.233887,-0.482910,0.823242
1519241931219,-0.204834,-0.495117,0.952637
1519241931250,-0.222412,-0.316895,0.838623
1519241931283,-0.108154,-0.310547,0.981689
1519241931315,-0.137695,-0.325928,0.917236
1519241931362,-0.211426,-0.287109,0.888916
1519241931382,-0.178711,-0.683350,0.833984
1519241931417,-0.217773,-0.724121,0.798096
1519241931457,-0.230957,-0.635010,0.870605
1519241931482,-0.167725,-0.205566,1.016357
1519241931516,-0.181885,-0.319336,0.970947
1519241931547,-0.162598,-0.682861,0.712402
1519241931580,-0.167236,-0.338623,1.028320
1519241931647,-0.176025,-0.336914,0.964355
1519241931655,-0.259766,-0.472412,0.745850
1519241931714,-0.133789,-0.692139,0.814941
1519241931723,-0.151367,-0.520508,0.929688
1519241931781,-0.195313,-0.446045,0.835449
1519241931784,-0.216553,-0.450684,0.837158
1519241931851,-0.159180,-0.413818,0.926758
1519241931914,-0.235596,-0.538818,0.845215
1519241931923,-0.144043,-0.398682,0.875000
1519241931981,-0.045654,-0.327148,1.011230
1519241931987,-0.159424,-0.387451,0.907227
1519241932054,-0.200195,-0.485107,0.866455
1519241932062,-0.247559,-0.359619,0.933838
1519241932071,-0.249756,-0.289795,0.825684
1519241932120,-0.033447,-0.457764,0.995850
1519241932125,-0.185059,-0.416016,0.909912
1519241932131,-0.178955,-0.402588,0.827637
1519241932163,-0.178955,-0.507568,0.832520
1519241932197,-0.200684,-0.533691,0.832031
1519241932213,-0.218750,-0.518555,0.878174
1519241932262,-0.212891,-0.613770,0.814697
1519241932280,-0.194092,-0.516113,0.838867
1519241932313,-0.102295,-0.319336,0.929932
1519241932360,-0.129150,-0.500244,0.917969
1519241932379,-0.183838,-0.458984,0.875977
1519241932413,-0.174561,-0.534912,0.822754
1519241932447,-0.170166,-0.510742,0.805420
1519241932479,-0.186768,-0.409668,0.852539
1519241932513,-0.169922,-0.502197,0.844971
1519241932545,-0.162109,-0.524658,0.862305
1519241932578,-0.170654,-0.504395,0.887451
1519241932610,-0.193115,-0.518311,0.856689
1519241932644,-0.191650,-0.518799,0.847412
1519241932677,-0.185791,-0.497314,0.854248
1519241932712,-0.191650,-0.533691,0.849609
1519241932743,-0.189697,-0.520020,0.857422
1519241932775,-0.180908,-0.517334,0.864746
1519241932793,-0.187500,-0.508301,0.851074
1519241932842,-0.201172,-0.508789,0.836426
1519241932859,-0.197754,-0.656738,0.803711
1519241932893,-0.073730,-0.199219,0.740967
1519241932928,-0.094238,-0.380859,1.040039
1519241932958,-0.122070,-0.498291,0.850342
1519241932992,-0.181885,-0.542480,0.926758
1519241933025,-0.298828,-0.578613,0.637939
1519241933060,-0.223145,-0.458496,0.907715
1519241933092,-0.214600,-0.377441,0.837402
1519241933125,-0.110107,-0.271973,1.010986
1519241933159,-0.139404,-0.450928,0.864746
1519241933193,-0.129883,-0.567871,0.787109
1519241933224,-0.155029,-0.565186,0.810059
1519241933259,-0.198975,-0.595459,0.828857
1519241933276,-0.267090,-0.531982,0.854980
1519241933324,-0.265381,-0.493652,0.867432
1519241933359,-0.202393,-0.517578,0.770508
1519241933375,-0.145996,-0.519043,0.925293
1519241933424,-0.226318,-0.319336,0.906494
1519241933448,-0.239746,-0.770020,0.675537
1519241933475,-0.173340,-0.513672,0.831055
1519241933507,-0.043701,-0.106689,1.113281
1519241933541,-0.098633,-0.263672,0.895752
1519241933574,-0.103271,-0.384277,0.849854
1519241933605,-0.143066,-0.489014,0.884033
1519241933639,-0.151367,-0.492432,0.854004
1519241933672,-0.222656,-0.567383,0.848877
1519241933706,-0.198242,-0.488037,0.895264
1519241933739,-0.180908,-0.598633,0.877930
1519241933774,-0.223389,-0.379639,0.874512
1519241933812,-0.221436,-0.469482,0.839355
1519241933842,-0.214844,-0.353271,0.893066
1519241933855,-0.211914,-0.492920,0.830566
1519241933922,-0.183105,-0.830566,0.748779
1519241933931,-0.182129,-0.641113,0.860596
1519241933957,-0.198975,-0.537354,0.899902
1519241934005,-0.236572,-0.437744,0.739746
1519241934021,-0.190674,-0.551758,0.883301
1519241934056,-0.184570,-0.480957,0.868408
1519241934088,-0.218750,-0.498291,0.795654
1519241934124,-0.200439,-0.570313,0.886719
1519241934156,-0.233154,-0.586914,0.781738
1519241934188,-0.232422,-0.731445,0.683105
1519241934221,-0.151123,-0.645264,0.884033
1519241934254,-0.171631,-0.327148,0.841553
1519241934288,-0.089600,-0.154541,1.033936
1519241934320,-0.071777,-0.399902,0.839600
1519241934354,-0.115479,-0.503662,0.775391
1519241934388,-0.134521,-0.543701,0.887451
1519241934421,-0.188965,-0.596436,0.866211
1519241934437,-0.245605,-0.604492,0.782959
1519241934487,-0.255859,-0.547607,0.816162
1519241934505,-0.255859,-0.530029,0.880615
1519241934538,-0.217285,-0.564453,0.879150
1519241934587,-0.273926,-0.477539,0.778564
1519241934603,-0.108887,-0.346924,0.920166
1519241934644,-0.011719,-0.455322,0.949463
1519241934668,-0.169922,-0.246582,0.890137
1519241934703,-0.182129,-0.328369,0.964600
1519241934735,-0.255859,-0.528076,0.822021
1519241934769,-0.137695,-0.563721,0.918701
1519241934809,-0.179199,-0.341064,0.874023
1519241934838,-0.096436,-0.413086,0.930176
1519241934868,-0.191162,-0.468750,0.858887
1519241934900,-0.239990,-0.455811,0.913330
1519241934919,-0.283691,-0.447754,0.880859
1519241934968,-0.362305,-0.309570,0.864990
1519241935000,-0.296875,-0.326660,1.034912
1519241935017,-0.276855,-0.294434,0.844727
1519241935067,-0.228516,-0.462646,0.869385
1519241935084,-0.181641,-0.396484,0.880371
1519241935117,-0.196777,-0.416260,0.893066
1519241935150,-0.228271,-0.430420,0.877930
1519241935203,-0.247803,-0.422607,0.890381
1519241935217,-0.254639,-0.432129,0.884521
1519241935252,-0.231689,-0.454346,0.880615
1519241935284,-0.224609,-0.440674,0.893799
1519241935318,-0.216309,-0.430664,0.878662
1519241935352,-0.212158,-0.433594,0.908936
1519241935383,-0.243896,-0.476074,0.863770
1519241935418,-0.247803,-0.448242,0.853271
1519241935451,-0.244141,-0.467285,0.880127
1519241935484,-0.211426,-0.447998,0.897461
1519241935499,-0.210938,-0.419922,0.888916
1519241935550,-0.181641,-0.407959,0.912842
1519241935584,-0.166260,-0.468750,0.864014
1519241935599,-0.154785,-0.415771,0.893799
1519241935648,-0.127197,-0.434326,0.897949
1519241935664,-0.175049,-0.414551,0.867676
1519241935696,-0.174072,-0.427979,0.870605
1519241935731,-0.199219,-0.490479,0.961426
1519241935765,-0.251465,-0.308838,0.906006
1519241935799,-0.165039,-0.560791,0.910889
1519241935843,-0.216064,-0.345215,0.918213
1519241935865,-0.238037,-0.258789,0.919189
1519241935898,-0.252930,-0.646240,0.728760
1519241935930,-0.028320,-0.256836,1.041992
1519241935965,-0.081055,-0.194336,0.993408
1519241936000,-0.090820,-0.400146,0.854980
1519241936030,-0.162598,-0.340576,0.909912
1519241936076,-0.157471,-0.637207,0.895996
1519241936082,-0.300049,-0.579346,0.821777
1519241936130,-0.236816,-0.286377,0.933594
1519241936149,-0.226318,-0.526855,0.777832
1519241936181,-0.185059,-0.472168,0.802979
1519241936231,-0.066895,-0.760254,0.890137
1519241936247,-0.138184,-0.260010,0.880371
1519241936279,-0.180420,-0.335693,0.888916
1519241936312,-0.181641,-0.428223,0.841797
1519241936347,-0.185547,-0.416504,0.790771
1519241936380,-0.163818,-0.565918,0.808594
1519241936412,-0.162109,-0.610352,0.864014
1519241936445,-0.173584,-0.563477,0.883057
1519241936482,-0.168701,-0.555664,0.831299
1519241936512,-0.191650,-0.447021,0.850586
1519241936544,-0.164063,-0.468018,0.844238
1519241936562,-0.166260,-0.405518,0.897461
1519241936652,-0.181396,-0.452148,0.873047
1519241936718,-0.176758,-0.480225,0.858398
1519241936727,-0.197266,-0.534912,0.847656
1519241936785,-0.188477,-0.464111,0.864990
1519241936794,-0.177979,-0.508057,0.879883
1519241936853,-0.160889,-0.481445,0.875244
1519241936857,-0.188721,-0.511230,0.868896
1519241936860,-0.211914,-0.437256,0.866699
1519241936921,-0.202148,-0.420410,0.916504
1519241936931,-0.272461,-0.359863,0.806396
1519241936989,-0.135010,-0.604736,0.858398
1519241936996,-0.234863,-0.471436,0.924561
1519241937057,-0.194824,-0.388672,0.826416
1519241937122,-0.204346,-0.441162,0.873535
1519241937131,-0.201660,-0.483643,0.843506
1519241937134,-0.213867,-0.519287,0.870850
1519241937137,-0.186279,-0.532471,0.853027
1519241937142,-0.164795,-0.534424,0.832275
1519241937191,-0.157227,-0.530273,0.860352
1519241937224,-0.085205,-0.670166,0.857666
1519241937241,-0.204102,-0.543213,0.762451
1519241937292,-0.075928,-0.290527,1.055420
1519241937308,-0.137939,-0.379639,0.924316
1519241937342,-0.178711,-0.392578,0.884766
1519241937376,-0.157715,-0.599609,0.763184
1519241937409,-0.165039,-0.595215,0.812256
1519241937443,-0.164551,-0.538574,0.865479
1519241937476,-0.146240,-0.462891,0.918457
1519241937509,-0.188477,-0.493896,0.865234
1519241937542,-0.177246,-0.585449,0.899414
1519241937574,-0.212891,-0.415283,0.852539
1519241937607,-0.003418,-0.078857,1.031494
1519241937641,-0.153564,-0.343994,0.892090
1519241937673,-0.140381,-0.380371,0.847900
1519241937708,-0.146484,-0.460693,0.846924
1519241937724,-0.137207,-0.605225,0.834961
1519241937774,-0.139893,-0.637939,0.989746
1519241937791,-0.193604,-0.359863,0.770996
1519241937826,-0.168701,-0.369141,0.884277
1519241937872,-0.125977,-0.486328,0.865479
1519241937894,-0.158691,-0.458252,0.809326
1519241937923,-0.188721,-0.597412,0.788818
1519241937957,-0.175781,-0.527344,0.895264
1519241937991,-0.193115,-0.496826,0.878662
1519241938022,-0.194580,-0.482666,0.847900
1519241938056,-0.169434,-0.505859,0.876953
1519241938088,-0.170898,-0.421875,0.862549
1519241938123,-0.158691,-0.509033,0.865967
1519241938155,-0.142334,-0.452148,0.842041
1519241938188,-0.197998,-0.474609,0.855469
1519241938220,-0.193604,-0.463623,0.889893
1519241938264,-0.198975,-0.544922,0.855469
1519241938288,-0.210205,-0.499756,0.896729
1519241938304,-0.190186,-0.404053,0.855469
1519241938356,-0.043701,-0.433350,0.963623
1519241938372,-0.180176,-0.303955,0.855469
1519241938406,-0.140137,-0.336914,0.897705
1519241938438,-0.178955,-0.380615,0.818604
1519241938472,-0.177490,-0.624023,0.873535
1519241938505,-0.183838,-0.598389,0.884277
1519241938539,-0.276123,-0.582275,0.730225
1519241938572,-0.233398,-0.601074,0.845947
1519241938604,-0.191162,-0.475830,0.942871
1519241938637,-0.193115,-0.504639,0.838867
1519241938670,-0.184570,-0.449219,0.875732
1519241938702,-0.135010,-0.463623,0.830811
1519241938737,-0.118652,-0.263428,0.850830
1519241938768,-0.091309,-0.282227,0.895020
1519241938785,-0.129395,-0.395264,0.911621
1519241938835,-0.128174,-0.570801,0.818848
1519241938867,-0.181396,-0.602539,0.786133
1519241938886,-0.195068,-0.531006,0.859863
1519241938934,-0.201172,-0.562500,0.830322
1519241938951,-0.202637,-0.591064,0.835449
1519241938984,-0.180176,-0.457031,0.892822
1519241939040,-0.207520,-0.450684,0.828369
1519241939062,-0.204102,-0.535889,0.814941
1519241939084,-0.180176,-0.552002,0.822998
1519241939118,-0.124268,-0.515625,0.886963
1519241939151,-0.167969,-0.514160,0.867920
1519241939185,-0.178955,-0.475586,0.835938
1519241939218,-0.162354,-0.478516,0.851807
1519241939250,-0.167236,-0.536377,0.877930
1519241939283,-0.172363,-0.494873,0.875732
1519241939317,-0.182617,-0.574951,0.797119
1519241939349,-0.208008,-0.711426,0.826904
1519241939367,-0.176514,-0.387451,0.837891
1519241939417,-0.140381,-0.288574,0.952148
1519241939433,-0.154297,-0.393799,0.937012
1519241939466,-0.208984,-0.356689,0.859375
1519241939516,-0.170898,-0.413330,0.989014
1519241939533,-0.218506,-0.357178,0.901611
1519241939566,-0.191406,-0.354492,0.794922
1519241939599,-0.170654,-0.456299,0.942871
1519241939632,-0.188477,-0.386230,0.875977
1519241939666,-0.191162,-0.352295,0.922607
1519241939699,-0.244141,-0.272461,0.927490
1519241939731,-0.218262,-0.366699,0.970703
1519241939764,-0.175293,-0.362305,0.929443
1519241939797,-0.139893,-0.597168,0.750977
1519241939831,-0.106445,-0.465088,0.908447
1519241939864,-0.206543,-0.164795,0.940186
1519241939897,-0.209229,-0.474365,0.836182
1519241939930,-0.242188,-0.492432,0.870117
1519241939947,-0.243164,-0.666504,0.810791
1519241939996,-0.186768,-0.261963,0.983887
1519241940013,-0.169922,-0.472412,0.877930
1519241940063,-0.139893,-0.385498,0.944336
1519241940080,-0.074707,-0.279053,0.940186
1519241940113,-0.148926,-0.436523,0.909912
1519241940146,-0.161865,-0.325684,0.865234
1519241940180,-0.186523,-0.335693,0.918457
1519241940212,-0.194092,-0.386230,0.928467
1519241940247,-0.180176,-0.472656,0.912598
1519241940283,-0.186523,-0.366455,0.934814
1519241940320,-0.171387,-0.348145,0.905762
1519241940345,-0.189209,-0.367676,0.876465
1519241940379,-0.168945,-0.373291,0.944580
1519241940411,-0.213623,-0.300049,0.957764
1519241940446,-0.252686,-0.475098,0.886475
1519241940479,-0.276123,-0.318359,0.961182
1519241940521,-0.194824,-0.263916,0.939209
1519241940529,-0.161865,-0.322754,0.882324
1519241940577,-0.034912,-0.355713,0.965332
1519241940594,-0.110352,-0.359863,0.900146
1519241940628,-0.142578,-0.320313,0.893799
1519241940682,-0.159912,-0.405273,0.864990
1519241940694,-0.200195,-0.333008,0.944336
1519241940742,-0.165771,-0.354248,0.960205
1519241940760,-0.182129,-0.469727,0.880859
1519241940794,-0.197021,-0.553223,0.858398
1519241940827,-0.197510,-0.448730,0.875977
1519241940860,-0.166016,-0.613770,0.834473
1519241940894,-0.160889,-0.370605,0.880371
1519241940926,-0.146729,-0.325928,0.948975
1519241940965,-0.166504,-0.412598,0.876709
1519241940992,-0.158447,-0.375488,0.880371
1519241941038,-0.131836,-0.479004,0.833496
1519241941059,-0.181885,-0.493652,0.895752
1519241941081,-0.177002,-0.445801,0.900879
1519241941112,-0.187500,-0.468750,0.873047
1519241941159,-0.175293,-0.486328,0.857178
1519241941188,-0.172852,-0.449951,0.866943
1519241941209,-0.178711,-0.433838,0.872070
1519241941242,-0.139160,-0.540283,0.870850
1519241941275,-0.135986,-0.439209,0.830811
1519241941309,-0.088379,-0.505615,0.977051
1519241941341,-0.135254,-0.322510,0.997559
1519241941375,-0.225098,-0.259766,0.815430
1519241941408,-0.281738,-0.335938,0.798340
1519241941441,-0.292480,-0.304199,0.895264
1519241941485,-0.264893,-0.383057,1.026123
1519241941508,-0.355957,-0.436768,0.913330
1519241941541,-0.267334,-0.335693,0.887695
1519241941574,-0.266602,-0.319336,0.909912
1519241941640,-0.252686,-0.356201,0.893311
1519241941642,-0.251221,-0.491943,0.859131
1519241941707,-0.193604,-0.370361,0.932129
1519241941710,-0.150635,-0.312256,0.980225
1519241941776,-0.045654,-0.137695,1.032959
1519241941782,-0.149658,-0.310059,0.988525
1519241941843,-0.149414,-0.359131,0.880371
1519241941980,-0.220459,-0.640381,0.816650
1519241942046,-0.202637,-0.461182,0.894287
1519241942113,-0.218018,-0.449463,0.886475
1519241942139,-0.214355,-0.445068,0.882324
1519241942146,-0.169189,-0.475098,0.921875
1519241942152,-0.187988,-0.350830,0.931396
1519241942158,-0.047363,-0.323730,0.769531
1519241942163,-0.101563,-0.319336,1.018555
1519241942168,-0.199951,-0.355957,0.863770
1519241942172,-0.213379,-0.577148,0.814941
1519241942175,-0.177246,-0.645996,0.836426
1519241942179,-0.203125,-0.433350,0.854492
1519241942222,-0.186279,-0.178223,0.997314
1519241942239,-0.126953,-0.302002,0.940430
1519241942273,-0.149658,-0.453613,0.779785
1519241942306,-0.154297,-0.457520,0.929688
1519241942341,-0.253906,-0.432129,0.825195
1519241942373,-0.187256,-0.610840,0.842041
1519241942407,-0.212402,-0.369385,0.890137
1519241942439,-0.230957,-0.195557,0.876465
1519241942472,-0.205566,-0.846680,0.690186
1519241942507,-0.088135,-0.222900,1.052002
1519241942537,-0.137207,-0.207764,0.981934
1519241942572,-0.136719,-0.207520,0.929932
1519241942603,-0.074951,-0.348633,0.965820
1519241942635,-0.156006,-0.324219,0.841553
1519241942654,-0.160889,-0.419434,0.860107
1519241942705,-0.183594,-0.704346,0.826660
1519241942722,-0.190918,-0.427246,0.877441
1519241942753,-0.176514,-0.449463,0.897705
1519241942804,-0.151367,-0.466064,0.891846
1519241942828,-0.167480,-0.450928,0.899658
1519241942853,-0.155518,-0.471436,0.860596
1519241942886,-0.157715,-0.524902,0.854736
1519241942921,-0.163818,-0.510986,0.845947
1519241942955,-0.153809,-0.532227,0.859619
1519241942991,-0.156250,-0.433350,0.845459
1519241943022,-0.127686,-0.461182,0.894043
1519241943053,-0.125977,-0.452148,0.868164
1519241943101,-0.146240,-0.492432,0.830566
1519241943127,-0.157959,-0.502686,0.903564
1519241943171,-0.156006,-0.480957,0.865723
1519241943185,-0.152100,-0.615479,0.918213
1519241943218,-0.182129,-0.623535,0.773682
1519241943235,-0.139648,-0.402832,0.843506
1519241943286,-0.097412,-0.352295,0.948242
1519241943302,-0.127197,-0.342041,0.874268
1519241943335,-0.120117,-0.295166,0.914307
1519241943384,-0.125244,-0.420166,0.841064
1519241943402,-0.183105,-0.540771,0.804443
1519241943437,-0.150146,-0.793457,0.826172
1519241943469,-0.185059,-0.470703,0.874268
1519241943503,-0.088135,-0.235107,0.963867
1519241943534,-0.212891,-0.415039,0.851074
1519241943569,-0.173340,-0.398193,0.839111
1519241943600,-0.158447,-0.648682,0.803467
1519241943633,-0.128906,-0.715576,0.826416
1519241943665,-0.196045,-0.272461,0.855225
1519241943701,-0.129639,-0.354248,0.936035
1519241943718,-0.176270,-0.431152,0.803711
1519241943767,-0.169922,-0.387207,0.899658
1519241943801,-0.148682,-0.376221,0.889160
1519241943824,-0.168701,-0.431152,0.915283
1519241943867,-0.208008,-0.494385,0.838867
1519241943882,-0.197754,-0.528320,0.868652
1519241943924,-0.196533,-0.485107,0.886963
1519241943953,-0.197754,-0.449463,0.781982
1519241943980,-0.114014,-0.207520,1.014893
1519241944026,-0.128418,-0.432861,0.909912
1519241944048,-0.179932,-0.357666,0.868164
1519241944082,-0.173828,-0.555664,0.780762
1519241944114,-0.149414,-0.642822,0.868652
1519241944161,-0.140625,-0.514404,0.866455
1519241944181,-0.142334,-0.187500,0.942871
1519241944220,-0.147705,-0.296631,0.985840
1519241944247,-0.142822,-0.548584,0.870117
1519241944294,-0.199219,-0.522949,0.878906
1519241944303,-0.262451,-0.473633,0.799805
1519241944346,-0.261719,-0.339844,0.906006
1519241944380,-0.133301,-0.364014,0.851074
1519241944397,-0.145264,-0.431396,1.013916
1519241944447,-0.206787,-0.352051,0.836426
1519241944465,-0.189453,-0.385742,0.873291
1519241944497,-0.163086,-0.494385,0.869385
1519241944532,-0.223633,-0.572021,0.907959
1519241944564,-0.255615,-0.246338,0.943115
1519241944598,-0.222412,-0.305420,0.914551
1519241944630,-0.184082,-0.338623,0.894531
1519241944662,-0.158447,-0.495850,0.830566
1519241944706,-0.172119,-0.607178,0.824951
1519241944729,-0.191406,-0.454590,0.903809
1519241944764,-0.173828,-0.461670,0.857422
1519241944797,-0.170898,-0.558105,0.876709
1519241944830,-0.174805,-0.345947,0.953857
1519241944862,-0.099365,0.032471,1.030273
1519241944880,-0.130127,-0.339355,0.947754
1519241944928,-0.155762,-0.426758,0.844238
1519241944952,-0.175293,-0.457031,0.858643
1519241944978,-0.139160,-0.585449,0.914063
1519241945030,-0.190918,-0.402588,0.924805
1519241945045,-0.143311,-0.315186,0.916504
1519241945077,-0.147217,-0.468994,0.886719
1519241945118,-0.150146,-0.385254,0.851807
1519241945143,-0.179688,-0.542725,0.833008
1519241945177,-0.212646,-0.585205,0.855225
1519241945212,-0.215820,-0.371094,0.905518
1519241945251,-0.161621,-0.466064,0.898682
1519241945279,-0.153320,-0.316895,0.934326
1519241945318,-0.155518,-0.495850,0.850586
1519241945343,-0.197510,-0.569580,0.832031
1519241945360,-0.209961,-0.519043,0.842773
1519241945410,-0.180664,-0.484375,0.860352
1519241945443,-0.189941,-0.463135,0.877197
1519241945460,-0.176270,-0.480713,0.906738
1519241945520,-0.176270,-0.483154,0.879883
1519241945529,-0.173096,-0.406982,0.901855
1519241945563,-0.190186,-0.385254,0.883057
1519241945594,-0.166992,-0.421143,0.895996
1519241945627,-0.172363,-0.414795,0.888916
1519241945658,-0.176025,-0.426025,0.890137
1519241945692,-0.185303,-0.457275,0.891113
1519241945725,-0.171631,-0.459229,0.878662
1519241945759,-0.176514,-0.441406,0.894043
1519241945793,-0.168701,-0.452148,0.895752
1519241945832,-0.167480,-0.473145,0.862305
1519241945859,-0.172363,-0.444824,0.875488
1519241945894,-0.161377,-0.440674,0.879395
1519241945926,-0.184326,-0.428955,0.882080
1519241945942,-0.163330,-0.444092,0.918945
1519241945993,-0.175781,-0.428467,0.871826
1519241946025,-0.179443,-0.429443,0.879883
1519241946041,-0.173828,-0.444824,0.904541
1519241946091,-0.154785,-0.490234,0.869385
1519241946108,-0.153320,-0.495117,0.840820
1519241946139,-0.134033,-0.582764,0.860596
1519241946173,-0.158203,-0.470703,0.851563
1519241946209,-0.107178,-0.304688,0.896729
1519241946240,-0.199951,-0.391602,0.918213
1519241946274,-0.134277,-0.457520,0.887207
1519241946307,-0.161621,-0.396729,0.888672
1519241946340,-0.162842,-0.394531,0.905762
1519241946372,-0.132813,-0.546631,0.931152
1519241946405,-0.157959,-0.459473,0.862061
1519241946438,-0.167969,-0.389893,0.843750
1519241946473,-0.153809,-0.333496,0.896484
1519241946506,-0.091309,-0.406738,0.930176
1519241946523,-0.115967,-0.464844,0.941895
1519241946573,-0.156982,-0.424072,0.844238
1519241946590,-0.140381,-0.540039,0.912598
1519241946657,-0.156982,-0.458252,0.916748
1519241946724,-0.183350,-0.350342,0.883301
1519241946790,-0.174805,-0.392822,0.910889
1519241946799,-0.132813,-0.432617,0.855225
1519241946858,-0.162842,-0.413330,0.885254
1519241946861,-0.138916,-0.423828,0.876953
1519241946929,-0.086182,-0.365967,0.984131
1519241946940,-0.123535,-0.327148,0.909912
1519241946996,-0.169678,-0.282471,0.877930
1519241947005,-0.143066,-0.399414,0.888184
1519241947065,-0.145996,-0.430908,0.883789
1519241947071,-0.145996,-0.439209,0.908691
1519241947135,-0.146973,-0.454590,0.918457
1519241947142,-0.152100,-0.489014,0.847656
1519241947162,-0.139648,-0.528320,0.882568
1519241947165,-0.182861,-0.593506,0.862305
1519241947168,-0.118164,-0.328369,0.924316
1519241947171,-0.128662,-0.374268,0.948975
1519241947203,-0.161621,-0.399902,0.899658
1519241947236,-0.087402,-0.520508,0.818115
1519241947270,-0.170410,-0.528809,0.818115
1519241947303,-0.141113,-0.484375,0.872559
1519241947336,-0.117188,-0.479980,0.900391
1519241947369,-0.141846,-0.440186,0.911865
1519241947403,-0.116455,-0.423340,0.916260
1519241947438,-0.119629,-0.344482,0.915771
1519241947469,-0.112305,-0.377197,0.929932
1519241947503,-0.122314,-0.273926,0.944092
1519241947537,-0.038086,-0.258057,0.977783
1519241947569,0.021484,-0.208008,1.093506
1519241947586,0.002686,-0.234863,0.890137
1519241947636,-0.017822,-0.314697,0.870605
1519241947667,-0.090576,-0.300537,0.987549
1519241947685,-0.057373,-0.316895,0.956055
1519241947735,-0.100830,-0.416016,0.955811
1519241947752,-0.180176,-0.477295,0.909668
1519241947785,-0.223633,-0.474121,0.888428
1519241947819,-0.239746,-0.493164,0.871338
1519241947856,-0.230957,-0.480225,0.848633
1519241947885,-0.196533,-0.476074,0.881348
1519241947919,-0.177979,-0.461426,0.884277
1519241947950,-0.180420,-0.436035,0.850830
1519241948002,-0.181885,-0.422852,0.869141
1519241948017,-0.162109,-0.440918,0.901855
1519241948050,-0.184570,-0.423828,0.857422
1519241948082,-0.196533,-0.463135,0.879395
1519241948117,-0.169922,-0.531494,0.951172
1519241948149,-0.189209,-0.383301,0.935059
1519241948166,-0.146240,-0.414795,0.902344
1519241948214,-0.165283,-0.512451,0.781250
1519241948231,-0.187744,-0.553955,0.748535
1519241948265,-0.175781,-0.542725,0.788574
1519241948324,-0.252197,-0.522217,0.841064
1519241948343,-0.269287,-0.544678,0.838379
1519241948364,-0.188477,-0.563232,0.855957
1519241948398,-0.213135,-0.470947,0.868896
1519241948431,-0.189697,-0.459717,0.864502
1519241948464,-0.167725,-0.511230,0.837891
1519241948496,-0.160645,-0.476563,0.878174
1519241948530,-0.173096,-0.444092,0.863281
1519241948564,-0.166504,-0.440186,0.853760
1519241948596,-0.148438,-0.450684,0.911377
1519241948632,-0.139404,-0.431885,0.897461
1519241948648,-0.193115,-0.431152,0.860596
1519241948697,-0.161133,-0.501221,0.886719
1519241948730,-0.188965,-0.483154,0.864746
1519241948748,-0.181396,-0.455322,0.857910
1519241948796,-0.157715,-0.501953,0.885742
1519241948814,-0.175781,-0.515869,0.824463
1519241948848,-0.247314,-0.486084,0.898926
1519241948880,-0.149658,-0.491699,0.860352
1519241948914,-0.093750,-0.305420,0.890625
1519241948948,-0.130615,-0.254883,0.893311
1519241948981,-0.129395,-0.481934,0.923096
1519241949014,-0.165039,-0.713623,0.808594
1519241949045,-0.259033,-0.565430,0.774902
1519241949078,-0.196289,-0.418213,0.893799
1519241949112,-0.178467,-0.312012,0.875977
1519241949146,-0.124268,-0.188477,1.003662
1519241949179,-0.104736,-0.447754,0.863770
1519241949211,-0.149414,-0.425293,0.839111
1519241949229,-0.174805,-0.650146,0.776855
1519241949281,-0.178955,-0.594971,0.820801
1519241949312,-0.189453,-0.537354,0.893311
1519241949329,-0.172363,-0.506348,0.887207
1519241949377,-0.210693,-0.455078,0.842041
1519241949395,-0.206787,-0.473877,0.898193
1519241949428,-0.233887,-0.440674,0.848145
1519241949461,-0.211914,-0.451416,0.886230
1519241949494,-0.153076,-0.523193,0.847168
1519241949529,-0.170898,-0.386230,0.863525
1519241949561,-0.188965,-0.502930,0.937744
1519241949595,-0.195557,-0.404297,0.946289
1519241949628,-0.224365,-0.940918,0.722900
1519241949660,-0.274658,-0.420410,0.807129
1519241949693,-0.256592,-0.371582,0.931641
1519241949727,-0.208008,-0.239258,0.939453
1519241949761,-0.154785,-0.496826,0.944824
1519241949792,-0.152100,-0.370117,0.852051
1519241949810,-0.111328,-0.837646,0.743896
1519241949860,-0.040039,-0.270508,0.968750
1519241949876,-0.022705,-0.290527,1.009766
1519241949909,-0.133057,-0.355957,0.860596
1519241949959,-0.159424,-0.506104,0.836914
1519241949977,-0.204590,-0.544434,0.857422
1519241950009,-0.204834,-0.547363,0.791504
1519241950044,-0.101807,-0.492432,0.913574
1519241950075,-0.149658,-0.509521,0.817383
1519241950109,-0.146240,-0.541260,0.851807
1519241950144,-0.151611,-0.439209,0.831787
1519241950175,-0.059814,-0.212891,1.083496
1519241950207,-0.189453,-0.293213,0.846436
1519241950241,-0.115479,-0.487305,0.887451
1519241950273,-0.139160,-0.549561,0.861084
1519241950307,-0.154541,-0.516602,0.888672
1519241950341,-0.201904,-0.496338,0.889893
1519241950373,-0.216064,-0.538330,0.807617
1519241950392,-0.228516,-0.432861,0.899658
1519241950441,-0.192139,-0.391602,0.740967
1519241950459,-0.117432,-0.555664,0.901367
1519241950491,-0.203369,-0.382568,0.894775
1519241950525,-0.165283,-0.440186,0.887939
1519241950562,-0.254883,-0.768311,0.783691
1519241950589,-0.244385,-0.337646,0.801025
1519241950623,-0.215088,-0.329834,0.914551
1519241950656,-0.197266,-0.443115,0.812012
1519241950691,-0.177490,-0.432373,0.919922
1519241950722,-0.170898,-0.485352,0.815918
1519241950757,-0.175049,-0.424561,0.933838
1519241950789,-0.229248,-0.429932,0.877930
1519241950823,-0.195801,-0.488037,0.833984
1519241950855,-0.180664,-0.494873,0.881104
1519241950872,-0.197510,-0.528320,0.849609
1519241950922,-0.203613,-0.504883,0.825684
1519241950956,-0.156738,-0.437500,0.896973
1519241950973,-0.155762,-0.418701,0.865967
1519241951023,-0.185791,-0.402100,0.886719
1519241951039,-0.187012,-0.411621,0.887451
1519241951072,-0.177246,-0.455811,0.860352
1519241951105,-0.180420,-0.452393,0.917725
1519241951138,-0.245361,-0.518799,0.840576
1519241951173,-0.186279,-0.375977,0.935791
1519241951203,-0.244385,-0.423584,0.882324
1519241951236,-0.244385,-0.437988,0.832520
1519241951269,-0.187988,-0.529297,0.845459
1519241951303,-0.119141,-0.405762,0.866943
1519241951336,-0.063965,-0.284180,1.003174
1519241951370,-0.092529,-0.387451,0.879150
1519241951404,-0.127197,-0.494629,0.816406
1519241951437,-0.118652,-0.454102,0.857666
1519241951455,-0.139404,-0.491699,0.860107
1519241951502,-0.189941,-0.486572,0.861084
1519241951520,-0.212402,-0.561768,0.868896
1519241951554,-0.207031,-0.427246,0.924072
1519241951647,-0.302002,-0.385498,0.904541
1519241951655,-0.306641,-0.188721,0.949219
1519241951714,-0.251953,-0.219238,0.919434
1519241951718,-0.153809,-0.599609,0.853516
1519241951785,-0.143311,-0.580811,0.855713
1519241951794,-0.118896,-0.530029,0.867920
1519241951852,-0.112305,-0.501465,0.830078
1519241951855,-0.145020,-0.509033,0.876953
1519241951921,-0.178955,-0.385254,0.893799
1519241951927,-0.193848,-0.414795,0.864258
1519241951990,-0.158447,-0.456055,0.891113
1519241951996,-0.157715,-0.473877,0.896240
1519241952059,-0.176025,-0.520020,0.863281
1519241952068,-0.173828,-0.384033,0.883301
1519241952126,-0.143799,-0.486328,0.886230
1519241952130,-0.144775,-0.577393,0.859863
1519241952158,-0.172852,-0.369873,0.903564
1519241952164,-0.167969,-0.523682,0.875977
1519241952169,-0.186523,-0.262695,0.936768
1519241952199,-0.239746,-0.498779,0.826904
1519241952232,-0.229492,-0.391602,0.929443
1519241952266,-0.262695,-0.384033,0.930908
1519241952297,-0.306641,-0.495361,0.789307
1519241952332,-0.268555,-0.419434,0.864258
1519241952366,-0.281494,-0.286133,0.866455
1519241952400,-0.261963,-0.369629,0.863281
1519241952433,-0.252686,-0.522217,0.851074
1519241952468,-0.187012,-0.325439,0.943848
1519241952498,-0.184814,-0.339355,0.925537
1519241952516,-0.157959,-0.629883,0.877197
1519241952565,-0.166504,-0.250000,0.931152
1519241952600,-0.050781,-0.297607,0.988770
1519241952616,-0.170898,-0.370605,0.910400
1519241952664,-0.193115,-0.305664,0.810059
1519241952681,-0.178223,-0.602539,0.790283
1519241952715,-0.180176,-0.536133,0.881104
1519241952748,-0.143555,-0.401367,0.929932
1519241952780,-0.160889,-0.443848,0.900391
1519241952814,-0.165039,-0.440430,0.888672
1519241952848,-0.163818,-0.370117,0.867920
1519241952879,-0.157471,-0.468262,0.850830
1519241952913,-0.139160,-0.494873,0.892822
1519241952948,-0.181641,-0.496826,0.866943
1519241952981,-0.163818,-0.497070,0.870850
1519241953014,-0.169434,-0.385010,0.874756
1519241953048,-0.134033,-0.386963,0.911865
1519241953080,-0.170410,-0.441162,0.904053
1519241953096,-0.153809,-0.438721,0.911377
1519241953147,-0.130859,-0.450928,0.903320
1519241953166,-0.218506,-0.468994,0.861328
1519241953196,-0.165527,-0.491211,0.865723
1519241953244,-0.138672,-0.409912,0.895020
1519241953262,-0.141602,-0.427734,0.879150
1519241953295,-0.078857,-0.507080,0.891357
1519241953329,-0.155762,-0.276855,1.068115
1519241953364,-0.164307,-0.243408,1.014160
1519241953396,-0.274658,-0.243408,0.775879
1519241953430,-0.213623,-0.559082,0.703613
1519241953469,-0.110596,-0.938721,0.840820
1519241953496,-0.163818,-0.414307,0.935791
1519241953527,-0.255371,-0.419434,0.827393
1519241953562,-0.203857,-0.468018,0.879150
1519241953597,-0.212402,-0.558105,0.838867
1519241953627,-0.104736,-0.093018,0.961426
1519241953661,0.007080,-0.060791,1.132568
1519241953677,-0.103760,-0.456299,0.878174
1519241953728,-0.125732,-0.293213,0.868652
1519241953745,-0.072021,-0.370361,0.986816
1519241953777,-0.105957,-0.372314,1.020020
1519241953812,-0.309082,-0.461914,0.684570
1519241953844,-0.255371,-0.711914,0.861328
1519241953876,-0.331543,-0.444580,0.804932
1519241953911,-0.253174,-0.328613,0.958496
1519241953943,-0.246826,-0.397949,0.877930
1519241953976,-0.168457,-0.432129,0.987305
1519241954010,-0.250244,-0.313232,0.863037
1519241954043,-0.246094,-0.470947,0.906494
1519241954076,-0.270508,-0.470947,0.823975
1519241954109,-0.045898,-0.573242,1.001221
1519241954144,-0.129150,-0.315674,0.851563
1519241954159,-0.036865,0.105957,1.126465
1519241954209,-0.065186,-0.384766,0.873291
1519241954242,-0.181885,-0.657959,0.863770
1519241954261,-0.169678,-0.329834,1.014893
1519241954309,-0.347656,-0.338623,0.850586
1519241954326,-0.276367,-0.393555,0.926025
1519241954359,-0.279053,-0.338135,0.862061
1519241954403,-0.242920,-0.462891,0.873779
1519241954427,-0.190186,-0.539551,0.932129
1519241954459,-0.176270,-0.294434,0.982910
1519241954493,-0.087646,-0.376465,0.894775
1519241954525,-0.107422,-0.402100,0.868164
1519241954558,-0.122070,-0.751953,0.724121
1519241954592,-0.144043,-0.249756,0.984375
1519241954625,-0.130127,-0.397217,0.969727
1519241954664,-0.158203,-0.446533,0.948486
1519241954689,-0.194092,-0.380859,0.807617
1519241954723,-0.223145,-0.405273,0.811035
1519241954740,-0.241943,-0.416016,0.920654
1519241954791,-0.311035,-0.369385,0.889893
1519241954807,-0.298828,-0.462891,0.915283
1519241954841,-0.313721,-0.367920,0.903564
1519241954889,-0.255127,-0.462402,0.783447
1519241954906,-0.113281,-0.472412,0.971436
1519241954938,-0.083984,-0.475098,0.937988
1519241954974,-0.025391,-0.400635,0.920166
1519241955008,-0.084473,-0.400391,0.963623
1519241955038,-0.158691,-0.364746,0.777100
1519241955072,-0.251953,-0.456543,0.850098
1519241955105,-0.245361,-0.467529,0.910889
1519241955139,-0.189453,-0.458496,0.907471
1519241955171,-0.151855,-0.423096,0.963379
1519241955204,-0.162109,-0.424561,0.930420
1519241955237,-0.179932,-0.420654,0.911865
1519241955270,-0.175781,-0.434570,0.879150
1519241955305,-0.205811,-0.468262,0.856689
1519241955322,-0.203125,-0.653564,0.810547
1519241955370,-0.121094,-0.257568,1.021729
1519241955387,-0.187256,-0.396240,0.846191
1519241955555,-0.168213,-0.249023,0.903564
1519241955556,-0.155029,-0.424072,0.990234
1519241955556,-0.225586,-0.365723,0.842285
1519241955557,-0.125977,-0.482910,0.972412
1519241955557,-0.158936,-0.447266,0.809570
1519241955587,-0.188721,-0.456787,0.839600
1519241955620,-0.141357,-0.477539,0.882813
1519241955654,-0.163086,-0.460938,0.906982
1519241955686,-0.255127,-0.369385,0.954102
1519241955720,-0.297363,-0.405029,0.902832
1519241955753,-0.265869,-0.456787,0.743652
1519241955787,-0.065918,-0.644287,0.778320
1519241955805,-0.133789,-0.644287,0.883057
1519241955856,-0.202637,-0.332031,0.917969
1519241955886,-0.131104,-0.394287,1.048340
1519241955902,-0.315186,-0.390381,0.811768
1519241955953,-0.286133,-0.325928,0.915283
1519241955969,-0.305908,-0.319092,0.835205
1519241956004,-0.255615,-0.440430,0.867676
1519241956037,-0.200439,-0.547119,0.894043
1519241956069,-0.211182,-0.446289,0.868896
1519241956101,-0.196533,-0.444824,0.842773
1519241956135,-0.175781,-0.453369,0.881104
1519241956169,-0.191650,-0.459961,0.897949
1519241956201,-0.196533,-0.461670,0.941650
1519241956235,-0.172363,-0.294922,0.966309
1519241956266,-0.152832,-0.367432,0.943115
1519241956300,-0.181152,-0.373779,0.840820
1519241956335,-0.197266,-0.538330,0.816162
1519241956368,-0.163818,-0.322510,0.903564
1519241956385,-0.080811,-0.256592,1.027344
1519241956434,-0.112793,-0.457275,0.976563
1519241956451,-0.140625,-0.447754,0.859375
1519241956483,-0.186279,-0.380371,0.832031
1519241956533,-0.147461,-0.518555,0.892334
1519241956551,-0.181396,-0.402588,0.886719
1519241956582,-0.235107,-0.436279,0.908447
1519241956650,-0.237305,-0.406494,0.861816
1519241956715,-0.227295,-0.433594,0.905762
1519241956718,-0.203613,-0.528564,0.877686
1519241956786,-0.219727,-0.425781,0.836426
1519241956794,-0.193359,-0.479004,0.890137
1519241956854,-0.204590,-0.484619,0.849854
1519241956862,-0.225830,-0.439941,0.820557
1519241956924,-0.197021,-0.393555,0.907471
1519241956932,-0.170410,-0.498779,0.889404
1519241956992,-0.123047,-0.366211,0.967529
1519241957000,-0.143555,-0.448975,0.910400
1519241957060,-0.183594,-0.369873,0.880859
1519241957126,-0.211426,-0.428467,0.831543
1519241957141,-0.207764,-0.506104,0.864502
1519241957158,-0.189697,-0.554199,0.869385
1519241957161,-0.162109,-0.701904,0.853760
1519241957164,-0.175537,-0.114502,0.944336
1519241957167,-0.145752,-0.349609,0.927002
1519241957196,-0.166260,-0.246582,0.882568
1519241957230,-0.212402,-0.249756,0.875488
1519241957264,-0.201660,-0.355469,0.915527
1519241957296,-0.180176,-0.399658,0.972412
1519241957329,-0.196777,-0.438721,0.916748
1519241957365,-0.225342,-0.387695,0.913818
1519241957398,-0.241943,-0.270264,0.889648
1519241957431,-0.302979,-0.329346,0.917480
1519241957448,-0.358154,-0.270752,0.863281
1519241957497,-0.252197,-0.297607,0.913574
1519241957530,-0.196533,-0.533203,0.937012
1519241957547,-0.113037,-0.583008,0.941650
1519241957597,-0.108887,-0.594238,0.781738
1519241957613,-0.138916,-0.595459,0.786865
1519241957648,-0.167480,-0.415283,0.812744
1519241957679,-0.201416,-0.452148,0.859619
1519241957712,-0.235840,-0.316650,1.009521
1519241957745,-0.292480,-0.393799,0.938965
1519241957779,-0.246338,-0.373291,0.964600
1519241957812,-0.200439,-0.500488,0.983398
1519241957848,-0.231445,-0.405029,0.805420
1519241957877,-0.146484,-0.093262,1.012207
1519241957911,-0.140381,-0.309326,0.969238
1519241957943,-0.183105,-0.304443,0.894043
1519241957978,-0.187988,-0.482422,0.851563
1519241958012,-0.183838,-0.557129,0.881348
1519241958030,-0.224121,-0.421875,0.912354
1519241958078,-0.226563,-0.383301,0.895264
1519241958120,-0.180664,-0.475586,0.987061
1519241958127,-0.248047,-0.531250,0.843750
1519241958177,-0.142822,-0.345459,0.924561
1519241958194,-0.239990,-0.498535,0.836670
1519241958241,-0.201660,-0.446533,0.867676
1519241958261,-0.195801,-0.528809,0.866211
1519241958293,-0.188477,-0.580566,0.889160
1519241958325,-0.190430,-0.259766,0.929688
1519241958360,-0.156738,-0.270996,0.938721
1519241958394,-0.168945,-0.374756,0.877441
1519241958428,-0.143066,-0.351563,0.873291
1519241958461,-0.167480,-0.544922,0.860840
1519241958494,-0.231201,-0.761475,0.830811
1519241958527,-0.252197,-0.317139,0.880859
1519241958560,-0.154053,-0.327881,0.966797
1519241958593,-0.159668,-0.604248,0.835449
1519241958609,-0.253906,-0.335205,0.877441
1519241958661,-0.260254,-0.420898,0.813232
1519241958676,-0.245117,-0.482178,0.833008
1519241958708,-0.258545,-0.488770,0.921387
1519241958757,-0.239014,-0.427246,0.836426
1519241958774,-0.201660,-0.414551,0.886230
1519241958806,-0.129150,-0.412109,0.911133
1519241958842,-0.122070,-0.388916,0.900879
1519241958874,-0.110107,-0.400635,0.905762
1519241958906,-0.139648,-0.379639,0.935791
1519241958942,-0.174561,-0.502197,0.855469
1519241958973,-0.192627,-0.444336,0.854980
1519241959007,-0.192139,-0.444336,0.899414
1519241959043,-0.207275,-0.469238,0.921143
1519241959073,-0.213867,-0.440674,0.879395
1519241959090,-0.221436,-0.465332,0.849854
1519241959141,-0.216064,-0.442627,0.883057
1519241959173,-0.192871,-0.415771,0.920898
1519241959201,-0.209961,-0.440186,0.879639
1519241959240,-0.202393,-0.447266,0.845215
1519241959257,-0.186523,-0.470703,0.823486
1519241959288,-0.154541,-0.461670,0.895020
1519241959322,-0.186523,-0.525146,0.909668
1519241959354,-0.204590,-0.574951,0.885742
1519241959388,-0.208496,-0.383789,0.916016
1519241959422,-0.241943,-0.345703,0.858398
