1519241415594,-0.627197,0.821289,0.047119
1519241415624,-0.608154,0.810303,0.022705
1519241415656,-0.606689,0.802734,0.022949
1519241415692,-0.602051,0.840332,-0.007568
1519241415724,-0.612305,0.842285,-0.009766
1519241415775,-0.612793,0.827637,-0.028320
1519241415791,-0.609863,0.825928,-0.015869
1519241415818,-0.611084,0.819580,-0.013428
1519241415861,-0.605225,0.827148,-0.018311
1519241415888,-0.608643,0.823730,-0.018311
1519241415934,-0.608643,0.818604,-0.015625
1519241415939,-0.609131,0.808838,-0.018066
1519241415973,-0.612549,0.813232,-0.020996
1519241416018,-0.608154,0.826416,-0.031006
1519241416036,-0.610352,0.814697,-0.031250
1519241416070,-0.614014,0.820313,-0.035156
1519241416105,-0.614746,0.823975,-0.038330
1519241416138,-0.614990,0.803711,-0.031982
1519241416172,-0.613281,0.822021,-0.021729
1519241416200,-0.608398,0.826660,-0.048828
1519241416235,-0.593262,0.827881,-0.024658
1519241416270,-0.600586,0.799561,-0.036865
1519241416303,-0.612061,0.826904,-0.065918
1519241416337,-0.608887,0.807861,-0.062988
1519241416372,-0.600830,0.790771,0.008789
1519241416399,-0.593018,0.804199,-0.033936
1519241416433,-0.612549,0.820313,-0.101807
1519241416468,-0.609375,0.810059,-0.102783
1519241416502,-0.596436,0.815918,-0.084717
1519241416519,-0.594727,0.809570,-0.099609
1519241416553,-0.596191,0.838867,-0.109863
1519241416588,-0.589844,0.828857,-0.136475
1519241416616,-0.582764,0.832764,-0.152832
1519241416653,-0.588379,0.826416,-0.128662
1519241416684,-0.587646,0.825928,-0.179932
1519241416718,-0.593018,0.816895,-0.197998
1519241416753,-0.581543,0.821777,-0.178223
1519241416787,-0.580322,0.819092,-0.185547
1519241416818,-0.584717,0.826172,-0.186768
1519241416849,-0.578369,0.811523,-0.185547
1519241416883,-0.583008,0.789063,-0.226074
1519241416918,-0.579834,0.804932,-0.215820
1519241416952,-0.576904,0.839111,-0.212646
1519241417019,-0.596680,0.803467,-0.203369
1519241417020,-0.581299,0.829346,-0.225830
1519241417088,-0.572998,0.795166,-0.209717
1519241417089,-0.581787,0.826904,-0.209961
1519241417157,-0.572754,0.834473,-0.209961
1519241417158,-0.579834,0.800293,-0.198242
1519241417224,-0.578613,0.791260,-0.181885
1519241417225,-0.576660,0.811279,-0.177734
1519241417293,-0.570801,0.830078,-0.197998
1519241417299,-0.581543,0.821045,-0.196289
1519241417360,-0.569092,0.819580,-0.197754
1519241417361,-0.564941,0.811035,-0.192627
1519241417427,-0.557617,0.836670,-0.184814
1519241417492,-0.572266,0.818848,-0.204346
1519241417494,-0.564941,0.836426,-0.215820
1519241417517,-0.570801,0.813721,-0.196045
1519241417583,-0.574951,0.805420,-0.196289
1519241417584,-0.567383,0.818604,-0.196777
1519241417585,-0.564453,0.823486,-0.188477
1519241417587,-0.561523,0.830322,-0.179688
1519241417629,-0.563232,0.827881,-0.175293
1519241417658,-0.568604,0.827637,-0.180664
1519241417680,-0.558838,0.828369,-0.175537
1519241417714,-0.556152,0.837158,-0.175293
1519241417749,-0.560303,0.830078,-0.166016
1519241417783,-0.563965,0.839111,-0.178955
1519241417812,-0.561035,0.838379,-0.172607
1519241417845,-0.560303,0.836182,-0.166016
1519241417879,-0.558838,0.835938,-0.159424
1519241417914,-0.562988,0.824707,-0.163086
1519241417954,-0.563965,0.825195,-0.157227
1519241417966,-0.561768,0.836182,-0.149658
1519241418010,-0.558350,0.838623,-0.146484
1519241418044,-0.563477,0.835205,-0.151367
1519241418062,-0.561523,0.841553,-0.152588
1519241418113,-0.561523,0.836670,-0.145264
1519241418130,-0.560791,0.845215,-0.143066
1519241418164,-0.560303,0.836670,-0.140381
1519241418210,-0.559814,0.843506,-0.136719
1519241418228,-0.558594,0.835938,-0.130127
1519241418290,-0.563232,0.839600,-0.134766
1519241418296,-0.562988,0.833984,-0.129395
1519241418330,-0.562988,0.834229,-0.125244
1519241418363,-0.566406,0.837891,-0.127441
1519241418391,-0.566650,0.835449,-0.133545
1519241418447,-0.570557,0.843750,-0.135010
1519241418461,-0.570557,0.844238,-0.130127
1519241418500,-0.568604,0.841064,-0.123535
1519241418529,-0.568848,0.835693,-0.118408
1519241418546,-0.571533,0.833984,-0.111572
1519241418591,-0.571533,0.830566,-0.107422
1519241418626,-0.569824,0.832520,-0.106445
1519241418643,-0.574463,0.827393,-0.113770
1519241418694,-0.575928,0.834473,-0.110352
1519241418711,-0.575684,0.838379,-0.110352
1519241418746,-0.570801,0.852295,-0.108643
1519241418780,-0.576904,0.847412,-0.114990
1519241418807,-0.573486,0.805176,-0.087402
1519241418842,-0.578369,0.826416,-0.105957
1519241418875,-0.583252,0.838867,-0.114258
1519241418911,-0.583496,0.813232,-0.096436
1519241418945,-0.581299,0.812988,-0.093018
1519241418978,-0.584229,0.821045,-0.099121
1519241419006,-0.584961,0.828613,-0.105469
1519241419040,-0.586426,0.832764,-0.104980
1519241419074,-0.589355,0.827148,-0.105225
1519241419109,-0.585693,0.827881,-0.104004
1519241419127,-0.585205,0.837891,-0.097412
1519241419177,-0.583496,0.826416,-0.098389
1519241419206,-0.583252,0.833496,-0.102783
1519241419223,-0.583984,0.832520,-0.102539
1519241419274,-0.583984,0.834473,-0.103271
1519241419292,-0.589111,0.826660,-0.100342
1519241419324,-0.590088,0.830811,-0.087646
1519241419359,-0.588135,0.829834,-0.085449
1519241419387,-0.584961,0.823242,-0.082764
1519241419422,-0.589111,0.810059,-0.069336
1519241419457,-0.583740,0.856689,-0.083984
1519241419491,-0.589844,0.778320,-0.077881
1519241419525,-0.582031,0.854736,-0.127930
1519241419558,-0.578125,0.845459,-0.097900
1519241419587,-0.582031,0.835205,-0.087891
1519241419622,-0.583740,0.827881,-0.085449
1519241419655,-0.584473,0.826904,-0.092529
1519241419690,-0.583252,0.832764,-0.096191
1519241419725,-0.586182,0.826172,-0.098145
1519241419758,-0.580078,0.838867,-0.092041
1519241419775,-0.584229,0.837646,-0.091309
1519241419803,-0.586426,0.825195,-0.087891
1519241419854,-0.587402,0.827881,-0.093750
1519241419872,-0.592773,0.820801,-0.096436
1519241419906,-0.585449,0.824219,-0.100342
1519241419941,-0.587646,0.835205,-0.090332
1519241419974,-0.585938,0.835693,-0.092041
1519241420002,-0.589844,0.831299,-0.085938
1519241420037,-0.594727,0.821533,-0.080078
1519241420071,-0.592285,0.821777,-0.097656
1519241420106,-0.583496,0.826904,-0.093262
1519241420140,-0.592773,0.830566,-0.093506
1519241420173,-0.589111,0.835449,-0.098877
1519241420204,-0.590820,0.827637,-0.096191
1519241420238,-0.587891,0.825928,-0.091797
1519241420281,-0.590820,0.828125,-0.100098
1519241420288,-0.587402,0.819824,-0.097900
1519241420338,-0.589844,0.830811,-0.095947
1519241420357,-0.586426,0.827637,-0.087646
1519241420384,-0.584961,0.834229,-0.086914
1519241420435,-0.582520,0.842529,-0.077393
1519241420453,-0.584961,0.835205,-0.068604
1519241420510,-0.586670,0.832520,-0.075928
1519241420521,-0.585205,0.827881,-0.076904
1519241420554,-0.583740,0.828613,-0.079346
1519241420604,-0.582031,0.830322,-0.086914
1519241420619,-0.587158,0.831299,-0.086426
1519241420658,-0.581543,0.839355,-0.083740
1519241420687,-0.583496,0.834229,-0.079102
1519241420721,-0.583984,0.831787,-0.072021
1519241420765,-0.581055,0.832275,-0.075439
1519241420774,-0.584717,0.828857,-0.075684
1519241420817,-0.586670,0.830322,-0.079590
1519241420853,-0.584961,0.836670,-0.078857
1519241420870,-0.583496,0.834229,-0.077148
1519241420921,-0.587402,0.821777,-0.082764
1519241420937,-0.586670,0.826172,-0.086914
1519241420973,-0.582520,0.826416,-0.080078
1519241421017,-0.577881,0.846436,-0.072510
1519241421035,-0.584961,0.847168,-0.080322
1519241421079,-0.583008,0.834229,-0.082520
1519241421103,-0.587646,0.824707,-0.073975
1519241421137,-0.586914,0.823730,-0.070313
1519241421170,-0.584961,0.826660,-0.077393
1519241421198,-0.588623,0.818848,-0.066895
1519241421232,-0.583252,0.835205,-0.073242
1519241421267,-0.582764,0.844482,-0.078125
1519241421301,-0.582764,0.839111,-0.082031
1519241421334,-0.584473,0.834717,-0.077637
1519241421352,-0.585938,0.824219,-0.071777
1519241421397,-0.582764,0.830322,-0.064697
1519241421432,-0.575439,0.846680,-0.066406
1519241421531,-0.578369,0.844482,-0.066650
1519241421533,-0.577393,0.841064,-0.062500
1519241421536,-0.576172,0.840332,-0.061035
1519241421551,-0.576904,0.838379,-0.055176
1519241421597,-0.575684,0.845215,-0.059814
1519241421614,-0.577881,0.841064,-0.063721
1519241421648,-0.578857,0.840088,-0.063721
1519241421682,-0.577637,0.843262,-0.063965
1519241421715,-0.572754,0.846191,-0.059570
1519241421751,-0.574219,0.835449,-0.053467
1519241421778,-0.575928,0.841309,-0.056641
1519241421813,-0.576172,0.840576,-0.059082
1519241421847,-0.576660,0.839844,-0.065430
1519241421881,-0.575684,0.838379,-0.067627
1519241421916,-0.577148,0.837646,-0.071533
1519241421935,-0.580566,0.841309,-0.065186
1519241422028,-0.577148,0.841309,-0.062744
1519241422030,-0.578857,0.837158,-0.064453
1519241422097,-0.575684,0.841309,-0.067139
1519241422099,-0.576660,0.839844,-0.063477
1519241422166,-0.579346,0.837402,-0.061768
1519241422168,-0.576660,0.835205,-0.062744
1519241422235,-0.576172,0.829590,-0.055664
1519241422237,-0.584229,0.837158,-0.072510
1519241422302,-0.576172,0.866455,-0.079834
1519241422304,-0.582275,0.840332,-0.069580
1519241422371,-0.580322,0.823975,-0.061523
1519241422373,-0.582764,0.818359,-0.070801
1519241422441,-0.583252,0.838623,-0.079102
1519241422449,-0.579346,0.841797,-0.068848
1519241422509,-0.581299,0.827148,-0.061523
1519241422512,-0.579590,0.843994,-0.079590
1519241422523,-0.579102,0.840088,-0.081787
1519241422526,-0.571045,0.821289,-0.083740
1519241422565,-0.577148,0.833740,-0.058838
1519241422592,-0.580566,0.823242,-0.046143
1519241422611,-0.579834,0.824707,-0.041748
1519241422661,-0.586670,0.845459,-0.062256
1519241422678,-0.583496,0.831299,-0.059814
1519241422712,-0.584961,0.833984,-0.063965
1519241422748,-0.578857,0.839111,-0.075195
1519241422774,-0.584473,0.838867,-0.076172
1519241422809,-0.583984,0.839844,-0.075684
1519241422843,-0.582764,0.843750,-0.060547
1519241422877,-0.581055,0.836914,-0.057617
1519241422912,-0.583008,0.828857,-0.056641
1519241422945,-0.584717,0.832031,-0.063232
1519241422973,-0.582031,0.834961,-0.063965
1519241423014,-0.585449,0.833496,-0.063232
1519241423042,-0.587158,0.832764,-0.069824
1519241423088,-0.582520,0.833984,-0.069580
1519241423094,-0.585449,0.841309,-0.069580
1519241423144,-0.583496,0.838867,-0.067139
1519241423162,-0.582520,0.836182,-0.061523
1519241423189,-0.583984,0.830566,-0.064453
1519241423242,-0.585449,0.828613,-0.064209
1519241423260,-0.586914,0.830811,-0.062500
1519241423293,-0.583984,0.834717,-0.063721
1519241423327,-0.583008,0.834473,-0.063721
1519241423361,-0.583252,0.835449,-0.067383
1519241423389,-0.582275,0.835938,-0.064941
1519241423424,-0.581787,0.830811,-0.062256
1519241423458,-0.582031,0.831787,-0.068359
1519241423501,-0.587158,0.834717,-0.069336
1519241423525,-0.580811,0.836182,-0.062256
1519241423565,-0.583984,0.836914,-0.064209
1519241423589,-0.584717,0.839111,-0.065186
1519241423623,-0.586670,0.831299,-0.066650
1519241423657,-0.581299,0.835693,-0.065186
1519241423674,-0.584473,0.833740,-0.062744
1519241423726,-0.583984,0.838135,-0.068115
1519241423743,-0.585205,0.834473,-0.064209
1519241423771,-0.588379,0.827881,-0.065918
1519241423805,-0.582520,0.833496,-0.070801
1519241423840,-0.585449,0.831299,-0.067139
1519241423873,-0.583984,0.830322,-0.069092
1519241423908,-0.583496,0.833008,-0.064453
1519241423942,-0.583984,0.828125,-0.062744
1519241423970,-0.584473,0.830322,-0.060059
1519241424004,-0.585693,0.828369,-0.058838
1519241424038,-0.585205,0.828125,-0.061523
1519241424073,-0.579102,0.838623,-0.069824
1519241424107,-0.584961,0.839844,-0.071777
1519241424141,-0.581055,0.834473,-0.065430
1519241424158,-0.582031,0.825684,-0.068359
1519241424203,-0.586182,0.844238,-0.084229
1519241424239,-0.573486,0.846191,-0.059570
1519241424254,-0.585693,0.826172,-0.065918
1519241424297,-0.579346,0.831543,-0.070557
1519241424323,-0.582275,0.842041,-0.076172
1519241424358,-0.580322,0.838379,-0.076416
1519241424385,-0.580811,0.830322,-0.070313
1519241424421,-0.577148,0.842529,-0.069824
1519241424457,-0.579834,0.835938,-0.072754
1519241424488,-0.577637,0.840576,-0.067871
1519241424532,-0.576904,0.845215,-0.071533
1519241424557,-0.578369,0.841797,-0.078613
1519241424606,-0.578857,0.837402,-0.073975
1519241424619,-0.578613,0.838867,-0.066162
1519241424653,-0.575195,0.838379,-0.067383
1519241424694,-0.579102,0.832275,-0.066406
1519241424704,-0.574951,0.837402,-0.057861
1519241424756,-0.572021,0.844971,-0.062012
1519241424783,-0.573242,0.849365,-0.071045
1519241424847,-0.576172,0.841797,-0.068848
1519241424850,-0.576904,0.840820,-0.065186
1519241424869,-0.575439,0.837646,-0.061523
1519241424903,-0.576172,0.841553,-0.064453
1519241424938,-0.575195,0.841064,-0.063477
1519241424965,-0.573730,0.838867,-0.061523
1519241425002,-0.575439,0.841553,-0.062500
1519241425034,-0.577393,0.838135,-0.064209
1519241425069,-0.573730,0.838135,-0.058838
1519241425103,-0.575439,0.842773,-0.059814
1519241425135,-0.574707,0.843262,-0.062988
1519241425165,-0.575928,0.838379,-0.058594
1519241425199,-0.573975,0.843994,-0.064697
1519241425234,-0.576904,0.841797,-0.065186
1519241425268,-0.573975,0.841309,-0.062500
1519241425285,-0.576660,0.842529,-0.057129
1519241425320,-0.577393,0.838623,-0.054199
1519241425353,-0.572754,0.841064,-0.061035
1519241425381,-0.575439,0.841064,-0.059570
1519241425416,-0.574707,0.842041,-0.059814
1519241425451,-0.576904,0.840576,-0.058350
1519241425484,-0.575928,0.835693,-0.058594
1519241425518,-0.574463,0.839355,-0.061768
1519241425553,-0.575195,0.844971,-0.055664
1519241425584,-0.572998,0.840088,-0.056641
1519241425616,-0.577148,0.837891,-0.053223
1519241425659,-0.575439,0.838379,-0.054932
1519241425684,-0.575195,0.834229,-0.054443
1519241425701,-0.581299,0.828613,-0.061768
1519241425752,-0.583984,0.809570,-0.073975
1519241425779,-0.574707,0.822754,-0.057861
1519241425805,-0.565186,0.844727,-0.058350
1519241425848,-0.554199,0.873535,-0.063477
1519241425892,-0.551270,0.882813,-0.056885
1519241425899,-0.545654,0.879883,-0.042969
1519241425934,-0.556885,0.853516,-0.048096
1519241425963,-0.554199,0.859375,-0.055908
1519241425997,-0.554932,0.860840,-0.062988
1519241426030,-0.565430,0.835449,-0.072266
1519241426064,-0.567139,0.829346,-0.073486
1519241426127,-0.560059,0.830078,-0.066162
1519241426133,-0.559570,0.824707,-0.055420
1519241426172,-0.578857,0.792969,-0.064453
1519241426196,-0.549805,0.853271,-0.052490
1519241426230,-0.521240,0.896240,-0.049805
1519241426264,-0.515137,0.877441,-0.050781
1519241426318,-0.515869,0.900391,-0.065186
1519241426350,-0.498779,0.907715,-0.070068
1519241426391,-0.517334,0.914063,-0.071289
1519241426443,-0.514404,0.866455,-0.051270
1519241426452,-0.500977,0.899658,-0.108643
1519241426458,-0.508545,0.852783,-0.057617
1519241426486,-0.511963,0.867432,-0.083984
1519241426513,-0.503418,0.919678,-0.116211
1519241426549,-0.498291,0.912842,-0.105469
1519241426577,-0.515625,0.893311,-0.071045
1519241426612,-0.522461,0.839600,-0.057129
1519241426646,-0.504395,0.916992,-0.070313
1519241426680,-0.498291,0.821777,-0.054199
1519241426721,-0.501465,0.908203,-0.064209
1519241426753,-0.514404,0.875732,-0.068604
1519241426796,-0.481445,0.914307,-0.055420
1519241426850,-0.489990,0.895752,-0.059082
1519241426853,-0.499023,0.902344,-0.071533
1519241426861,-0.482666,0.869385,-0.017578
1519241426914,-0.502930,0.911621,-0.052002
1519241426930,-0.496094,0.868896,-0.090820
1519241426959,-0.502686,0.848145,-0.102539
1519241427066,-0.511230,0.867676,-0.101318
1519241427135,-0.503418,0.876709,-0.096924
1519241427204,-0.495850,0.856689,-0.105957
1519241427212,-0.507324,0.818115,-0.130859
1519241427272,-0.500488,0.860107,-0.172119
1519241427281,-0.490479,0.849121,-0.199707
1519241427339,-0.493652,0.932129,-0.252197
1519241427345,-0.517822,0.886719,-0.282471
1519241427408,-0.419434,0.960205,-0.078613
1519241427476,-0.486084,0.813477,-0.180420
1519241427544,-0.515625,0.894287,-0.250488
1519241427549,-0.484375,0.894531,-0.254150
1519241427572,-0.504883,0.845459,-0.183838
1519241427578,-0.500244,0.860840,-0.219238
1519241427583,-0.508545,0.861328,-0.290283
1519241427589,-0.498535,0.871582,-0.245361
1519241427595,-0.499512,0.873291,-0.191895
1519241427602,-0.531738,0.842773,-0.213623
1519241427610,-0.495117,0.858643,-0.200439
1519241427613,-0.476563,0.883545,-0.181885
1519241427643,-0.480957,0.879395,-0.202393
1519241427677,-0.496582,0.860596,-0.205811
1519241427711,-0.495850,0.866455,-0.208496
1519241427746,-0.492920,0.859619,-0.200439
1519241427774,-0.494385,0.868896,-0.198486
1519241427808,-0.493164,0.869385,-0.181396
1519241427841,-0.485840,0.872559,-0.185547
1519241427875,-0.495117,0.857910,-0.207764
1519241427911,-0.495361,0.859619,-0.214111
1519241427927,-0.491455,0.864502,-0.210693
1519241427978,-0.486572,0.876221,-0.209229
1519241428006,-0.487793,0.865234,-0.204346
1519241428057,-0.488525,0.868408,-0.204102
1519241428074,-0.488770,0.880859,-0.206543
1519241428091,-0.492676,0.876953,-0.196777
1519241428126,-0.487061,0.861328,-0.191895
1519241428171,-0.484375,0.874512,-0.181641
1519241428189,-0.486328,0.874023,-0.191406
1519241428223,-0.486816,0.882080,-0.193115
1519241428257,-0.487305,0.873535,-0.197754
1519241428291,-0.482422,0.871826,-0.159180
1519241428324,-0.486816,0.887695,-0.190430
1519241428352,-0.487061,0.874756,-0.181641
1519241428388,-0.486084,0.880127,-0.174316
1519241428422,-0.486084,0.877930,-0.177490
1519241428456,-0.490479,0.873535,-0.187012
1519241428489,-0.496094,0.861572,-0.187988
1519241428509,-0.493164,0.863770,-0.185547
1519241428558,-0.492676,0.864746,-0.178711
1519241428586,-0.491943,0.865234,-0.173096
1519241428603,-0.492188,0.880859,-0.196289
1519241428654,-0.491455,0.863770,-0.214600
1519241428686,-0.495850,0.868652,-0.203125
1519241428708,-0.495605,0.859375,-0.236328
1519241428755,-0.488281,0.886719,-0.214355
1519241428782,-0.497314,0.884766,-0.196777
1519241428841,-0.489990,0.871826,-0.181885
1519241428844,-0.502197,0.890869,-0.206787
1519241428872,-0.501709,0.828857,-0.220947
1519241428916,-0.484619,0.858643,-0.190186
1519241428940,-0.511719,0.867432,-0.252686
1519241428967,-0.501953,0.839600,-0.263428
1519241429002,-0.481934,0.873535,-0.173828
1519241429036,-0.485352,0.846436,-0.237061
1519241429086,-0.495850,0.882080,-0.248535
1519241429089,-0.487305,0.868896,-0.249756
1519241429139,-0.477051,0.860596,-0.232422
1519241429175,-0.484863,0.868164,-0.233154
1519241429187,-0.490479,0.877686,-0.196533
1519241429236,-0.500244,0.843750,-0.244629
1519241429253,-0.500244,0.817871,-0.237305
1519241429287,-0.497314,0.867676,-0.265869
1519241429322,-0.485596,0.872803,-0.221191
1519241429354,-0.486572,0.860596,-0.208252
1519241429402,-0.496338,0.852783,-0.218994
1519241429419,-0.497559,0.868164,-0.224609
1519241429454,-0.485840,0.879395,-0.221924
1519241429491,-0.491211,0.899414,-0.205078
1519241429522,-0.496582,0.889648,-0.189209
1519241429548,-0.504395,0.879639,-0.182861
1519241429584,-0.501465,0.863525,-0.182617
1519241429619,-0.500488,0.856201,-0.153320
1519241429652,-0.512939,0.878418,-0.148438
1519241429670,-0.520264,0.883545,-0.179199
1519241429721,-0.524170,0.882324,-0.171875
1519241429739,-0.531006,0.888916,-0.139160
1519241429765,-0.549561,0.856445,-0.106445
1519241429818,-0.552734,0.848145,-0.091064
1519241429835,-0.557373,0.859863,-0.081299
1519241429868,-0.565430,0.814453,-0.055664
1519241429902,-0.589355,0.812988,-0.044678
1519241429938,-0.605713,0.818848,-0.058838
1519241429971,-0.599121,0.781494,-0.035889
1519241429999,-0.610596,0.796143,-0.040283
1519241430032,-0.627441,0.776367,-0.047852
1519241430084,-0.625244,0.762695,-0.047363
1519241430102,-0.624756,0.788574,-0.056641
1519241430137,-0.625488,0.806641,-0.047852
1519241430166,-0.620850,0.802979,-0.036133
1519241430200,-0.618652,0.812256,-0.041504
1519241430233,-0.620361,0.825195,-0.040283
1519241430249,-0.611328,0.805420,-0.033203
1519241430300,-0.619385,0.793457,-0.043701
1519241430317,-0.608398,0.820557,-0.036621
1519241430344,-0.611084,0.824707,-0.060547
1519241430397,-0.612549,0.828857,-0.041504
1519241430417,-0.605713,0.812988,-0.023682
1519241430463,-0.609863,0.808350,-0.032715
1519241430482,-0.602051,0.838379,-0.030762
1519241430515,-0.606201,0.818848,-0.036865
1519241430544,-0.610352,0.822021,-0.036133
1519241430579,-0.609863,0.817383,-0.040039
1519241430613,-0.609375,0.819824,-0.042969
1519241430647,-0.607178,0.822998,-0.038818
1519241430693,-0.610107,0.816650,-0.037842
1519241430714,-0.609863,0.815186,-0.036865
1519241430738,-0.603271,0.815430,-0.032715
1519241430784,-0.606201,0.812012,-0.039551
1519241430812,-0.604004,0.819336,-0.045898
1519241430871,-0.603271,0.833496,-0.043945
1519241430880,-0.601807,0.831543,-0.052979
1519241430897,-0.602051,0.823975,-0.057617
1519241430930,-0.597168,0.835449,-0.045654
1519241430978,-0.598633,0.823975,-0.047363
1519241430995,-0.602051,0.825684,-0.050293
1519241431040,-0.601563,0.825195,-0.047852
1519241431063,-0.599609,0.824219,-0.045410
1519241431134,-0.599609,0.822754,-0.046631
1519241431137,-0.600830,0.825684,-0.043701
1519241431160,-0.602051,0.825195,-0.045166
1519241431201,-0.600098,0.828613,-0.051025
1519241431246,-0.597900,0.823975,-0.049316
1519241431262,-0.600830,0.820801,-0.051270
1519241431296,-0.602051,0.831299,-0.046875
1519241431313,-0.601807,0.812988,-0.043945
1519241431359,-0.599365,0.825195,-0.044434
1519241431392,-0.598389,0.826172,-0.039307
1519241431410,-0.605713,0.811035,-0.049561
1519241431461,-0.609863,0.817871,-0.081299
1519241431478,-0.599854,0.825195,-0.071533
1519241431512,-0.598633,0.835449,-0.050049
1519241431564,-0.585693,0.822754,-0.021973
1519241431574,-0.601807,0.827881,-0.031250
1519241431610,-0.599609,0.836182,-0.025635
1519241431643,-0.595215,0.840088,-0.048340
1519241431677,-0.597900,0.810059,-0.052002
1519241431710,-0.597656,0.819580,-0.038086
1519241431739,-0.604736,0.827881,-0.047363
1519241431774,-0.605957,0.803467,-0.043457
1519241431808,-0.608887,0.806641,-0.054443
1519241431842,-0.593750,0.830322,-0.043213
1519241431877,-0.598145,0.832031,-0.036621
1519241431893,-0.600342,0.820313,-0.037842
1519241431943,-0.599365,0.822266,-0.040771
1519241432006,-0.595947,0.816162,-0.029541
1519241432008,-0.595703,0.815430,-0.021973
1519241432075,-0.592041,0.834961,-0.032471
1519241432077,-0.597168,0.845703,-0.055908
1519241432144,-0.594971,0.841309,-0.060791
1519241432145,-0.597412,0.826416,-0.053223
1519241432214,-0.593994,0.820068,-0.040283
1519241432219,-0.587158,0.827881,-0.040039
1519241432283,-0.594238,0.835449,-0.041016
1519241432288,-0.598877,0.817871,-0.049805
1519241432351,-0.590820,0.840576,-0.048340
1519241432417,-0.589355,0.803467,-0.037842
1519241432421,-0.607666,0.799561,-0.063477
1519241432486,-0.589844,0.822754,-0.052246
1519241432492,-0.585938,0.864990,-0.038330
1519241432501,-0.582031,0.854492,-0.044434
1519241432504,-0.585938,0.841797,-0.048340
1519241432526,-0.583252,0.837158,-0.056152
1519241432553,-0.599365,0.823975,-0.073975
1519241432571,-0.593018,0.829346,-0.072754
1519241432606,-0.594971,0.832031,-0.056641
1519241432641,-0.586914,0.833984,-0.032959
1519241432674,-0.583252,0.834473,-0.035889
1519241432708,-0.588623,0.830322,-0.050293
1519241432737,-0.590820,0.830078,-0.057129
1519241432771,-0.593750,0.832520,-0.057617
1519241432804,-0.591797,0.795654,-0.029297
1519241432838,-0.599365,0.832031,-0.051270
1519241432872,-0.586670,0.847656,-0.055664
1519241432907,-0.591797,0.838867,-0.041260
1519241432934,-0.585205,0.827393,-0.049805
1519241432970,-0.593994,0.833252,-0.057861
1519241433003,-0.595703,0.831055,-0.047363
1519241433037,-0.588379,0.824707,-0.032715
1519241433054,-0.589111,0.825684,-0.032227
1519241433090,-0.589600,0.826172,-0.040283
1519241433123,-0.592041,0.836182,-0.041992
1519241433151,-0.591064,0.833252,-0.049316
1519241433210,-0.591064,0.829834,-0.052002
1519241433219,-0.588867,0.840088,-0.048340
1519241433253,-0.588379,0.835449,-0.030273
1519241433288,-0.584717,0.841553,-0.034180
1519241433322,-0.585938,0.834961,-0.034912
1519241433351,-0.592041,0.825928,-0.030762
1519241433384,-0.581299,0.837158,-0.038086
1519241433419,-0.587891,0.843506,-0.043213
1519241433453,-0.590332,0.827637,-0.039063
1519241433488,-0.587158,0.841309,-0.028809
1519241433505,-0.592041,0.829102,-0.041504
1519241433551,-0.597656,0.816162,-0.043945
1519241433584,-0.591553,0.820068,-0.045166
1519241433604,-0.573730,0.827393,-0.024902
1519241433636,-0.578369,0.856934,-0.005615
1519241433670,-0.561768,0.864990,0.018066
1519241433704,-0.562988,0.867920,0.028320
1519241433731,-0.559326,0.870117,0.030518
1519241433766,-0.573975,0.831299,0.025391
1519241433807,-0.578857,0.839111,-0.002441
1519241433835,-0.572021,0.854980,-0.015869
1519241433869,-0.577881,0.850830,-0.016846
1519241433903,-0.578125,0.839600,-0.007813
1519241433930,-0.578613,0.833740,-0.012939
1519241433971,-0.586914,0.834961,-0.018066
1519241433999,-0.582764,0.839600,-0.023193
1519241434043,-0.584473,0.838623,-0.017822
1519241434068,-0.585449,0.838379,-0.019775
1519241434117,-0.589600,0.835205,-0.021240
1519241434119,-0.592041,0.834717,-0.024170
1519241434164,-0.593750,0.822510,-0.027832
1519241434193,-0.591064,0.823730,-0.034424
1519241434216,-0.595947,0.811523,-0.027588
1519241434269,-0.588623,0.849121,-0.030762
1519241434284,-0.598145,0.840332,-0.048096
1519241434318,-0.604248,0.814209,-0.067627
1519241434347,-0.611572,0.810059,-0.062744
1519241434381,-0.598389,0.804199,-0.060547
1519241434414,-0.596436,0.826416,-0.064697
1519241434450,-0.600586,0.825195,-0.099121
1519241434483,-0.576904,0.812744,-0.113037
1519241434501,-0.613525,0.836670,-0.078125
1519241434545,-0.588135,0.844238,-0.026611
1519241434584,-0.588867,0.815186,-0.034668
1519241434597,-0.602295,0.822021,-0.076172
1519241434647,-0.600342,0.827148,-0.073486
1519241434665,-0.595703,0.835693,-0.072021
1519241434699,-0.606445,0.813477,-0.080078
1519241434745,-0.600830,0.817871,-0.074463
1519241434761,-0.597168,0.835449,-0.066406
1519241434797,-0.599854,0.832520,-0.063232
1519241434829,-0.592773,0.829102,-0.060059
1519241434864,-0.593506,0.830566,-0.044678
1519241434898,-0.590332,0.838623,-0.069580
1519241434927,-0.591064,0.830566,-0.057861
1519241434965,-0.587158,0.834961,-0.044678
1519241434995,-0.593262,0.832031,-0.056641
1519241435040,-0.600098,0.823242,-0.065186
1519241435085,-0.595703,0.821045,-0.055420
1519241435088,-0.594238,0.819580,-0.038574
1519241435127,-0.595215,0.822754,-0.046875
1519241435165,-0.596680,0.822754,-0.061279
1519241435194,-0.603271,0.831299,-0.059326
1519241435230,-0.601807,0.835938,-0.036377
1519241435245,-0.591064,0.825195,-0.026367
1519241435280,-0.588135,0.819824,-0.031250
1519241435314,-0.599854,0.819824,-0.042725
1519241435342,-0.601563,0.818604,-0.038574
1519241435377,-0.609375,0.824463,-0.029541
1519241435410,-0.593262,0.836426,-0.034668
1519241435445,-0.593750,0.829102,-0.030518
1519241435479,-0.599854,0.819092,-0.025146
1519241435514,-0.591064,0.820557,-0.035400
1519241435542,-0.597168,0.832520,-0.039063
1519241435596,-0.603271,0.832520,-0.041016
1519241435611,-0.594238,0.832031,-0.052002
1519241435644,-0.591309,0.834717,-0.051270
1519241435662,-0.599121,0.829834,-0.040039
1519241435712,-0.600342,0.829102,-0.053467
1519241435741,-0.595215,0.825928,-0.043457
1519241435758,-0.595215,0.833984,-0.031494
1519241435809,-0.592773,0.825684,-0.027832
1519241435827,-0.587646,0.825439,-0.035400
1519241435861,-0.595703,0.827148,-0.041504
1519241435894,-0.604492,0.828125,-0.048096
1519241435923,-0.594482,0.822998,-0.036621
1519241435960,-0.593994,0.828857,-0.036133
1519241435992,-0.591797,0.834717,-0.045410
1519241436026,-0.591064,0.832275,-0.037598
1519241436060,-0.591797,0.814453,-0.032471
1519241436094,-0.604736,0.853271,-0.047607
1519241436122,-0.591797,0.831055,-0.023926
1519241436157,-0.599365,0.829346,-0.032715
1519241436191,-0.601074,0.817383,-0.030518
1519241436225,-0.592285,0.830322,-0.032227
1519241436242,-0.593018,0.823730,-0.030273
1519241436293,-0.600830,0.821289,-0.027100
1519241436311,-0.605225,0.817139,-0.031738
1519241436338,-0.598633,0.828613,-0.033447
1519241436391,-0.604736,0.828125,-0.033936
1519241436407,-0.600098,0.826172,-0.023193
1519241436442,-0.601563,0.825928,-0.033447
1519241436476,-0.603271,0.822021,-0.036865
1519241436510,-0.603516,0.823486,-0.030029
1519241436537,-0.609131,0.819824,-0.025146
1519241436572,-0.600098,0.819092,-0.023926
1519241436607,-0.599121,0.828613,-0.043701
1519241436641,-0.596680,0.822021,-0.036133
1519241436674,-0.603027,0.822754,-0.030029
1519241436709,-0.604248,0.824219,-0.031250
1519241436767,-0.602051,0.820557,-0.029053
1519241436771,-0.604492,0.814209,-0.021729
1519241436805,-0.605713,0.821533,-0.026855
1519241436834,-0.599854,0.824707,-0.027344
1519241436874,-0.600586,0.824951,-0.040771
1519241436891,-0.611816,0.814209,-0.052490
1519241436918,-0.614258,0.827393,-0.043213
1519241437011,-0.593018,0.824219,-0.026123
1519241437013,-0.593262,0.841797,-0.027344
1519241437078,-0.603271,0.832764,-0.034668
1519241437081,-0.596924,0.818359,-0.034424
1519241437145,-0.611572,0.818359,-0.061768
1519241437150,-0.613770,0.805664,-0.064941
1519241437214,-0.616699,0.823730,-0.078613
1519241437281,-0.612061,0.819824,-0.093262
1519241437283,-0.612793,0.823975,-0.071289
1519241437350,-0.611572,0.812256,-0.056152
1519241437352,-0.610352,0.810303,-0.075684
1519241437418,-0.618164,0.807617,-0.069580
1519241437421,-0.610840,0.817383,-0.053711
1519241437490,-0.609863,0.813965,-0.063477
1519241437495,-0.620361,0.816895,-0.065430
1519241437507,-0.616211,0.802979,-0.062500
1519241437513,-0.620361,0.792236,-0.063477
1519241437518,-0.619873,0.812988,-0.081543
1519241437552,-0.619385,0.807617,-0.072754
1519241437570,-0.620117,0.797363,-0.070313
1519241437603,-0.621338,0.809570,-0.066162
1519241437647,-0.611084,0.817383,-0.059570
1519241437672,-0.621338,0.815674,-0.064209
1519241437718,-0.625244,0.801270,-0.065674
1519241437735,-0.619873,0.797119,-0.057861
1519241437767,-0.621094,0.808594,-0.055908
1519241437804,-0.621582,0.812744,-0.080566
1519241437838,-0.621094,0.833252,-0.060303
1519241437870,-0.610107,0.814697,-0.040527
1519241437890,-0.631348,0.796387,-0.064941
1519241437934,-0.623047,0.806152,-0.073242
1519241437973,-0.621826,0.819336,-0.062500
1519241437988,-0.623047,0.820801,-0.060547
1519241438036,-0.627686,0.790039,-0.030518
1519241438054,-0.618896,0.793457,-0.031494
1519241438087,-0.614990,0.818359,-0.059326
1519241438134,-0.617432,0.823242,-0.050049
1519241438151,-0.625000,0.825684,-0.055908
1519241438185,-0.625000,0.794678,-0.056396
1519241438219,-0.625977,0.800293,-0.053711
1519241438253,-0.622070,0.799316,-0.034668
1519241438288,-0.613525,0.818359,-0.026367
1519241438316,-0.622314,0.828613,-0.011963
1519241438350,-0.626221,0.812744,-0.044678
1519241438385,-0.630859,0.799561,-0.063232
1519241438420,-0.630615,0.794922,-0.069092
1519241438453,-0.609619,0.813232,-0.025391
1519241438470,-0.610596,0.812744,-0.019043
1519241438513,-0.596924,0.807129,-0.041260
1519241438547,-0.622803,0.804688,-0.046143
1519241438564,-0.616211,0.817139,-0.037354
1519241438616,-0.613281,0.798340,-0.051514
1519241438633,-0.609131,0.839600,-0.044922
1519241438667,-0.607422,0.803955,-0.030273
1519241438705,-0.614502,0.841553,-0.066895
1519241438729,-0.620850,0.833496,-0.089600
1519241438763,-0.617920,0.809326,-0.071045
1519241438805,-0.609619,0.807129,-0.046631
1519241438832,-0.614746,0.810303,-0.049561
1519241438866,-0.613037,0.817383,-0.055664
1519241438901,-0.614502,0.814697,-0.047607
1519241438928,-0.614746,0.815918,-0.049561
1519241438963,-0.612305,0.814453,-0.051025
1519241438997,-0.614014,0.815918,-0.048584
1519241439031,-0.614502,0.813721,-0.050049
1519241439069,-0.618652,0.810303,-0.057129
1519241439099,-0.610840,0.817627,-0.049805
1519241439145,-0.612793,0.813721,-0.050537
1519241439148,-0.615234,0.816650,-0.049805
1519241439197,-0.612061,0.785400,-0.031006
1519241439213,-0.614014,0.846680,-0.070068
1519241439247,-0.616455,0.812988,-0.046875
1519241439282,-0.620117,0.812256,-0.049316
1519241439310,-0.616943,0.803711,-0.037842
1519241439345,-0.619629,0.806641,-0.043457
1519241439378,-0.620117,0.820801,-0.051758
1519241439412,-0.620117,0.814697,-0.055420
1519241439447,-0.625488,0.803467,-0.048828
1519241439481,-0.624268,0.807617,-0.029297
1519241439508,-0.609619,0.818115,-0.024414
1519241439547,-0.618896,0.819580,-0.028076
1519241439577,-0.619141,0.799316,-0.025879
1519241439633,-0.623535,0.823242,-0.016602
1519241439636,-0.610840,0.821289,0.003906
1519241439679,-0.614258,0.811523,0.004639
1519241439701,-0.614014,0.817627,0.006592
1519241439725,-0.607178,0.829346,0.008057
1519241439778,-0.611816,0.828369,0.008301
1519241439796,-0.614014,0.821533,0.017334
1519241439829,-0.614014,0.819336,0.022461
1519241439863,-0.615479,0.806641,0.046875
1519241439896,-0.610840,0.795654,0.064941
1519241439924,-0.617920,0.770508,0.075928
1519241439960,-0.608154,0.846680,0.031006
1519241439993,-0.615723,0.834717,0.012451
1519241440027,-0.608398,0.813477,0.042236
1519241440061,-0.608154,0.810303,0.059326
1519241440095,-0.611816,0.810303,0.042969
1519241440123,-0.611816,0.824951,0.034912
1519241440158,-0.608398,0.825439,0.038086
1519241440205,-0.608398,0.815918,0.041504
1519241440209,-0.611084,0.818359,0.044678
1519241440260,-0.604736,0.822021,0.039063
1519241440278,-0.606689,0.828613,0.032715
1519241440305,-0.608154,0.816162,0.037842
1519241440356,-0.604736,0.816650,0.035889
1519241440374,-0.608154,0.815430,0.030518
1519241440418,-0.603271,0.823242,0.030518
1519241440444,-0.602051,0.831299,0.030029
1519241440477,-0.599121,0.824951,0.027832
1519241440504,-0.596924,0.831299,0.026367
1519241440539,-0.589111,0.832764,0.017334
1519241440573,-0.594482,0.842529,0.014160
1519241440609,-0.593994,0.840332,0.009033
1519241440648,-0.592773,0.826172,0.006836
1519241440675,-0.598877,0.831299,0.005615
1519241440723,-0.596924,0.847412,-0.003906
1519241440739,-0.593262,0.834229,0.009277
1519241440773,-0.594971,0.829590,0.004395
1519241440809,-0.597656,0.827148,-0.015137
1519241440840,-0.601318,0.831055,-0.010498
1519241440874,-0.601318,0.828613,-0.009521
1519241440891,-0.594238,0.818115,-0.000488
1519241440920,-0.594727,0.839355,-0.000977
1519241440955,-0.599365,0.854736,-0.002930
1519241440989,-0.598877,0.842285,-0.002197
1519241441023,-0.602783,0.822754,-0.014893
1519241441056,-0.608643,0.828369,-0.021240
1519241441092,-0.607422,0.824707,-0.010986
1519241441119,-0.609863,0.822754,-0.003174
1519241441154,-0.612793,0.803467,0.001465
1519241441199,-0.611084,0.796143,0.012451
1519241441223,-0.608643,0.824951,0.005859
1519241441256,-0.612061,0.808350,0.008057
1519241441274,-0.610107,0.824463,0.007080
1519241441319,-0.611328,0.822754,-0.004883
1519241441353,-0.611084,0.823242,-0.003906
1519241441373,-0.605225,0.824219,0.003906
1519241441421,-0.612549,0.823486,0.002197
1519241441440,-0.614502,0.825439,0.001221
1519241441486,-0.618896,0.812500,0.002686
1519241441502,-0.615967,0.806641,0.007813
1519241441545,-0.618652,0.803711,0.009766
1519241441571,-0.614990,0.809814,0.024414
1519241441633,-0.617920,0.816650,0.024170
1519241441637,-0.612061,0.794678,0.044678
1519241441673,-0.622559,0.791992,0.031006
1519241441700,-0.618896,0.813721,0.023926
1519241441734,-0.617920,0.822754,0.032227
1519241441769,-0.624512,0.818604,0.028564
1519241441807,-0.614258,0.812744,0.039307
1519241441842,-0.617432,0.811768,0.035156
1519241441854,-0.625000,0.814941,0.027832
1519241441888,-0.624268,0.805908,0.012939
1519241441917,-0.628174,0.810303,0.004883
1519241441950,-0.624023,0.772217,0.008789
1519241442552,-0.630371,0.787354,0.005127
1519241442553,-0.623291,0.789551,0.008301
1519241442554,-0.616699,0.809082,0.004883
1519241442568,-0.614014,0.807617,0.005127
1519241442571,-0.613770,0.836182,-0.008301
1519241442575,-0.616699,0.840820,-0.015869
1519241442578,-0.605225,0.826660,-0.011230
1519241442581,-0.598145,0.841797,-0.012939
1519241442588,-0.601074,0.835449,-0.020508
1519241442590,-0.601807,0.830322,-0.035889
1519241442592,-0.605225,0.817383,-0.025879
1519241442593,-0.595947,0.828613,-0.010010
1519241442598,-0.603516,0.827637,-0.021729
1519241442600,-0.598145,0.843018,-0.022217
1519241442600,-0.600342,0.844971,-0.029785
1519241442601,-0.619385,0.820557,-0.018066
1519241442602,-0.603027,0.807617,-0.006836
1519241442603,-0.601074,0.820068,-0.003174
1519241442624,-0.610352,0.818359,0.002197
1519241442625,-0.611816,0.825684,0.006348
1519241442634,-0.606201,0.830078,0.000732
1519241442668,-0.625977,0.820801,0.003174
1519241442699,-0.605957,0.803711,0.016602
1519241442730,-0.604736,0.776367,-0.021240
1519241442767,-0.619385,0.833008,0.011475
1519241442799,-0.611816,0.843750,-0.000244
1519241442828,-0.609375,0.807129,-0.002686
1519241442867,-0.617676,0.788086,-0.003174
1519241442901,-0.621338,0.796631,-0.017090
1519241442913,-0.620117,0.812500,-0.021973
1519241442964,-0.609375,0.845947,-0.017090
1519241442983,-0.610107,0.836182,-0.013916
1519241443017,-0.613037,0.828613,-0.012939
1519241443052,-0.612793,0.812744,-0.003662
1519241443083,-0.610840,0.811768,0.006592
1519241443125,-0.605957,0.809814,0.013672
1519241443147,-0.613770,0.823730,-0.013184
1519241443180,-0.613770,0.838379,-0.030518
1519241443214,-0.619629,0.818848,-0.025146
1519241443256,-0.617432,0.793213,-0.030029
1519241443283,-0.623779,0.800049,-0.043213
1519241443310,-0.627441,0.824707,-0.050293
1519241443347,-0.612793,0.832520,-0.028320
1519241443379,-0.627930,0.813477,-0.030518
1519241443423,-0.627930,0.792236,-0.029541
1519241443449,-0.641357,0.779785,-0.020020
1519241443490,-0.628418,0.800049,-0.013672
1519241443539,-0.630615,0.816650,-0.018555
1519241443546,-0.632813,0.813721,-0.024658
1519241443568,-0.630127,0.802979,-0.028809
1519241443617,-0.634033,0.794189,-0.006836
1519241443631,-0.632324,0.775879,0.015381
1519241443668,-0.619385,0.787354,0.008545
1519241443697,-0.616455,0.797363,0.014648
1519241443727,-0.634766,0.792236,0.004395
1519241443783,-0.631348,0.776123,-0.018555
1519241443795,-0.637451,0.809082,-0.041260
1519241443847,-0.662598,0.821289,-0.084229
1519241443863,-0.634766,0.781738,-0.083252
1519241443881,-0.613281,0.802734,-0.102539
1519241443928,-0.599365,0.825439,-0.083008
1519241443960,-0.613281,0.822754,-0.075195
1519241444002,-0.638672,0.777100,-0.066895
1519241444045,-0.620361,0.787842,-0.062256
1519241444048,-0.627441,0.805664,-0.088623
1519241444099,-0.628174,0.827637,-0.072266
1519241444126,-0.634521,0.854248,-0.066650
1519241444183,-0.628906,0.831787,-0.067627
1519241444186,-0.626465,0.813477,-0.055908
1519241444211,-0.581055,0.802490,-0.075684
1519241444245,-0.541016,0.791260,-0.064453
1519241444281,-0.561523,0.813477,-0.061768
1519241444315,-0.615234,0.822510,-0.077148
1519241444342,-0.624756,0.817383,-0.074951
1519241444390,-0.606689,0.800293,-0.058350
1519241444409,-0.593018,0.865967,-0.039063
1519241444445,-0.596680,0.838135,-0.052246
1519241444465,-0.597900,0.854004,-0.033203
1519241444507,-0.603760,0.847168,-0.052246
1519241444543,-0.582764,0.834717,-0.074707
1519241444558,-0.587402,0.815186,-0.047119
1519241444616,-0.600586,0.807129,-0.004395
1519241444625,-0.613770,0.832764,0.003662
1519241444660,-0.602539,0.858643,0.000977
1519241444712,-0.571777,0.821533,-0.047363
1519241444723,-0.609863,0.778320,-0.114990
1519241444757,-0.589844,0.841553,-0.166992
1519241444794,-0.594727,0.808105,-0.080078
1519241444828,-0.667969,0.782959,-0.111816
1519241444879,-0.635254,0.819580,-0.159180
1519241444888,-0.571533,0.748291,-0.180420
1519241444922,-0.594238,0.763916,-0.115234
1519241444968,-0.447510,0.812988,-0.076904
1519241444990,-0.574951,0.792725,-0.092285
1519241445025,-0.697754,0.793701,-0.135498
1519241445043,-0.764648,0.858398,-0.135010
1519241445091,-0.631836,0.896484,-0.172852
1519241445124,-0.560791,0.960938,-0.178711
1519241445138,-0.492188,0.905273,-0.161377
1519241445189,-0.344727,0.862061,-0.119141
1519241445207,-0.256348,0.880371,-0.164551
1519241445241,-0.242920,0.920898,-0.206299
1519241445278,-0.254395,0.889893,-0.126953
1519241445326,-0.277588,0.892578,-0.111816
1519241445338,-0.290527,0.926025,-0.131836
1519241445394,-0.314453,1.102539,-0.181152
1519241445405,-0.158691,1.216309,-0.258301
1519241445440,0.007080,1.166748,-0.273438
1519241445474,0.190186,1.003662,-0.191895
1519241445502,0.146484,0.895996,-0.202393
1519241445545,0.088867,0.979492,-0.159180
1519241445570,0.002441,0.963867,-0.127930
1519241445622,0.022217,0.933594,-0.155762
1519241445623,0.028076,0.924561,-0.158936
1519241445673,0.045654,0.933594,-0.093506
1519241445702,0.090576,0.879395,-0.046143
1519241445719,0.075195,0.856445,-0.042725
1519241445769,0.046631,0.906982,-0.040283
1519241445787,0.041260,1.049561,-0.041748
1519241445822,0.021729,1.119629,-0.174316
1519241445855,-0.015137,1.030762,-0.261230
1519241445883,-0.040283,1.105469,-0.249268
1519241445919,-0.100342,1.150391,-0.211670
1519241445953,-0.237305,1.098877,-0.192627
1519241446009,-0.315186,0.943359,-0.190430
1519241446020,-0.335449,0.805908,-0.196777
1519241446054,-0.285400,0.823242,-0.284912
1519241446083,-0.309326,0.879395,-0.190918
1519241446118,-0.379395,0.696045,-0.140869
1519241446158,-0.509766,0.859375,-0.267334
1519241446188,-0.504639,1.024902,-0.317627
1519241446227,-0.498291,0.974365,-0.240479
1519241446266,-0.512939,0.903564,-0.306152
1519241446270,-0.519043,0.899414,-0.372803
1519241446313,-0.544434,0.867676,-0.380859
1519241446350,-0.602783,0.777588,-0.342773
1519241446368,-0.606689,0.728760,-0.332275
1519241446402,-0.571289,0.740479,-0.306641
1519241446454,-0.574707,0.814941,-0.229980
1519241446494,-0.609375,0.801758,-0.195313
1519241446499,-0.663818,0.760498,-0.187012
1519241446537,-0.715576,0.756104,-0.219727
1519241446571,-0.678711,0.787842,-0.237061
1519241446607,-0.593750,0.770752,-0.181641
1519241446635,-0.640137,0.666260,-0.189697
1519241446674,-0.608643,0.697021,-0.163818
1519241446727,-0.643066,0.808838,-0.159180
1519241446733,-0.637207,0.810547,-0.143066
1519241446814,-0.619873,0.765381,-0.130371
1519241446868,-0.643799,0.772705,-0.128418
1519241446872,-0.649902,0.776123,-0.132324
1519241446875,-0.653564,0.763428,-0.127686
1519241446880,-0.651855,0.762451,-0.133789
1519241446933,-0.641113,0.800293,-0.118652
1519241446954,-0.637939,0.800293,-0.088135
1519241447017,-0.649902,0.787842,-0.085205
1519241447018,-0.682129,0.747314,-0.111328
1519241447085,-0.664063,0.731201,-0.128418
1519241447087,-0.637939,0.773193,-0.131348
1519241447152,-0.634521,0.822021,-0.129883
1519241447219,-0.654541,0.795410,-0.145020
1519241447221,-0.657471,0.801025,-0.129883
1519241447288,-0.639648,0.781250,-0.132324
1519241447289,-0.624756,0.775879,-0.092041
1519241447357,-0.656250,0.762695,-0.096924
1519241447423,-0.633545,0.737793,-0.183105
1519241447425,-0.633301,0.754639,-0.166260
1519241447492,-0.653076,0.772949,-0.123779
1519241447496,-0.664063,0.749023,-0.146729
1519241447501,-0.661377,0.739014,-0.159424
1519241447506,-0.656738,0.786865,-0.153076
1519241447512,-0.640381,0.793457,-0.133057
1519241447530,-0.645752,0.771240,-0.132568
1519241447571,-0.661621,0.759033,-0.153809
1519241447598,-0.674316,0.696045,-0.171387
1519241447643,-0.666260,0.716309,-0.161865
1519241447666,-0.648926,0.708740,-0.161377
1519241447745,-0.621826,0.773682,-0.173096
1519241447747,-0.621094,0.825928,-0.181152
1519241447762,-0.619629,0.829102,-0.197266
1519241447797,-0.647949,0.821045,-0.193359
1519241447852,-0.607910,0.793945,-0.180908
1519241447900,-0.597900,0.812012,-0.155518
1519241447926,-0.599854,0.818115,-0.136230
1519241447937,-0.604980,0.838867,-0.129150
1519241447966,-0.602295,0.826904,-0.145264
1519241448006,-0.629639,0.779541,-0.152100
1519241448052,-0.649414,0.768066,-0.166016
1519241448053,-0.657227,0.756592,-0.197266
1519241448095,-0.649414,0.758057,-0.203125
1519241448142,-0.625488,0.775635,-0.193115
1519241448154,-0.613525,0.784180,-0.197510
1519241448178,-0.637207,0.792725,-0.198730
1519241448217,-0.619141,0.781738,-0.152100
1519241448247,-0.624512,0.790039,-0.163818
1519241448291,-0.619141,0.793945,-0.175049
1519241448309,-0.627197,0.805176,-0.162842
1519241448343,-0.621094,0.805664,-0.154297
1519241448377,-0.615967,0.800049,-0.163086
1519241448412,-0.624756,0.763672,-0.170410
1519241448435,-0.648193,0.749023,-0.178467
1519241448474,-0.624756,0.756836,-0.135254
1519241448516,-0.624268,0.786621,-0.184082
1519241448525,-0.621826,0.792236,-0.182861
1519241448577,-0.625732,0.800537,-0.180420
1519241448593,-0.632324,0.791504,-0.194092
1519241448627,-0.629395,0.783691,-0.203857
1519241448662,-0.628906,0.836426,-0.206787
1519241448689,-0.615479,0.784180,-0.161133
1519241448724,-0.637451,0.766113,-0.154541
1519241448761,-0.628906,0.748291,-0.152100
1519241448793,-0.634033,0.760986,-0.127930
1519241448838,-0.632324,0.769531,-0.124268
1519241448861,-0.633301,0.767822,-0.157227
1519241448891,-0.639404,0.767090,-0.165039
1519241448925,-0.624756,0.783691,-0.142334
1519241448958,-0.622559,0.795898,-0.160645
1519241448992,-0.621826,0.800781,-0.159912
1519241449009,-0.624268,0.822754,-0.145508
1519241449062,-0.603027,0.828125,-0.154541
1519241449088,-0.591064,0.809082,-0.140625
1519241449143,-0.631104,0.826172,-0.166504
1519241449166,-0.628174,0.766113,-0.141602
1519241449174,-0.633301,0.816162,-0.144775
1519241449224,-0.606445,0.801514,-0.119873
1519241449243,-0.619141,0.781738,-0.132568
1519241449302,-0.633789,0.799561,-0.129883
1519241449305,-0.625977,0.787354,-0.130615
1519241449339,-0.626709,0.795654,-0.136230
1519241449394,-0.619629,0.803223,-0.134033
1519241449408,-0.617920,0.817383,-0.140381
1519241449460,-0.635254,0.785400,-0.153809
1519241449471,-0.642578,0.747803,-0.157227
1519241449504,-0.633301,0.737549,-0.129883
1519241449538,-0.638184,0.787109,-0.140869
1519241449573,-0.631592,0.767090,-0.140381
1519241449623,-0.642822,0.759033,-0.145752
1519241449625,-0.617432,0.819824,-0.145020
1519241449658,-0.625488,0.833008,-0.151367
1519241449700,-0.618896,0.798584,-0.142090
1519241449721,-0.629883,0.785156,-0.134277
1519241449754,-0.619141,0.792236,-0.125244
1519241449799,-0.627686,0.790039,-0.118652
1519241449858,-0.624512,0.784912,-0.116943
1519241449861,-0.627197,0.781738,-0.132324
1519241449885,-0.623779,0.771240,-0.126953
1519241449934,-0.629395,0.857422,-0.162354
1519241449955,-0.625244,0.802734,-0.143799
1519241449992,-0.639893,0.774902,-0.136230
1519241450022,-0.634277,0.774658,-0.130859
1519241450057,-0.638184,0.794189,-0.120850
1519241450113,-0.636230,0.785645,-0.112061
1519241450119,-0.639893,0.771484,-0.127441
1519241450154,-0.633545,0.787354,-0.117676
1519241450197,-0.633301,0.792480,-0.118896
1519241450204,-0.640625,0.775635,-0.126953
1519241450238,-0.617676,0.765137,-0.116943
1519241450268,-0.630371,0.798828,-0.143555
1519241450302,-0.635498,0.791992,-0.154541
1519241450343,-0.629639,0.791992,-0.126953
1519241450377,-0.640869,0.789551,-0.132324
1519241450403,-0.635254,0.786377,-0.141357
1519241450445,-0.631348,0.786621,-0.131592
1519241450467,-0.624756,0.789551,-0.123535
1519241450500,-0.625488,0.792969,-0.128418
1519241450538,-0.624268,0.797852,-0.118896
1519241450568,-0.630615,0.794678,-0.129150
1519241450617,-0.638672,0.771484,-0.135254
1519241450621,-0.633057,0.778076,-0.129883
1519241450653,-0.624023,0.792480,-0.132324
1519241450699,-0.623779,0.791016,-0.131592
1519241450717,-0.621094,0.774902,-0.112061
1519241450752,-0.631592,0.823975,-0.141602
1519241450785,-0.631104,0.804443,-0.130859
1519241450842,-0.626221,0.789063,-0.122314
1519241450853,-0.631836,0.794189,-0.115967
1519241450881,-0.629639,0.787109,-0.120850
1519241450916,-0.626709,0.779785,-0.123779
1519241450951,-0.638916,0.793701,-0.133545
1519241450989,-0.630615,0.786377,-0.125000
1519241451020,-0.632080,0.785156,-0.122314
1519241451052,-0.632813,0.788086,-0.122314
1519241451081,-0.633789,0.786865,-0.130615
1519241451115,-0.629639,0.795410,-0.121094
1519241451134,-0.631348,0.782227,-0.114746
1519241451183,-0.625977,0.789795,-0.123779
1519241451201,-0.633789,0.801270,-0.136230
1519241451234,-0.631348,0.800049,-0.135986
1519241451281,-0.633789,0.788330,-0.138184
1519241451323,-0.636719,0.776855,-0.132080
1519241451332,-0.631592,0.785156,-0.131348
1519241451365,-0.631836,0.794434,-0.131592
1519241451399,-0.632813,0.790039,-0.128174
1519241451433,-0.633545,0.784424,-0.129639
1519241451462,-0.630615,0.793457,-0.130371
1519241451497,-0.632568,0.795166,-0.130371
1519241451547,-0.630859,0.793457,-0.134766
1519241451604,-0.634766,0.783691,-0.133301
1519241451688,-0.632324,0.783936,-0.128174
1519241451727,-0.633545,0.787109,-0.129395
1519241451732,-0.631836,0.784668,-0.129150
1519241451735,-0.635254,0.785156,-0.128662
1519241451739,-0.634277,0.791748,-0.134521
1519241451767,-0.624023,0.817871,-0.137939
1519241451782,-0.630371,0.795166,-0.097900
1519241451834,-0.633057,0.788086,-0.116455
1519241451873,-0.633789,0.795166,-0.155029
1519241451878,-0.634033,0.774902,-0.154541
1519241451912,-0.642334,0.765137,-0.149658
1519241452028,-0.642578,0.786377,-0.153320
1519241452094,-0.634766,0.808594,-0.142822
1519241452225,-0.623535,0.812500,-0.131348
1519241452293,-0.624023,0.799561,-0.107178
1519241452504,-0.618896,0.791748,-0.101318
1519241452506,-0.627441,0.782227,-0.099854
1519241452508,-0.629883,0.780762,-0.108643
1519241452510,-0.624756,0.784912,-0.116943
1519241452513,-0.644531,0.781494,-0.133057
1519241452514,-0.642334,0.792480,-0.155273
1519241452516,-0.627197,0.803467,-0.154541
1519241452517,-0.634521,0.798828,-0.133057
1519241452519,-0.630371,0.785645,-0.129639
1519241452521,-0.634766,0.786865,-0.134766
1519241452522,-0.630371,0.804443,-0.126709
1519241452524,-0.624512,0.825195,-0.112305
1519241452525,-0.632568,0.796387,-0.103027
1519241452526,-0.649658,0.759521,-0.099609
1519241452527,-0.631836,0.756104,-0.088867
1519241452560,-0.638672,0.800537,-0.103516
1519241452594,-0.643799,0.781738,-0.114258
1519241452629,-0.653320,0.759277,-0.115723
1519241452661,-0.651367,0.776855,-0.111084
1519241452693,-0.645020,0.791016,-0.103516
1519241452737,-0.640625,0.792725,-0.107178
1519241452782,-0.647461,0.783203,-0.114258
1519241452784,-0.655518,0.768799,-0.125977
1519241452828,-0.650146,0.766357,-0.155762
1519241452854,-0.646240,0.773682,-0.142334
1519241452874,-0.653320,0.775635,-0.127930
1519241452925,-0.646240,0.779541,-0.127930
1519241452942,-0.645996,0.776855,-0.128662
1519241452977,-0.638184,0.781250,-0.131592
1519241453014,-0.646240,0.794922,-0.131592
1519241453044,-0.637207,0.778076,-0.129639
1519241453072,-0.631348,0.773926,-0.123291
1519241453115,-0.651611,0.739990,-0.097168
1519241453142,-0.652588,0.735596,-0.129639
1519241453191,-0.668457,0.808105,-0.145508
1519241453209,-0.629150,0.806885,-0.107422
1519241453244,-0.641602,0.762451,-0.099121
1519241453272,-0.667969,0.767578,-0.123779
1519241453307,-0.649902,0.758057,-0.114502
1519241453341,-0.650879,0.777344,-0.119141
1519241453358,-0.654541,0.783936,-0.101318
1519241453408,-0.652832,0.780762,-0.111816
1519241453425,-0.643555,0.774658,-0.112305
1519241453454,-0.649170,0.768066,-0.102051
1519241453505,-0.656494,0.802002,-0.127441
1519241453527,-0.651123,0.779785,-0.120605
1519241453557,-0.644287,0.781738,-0.106445
1519241453590,-0.655273,0.789307,-0.122803
1519241453625,-0.652100,0.763184,-0.110596
1519241453661,-0.662109,0.758301,-0.099365
1519241453689,-0.645752,0.763428,-0.097412
1519241453734,-0.643066,0.760254,-0.098877
1519241453755,-0.661133,0.813965,-0.135254
1519241453791,-0.654053,0.790039,-0.125977
1519241453826,-0.648193,0.793457,-0.086426
1519241453842,-0.645752,0.771729,-0.048096
1519241453887,-0.654297,0.752930,-0.078857
1519241453920,-0.661621,0.768555,-0.094727
1519241453955,-0.646240,0.787354,-0.092529
1519241453989,-0.646240,0.799561,-0.066895
1519241454029,-0.657227,0.774414,-0.080322
1519241454040,-0.651855,0.765625,-0.088135
1519241454087,-0.655762,0.777344,-0.083496
1519241454103,-0.657471,0.791504,-0.103027
1519241454137,-0.651367,0.783691,-0.088379
1519241454175,-0.658203,0.761475,-0.085449
1519241454206,-0.659668,0.780518,-0.096680
1519241454260,-0.665039,0.763672,-0.107910
1519241454286,-0.663574,0.790771,-0.101074
1519241454307,-0.648682,0.777588,-0.085938
1519241454338,-0.642822,0.764404,-0.065430
1519241454371,-0.666504,0.770264,-0.100830
1519241454412,-0.668945,0.776855,-0.109375
1519241454422,-0.657471,0.779541,-0.111572
1519241454468,-0.658447,0.770020,-0.104980
1519241454502,-0.661133,0.772949,-0.111328
1519241454519,-0.662354,0.769043,-0.108154
1519241454570,-0.659424,0.769531,-0.090332
1519241454587,-0.666504,0.791748,-0.102295
1519241454633,-0.658447,0.778809,-0.098633
1519241454667,-0.675781,0.752686,-0.094971
1519241454718,-0.678223,0.751953,-0.114990
1519241454725,-0.685547,0.741699,-0.135742
1519241454752,-0.679199,0.752930,-0.131836
1519241454786,-0.676758,0.746338,-0.119141
1519241454821,-0.666504,0.743408,-0.125977
1519241454857,-0.664307,0.780762,-0.102539
1519241454883,-0.672119,0.748047,-0.128418
1519241454929,-0.666016,0.751465,-0.123047
1519241454952,-0.660400,0.763428,-0.100586
1519241454985,-0.657227,0.785889,-0.133545
1519241455009,-0.669678,0.782959,-0.166748
1519241455048,-0.663086,0.767578,-0.134277
1519241455082,-0.655029,0.772461,-0.124512
1519241455099,-0.655762,0.762939,-0.123535
1519241455150,-0.656738,0.810547,-0.143799
1519241455168,-0.682373,0.796387,-0.142090
1519241455202,-0.667236,0.764404,-0.116943
1519241455235,-0.676514,0.740234,-0.127441
1519241455264,-0.671143,0.749023,-0.116699
1519241455298,-0.687744,0.746338,-0.119141
1519241455333,-0.677734,0.742188,-0.119141
1519241455367,-0.680664,0.765869,-0.084961
1519241455400,-0.677002,0.751953,-0.072266
1519241455434,-0.681396,0.753174,-0.094482
1519241455463,-0.685547,0.733398,-0.087891
1519241455498,-0.686035,0.749023,-0.085205
1519241455532,-0.675293,0.786133,-0.049072
1519241455566,-0.657959,0.751709,-0.030029
1519241455583,-0.645996,0.751953,-0.032227
1519241455634,-0.670654,0.767822,-0.089844
1519241455662,-0.665039,0.786377,-0.084229
1519241455680,-0.661865,0.780029,-0.075928
1519241455730,-0.675049,0.758789,-0.084961
1519241455748,-0.660645,0.776611,-0.083008
1519241455782,-0.663574,0.777588,-0.083984
1519241455817,-0.657715,0.787598,-0.072754
1519241455846,-0.658691,0.754883,-0.060791
1519241455879,-0.673584,0.757080,-0.070068
1519241455913,-0.673584,0.770508,-0.114502
1519241455947,-0.676025,0.733643,-0.083984
1519241455982,-0.663086,0.753662,-0.043213
1519241456015,-0.668457,0.775391,-0.065186
1519241456052,-0.671143,0.779297,-0.105469
1519241456078,-0.672852,0.792725,-0.121338
1519241456120,-0.669434,0.792480,-0.100830
1519241456149,-0.663330,0.760254,-0.088867
1519241456195,-0.677246,0.749268,-0.089844
1519241456237,-0.672119,0.756836,-0.098145
1519241456239,-0.679688,0.759766,-0.092285
1519241456279,-0.661621,0.784180,-0.066650
1519241456312,-0.668213,0.772949,-0.092529
1519241456335,-0.669922,0.750732,-0.094727
1519241456378,-0.665527,0.761963,-0.082031
1519241456424,-0.660400,0.779785,-0.089600
1519241456470,-0.665771,0.777100,-0.078857
1519241456473,-0.652832,0.765381,-0.078125
1519241456494,-0.657227,0.760742,-0.048828
1519241456529,-0.646240,0.779785,-0.044189
1519241456562,-0.660889,0.806641,-0.071777
1519241456609,-0.664063,0.739502,-0.100098
1519241456652,-0.664307,0.780273,-0.064453
1519241456705,-0.667480,0.792725,-0.031006
1519241456745,-0.664063,0.783447,-0.038574
1519241456787,-0.668945,0.800781,-0.052002
1519241456788,-0.659180,0.761963,-0.045654
1519241456847,-0.666748,0.772705,-0.011719
1519241456904,-0.625977,0.737305,-0.011230
1519241456906,-0.680176,0.794922,-0.058838
1519241456908,-0.663330,0.797852,-0.040771
1519241456909,-0.651855,0.771973,0.000000
1519241456943,-0.665771,0.775635,-0.022217
1519241456989,-0.667480,0.765381,-0.030029
1519241457054,-0.666016,0.775879,-0.021484
1519241457184,-0.662109,0.774414,-0.018066
1519241457251,-0.655762,0.787354,-0.012451
1519241457317,-0.663574,0.772705,-0.026855
1519241457584,-0.662842,0.772705,-0.029053
1519241457586,-0.663574,0.753906,-0.018066
1519241457588,-0.665283,0.808594,-0.055664
1519241457590,-0.667236,0.792480,-0.049805
1519241457592,-0.661133,0.783936,-0.034180
1519241457593,-0.666748,0.771240,-0.024170
1519241457595,-0.671387,0.773193,-0.041260
1519241457608,-0.668945,0.775146,-0.050049
1519241457657,-0.669678,0.771973,-0.039307
1519241457659,-0.669434,0.768799,-0.036865
1519241457660,-0.671875,0.766846,-0.044189
1519241457661,-0.675537,0.762695,-0.044678
1519241457663,-0.678955,0.753174,-0.040283
1519241457665,-0.676025,0.766602,-0.040527
1519241457666,-0.675537,0.767578,-0.040283
1519241457667,-0.668701,0.775146,-0.036865
1519241457669,-0.674072,0.763916,-0.037109
1519241457691,-0.669922,0.764893,-0.039307
1519241457733,-0.675781,0.765381,-0.035645
1519241457758,-0.672607,0.770508,-0.044189
1519241457807,-0.677246,0.772217,-0.041504
1519241457813,-0.668213,0.765869,-0.040771
1519241457854,-0.670898,0.767334,-0.044434
1519241457888,-0.672852,0.774902,-0.045410
1519241457905,-0.668945,0.770264,-0.044678
1519241457958,-0.670654,0.767578,-0.036865
1519241457975,-0.672119,0.764160,-0.039551
1519241458008,-0.672363,0.765869,-0.038818
1519241458053,-0.669678,0.772949,-0.042725
1519241458070,-0.668457,0.771973,-0.038086
1519241458125,-0.667969,0.772461,-0.041748
1519241458139,-0.672363,0.770752,-0.045410
1519241458183,-0.668457,0.771973,-0.048096
1519241458207,-0.672607,0.778564,-0.044678
1519241458235,-0.671387,0.773926,-0.040039
1519241458272,-0.670654,0.775879,-0.040527
1519241458305,-0.669434,0.769287,-0.032471
1519241458339,-0.668457,0.762695,-0.037109
1519241458372,-0.675537,0.759033,-0.039063
1519241458394,-0.666748,0.766357,-0.040771
1519241458436,-0.674072,0.771973,-0.043945
1519241458470,-0.667725,0.769287,-0.036865
1519241458487,-0.661621,0.770752,-0.033203
1519241458552,-0.668213,0.758545,-0.036133
1519241458560,-0.669434,0.768799,-0.032227
1519241458588,-0.670166,0.778076,-0.045898
1519241458623,-0.659912,0.787598,-0.046631
1519241458665,-0.661133,0.775146,-0.035645
1519241458688,-0.658447,0.774658,-0.038086
1519241458719,-0.671631,0.785889,-0.056396
1519241458763,-0.665527,0.775879,-0.045410
1519241458788,-0.659912,0.773193,-0.037354
1519241458837,-0.663574,0.756836,-0.033203
1519241458850,-0.665527,0.768555,-0.048340
1519241458885,-0.662354,0.790039,-0.049805
1519241458918,-0.661377,0.784912,-0.042969
1519241458953,-0.670410,0.768311,-0.046387
1519241458970,-0.662354,0.778320,-0.036865
1519241459004,-0.663330,0.785645,-0.043701
1519241459049,-0.666016,0.778564,-0.047852
1519241459067,-0.660889,0.772461,-0.040771
1519241459104,-0.671143,0.773682,-0.049561
1519241459135,-0.660889,0.769775,-0.044189
1519241459197,-0.663086,0.780029,-0.044189
1519241459203,-0.661377,0.771729,-0.037354
1519241459230,-0.659912,0.776367,-0.038330
1519241459265,-0.663818,0.775635,-0.039307
1519241459301,-0.662598,0.783691,-0.046387
1519241459334,-0.666016,0.772217,-0.040283
1519241459368,-0.668701,0.764404,-0.032227
1519241459406,-0.670654,0.788086,-0.051758
1519241459430,-0.664551,0.774658,-0.042236
1519241459465,-0.667480,0.769043,-0.036865
1519241459499,-0.668457,0.774902,-0.045166
1519241459533,-0.670410,0.781982,-0.048828
1519241459550,-0.671387,0.765625,-0.043213
1519241459590,-0.667969,0.748779,-0.030762
1519241459619,-0.668945,0.754883,-0.028564
1519241459653,-0.659424,0.778809,-0.037842
1519241459680,-0.660645,0.792236,-0.052002
1519241459715,-0.665039,0.781006,-0.049072
1519241459749,-0.665771,0.772705,-0.047852
1519241459784,-0.663330,0.782959,-0.056396
1519241459818,-0.658447,0.781250,-0.049316
1519241459850,-0.660889,0.777588,-0.051514
1519241459885,-0.660645,0.769043,-0.050293
1519241459914,-0.650879,0.792480,-0.029297
1519241459951,-0.662842,0.781250,-0.043213
1519241459993,-0.657227,0.784912,-0.041260
1519241460000,-0.666016,0.737061,-0.044189
1519241460045,-0.665283,0.780273,-0.075684
1519241460081,-0.666260,0.775879,-0.092529
1519241460113,-0.662598,0.783691,-0.054932
1519241460130,-0.666992,0.778564,-0.064941
1519241460165,-0.658936,0.774414,-0.063477
1519241460199,-0.661621,0.763916,-0.068359
1519241460227,-0.650879,0.788574,-0.064453
1519241460261,-0.656494,0.787109,-0.074951
1519241460296,-0.666992,0.777588,-0.071777
1519241460330,-0.670166,0.767090,-0.056885
1519241460365,-0.658691,0.765625,-0.061279
1519241460403,-0.662598,0.777100,-0.064209
1519241460428,-0.666504,0.781250,-0.073242
1519241460462,-0.660156,0.780518,-0.069092
1519241460495,-0.660889,0.778809,-0.066406
1519241460529,-0.663574,0.771973,-0.066895
1519241460563,-0.670166,0.766113,-0.065186
1519241460594,-0.662109,0.769775,-0.064453
1519241460618,-0.668457,0.770020,-0.058594
1519241460661,-0.657715,0.776367,-0.058350
1519241460698,-0.660400,0.778809,-0.065674
1519241460711,-0.668457,0.780029,-0.066406
1519241460745,-0.657959,0.777588,-0.066162
1519241460780,-0.666748,0.766357,-0.050537
1519241460818,-0.668213,0.761475,-0.055420
1519241460842,-0.663574,0.778809,-0.070557
1519241460877,-0.658936,0.782959,-0.059814
1519241460910,-0.666748,0.786621,-0.064697
1519241460945,-0.666748,0.765625,-0.065430
1519241460979,-0.666504,0.768555,-0.059082
1519241461005,-0.660156,0.770264,-0.053223
1519241461041,-0.662354,0.777100,-0.053223
1519241461085,-0.667480,0.767090,-0.049805
1519241461093,-0.664795,0.783203,-0.059814
1519241461144,-0.663818,0.800293,-0.072510
1519241461164,-0.666992,0.788818,-0.070557
1519241461214,-0.677002,0.750488,-0.061768
1519241461240,-0.666260,0.755615,-0.044434
1519241461258,-0.673340,0.764648,-0.037354
1519241461291,-0.669678,0.760986,-0.042480
1519241461334,-0.671631,0.763184,-0.049316
1519241461360,-0.671875,0.762207,-0.054443
1519241461399,-0.668213,0.777344,-0.050049
1519241461423,-0.675049,0.758545,-0.054199
1519241461457,-0.675781,0.749023,-0.070557
1519241461491,-0.675537,0.770752,-0.068848
1519241461524,-0.660400,0.781250,-0.060303
1519241461560,-0.671875,0.780029,-0.065430
1519241461576,-0.673828,0.775879,-0.067383
1519241461628,-0.668213,0.753418,-0.048096
1519241461657,-0.680908,0.742432,-0.039795
1519241461677,-0.678711,0.727051,-0.041016
1519241461724,-0.683594,0.775879,-0.050293
1519241461750,-0.666748,0.751953,-0.036133
1519241461775,-0.689697,0.739014,-0.055176
1519241461810,-0.661865,0.763184,-0.086914
1519241461840,-0.666504,0.787842,-0.109131
1519241461883,-0.676514,0.794678,-0.113281
1519241461909,-0.667480,0.791748,-0.092285
1519241462268,-0.657227,0.792725,-0.074219
1519241462334,-0.648682,0.816162,-0.069336
1519241462338,-0.682373,0.778809,-0.079102
1519241462406,-0.684570,0.742432,-0.053955
1519241462411,-0.676270,0.725098,-0.043945
1519241462471,-0.697266,0.705566,-0.032715
1519241462524,-0.686523,0.716064,-0.036865
1519241462527,-0.677002,0.759521,-0.039063
1519241462572,-0.669678,0.791260,-0.074951
1519241462576,-0.686768,0.788818,-0.070801
1519241462580,-0.670898,0.828125,-0.076904
1519241462584,-0.686523,0.738037,-0.057861
1519241462588,-0.670898,0.715820,-0.001953
1519241462592,-0.688965,0.725342,-0.035156
1519241462595,-0.682861,0.753418,-0.056152
1519241462598,-0.682129,0.763672,-0.052734
1519241462601,-0.668457,0.775146,-0.051514
1519241462604,-0.676758,0.766113,-0.029785
1519241462608,-0.664551,0.768066,-0.023193
1519241462611,-0.666992,0.787842,-0.027100
1519241462614,-0.674316,0.765137,-0.031738
1519241462618,-0.666992,0.746094,-0.051758
1519241462652,-0.673096,0.760498,-0.059570
1519241462687,-0.676514,0.778076,-0.084229
1519241462722,-0.676514,0.803467,-0.088379
1519241462739,-0.666748,0.807373,-0.083252
1519241462789,-0.671387,0.773438,-0.063477
1519241462807,-0.669189,0.736572,-0.048584
1519241462834,-0.665771,0.726074,-0.041992
1519241462885,-0.672119,0.758789,-0.050293
1519241462947,-0.670898,0.786377,-0.051758
1519241462949,-0.668457,0.766602,-0.052490
1519241462972,-0.677002,0.785400,-0.083008
1519241463005,-0.675537,0.803955,-0.112061
1519241463033,-0.675781,0.789063,-0.096924
1519241463068,-0.678223,0.755615,-0.074463
1519241463102,-0.670654,0.736328,-0.068848
1519241463137,-0.675049,0.742920,-0.056885
1519241463171,-0.676758,0.751221,-0.044434
1519241463205,-0.685303,0.760010,-0.061035
1519241463246,-0.676514,0.760498,-0.058105
1519241463269,-0.661865,0.795898,-0.053223
1519241463303,-0.637695,0.787354,-0.045654
1519241463320,-0.679443,0.746094,-0.035400
1519241463369,-0.694580,0.735107,-0.078369
1519241463387,-0.703857,0.776855,-0.112305
1519241463415,-0.687988,0.792236,-0.117432
1519241463466,-0.680908,0.775391,-0.073975
1519241463485,-0.676758,0.721924,-0.055176
1519241463518,-0.674316,0.703613,-0.057129
1519241463552,-0.686523,0.735840,-0.080811
1519241463585,-0.702637,0.786133,-0.118164
1519241463614,-0.698975,0.808838,-0.119385
1519241463650,-0.689697,0.758545,-0.091064
1519241463683,-0.683838,0.729980,-0.081543
1519241463717,-0.677979,0.724365,-0.074463
1519241463751,-0.699219,0.737305,-0.072510
1519241463785,-0.688721,0.743408,-0.088867
1519241463803,-0.693359,0.756592,-0.093262
1519241463848,-0.699951,0.751465,-0.080811
1519241463881,-0.686523,0.743164,-0.070068
1519241463906,-0.677246,0.736816,-0.080322
1519241463950,-0.689453,0.740967,-0.090332
1519241463968,-0.679932,0.754395,-0.081543
1519241464002,-0.687988,0.760254,-0.065674
1519241464046,-0.711182,0.736572,-0.096191
1519241464065,-0.663330,0.774658,-0.087646
1519241464098,-0.671143,0.763184,-0.054199
1519241464138,-0.687256,0.759033,-0.083984
1519241464172,-0.675049,0.751709,-0.101318
1519241464215,-0.675781,0.746094,-0.074219
1519241464229,-0.666260,0.745117,-0.038086
1519241464263,-0.650391,0.779053,-0.053467
1519241464298,-0.686279,0.833740,-0.070068
1519241464332,-0.715820,0.754150,-0.063232
1519241464365,-0.695801,0.732178,-0.024658
1519241464383,-0.699463,0.722168,-0.010498
1519241464428,-0.700684,0.703125,-0.026123
1519241464463,-0.690918,0.720215,-0.041260
1519241464479,-0.693848,0.720703,-0.052490
1519241464531,-0.705566,0.767334,-0.126709
1519241464548,-0.708008,0.770996,-0.135254
1519241464582,-0.688232,0.739746,-0.106934
1519241464628,-0.679199,0.768311,-0.102051
1519241464645,-0.684326,0.772217,-0.114014
1519241464680,-0.686035,0.739258,-0.118652
1519241464713,-0.701660,0.734619,-0.108398
1519241464747,-0.639404,0.760010,-0.090088
1519241464782,-0.667480,0.770508,-0.059814
1519241464812,-0.673584,0.755371,-0.102539
1519241464844,-0.666016,0.766846,-0.093506
1519241464890,-0.669434,0.787109,-0.072021
1519241464912,-0.676514,0.778320,-0.098145
1519241464947,-0.681396,0.753662,-0.098145
1519241464963,-0.672119,0.761719,-0.086426
1519241465009,-0.677979,0.773682,-0.093994
1519241465043,-0.669922,0.778809,-0.091064
1519241465061,-0.664063,0.759277,-0.101563
1519241465112,-0.675537,0.766602,-0.095703
1519241465130,-0.679688,0.764893,-0.082275
1519241465163,-0.672363,0.753174,-0.075195
1519241465197,-0.672607,0.757568,-0.085693
1519241465224,-0.679932,0.760010,-0.081299
1519241465259,-0.672852,0.766113,-0.067627
1519241465306,-0.678223,0.769531,-0.054199
1519241465344,-0.676270,0.750000,-0.065674
1519241465361,-0.676514,0.752441,-0.085693
1519241465395,-0.681152,0.771484,-0.100586
1519241465424,-0.668945,0.779785,-0.106934
1519241465459,-0.661133,0.770508,-0.077637
1519241465501,-0.668701,0.778076,-0.044678
1519241465527,-0.688965,0.791504,-0.070801
1519241465543,-0.695313,0.747070,-0.060547
1519241465604,-0.694336,0.738037,-0.072266
1519241465624,-0.689209,0.715088,-0.064941
1519241465641,-0.680176,0.724609,-0.045898
1519241465694,-0.667236,0.753906,-0.042725
1519241465709,-0.687256,0.786621,-0.071045
1519241465743,-0.697266,0.760254,-0.062500
1519241465778,-0.691895,0.738770,-0.059570
1519241465805,-0.663086,0.770996,-0.084229
1519241465841,-0.662842,0.787354,-0.075928
1519241465889,-0.677002,0.789551,-0.063965
1519241465908,-0.686523,0.751465,-0.067383
1519241465943,-0.694092,0.734375,-0.071045
1519241465977,-0.676514,0.727295,-0.097900
1519241466004,-0.660889,0.804199,-0.098633
1519241466038,-0.682617,0.798340,-0.106689
1519241466073,-0.675049,0.748047,-0.060303
1519241466108,-0.674072,0.752197,-0.024658
1519241466124,-0.656982,0.773438,-0.005127
1519241466175,-0.654785,0.777832,-0.006104
1519241466197,-0.668213,0.765869,-0.035645
1519241466220,-0.664063,0.752686,-0.050781
1519241466274,-0.650879,0.771240,-0.042725
1519241466289,-0.656494,0.788086,-0.049561
1519241466333,-0.662109,0.781006,-0.059082
1519241466363,-0.655762,0.777832,-0.042236
1519241466391,-0.627686,0.812012,-0.039063
1519241466419,-0.614502,0.820557,-0.032471
1519241466455,-0.654785,0.836914,-0.038330
1519241466489,-0.649170,0.794678,-0.027832
1519241466557,-0.659912,0.776123,-0.060303
1519241466608,-0.655762,0.786377,-0.036377
1519241466610,-0.656250,0.780273,-0.046631
1519241466621,-0.665527,0.779785,-0.041260
1519241466654,-0.663574,0.782715,-0.035645
1519241466693,-0.656250,0.753906,-0.043701
1519241466705,-0.646729,0.776611,-0.028320
1519241466757,-0.666260,0.757568,-0.022705
1519241466790,-0.651611,0.814453,-0.050293
1519241466801,-0.657227,0.785645,-0.056885
1519241466853,-0.668457,0.785889,-0.045898
1519241466871,-0.656006,0.775879,-0.034424
1519241466983,-0.663330,0.772461,-0.028564
1519241467117,-0.648438,0.781006,-0.033691
1519241467119,-0.653564,0.784180,-0.011963
1519241467185,-0.637695,0.774658,-0.008057
1519241467188,-0.657227,0.801025,-0.037109
1519241467254,-0.639160,0.781250,-0.030273
1519241467322,-0.643799,0.800537,-0.019043
1519241467389,-0.637451,0.789063,-0.026367
1519241467391,-0.646973,0.771973,-0.001221
1519241467459,-0.638916,0.818115,0.008545
1519241467527,-0.625488,0.837891,0.014160
1519241467529,-0.624268,0.815918,0.004883
1519241467554,-0.641846,0.827881,0.006104
1519241467568,-0.634766,0.800781,0.012207
1519241467570,-0.644043,0.775146,-0.010254
1519241467571,-0.656982,0.760498,-0.015625
1519241467573,-0.643799,0.770508,-0.025879
1519241467574,-0.659912,0.784912,-0.018555
1519241467576,-0.639893,0.794189,-0.019775
1519241467578,-0.634766,0.796143,-0.009521
1519241467580,-0.645508,0.813721,0.011230
1519241467587,-0.647217,0.788574,-0.009521
1519241467619,-0.652100,0.770996,-0.031982
1519241467650,-0.647949,0.799072,-0.020508
1519241467697,-0.655029,0.797119,-0.022461
1519241467718,-0.658203,0.783447,-0.030029
1519241467753,-0.658691,0.778809,-0.023926
1519241467782,-0.660156,0.772461,-0.022705
1519241467826,-0.665283,0.775146,-0.025146
1519241467896,-0.662354,0.774902,-0.027100
1519241467899,-0.658936,0.780518,-0.025146
1519241467918,-0.664307,0.777832,-0.031494
1519241467951,-0.663330,0.773682,-0.025146
1519241467968,-0.659912,0.755127,-0.024414
1519241468014,-0.659424,0.774658,-0.031006
1519241468031,-0.684082,0.783203,-0.043701
1519241468075,-0.663574,0.750488,-0.075439
1519241468100,-0.674805,0.752686,-0.085693
1519241468151,-0.670166,0.769043,-0.114990
1519241468168,-0.677490,0.773926,-0.135986
1519241468195,-0.667480,0.764648,-0.156738
1519241468232,-0.670654,0.773682,-0.136230
1519241468269,-0.665527,0.763672,-0.135010
1519241468298,-0.658447,0.772217,-0.150391
1519241468333,-0.656982,0.765869,-0.141357
1519241468367,-0.663086,0.761475,-0.131104
1519241468395,-0.656494,0.773193,-0.128906
1519241468430,-0.658936,0.757080,-0.131836
1519241468447,-0.660400,0.765137,-0.135498
1519241468497,-0.657471,0.766357,-0.142578
1519241468515,-0.664551,0.773438,-0.137451
1519241468549,-0.653809,0.771973,-0.132324
1519241468583,-0.660400,0.765625,-0.131348
1519241468611,-0.662598,0.758545,-0.131104
1519241468656,-0.655518,0.766113,-0.135254
1519241468680,-0.659180,0.768311,-0.136719
1519241468714,-0.657715,0.771729,-0.142578
1519241468749,-0.658691,0.771240,-0.135498
1519241468783,-0.653809,0.769531,-0.134033
1519241468810,-0.660889,0.762695,-0.146729
1519241468845,-0.660645,0.767334,-0.142578
1519241468879,-0.654541,0.765625,-0.125977
1519241468913,-0.658447,0.763428,-0.131836
1519241468930,-0.658691,0.766357,-0.140137
1519241468980,-0.662598,0.767090,-0.142822
1519241469010,-0.657471,0.769287,-0.138916
1519241469028,-0.658203,0.771729,-0.134277
1519241469061,-0.658691,0.767090,-0.137939
1519241469095,-0.657715,0.768311,-0.139893
1519241469130,-0.662109,0.763184,-0.137939
1519241469164,-0.660400,0.760498,-0.133301
1519241469191,-0.661133,0.771729,-0.137451
1519241469227,-0.662109,0.773438,-0.142090
1519241469260,-0.659912,0.767578,-0.137451
1519241469295,-0.659180,0.760010,-0.137939
1519241469329,-0.661133,0.763916,-0.136230
1519241469363,-0.660400,0.766846,-0.136230
1519241469391,-0.660156,0.767822,-0.130859
1519241469425,-0.657227,0.783447,-0.118652
1519241469460,-0.638428,0.826172,-0.116943
1519241469494,-0.676270,0.787109,-0.176514
1519241469511,-0.679688,0.764160,-0.151367
1519241469545,-0.685791,0.710938,-0.109131
1519241469579,-0.674072,0.714600,-0.082031
1519241469608,-0.673584,0.733887,-0.075928
1519241469645,-0.681396,0.754395,-0.120361
1519241469677,-0.680176,0.760986,-0.132080
1519241469710,-0.670654,0.785889,-0.123779
1519241469744,-0.678467,0.758789,-0.103760
1519241469779,-0.681152,0.748535,-0.101318
1519241469807,-0.684570,0.745117,-0.100830
1519241469853,-0.680664,0.753906,-0.099854
1519241469897,-0.690918,0.737305,-0.090332
1519241469909,-0.686523,0.744629,-0.084961
1519241469944,-0.682617,0.736816,-0.081299
1519241469978,-0.683105,0.756836,-0.076904
1519241470005,-0.681396,0.767578,-0.060791
1519241470045,-0.677979,0.765869,-0.058838
1519241470059,-0.681641,0.759277,-0.065186
1519241470092,-0.684326,0.763184,-0.072998
1519241470127,-0.684570,0.757080,-0.065186
1519241470162,-0.688477,0.720703,-0.080566
1519241470205,-0.686768,0.736084,-0.076904
1519241470224,-0.677734,0.772705,-0.079590
1519241470258,-0.675049,0.779785,-0.089600
1519241470293,-0.689697,0.757568,-0.101807
1519241470327,-0.689453,0.746094,-0.116455
1519241470359,-0.686523,0.749756,-0.106934
1519241470388,-0.683594,0.752686,-0.096436
1519241470422,-0.679443,0.754883,-0.084473
1519241470457,-0.676514,0.751465,-0.096436
1519241470491,-0.679443,0.762451,-0.094727
1519241470524,-0.655029,0.750488,-0.104980
1519241470541,-0.667480,0.759521,-0.099365
1519241470575,-0.674316,0.780273,-0.103027
1519241470621,-0.678467,0.752197,-0.097656
1519241470646,-0.676270,0.748047,-0.102783
1519241470673,-0.676025,0.753662,-0.100830
1519241470706,-0.667480,0.770752,-0.106689
1519241470740,-0.677246,0.771729,-0.107422
1519241470775,-0.668457,0.762207,-0.107178
1519241470803,-0.670166,0.764893,-0.106689
1519241470838,-0.676514,0.760498,-0.103760
1519241470872,-0.665527,0.763428,-0.109375
1519241470925,-0.669189,0.742432,-0.096191
1519241470939,-0.661865,0.758545,-0.107178
1519241470976,-0.680176,0.792480,-0.133789
1519241471003,-0.673096,0.758301,-0.099609
1519241471064,-0.670654,0.763428,-0.089355
1519241471067,-0.675537,0.750000,-0.106689
1519241471105,-0.678223,0.756104,-0.101074
1519241471124,-0.675049,0.757324,-0.104492
1519241471158,-0.677979,0.754639,-0.105713
1519241471203,-0.675537,0.766602,-0.101807
1519241471222,-0.672852,0.757568,-0.102783
1519241471263,-0.676025,0.761963,-0.105225
1519241471302,-0.676025,0.761719,-0.095947
1519241471321,-0.674561,0.755127,-0.098389
1519241471356,-0.676758,0.754150,-0.103760
1519241471386,-0.676270,0.763428,-0.102783
1519241471425,-0.671875,0.760010,-0.101074
1519241471455,-0.674561,0.755615,-0.099854
1519241471487,-0.674561,0.758545,-0.102539
1519241471523,-0.672119,0.769531,-0.102295
1519241471538,-0.674561,0.762695,-0.102051
1519241471583,-0.669922,0.760010,-0.099854
1519241471622,-0.673096,0.762695,-0.099121
1519241471634,-0.669678,0.761475,-0.099121
1519241471685,-0.673096,0.757324,-0.103271
1519241471711,-0.673340,0.761719,-0.100098
1519241471759,-0.667969,0.766113,-0.099121
1519241471770,-0.673584,0.765869,-0.095459
1519241471804,-0.673096,0.747559,-0.102295
1519241471858,-0.668457,0.753662,-0.107178
1519241471902,-0.675049,0.771484,-0.096924
1519241471904,-0.668945,0.763184,-0.101807
1519241471935,-0.672607,0.754639,-0.099854
1519241472226,-0.670166,0.756348,-0.096436
1519241472294,-0.669189,0.770508,-0.100098
1519241472295,-0.668213,0.769043,-0.099609
1519241472362,-0.671631,0.763184,-0.096924
1519241472364,-0.667969,0.765137,-0.095947
1519241472431,-0.665771,0.766602,-0.099365
1519241472432,-0.670410,0.765869,-0.098877
1519241472500,-0.667236,0.770264,-0.101807
1519241472501,-0.666992,0.767578,-0.093750
1519241472522,-0.666504,0.765869,-0.097168
1519241472524,-0.666992,0.767822,-0.098389
1519241472525,-0.667725,0.766602,-0.098877
1519241472526,-0.664307,0.765869,-0.097900
1519241472529,-0.667725,0.765137,-0.097900
1519241472534,-0.667236,0.763428,-0.104980
1519241472537,-0.670166,0.761719,-0.115479
1519241472541,-0.675781,0.749023,-0.131592
1519241472553,-0.678955,0.750244,-0.141602
1519241472567,-0.669434,0.773193,-0.131104
1519241472580,-0.659180,0.806641,-0.102051
1519241472613,-0.658447,0.793457,-0.087891
1519241472649,-0.652832,0.779053,-0.046631
1519241472682,-0.648682,0.788086,-0.020996
1519241472710,-0.643555,0.764648,0.041504
1519241472751,-0.643555,0.805176,0.015625
1519241472789,-0.654053,0.780029,-0.015381
1519241472795,-0.659180,0.757568,-0.029297
1519241472846,-0.654053,0.776367,-0.010742
1519241472884,-0.645264,0.787598,-0.014404
1519241472898,-0.647705,0.790283,-0.031250
1519241472931,-0.649658,0.813965,-0.052002
1519241472979,-0.649414,0.790283,-0.060059
1519241472995,-0.659424,0.773926,-0.062744
1519241473085,-0.652100,0.782959,-0.061279
1519241473086,-0.657471,0.784180,-0.064209
1519241473096,-0.645264,0.792236,-0.052002
1519241473131,-0.651367,0.786133,-0.047363
1519241473165,-0.646729,0.789063,-0.047363
1519241473194,-0.645996,0.790039,-0.050781
1519241473227,-0.649902,0.778564,-0.046387
1519241473261,-0.651855,0.781982,-0.050781
1519241473279,-0.648438,0.782471,-0.052979
1519241473330,-0.650391,0.787109,-0.061279
1519241473348,-0.647217,0.791260,-0.054443
1519241473375,-0.645264,0.786133,-0.052002
1519241473433,-0.646240,0.788818,-0.057861
1519241473444,-0.648682,0.788818,-0.062012
1519241473485,-0.648926,0.783447,-0.056885
1519241473513,-0.651123,0.782959,-0.060059
1519241473546,-0.645020,0.798340,-0.059326
1519241473574,-0.638672,0.811768,-0.060059
1519241473609,-0.646484,0.783936,-0.060303
1519241473644,-0.647949,0.780273,-0.059814
1519241473677,-0.644775,0.796875,-0.054932
1519241473712,-0.642578,0.785889,-0.056152
1519241473746,-0.636475,0.805176,-0.040039
1519241473764,-0.631592,0.811035,-0.038818
1519241473825,-0.634277,0.783447,-0.048340
1519241473844,-0.630127,0.795898,-0.028076
1519241473862,-0.628662,0.799561,-0.023926
1519241473912,-0.628418,0.804443,-0.032471
1519241473928,-0.622314,0.797852,-0.035889
1519241473963,-0.636475,0.803223,-0.044434
1519241474008,-0.629639,0.800781,-0.028564
1519241474025,-0.628906,0.800781,-0.022461
1519241474059,-0.624512,0.793701,-0.027100
1519241474093,-0.625488,0.810791,-0.038086
1519241474127,-0.636963,0.813721,-0.028564
1519241474161,-0.630859,0.790771,-0.036621
1519241474189,-0.638916,0.797852,-0.031982
1519241474223,-0.635498,0.792236,-0.025391
1519241474258,-0.632568,0.803467,-0.025391
1519241474293,-0.639160,0.796875,-0.034424
1519241474326,-0.638184,0.800293,-0.035156
1519241474344,-0.634033,0.796875,-0.020996
1519241474389,-0.638916,0.796143,-0.030273
1519241474423,-0.634277,0.797119,-0.032715
1519241474441,-0.640869,0.795410,-0.030518
1519241474492,-0.636963,0.789063,-0.024658
1519241474509,-0.638672,0.774170,-0.033936
1519241474543,-0.641113,0.832764,-0.029297
1519241474589,-0.626465,0.793701,-0.024902
1519241474605,-0.667480,0.780518,-0.049072
1519241474639,-0.644287,0.781006,-0.027832
1519241474674,-0.642822,0.793213,-0.018066
1519241474708,-0.645020,0.782227,-0.022217
1519241474741,-0.647949,0.791260,-0.027832
1519241474770,-0.647217,0.786621,-0.019531
1519241474804,-0.651123,0.792725,-0.031738
1519241474839,-0.651123,0.790771,-0.022217
1519241474873,-0.639404,0.810547,-0.027588
1519241474907,-0.645996,0.806885,-0.017578
