1519672124053,1.296875,0.911377,-0.093750
1519672124103,1.527588,0.696777,-0.157715
1519672124153,1.622314,0.391846,-0.324219
1519672124155,1.231445,0.323486,-0.213867
1519672124214,1.038086,0.265625,-0.108887
1519672124221,0.451172,0.321289,-0.395752
1519672124272,0.204346,0.444092,-0.465332
1519672124278,0.277344,0.387695,-0.370117
1519672124333,0.369873,0.347656,-0.215820
1519672124343,0.356934,0.322754,-0.156494
1519672124393,0.359131,0.497314,-0.091064
1519672124426,0.405762,0.645752,-0.046143
1519672124458,0.640137,0.780273,0.024170
1519672124489,0.979004,0.819580,0.033936
1519672124503,1.041504,0.805908,-0.067139
1519672124562,1.039551,0.864258,0.060059
1519672124575,1.145508,0.860352,0.101318
1519672124603,1.478271,0.613281,-0.323975
1519672124635,1.182373,0.357666,-0.364990
1519672124668,1.250732,0.105713,-0.259521
1519672124725,1.199951,0.156250,-0.314697
1519672124757,0.937012,0.215332,-0.362793
1519672124760,0.719727,0.264160,-0.191895
1519672124817,0.572998,0.371094,-0.047852
1519672124850,0.492188,0.364990,-0.064453
1519672124855,0.427734,0.376465,-0.107422
1519672124908,0.425293,0.281250,-0.210205
1519672124942,0.494385,0.257324,-0.268066
1519672124975,0.604492,0.256348,-0.291016
1519672124984,0.774170,0.203125,-0.249756
1519672125037,1.039063,0.244629,-0.222900
1519672125070,1.411377,0.416016,-0.188232
1519672125107,1.534180,0.908447,0.106201
1519672125137,1.823730,1.216553,0.386963
1519672125169,1.546631,0.702881,-0.008301
1519672125202,1.106201,0.647705,-0.421875
1519672125234,1.104492,0.462402,-0.396484
1519672125266,1.344482,0.269043,-0.269043
1519672125300,1.242676,0.118896,-0.024170
1519672125304,1.083496,0.221436,0.044434
1519672125345,0.851074,0.263916,-0.056396
1519672125383,0.578369,0.273926,-0.298340
1519672125415,0.448975,0.220703,-0.330566
1519672125448,0.333496,0.218262,-0.310059
1519672125480,0.318604,0.289795,-0.187012
1519672125513,0.353760,0.408203,-0.120117
1519672125548,0.404053,0.425781,-0.060059
1519672125580,0.555420,0.607666,0.027344
1519672125613,0.704346,0.616455,0.093018
1519672125645,0.900635,0.618896,0.094238
1519672125678,1.024414,0.616455,0.108154
1519672125710,1.327637,0.637451,0.033691
1519672125724,1.597900,0.697510,-0.167969
1519672125782,1.137451,0.742920,-0.173096
1519672125814,0.957275,0.359619,-0.093750
1519672125816,1.041016,0.251953,-0.125488
1519672125873,1.078613,0.271240,-0.262451
1519672125881,0.903076,0.325684,-0.273193
1519672125937,0.736084,0.369141,-0.185547
1519672125969,0.598389,0.453857,-0.068359
1519672125977,0.499023,0.418213,-0.101318
1519672126035,0.464844,0.315186,-0.163574
1519672126108,0.602295,0.282715,-0.196289
1519672126114,0.746094,0.255371,-0.213867
1519672126175,0.829102,0.263916,-0.194092
1519672126183,1.124023,0.248047,-0.186035
1519672126241,1.310303,0.234375,-0.171875
1519672126244,1.360840,0.231689,-0.135254
1519672126308,1.593262,0.271973,-0.096924
1519672126310,1.349365,0.350830,-0.092041
1519672126375,1.192383,0.487793,0.050293
1519672126378,0.990967,0.491699,0.062256
1519672126443,1.025146,0.290771,0.056396
1519672126446,1.083984,0.218750,0.142090
1519672126511,0.986572,0.246338,0.149658
1519672126581,0.873779,0.267578,0.122803
1519672126600,0.759033,0.314209,0.116699
1519672126606,0.613037,0.278809,0.102783
1519672126611,0.579590,0.246338,0.080322
1519672126616,0.628662,0.223389,0.047607
1519672126633,0.532959,0.285400,0.042236
1519672126663,0.524170,0.285156,0.051025
1519672126695,0.615479,0.274414,0.029297
1519672126727,0.896729,0.229736,-0.047119
1519672126760,1.108154,0.263184,-0.125732
1519672126793,1.266357,0.367188,-0.161377
1519672126825,1.416992,0.418701,-0.194092
1519672126858,1.861572,0.627441,-0.157471
1519672126890,1.354492,0.936768,-0.119385
1519672126923,0.929932,0.482666,-0.122314
1519672126955,1.091309,0.333740,-0.191406
1519672126988,1.207031,0.324707,-0.296143
1519672127020,0.899658,0.313965,-0.247314
1519672127053,0.752441,0.349365,-0.147949
1519672127085,0.685059,0.331299,-0.072998
1519672127117,0.556885,0.269531,-0.091553
1519672127151,0.524414,0.237061,-0.133789
1519672127183,0.712158,0.155273,-0.168701
1519672127215,0.871338,0.172119,-0.165771
1519672127248,0.937500,0.195557,-0.154297
1519672127280,1.061768,0.201172,-0.154541
1519672127313,1.294189,0.217529,-0.101807
1519672127345,1.339600,0.173828,-0.055176
1519672127378,1.395752,0.098389,-0.030273
1519672127410,1.298340,0.126465,-0.074219
1519672127443,1.024658,0.384277,0.076660
1519672127479,1.090088,0.446533,0.185059
1519672127511,1.201172,0.331299,0.109619
1519672127544,1.158203,0.223877,0.150391
1519672127576,0.970459,0.391602,0.285645
1519672127609,0.713867,0.461182,0.336182
1519672127641,0.599609,0.439697,0.318359
1519672127674,0.480225,0.410645,0.223145
1519672127706,0.467529,0.292725,0.110352
1519672127747,0.548096,0.260498,0.029053
1519672127750,0.605225,0.230713,-0.037109
1519672127806,0.682373,0.231445,-0.077148
1519672127839,0.819092,0.229004,-0.094482
1519672127841,1.084961,0.217773,-0.150635
1519672127897,1.321289,0.288574,-0.219482
1519672127943,1.340576,0.398193,-0.201660
1519672127945,1.463623,0.450928,-0.180420
1519672128002,1.623535,0.884277,-0.121094
1519672128004,1.026611,0.804932,-0.009033
1519672128060,0.985596,0.556396,0.042480
1519672128093,1.019531,0.339355,-0.054443
1519672128125,1.115479,0.250000,-0.210693
1519672128139,1.092529,0.309570,-0.140625
1519672128172,0.873047,0.300049,-0.015625
1519672128204,0.689697,0.281982,0.003418
1519672128236,0.586426,0.328613,-0.022705
1519672128294,0.596191,0.253906,-0.058594
1519672128297,0.713379,0.208740,-0.094727
1519672128327,0.805664,0.208252,-0.111328
1519672128360,0.989014,0.197021,-0.087891
1519672128393,1.232422,0.193359,-0.071533
1519672128427,1.182373,0.135254,-0.085205
1519672128460,1.232910,0.147461,0.024414
1519672128493,1.278564,0.181152,0.120850
1519672128525,1.269775,0.199707,0.102539
1519672128565,0.807373,0.340332,0.147217
1519672128598,0.887207,0.386719,0.262207
1519672128630,1.133057,0.373779,0.253418
1519672128663,1.138184,0.228760,0.047607
1519672128695,0.925781,0.264648,0.071289
1519672128703,0.852783,0.330322,0.142334
1519672128760,0.700684,0.350342,0.094482
1519672128793,0.603271,0.322021,0.054199
1519672128801,0.512207,0.338135,0.062500
1519672128856,0.487793,0.453857,0.090088
1519672128889,0.602783,0.390869,0.043701
1519672128922,0.912109,0.371582,-0.044678
1519672128954,1.068848,0.452637,-0.053467
1519672128968,1.358887,0.622559,-0.121582
1519672129000,1.319092,0.917236,-0.380371
1519672129033,1.230225,1.066895,-0.583008
1519672129072,1.071777,0.952148,-0.627441
1519672129104,1.175049,0.880859,-0.107178
1519672129136,1.642334,0.555420,-0.169922
1519672129169,1.708496,0.554199,-0.391113
1519672129223,1.831055,0.420654,-0.550781
1519672129255,1.617432,0.215820,-0.402588
1519672129289,1.154541,0.148682,-0.467773
1519672129291,0.642090,-0.298096,-0.043213
1519672129353,0.826660,0.069336,-0.193115
1519672129354,1.112549,-0.123047,0.002441
1519672129389,1.476318,-0.355469,0.338867
1519672129446,1.988770,-0.274170,0.331299
1519672129448,2.195801,-0.593262,0.469971
1519672129505,1.285889,-0.359375,0.721680
1519672129537,0.620117,-0.147949,0.596924
1519672129570,0.637451,0.103760,0.216064
1519672129604,0.691895,0.580322,-0.414795
1519672129637,0.831055,1.192627,-0.611816
1519672129669,0.680176,1.081055,-0.987793
1519672129701,0.151611,1.058350,-1.118408
1519672129734,-0.101807,1.367432,-0.702637
1519672129767,0.290771,0.873535,-1.091064
1519672129781,1.467773,1.013672,-1.148682
1519672129817,2.309082,1.135254,-0.541748
1519672129849,2.313232,1.064697,0.082031
1519672129882,1.945557,0.861328,0.250000
1519672129901,1.275635,0.607910,0.218506
1519672129934,0.682129,0.135254,0.349121
1519672129966,0.299316,0.492188,0.278564
1519672129999,0.535645,0.581055,0.054199
1519672130032,0.979736,-0.052246,0.043945
1519672130064,1.106201,-0.354980,0.003418
1519672130122,1.249268,-0.020752,0.069824
1519672130154,1.511963,0.124268,0.083984
1519672130156,2.332031,-0.009033,-0.023682
1519672130213,1.295898,0.427979,0.091553
1519672130245,0.944580,0.298828,0.199707
1519672130248,0.529785,0.009521,0.306885
1519672130304,0.459961,0.132324,0.159424
1519672130336,0.559326,0.345215,0.053223
1519672130372,0.654541,0.346191,-0.036865
1519672130404,0.811523,0.016846,-0.276367
1519672130411,1.250488,0.009277,-0.370361
1519672130468,1.676758,0.277100,-0.456787
1519672130503,1.995850,0.694580,-0.457764
1519672130535,1.623291,0.730469,-0.456787
1519672130567,1.360840,0.720703,-0.584229
1519672130581,1.467529,0.788818,-0.353760
1519672130614,1.362549,0.968506,-0.426025
1519672130646,1.503906,1.002930,-0.687988
1519672130679,1.372803,1.112061,-0.493408
1519672130736,1.115967,0.841553,-0.053223
1519672130739,1.250488,0.540283,0.042725
1519672130795,1.716797,0.231934,-0.145020
1519672130833,1.682129,0.176514,-0.282471
1519672130842,1.401855,0.003174,-0.248779
1519672130899,1.227783,0.036865,-0.134766
1519672130902,1.183838,0.263916,-0.033447
1519672130933,1.081787,0.284424,-0.066895
1519672130977,0.858398,0.165039,-0.159668
1519672131009,0.863281,0.200684,-0.087646
1519672131042,1.020264,0.341064,0.020996
1519672131114,0.783936,0.373779,-0.079590
1519672131117,0.828613,0.641357,-0.095703
1519672131182,0.651855,1.033203,0.017090
1519672131184,0.344727,1.350586,0.177246
1519672131250,0.339355,1.344727,0.211182
1519672131255,0.242676,1.414307,0.254639
1519672131317,0.088867,1.371582,0.247559
1519672131321,0.290039,1.165039,0.214600
1519672131386,0.231201,0.914307,0.234863
1519672131394,0.057617,0.797852,0.259277
1519672131454,-0.026123,0.742432,0.192871
1519672131463,-0.138184,0.604980,0.180176
1519672131519,-0.156006,0.696045,0.098389
1519672131523,-0.225098,0.799316,-0.032227
1519672131589,-0.369385,0.939209,0.051514
1519672131598,-0.671387,0.616943,-0.155029
1519672131604,-0.883057,0.087646,-0.109619
1519672131627,-0.987061,-0.052490,-0.108887
1519672131660,-0.985840,-0.121826,-0.148193
1519672131694,-1.009521,-0.213135,0.046875
1519672131703,-1.152832,-0.064209,0.383789
1519672131751,-1.083008,0.610840,0.193848
1519672131785,-0.949951,1.058838,0.084717
1519672131797,-0.820801,1.212646,0.336426
1519672131854,-0.666992,1.203613,0.513672
1519672131858,-0.599609,0.988525,0.594971
1519672131913,-0.507813,0.682861,0.614014
1519672131946,-0.336914,0.378174,0.525879
1519672131954,-0.216309,0.308350,0.480713
1519672132011,-0.264160,0.461426,0.220703
1519672132043,-0.426025,0.506104,0.174561
1519672132076,-0.547852,0.689209,0.380127
1519672132108,-0.833496,0.763184,0.472900
1519672132140,-0.812500,0.676025,0.528320
1519672132173,-0.980469,0.572021,0.623291
1519672132205,-1.000732,0.575684,0.730957
1519672132221,-1.177979,0.472412,0.453613
1519672132277,-1.285156,0.676514,0.583008
1519672132279,-0.955811,0.663574,0.628418
1519672132338,-0.933594,0.706055,0.486328
1519672132340,-0.806152,0.739258,0.622559
1519672132372,-0.581543,0.621338,0.612305
1519672132429,-0.432861,0.329102,0.474854
1519672132437,-0.414795,0.220215,0.375244
1519672132492,-0.403809,0.082031,0.334229
1519672132525,-0.430420,-0.101074,0.418457
1519672132557,-0.556396,-0.076660,0.448242
1519672132590,-0.687988,-0.139648,0.541016
1519672132623,-0.884033,-0.300049,0.573975
1519672132636,-0.800537,-0.257568,0.588379
1519672132694,-1.000000,-0.589600,0.698242
1519672132726,-1.273682,-0.343506,0.529785
1519672132759,-1.142578,-0.375977,0.550537
1519672132766,-1.224854,-0.266113,0.632813
1519672132825,-1.001709,-0.172363,0.640137
1519672132856,-1.060791,-0.105957,0.486572
1519672132859,-0.946533,-0.000244,0.522949
1519672132890,-0.670166,-0.243408,0.439941
1519672132923,-0.428467,-0.021484,0.280518
1519672132955,-0.318359,-0.063232,0.104492
1519672132988,-0.233643,-0.384033,0.204346
1519672133020,-0.328369,-0.188721,0.284912
1519672133063,-0.495605,-0.211426,0.229004
1519672133095,-0.928955,-0.211670,0.337402
1519672133128,-1.089355,-0.163330,0.618896
1519672133160,-1.175049,-0.217041,0.716309
1519672133192,-1.279785,-0.054932,0.975586
1519672133225,-1.250488,0.052979,1.159424
1519672133234,-1.131104,0.099365,1.116699
1519672133292,-0.930420,0.354980,0.862549
1519672133324,-0.890381,0.470459,0.765381
1519672133356,-0.666504,0.577148,0.832031
1519672133389,-0.658691,0.451904,0.801514
1519672133422,-0.675537,0.445801,0.882568
1519672133435,-0.707031,0.538086,0.960205
1519672133467,-0.641602,0.577881,1.000244
1519672133525,-0.512207,0.385742,0.707764
1519672133558,-0.184326,-0.478516,0.784668
1519672133564,-0.163330,-0.358154,-0.558350
1519672133623,-1.176514,0.234131,-1.021729
1519672133655,-1.215576,0.268311,-0.645264
1519672133687,-1.022461,0.156250,0.290771
1519672133720,-1.030762,-0.850098,0.621582
1519672133723,-1.121094,-1.110596,0.634033
1519672133779,-1.360352,-0.523438,0.506348
1519672133811,-1.389160,-0.404541,0.228271
1519672133814,-1.183594,-0.356201,0.083496
1519672133870,-1.071777,-0.084229,0.173096
1519672133903,-1.026611,-0.101318,0.110352
1519672133935,-1.015381,-0.369141,0.169434
1519672133968,-0.902588,-0.140381,0.184570
1519672134000,-0.839844,-0.322510,0.172363
1519672134033,-0.694336,-0.586182,-0.049805
1519672134065,-0.587646,-0.273438,0.011963
1519672134098,-0.543457,-0.158447,0.043213
1519672134130,-0.669678,-0.284668,0.245361
1519672134163,-0.779297,0.027588,0.260742
1519672134195,-0.878906,0.093018,0.514160
1519672134230,-0.903076,-0.008057,0.717041
1519672134247,-1.054443,-0.106689,0.792480
1519672134303,-1.152588,-0.270020,0.748047
1519672134305,-1.122314,-0.196533,0.825439
1519672134343,-0.989014,-0.284180,0.805176
1519672134375,-0.966309,-0.208252,0.592773
1519672134407,-0.872070,-0.084229,0.509766
1519672134440,-0.684082,-0.192627,0.601807
1519672134473,-0.578125,-0.164063,0.619873
1519672134505,-0.524658,-0.026367,0.548096
1519672134537,-0.456787,0.042236,0.532227
1519672134570,-0.271240,-0.387451,0.724365
1519672134603,-0.381836,-0.239014,0.178711
1519672134635,-0.475830,-0.054688,0.263672
1519672134676,-0.567871,0.050049,0.373535
1519672134679,-0.687744,0.258789,0.601563
1519672134735,-0.981445,0.442139,0.596436
1519672134768,-1.035400,0.414307,0.584961
1519672134800,-1.021729,0.233643,0.504639
1519672134833,-0.932373,0.364746,0.397217
1519672134865,-0.681396,0.126953,0.272217
1519672134898,-0.323486,0.198730,-0.003174
1519672134930,0.073486,0.654297,-0.066162
1519672134963,0.299805,0.830078,-0.393799
1519672134995,0.626221,1.521484,-0.890869
1519672135028,0.703125,1.275635,-0.426758
1519672135060,0.660400,1.454346,-0.187744
1519672135101,0.568359,1.452637,-0.262939
1519672135134,0.245117,1.003662,-0.475342
1519672135140,0.278809,1.378174,-0.463135
1519672135176,0.334961,1.262939,-0.232910
1519672135209,0.549805,1.133545,0.007324
1519672135266,0.712402,0.927002,0.026611
1519672135269,0.969727,0.843994,0.114014
1519672135325,1.111328,0.789795,0.265381
1519672135328,0.999756,0.730957,0.262695
1519672135359,0.998047,0.587891,0.113770
1519672135416,0.970215,0.621826,-0.163086
1519672135449,0.945313,0.747070,-0.279297
1519672135482,0.898926,0.727539,-0.335693
1519672135495,0.904053,0.774414,-0.383301
1519672135527,0.822510,0.668213,-0.428955
1519672135560,0.662842,0.672607,-0.407471
1519672135593,0.495850,0.636230,-0.307861
1519672135625,0.437500,0.572510,-0.285889
1519672135680,0.391602,0.541748,-0.318359
1519672135713,0.401123,0.529053,-0.341797
1519672135745,0.463867,0.505127,-0.278564
1519672135778,0.591309,0.567383,-0.214355
1519672135810,0.815186,0.656738,-0.260010
1519672135843,1.146729,0.645264,-0.360596
1519672135845,1.248779,0.683594,-0.279541
1519672135877,1.400391,0.798340,-0.229980
1519672135909,1.722412,0.918945,-0.393066
1519672135942,1.179932,0.693115,-0.438965
1519672135974,0.828125,0.215820,-0.311279
1519672136006,0.943359,0.148682,-0.265625
1519672136107,1.116699,0.160400,-0.429443
1519672136109,0.858887,0.225586,-0.449463
1519672136174,0.701172,0.271240,-0.256592
1519672136177,0.573486,0.283936,-0.118408
1519672136243,0.391113,0.313965,-0.131348
1519672136246,0.400146,0.348877,-0.083496
1519672136310,0.519775,0.321777,-0.136719
1519672136314,0.735840,0.360596,-0.076904
1519672136378,0.932617,0.406494,-0.064453
1519672136380,1.202148,0.437500,-0.040039
1519672136445,1.408936,0.412598,-0.027344
1519672136448,1.345947,0.373291,-0.046143
1519672136513,1.564209,0.387695,-0.089355
1519672136515,1.210693,0.376221,-0.191406
1519672136580,1.162598,0.389893,-0.158691
1519672136583,1.138672,0.291748,-0.061768
1519672136590,1.005127,0.277100,-0.060791
1519672136593,0.863770,0.352295,-0.056396
1519672136624,0.651855,0.346680,-0.119629
1519672136656,0.527100,0.342773,-0.129639
1519672136689,0.496338,0.331299,-0.128174
1519672136722,0.501709,0.328613,-0.160889
1519672136763,0.617432,0.333740,-0.154297
1519672136795,0.675049,0.346436,-0.185547
1519672136803,0.651367,0.372314,-0.199707
1519672136859,0.897949,0.396973,-0.201416
1519672136903,1.119141,0.447998,-0.219482
1519672136905,1.222656,0.441162,-0.228516
1519672136961,1.558838,0.452393,-0.208008
1519672136968,1.868164,0.633057,-0.159668
1519672137025,1.168457,0.685547,0.070068
1519672137058,0.897217,0.493408,0.210938
1519672137090,0.919189,0.461182,0.078857
1519672137125,1.047852,0.349609,-0.020020
1519672137139,1.052002,0.147461,-0.084473
1519672137172,0.936768,0.270020,-0.112793
1519672137204,0.829346,0.322021,-0.071533
1519672137236,0.715088,0.286377,-0.030273
1519672137269,0.669678,0.230225,-0.108643
1519672137302,0.686523,0.214111,-0.128174
1519672137334,0.648193,0.210205,-0.139160
1519672137366,0.760986,0.216064,-0.128906
1519672137399,0.850098,0.228516,-0.118164
1519672137432,1.024414,0.146484,-0.153809
1519672137464,1.163818,0.164307,-0.119141
1519672137496,1.162842,0.223145,-0.062012
1519672137529,1.291504,0.331055,-0.025635
1519672137570,1.357422,0.283203,-0.010010
1519672137603,1.171143,0.274658,0.012451
1519672137635,1.327881,0.502930,0.044922
1519672137668,1.270020,0.525635,-0.018311
1519672137870,1.091309,0.502441,0.004883
1519672137871,0.946777,0.574951,0.041748
1519672137872,0.746094,0.581299,-0.046875
1519672137872,0.602539,0.499268,-0.144531
1519672137873,0.489502,0.421387,-0.231689
1519672137873,0.480713,0.420410,-0.235107
1519672137886,0.557373,0.440186,-0.228027
1519672137903,0.662598,0.396240,-0.257568
1519672137935,0.812988,0.361816,-0.274658
1519672137977,1.112549,0.385742,-0.248047
1519672138009,1.283447,0.393555,-0.221680
1519672138042,1.288086,0.456055,-0.186035
1519672138076,1.677002,0.664551,-0.099365
1519672138109,1.396240,0.610352,-0.014648
1519672138142,1.048340,0.281250,-0.065186
1519672138183,1.044678,0.212891,-0.026123
1519672138215,1.135986,0.185791,-0.076660
1519672138248,1.039307,0.199463,-0.153076
1519672138250,0.757568,0.213379,-0.211670
1519672138307,0.469727,0.173828,-0.223145
1519672138339,0.360596,0.119385,-0.251709
1519672138353,0.359863,0.027588,-0.315674
1519672138410,0.570557,0.093750,-0.333008
1519672138413,0.760986,0.126465,-0.318604
1519672138469,0.850098,0.138672,-0.328857
1519672138502,1.127441,0.129883,-0.294678
1519672138534,1.282471,0.258057,-0.217041
1519672138566,1.192139,0.330566,-0.177002
1519672138599,1.611084,0.353271,-0.216064
1519672138632,1.483154,0.573486,-0.129395
1519672138664,1.220215,0.599365,0.020264
1519672138697,1.217773,0.375977,0.027344
1519672138729,1.187744,0.244629,-0.029785
1519672138746,1.023438,0.237549,0.004639
1519672138779,0.708008,0.248047,0.038086
1519672138813,0.553467,0.302979,0.013428
1519672138845,0.479980,0.331787,0.020264
1519672138878,0.559814,0.304443,0.029785
1519672138910,0.669678,0.290771,0.013672
1519672138943,0.762207,0.258301,0.004395
1519672138975,0.932861,0.246582,-0.031738
1519672139008,1.021484,0.247070,-0.049072
1519672139044,1.159668,0.293701,-0.056641
1519672139076,1.508301,0.406982,-0.067383
1519672139109,1.657715,0.505859,-0.113281
1519672139141,1.274902,0.556641,-0.268555
1519672139183,0.829346,0.489990,-0.106445
1519672139215,0.845215,0.433838,-0.133301
1519672139218,0.854492,0.319092,-0.237549
1519672139274,0.892822,0.277100,-0.232178
1519672139279,0.747559,0.296143,-0.163818
1519672139337,0.677002,0.369141,-0.104736
1519672139369,0.671387,0.469482,-0.069092
1519672139376,0.675293,0.421631,-0.114990
1519672139433,0.716309,0.401855,-0.141357
1519672139463,0.763672,0.423096,-0.109131
1519672139495,0.861084,0.409180,-0.069824
1519672139528,0.902344,0.393799,-0.056152
1519672139560,1.097900,0.371826,-0.023438
1519672139575,1.288330,0.304443,-0.018311
1519672139633,1.258057,0.295410,0.006104
1519672139666,1.328613,0.222412,-0.032715
1519672139698,1.347656,0.194092,-0.059814
1519672139700,1.079590,0.245117,-0.026367
1519672139757,0.847900,0.324951,0.010010
1519672139789,0.972412,0.321777,-0.001465
1519672139791,1.017090,0.356689,-0.062256
1519672139848,0.875000,0.385986,-0.088135
1519672139880,0.772217,0.387695,-0.094482
1519672139913,0.648926,0.375732,-0.132324
1519672139945,0.554443,0.329834,-0.264160
1519672139978,0.554688,0.353271,-0.327881
1519672139992,0.601074,0.418457,-0.328125
1519672140024,0.787354,0.430664,-0.320313
1519672140081,0.915527,0.441406,-0.337646
1519672140114,1.139893,0.561768,-0.348389
1519672140121,1.314697,0.817627,-0.186279
1519672140178,1.312744,0.809570,-0.089844
1519672140210,1.416748,1.050049,0.035156
1519672140243,1.583008,0.979492,-0.041748
1519672140275,1.436523,0.204102,-0.373535
1519672140277,1.349365,-0.162598,-0.270996
1519672140334,1.405029,-0.187012,-0.025635
1519672140368,1.009521,0.141357,0.038330
1519672140372,0.697754,0.367432,0.067383
1519672140413,0.502930,0.359375,0.053223
1519672140445,0.471191,0.239258,0.010986
1519672140479,0.507568,0.149902,-0.010010
1519672140511,0.668945,0.102295,-0.046631
1519672140544,0.844727,0.086182,-0.073730
1519672140576,0.846436,0.138672,-0.023193
1519672140609,1.113037,0.054688,-0.007813
1519672140641,1.103516,0.101807,0.019043
1519672140674,1.524414,0.191406,-0.037109
1519672140707,1.722412,0.488281,-0.046875
1519672140743,1.808105,0.565918,-0.028809
1519672140775,1.587402,0.547119,-0.153564
1519672140816,1.221191,0.541748,-0.121582
1519672140822,0.874268,0.652100,-0.140625
1519672140879,0.609863,0.734131,-0.312988
1519672140912,0.331787,0.725098,-0.446777
1519672140918,0.286621,0.502441,-0.460449
1519672140953,0.394531,0.380615,-0.411377
1519672141010,0.565674,0.393799,-0.351807
1519672141043,0.734131,0.610352,-0.299072
1519672141115,1.052979,0.630371,-0.201172
1519672141118,1.349365,0.580078,-0.110107
1519672141183,1.356934,1.028320,0.169434
1519672141252,1.814941,0.245117,-0.398926
1519672141318,1.441895,0.128906,-0.567871
1519672141320,0.902344,-0.093994,-0.274658
1519672141385,0.916260,-0.141357,-0.351318
1519672141388,0.982422,0.133057,-0.571289
1519672141453,0.902588,0.204102,-0.474365
1519672141455,0.675537,0.187012,-0.267822
1519672141520,0.663574,0.291504,-0.076172
1519672141523,0.624512,0.305908,-0.037842
1519672141583,0.670410,0.268066,0.101807
1519672141585,0.755615,0.231445,0.022705
1519672141588,0.843750,0.348145,-0.006836
1519672141590,0.729248,0.348145,-0.099121
1519672141600,0.805908,0.543945,-0.218506
1519672141603,0.831299,0.507568,-0.036621
1519672141635,0.937500,0.389893,0.079346
1519672141693,1.048096,0.372070,0.096191
1519672141725,1.372803,0.353760,-0.019531
1519672141732,1.530518,0.252686,-0.168457
1519672141789,1.512207,0.216064,-0.186279
1519672141822,1.485107,0.263916,-0.181152
1519672141824,1.185303,0.212646,-0.153076
1519672141880,1.039063,0.180420,0.010742
1519672141886,0.851807,0.209473,0.027588
1519672141933,0.652832,0.243408,-0.027832
1519672141965,0.519531,0.223877,-0.101807
1519672141998,0.497559,0.156250,-0.150391
1519672142023,0.545166,0.128174,-0.179932
1519672142055,0.656982,0.182861,-0.219727
1519672142088,0.690430,0.231201,-0.268311
1519672142121,0.948975,0.218262,-0.323486
1519672142153,1.453613,0.330322,-0.437500
1519672142186,1.534668,0.502197,-0.522217
1519672142218,1.284180,0.541260,-0.546875
1519672142251,1.466064,0.229004,-0.400391
1519672142283,1.413086,0.703613,-0.119629
1519672142316,1.062500,1.275391,0.173096
1519672142348,0.975830,0.851563,-0.106934
1519672142380,1.265381,0.615234,-0.339844
1519672142421,1.436035,0.139404,-0.319580
1519672142454,1.244141,-0.273193,-0.035889
1519672142487,0.869141,-0.334717,0.096924
1519672142519,0.663818,0.073486,-0.029785
1519672142552,0.652100,0.317871,-0.083496
1519672142584,0.727783,0.371582,-0.100342
1519672142616,0.794434,0.164307,-0.141357
1519672142649,0.961914,0.101807,-0.188232
1519672142682,1.070313,0.017578,-0.192383
1519672142684,1.306152,0.014648,-0.215820
1519672142740,1.218262,0.085938,-0.237793
1519672142773,1.212158,0.262451,-0.251953
1519672142787,1.316162,0.520752,-0.224854
1519672142844,1.095703,0.739258,-0.061035
1519672142847,0.794922,0.938232,0.023682
1519672142905,0.831055,1.066406,0.050537
1519672142938,0.866211,0.884277,0.043701
1519672142944,0.830078,0.779785,0.065674
1519672143002,0.680176,0.696777,0.147949
1519672143034,0.488525,0.545166,0.137695
1519672143066,0.401855,0.427734,0.088135
1519672143099,0.323975,0.373535,0.076172
1519672143132,0.302002,0.351563,0.036133
1519672143164,0.385742,0.463867,-0.057129
1519672143197,0.432373,0.588623,-0.192871
1519672143212,0.479492,0.822998,-0.342285
1519672143269,0.581543,0.906738,-0.466797
1519672143271,0.606445,0.920166,-0.543701
1519672143334,0.684082,0.952881,-0.452881
1519672143345,0.937744,0.935059,-0.429199
1519672143401,0.980225,0.917969,-0.417969
1519672143455,0.765137,0.828613,-0.265137
1519672143457,0.774658,0.685547,-0.180176
1519672143462,0.858887,0.512939,-0.221680
1519672143514,0.953613,0.327881,-0.321777
1519672143569,0.855469,0.295654,-0.309326
1519672143571,0.675293,0.338379,-0.238525
1519672143624,0.532959,0.355713,-0.159912
1519672143627,0.511719,0.396729,-0.204834
1519672143679,0.572754,0.405273,-0.242920
1519672143725,0.763916,0.501953,-0.222168
1519672143728,0.890137,0.573486,-0.155518
1519672143761,0.902344,0.526123,-0.104736
1519672143835,1.304932,0.572021,-0.045898
1519672143838,1.445801,0.489258,-0.035156
1519672143889,1.389404,0.495117,-0.036133
1519672143891,1.293945,0.414307,-0.071533
1519672143924,1.314941,0.423340,-0.006836
1519672143944,1.148926,0.368896,-0.008057
1519672143998,1.005615,0.262695,-0.031982
1519672144050,0.959229,0.220459,-0.028809
1519672144064,0.888184,0.296875,-0.023926
1519672144089,0.740723,0.332031,-0.019531
1519672144135,0.607422,0.300781,-0.000244
1519672144140,0.501709,0.262695,0.020996
1519672144195,0.452393,0.266113,0.025879
1519672144249,0.447998,0.302246,0.033447
1519672144251,0.457275,0.327148,0.018311
1519672144296,0.560547,0.469727,0.059082
1519672144298,0.750000,0.561279,0.018555
1519672144335,1.052979,0.470947,-0.125488
1519672144382,1.361816,0.431396,-0.241211
1519672144417,1.347168,0.431152,-0.215576
1519672144425,1.528076,0.421631,-0.254883
1519672144462,1.336914,0.474854,-0.285645
1519672144494,0.973389,0.610107,-0.159668
1519672144527,0.937988,0.563721,-0.152344
1519672144559,1.016602,0.334229,-0.278320
1519672144590,1.114258,0.167480,-0.312500
1519672144645,1.036133,0.129639,-0.235352
1519672144678,0.915771,0.235840,-0.118896
1519672144710,0.822510,0.273193,-0.072266
1519672144743,0.787598,0.234375,-0.042480
1519672144776,0.765869,0.178711,-0.041016
1519672144809,0.823486,0.207764,-0.057129
1519672144811,0.858154,0.148682,-0.026611
1519672144869,0.871582,0.132813,-0.027832
1519672144874,0.903564,0.140625,-0.040771
1519672144907,1.113281,0.135010,-0.031006
1519672144939,1.168701,0.157959,0.001465
1519672144972,1.172119,0.224854,0.050537
1519672145004,1.290527,0.218018,0.032227
1519672145062,1.230225,0.200928,-0.021973
1519672145094,1.112061,0.301025,0.020996
1519672145102,1.134033,0.297852,-0.009766
1519672145158,1.048828,0.245605,-0.116211
1519672145191,1.031494,0.293457,-0.150635
1519672145223,0.924316,0.401611,-0.141113
1519672145256,0.732910,0.403564,-0.151123
1519672145258,0.595459,0.343506,-0.183105
1519672145302,0.554688,0.362061,-0.187988
1519672145359,0.615723,0.407471,-0.184082
1519672145362,0.701172,0.481689,-0.176514
1519672145393,0.762207,0.506104,-0.169678
1519672145425,0.939697,0.479980,-0.158447
1519672145458,1.198975,0.519531,-0.134766
1519672145491,1.208740,0.580322,-0.095703
1519672145529,1.289795,0.737061,-0.032715
1519672145562,1.599365,0.771729,-0.102295
1519672145594,1.491699,0.584717,-0.247559
1519672145627,1.051758,0.028076,-0.291504
1519672145659,1.075195,-0.097656,-0.170410
1519672145673,1.239258,-0.033936,-0.113770
1519672145731,1.153564,0.140625,-0.202881
1519672145763,0.874756,0.241455,-0.208008
1519672145768,0.648193,0.219482,-0.184570
1519672145826,0.416016,0.147217,-0.163086
1519672145863,0.365967,0.136719,-0.154053
1519672145869,0.421387,0.125488,-0.161621
1519672145927,0.641846,0.151611,-0.134521
1519672145933,0.804443,0.187012,-0.093750
1519672145969,0.988770,0.173096,-0.058594
1519672146002,1.310791,0.196289,0.047119
1519672146034,1.220947,0.134033,0.045898
1519672146107,1.400146,0.424805,0.107422
1519672146109,1.558105,0.352051,0.054688
1519672146174,1.312256,0.458740,-0.087646
1519672146176,1.221436,0.781494,0.033936
1519672146242,1.121582,0.496094,-0.066650
1519672146244,1.151855,0.065430,-0.284668
1519672146309,1.007080,0.136719,-0.348389
1519672146311,0.731934,0.266846,-0.310791
1519672146377,0.546631,0.281006,-0.256104
1519672146379,0.479492,0.308105,-0.163574
1519672146444,0.502930,0.355957,-0.057373
1519672146512,0.637207,0.432861,-0.006348
1519672146514,0.683838,0.475830,0.012695
1519672146579,0.699463,0.410645,-0.021729
1519672146582,0.993896,0.403320,-0.010986
1519672146595,1.341064,0.380859,-0.049072
1519672146598,1.253418,0.417236,-0.029785
1519672146629,1.506836,0.502197,-0.029297
1519672146663,1.611572,0.607910,-0.141846
1519672146695,1.055176,0.275391,-0.220947
1519672146728,0.857666,0.134521,-0.151611
1519672146763,0.972168,0.101807,-0.129883
1519672146795,1.152344,0.084229,-0.228027
1519672146797,1.055420,0.081299,-0.283936
1519672146854,0.868408,0.099121,-0.243164
1519672146886,0.654785,0.174316,-0.142334
1519672146894,0.539307,0.211914,-0.087402
1519672146932,0.487305,0.179199,-0.079346
1519672146964,0.588379,0.181641,-0.058350
1519672146997,0.767090,0.199707,-0.053711
1519672147054,0.826416,0.176025,-0.067871
1519672147087,1.006836,0.219727,-0.063721
1519672147094,1.280518,0.249023,0.018799
1519672147143,1.414063,0.276367,0.148438
1519672147175,1.456787,0.264893,0.079590
1519672147208,1.426270,0.332764,0.055420
1519672147213,1.390137,0.475098,0.020264
1519672147270,1.049072,0.612793,-0.016846
1519672147304,1.044678,0.366455,-0.041992
1519672147311,1.008301,0.264160,-0.088135
1519672147368,0.943115,0.264648,-0.115234
1519672147401,0.816650,0.251465,-0.142578
1519672147433,0.668457,0.247070,-0.164795
1519672147466,0.507324,0.224121,-0.135498
1519672147498,0.460205,0.223877,-0.114990
1519672147530,0.514404,0.289063,-0.072754
1519672147563,0.561279,0.297607,0.046631
1519672147595,0.624756,0.288086,0.025146
1519672147628,0.860840,0.341064,0.034668
1519672147661,1.172119,0.412109,-0.020020
1519672147693,1.180176,0.376465,-0.036377
1519672147728,1.476563,0.414795,-0.057617
1519672147742,1.704102,0.616699,-0.099365
1519672147799,1.118164,0.570068,-0.098877
1519672147801,0.879639,0.358398,-0.003174
1519672147858,1.020752,0.278564,-0.114502
1519672147862,1.166016,0.208984,-0.218994
1519672147894,1.042969,0.105469,-0.233643
1519672147952,0.792969,0.182129,-0.134277
1519672147960,0.640381,0.217285,-0.070557
1519672148016,0.559814,0.194580,-0.077637
1519672148048,0.530029,0.169189,-0.135742
1519672148080,0.612305,0.227295,-0.160156
1519672148113,0.749023,0.289307,-0.105713
1519672148145,0.919922,0.265137,-0.062988
1519672148159,1.061768,0.240723,-0.087891
1519672148192,1.295654,0.230469,-0.057373
1519672148249,1.375977,0.175049,-0.012939
1519672148251,1.405762,0.230957,-0.036377
1519672148283,1.253174,0.318848,-0.044434
1519672148341,1.177734,0.416260,0.004639
1519672148342,0.990723,0.412598,0.005127
1519672148374,1.084473,0.407959,0.007080
1519672148423,1.018311,0.376221,0.111328
1519672148455,0.900391,0.378418,0.066895
1519672148488,0.755127,0.375244,-0.014893
1519672148520,0.625244,0.333252,-0.053955
1519672148553,0.543213,0.296387,-0.040283
1519672148594,0.491943,0.308594,-0.069824
1519672148626,0.537109,0.276855,-0.083740
1519672148659,0.572266,0.273193,-0.097168
1519672148662,0.719482,0.252197,-0.133789
1519672148719,1.093506,0.343262,-0.207764
1519672148752,1.194580,0.387207,-0.224121
1519672148755,1.235840,0.263916,-0.226563
1519672148813,1.776611,0.483398,-0.154785
1519672148846,1.601563,0.758057,-0.081299
1519672148878,1.021240,0.459473,-0.004150
1519672148910,0.927246,0.293457,-0.059082
1519672148943,1.088379,0.201904,-0.162354
1519672148976,1.118408,0.065430,-0.218994
1519672148989,0.799072,0.107910,-0.222656
1519672149047,0.671875,0.161621,-0.183105
1519672149079,0.571045,0.188477,-0.131836
1519672149086,0.510254,0.080078,-0.147217
1519672149143,0.562012,0.065186,-0.184082
1519672149177,0.654541,0.094971,-0.199463
1519672149209,0.811035,0.097656,-0.190674
1519672149242,0.999512,0.048584,-0.224121
1519672149245,1.168457,-0.010010,-0.308350
1519672149302,1.327881,0.023926,-0.267334
1519672149333,1.448975,0.179932,-0.241699
1519672149337,1.600098,0.562256,-0.050049
1519672149397,1.344482,0.982422,0.436768
1519672149405,1.196533,0.778320,0.328369
1519672149462,1.330322,0.628174,-0.105225
1519672149493,1.452881,0.316650,0.108643
1519672149526,1.196289,0.244141,0.084717
1519672149559,1.117432,0.681396,-0.064697
1519672149592,0.652588,0.338867,-0.284912
1519672149624,0.395264,0.492432,-0.158936
1519672149661,0.369141,0.648193,-0.306885
1519672149704,0.240234,0.507568,-0.152832
1519672149710,0.300293,0.534668,-0.022949
1519672149738,0.291260,0.419922,-0.051514
1519672149770,0.307373,0.313721,-0.013916
1519672149803,0.564941,0.615479,0.011963
1519672149834,0.583252,0.711670,-0.020752
1519672149867,0.843994,0.782227,-0.033203
1519672149900,1.049072,0.795410,-0.166016
1519672149932,1.182373,0.878174,-0.178223
1519672149965,1.059326,0.877686,-0.251465
1519672149997,0.941162,0.872070,-0.225586
1519672150030,0.905518,0.806396,-0.302002
1519672150064,0.653320,0.891846,-0.108398
1519672150096,0.508057,0.846680,-0.054443
1519672150129,0.341064,0.702637,-0.064209
1519672150160,0.361084,0.539307,-0.014648
1519672150193,0.405518,0.546387,-0.000244
1519672150226,0.505859,0.549072,-0.042236
1519672150257,0.568604,0.556152,-0.016846
1519672150290,0.724121,0.642822,-0.094238
1519672150323,0.920166,0.609131,-0.087646
1519672150356,0.955078,0.760254,-0.023926
1519672150388,1.140381,0.794678,0.009277
1519672150421,1.284668,0.722412,-0.042480
1519672150454,1.022217,0.593506,-0.090332
1519672150487,1.073730,0.458740,-0.036133
1519672150520,1.094238,0.380615,0.073730
1519672150550,0.893311,0.400879,-0.084717
1519672150582,0.708984,0.517334,-0.238525
1519672150599,0.441895,0.527344,-0.419434
1519672150657,0.349365,0.803223,-0.246094
1519672150689,0.191650,0.536133,-0.513916
1519672150696,0.287842,0.476807,-0.468994
1519672150757,0.667969,0.577393,-0.181152
1519672150811,0.809570,1.011230,0.239990
1519672150813,1.202881,1.409668,0.691406
1519672150865,1.230957,0.848877,0.035400
1519672150912,1.159180,0.986816,0.032227
1519672150914,1.322021,0.672607,-0.100830
1519672150983,1.113281,0.476318,-0.377197
1519672150985,0.940918,0.370605,-0.375977
1519672150988,0.888672,0.234863,-0.317871
1519672151033,0.836182,0.246338,-0.352295
1519672151113,0.819824,0.335205,-0.371826
1519672151115,0.704590,0.461182,-0.275391
1519672151194,0.547119,0.503906,-0.103516
1519672151196,0.506104,0.702393,-0.063721
1519672151261,0.442383,0.755615,-0.087646
1519672151263,0.462158,0.991211,-0.218018
1519672151357,0.594971,0.943848,-0.245850
1519672151359,0.766846,0.906494,-0.199951
1519672151426,0.865967,0.936279,-0.216064
1519672151428,0.828857,0.670410,-0.179199
1519672151523,0.747559,0.722168,-0.120117
1519672151590,0.827393,0.644775,-0.024414
1519672151593,0.940918,0.677734,-0.073730
1519672151611,0.875732,0.643799,-0.124268
1519672151613,0.906738,0.627197,-0.060059
1519672151617,0.865723,0.624756,-0.115234
1519672151620,0.755371,0.596436,-0.196533
1519672151623,0.531006,0.637207,-0.158691
1519672151650,0.395996,0.656494,-0.126953
1519672151652,0.294189,0.604492,-0.139893
1519672151706,0.237305,0.662109,-0.132324
1519672151739,0.258789,0.719238,-0.052490
1519672151744,0.290283,0.728271,-0.072510
1519672151802,0.335693,0.892334,-0.091797
1519672151834,0.407715,0.940918,-0.121582
1519672151867,0.623779,0.981689,-0.189453
1519672151899,0.827637,0.894531,-0.281006
1519672151933,0.881104,0.876465,-0.253418
1519672151965,1.265137,0.898926,-0.228027
1519672151980,1.135498,0.819580,-0.482910
1519672152012,0.770508,0.579346,-0.378906
1519672152069,0.732178,0.471436,-0.250488
1519672152074,0.885498,0.635498,-0.372070
1519672152132,0.840576,0.673828,-0.361328
1519672152164,0.704834,0.622803,-0.200195
1519672152196,0.446533,0.552490,-0.164307
1519672152229,0.346191,0.560303,-0.193359
1519672152232,0.356934,0.549316,-0.231201
1519672152288,0.474854,0.530029,-0.245850
1519672152321,0.637451,0.598877,-0.206299
1519672152325,0.789795,0.655273,-0.203857
1519672152383,1.041504,0.736572,-0.197754
1519672152415,1.098389,0.783936,-0.163330
1519672152448,1.074463,0.838867,-0.108398
1519672152481,1.270020,1.006592,-0.173340
1519672152513,1.039795,0.972900,-0.174072
1519672152548,1.039551,0.782227,-0.079102
1519672152580,0.961914,0.741699,-0.142822
1519672152613,0.760986,0.647705,-0.180908
1519672152645,0.505859,0.582520,-0.168701
1519672152684,0.319336,0.602295,-0.147949
1519672152689,0.248047,0.576904,-0.150146
1519672152747,0.219238,0.602783,-0.215820
1519672152779,0.210693,0.685547,-0.521240
1519672152781,0.118408,1.268555,-0.450928
1519672152825,0.005859,1.428955,-0.346680
1519672152858,-0.118896,1.382568,-0.333984
1519672152891,0.050537,1.436035,-0.453369
1519672152923,0.166504,1.289307,-0.421387
1519672152955,0.076172,1.302246,-0.270752
1519672152988,-0.043457,1.451416,-0.395752
1519672153020,-0.084229,1.424561,-0.490723
1519672153053,-0.131348,1.083496,-0.436035
1519672153085,-0.337158,0.851563,-0.498535
1519672153118,-0.495605,0.652588,-0.578125
1519672153150,-0.859863,0.501709,-0.707520
1519672153183,-0.930908,0.591064,-0.292725
1519672153197,-0.550049,0.770508,0.131836
1519672153254,-0.069336,0.627441,0.497803
1519672153258,0.013428,0.483887,0.319336
1519672153290,0.059570,0.363037,0.311035
1519672153348,-0.002686,0.181396,0.240967
1519672153356,-0.278076,0.149170,0.152100
1519672153412,-0.598389,0.131592,0.367920
1519672153444,-1.002686,0.182373,0.302734
1519672153477,-1.444092,-0.134277,0.404785
1519672153485,-1.291016,-0.148926,0.644287
1519672153543,-1.069336,-0.296631,0.495850
1519672153575,-1.029785,0.116455,-0.275391
1519672153589,-0.894531,0.366211,0.004639
1519672153622,-0.655518,0.418213,0.260986
1519672153680,-0.670654,0.527588,0.058594
1519672153686,-0.672119,0.569580,-0.101563
1519672153743,-0.815430,0.545410,-0.138672
1519672153775,-0.787598,0.339111,-0.052490
1519672153779,-0.805176,0.719971,-0.035645
1519672153834,-0.969238,0.645752,-0.343018
1519672153839,-0.853516,0.359131,-0.447021
1519672153872,-0.956055,0.209717,-0.275146
1519672153930,-1.016113,0.275635,0.105713
1519672153935,-0.994873,0.662354,0.126221
1519672153994,-1.020996,0.869385,-0.054199
1519672154008,-1.122803,0.867920,-0.406982
1519672154042,-1.045410,0.940918,-0.922607
1519672154074,-0.777588,1.104004,-0.994141
1519672154107,-0.568115,0.995117,-0.694580
1519672154139,-0.560059,0.945068,-0.447998
1519672154172,-0.599121,0.861572,-0.330811
1519672154204,-0.513916,0.721436,-0.162109
1519672154236,-0.453613,0.625000,-0.015381
1519672154269,-0.382813,0.562012,-0.045898
1519672154303,-0.425781,0.519775,0.038330
1519672154339,-0.378906,0.398926,-0.006104
1519672154372,-0.415039,0.393311,-0.076172
1519672154404,-0.644531,0.526611,-0.193359
1519672154418,-0.749756,0.712891,0.002930
1519672154453,-0.846924,0.937988,0.058350
1519672154485,-0.980225,1.050293,-0.166504
1519672154518,-0.933594,1.132813,-0.182861
1519672154550,-0.738281,1.071045,-0.142334
1519672154609,-0.541016,0.812500,-0.535889
1519672154618,-0.338623,0.745850,-0.467773
1519672154651,-0.164063,1.313232,-0.254883
1519672154683,0.036377,1.896973,0.277832
1519672154715,-0.180176,1.173584,-0.233154
1519672154748,-0.422363,0.423096,-0.221924
1519672154823,-0.362305,0.587646,-0.607178
1519672154825,-0.473633,0.143311,-0.866943
1519672154840,-0.441406,0.536377,-0.122314
1519672154897,-0.368652,0.842041,-0.201660
1519672154900,-0.478271,0.699219,-0.335693
1519672154955,-0.580811,0.824707,-0.175049
1519672154988,-0.739990,0.854004,0.120117
1519672155021,-0.794922,0.903809,0.017334
1519672155053,-0.805420,1.116455,-0.152344
1519672155086,-0.858154,1.117676,-0.246094
1519672155119,-0.595459,1.142822,-0.343018
1519672155152,-0.523682,1.074707,-0.542725
1519672155184,-0.584473,0.896973,-0.427490
1519672155217,-0.577148,0.616943,-0.323975
1519672155219,-0.593506,0.560547,-0.237061
1519672155275,-0.458984,0.896973,0.021240
1519672155308,-0.473633,0.776123,0.095703
1519672155313,-0.466553,0.652588,0.110352
1519672155370,-0.401855,0.403076,-0.020020
1519672155404,-0.368164,0.420410,-0.078125
1519672155439,-0.429443,0.500000,-0.133301
1519672155473,-0.693115,0.664551,-0.160156
1519672155478,-0.864014,0.891113,-0.009521
1519672155535,-0.871826,1.104004,0.114502
1519672155568,-0.897949,1.102539,-0.030029
1519672155600,-0.802002,1.045410,-0.027832
1519672155633,-0.634033,1.196289,-0.065430
1519672155648,-0.482178,1.171387,-0.466797
1519672155681,-0.309814,1.133301,-0.328857
1519672155713,-0.334717,1.044678,-0.212646
1519672155745,-0.540527,0.932129,0.184814
1519672155803,-0.646484,0.856201,0.070313
1519672155805,-0.561035,0.706055,-0.079590
1519672155836,-0.351807,0.502197,0.044922
1519672155872,-0.218994,0.719482,0.239746
1519672155905,-0.442627,0.517090,0.074219
1519672155938,-0.457764,0.323486,-0.069824
1519672155970,-0.361816,0.892334,0.028564
1519672156003,-0.602051,0.756104,0.176758
1519672156035,-0.794922,0.618408,0.308594
1519672156117,-0.875488,1.031982,0.252930
1519672156184,-0.914307,1.235352,0.499756
1519672156186,-0.909668,0.972656,0.155273
1519672156252,-0.715332,1.295654,-0.005615
1519672156254,-0.536865,1.446777,-0.227051
1519672156319,-0.511230,0.986572,-0.207764
1519672156322,-0.558350,0.674072,-0.150391
1519672156387,-0.542480,0.782227,0.033447
1519672156389,-0.409912,0.785645,0.124512
1519672156454,-0.373291,0.985107,0.163818
1519672156456,-0.419434,0.856934,0.108887
1519672156524,-0.340576,0.474609,0.121094
1519672156526,-0.300781,0.410156,0.054932
1519672156593,-0.327393,0.495117,0.022949
1519672156595,-0.527344,0.675049,-0.019043
1519672156620,-0.790527,0.892090,0.097900
1519672156623,-0.929443,0.919434,0.250488
1519672156625,-0.990967,1.085693,0.147949
1519672156655,-0.993164,1.093262,0.145264
1519672156689,-0.905762,1.016846,0.323242
1519672156723,-0.557373,1.123535,0.257324
1519672156755,-0.296387,1.087891,0.055420
1519672156757,-0.253418,1.086670,0.074219
1519672156814,-0.375732,0.770020,0.425049
1519672156847,-0.458008,0.805908,0.366211
1519672156879,-0.546387,0.847168,0.252686
1519672156912,-0.559082,0.659424,0.267090
1519672156944,-0.493408,0.497559,0.136475
1519672156958,-0.446289,0.395264,0.033936
1519672157015,-0.447021,0.481201,0.059082
1519672157048,-0.458008,0.511719,0.162598
1519672157054,-0.555908,0.542969,0.263184
1519672157112,-0.725830,0.651855,0.418213
1519672157144,-0.804199,0.791260,0.539307
1519672157177,-0.841797,0.898438,0.468506
1519672157209,-0.973389,0.930176,0.380127
1519672157242,-0.974854,1.290527,0.191650
1519672157244,-0.761230,1.479004,-0.103027
1519672157301,-0.452881,1.230469,-0.146484
1519672157306,-0.428223,0.928223,0.009766
1519672157341,-0.524658,0.735840,0.046387
1519672157383,-0.507324,0.818604,0.206543
1519672157416,-0.406738,1.029785,0.311279
1519672157448,-0.382568,0.988281,0.317383
1519672157481,-0.407959,0.675781,0.186035
1519672157513,-0.392334,0.475586,0.166260
1519672157546,-0.363770,0.450195,0.187744
1519672157578,-0.426514,0.544434,0.196289
1519672157611,-0.534424,0.707520,0.285645
1519672157643,-0.658691,0.903564,0.357910
1519672157675,-0.684570,0.935059,0.383545
1519672157708,-0.729980,1.017822,0.402832
1519672157740,-0.839111,1.096680,0.476807
1519672157773,-0.636719,1.070557,0.481445
1519672157805,-0.523438,1.047119,0.385498
1519672157838,-0.396729,1.041260,0.260742
1519672157872,-0.368408,0.835205,0.308105
1519672157904,-0.464844,0.724609,0.322021
1519672157937,-0.579102,0.680664,0.262207
1519672157971,-0.594727,0.705566,0.218994
1519672158003,-0.528809,0.630859,0.255859
1519672158035,-0.447998,0.503662,0.281738
1519672158069,-0.389404,0.354492,0.248779
1519672158102,-0.388184,0.371826,0.229736
1519672158134,-0.456543,0.476807,0.269775
1519672158167,-0.701904,0.629883,0.406006
1519672158199,-0.844971,0.765381,0.453613
1519672158204,-0.845947,0.909424,0.436035
1519672158262,-0.884033,1.020264,0.515381
1519672158294,-0.898438,1.017334,0.448975
1519672158301,-0.760254,1.049561,0.319336
1519672158359,-0.525879,1.130859,0.141846
1519672158391,-0.541748,1.082764,0.026123
1519672158424,-0.593750,0.890381,-0.013184
1519672158457,-0.577637,0.711182,0.105957
1519672158468,-0.487549,0.757324,0.196289
1519672158501,-0.436523,0.747314,0.258789
1519672158558,-0.396973,0.683594,0.270996
1519672158590,-0.382324,0.596191,0.219971
1519672158623,-0.388672,0.499023,0.215576
1519672158663,-0.423828,0.488770,0.127197
1519672158665,-0.468750,0.583252,0.221924
1519672158722,-0.603027,0.746338,0.370850
1519672158754,-0.732422,0.868408,0.379639
1519672158787,-0.812500,1.031982,0.285156
1519672158789,-0.808838,1.138428,0.314453
1519672158822,-0.614014,1.138916,0.388672
1519672158854,-0.412109,1.187500,0.372559
1519672158887,-0.255615,1.254395,0.304199
1519672158919,-0.293701,1.213379,0.307373
1519672158953,-0.480469,1.038330,0.337646
1519672158985,-0.624023,0.855713,0.283691
1519672159018,-0.633301,0.747803,0.202637
1519672159051,-0.503174,0.548828,0.131836
1519672159083,-0.354980,0.337891,0.101318
1519672159117,-0.306885,0.227539,0.090332
1519672159149,-0.364990,0.338623,0.123291
1519672159182,-0.462891,0.454590,0.107666
1519672159239,-0.697266,0.813477,0.346436
1519672159241,-0.916504,0.916016,0.522949
1519672159275,-0.923096,0.871582,0.569824
1519672159333,-0.831787,0.893066,0.587891
1519672159335,-0.760254,1.072998,0.584717
1519672159367,-0.555908,1.381836,0.437500
1519672159401,-0.373779,1.314209,0.108643
1519672159433,-0.486328,1.024902,0.128418
1519672159465,-0.613525,0.823486,0.092529
1519672159498,-0.596680,0.789063,0.184814
1519672159531,-0.510742,0.812012,0.318604
1519672159588,-0.443604,0.737793,0.377441
1519672159621,-0.345215,0.532471,0.325684
1519672159654,-0.213623,0.481689,0.238525
1519672159662,-0.104248,0.424805,0.170166
1519672159718,-0.423096,0.387207,0.106934
1519672159751,-0.734863,0.592041,0.211670
1519672159753,-0.915283,0.805664,0.331299
1519672159809,-1.143799,0.871338,0.334473
1519672159815,-1.121094,0.914307,0.247070
1519672159848,-1.081543,1.056152,0.172363
1519672159906,-0.837646,1.166748,0.295166
1519672159912,-0.518799,1.121338,0.310547
1519672159969,-0.354980,1.136475,0.324707
1519672160003,-0.315430,1.084717,0.296143
1519672160035,-0.330322,0.839844,0.350342
1519672160043,-0.465820,0.661865,0.357422
1519672160099,-0.557129,0.709717,0.270996
1519672160132,-0.533447,0.658203,0.206055
1519672160164,-0.489746,0.490967,0.120117
1519672160197,-0.520020,0.414063,0.103027
1519672160229,-0.518066,0.480957,0.135254
1519672160232,-0.490967,0.630127,0.193848
1519672160289,-0.473145,0.846924,0.371582
1519672160322,-0.461914,0.945557,0.545410
1519672160328,-0.424805,0.959473,0.625000
1519672160385,-0.371582,0.930664,0.642822
1519672160418,-0.436523,0.960205,0.663330
1519672160451,-0.588379,0.994385,0.663818
1519672160459,-0.671631,0.986328,0.493896
1519672160514,-0.679199,0.983643,0.171143
1519672160547,-0.672852,0.693848,-0.153076
1519672160579,-0.830811,0.819092,-0.138184
1519672160612,-0.793701,0.885010,-0.008545
1519672160614,-0.724854,0.972168,0.207031
1519672160671,-0.666260,0.909668,0.311523
1519672160703,-0.600098,0.775635,0.286621
1519672160709,-0.487305,0.581787,0.233887
1519672160767,-0.273438,0.454102,0.158691
1519672160799,-0.174561,0.446045,0.180420
1519672160832,-0.186523,0.490967,0.222412
1519672160864,-0.337646,0.550537,0.323486
1519672160897,-0.567139,0.511475,0.333984
1519672160929,-0.805664,0.486816,0.296143
1519672160962,-0.794678,0.594482,0.354492
1519672160994,-0.652832,0.756836,0.406738
1519672161027,-0.348633,0.750732,0.379395
1519672161099,0.499268,0.769531,0.610840
1519672161101,1.032471,0.668701,0.522705
1519672161168,1.447510,0.620605,0.402832
1519672161170,1.741211,0.582520,0.077637
1519672161237,1.768799,0.514893,-0.123779
1519672161239,1.914551,0.269531,-0.336914
1519672161305,1.872070,0.582031,-0.362061
1519672161308,1.631836,0.562012,-0.376465
1519672161373,1.353027,0.425049,-0.441162
1519672161375,1.117432,0.312988,-0.383057
1519672161441,1.124512,0.337158,-0.340576
1519672161443,1.081543,0.410889,-0.434082
1519672161508,1.086426,0.563232,-0.322510
1519672161510,1.248291,0.523193,-0.385254
1519672161575,1.367188,0.431152,-0.537598
1519672161578,1.134277,0.613037,-0.591797
1519672161614,1.262451,0.730469,-0.482178
1519672161616,1.396729,0.759521,-0.428223
1519672161648,0.975342,0.743164,-0.181396
1519672161654,0.944824,0.654785,-0.166992
1519672161712,1.175781,0.520508,-0.282227
1519672161744,1.632568,0.270264,-0.257080
1519672161777,1.569336,0.188721,-0.201660
1519672161782,1.406738,0.184814,-0.086182
1519672161823,1.381104,0.164795,-0.074951
1519672161855,1.104248,0.028076,-0.114258
1519672161888,1.040283,0.159668,-0.011230
1519672161921,1.002930,0.148438,-0.105713
1519672161953,0.931152,0.229980,-0.072510
1519672161986,0.929199,0.110596,-0.010010
1519672162018,1.121094,0.151367,0.050293
1519672162051,1.083740,0.115479,0.117432
1519672162084,0.900635,0.071777,0.196289
1519672162117,1.020264,0.143555,0.154297
1519672162149,1.059326,0.277588,0.191162
1519672162154,1.050293,0.289063,0.198242
1519672162212,1.395996,0.310303,0.127930
1519672162244,1.572021,0.231201,-0.062744
1519672162252,1.612793,0.278320,-0.196045
1519672162308,1.385010,0.559082,-0.099121
1519672162341,1.137207,0.608398,-0.066650
1519672162373,0.883545,0.498047,-0.196289
1519672162406,0.722656,0.486572,-0.246338
1519672162438,0.809326,0.402100,-0.200684
1519672162471,0.748291,0.377686,-0.237549
1519672162503,0.844482,0.437012,-0.323975
1519672162536,1.172852,0.384033,-0.369385
1519672162568,1.175537,0.489746,-0.377686
1519672162601,1.020020,0.492432,-0.342773
1519672162633,1.191895,0.518311,-0.292480
1519672162666,1.435303,0.552002,-0.296875
1519672162698,1.320557,0.475342,-0.173584
1519672162731,1.226318,0.455322,-0.141602
1519672162736,1.454590,0.348877,-0.189941
1519672162793,1.686279,0.126465,-0.228027
1519672162826,1.487305,0.082031,-0.130859
1519672162831,1.144287,0.120605,-0.049072
1519672162889,0.947998,0.078369,0.017578
1519672162922,0.758789,0.077393,-0.037354
1519672162954,0.624756,0.125488,-0.032715
1519672162987,0.711426,0.124023,-0.043457
1519672163002,0.559082,0.225098,-0.012207
1519672163034,0.742188,0.290527,0.058838
1519672163067,0.932861,0.393311,0.104004
1519672163099,0.877930,0.342285,0.048096
1519672163134,0.888184,0.427734,0.131348
1519672163192,1.005127,0.503418,0.156738
1519672163224,1.003174,0.434326,0.036621
1519672163227,1.079346,0.376465,-0.034912
1519672163283,1.307373,0.400146,-0.020020
1519672163316,1.369873,0.486328,-0.046875
1519672163318,1.278564,0.426025,-0.075684
1519672163349,1.075439,0.402832,-0.031250
1519672163407,0.934814,0.438232,-0.042969
1519672163421,0.782471,0.403320,-0.082520
1519672163453,0.635986,0.486572,-0.082520
1519672163486,0.630615,0.549561,-0.067627
1519672163518,0.658447,0.600098,-0.090088
1519672163553,0.762451,0.500244,-0.178955
1519672163586,1.020020,0.480957,-0.259521
1519672163618,1.178467,0.481445,-0.308594
1519672163651,1.006104,0.476318,-0.245605
1519672163683,1.338623,0.433350,-0.278809
1519672163716,1.759521,0.417236,-0.424072
1519672163748,1.367676,0.360596,-0.309570
1519672163783,1.230713,0.289307,-0.212402
1519672163815,1.430664,0.229736,-0.168213
1519672163857,1.577881,0.024902,-0.112061
1519672163862,1.186279,0.002441,-0.148926
1519672163919,0.913086,0.120117,-0.058838
1519672163952,0.640381,0.135742,0.031006
1519672163984,0.446289,0.140625,-0.063721
1519672163998,0.474854,0.139160,-0.118652
1519672164031,0.572754,0.124023,-0.122314
1519672164063,0.632813,0.204834,-0.088623
1519672164098,0.741211,0.456055,-0.171387
1519672164130,0.981201,0.636719,-0.126465
1519672164163,0.916016,0.468506,-0.010010
1519672164195,0.875488,0.503906,0.131348
1519672164228,1.267822,0.417480,0.074707
1519672164260,1.445801,0.637207,-0.043701
1519672164293,1.317383,0.712646,0.028809
1519672164350,1.348389,0.694336,0.001709
1519672164353,1.121582,0.802246,-0.065430
1519672164384,0.821289,0.738770,-0.165039
1519672164417,0.312012,0.660645,-0.340088
1519672164449,0.200195,0.630371,-0.287842
1519672164483,0.177979,0.588623,-0.195801
1519672164515,0.309814,0.585693,-0.071045
1519672164548,0.390137,0.603516,-0.067871
1519672164581,0.444580,0.635254,-0.148193
1519672164619,0.669922,0.737793,-0.185303
1519672164653,0.986328,0.734131,-0.253418
1519672164686,1.298340,0.798340,-0.369385
1519672164718,1.759277,0.770508,-0.300781
1519672164751,1.472412,0.741699,-0.509277
1519672164783,0.934570,0.567139,-0.423828
1519672164817,0.876221,0.239746,-0.248047
1519672164849,1.001709,0.168213,-0.258301
1519672164882,1.005371,0.278320,-0.298340
1519672164914,0.757080,0.358643,-0.188477
1519672164947,0.576660,0.343750,-0.050293
1519672164979,0.445801,0.374023,-0.056396
1519672165012,0.357910,0.395508,-0.127441
1519672165026,0.449707,0.273193,-0.136230
1519672165063,0.651367,0.280518,-0.132324
1519672165095,0.830566,0.204102,-0.092529
1519672165128,1.093750,0.156982,-0.100586
1519672165161,1.363281,0.267822,-0.111572
1519672165219,1.339111,0.344971,-0.253418
1519672165222,1.532959,0.402344,-0.282471
1519672165253,1.440674,0.741699,-0.301270
1519672165311,1.155029,0.931885,-0.335205
1519672165313,1.001953,0.556885,-0.447998
1519672165344,0.948975,0.130615,-0.496094
1519672165377,1.081299,0.151855,-0.257568
1519672165415,0.993896,0.188477,-0.085693
1519672165448,0.813232,0.348145,-0.059570
1519672165481,0.652588,0.420898,-0.102051
1519672165513,0.505371,0.172852,0.019775
1519672165546,0.460938,0.122070,0.070313
1519672165578,0.542725,0.245605,0.038818
1519672165611,0.562012,0.354736,-0.018799
1519672165643,0.607666,0.575684,-0.146484
1519672165676,0.965088,0.628174,-0.106934
1519672165708,1.231445,0.820068,-0.124756
1519672165741,1.031982,0.964600,-0.086670
1519672165798,1.190430,0.685303,-0.277344
1519672165800,1.381348,0.570068,-0.570068
1519672165844,1.082764,0.479492,-0.444824
1519672165881,0.831055,0.091309,-0.336914
1519672165888,0.906250,0.112549,-0.347900
1519672165944,0.925781,0.216309,-0.236572
1519672165977,0.821289,0.287354,-0.115723
1519672166009,0.672852,0.244629,-0.067871
1519672166020,0.560059,0.280518,-0.073975
1519672166116,0.488525,0.286865,-0.164551
1519672166118,0.560547,0.336182,-0.140625
1519672166183,0.629883,0.318848,-0.201904
1519672166186,0.743896,0.308594,-0.189697
1519672166251,0.836670,0.363037,-0.170166
1519672166320,1.064697,0.420654,-0.109375
1519672166386,1.361328,0.703613,0.022705
1519672166388,1.262451,0.816895,0.075928
1519672166453,1.390137,0.683105,-0.061523
1519672166456,1.401611,0.416260,-0.293457
1519672166520,1.131836,0.404541,-0.270508
1519672166523,1.141602,0.308594,-0.313232
1519672166588,1.010742,0.184082,-0.302979
1519672166590,0.908936,0.171631,-0.225586
1519672166617,0.698730,0.169189,-0.152344
1519672166619,0.536377,0.186768,-0.132080
1519672166622,0.466553,0.209229,-0.088867
1519672166624,0.419434,0.281250,-0.051270
1519672166653,0.503418,0.405273,-0.003418
1519672166668,0.555908,0.535645,0.018799
1519672166725,0.580078,0.577881,-0.022217
1519672166758,0.894775,0.614502,-0.107178
1519672166761,1.335449,0.553223,-0.209229
1519672166792,1.170898,0.653076,-0.206299
1519672166849,1.216797,0.813477,-0.012939
1519672166852,1.230713,0.684326,-0.349854
1519672166908,1.372559,0.645508,-0.432861
1519672166941,0.904785,0.286621,-0.297363
1519672166973,0.913818,0.012451,-0.271240
1519672167008,1.001709,0.055908,-0.282715
1519672167016,0.925537,0.292480,-0.221924
1519672167072,0.738770,0.343018,-0.144531
1519672167086,0.610352,0.374268,-0.093994
1519672167118,0.471436,0.410645,-0.119629
1519672167176,0.460449,0.438721,-0.151855
1519672167178,0.547119,0.402588,-0.163086
1519672167234,0.728271,0.347900,-0.132080
1519672167267,0.986084,0.348389,-0.107910
1519672167269,1.213867,0.402588,-0.021240
1519672167325,1.304932,0.410156,0.038818
1519672167358,1.275635,0.412354,0.090576
1519672167391,1.389160,0.327393,-0.002686
1519672167423,1.208008,0.281250,-0.133789
1519672167456,0.995850,0.344482,-0.126465
1519672167488,1.077637,0.303711,-0.116211
1519672167502,1.104980,0.176270,-0.115234
1519672167534,1.107178,0.199707,-0.085938
1519672167592,0.951172,0.290527,-0.068359
1519672167625,0.669922,0.321045,-0.049072
1519672167631,0.499512,0.300293,0.016602
1519672167688,0.461182,0.287598,0.036133
1519672167721,0.458252,0.327393,0.013916
1519672167753,0.483154,0.335693,-0.006836
1519672167755,0.601318,0.363037,0.002686
1519672167812,0.992188,0.366699,-0.050049
1519672167844,1.338135,0.398438,-0.097168
1519672167846,1.301025,0.430664,-0.133789
1519672167903,1.791016,0.481445,-0.135010
1519672167936,1.512207,0.475342,-0.069336
1519672167971,0.900879,0.506104,0.045898
1519672168003,1.058350,0.433594,0.016357
1519672168036,1.095703,0.389648,-0.108154
1519672168068,1.094971,0.308350,-0.197510
1519672168101,0.875488,0.290039,-0.141602
1519672168133,0.699463,0.409668,-0.071045
1519672168165,0.635254,0.403320,0.000000
1519672168198,0.634521,0.432617,0.014404
1519672168200,0.625000,0.389648,-0.035156
1519672168257,0.680908,0.306641,-0.067383
1519672168289,0.836670,0.229004,-0.047363
1519672168303,0.937744,0.187256,-0.051514
1519672168335,1.082520,0.152588,-0.055176
1519672168368,1.150879,0.217041,-0.010742
1519672168401,1.130371,0.234863,0.048340
1519672168433,1.214844,0.224609,0.093506
1519672168466,1.378662,0.223633,0.063232
1519672168498,1.226563,0.267334,0.009521
1519672168531,1.175781,0.333984,0.030029
1519672168563,1.191162,0.331299,0.014893
1519672168621,1.147705,0.372314,-0.026855
1519672168627,0.881592,0.406494,-0.022217
1519672168685,0.622070,0.408936,0.008789
1519672168717,0.483154,0.419922,-0.072754
1519672168719,0.442627,0.382813,-0.094727
1519672168763,0.701660,0.422852,-0.076416
1519672168795,0.734375,0.473389,-0.107422
1519672168828,0.771729,0.490479,-0.086182
1519672168861,1.119141,0.529053,-0.096680
1519672168903,1.278076,0.605713,-0.090576
1519672168911,1.170654,0.595703,-0.075928
1519672168968,1.413330,0.538330,-0.055664
1519672169001,1.586670,0.663330,-0.080566
1519672169009,1.598145,0.731201,-0.135742
1519672169064,1.299072,0.168213,-0.244873
1519672169097,1.244873,0.065674,-0.244873
1519672169130,1.262451,0.043457,-0.235596
1519672169143,1.008301,0.229736,-0.254639
1519672169201,0.824219,0.211182,-0.198730
1519672169203,0.693359,0.191406,-0.101074
1519672169259,0.558838,0.049805,0.015381
1519672169292,0.588135,0.274658,0.005859
1519672169294,0.705566,0.300537,0.103516
1519672169351,0.673096,0.197510,0.077637
1519672169383,0.675293,0.211914,0.038574
1519672169416,0.812988,0.127441,0.062500
1519672169448,0.838623,0.178467,0.142090
1519672169481,1.067871,0.379150,0.027588
1519672169513,1.585938,0.637695,-0.193848
1519672169546,1.275146,1.034424,-0.302734
1519672169560,1.228027,0.724365,-0.200928
1519672169617,1.207764,0.603760,-0.278564
1519672169623,0.924805,0.733887,-0.188477
1519672169681,0.571777,0.803711,-0.225586
1519672169713,0.370605,0.864502,-0.136963
1519672169746,0.308350,0.760986,-0.033447
1519672169748,0.323975,0.611084,0.072998
1519672169779,0.400146,0.566162,0.069580
1519672169837,0.404541,0.516357,-0.145752
1519672169839,0.544678,0.533691,-0.239990
1519672169873,0.870605,0.582520,-0.376709
1519672169931,0.946777,0.753418,-0.425781
1519672169963,1.088623,0.851807,-0.227295
1519672169977,1.613281,0.928955,-0.116211
1519672170010,1.345947,0.723145,-0.338379
1519672170042,1.022461,0.294922,-0.270264
1519672170075,1.119141,0.083008,-0.233887
1519672170107,1.052490,0.229980,-0.309326
1519672170183,0.986572,0.384277,-0.208740
1519672170186,0.755127,0.408203,-0.061279
1519672170217,0.450684,0.346191,0.044189
1519672170250,0.370361,0.374023,0.026367
1519672170255,0.367920,0.398438,-0.084961
1519672170312,0.476074,0.376465,-0.172852
1519672170345,0.642334,0.404541,-0.152832
1519672170378,0.776855,0.484131,-0.113525
1519672170392,1.229736,0.457275,-0.039795
1519672170425,1.465088,0.482422,-0.033203
1519672170459,1.399902,0.485352,0.010254
1519672170489,1.388916,0.350098,-0.084717
1519672170548,1.294189,0.299072,-0.131104
1519672170579,1.224365,0.315918,-0.165283
1519672170612,1.207031,0.323486,-0.072510
1519672170621,1.037109,0.211670,-0.059814
1519672170675,0.974365,0.208008,-0.045898
1519672170708,0.677246,0.349609,-0.017822
1519672170740,0.515137,0.346924,-0.023682
1519672170749,0.420654,0.257568,-0.037598
1519672170800,0.386475,0.241211,-0.041016
1519672170841,0.443604,0.284912,-0.066895
1519672170850,0.599365,0.311523,-0.082031
1519672170905,0.746582,0.335205,-0.115723
1519672170913,1.029541,0.330811,-0.130859
1519672170963,1.368408,0.406738,-0.167725
1519672170996,1.380615,0.589844,-0.206543
1519672171005,1.609863,0.701416,-0.046875
1519672171060,1.831299,0.722656,0.017578
1519672171129,0.976807,0.387695,0.007568
1519672171137,0.967529,0.169189,-0.000488
1519672171196,1.023682,0.385742,-0.267334
1519672171265,1.226074,0.469971,-0.315674
1519672171331,0.991211,0.062988,-0.034668
1519672171336,0.833984,0.208008,-0.014893
1519672171400,0.645508,0.399902,-0.114990
1519672171407,0.586426,0.389893,-0.120605
1519672171467,0.568359,0.303223,-0.145508
1519672171475,0.678467,0.254883,-0.092529
1519672171534,0.769531,0.168213,0.004639
1519672171543,0.838867,0.207520,-0.039551
1519672171602,1.105225,0.160889,0.032959
1519672171610,1.135498,0.128418,0.141846
1519672171625,1.071045,0.161621,0.209961
1519672171633,1.332275,0.127686,0.144287
1519672171643,1.363770,0.268311,0.062500
1519672171646,1.385742,0.356445,0.141357
1519672171660,1.370361,0.297607,0.190674
1519672171691,1.270020,0.200684,0.145996
1519672171725,1.074463,0.335449,0.187744
1519672171757,0.695313,0.367432,0.103027
1519672171790,0.551514,0.301270,0.002686
1519672171799,0.513184,0.311279,-0.074707
1519672171855,0.573486,0.294922,-0.093262
1519672171887,0.701660,0.305908,-0.115723
1519672171922,0.795898,0.324463,-0.177002
1519672171955,1.000732,0.320313,-0.243164
1519672171985,1.315186,0.434326,-0.265381
1519672172018,1.329590,0.526123,-0.232178
1519672172033,1.448975,0.544189,-0.237549
1519672172090,1.650391,0.607910,-0.256104
1519672172122,1.215332,0.637939,-0.134521
1519672172156,1.014893,0.451172,-0.043701
1519672172189,1.192871,0.395264,-0.085205
1519672172194,1.378174,0.296875,-0.113281
1519672172246,1.130859,0.121338,-0.034912
1519672172280,0.881348,0.269531,-0.032959
1519672172288,0.695068,0.113037,-0.078613
1519672172339,0.578613,0.106689,-0.133057
1519672172373,0.589355,0.104492,-0.294189
1519672172406,0.716309,0.194092,-0.382324
1519672172436,0.937744,0.248291,-0.268555
1519672172469,1.107422,0.193359,-0.239258
1519672172503,1.211670,0.145264,-0.280029
1519672172536,1.103271,0.089844,-0.078125
1519672172569,1.081787,0.174316,0.034912
1519672172600,1.317871,0.388672,-0.041504
1519672172633,1.052246,0.539795,0.058350
1519672172652,0.991211,0.594727,0.123535
1519672172684,1.103760,0.548828,0.132568
1519672172716,1.094238,0.583008,0.113770
1519672172773,0.826904,0.453613,0.030273
1519672172781,0.632568,0.446289,0.017822
1519672172833,0.494873,0.586182,0.003662
1519672172837,0.428955,0.607666,-0.025635
1519672172880,0.439941,0.513916,-0.036133
1519672172913,0.508057,0.472656,-0.109131
1519672172942,0.525879,0.425537,-0.219727
1519672172996,0.777588,0.488525,-0.220459
1519672172999,1.219482,0.502441,-0.198975
1519672173051,1.164551,0.579346,-0.165771
1519672173106,1.210205,0.774414,0.071289
1519672173111,1.548340,0.683350,-0.024170
1519672173155,1.375244,0.467041,-0.253662
1519672173163,0.945313,0.338867,-0.287842
1519672173192,1.046143,0.156982,-0.121826
1519672173240,1.113281,0.175781,-0.169922
1519672173254,0.989746,0.293457,-0.170410
1519672173322,0.679199,0.359375,0.026123
1519672173327,0.519043,0.378418,0.074219
1519672173358,0.440918,0.420654,0.081787
1519672173407,0.527588,0.387939,0.006104
1519672173415,0.632813,0.396240,-0.017334
1519672173489,0.708252,0.339844,0.030029
1519672173497,0.816650,0.297119,0.051514
1519672173523,1.078369,0.252686,0.059814
1519672173570,1.281494,0.265869,0.041260
1519672173608,1.268555,0.258545,0.065918
1519672173652,1.632080,0.131836,-0.063232
1519672173667,1.470703,0.197266,-0.180176
1519672173688,1.173828,0.343018,0.023682
1519672173734,1.206543,0.302246,0.096191
1519672173743,1.149658,0.244385,0.005859
1519672173793,0.919678,0.311523,-0.033203
1519672173845,0.721191,0.346924,-0.018066
1519672173850,0.598633,0.313232,-0.026123
1519672173885,0.545654,0.304932,-0.052490
1519672173892,0.550293,0.321289,-0.049072
1519672173949,0.619873,0.334717,-0.065430
1519672173982,0.652100,0.378418,-0.121826
1519672173988,0.735107,0.363037,-0.170166
1519672174023,1.100098,0.419922,-0.188232
1519672174062,1.144531,0.530762,-0.220947
1519672174094,1.060059,0.530029,-0.240723
1519672174136,1.355713,0.533447,-0.292725
1519672174168,1.595459,0.578125,-0.271484
1519672174200,1.183105,0.455078,-0.052246
1519672174233,1.089844,0.402344,0.008789
1519672174265,1.451172,0.393799,-0.142334
1519672174273,1.690186,0.902100,-0.361084
1519672174330,1.604736,0.801270,-0.532715
1519672174362,0.789795,-0.016846,0.158936
1519672174395,0.523926,0.220459,-0.009521
1519672174427,0.539795,0.374512,0.135254
1519672174462,0.676025,0.398682,0.052490
1519672174477,0.848633,0.221191,-0.020996
1519672174509,0.978760,0.137207,0.104736
1519672174567,0.966309,0.029053,0.055420
1519672174600,0.813232,-0.006348,0.021973
1519672174609,0.666260,0.237793,0.035156
1519672174662,1.073730,0.692139,0.097412
1519672174695,1.337891,1.084473,0.126465
1519672174703,1.329346,1.063477,0.105469
1519672174756,1.090088,0.974854,0.187256
1519672174759,0.940674,0.940430,0.397217
1519672174788,0.646240,0.757568,0.425049
1519672174846,0.367432,0.598389,0.384277
1519672174854,0.212646,0.583984,0.379150
1519672174891,0.129395,0.570557,0.329346
1519672174924,0.154785,0.585449,0.290039
1519672174957,0.159424,0.619629,0.207275
1519672174990,0.241455,0.664063,0.128418
1519672175023,0.467041,0.695068,-0.021484
1519672175056,0.665527,0.688965,-0.099854
1519672175091,0.720947,0.623779,-0.128906
1519672175123,1.699707,0.549805,-0.073730
1519672175182,2.186768,0.679932,-0.271240
1519672175190,1.079590,0.745605,-0.349609
1519672175237,1.287354,0.269775,-0.037354
1519672175270,1.299805,0.445313,-0.021973
1519672175279,1.211914,0.616211,-0.102051
1519672175328,0.742432,0.595215,-0.026855
1519672175361,0.635498,0.370361,0.062256
1519672175393,0.521973,0.291016,0.095459
1519672175426,0.462646,0.303711,0.042480
1519672175460,0.513428,0.222412,-0.039795
1519672175493,0.615723,0.202148,-0.100342
1519672175526,0.788818,0.219971,-0.191650
1519672175559,0.977295,0.224365,-0.210693
1519672175591,1.178467,0.237305,-0.145996
1519672175623,1.425049,0.331787,-0.033691
1519672175656,1.581543,0.432861,-0.011719
1519672175693,1.856689,0.468262,-0.092041
1519672175706,1.017822,0.563965,0.123779
1519672175738,1.080811,0.080078,0.015381
1519672175771,1.139160,-0.034424,-0.087158
1519672175802,1.002930,0.155518,-0.076416
1519672175835,0.869141,0.351074,-0.033691
1519672175867,0.627441,0.437744,0.071045
1519672175901,0.444092,0.444336,0.060791
1519672175934,0.381348,0.369629,-0.077148
1519672175966,0.458496,0.359619,-0.109375
1519672176000,0.525391,0.319336,-0.111084
1519672176032,0.543945,0.455811,-0.060303
1519672176106,0.702637,0.611572,0.047607
1519672176114,1.064209,0.790039,0.194336
1519672176172,1.203125,0.930908,0.166504
1519672176181,1.338623,0.976074,0.156250
1519672176239,1.694580,0.511475,-0.383789
1519672176245,1.199463,0.437012,-0.438721
1519672176308,0.774170,0.018066,-0.279053
1519672176316,0.969482,0.143311,-0.157715
1519672176373,1.001221,0.381104,-0.184814
1519672176377,0.896240,0.402344,-0.237549
1519672176441,0.633789,0.352051,-0.103027
1519672176446,0.546143,0.383789,-0.042480
1519672176511,0.499756,0.504395,-0.106201
1519672176518,0.484863,0.508789,-0.156738
1519672176577,0.614258,0.429932,-0.117676
1519672176579,0.721680,0.390625,-0.004150
1519672176616,0.899658,0.402832,0.000244
1519672176617,1.087891,0.365479,-0.008545
1519672176652,1.109375,0.322754,0.070313
1519672176684,1.045410,0.318115,0.174316
1519672176717,1.125977,0.284668,0.197021
1519672176719,1.413818,0.124756,0.026367
1519672176776,1.347900,0.292725,-0.104736
1519672176808,1.180664,0.415039,-0.014160
1519672176810,1.154053,0.284912,0.011475
1519672176867,1.174561,0.203125,-0.057861
1519672176899,0.897949,0.275391,-0.083740
1519672176932,0.805176,0.277588,-0.081299
1519672176949,0.479736,0.422852,0.006104
1519672176977,0.134521,0.438721,0.022461
1519672177034,0.152344,0.307861,-0.125732
1519672177068,0.530762,0.261230,-0.238281
1519672177102,0.947021,0.276123,-0.317139
1519672177135,1.558350,0.582764,-0.216064
1519672177167,1.344971,0.828613,-0.102051
1519672177199,1.219238,0.746338,-0.147949
1519672177233,1.564697,0.582031,-0.028564
1519672177266,1.918945,0.970703,0.030518
1519672177298,1.050293,0.645752,-0.108887
1519672177301,1.043945,0.194824,-0.297119
1519672177338,1.317627,-0.046387,-0.256836
1519672177371,1.375977,-0.101563,-0.136475
1519672177403,0.990723,0.030762,-0.092041
1519672177436,0.685791,0.179443,-0.148926
1519672177468,0.681885,0.130859,-0.151611
1519672177501,0.667725,0.150879,-0.109375
1519672177533,0.582275,0.134033,-0.110840
1519672177566,0.540527,0.058838,-0.089844
1519672177601,0.509521,-0.005615,-0.099365
1519672177637,0.632813,0.023438,-0.051270
1519672177670,0.860107,0.015869,-0.034912
1519672177677,0.988770,0.040771,-0.061279
1519672177733,1.295410,0.577881,-0.048828
1519672177747,1.584961,1.062988,-0.117432
1519672177779,1.557617,0.535156,0.148193
1519672177837,1.356934,1.048584,0.670898
1519672177863,1.290527,0.875244,0.533691
1519672177896,1.125488,0.307129,0.188232
1519672177928,1.024658,0.356201,0.258545
1519672177961,0.877197,0.574951,0.196777
1519672177995,0.569824,0.459473,0.138672
1519672178028,0.361572,0.365967,0.079590
1519672178061,0.343018,0.369629,-0.001465
1519672178093,0.408691,0.406494,-0.037354
1519672178126,0.408936,0.421143,-0.143311
1519672178158,0.377197,0.541748,-0.127686
1519672178161,0.473633,0.572021,-0.102051
1519672178218,0.829346,0.678223,-0.045166
1519672178252,0.971436,0.664063,0.018799
1519672178257,1.201660,0.804443,0.195557
1519672178316,1.855469,0.680908,0.253906
1519672178348,1.452393,0.554932,-0.123291
1519672178381,0.932861,0.489746,-0.102783
1519672178413,0.965576,0.202881,-0.039795
1519672178446,1.013428,0.269043,-0.142822
1519672178478,0.933350,0.315430,-0.134766
1519672178511,0.675293,0.301025,0.022461
1519672178543,0.512695,0.309570,0.041504
1519672178558,0.405518,0.329102,0.064941
1519672178591,0.478027,0.447754,-0.074463
1519672178623,0.695557,0.445313,-0.063232
1519672178657,0.857178,0.552002,-0.243652
1519672178689,0.944092,1.094727,-0.072510
1519672178747,0.916992,1.456543,0.544922
1519672178749,0.993896,0.958984,0.824219
1519672178805,0.906494,0.800293,0.364502
1519672178838,0.966797,0.747559,0.170654
1519672178840,1.250732,0.633057,0.172607
1519672178875,0.951172,0.549561,0.094482
1519672178907,0.865234,0.509766,0.089600
1519672178940,0.701416,0.393799,0.043701
1519672178981,0.558838,0.482178,0.016846
1519672179013,0.466309,0.493896,0.057129
1519672179045,0.339844,0.449951,0.074463
1519672179079,0.269775,0.523926,0.095703
1519672179111,0.247559,0.606689,0.139160
1519672179143,0.246826,0.643066,0.193848
1519672179175,0.288086,0.755615,0.172852
1519672179208,0.421143,0.788818,0.152100
1519672179241,0.661621,0.866943,0.108643
1519672179275,0.895264,0.792236,0.048828
1519672179308,1.126953,0.843506,0.060059
1519672179341,1.566406,0.757813,-0.055176
1519672179373,1.100830,0.584961,-0.173584
1519672179387,0.985840,0.635986,0.058105
1519672179420,1.053955,0.716553,0.015869
1519672179452,1.050781,0.799805,-0.129395
1519672179510,0.808838,0.685547,-0.006836
1519672179545,0.557861,0.566650,0.041992
1519672179577,0.364014,0.524170,-0.031250
1519672179583,0.365234,0.445557,-0.087158
1519672179641,0.511719,0.379150,-0.114990
1519672179673,0.714600,0.335693,-0.153320
1519672179706,0.851563,0.342285,-0.132568
1519672179709,1.029541,0.307617,-0.080322
1519672179764,1.236816,0.269287,0.038574
1519672179797,1.210693,0.308105,0.141113
1519672179800,1.206787,0.348633,0.204834
1519672179857,1.662354,0.648926,0.308594
1519672179889,1.422607,0.726074,0.154541
1519672179923,1.049805,0.533936,0.075195
1519672179955,1.093018,0.222168,0.000488
1519672179989,0.998779,0.192383,-0.080811
1519672180020,0.880371,0.179688,-0.147461
1519672180053,0.744385,0.198730,-0.160156
1519672180085,0.574463,0.233643,-0.158691
1519672180119,0.488037,0.221436,-0.157471
1519672180150,0.444580,0.214355,-0.125244
1519672180182,0.474365,0.257080,-0.101074
1519672180222,0.489990,0.322021,-0.096436
1519672180256,0.599854,0.444336,0.026611
1519672180289,0.858643,0.608887,0.156738
1519672180297,1.390381,0.862305,0.244873
1519672180321,1.338379,0.967773,0.174805
1519672180355,1.247314,0.698975,0.007324
1519672180389,1.390137,0.695313,-0.202393
1519672180425,1.300293,0.471191,-0.338623
1519672180456,0.940918,0.190674,-0.317627
1519672180494,0.895020,0.003174,-0.209961
1519672180527,1.084717,0.083984,-0.199219
1519672180558,0.987549,0.217285,-0.277344
1519672180590,0.738525,0.272705,-0.238037
1519672180632,0.587646,0.227783,-0.055664
1519672180651,0.485107,0.224121,0.005859
1519672180683,0.458008,0.240234,-0.017090
1519672180717,0.600586,0.191162,-0.049072
1519672180750,0.725830,0.147949,-0.067871
1519672180782,0.851074,0.139648,-0.049072
1519672180815,1.213379,0.078125,-0.039551
1519672180847,1.331299,0.136963,-0.020264
1519672180879,1.423340,0.341309,0.132568
1519672180913,2.101563,0.607910,0.157471
1519672180945,1.676758,0.752197,0.034668
1519672180978,1.503418,0.424316,0.166016
1519672181009,1.038086,0.016113,0.101318
1519672181051,0.872314,0.099854,-0.081055
1519672181123,0.461914,0.287109,-0.205078
1519672181128,0.095947,0.364014,-0.334961
1519672181190,0.000732,0.088867,-0.334229
1519672181196,0.341797,0.048096,-0.226563
1519672181258,0.607422,0.256348,-0.128418
1519672181263,0.518555,0.307617,-0.240967
1519672181326,0.578613,0.389404,-0.023438
1519672181332,1.337646,0.963867,0.410156
1519672181394,1.389648,0.770996,0.187256
1519672181399,1.088867,0.797852,0.156006
1519672181462,1.584473,0.812988,-0.182861
1519672181531,1.671143,0.550049,-0.364990
1519672181586,1.164551,0.112305,-0.347656
1519672181590,1.142090,0.126465,-0.150146
1519672181594,1.218018,0.376709,-0.266113
1519672181597,0.991943,0.570068,-0.200195
1519672181601,0.582275,0.985107,0.011719
1519672181623,0.365967,1.045410,0.082764
1519672181657,0.218018,0.788574,-0.040771
1519672181703,0.184814,0.755615,-0.456543
1519672181736,0.517578,0.843750,-0.371338
1519672181738,0.646484,1.009033,-0.535400
1519672181795,1.220215,1.771729,-0.669922
1519672181827,1.394043,2.066895,-0.651123
1519672181830,1.015381,2.084229,-0.531494
1519672181862,0.623779,1.857422,-0.192871
1519672181904,0.361816,1.543457,-0.432373
1519672181937,0.095947,0.971191,-0.455811
1519672181969,-0.326416,0.159912,-0.539307
1519672182000,-0.229492,0.014893,-0.225342
1519672182032,-0.347656,0.338379,0.242432
1519672182065,-0.466064,-0.024170,0.327637
1519672182097,-0.400879,-0.468750,0.252197
1519672182130,-0.551025,-0.235107,0.004639
1519672182163,-0.495361,-0.251465,-0.000244
1519672182195,-0.468994,-0.337891,0.057861
1519672182228,-0.543701,-0.343018,0.083740
1519672182261,-0.659180,-0.446777,0.257324
1519672182295,-0.805420,-0.400879,0.465576
1519672182334,-1.018311,-0.626709,0.575684
1519672182368,-1.079590,-0.162354,0.731201
1519672182376,-1.264893,-0.159668,0.653320
1519672182411,-1.262695,-0.028076,0.939209
1519672182468,-1.359131,0.077881,0.519287
1519672182501,-1.131836,0.240723,0.690674
1519672182510,-1.048096,0.024414,0.695557
1519672182559,-0.825928,0.061035,0.242920
1519672182591,-0.567383,0.141357,0.328613
1519672182624,-0.204834,0.165039,0.510498
1519672182656,-0.179688,0.106445,0.448242
1519672182689,-0.308594,0.353027,0.179688
1519672182692,-0.417236,0.419922,0.301758
1519672182762,-0.557373,0.248535,0.354248
1519672182792,-0.870361,0.540283,0.248291
1519672182794,-0.937744,0.530518,0.477051
1519672182852,-0.945068,0.648682,0.511719
1519672182856,-0.979736,0.794922,0.644531
1519672182915,-0.835205,0.895996,1.001465
1519672182948,-0.771240,0.927734,0.691162
1519672182957,-0.686523,0.806641,0.357666
1519672182988,-0.631348,0.824951,0.337646
1519672183046,-0.457764,1.019531,-0.004150
1519672183077,-0.539551,0.948242,-0.014160
1519672183110,-0.391357,0.683594,-0.011963
1519672183124,-0.443115,0.350342,-0.049072
1519672183157,-0.577393,0.523193,-0.091064
1519672183190,-0.646973,0.529541,-0.273193
1519672183222,-0.928467,0.428955,-0.409912
1519672183255,-0.959961,0.533203,-0.207764
1519672183289,-0.828125,0.881836,0.007813
1519672183321,-0.719727,0.930664,0.211182
1519672183353,-0.679199,1.166016,0.341553
1519672183389,-0.762695,1.269287,-0.102783
1519672183422,-0.999023,1.225342,-0.226563
1519672183456,-0.889893,1.210693,-0.350342
1519672183489,-0.760742,1.134277,-0.756592
1519672183521,-0.694580,0.925293,-0.985107
1519672183563,-0.603027,0.861572,-1.019531
1519672183571,-0.489746,0.623047,-0.798828
1519672183626,-0.401123,0.520508,-0.553223
1519672183657,-0.447998,0.651123,-0.534180
1519672183660,-0.445557,0.778809,-0.431885
