1519480432207,1.004639,4.630615,0.169189
1519480432212,0.633301,4.096191,0.060547
1519480432269,-0.065430,2.667236,-0.243408
1519480432305,-0.371094,1.893066,-0.327881
1519480432308,-0.520996,1.532715,-0.384521
1519480432367,-0.754150,0.855469,-0.405029
1519480432399,-1.023438,0.364502,-0.288818
1519480432432,-1.326416,0.270996,-0.076660
1519480432465,-1.651855,0.388672,-0.194336
1519480432497,-1.422119,0.449951,-0.144531
1519480432530,-1.245850,1.459961,-0.552002
1519480432562,-1.633301,2.237061,-1.320313
1519480432595,-1.428467,2.364502,-1.276611
1519480432630,-1.242920,2.219971,-1.016846
1519480432662,-0.296631,0.984375,-1.324707
1519480432694,0.778564,1.132568,-1.404541
1519480432708,0.675781,1.171875,-1.481445
1519480432765,0.694580,1.032715,-0.556396
1519480432797,0.583008,0.658447,-0.229492
1519480432803,1.103271,1.093750,0.529785
1519480432856,0.263428,0.676270,-0.046875
1519480432888,-0.304199,0.970215,-0.823242
1519480432897,-0.083008,0.699707,-0.520020
1519480432946,-0.344238,0.969971,-0.302734
1519480432980,-1.404785,2.238281,-1.068115
1519480433012,-1.054443,2.238037,-0.352295
1519480433046,-1.006104,2.031738,0.397705
1519480433079,-1.273438,1.717285,0.563477
1519480433111,-1.071289,0.230225,0.184326
1519480433126,-1.106201,-0.613770,-0.059814
1519480433183,-0.879395,0.015381,-0.039795
1519480433192,-0.501709,0.283447,0.199463
1519480433245,-0.213867,-0.776123,0.284180
1519480433277,-0.387939,-0.522949,0.055908
1519480433282,-0.782715,0.476074,-0.070801
1519480433335,-1.568848,1.276367,-0.096436
1519480433340,-1.930908,1.943604,-0.688477
1519480433396,-1.841553,2.529297,-0.743652
1519480433430,-1.299072,2.260742,-0.681641
1519480433439,-0.895020,1.659180,-0.676270
1519480433472,-0.310303,1.063965,-0.434570
1519480433517,0.131836,0.529785,-0.361816
1519480433550,0.414551,0.072266,-0.238281
1519480433582,0.557373,-0.076416,-0.172852
1519480433613,0.584961,-0.227051,-0.242188
1519480433648,0.439941,-0.495117,-0.223633
1519480433680,0.135254,-0.186768,-0.291016
1519480433712,-0.638184,1.298096,-0.691162
1519480433746,-1.395508,1.404541,-1.045166
1519480433778,-2.129639,2.205811,-1.416992
1519480433812,-1.914063,1.776367,-0.989502
1519480433843,-1.354492,0.597900,-0.266357
1519480433860,-0.923828,0.306152,-0.024170
1519480433919,-0.831787,0.263428,-0.129883
1519480433927,-0.627686,0.163330,-0.231689
1519480433966,-0.424561,-0.570557,-0.094971
1519480433997,-0.286133,-1.270996,0.047119
1519480434030,-0.328125,-1.238770,0.238525
1519480434063,-0.707520,-0.437012,0.405518
1519480434096,-2.116455,2.347412,-0.061035
1519480434128,-1.913330,2.502930,0.091553
1519480434165,-1.470703,2.524414,0.418945
1519480434197,-0.566406,2.088623,0.315186
1519480434230,-0.218994,1.627441,0.382324
1519480434264,-0.051025,1.360107,0.209229
1519480434295,0.144287,0.994385,-0.007568
1519480434329,0.154541,0.267822,-0.384033
1519480434359,0.201172,-0.485596,-0.223389
1519480434391,0.284180,-0.861084,-0.442383
1519480434424,0.179443,0.352295,-0.899658
1519480434456,0.279297,1.421631,-0.683350
1519480434489,0.115234,1.688477,-0.283447
1519480434523,-0.134033,2.119385,0.248047
1519480434555,0.069824,2.164307,0.480957
1519480434587,0.096191,2.258301,0.351563
1519480434620,-0.332031,1.784424,0.269043
1519480434651,-0.997070,1.162598,0.142334
1519480434684,-1.133789,0.036377,0.075195
1519480434718,-0.835449,-0.594238,0.232178
1519480434757,-0.503662,-0.887939,0.276855
1519480434791,-0.331055,-0.304199,0.369385
1519480434794,-0.473633,0.352295,0.186035
1519480434824,-0.605225,0.728271,0.258301
1519480434883,-1.137695,1.879883,0.123779
1519480434891,-0.997070,2.812500,0.003906
1519480434929,-0.948486,3.271973,-0.215088
1519480434962,0.065430,2.233154,0.145752
1519480434994,0.380615,1.214355,0.216309
1519480435025,0.463379,0.558350,0.212891
1519480435058,0.215576,0.056152,-0.033936
1519480435092,-0.115234,-0.319580,-0.454346
1519480435127,-0.195801,-0.217285,-0.477783
1519480435160,-0.168945,0.195068,-0.661133
1519480435193,-0.089355,0.714111,-0.612793
1519480435200,0.423340,1.148193,-0.189697
1519480435257,0.354248,2.615967,-0.037354
1519480435289,-0.136475,3.269775,0.146240
1519480435323,-0.567871,2.755371,0.247070
1519480435356,-0.731201,1.733154,0.262451
1519480435388,-0.760742,0.793701,0.333008
1519480435419,-0.527832,0.177490,0.302979
1519480435452,-0.104248,-0.303467,0.309814
1519480435485,0.068604,-0.539307,0.436523
1519480435516,-0.046143,-0.683105,0.206055
1519480435530,-0.228516,-0.555420,-0.065430
1519480435587,-0.325195,-0.438477,-0.067871
1519480435620,-1.198730,-0.106689,0.007080
1519480435633,-2.564453,1.093262,-0.377930
1519480435686,-3.018311,1.493164,0.257813
1519480435719,-2.621582,1.115234,-0.524414
1519480435751,-1.420166,1.065918,-0.260742
1519480435784,-0.689697,0.306396,0.231445
1519480435792,-0.130127,0.274170,0.078613
1519480435840,0.250000,0.153564,-0.223389
1519480435874,0.152100,0.120361,-0.409180
1519480435879,0.030518,0.004639,-0.727539
1519480435935,0.058350,-0.182129,-0.510010
1519480435968,-0.282471,0.497559,-0.052490
1519480435999,-1.009766,0.934814,0.127930
1519480436034,-1.837646,0.832764,0.192383
1519480436067,-2.992432,1.587646,-0.052002
1519480436079,-2.451416,1.443115,0.114014
1519480436135,-1.663330,1.008789,0.461182
1519480436169,-0.979248,0.377441,0.590088
1519480436210,-0.374268,-0.134521,0.281738
1519480436219,-0.056396,-0.489746,-0.198730
1519480436246,-0.055176,-0.479736,-0.220215
1519480436278,-0.114990,-0.394775,0.045166
1519480436312,0.046631,0.083496,0.811279
1519480436369,-0.355957,-0.150391,1.010742
1519480436372,-1.320801,0.035156,1.000488
1519480436403,-2.258789,0.785645,0.814209
1519480436436,-2.533691,0.436279,0.866943
1519480436469,-1.455566,0.889893,1.637451
1519480436501,-0.660156,1.166748,1.393066
1519480436533,-0.450195,0.829834,0.630371
1519480436566,-0.038574,0.228516,0.331787
1519480436597,0.021484,0.225586,-0.145264
1519480436630,0.097900,0.363037,-0.419189
1519480436663,0.219238,0.362305,-0.358154
1519480436695,-0.011475,-0.220215,-0.388184
1519480436729,-0.211426,0.229736,-0.053711
1519480436761,-0.151367,0.871338,0.545898
1519480436820,0.682861,0.600098,2.994141
1519480436828,-0.638428,1.622070,2.296631
1519480436854,0.461426,2.093262,2.383789
1519480436911,-0.050049,0.100342,1.355225
1519480436919,0.002197,-0.884521,0.917236
1519480436945,0.270264,-0.707275,0.628174
1519480437015,0.106934,-0.329590,0.122803
1519480437018,0.162109,-0.589844,-0.095703
1519480437082,-0.082031,0.128174,-0.360840
1519480437086,-0.380371,0.585938,-0.061523
1519480437150,-0.614258,0.169189,0.270752
1519480437174,-1.088867,-0.334717,1.001953
1519480437182,-1.519775,0.380859,2.124023
1519480437213,-2.116943,1.145752,2.173584
1519480437245,-1.572510,1.952637,2.144287
1519480437279,-0.354736,1.621582,1.797607
1519480437311,-0.026367,0.778076,0.972900
1519480437343,-0.126465,0.302246,0.218506
1519480437388,-0.449951,0.645752,-0.558350
1519480437394,-0.339600,0.652100,-0.374023
1519480437433,0.063721,0.173096,-0.082275
1519480437487,0.002441,0.215332,-0.149658
1519480437490,0.157715,-0.053467,0.364746
1519480437546,0.423828,0.017334,0.853027
1519480437560,0.020020,0.444336,2.114990
1519480437592,0.330811,0.278076,2.621094
1519480437626,0.613281,-0.179688,2.267334
1519480437658,0.583740,-1.159424,1.584961
1519480437691,0.234375,-0.292480,1.052490
1519480437722,-0.022949,-0.122070,0.649902
1519480437781,-0.429688,-0.018066,0.000244
1519480437813,-0.460693,0.061279,-0.120850
1519480437816,0.304932,-0.307129,0.365967
1519480437872,0.005371,0.040283,0.155762
1519480437905,-0.493408,-0.004883,0.010498
1519480437914,0.431152,-0.939209,0.510986
1519480437964,0.168213,-0.867188,1.083984
1519480437978,0.304199,-1.750000,2.073975
1519480438016,0.822998,-1.806641,2.415283
1519480438047,0.579102,-1.082275,1.221924
1519480438080,0.550293,-0.288574,0.872070
1519480438113,0.638916,-0.005127,0.447510
1519480438145,0.397217,0.423828,0.273682
1519480438176,0.230469,0.541992,0.272217
1519480438209,0.186279,-0.156738,0.220215
1519480438242,0.193115,0.052979,0.264404
1519480438274,0.225830,0.095947,0.416260
1519480438307,0.637939,-0.253906,0.870605
1519480438340,0.741943,-0.162109,1.569824
1519480438374,0.957275,-0.340332,2.030762
1519480438390,0.848145,-0.605469,2.028564
1519480438444,0.769287,-0.876465,1.476318
1519480438453,0.577881,-0.909912,1.172119
1519480438502,0.408691,-0.760498,0.269775
1519480438535,-0.231201,0.001953,0.331543
1519480438567,0.193359,0.343506,0.297852
1519480438600,0.085693,-0.050049,0.148682
1519480438634,-0.092529,-0.343750,-0.120361
1519480438668,-0.190430,-0.409424,-0.068115
1519480438700,-0.164307,-0.868652,0.651123
1519480438732,-0.240723,-0.647461,1.750488
1519480438769,-0.247559,-0.165527,2.448242
1519480438777,0.009521,-0.158447,2.558350
1519480438829,0.544922,-0.629883,1.729980
1519480438861,0.372314,-0.494629,1.262207
1519480438873,0.233154,-0.398682,0.792480
1519480438923,0.249756,-0.068115,0.638184
1519480438955,0.074219,0.305908,0.108887
1519480438990,0.145996,0.536377,-0.351807
1519480439023,-0.071045,0.176270,-0.006348
1519480439056,0.103027,0.174561,0.098877
1519480439090,0.224121,0.652588,0.576416
1519480439124,-0.072510,1.831055,0.780273
1519480439155,0.302490,2.736816,1.149414
1519480439189,0.217285,2.593994,1.564697
1519480439203,0.285889,1.460205,1.596191
1519480439236,0.312256,0.217041,1.149414
1519480439268,0.155762,-0.521484,0.581055
1519480439300,-0.046387,-0.437744,-0.098389
1519480439333,-0.235107,-0.108398,-0.424072
1519480439366,-0.434570,0.177490,-0.156494
1519480439423,-0.606689,0.506592,0.134521
1519480439431,-0.600098,0.266602,0.598633
1519480439456,-0.611084,-0.397461,1.406250
1519480439513,-1.402100,0.820801,2.056152
1519480439518,-1.274414,1.666504,2.480713
1519480439571,-0.206543,1.150391,2.583496
1519480439605,0.509033,-0.029053,1.620850
1519480439619,0.227051,0.057373,0.315186
1519480439652,0.135986,-0.135742,-0.341553
1519480439684,0.559814,0.114014,-0.213379
1519480439715,0.625732,0.569580,-0.406982
1519480439773,0.318359,1.072021,-0.637695
1519480439805,0.091064,0.700439,-0.305420
1519480439808,-0.241699,1.308105,0.010498
1519480439865,-0.782715,1.505127,0.876709
1519480439899,-1.975098,1.638672,1.108887
1519480439907,-2.291260,2.255127,1.498779
1519480439942,-1.661133,1.816162,1.732422
1519480439974,-0.576416,-0.231689,1.362061
1519480440005,-0.450928,-0.534180,0.622314
1519480440047,-0.422363,-0.573730,0.143555
1519480440079,-0.336914,-0.493408,-0.321777
1519480440112,-0.190674,-0.434814,-0.223633
1519480440144,-0.210938,-0.434814,0.055420
1519480440177,-0.758301,0.588135,0.352051
1519480440209,-0.885498,0.908936,1.136230
1519480440242,-1.523438,0.003906,1.027588
1519480440275,-2.700928,0.656738,1.080811
1519480440307,-2.535645,1.447998,1.060547
1519480440312,-1.661865,1.346924,1.237305
1519480440371,-1.104248,0.690918,0.084717
1519480440404,-0.280518,1.063965,0.139160
1519480440416,0.668457,0.359131,-0.008057
1519480440474,0.805420,-0.155762,-0.182861
1519480440476,0.701172,0.343750,-0.212402
1519480440532,0.112061,0.369385,-0.502441
1519480440565,-0.418457,0.822266,-0.105713
1519480440597,-0.868896,0.957275,0.154297
1519480440630,-1.520264,1.077881,0.526123
1519480440662,-2.148193,2.191650,0.492432
1519480440695,-2.025879,1.591309,0.602051
1519480440727,-1.657715,0.744141,0.570313
1519480440760,-1.139893,-0.003418,0.552979
1519480440792,-0.488281,0.063232,0.691406
1519480440795,-0.244873,0.068115,0.179688
1519480440851,-0.195557,-0.147705,-0.051758
1519480440891,-0.138916,0.214844,-0.053711
1519480440894,0.020264,-1.235840,0.208496
1519480440951,-0.580322,-0.098145,0.192383
1519480440983,-1.568604,0.837402,1.115967
1519480441016,-2.921875,0.972412,0.823975
1519480441048,-2.532471,1.733887,1.138672
1519480441081,-1.607178,1.622803,1.338379
1519480441113,-0.714844,0.735352,1.312988
1519480441146,0.187500,-0.191895,0.901855
1519480441181,0.119873,0.085449,0.037109
1519480441214,-0.010742,0.374023,-0.422363
1519480441228,0.146240,0.539063,-0.360596
1519480441260,0.279053,0.669189,-0.355225
1519480441292,0.475098,0.635986,0.097900
1519480441328,0.091309,0.615479,0.989502
1519480441361,-0.616211,0.748779,1.966064
1519480441394,-1.079346,1.029297,2.418457
1519480441426,-0.783203,1.067871,2.186035
1519480441458,-0.565918,-0.093506,1.927002
1519480441492,-0.574707,-0.671631,1.200928
1519480441523,-0.332764,-0.813721,0.162109
1519480441555,-0.022705,-0.633301,-0.110107
1519480441587,-0.061523,-0.010498,-0.395508
1519480441620,-0.104736,0.157471,-0.264893
1519480441661,-0.161865,-0.441650,-0.288086
1519480441694,-0.349121,-0.460938,-0.171143
1519480441726,-0.844971,0.144043,0.741699
1519480441759,-1.703857,0.821289,0.839111
1519480441762,-2.439697,1.181641,0.151367
1519480441818,-2.343506,1.991699,0.220215
1519480441851,-1.656982,2.420898,0.112061
1519480441855,-1.056396,1.686035,0.089111
1519480441914,-0.308594,0.979980,0.077637
1519480441946,0.027588,0.912598,0.000488
1519480442018,0.106934,0.643799,-0.024902
1519480442022,0.061279,-0.278809,-0.244385
1519480442087,-0.090088,0.038330,-0.418701
1519480442091,0.236572,0.760742,-0.093506
1519480442156,0.290039,1.097168,0.302734
1519480442164,-0.235352,1.236572,0.360596
1519480442224,-0.678955,0.117188,1.024658
1519480442233,-1.145264,2.332764,1.829102
1519480442290,-0.664795,0.782471,2.314941
1519480442298,-0.626953,-0.048096,1.763184
1519480442357,-0.800781,-0.339844,0.715088
1519480442362,-0.570557,-0.802246,0.150391
1519480442424,-0.484131,-0.270996,-0.266602
1519480442430,-0.289063,-0.110840,-0.195068
1519480442493,-0.357422,-0.011963,-0.218018
1519480442502,-0.677490,0.420166,-0.250000
1519480442510,-1.189209,-0.594238,0.811035
1519480442528,-1.729980,-0.469971,1.348877
1519480442561,-2.077393,0.211426,1.829346
1519480442608,-2.122314,0.851563,1.948486
1519480442612,-1.386475,0.264404,1.572754
1519480442643,-0.694824,0.612305,0.796875
1519480442675,-0.211426,-0.155029,0.101318
1519480442708,0.298340,0.005371,-0.275635
1519480442739,0.713135,0.253418,-0.449951
1519480442771,0.793457,0.280029,-0.328857
1519480442804,0.940430,0.321777,-0.298828
1519480442844,1.008057,0.785156,-0.216553
1519480442876,0.712158,1.757080,-0.113525
1519480442910,0.345215,2.312744,-0.636719
1519480442943,-0.080322,3.231201,-1.052246
1519480442974,-0.232666,3.230957,-1.197998
1519480443007,-0.285156,2.039063,-1.224854
1519480443038,-0.243896,1.389893,-1.190918
1519480443071,-0.370361,1.116699,-0.933105
1519480443104,-0.634033,0.515869,-0.923096
1519480443135,-0.749756,1.013916,-0.526123
1519480443168,-0.824219,0.776611,-0.204834
1519480443200,-0.428711,1.655029,0.319580
1519480443234,0.344727,1.260742,0.490723
1519480443250,1.830566,0.840088,-0.337646
1519480443307,2.382813,1.162109,-1.433350
1519480443316,2.262451,0.888916,-1.314697
1519480443365,1.629639,0.182617,-1.379639
1519480443368,1.328613,0.022217,-1.321533
1519480443400,0.791504,0.365723,-0.896973
1519480443457,0.042725,0.271484,-0.320801
1519480443488,-0.236084,-0.376953,0.291992
1519480443521,-0.370850,-0.057373,0.320068
1519480443554,-0.437744,-0.389893,0.097168
1519480443587,-0.302246,-0.557129,-0.411621
1519480443620,0.145996,-0.471191,-0.646973
1519480443654,1.436279,-0.924316,-1.293945
1519480443686,2.032471,-0.272217,-1.064941
1519480443719,2.951172,-0.076660,-1.427246
1519480443749,2.336670,0.036377,-1.325928
1519480443783,1.247314,0.193848,-1.053223
1519480443791,0.566406,0.285400,-0.795410
1519480443844,-0.182373,0.647461,-0.691650
1519480443887,-0.396973,0.663574,0.115234
1519480443892,-0.505127,0.136719,0.505371
1519480443947,-0.362793,0.513184,0.578125
1519480443952,-0.098877,0.739502,0.303955
1519480444006,0.387695,0.725830,-0.210449
1519480444038,1.634521,0.625732,-1.112793
1519480444070,1.841553,0.167480,-1.629150
1519480444105,1.807617,0.315430,-1.754395
1519480444137,1.304932,-0.021973,-1.925781
1519480444168,0.824707,-0.110596,-1.950439
1519480444202,0.259521,0.244629,-1.517090
1519480444232,0.062744,-0.225098,-0.012695
1519480444265,0.078857,-0.841553,0.744385
1519480444298,-0.162598,-0.789795,0.404297
1519480444331,-0.098633,-0.625977,0.008789
1519480444364,-0.188477,-0.894531,-0.367188
1519480444367,-0.318604,-0.648193,-0.717529
1519480444423,1.090820,-0.847900,-1.427002
1519480444463,1.946045,-0.439209,-1.233398
1519480444469,2.799316,0.020996,-1.381348
1519480444523,1.846680,-0.071777,-1.630615
1519480444555,1.160156,0.266357,-1.325928
1519480444587,0.496094,0.304932,-1.288818
1519480444594,-0.049805,1.251465,-0.318604
1519480444650,-0.661377,0.965088,-0.117432
1519480444683,-0.673096,0.383789,0.218994
1519480444716,-0.246094,0.814453,0.440674
1519480444749,0.138428,0.322021,0.175293
1519480444787,0.646729,0.014160,-0.187012
1519480444796,1.722656,-0.218506,-0.867920
1519480444833,2.051025,-0.493164,-1.530762
1519480444865,2.119873,-0.070801,-1.831055
1519480444898,1.885010,-0.192871,-1.759766
1519480444931,1.269287,-0.602295,-1.504883
1519480444964,0.708252,-0.291748,-1.113037
1519480444995,0.146484,-0.489258,-0.387939
1519480445026,-0.179443,-0.291260,0.183105
1519480445059,-0.354248,-0.197021,0.456299
1519480445091,-0.413330,-0.277100,-0.014404
1519480445124,-0.787598,-0.054688,-0.778320
1519480445169,-0.543945,-0.232178,-0.376953
1519480445202,0.173828,-0.570801,-1.185547
1519480445211,1.131836,-0.749512,-1.420898
1519480445247,2.281006,-0.003174,-1.898926
1519480445280,2.627686,-0.542480,-1.554688
1519480445311,1.849365,0.085693,-1.085449
1519480445344,1.099365,0.642822,-0.709961
1519480445400,0.310791,0.630859,-0.105957
1519480445406,0.139160,0.899658,0.573242
1519480445439,-0.039307,0.071777,0.703125
1519480445474,-0.010986,-0.194824,0.552979
1519480445508,0.187500,0.078125,0.104736
1519480445541,0.666016,-0.156738,-0.483398
1519480445573,1.018066,0.427246,-1.085938
1519480445607,1.479980,0.227783,-1.456787
1519480445639,1.995850,-0.112549,-1.435059
1519480445680,1.545166,0.276611,-1.778320
1519480445713,1.001465,0.282471,-1.669678
1519480445748,0.689697,0.655029,-1.107178
1519480445781,0.036865,0.186279,-0.438232
1519480445788,-0.433838,-0.475586,-0.100830
1519480445845,-1.011475,-0.373779,0.169922
1519480445878,-0.920654,-0.188477,0.360596
1519480445910,-0.373535,-0.255127,0.031006
1519480445921,0.070557,-0.513672,-0.686523
1519480445969,1.201904,0.277832,-1.635010
1519480445975,1.457031,0.459473,-2.118896
1519480446008,1.671143,0.717773,-2.199951
1519480446073,1.236816,0.448486,-1.879883
1519480446079,0.949463,0.481689,-0.976074
1519480446106,0.709717,0.732666,-0.480225
1519480446164,0.348633,0.343018,-0.075684
1519480446196,0.052979,-0.201172,0.172852
1519480446203,0.252441,-0.584961,0.872559
1519480446261,0.143066,-0.155762,0.995117
1519480446293,0.040039,0.181396,0.887207
1519480446327,-0.259521,0.571045,0.123291
1519480446359,0.496582,1.472412,-1.361572
1519480446393,1.213379,0.589111,-2.306152
1519480446424,1.934570,0.080078,-3.007080
1519480446448,2.213135,-0.438232,-2.365967
1519480446455,2.108887,-1.733643,-1.043701
1519480446511,1.230469,-1.047119,-0.716309
1519480446544,0.381104,0.032959,-0.515137
1519480446576,-0.169678,0.007568,-0.182373
1519480446584,-0.588867,0.005615,-0.105957
1519480446640,-0.640869,0.066650,-0.211182
1519480446674,-0.460938,-0.026367,-0.498047
1519480446713,-0.030762,-0.447754,-0.461670
1519480446744,1.365723,-1.147217,-1.102783
1519480446778,2.073975,-0.928467,-0.583252
1519480446786,2.678955,-0.653076,-0.617676
1519480446834,2.490723,-0.155518,-0.590088
1519480446875,1.745605,0.476074,-0.340820
1519480446878,1.097412,0.824463,-0.506592
1519480446934,0.306396,1.218018,-0.437500
1519480446939,-0.335938,1.199707,-0.057129
1519480447012,-0.516357,0.801514,0.153076
1519480447078,-0.349609,0.937988,0.173340
1519480447081,-0.207275,1.200684,0.370605
1519480447148,0.046875,1.435059,0.205322
1519480447156,1.040771,1.834961,0.018066
1519480447214,1.886475,2.550781,-0.774658
1519480447223,3.201660,2.721436,-1.431152
1519480447281,3.625244,1.922363,-2.383057
1519480447347,2.713867,1.104004,-2.097656
1519480447351,2.001465,0.641357,-1.628906
1519480447416,1.282959,-0.333984,-1.472900
1519480447419,0.832764,-1.061768,-0.963379
1519480447483,0.674072,-1.560547,-0.653809
1519480447489,0.904053,-2.432373,-0.807129
1519480447510,1.120361,-1.652100,-0.561035
1519480447519,1.400879,-0.757568,-0.139648
1519480447528,1.992920,0.830811,-0.875732
1519480447536,2.421631,2.639160,-0.769775
1519480447575,2.128174,3.381348,-0.375732
1519480447607,1.118896,3.013428,-0.208496
1519480447615,0.481445,2.221924,-0.089111
1519480447651,-0.108398,1.576904,-0.014160
1519480447684,-0.757080,1.005615,-0.070313
1519480447728,-1.042480,0.701172,0.159424
1519480447761,-1.316162,0.380859,0.159912
1519480447794,-1.407227,-0.144775,-0.362061
1519480447826,-1.339600,0.151611,-0.404785
1519480447859,-0.963867,0.583984,-0.379150
1519480447894,-0.533447,2.189941,-0.833984
1519480447926,0.619873,4.056152,-1.772217
1519480447958,2.348145,3.993652,-1.310303
1519480447991,2.051514,2.555420,-0.680664
1519480448023,1.763916,1.628174,-0.860352
1519480448053,1.330811,0.833984,-0.729736
1519480448086,0.802490,-0.116455,-0.327637
1519480448119,0.514160,-0.676514,-0.352783
1519480448152,0.677490,-0.635254,-0.435059
1519480448185,0.951416,-0.827393,-0.350342
1519480448219,1.032227,-0.702637,-0.420410
1519480448255,1.024658,-0.292480,-0.358643
1519480448283,1.163330,0.997314,-0.236328
1519480448315,1.432373,1.882568,-0.517090
1519480448324,1.277100,2.790527,-0.756836
1519480448372,1.066895,3.382080,-0.427246
1519480448406,0.641602,2.454590,-0.243896
1519480448411,0.169678,1.614746,-0.211914
1519480448469,-0.414551,0.892334,-0.259033
1519480448503,-0.746094,0.596924,-0.185303
1519480448538,-1.145508,0.422607,-0.079590
1519480448568,-1.620361,0.037109,-0.138184
1519480448585,-1.493652,0.112061,-0.136719
1519480448630,-1.289063,0.315430,-0.334717
1519480448663,-1.219727,0.731445,-0.867188
1519480448695,-1.161865,2.126465,-1.984375
1519480448728,-0.259766,3.800293,-2.820801
1519480448760,0.854736,3.168457,-2.938232
1519480448791,1.528076,1.845215,-2.287598
1519480448824,1.379639,0.705811,-1.313477
1519480448857,1.217041,-0.408203,-0.431885
1519480448890,1.199707,-0.797607,-0.009521
1519480448896,1.232666,-0.792969,0.330078
1519480448954,1.067627,-0.022705,-0.005371
1519480449010,0.635254,0.084961,-0.538086
1519480449018,0.291992,0.065430,-0.440674
1519480449055,0.485596,0.627441,-0.363037
1519480449064,0.604492,1.444336,-0.915771
1519480449120,0.654541,1.762207,-1.408203
1519480449150,0.061279,2.237549,-1.912842
1519480449185,-0.779541,1.783936,-1.212891
1519480449215,-0.800293,1.699219,-0.421631
1519480449248,-0.107666,0.710205,-0.079102
1519480449281,0.031250,0.354980,-0.012207
1519480449314,-0.032959,-0.014404,0.076416
1519480449347,-0.317627,-0.076904,-0.199707
1519480449380,-0.237793,-0.057373,-0.124268
1519480449412,-0.288086,0.390625,-0.303955
1519480449425,-0.473877,1.358643,-1.551025
1519480449482,-0.305420,1.514160,-2.557129
1519480449488,-0.205811,1.296143,-2.333984
1519480449540,0.242188,1.452148,-2.122559
1519480449544,0.138916,0.985107,-1.520020
1519480449580,0.145508,0.514404,-0.938721
1519480449638,0.214600,-0.177246,-0.428711
1519480449641,0.246094,-0.408936,-0.185791
1519480449697,0.370361,-0.284668,0.036621
1519480449730,0.521973,-0.117676,-0.271484
1519480449764,0.606445,0.251465,-0.552979
1519480449796,0.731445,0.655762,-0.858398
1519480449829,0.312500,0.975098,-1.523438
1519480449842,0.153320,1.414063,-2.045898
1519480449898,-0.312500,1.110596,-2.019287
1519480449909,-0.823730,0.582031,-1.433350
1519480449941,-0.981934,0.184082,-0.749756
1519480449974,-0.922852,0.007324,-0.419922
1519480450008,-0.866455,-0.195801,-0.341309
1519480450041,-0.765137,-0.196533,-0.210205
1519480450072,-0.613525,-0.110596,-0.026855
1519480450104,-0.511230,0.117432,0.094482
1519480450138,-0.541748,0.191406,-0.100342
1519480450171,-0.691650,0.370117,-0.552734
1519480450204,-0.687012,1.369385,-1.796631
1519480450236,-0.339844,1.534424,-2.047607
1519480450288,-0.146729,1.591553,-1.900635
1519480450291,-0.051270,1.293457,-1.036377
1519480450347,-0.137451,0.786865,-0.784912
1519480450352,-0.044922,0.458252,-0.469238
1519480450406,-0.063232,0.196533,-0.238770
1519480450439,-0.015381,0.151123,-0.030762
1519480450448,0.175293,0.354736,0.037109
1519480450497,0.424072,0.626221,-0.439453
1519480450530,0.444336,1.071045,-0.615723
1519480450541,0.238281,1.234619,-0.535400
1519480450598,-0.029785,1.818115,-1.017822
1519480450603,-0.044678,1.827881,-0.929688
1519480450660,-0.081055,1.695068,-0.721680
1519480450674,-0.233887,1.102539,-0.549561
1519480450707,-0.394775,0.632080,-0.358887
1519480450765,-0.472900,0.393311,-0.259033
1519480450770,-0.484375,0.364014,-0.156738
1519480450828,-0.450439,0.157959,0.006836
1519480450858,-0.349609,0.121338,0.088623
1519480450892,-0.286621,0.143311,-0.068604
1519480450924,-0.321777,0.483887,-0.078369
1519480450933,-0.400146,1.000732,-0.344482
1519480450982,-0.264160,1.440674,-0.792725
1519480451015,-0.041504,1.713135,-0.916016
1519480451021,0.069092,1.588867,-0.914795
1519480451076,0.016357,1.323486,-0.693115
1519480451109,-0.008301,1.022949,-0.447266
1519480451141,-0.067871,0.724121,-0.292969
1519480451175,-0.142334,0.367920,-0.169922
1519480451209,-0.041504,0.171143,-0.078369
1519480451241,0.081299,0.173340,-0.056396
1519480451274,0.249512,0.428467,-0.416016
1519480451306,0.161865,0.736572,-0.487061
1519480451339,-0.041748,1.016357,-1.136230
1519480451369,-0.027344,1.551758,-1.438965
1519480451401,0.089111,1.724609,-1.160889
1519480451434,-0.018311,1.272949,-0.989258
1519480451467,-0.227783,0.950928,-0.731934
1519480451486,-0.385254,0.650391,-0.559814
1519480451523,-0.446045,0.441162,-0.454346
1519480451572,-0.435303,0.320557,-0.113281
1519480451577,-0.371094,-0.165771,-0.055176
1519480451612,-0.405518,0.233643,-0.269531
1519480451645,-0.538086,0.733887,-0.411865
1519480451679,-0.269531,1.165771,-0.464111
1519480451712,-0.051514,1.143799,-0.873291
1519480451743,-0.068359,1.190186,-1.641357
1519480451774,0.005371,1.133789,-1.425293
1519480451806,0.416992,0.889404,-0.746094
1519480451839,0.140625,1.061279,-1.005371
1519480451881,0.119385,1.036133,-0.566895
1519480451886,0.007568,0.900879,-0.505127
1519480451943,-0.043701,0.234375,0.010986
1519480452016,-0.008789,0.501465,0.015869
1519480452024,-0.038086,0.625488,-0.317871
1519480452081,-0.085938,0.604004,-0.555420
1519480452084,-0.190430,0.608154,-0.667236
1519480452152,-0.246826,1.126465,-1.019287
1519480452159,0.123779,1.729492,-0.815918
1519480452217,0.028564,1.007080,-0.638428
1519480452222,-0.156982,1.163330,-0.391602
1519480452284,-0.320313,1.706787,-0.364014
1519480452352,-0.215088,1.209473,-0.135010
1519480452420,-0.219482,0.504639,-0.093262
1519480452425,-0.276855,0.222900,-0.159668
1519480452488,-0.106201,0.349854,-0.198242
1519480452493,0.019531,0.297607,-0.080322
1519480452505,-0.248291,0.735840,-0.233887
1519480452509,-0.213379,1.187256,-0.521729
1519480452512,-0.396729,0.682861,-0.723145
1519480452516,-0.481934,1.855469,-0.784180
1519480452540,-0.681885,1.641846,-0.614014
1519480452573,-0.615967,1.111816,-0.579834
1519480452630,-0.271973,0.564697,-0.282471
1519480452632,-0.105225,0.570557,-0.137451
1519480452664,0.000488,0.416260,-0.149902
1519480452723,-0.117920,0.167969,-0.310547
1519480452756,-0.011475,0.091064,-0.291504
1519480452764,-0.279053,0.662354,-0.282227
1519480452818,-0.598633,1.250977,-0.545166
1519480452848,-0.611572,1.291260,-0.489502
1519480452880,-0.665527,1.239990,-0.515869
1519480452914,-0.591797,1.354492,-0.294678
1519480452945,-0.689209,1.269287,-0.335205
1519480452948,-0.789551,0.963135,-0.350098
1519480453005,-0.568604,0.609131,-0.278320
1519480453039,-0.341797,0.566162,-0.140381
1519480453070,-0.381836,0.554199,-0.178223
1519480453083,-0.304688,0.326904,-0.125732
1519480453115,-0.312744,0.217773,-0.133789
1519480453149,-0.383789,0.310547,-0.204834
1519480453183,-0.787598,1.158447,-0.332275
1519480453214,-0.883545,1.228516,-0.668457
1519480453246,-0.925537,1.297119,-0.718262
1519480453278,-0.868652,1.279053,-0.708008
1519480453336,-0.616455,1.059326,-0.463623
1519480453368,-0.674316,1.156738,-0.612061
1519480453377,-0.526611,0.506592,-0.417236
1519480453409,-0.307129,0.359863,-0.050537
1519480453446,-0.213135,0.440186,-0.016602
1519480453486,-0.232910,0.231201,-0.023193
1519480453519,-0.179688,0.205566,-0.236816
1519480453552,-0.435547,0.521484,-0.530762
1519480453583,-0.682861,0.913330,-0.661377
1519480453615,-0.789795,1.098145,-0.369141
1519480453648,-0.937744,1.267578,-0.674805
1519480453680,-0.796875,1.001709,-0.515137
1519480453714,-0.614014,1.060303,-0.182861
1519480453747,-0.603760,0.870117,-0.362793
1519480453779,-0.436523,0.788330,-0.334961
1519480453813,-0.423584,0.537842,-0.305420
1519480453843,-0.395996,0.253174,-0.254395
1519480453875,-0.343750,0.323242,-0.034668
1519480453916,-0.304688,0.482178,-0.051514
1519480453918,-0.427979,0.673096,-0.062256
1519480453976,-0.857178,0.843750,-0.591309
1519480454010,-1.072510,1.133789,-0.846924
1519480454014,-1.069824,1.475098,-0.874268
1519480454068,-0.650635,1.040039,-0.627686
1519480454075,-0.648682,0.825195,-0.762207
1519480454128,-0.404785,0.527588,-0.492188
1519480454142,-0.228516,0.482422,-0.262695
1519480454175,-0.262451,0.672119,-0.377197
1519480454207,-0.182861,0.374023,-0.266602
1519480454240,-0.183105,0.187256,-0.434082
1519480454298,-0.248535,0.572998,-0.668945
1519480454312,-0.408691,0.846924,-0.588623
1519480454344,-0.627441,0.792725,-0.676514
1519480454376,-0.697510,1.152832,-0.916260
1519480454412,-0.597168,1.337402,-0.791504
1519480454445,-0.546143,1.274658,-0.388428
1519480454477,-0.504150,0.846680,-0.264404
1519480454510,-0.514160,0.761719,-0.457275
1519480454543,-0.396973,0.554932,-0.189941
1519480454575,-0.368164,0.373779,-0.024414
1519480454607,-0.400879,0.392822,-0.113037
1519480454639,-0.309570,0.533203,-0.064209
1519480454672,-0.261230,0.661865,-0.209229
1519480454705,-0.380371,1.170898,-0.381592
1519480454747,-0.564209,1.017334,-0.732910
1519480454757,-0.787598,1.320313,-1.031494
1519480454810,-0.803223,1.449463,-0.953857
1519480454843,-0.601318,1.013184,-0.882324
1519480454875,-0.231934,0.718750,-0.748779
1519480454907,-0.173828,0.517578,-0.527100
1519480454942,-0.075439,0.500977,-0.248047
1519480454950,0.000000,0.406250,-0.191895
1519480454975,-0.052002,0.302979,-0.320068
1519480455032,-0.020752,0.245117,-0.230469
1519480455037,-0.248047,0.613525,-0.062988
1519480455095,-0.622803,0.761475,-0.562256
1519480455110,-0.829102,1.577637,-0.707764
1519480455149,-0.616943,1.583496,-0.418945
1519480455189,-0.574463,1.213379,-0.452148
1519480455221,-0.654541,0.865479,-0.849609
1519480455255,-0.517822,0.712891,-0.785889
1519480455288,-0.387939,0.610840,-0.342285
1519480455321,-0.393311,0.541748,-0.266846
1519480455352,-0.368408,0.321533,-0.294189
1519480455410,-0.243652,0.277344,-0.054688
1519480455418,-0.279541,0.732178,-0.151855
1519480455441,-0.390625,0.832275,-0.299072
1519480455476,-0.514404,1.036621,-0.427246
1519480455507,-0.644775,1.294434,-0.742676
1519480455539,-0.855713,1.288086,-0.995361
1519480455571,-0.691406,1.240234,-0.854736
1519480455604,-0.580566,1.129395,-0.667480
1519480455637,-0.454590,0.838135,-0.604004
1519480455670,-0.298096,0.502930,-0.372559
1519480455703,-0.206787,0.471436,-0.281250
1519480455736,-0.127197,0.542969,-0.159912
1519480455768,0.017090,0.229248,-0.196533
1519480455801,-0.022217,0.702881,-0.287842
1519480455833,-0.366943,0.601807,-0.356689
1519480455866,-0.588135,0.710205,-0.536865
1519480455896,-0.504639,1.314941,-0.519043
1519480455929,-0.570068,1.517578,-0.321289
1519480455937,-0.661621,1.157471,-0.528564
1519480455993,-0.619141,0.709961,-0.801758
1519480456025,-0.575684,0.833496,-0.566162
1519480456033,-0.472656,0.961182,-0.336670
1519480456088,-0.423584,0.700928,-0.053223
1519480456121,-0.328369,0.473633,-0.018799
1519480456154,-0.181152,0.413574,-0.079346
1519480456186,-0.217285,0.803955,-0.474365
1519480456218,-0.333740,0.854492,-0.638916
1519480456251,-0.488770,0.535645,-0.618896
1519480456284,-0.697266,1.034912,-0.868652
1519480456316,-0.696533,1.101318,-0.835205
1519480456352,-0.689697,0.863037,-0.677490
1519480456384,-0.527588,0.646973,-0.406494
1519480456417,-0.468994,0.646484,-0.378174
1519480456449,-0.462891,0.712402,-0.334717
1519480456482,-0.347900,0.502930,-0.189697
1519480456515,-0.388916,0.432861,-0.298096
1519480456520,-0.452881,0.463379,-0.488525
1519480456574,-0.488525,0.385742,-0.321533
1519480456606,-0.625488,0.849121,-0.875732
1519480456637,-0.502197,1.029541,-0.622070
1519480456688,-0.431152,1.126709,-0.782471
1519480456691,-0.335205,0.968994,-0.708984
1519480456735,-0.542480,0.941162,-0.556885
1519480456767,-0.614014,0.564453,-0.577148
1519480456801,-0.725586,0.685547,-0.451416
1519480456833,-0.768799,0.724121,-0.358398
1519480456866,-0.676514,0.352783,0.024170
1519480456896,-0.593018,0.469727,0.002686
1519480456900,-0.568848,0.854492,-0.146240
1519480456957,-0.833984,1.122559,-0.196289
1519480457028,-0.694824,0.510742,-0.302002
1519480457031,-0.571533,0.721436,-0.574707
1519480457094,-0.847900,0.770508,-1.202637
1519480457165,-0.714600,0.900879,-1.088623
1519480457231,-0.309814,0.506348,-0.405762
1519480457236,-0.820068,0.469482,-0.776367
1519480457299,-0.841064,0.565918,-0.506104
1519480457304,-0.672852,0.460693,-0.096436
1519480457367,-0.482666,0.513672,-0.082520
1519480457373,-0.292236,0.338623,0.093994
1519480457432,-0.375000,0.198975,0.016602
1519480457436,-0.629639,0.221924,-0.456055
1519480457488,-0.726807,0.522461,-0.500488
1519480457491,-0.782227,0.510986,-0.464844
1519480457494,-0.869385,0.653809,-0.565430
1519480457504,-0.964844,0.554199,-0.625000
1519480457507,-0.979736,0.811279,-0.739990
1519480457538,-0.983398,0.954834,-0.739258
1519480457571,-0.844238,0.708740,-0.558105
1519480457576,-0.646484,0.772217,-0.716797
1519480457634,-0.591553,0.927246,-0.360840
1519480457666,-0.641357,0.628662,-0.386963
1519480457699,-0.492676,0.686523,-0.308350
1519480457731,-0.478027,0.489258,-0.244385
1519480457764,-0.430420,0.329102,-0.212891
1519480457796,-0.466553,0.363525,-0.109131
1519480457827,-0.414063,0.519287,-0.032227
1519480457860,-0.391357,0.782959,-0.224121
1519480457893,-0.392578,0.868408,-0.326660
1519480457935,-0.210205,0.729492,-0.013184
1519480457941,-0.369385,0.831055,-0.147705
1519480457997,-0.536133,0.788330,-0.443848
1519480458029,-0.684082,0.991699,-0.815430
1519480458061,-0.525879,1.199219,-0.957031
1519480458067,-0.271240,1.128418,-0.702881
1519480458120,-0.144287,1.041504,-0.445313
1519480458152,-0.229980,0.930176,-0.589111
1519480458158,-0.263672,0.582275,-0.407227
1519480458215,-0.246826,0.499268,-0.146729
1519480458246,-0.170654,0.721924,-0.319092
1519480458281,-0.130127,0.757568,-0.221436
1519480458295,-0.084717,0.832764,-0.375977
1519480458328,-0.193604,0.901123,-0.521240
1519480458360,-0.209229,1.037109,-0.487305
1519480458393,-0.229980,1.155273,-0.507568
1519480458425,-0.240967,1.238770,-0.655029
1519480458458,-0.215332,1.253662,-0.672852
1519480458515,-0.071045,0.976807,-0.659912
1519480458548,-0.022949,0.896973,-0.561523
1519480458554,-0.076660,1.021484,-0.673340
1519480458612,-0.094971,1.107422,-0.712402
1519480458645,-0.157227,1.041748,-0.739258
1519480458650,-0.238037,1.179443,-0.718750
1519480458678,-0.295166,1.064453,-0.585205
1519480458719,-0.317871,0.875488,-0.506592
1519480458737,-0.358398,0.678711,-0.520264
1519480458795,-0.364014,0.520752,-0.356445
1519480458828,-0.397705,0.393555,-0.261230
1519480458861,-0.411377,0.244629,-0.168213
1519480458892,-0.293701,0.408203,-0.136230
1519480458926,-0.218262,0.424561,-0.204590
1519480458958,-0.497803,0.610596,-0.473633
1519480458991,-0.523193,1.416016,-1.008789
1519480459023,-0.320801,1.753906,-1.027832
1519480459028,-0.236328,1.702393,-0.931641
1519480459080,-0.199219,1.498291,-0.790283
1519480459113,-0.197510,1.278320,-0.575439
1519480459145,-0.138672,0.810303,-0.372559
1519480459178,-0.058594,0.590332,-0.174316
1519480459210,-0.046143,0.423340,-0.050537
1519480459222,-0.015137,0.278564,0.041260
1519480459280,0.023438,0.329102,-0.051514
1519480459313,0.169189,0.451660,-0.069580
1519480459345,0.094238,0.607910,-0.109619
1519480459353,-0.014648,1.152832,-0.303711
1519480459409,-0.072510,1.557373,-0.397217
1519480459442,-0.073975,1.638672,-0.351318
1519480459474,-0.306152,1.537109,-0.361084
1519480459487,-0.465820,1.344727,-0.354492
1519480459520,-0.494385,1.087646,-0.246338
1519480459552,-0.480225,0.811279,-0.273926
1519480459610,-0.470703,0.585938,-0.262207
1519480459615,-0.455566,0.424072,-0.214111
1519480459669,-0.356689,0.367920,-0.184570
1519480459675,-0.284180,0.449951,-0.167725
1519480459728,-0.339600,0.495850,-0.203369
1519480459760,-0.439941,1.056885,-0.518311
1519480459768,-0.399170,1.377197,-0.597656
1519480459823,-0.244629,1.640869,-0.788818
1519480459855,-0.215088,1.523438,-0.587891
1519480459888,-0.236084,1.195313,-0.418945
1519480459904,-0.202881,0.878906,-0.272461
1519480459932,-0.129150,0.634033,-0.166016
1519480459990,-0.090576,0.543457,-0.094727
1519480460022,-0.001709,0.486084,-0.102539
1519480460055,0.096680,0.560059,-0.180908
1519480460088,0.218262,0.587891,-0.171143
1519480460096,0.209717,0.671631,-0.201416
1519480460145,0.098145,1.130859,-0.344482
1519480460178,-0.084229,1.500000,-0.396484
1519480460185,-0.088379,1.774170,-0.520996
1519480460240,-0.100830,1.831543,-0.354736
1519480460274,-0.273926,1.613281,-0.358643
1519480460307,-0.419434,1.177979,-0.234863
1519480460321,-0.458740,0.704346,-0.133301
1519480460353,-0.430908,0.499268,-0.093506
1519480460386,-0.378174,0.299316,-0.045898
1519480460418,-0.356934,0.334717,-0.013428
1519480460476,-0.369385,0.311279,-0.100098
1519480460528,-0.408447,0.346191,-0.233398
1519480460531,-0.487793,0.981689,-0.542725
1519480460562,-0.387939,1.302002,-0.737061
1519480460594,-0.318604,1.753662,-0.862549
1519480460626,-0.149658,1.779297,-0.863281
1519480460660,-0.124268,1.548584,-0.705811
1519480460669,-0.140137,1.232178,-0.429199
1519480460723,-0.093018,0.764404,-0.162354
1519480460757,-0.057617,0.193848,0.094482
1519480460765,0.007324,-0.079346,0.133789
1519480460820,0.119629,-0.119873,-0.110596
1519480460853,0.365479,0.441162,-0.107910
1519480460886,0.542725,1.045166,-0.212402
1519480460918,0.390625,1.578369,-0.542236
1519480460949,0.133789,1.664795,-0.495605
1519480460982,0.174561,2.092041,-0.590088
1519480461015,0.105713,1.927734,-0.579834
1519480461048,-0.172119,1.505615,-0.412354
1519480461082,-0.390625,1.101318,-0.421143
1519480461113,-0.460449,0.598145,-0.260986
1519480461119,-0.403564,0.332764,-0.150146
1519480461177,-0.357910,0.157227,-0.070801
1519480461208,-0.385254,0.070068,0.050537
1519480461213,-0.423340,-0.019531,-0.058105
1519480461270,-0.503662,0.146240,-0.301758
1519480461303,-0.766113,0.870605,-0.350586
1519480461335,-0.641602,1.828369,-1.040771
1519480461368,-0.560303,1.689941,-1.250732
1519480461401,-0.320068,1.901611,-0.890625
1519480461433,-0.329590,1.697266,-0.771240
1519480461465,-0.258789,1.188965,-0.512939
1519480461498,-0.043457,0.858398,-0.297119
1519480461531,0.028320,0.588379,-0.137695
1519480461564,0.068848,0.272461,-0.040771
1519480461597,0.147949,0.237305,-0.007568
1519480461628,0.278564,0.411621,-0.173584
1519480461634,0.454590,0.643555,-0.311035
1519480461688,0.310791,0.822021,-0.309814
1519480461719,-0.043457,1.073242,-0.625977
1519480461725,-0.377441,1.489258,-0.772705
1519480461783,-0.339111,1.776855,-0.751953
1519480461808,-0.381104,1.391602,-0.703125
1519480461841,-0.501465,1.240479,-0.523926
1519480461874,-0.637939,0.833252,-0.450439
1519480461916,-0.609131,0.360352,-0.393799
1519480461948,-0.631836,0.276611,-0.347656
1519480462021,-0.644531,0.188232,-0.087158
1519480462030,-0.605469,0.046631,-0.184570
1519480462087,-0.564453,0.221191,-0.192139
1519480462099,-0.707520,0.667480,-0.348877
1519480462154,-0.693115,1.150391,-0.978271
1519480462158,-0.647705,1.553955,-1.033936
1519480462222,-0.491943,1.676514,-1.127686
1519480462226,-0.327393,1.535400,-0.957520
1519480462291,-0.277100,1.187500,-0.631104
1519480462300,-0.166992,0.790771,-0.319824
1519480462359,-0.037842,0.405762,0.005127
1519480462362,0.153564,0.186279,0.166260
1519480462427,0.308594,0.391113,0.087158
1519480462436,0.472900,0.653564,-0.167480
1519480462489,0.519043,0.783447,-0.390137
1519480462496,0.238037,1.556641,-1.132324
1519480462504,0.069092,1.729980,-1.087646
1519480462510,-0.128174,1.714600,-0.917480
1519480462543,-0.275879,1.592773,-0.527832
1519480462576,-0.498535,1.209473,-0.527100
1519480462608,-0.760742,0.534668,-0.463867
1519480462667,-0.768799,0.088867,-0.226074
1519480462700,-0.761719,0.055176,-0.020264
1519480462708,-0.719727,0.080322,0.052246
1519480462745,-0.881348,0.144287,-0.064941
1519480462779,-1.127197,0.208984,-0.225098
1519480462811,-1.203613,0.607422,-0.212646
1519480462844,-0.896240,1.040283,-0.918213
1519480462875,-0.854492,1.441650,-1.384033
1519480462906,-0.654785,1.149170,-0.977051
1519480462939,-0.237549,1.485107,-0.884277
1519480462973,0.028809,1.582275,-0.757324
1519480463005,0.074463,1.176514,-0.513184
1519480463037,0.143799,1.021240,-0.248291
1519480463089,0.067383,0.638672,-0.355469
1519480463098,0.131104,0.538574,-0.305664
1519480463135,0.342529,0.668945,-0.339844
1519480463167,0.316406,0.987793,-0.576416
1519480463200,0.185791,1.043213,-0.282959
1519480463233,-0.099854,1.295898,-0.277100
1519480463242,-0.234619,1.296875,-0.635986
1519480463296,-0.419922,1.013184,-0.853027
1519480463328,-0.470947,0.842285,-0.651855
1519480463336,-0.420654,1.129150,-0.534912
1519480463393,-0.496826,0.637207,-0.482422
1519480463426,-0.588135,0.278809,-0.666748
1519480463459,-0.565186,0.440674,-0.461182
1519480463492,-0.842773,0.093750,-1.109863
1519480463531,-0.518555,-0.422363,0.085449
1519480463537,-0.759277,0.362793,-0.014893
1519480463595,-1.048828,0.736816,-0.613525
1519480463626,-0.762695,0.771484,-0.779297
1519480463658,-0.954346,1.439697,-0.876709
1519480463666,-1.020996,1.466797,-0.818848
1519480463717,-0.968750,1.007568,-0.949951
1519480463750,-0.879639,1.136475,-0.871826
1519480463759,-0.464355,0.927490,-0.576172
1519480463808,-0.123535,0.399414,0.050537
1519480463840,0.323486,0.046875,0.066650
1519480463874,0.699219,-0.230957,-0.180664
1519480463908,1.199951,0.194092,-0.419678
1519480463921,1.270020,1.026123,-0.161865
1519480463953,1.339355,0.596924,-0.427734
1519480464012,1.092773,1.529053,-0.753418
1519480464042,0.753174,2.156494,-1.360840
1519480464054,0.327393,1.788330,-1.994629
1519480464109,-0.070068,2.271973,-1.883545
1519480464115,-0.480713,1.930420,-1.351318
1519480464173,-0.919434,1.183350,-1.171631
1519480464206,-1.479736,1.082764,-0.420654
1519480464239,-1.524170,0.810547,-0.081055
1519480464247,-1.569092,0.409180,-0.093262
1519480464300,-1.401611,-0.005371,-0.501221
1519480464309,-1.034180,0.149902,-0.828369
1519480464346,-0.642822,0.808105,-1.399170
1519480464401,0.590332,1.862549,-3.218262
1519480464409,1.073975,2.497803,-2.774414
1519480464458,1.564209,2.248047,-2.322266
1519480464491,1.353760,1.210449,-1.488037
1519480464523,1.283936,0.546875,-0.988037
1519480464531,1.128174,-0.117920,-0.334717
1519480464587,1.125977,-0.862549,-0.072998
1519480464620,1.109375,-1.361084,-0.068848
1519480464653,1.395508,-1.486572,-0.224609
1519480464684,1.499268,-1.018799,-0.496582
1519480464716,1.666992,-0.352295,-0.351318
1519480464732,1.866455,0.892822,-1.000000
1519480464789,2.241943,3.278564,-1.691406
1519480464820,1.741211,3.794189,-1.214355
1519480464823,0.907715,3.090820,-0.274658
1519480464879,-0.229248,2.007813,-0.235596
1519480464884,-0.702148,1.291260,-0.485107
1519480464917,-0.989502,0.623535,-0.457520
1519480464949,-0.960449,0.731934,-0.099121
1519480464983,-0.931396,0.356934,-0.220947
1519480465020,-0.875000,0.166748,-0.315918
1519480465052,-0.800293,0.637451,-0.068848
1519480465083,-0.559326,1.266602,0.002930
1519480465116,0.159668,1.877197,-0.588623
1519480465157,0.920410,2.258301,-0.237305
1519480465191,1.118896,1.973389,-0.202393
1519480465223,1.260498,1.359131,-0.069580
1519480465254,1.396729,0.899902,0.295898
1519480465286,1.085205,0.588379,-0.125000
1519480465319,0.742920,0.084229,0.060547
1519480465352,0.349854,0.170166,0.282715
1519480465385,0.718994,0.095215,0.109619
1519480465418,0.542969,0.440918,0.261230
1519480465449,-0.129150,1.051025,0.582520
1519480465483,0.479980,1.438477,0.307861
1519480465515,0.626953,1.403320,0.022949
1519480465548,0.826660,1.349121,-0.184326
1519480465580,0.745850,1.339844,-0.383545
1519480465612,0.527100,-1.327637,-0.488281
1519480465648,0.537842,0.963379,-0.313965
1519480465681,-0.288086,1.260254,-1.187988
1519480465686,0.197021,0.843262,-0.252197
1519480465739,0.212646,0.701416,-0.735596
1519480465771,0.052002,0.478760,-0.667480
1519480465778,-0.021729,0.882324,-0.602051
1519480465837,-0.022217,0.617920,-0.935059
1519480465869,0.770020,0.364990,-1.024170
1519480465903,1.211670,0.627930,-1.397949
1519480465935,1.557373,1.093750,-0.656982
1519480465968,1.621582,1.531006,-0.933350
1519480465978,1.518066,1.989014,-0.505859
1519480466034,1.536377,1.160889,-0.951172
1519480466066,1.639893,0.663574,0.016113
1519480466099,0.994629,-0.366455,-0.288086
1519480466111,0.936768,-1.637207,-0.013428
1519480466144,1.146729,-0.876221,0.422607
1519480466177,1.189209,-0.591309,0.168945
1519480466236,1.386475,-0.482910,0.142334
1519480466269,1.553223,-0.474854,-0.090332
1519480466277,2.471924,0.508789,-1.027832
1519480466328,2.891602,3.224365,-0.611328
1519480466344,2.017090,2.727783,0.040771
1519480466369,1.272705,2.046387,-0.301758
1519480466424,0.354248,1.228760,-0.993164
1519480466427,-0.463379,1.033936,-0.948486
1519480466483,-1.041748,0.930664,-0.590576
1519480466515,-1.524658,0.470215,-0.629395
1519480466523,-1.584229,0.456543,-0.762207
1519480466581,-1.362549,0.571777,-0.665527
1519480466612,-1.000977,1.074463,-0.960693
1519480466645,-0.309814,1.589844,-1.091064
1519480466678,0.785156,2.586914,-1.597412
1519480466711,2.503662,3.536865,-1.448975
1519480466743,2.907959,2.878174,-0.937988
1519480466757,2.518799,2.025879,-0.739258
1519480466814,1.932861,1.089844,-0.389893
1519480466845,1.497314,0.320313,-0.156738
1519480466849,1.146973,-0.497559,-0.197510
1519480466905,1.110840,-1.257324,-0.448242
1519480466929,1.190186,-1.785889,-0.299072
1519480466940,1.242676,-1.565674,-0.325195
1519480467009,1.238281,-0.771484,-0.469238
1519480467017,1.409912,0.046387,-0.684082
1519480467077,1.745605,2.094971,-1.539063
1519480467085,1.882813,4.573730,-1.134521
1519480467141,1.209961,4.064209,-0.541748
1519480467210,0.387207,2.292725,-0.332764
1519480467277,-0.395996,1.379395,-0.435059
1519480467280,-0.677734,0.901123,-0.230469
1519480467345,-0.916992,0.510742,-0.001953
1519480467353,-1.188232,0.160645,-0.154053
1519480467414,-1.397461,-0.051025,-0.409912
1519480467422,-1.321777,0.162842,-0.373535
1519480467482,-1.071045,0.756104,-0.589844
1519480467489,-0.646729,1.817139,-0.909424
1519480467498,-0.149658,3.753906,-1.492920
1519480467506,1.264893,4.536377,-1.419189
1519480467513,1.817383,3.600098,-1.033447
1519480467527,1.781494,2.075928,-0.985596
1519480467559,1.583496,0.799561,-0.692383
1519480467591,1.507813,0.020264,-0.313721
1519480467624,1.495117,-0.914795,-0.428711
1519480467657,1.624756,-1.394287,-0.668213
1519480467715,1.537598,-1.568848,-0.567139
1519480467719,1.570801,-1.036133,-0.612305
1519480467778,1.525391,-0.287598,-0.586426
1519480467809,1.981934,0.912842,-0.937744
1519480467812,2.578125,3.096191,-1.466553
1519480467869,2.302979,4.508057,-0.812256
1519480467879,1.463867,3.643311,-0.392822
1519480467913,0.506348,2.227783,-0.436279
1519480467968,-0.307617,1.559326,-0.297363
1519480467972,-0.681152,1.203125,-0.114502
1519480468027,-1.032959,0.791260,0.018311
1519480468059,-1.500488,0.405518,-0.143555
1519480468092,-1.490723,0.363037,-0.269043
1519480468125,-1.300781,0.589355,-0.431152
1519480468157,-0.886475,1.171631,-0.776123
1519480468210,-0.358398,2.099365,-1.023193
1519480468218,0.149170,3.389404,-1.579346
1519480468248,1.611572,4.489014,-1.579590
1519480468280,2.040771,3.659668,-1.314209
1519480468313,2.044434,2.448242,-0.936523
1519480468345,1.558838,1.074219,-0.924072
1519480468384,1.437988,0.309082,-0.831055
1519480468387,1.463379,-0.500488,-0.573242
1519480468443,1.522949,-1.136719,-0.852783
1519480468475,1.600586,-1.362061,-1.047363
1519480468509,1.713623,-1.137695,-0.905273
1519480468541,1.725098,-0.312988,-0.730469
1519480468574,1.927490,0.766357,-1.276367
1519480468607,2.440918,3.366211,-1.587891
1519480468638,1.697510,5.393066,-0.976074
1519480468670,0.767822,3.906250,-0.519531
1519480468703,0.049316,2.705322,-0.414795
1519480468735,-0.619629,1.574707,-0.240723
1519480468749,-0.950439,0.958984,-0.304443
1519480468807,-1.352051,0.585938,-0.285645
1519480468840,-1.831055,0.120850,-0.031006
1519480468873,-1.735840,-0.002930,0.235596
1519480468881,-1.345703,0.085938,0.081299
1519480468933,-0.891357,0.463867,-0.812500
1519480468967,-0.444336,1.755127,-1.107666
1519480468976,0.371826,3.549072,-1.633057
1519480469033,1.818359,4.428467,-1.525635
1519480469040,2.196289,3.375977,-1.064453
1519480469090,1.945068,2.069336,-1.215820
1519480469100,1.520508,0.932129,-0.647461
1519480469153,1.240967,0.247314,-0.263916
1519480469185,1.160645,-0.594727,-0.403564
1519480469219,1.188721,-1.195557,-0.484619
1519480469251,1.243164,-1.322021,-0.385498
1519480469283,1.239258,-1.010010,-0.326904
1519480469316,1.352539,-0.371338,-0.737549
1519480469349,1.619385,0.221924,-1.162842
1519480469383,2.485107,3.270264,-1.287598
1519480469415,2.080811,4.589844,-0.844971
1519480469423,0.832764,2.974854,0.057129
1519480469488,0.092285,1.468018,-0.007080
1519480469491,-0.512207,0.948242,0.089355
1519480469521,-0.754150,0.661133,0.336426
1519480469555,-0.894531,0.304443,0.477783
1519480469587,-0.909180,0.157959,0.330566
1519480469619,-0.916260,0.124268,0.102539
1519480469652,-0.988770,0.432373,0.153320
1519480469688,-0.791260,1.266846,0.120117
1519480469721,-0.178711,2.809326,-0.388672
1519480469767,1.115234,4.266357,-0.923584
1519480469798,1.530029,3.702148,-0.742676
1519480469830,1.509033,2.456055,-0.728271
1519480469833,1.457764,1.754150,-0.598877
1519480469891,1.159180,0.805908,-0.437988
1519480469924,0.958496,0.208984,-0.423828
1519480469936,0.796387,-0.341797,-0.404053
1519480469994,0.873291,-0.731934,-0.477539
1519480469998,0.965576,-0.857910,-0.548096
1519480470053,1.134521,-0.790283,-0.671143
1519480470086,1.186279,-0.458252,-0.522461
1519480470093,1.282715,0.046143,-0.186035
1519480470150,1.640869,1.695313,-0.422852
1519480470183,1.733154,4.017578,0.008545
1519480470216,1.380371,4.055664,0.622314
1519480470247,0.718262,2.796631,0.375000
1519480470281,-0.031738,1.411865,0.311035
1519480470313,-0.367676,0.906982,0.353760
1519480470344,-0.758057,0.591797,0.333740
1519480470377,-1.172363,0.316162,0.191406
1519480470410,-1.403809,0.458496,0.075928
1519480470413,-1.457520,0.781982,-0.136475
1519480470468,-1.352539,1.281738,-0.559326
1519480470503,-1.128662,1.688477,-0.783447
1519480470514,-0.453857,2.525635,-0.412354
1519480470565,0.734375,3.818359,-0.400146
1519480470598,1.945068,3.770752,-0.409424
1519480470630,1.844727,2.440430,-0.412354
1519480470662,1.403564,1.210449,-0.211914
1519480470697,1.128418,0.395264,-0.221680
1519480470729,0.918945,-0.316650,-0.176270
1519480470745,0.908447,-0.904053,-0.362061
1519480470800,1.077148,-1.040527,-0.381592
1519480470812,1.290039,-0.691895,-0.269287
1519480470847,1.430664,-0.346436,-0.344727
1519480470880,1.584473,0.508057,-0.241943
1519480470914,2.097900,2.102295,-0.406738
1519480470946,1.939209,3.464844,0.041016
1519480470979,1.417236,3.511963,0.305176
1519480471012,0.902344,2.727295,0.386719
1519480471067,0.350830,1.770020,0.378174
1519480471072,0.045654,1.296143,0.277588
1519480471100,-0.322266,0.873779,0.290527
1519480471133,-1.057617,0.376221,0.051025
1519480471175,-1.589844,0.194092,-0.154053
1519480471208,-1.668457,0.541016,0.056152
1519480471240,-1.300781,0.896729,-0.110352
1519480471272,-0.999023,1.248535,-0.436279
1519480471306,-0.365967,2.375488,-0.486084
1519480471339,0.495117,3.311768,-0.493408
1519480471370,0.952393,3.455078,-0.192627
1519480471403,1.334473,2.772461,-0.333008
1519480471435,1.390137,1.588379,-0.354004
1519480471444,1.318848,1.000488,-0.314453
1519480471498,1.243408,0.439209,-0.276123
1519480471530,1.059570,-0.498047,-0.351318
1519480471539,1.159180,-0.838379,-0.486816
1519480471576,1.277832,-0.862793,-0.474854
1519480471609,1.370117,-0.550537,-0.438965
1519480471641,1.418213,-0.177002,-0.301270
1519480471699,1.608154,1.210938,-0.488770
1519480471708,2.108643,3.663330,-0.134277
1519480471762,1.718994,3.642334,0.410400
1519480471774,1.007813,2.723877,0.315430
1519480471829,0.247314,1.819092,0.212646
1519480471860,-0.032227,1.448975,0.276367
1519480471863,-0.376221,1.179932,0.170654
1519480471919,-0.785156,0.636963,0.002197
1519480471953,-1.372070,0.299561,-0.140137
1519480471956,-1.717529,0.203125,-0.471924
1519480472027,-1.926270,0.184570,-0.849854
1519480472036,-1.454346,0.571533,-0.961670
1519480472094,-0.891846,1.834717,-0.837158
1519480472161,-0.003418,4.389160,-1.628662
1519480472166,1.658203,5.111084,-1.075684
1519480472228,1.748291,4.102539,-0.807617
1519480472231,1.698975,1.944580,-0.788086
1519480472296,1.386230,1.097168,-0.731201
1519480472301,1.241455,0.626221,-0.721191
1519480472364,1.246338,-0.090332,-0.736328
1519480472367,1.347168,-0.568359,-0.798584
1519480472434,1.385742,-0.850098,-0.744141
1519480472437,1.420654,-0.789063,-0.562500
1519480472499,1.348389,-0.661621,-0.499023
1519480472507,1.278320,-0.254395,-0.518066
1519480472517,1.334961,2.202393,-1.092285
1519480472525,1.327148,4.614258,-0.428223
1519480472548,0.854248,4.538574,0.030762
1519480472607,0.320557,3.026611,0.000488
1519480472616,-0.162598,2.013184,-0.099121
1519480472639,-0.526367,1.441406,-0.106201
1519480472671,-1.196045,0.865479,0.121338
1519480472705,-1.411865,0.568115,0.204834
1519480472742,-1.459717,0.407715,0.044189
1519480472775,-1.369629,0.579590,-0.052002
1519480472808,-1.102051,0.885498,0.035889
1519480472842,-0.716797,1.475098,-0.045410
1519480472873,0.140625,3.471924,-0.130615
1519480472907,0.815186,4.813721,0.249756
1519480472939,1.413574,4.336914,0.062256
1519480472972,1.389404,2.374512,-0.147949
1519480473002,1.226318,1.554443,-0.137939
1519480473035,1.171631,0.820557,-0.241455
1519480473091,1.322266,-0.191895,-0.483398
1519480473098,1.486084,-1.029785,-0.790771
1519480473130,1.546875,-1.379395,-0.871582
1519480473163,1.600098,-0.907715,-0.853271
1519480473197,1.653564,-0.218018,-0.724854
1519480473230,1.609131,1.198242,-0.409424
1519480473262,1.480469,4.215332,-0.262939
1519480473298,0.894043,4.925537,0.261230
1519480473330,0.289063,3.529297,0.474365
1519480473363,-0.276611,1.567139,0.344482
1519480473395,-0.584717,0.873291,0.289795
1519480473425,-0.764648,0.552490,0.240479
1519480473458,-0.962402,0.137207,0.146973
1519480473490,-1.118652,-0.098633,-0.000244
1519480473496,-1.191895,-0.167969,-0.106445
1519480473554,-0.973145,0.103516,-0.048096
1519480473568,-0.827881,0.492676,-0.246582
1519480473602,-0.572021,1.522949,-0.251465
1519480473634,-0.193115,3.853760,-0.167725
1519480473692,1.340088,4.460693,0.015625
1519480473701,1.366211,3.003906,-0.222168
1519480473755,1.069092,1.475830,-0.066406
1519480473787,0.861328,0.835205,0.075928
1519480473818,0.688232,0.125732,-0.026611
1519480473850,0.662109,-0.646484,-0.171875
1519480473883,0.708252,-0.977783,-0.269531
1519480473916,0.825195,-0.980713,-0.294678
1519480473949,1.040283,-0.517822,-0.421631
1519480473963,1.140869,-0.280029,-0.599609
1519480473995,1.489990,0.736816,-0.576172
1519480474054,1.965088,3.403076,-0.614746
1519480474062,2.237549,4.169922,-0.169922
1519480474086,1.302002,3.274414,0.287354
1519480474144,0.130371,1.130615,-0.132324
1519480474154,-0.454590,0.702393,-0.167236
1519480474201,-0.693848,0.430176,0.195313
1519480474235,-0.742920,-0.034424,-0.073730
1519480474267,-0.695068,0.282715,-0.144287
1519480474299,-0.639404,0.646240,0.002930
1519480474333,-0.452148,0.922119,0.058105
1519480474366,-0.270752,1.109375,-0.344971
1519480474379,0.206543,0.856689,-0.836182
1519480474437,2.696045,1.287354,-1.676758
1519480474470,3.199951,1.474854,-1.011230
1519480474478,2.814697,-0.092041,-0.897949
1519480474528,1.855957,0.414795,-1.450439
1519480474560,1.068359,0.518799,-0.924805
1519480474567,0.346191,0.402344,-0.444580
1519480474618,-0.348877,-0.180664,0.323975
1519480474650,-0.681641,-0.239014,0.259277
1519480474685,-0.807861,-0.320313,0.103271
1519480474719,-0.583740,-0.340088,-0.556152
1519480474728,0.004883,-0.478027,-0.627197
1519480474784,1.167480,0.049805,-1.115479
1519480474797,3.135742,0.996094,-1.357666
1519480474828,3.679688,0.082764,-1.395752
1519480474887,2.198486,0.387695,-1.685791
1519480474895,0.463379,0.679443,-0.616455
1519480474949,0.017090,0.978271,-0.118164
1519480474980,0.030762,1.109619,0.527588
1519480475013,-0.344482,0.575684,0.381592
1519480475045,-0.539063,-0.102295,0.363770
1519480475049,-0.600342,-0.479492,0.433105
1519480475105,-0.312744,-0.250000,0.332031
1519480475138,0.020752,0.083496,-0.048828
1519480475145,0.655273,0.740234,-0.515869
1519480475199,1.656982,1.429932,-2.909424
1519480475214,2.937744,1.212891,-1.742188
1519480475248,2.582031,1.125000,-1.554443
1519480475280,1.215820,0.687012,-1.617432
1519480475310,0.684082,0.468018,-0.836914
1519480475343,0.218506,0.057373,-0.587891
1519480475375,-0.176270,-0.355957,-0.181152
1519480475409,-0.322998,-0.408936,0.078125
1519480475467,-0.410400,-0.425293,-0.000244
1519480475476,-0.249512,-0.394287,-0.262939
1519480475530,-0.014648,-0.335693,-0.744873
1519480475538,0.195801,-0.336426,-0.863281
1519480475587,1.211182,-0.325928,-1.436279
1519480475590,1.809326,0.040039,-1.757813
1519480475627,2.364258,0.595459,-1.958252
1519480475684,1.837402,0.281738,-1.573486
1519480475690,1.137451,0.502686,-0.863770
1519480475746,0.478271,0.947998,-0.698975
1519480475781,-0.103271,1.039795,-0.522217
1519480475810,-0.326416,0.731445,-0.361816
1519480475844,-0.634277,0.340332,-0.325439
1519480475890,-0.395996,0.688965,0.137695
1519480475898,0.220459,0.315430,1.104980
1519480475924,0.746338,-0.272949,1.783691
1519480475958,1.068604,0.874756,-0.895752
1519480476014,1.579834,1.655273,-2.337646
1519480476023,1.886719,0.871826,-2.654541
1519480476058,1.223633,-0.180664,-2.722900
1519480476090,0.585205,0.050049,-2.116699
1519480476123,0.293701,0.222900,-1.538818
1519480476155,0.089355,-0.155273,-0.636963
1519480476188,-0.181885,-0.479492,-0.156006
1519480476222,-0.290283,-0.441895,0.120850
1519480476255,-0.495117,-0.269531,0.169678
1519480476288,-0.552490,-0.161133,-0.019531
1519480476318,-0.392334,0.079346,-0.413574
1519480476352,0.811279,0.335938,-1.407959
1519480476385,2.064697,0.965576,-1.306152
1519480476417,2.820801,0.231934,-2.477295
1519480476457,1.733154,-0.461670,-1.518066
1519480476489,1.288330,-0.521973,-0.820068
1519480476522,0.831299,-0.156250,-0.506836
1519480476554,0.396484,0.242432,0.010010
1519480476587,0.079834,0.457031,0.478760
1519480476590,-0.306152,0.694092,0.654053
1519480476661,-0.036133,-0.876465,0.828369
1519480476667,0.287354,0.267578,0.909912
1519480476695,0.403564,1.452393,1.013916
1519480476754,1.634521,1.834717,-0.052002
1519480476763,2.413818,1.742676,-0.314209
1519480476788,2.944092,1.754639,-1.221191
1519480476825,2.784180,1.639648,-1.650391
1519480476856,2.226807,1.276855,-1.505859
1519480476887,1.734863,0.672119,-1.296143
1519480476919,0.843506,-0.553223,-1.030762
1519480476952,0.222168,-0.368164,-0.581299
1519480477025,0.184326,-0.693848,-0.525879
1519480477030,0.488525,-1.080566,-0.889893
1519480477094,0.748291,-0.862549,-1.093994
1519480477102,0.930420,-0.525879,-0.939453
1519480477159,1.578369,0.129639,-0.495850
1519480477162,2.015381,0.705322,-0.947266
1519480477227,2.438477,1.947021,-0.487549
1519480477296,1.872070,2.190186,0.118896
1519480477362,1.134033,1.854248,0.036865
1519480477365,0.479248,1.354736,-0.023926
1519480477432,-0.383789,1.170654,-0.145020
1519480477439,-0.883301,1.252197,0.238037
1519480477499,-1.110352,0.831299,0.255615
1519480477507,-1.246338,0.269043,0.000000
1519480477518,-1.068604,0.074463,0.004639
1519480477521,-0.823486,0.075195,0.132080
1519480477524,-0.336182,1.207031,-0.547607
1519480477553,0.124512,3.068359,-1.355713
1519480477556,0.805420,4.279297,-1.533203
1519480477613,1.380615,3.355469,-1.228516
1519480477627,1.168701,2.069092,-1.104736
1519480477659,0.917236,1.069580,-0.660156
1519480477717,0.677979,0.265137,-0.325195
1519480477720,0.624756,-0.136963,-0.392578
1519480477750,0.659180,-0.596680,-0.545166
1519480477784,0.630371,-1.241455,-0.634521
1519480477843,0.665527,-1.357178,-0.787354
1519480477875,0.855957,-0.994629,-0.940430
1519480477883,1.236816,-0.240479,-0.704346
1519480477937,1.502686,1.855713,-1.002930
1519480477970,1.886963,4.783936,-1.895020
1519480478004,1.041260,5.061035,-0.396729
1519480478034,0.225586,2.429932,-0.112793
1519480478038,-0.474854,1.656494,-0.208252
1519480478093,-0.985596,1.036621,-0.237305
1519480478125,-0.927002,0.477051,0.020996
1519480478129,-1.099365,0.165039,0.051025
1519480478187,-1.147217,-0.080811,0.082764
1519480478220,-1.011963,-0.156006,-0.015381
1519480478253,-0.812744,-0.150879,-0.175293
1519480478286,-0.612793,0.250488,-0.345703
1519480478318,-0.615234,1.229736,-0.587646
1519480478351,-0.767090,3.075195,-1.131836
1519480478383,0.153809,4.947754,-1.396973
1519480478414,0.584717,4.195557,-1.246826
1519480478448,0.461182,2.433105,-1.097412
1519480478480,0.561768,1.384766,-0.797119
1519480478513,0.687256,0.791016,-0.581787
1519480478548,0.898926,0.191650,-0.665771
1519480478581,1.264893,-0.555176,-0.665039
1519480478615,1.361328,-0.997314,-0.765381
1519480478623,1.368896,-1.120850,-0.760010
1519480478673,1.291504,-0.681641,-0.602051
1519480478704,1.164307,0.025879,-0.412598
1519480478709,0.876465,1.981201,-0.944336
1519480478768,0.583740,4.840576,-0.189453
1519480478799,-0.184814,4.730957,0.305420
1519480478832,-0.503418,3.198486,0.112549
1519480478845,-0.715576,1.571045,0.236328
1519480478878,-0.727539,0.974365,0.144043
1519480478910,-0.714600,0.530518,0.047607
1519480478943,-0.743652,0.062500,-0.172607
1519480479002,-0.878662,-0.131592,-0.210938
1519480479035,-1.026123,-0.323730,-0.194824
1519480479067,-0.946045,-0.322021,-0.227051
1519480479100,-0.709961,-0.026367,-0.192871
1519480479131,-0.705078,1.074219,-0.263916
1519480479163,-0.589111,4.672852,-0.149414
1519480479196,0.286621,5.136719,-0.344482
1519480479199,0.504883,3.302002,-0.473389
1519480479229,0.426514,1.889648,-0.167480
1519480479296,0.532959,1.440186,-0.109863
1519480479299,0.715332,0.774414,-0.180664
1519480479332,0.981934,0.075195,-0.434570
1519480479365,1.212402,-0.232178,-0.467529
1519480479397,1.252930,-0.446289,-0.515381
1519480479429,1.270996,-0.555908,-0.661377
1519480479461,1.164795,-0.489990,-0.464111
1519480479498,0.865234,-0.131836,-0.007080
1519480479529,0.850830,2.206299,-0.698242
1519480479562,0.412598,4.531982,-0.226563
1519480479594,-0.223389,4.480469,0.207031
1519480479627,-0.669922,2.566650,-0.284912
1519480479659,-0.835938,1.609131,-0.246338
1519480479692,-0.957764,1.152832,-0.170654
1519480479730,-0.922119,0.416748,-0.312988
1519480479762,-1.024658,-0.056396,-0.366455
1519480479795,-1.031494,-0.270752,-0.390625
1519480479827,-1.103760,-0.349365,-0.523193
1519480479861,-0.946289,-0.160889,-0.351563
1519480479892,-0.774414,0.195068,-0.310547
1519480479923,-0.980225,3.233154,-0.326416
1519480479956,-0.286621,5.690674,-0.326416
1519480479988,0.290771,4.661621,-0.300293
1519480480020,0.329590,1.890869,-0.204834
1519480480053,0.377441,1.529785,-0.073975
1519480480087,0.607910,0.935059,-0.102051
1519480480120,0.869629,0.197754,-0.344971
1519480480152,1.039795,-0.135254,-0.439209
1519480480162,1.240479,-0.570557,-0.592773
1519480480214,1.122559,-0.820801,-0.653320
1519480480236,1.227051,-0.552734,-0.461426
1519480480261,1.243408,-0.324707,-0.374756
1519480480316,1.292480,1.808105,-0.402344
1519480480320,0.657715,4.681396,-0.141113
1519480480378,0.672852,5.188232,1.128906
1519480480411,-0.022949,2.657471,0.251221
1519480480444,-0.564209,1.728760,0.072266
1519480480458,-0.711182,1.224609,0.002930
1519480480490,-0.850830,0.766602,0.077637
1519480480523,-0.958252,0.296387,-0.094238
1519480480555,-1.240479,-0.157227,-0.246826
1519480480613,-1.501465,-0.245361,-0.229736
1519480480646,-1.249268,-0.100830,-0.186279
1519480480654,-0.899658,0.103027,-0.283936
1519480480703,-1.032959,2.117432,-0.395264
1519480480736,-1.000488,5.266846,-0.447998
1519480480741,0.806152,6.062500,-0.088135
1519480480794,0.841797,2.767822,-0.399170
1519480480827,0.737793,1.636475,-0.230469
1519480480860,0.873291,1.199219,-0.137207
1519480480903,0.963867,0.585449,-0.320557
1519480480911,1.083740,0.134277,-0.475342
1519480480961,1.265625,-0.258301,-0.629150
1519480481009,1.280518,-0.617432,-0.827881
1519480481014,1.261230,-0.535156,-0.638672
1519480481042,1.187744,-0.331299,-0.363037
1519480481074,1.271240,1.737793,0.343018
1519480481106,0.808594,3.386230,0.571533
1519480481139,0.297852,4.381348,1.873291
1519480481171,0.062988,3.405762,1.437988
1519480481204,-0.351807,2.029297,0.538330
1519480481237,-0.618896,1.468262,0.190918
1519480481270,-0.820068,1.159912,-0.219971
1519480481312,-1.045410,0.571289,-0.637451
1519480481320,-1.385010,-0.054199,-0.899170
1519480481376,-1.712646,-0.027588,-0.912109
1519480481408,-1.807861,-0.060791,-1.152588
1519480481443,-1.202393,0.112305,-1.344727
1519480481448,-1.073486,1.616455,-1.120361
1519480481506,-1.500488,3.899414,-0.106934
1519480481539,-1.193848,5.627197,0.783447
1519480481570,0.484131,4.182373,0.226563
1519480481603,0.779541,2.517822,0.055176
1519480481637,0.901611,1.578857,0.155273
1519480481669,0.810547,0.709717,0.221436
1519480481682,1.003174,0.232910,-0.046143
1519480481716,1.370117,-0.417480,-0.023438
1519480481773,1.465088,-0.863525,-0.297119
1519480481782,1.380859,-0.494385,-0.617920
1519480481807,1.334961,-0.001221,-0.826172
1519480481838,1.091064,1.252930,-0.259033
1519480481870,0.546387,2.614258,-0.618408
1519480481903,0.095703,3.989258,-0.388428
1519480481935,0.113525,4.798584,0.033691
1519480482008,-0.663574,3.000000,-0.752686
1519480482014,-1.190186,2.083008,-1.016846
1519480482078,-1.359375,1.736084,-0.564941
1519480482147,-1.499756,0.723145,-0.594482
1519480482210,-1.574219,0.076904,-0.562256
1519480482213,-1.590088,-0.134521,-0.273438
1519480482279,-1.188477,-0.102051,-0.151123
1519480482284,-0.557129,0.004883,-0.068359
1519480482346,-0.234863,0.044678,-0.135254
1519480482349,-0.581543,1.159668,-0.179443
1519480482413,-0.835693,4.827148,0.009521
1519480482415,0.369385,5.595703,-0.291260
1519480482481,0.210938,2.154541,-0.462402
1519480482486,0.307129,1.537842,-0.074707
1519480482517,0.580811,0.888184,-0.013184
1519480482522,0.858887,0.343018,-0.265625
1519480482528,1.315186,-0.433350,-0.735596
1519480482533,2.028320,-1.552490,-1.290771
1519480482565,1.935303,-1.652344,-0.913818
1519480482597,1.903564,-1.049805,-0.416748
1519480482629,1.896973,0.488770,-0.762451
1519480482662,1.985352,3.999268,-0.886719
1519480482694,1.510742,5.979492,-0.654785
1519480482727,0.454590,4.527832,-0.750732
1519480482759,-0.469727,2.534424,-0.566406
1519480482770,-0.707520,1.430664,-0.344482
1519480482819,-0.715088,0.748291,-0.338623
1519480482852,-0.671631,0.366211,-0.255859
1519480482883,-0.697021,0.102051,-0.183594
1519480482917,-0.849121,-0.089844,-0.137695
1519480482949,-0.900391,-0.113770,-0.088867
1519480482983,-0.944336,-0.052490,-0.114746
1519480483014,-0.757568,0.413574,-0.274414
1519480483046,-0.768555,2.174561,-0.744629
1519480483078,0.054199,5.204102,-1.413574
1519480483110,1.151611,4.450439,-1.065674
1519480483143,0.844238,2.282715,-0.837646
1519480483176,0.860596,1.437744,-0.552734
1519480483208,0.693848,0.821045,-0.296875
1519480483241,0.601318,0.446289,-0.251709
1519480483275,0.865967,0.198975,-0.371338
1519480483308,1.142578,-0.160889,-0.584229
1519480483340,1.259521,-0.358398,-0.698730
1519480483349,1.345947,-0.351807,-0.640625
1519480483400,1.066650,-0.362793,-0.287842
1519480483433,0.648438,0.666016,0.183350
1519480483439,0.292480,2.282959,0.340088
1519480483498,-0.031982,4.668457,1.221436
1519480483530,0.562012,3.492920,1.162354
1519480483568,-0.133545,0.220215,0.865234
1519480483601,0.220215,1.284912,1.041748
1519480483634,-0.125732,1.177002,0.937988
1519480483642,-0.404541,0.708008,0.548340
1519480483697,-0.917236,0.306152,0.153076
1519480483731,-1.414307,0.270508,-0.107422
1519480483745,-1.679443,0.225586,-0.148193
1519480483775,-1.014404,0.269043,0.071533
1519480483808,-0.781250,0.573975,0.098389
1519480483840,-0.930908,1.794678,0.769531
1519480483887,-0.929932,4.629395,1.574219
1519480483890,0.676514,5.319092,1.433594
1519480483948,1.238770,2.581055,0.663574
1519480483980,0.855225,1.439453,0.864746
1519480484013,0.760986,1.207764,0.477539
1519480484043,1.081055,0.747070,-0.056885
1519480484078,1.505615,0.340576,-0.227051
1519480484110,1.637451,-0.197510,-0.437500
1519480484142,1.561035,-0.748291,-0.753174
1519480484174,1.234863,-0.608643,-0.295410
1519480484207,0.911133,-0.480225,0.412842
1519480484210,0.888916,1.379150,0.733154
1519480484266,0.557373,3.846680,1.554199
1519480484299,0.412354,3.878174,2.212891
1519480484306,0.180176,2.731445,1.385254
1519480484365,-0.288574,1.507080,0.581543
1519480484398,-0.523193,1.386230,0.394043
1519480484431,-0.767334,1.226318,0.183594
1519480484463,-1.010498,0.509766,-0.465820
1519480484494,-1.426025,0.186279,-0.851074
1519480484526,-1.746582,0.158936,-0.727783
1519480484540,-0.986328,0.263428,-0.201660
1519480484572,-0.893799,0.368652,-0.548584
1519480484629,-0.917480,1.124512,-0.650146
1519480484635,-0.616455,3.473877,-1.335449
1519480484695,0.305420,5.157715,-1.387695
1519480484728,0.754150,3.811523,-0.632324
1519480484761,0.405518,1.845215,-0.361572
1519480484792,0.691406,0.971191,-0.357422
1519480484801,0.843994,0.519775,-0.279541
1519480484850,1.103516,0.034424,-0.170654
1519480484883,1.200684,-0.376709,-0.045654
1519480484891,1.245605,-0.481689,-0.248047
1519480484954,1.073975,-0.437256,-0.322754
1519480484957,0.968506,0.122559,0.380127
1519480484988,0.464355,1.979736,0.915527
1519480485046,-0.447998,3.315918,1.031250
1519480485052,-0.687500,4.123535,0.945557
1519480485109,-0.762695,3.113525,0.297363
1519480485142,-0.732666,1.165283,-0.549561
1519480485173,-0.733398,0.569824,-0.804443
1519480485206,-0.659424,0.397461,-0.662354
1519480485239,-0.726074,0.127441,-0.613525
1519480485272,-0.965088,-0.094971,-0.655762
1519480485309,-1.086426,-0.163086,-0.604248
1519480485322,-0.954834,-0.057617,-0.554688
1519480485354,-0.811523,0.027344,-0.531250
1519480485386,-1.023926,0.694824,-0.435059
1519480485443,-1.406250,3.192383,-0.516846
1519480485449,-0.760010,4.430664,-0.441650
1519480485482,-0.124756,4.004639,-0.220459
1519480485515,0.133545,2.458496,0.025391
1519480485548,0.616699,1.613281,0.070801
1519480485580,1.107178,0.909912,0.017578
1519480485613,1.601563,0.287109,-0.088135
1519480485645,1.729492,-0.309814,-0.166016
1519480485678,1.495850,-0.966064,-0.523682
1519480485710,1.360840,-0.936768,-0.437012
1519480485750,1.352051,-0.465820,-0.187744
1519480485783,1.492920,0.707764,-0.383789
1519480485815,1.113037,4.582764,-0.445557
1519480485819,0.861328,5.388672,0.818604
1519480485874,0.359131,4.070068,0.644531
1519480485907,-0.513428,2.107666,-0.055664
1519480485940,-0.734863,1.514404,-0.134277
1519480485973,-0.934570,1.205811,-0.109619
1519480486005,-0.997559,0.697998,-0.140381
1519480486037,-0.995117,0.261963,-0.237793
1519480486070,-0.950684,-0.027100,-0.350586
1519480486103,-0.879150,-0.150391,-0.380371
1519480486129,-0.750244,-0.039307,-0.389648
1519480486161,-0.718994,0.283447,-0.344727
1519480486193,-0.823242,2.745850,0.016602
1519480486225,0.140869,5.084961,-0.029053
1519480486260,1.023682,4.427734,0.309814
1519480486294,0.903320,2.042969,-0.004639
1519480486326,1.063477,1.312012,0.202637
1519480486332,1.157959,0.718262,0.084473
1519480486391,1.128418,-0.079346,-0.190186
1519480486424,1.084717,-0.621094,-0.359619
1519480486429,1.146240,-0.997803,-0.254639
1519480486486,1.108398,-0.706299,0.058594
1519480486519,1.205566,-0.296387,-0.114746
1519480486533,1.322510,1.311523,-0.239258
1519480486565,0.764160,3.895020,0.322266
1519480486622,0.858398,4.269043,1.175049
1519480486627,0.404541,2.922852,0.633545
1519480486684,-0.219238,1.353516,0.076416
1519480486717,-0.404541,1.046387,0.073730
1519480486750,-0.527832,0.763428,0.083496
1519480486783,-0.547363,0.397461,0.030762
1519480486815,-0.649902,0.185547,-0.057617
1519480486821,-0.829102,-0.001465,-0.087646
1519480486875,-0.968262,-0.151123,-0.115967
1519480486906,-0.919922,-0.150391,-0.217285
1519480486913,-0.798340,0.125977,-0.309570
1519480487012,-0.991455,2.388672,-0.344482
1519480487015,0.034180,4.846436,-0.852295
1519480487079,1.099121,4.728760,-0.514648
1519480487083,0.742920,2.181152,-0.260742
1519480487148,0.736572,1.396973,-0.047119
1519480487153,0.667480,0.838623,0.080078
1519480487215,0.780029,0.106689,0.006348
1519480487220,0.861328,-0.369385,-0.098145
1519480487283,1.138184,-0.796143,-0.223633
1519480487288,0.995850,-0.971436,-0.343262
1519480487350,1.084717,-0.578125,-0.340820
1519480487356,0.912598,-0.199951,-0.260986
1519480487417,0.848877,2.255859,-0.499512
1519480487420,1.039551,4.649658,-0.126221
1519480487485,0.959229,4.750488,0.733887
1519480487488,0.247070,2.283447,0.318359
1519480487515,-0.293701,1.335938,0.062744
1519480487521,-0.383057,0.909424,0.171143
1519480487563,-0.455566,0.547119,0.195068
1519480487568,-0.508301,0.286133,0.131104
1519480487596,-0.559814,0.083496,0.044189
1519480487629,-0.630371,-0.045898,0.006592
1519480487660,-0.645752,0.054443,0.184326
1519480487693,-0.575928,0.134521,0.179932
1519480487725,-0.841797,0.228027,-0.464111
1519480487765,-1.602295,0.884033,-0.609131
1519480487798,-1.662842,4.346680,-0.756592
1519480487830,0.634033,4.552490,-1.095459
1519480487863,0.256592,3.054199,-0.440674
1519480487896,0.381348,2.348389,-0.177246
1519480487929,0.658203,1.835693,0.063232
1519480487962,0.922363,1.264160,0.127686
1519480487994,1.263672,0.702881,0.082031
1519480488026,1.560547,0.215332,0.066650
1519480488058,1.713867,-0.401611,-0.062500
1519480488090,1.524658,-0.930908,-0.256592
1519480488125,1.050049,-0.924072,0.006592
1519480488155,1.073242,-0.542969,0.441895
1519480488176,1.416260,1.112793,-0.120605
1519480488232,1.112305,4.058350,0.203613
1519480488238,1.089844,3.849121,1.224609
1519480488295,0.727539,2.942139,0.783691
1519480488328,0.353027,1.845703,0.475098
1519480488360,0.063965,1.468262,0.405762
1519480488364,-0.090576,1.257568,0.437500
1519480488420,-0.321289,0.989990,0.204102
1519480488451,-0.492920,0.848389,0.022949
1519480488454,-0.648438,0.643066,-0.193115
1519480488510,-0.970215,0.564941,-0.438477
1519480488543,-0.973633,0.505371,-0.386963
1519480488576,-0.846680,0.568359,-0.442139
1519480488590,-0.570068,1.644775,-0.396729
1519480488623,-0.006592,2.825439,-0.226074
1519480488655,0.990723,3.864258,-0.113037
1519480488688,1.286621,2.997314,0.319092
1519480488745,1.180664,2.253662,0.191406
1519480488778,1.184814,1.528076,0.118408
1519480488811,1.051758,0.932861,0.061279
1519480488819,0.942871,0.587646,0.076172
1519480488874,0.843018,0.331055,-0.004639
1519480488906,0.636719,0.144775,-0.010010
1519480488939,0.417725,-0.074219,-0.073242
1519480488942,0.268311,-0.185303,-0.105469
1519480489005,0.213867,-0.167236,-0.019775
1519480489009,0.131348,0.031250,0.020020
1519480489039,0.177246,0.764893,0.243652
1519480489097,0.663086,1.553223,0.764893
1519480489104,0.815430,1.351563,0.607910
1519480489140,0.776855,1.553467,0.748291
1519480489173,0.592529,2.065918,0.943604
1519480489229,0.349365,1.434570,0.797363
1519480489234,0.146484,0.925293,0.807129
1519480489293,0.072998,0.810791,0.519775
1519480489326,0.113037,0.880371,0.504883
1519480489358,-0.071777,0.942871,0.509277
1519480489389,-0.136963,0.973633,0.456543
1519480489422,-0.302002,0.954834,0.361084
1519480489454,-0.471191,0.962402,0.310303
1519480489487,-0.638428,0.941162,0.230469
1519480489519,-0.623291,1.100098,0.176270
1519480489521,-0.385986,1.422607,0.232666
1519480489579,-0.277832,1.710449,0.193359
1519480489611,-0.043701,2.472168,0.361084
1519480489616,0.637695,2.958252,0.620361
1519480489675,1.109619,2.736572,0.870361
1519480489707,1.155029,2.041016,0.690918
1519480489739,1.083008,1.196045,0.381592
1519480489772,0.804199,0.666992,0.287598
1519480489787,0.665771,0.503906,0.222168
1519480489818,0.515381,0.368896,0.190918
1519480489850,0.413818,0.299316,0.145996
1519480489884,0.369873,0.273438,0.109375
1519480489943,0.317383,0.178711,0.054199
1519480489970,0.294189,0.219971,0.088867
1519480489979,0.497314,0.427979,0.266113
1519480490027,0.508545,0.351074,0.240479
1519480490059,0.460693,0.079834,0.033691
1519480490065,0.522217,0.586914,0.298340
1519480490100,0.790771,1.806396,1.080322
1519480490133,0.876709,1.907959,1.265625
1519480490191,0.800049,1.458740,0.805176
1519480490204,0.665527,1.291016,0.779053
1519480490239,0.411621,1.354980,0.771729
1519480490271,0.242432,1.176514,0.651855
1519480490304,0.113281,0.893311,0.469971
1519480490336,-0.027344,0.709473,0.306152
1519480490369,-0.094482,0.692383,0.248779
1519480490401,-0.110596,0.798340,0.267578
1519480490434,-0.095459,1.024902,0.274902
1519480490467,-0.117920,1.033203,0.216797
1519480490499,-0.112305,1.058350,0.189697
1519480490532,-0.096436,1.139404,0.248291
1519480490564,-0.053467,1.276367,0.397461
1519480490596,0.089355,1.456543,0.581299
1519480490638,0.306152,1.719238,0.700195
1519480490646,0.552979,1.895264,0.789307
1519480490702,0.982178,2.014404,0.725830
1519480490735,1.298096,1.438721,0.383301
1519480490767,1.180176,0.911377,0.277344
1519480490799,0.901367,0.609375,0.328369
1519480490832,0.605225,0.413818,0.269531
1519480490864,0.388184,0.281738,0.188721
1519480490897,0.283691,0.235107,0.154297
1519480490930,0.277344,0.219482,0.100586
1519480490963,0.327148,0.157959,0.081543
1519480490966,0.389404,0.166016,0.108154
1519480491025,0.399170,0.120117,0.116943
1519480491058,0.322021,0.079346,0.024658
1519480491064,0.469238,-0.006104,-0.038086
1519480491122,1.298096,0.516113,-0.022949
1519480491129,1.597656,1.134766,-0.070068
1519480491185,1.912842,1.691895,0.098145
1519480491218,1.860596,1.623535,-0.277832
1519480491248,1.804688,1.626953,-0.100830
1519480491280,1.580322,1.814697,0.194092
1519480491313,1.153320,2.109619,0.328369
1519480491346,0.936279,1.949707,0.464355
1519480491378,0.850830,1.595459,0.508545
1519480491420,0.393799,1.274658,0.355469
1519480491425,-0.038574,0.933594,0.135986
1519480491483,-0.361328,0.701416,0.026855
1519480491515,-0.841064,0.314209,-0.022461
1519480491548,-1.190186,0.179688,0.046875
1519480491550,-1.387207,0.159912,0.036133
1519480491607,-1.006104,0.095215,-0.034668
1519480491641,-0.389648,1.233154,-0.168213
1519480491650,1.114746,3.470215,-0.771973
1519480491682,2.369141,4.151611,-0.648682
1519480491712,1.897705,2.797607,-0.469482
1519480491746,2.006104,2.021484,-0.726807
1519480491802,1.615234,1.104980,-0.507324
1519480491816,1.303223,0.524170,-0.406250
1519480491848,1.028076,-0.105713,-0.372559
1519480491880,0.784180,-1.284424,-0.443115
1519480491913,0.907715,-1.349854,-0.625488
1519480491947,0.936279,-1.348877,-0.376709
