1519479853843,0.912109,-0.614502,0.044434
1519479853846,1.194824,-0.641846,0.002441
1519479853876,1.237305,-0.588623,0.070313
1519479853909,1.066650,-0.445068,0.180420
1519479853941,1.158447,-0.650879,0.094482
1519479853974,1.428711,-0.834717,0.029785
1519479854006,1.571045,-0.453369,-0.084473
1519479854039,1.444092,-0.280762,-0.012939
1519479854071,1.010986,-0.305664,0.118896
1519479854104,0.663574,-0.374512,0.131592
1519479854136,0.606201,-0.348389,0.066895
1519479854169,0.592773,-0.279541,0.031494
1519479854202,0.544189,-0.195313,0.038574
1519479854236,0.484863,-0.183838,0.069336
1519479854269,0.494629,-0.201660,0.049072
1519479854301,0.704590,-0.201172,0.018066
1519479854335,0.844727,-0.228760,0.042725
1519479854367,0.918457,-0.242188,0.052734
1519479854399,1.176270,-0.352539,0.048584
1519479854431,1.265625,-0.500244,0.115479
1519479854464,1.098877,-0.540283,0.218994
1519479854497,1.273926,-0.458496,0.296875
1519479854530,1.392334,-0.439453,0.301270
1519479854563,1.184814,-0.453369,0.242432
1519479854596,0.716064,-0.452881,0.156006
1519479854628,0.579346,-0.508545,0.222656
1519479854660,0.536133,-0.554688,0.222656
1519479854692,0.506836,-0.518311,0.121826
1519479854709,0.583984,-0.548584,0.060303
1519479854766,0.745117,-0.584717,0.007324
1519479854797,0.977539,-0.589600,0.032227
1519479854831,1.158691,-0.567627,0.021973
1519479854839,1.170410,-0.557129,0.077393
1519479854889,1.294434,-0.512939,0.144043
1519479854922,1.211670,-0.647949,0.209717
1519479854930,1.324951,-0.668213,0.097168
1519479854984,1.437744,-0.489746,-0.001709
1519479855017,1.333496,-0.370850,0.075684
1519479855048,0.992432,-0.337158,0.187988
1519479855081,0.668213,-0.330811,0.149170
1519479855095,0.589355,-0.315918,0.138672
1519479855125,0.572510,-0.288086,0.089355
1519479855183,0.523926,-0.250977,0.073486
1519479855192,0.500488,-0.241211,0.062500
1519479855250,0.547119,-0.255127,0.035889
1519479855288,0.782227,-0.259277,-0.024902
1519479855297,1.063232,-0.257813,-0.026855
1519479855315,1.141113,-0.255371,-0.010498
1519479855373,1.050781,-0.351563,0.175781
1519479855379,0.984131,-0.387451,0.289063
1519479855433,0.985840,-0.363525,0.213379
1519479855465,1.052002,-0.441406,0.154297
1519479855497,1.287354,-0.519043,0.262207
1519479855510,1.296631,-0.431641,0.280273
1519479855543,0.914551,-0.396729,0.276123
1519479855575,0.665771,-0.391602,0.275635
1519479855608,0.552734,-0.427490,0.232666
1519479855667,0.495117,-0.482422,0.208496
1519479855700,0.520020,-0.528564,0.157959
1519479855708,0.557861,-0.557129,0.156982
1519479855757,0.720947,-0.502930,0.133301
1519479855790,0.893799,-0.529053,0.154297
1519479855799,0.914551,-0.521240,0.173096
1519479855848,0.945801,-0.547119,0.111572
1519479855882,0.932861,-0.546875,0.201904
1519479855915,0.610352,-0.418213,0.348877
1519479855955,0.245361,-0.484619,0.223389
1519479855959,1.182861,-0.660645,-0.347412
1519479856014,3.044678,-1.015137,-0.395020
1519479856046,2.044922,-0.357910,0.038330
1519479856079,1.530273,0.006104,0.072021
1519479856112,1.081787,-0.279785,0.311523
1519479856143,0.569824,-0.333252,0.374756
1519479856179,0.462158,-0.419678,0.220215
1519479856213,0.398926,-0.298828,0.061768
1519479856245,0.441895,-0.110352,0.013428
1519479856278,0.490479,-0.098389,0.172607
1519479856286,0.575195,-0.055420,0.169922
1519479856334,0.812256,-0.088379,0.065430
1519479856377,0.889404,-0.255127,0.074463
1519479856385,1.195801,-0.399170,0.003906
1519479856433,1.312256,-0.546875,-0.092529
1519479856441,1.096191,-0.679932,0.329346
1519479856496,1.145752,-0.633057,0.670410
1519479856527,1.119141,-0.165039,0.346191
1519479856536,0.757568,-0.556641,0.264404
1519479856593,0.654053,-0.385498,0.210693
1519479856625,0.473389,-0.458008,0.265625
1519479856658,0.493408,-0.513428,0.217041
1519479856690,0.576904,-0.572266,0.148682
1519479856722,0.752441,-0.618652,0.095703
1519479856754,0.986572,-0.565674,0.104004
1519479856769,1.090088,-0.495850,0.104004
1519479856826,1.471680,-0.591309,0.027100
1519479856858,1.767822,-0.656494,0.072266
1519479856864,1.351074,-0.572998,0.255615
1519479856892,1.301025,-0.451904,0.169189
1519479856926,1.442383,-0.442871,0.140137
1519479856959,1.324219,-0.469971,0.151123
1519479856991,0.812744,-0.372559,0.279541
1519479857062,0.604248,-0.295166,0.305664
1519479857067,0.512939,-0.222412,0.253418
1519479857130,0.466064,-0.211182,0.140381
1519479857135,0.457520,-0.194092,0.064697
1519479857197,0.489746,-0.207520,0.043213
1519479857266,0.699707,-0.231201,-0.001465
1519479857331,0.919922,-0.246826,-0.000244
1519479857334,1.045166,-0.270264,-0.031250
1519479857398,1.171387,-0.306641,0.012939
1519479857400,1.279053,-0.418213,0.101807
1519479857466,1.025635,-0.455078,0.154541
1519479857470,0.943359,-0.410645,0.204346
1519479857534,1.354004,-0.332764,0.271484
1519479857537,1.292236,-0.375000,0.383789
1519479857540,0.782959,-0.363281,0.328613
1519479857544,0.581543,-0.352051,0.322998
1519479857549,0.506348,-0.364014,0.284912
1519479857575,0.505859,-0.422363,0.261963
1519479857623,0.562012,-0.462402,0.207520
1519479857655,0.659180,-0.488281,0.167480
1519479857683,0.858887,-0.488281,0.114746
1519479857715,1.031494,-0.537354,0.129150
1519479857748,1.209961,-0.568604,0.149414
1519479857782,1.364258,-0.514648,0.113281
1519479857815,1.328125,-0.668945,0.166992
1519479857823,1.489502,-0.814941,0.142822
1519479857872,1.708008,-0.484619,-0.038330
1519479857905,1.502197,-0.327148,0.071289
1519479857937,0.984375,-0.333740,0.258545
1519479857970,0.573486,-0.390137,0.308594
1519479858003,0.472412,-0.364990,0.228760
1519479858017,0.469727,-0.307861,0.135254
1519479858074,0.488770,-0.190674,0.085693
1519479858085,0.570801,-0.185303,0.079834
1519479858116,0.678223,-0.207031,0.005615
1519479858149,0.882080,-0.210693,0.002930
1519479858181,1.026367,-0.264648,0.084473
1519479858215,1.052734,-0.260254,0.059570
1519479858273,1.052979,-0.323730,0.137207
1519479858304,0.975586,-0.377441,0.189697
1519479858312,0.971436,-0.349609,0.192383
1519479858368,1.377441,-0.454590,0.230469
1519479858402,1.335693,-0.477783,0.406738
1519479858409,0.968750,-0.380371,0.432861
1519479858472,0.596924,-0.377441,0.279053
1519479858480,0.501953,-0.409180,0.303467
1519479858510,0.494873,-0.468018,0.249023
1519479858538,0.587646,-0.533447,0.100830
1519479858571,0.729736,-0.579102,0.030029
1519479858603,0.875244,-0.622314,0.041504
1519479858635,1.079102,-0.681885,0.088867
1519479858669,1.176514,-0.631348,0.118896
1519479858702,1.126953,-0.516602,0.136475
1519479858733,1.242920,-0.663330,0.169189
1519479858766,1.339111,-0.783447,0.114990
1519479858807,1.593750,-0.726318,0.059814
1519479858847,1.575928,-0.391846,0.092529
1519479858853,1.044189,-0.279541,0.288574
1519479858881,0.688232,-0.333008,0.333984
1519479858938,0.553955,-0.378906,0.194824
1519479858964,0.569824,-0.276123,0.184326
1519479858996,0.618896,-0.181641,0.158691
1519479859029,0.632568,-0.187988,0.052979
1519479859065,0.699463,-0.211182,0.000488
1519479859098,0.831299,-0.192139,0.017334
1519479859130,0.886719,-0.210449,0.115479
1519479859163,0.974609,-0.189697,0.060547
1519479859194,0.955078,-0.218506,0.120850
1519479859226,1.122314,-0.265137,0.079102
1519479859259,1.106445,-0.338867,-0.013184
1519479859265,1.062012,-0.465332,0.137939
1519479859319,1.201904,-0.568115,0.425049
1519479859350,1.057129,-0.449707,0.501953
1519479859383,0.929443,-0.411377,0.176025
1519479859417,0.653076,-0.452393,0.263916
1519479859449,0.530029,-0.559814,0.279297
1519479859482,0.557861,-0.609863,0.250488
1519479859514,0.753418,-0.722168,0.118652
1519479859546,0.837158,-0.767334,0.060059
1519479859579,0.972900,-0.720947,0.033447
1519479859611,1.175049,-0.632080,0.068359
1519479859627,1.188721,-0.560059,0.071533
1519479859683,1.481445,-0.587891,0.084473
1519479859689,1.371338,-0.750488,0.118896
1519479859747,1.529541,-0.683105,0.085205
1519479859780,1.647217,-0.475342,0.013672
1519479859813,1.285889,-0.284180,0.169189
1519479859845,0.933838,-0.265381,0.182129
1519479859852,0.741211,-0.294189,0.135010
1519479859904,0.562012,-0.235107,0.106201
1519479859937,0.472412,-0.170410,0.110840
1519479859946,0.436523,-0.148926,0.084961
1519479859998,0.452393,-0.165771,0.054199
1519479860017,0.495850,-0.156982,0.049805
1519479860049,0.712402,-0.178955,0.034912
1519479860080,0.892090,-0.232178,0.041260
1519479860113,1.073486,-0.294434,0.052246
1519479860146,1.381104,-0.344727,0.060791
1519479860178,1.198486,-0.482178,0.106689
1519479860211,1.172119,-0.435059,0.256592
1519479860244,1.373535,-0.406738,0.251465
1519479860277,1.219727,-0.424316,0.330078
1519479860310,0.895020,-0.470947,0.268066
1519479860343,0.732666,-0.458008,0.207031
1519479860373,0.587891,-0.550293,0.245605
1519479860406,0.559326,-0.593018,0.181396
1519479860449,0.615967,-0.630371,0.088867
1519479860485,0.730225,-0.672119,0.044922
1519479860522,0.897217,-0.692627,0.015137
1519479860536,1.079834,-0.673584,0.007080
1519479860580,1.267090,-0.634766,0.062256
1519479860588,1.363037,-0.527100,0.065674
1519479860644,1.216797,-0.627441,0.161377
1519479860678,1.447754,-0.694580,0.047363
1519479860711,1.732422,-0.537354,-0.044678
1519479860742,1.661621,-0.348389,0.010498
1519479860775,1.018311,-0.316406,0.221680
1519479860808,0.714111,-0.354736,0.232422
1519479860822,0.575928,-0.291504,0.173584
1519479860878,0.485107,-0.197510,0.075439
1519479860885,0.434814,-0.174316,0.106934
1519479860943,0.466064,-0.199707,0.104248
1519479860974,0.637207,-0.286621,0.043213
1519479860980,0.777588,-0.289307,-0.009277
1519479861011,0.873291,-0.280029,-0.002197
1519479861045,0.869141,-0.304443,0.090088
1519479861076,0.833496,-0.453857,0.178223
1519479861107,0.995850,-0.431152,0.139404
1519479861140,0.991943,-0.397949,0.112305
1519479861174,1.088379,-0.509766,0.202881
1519479861207,1.397461,-0.567627,0.263184
1519479861238,1.085693,-0.374512,0.427002
1519479861271,0.696045,-0.413818,0.353516
1519479861304,0.520996,-0.388184,0.323242
1519479861337,0.471924,-0.474365,0.269043
1519479861367,0.541504,-0.552490,0.172852
1519479861400,0.648193,-0.614746,0.154541
1519479861460,0.821045,-0.653809,0.145996
1519479861468,1.058838,-0.642822,0.168701
1519479861494,1.177002,-0.593018,0.116211
1519479861550,1.224609,-0.557373,0.106445
1519479861558,1.339844,-0.630371,0.208008
1519479861584,1.472412,-0.795410,0.138672
1519479861624,1.849854,-0.614746,-0.007324
1519479861656,1.747803,-0.382568,0.020020
1519479861689,1.216064,-0.299072,0.243164
1519479861722,0.711914,-0.323730,0.309814
1519479861755,0.598145,-0.337402,0.234619
1519479861787,0.565430,-0.271240,0.157471
1519479861820,0.525146,-0.155518,0.095703
1519479861854,0.502197,-0.149902,0.081787
1519479861885,0.513916,-0.145752,0.026855
1519479861918,0.590088,-0.163086,0.001221
1519479861956,0.680908,-0.218018,0.045898
1519479861989,0.781494,-0.278076,0.090332
1519479862061,0.909912,-0.328125,0.160645
1519479862069,1.135254,-0.345215,0.126221
1519479862127,1.127197,-0.361084,0.167969
1519479862130,1.294189,-0.465332,0.185547
1519479862194,1.576172,-0.577637,0.322998
1519479862197,1.294434,-0.434814,0.475342
1519479862263,0.755371,-0.480225,0.328857
1519479862272,0.596680,-0.427490,0.240479
1519479862329,0.558838,-0.583008,0.288818
1519479862332,0.552002,-0.661377,0.189209
1519479862397,0.561035,-0.682861,0.116943
1519479862466,0.712646,-0.721680,0.063965
1519479862474,1.010254,-0.735107,0.094482
1519479862527,1.193848,-0.611816,0.078125
1519479862536,1.275146,-0.594482,0.132080
1519479862544,1.275635,-0.553467,0.164307
1519479862552,1.168945,-0.647705,0.207031
1519479862562,1.484375,-0.749268,0.093750
1519479862621,1.794434,-0.474609,-0.043457
1519479862629,1.606934,-0.274902,0.071045
1519479862653,1.118652,-0.304932,0.223145
1519479862711,0.744873,-0.368164,0.175293
1519479862715,0.621582,-0.283447,0.092773
1519479862769,0.550049,-0.229248,0.086182
1519479862808,0.510742,-0.176514,0.079346
1519479862837,0.541748,-0.183350,0.062256
1519479862868,0.568359,-0.177490,0.044922
1519479862882,0.726563,-0.207764,0.042480
1519479862919,0.824219,-0.215820,0.068848
1519479862953,0.849121,-0.222412,0.119873
1519479862983,0.942383,-0.298828,0.232422
1519479863017,1.221191,-0.350830,0.166504
1519479863049,1.136963,-0.353516,0.100830
1519479863081,1.102539,-0.478271,0.201904
1519479863114,1.391357,-0.593262,0.235352
1519479863146,1.344238,-0.522949,0.265869
1519479863178,1.024902,-0.533936,0.199707
1519479863210,0.816162,-0.650391,0.255371
1519479863243,0.645752,-0.699951,0.266357
1519479863277,0.595703,-0.657471,0.176758
1519479863295,0.587158,-0.689453,0.051758
1519479863353,0.610840,-0.746826,-0.023926
1519479863385,0.799561,-0.780518,-0.032227
1519479863418,1.034180,-0.728760,-0.059082
1519479863426,1.249512,-0.702148,0.043213
1519479863477,1.252930,-0.503174,0.075439
1519479863510,1.307373,-0.651855,0.092773
1519479863518,1.508789,-0.782227,0.039551
1519479863569,1.812744,-0.522949,-0.073486
1519479863602,1.782959,-0.275391,-0.023438
1519479863632,1.311279,-0.294922,0.112549
1519479863664,0.875000,-0.305908,0.096191
1519479863697,0.749756,-0.250244,0.076904
1519479863710,0.636719,-0.187744,0.088135
1519479863744,0.515869,-0.122070,0.047607
1519479863776,0.451660,-0.105957,0.013916
1519479863835,0.462402,-0.089600,0.012207
1519479863866,0.528564,-0.075684,-0.036865
1519479863873,0.585693,-0.105225,-0.008789
1519479863930,0.749756,-0.161377,0.027588
1519479863964,1.030518,-0.274902,0.016113
1519479863995,1.398438,-0.404785,0.019531
1519479863998,1.278809,-0.461914,0.122070
1519479864055,1.371582,-0.432129,0.242188
1519479864085,1.587402,-0.439209,0.236084
1519479864094,1.382324,-0.522461,0.329590
1519479864148,0.883545,-0.507080,0.126465
1519479864180,0.736572,-0.603271,0.168213
1519479864211,0.679199,-0.718506,0.163818
1519479864245,0.553955,-0.726318,0.148926
1519479864277,0.562744,-0.724365,0.114502
1519479864311,0.639404,-0.776367,0.046143
1519479864344,0.843262,-0.834229,0.037354
1519479864377,1.038330,-0.729980,0.042480
1519479864409,1.182617,-0.645996,-0.008545
1519479864443,1.315918,-0.481445,-0.017822
1519479864477,1.478516,-0.510742,0.083984
1519479864513,1.486328,-0.601318,0.150879
1519479864525,1.543701,-0.542236,0.006592
1519479864559,1.712402,-0.480469,0.076660
1519479864590,1.457520,-0.273193,0.187012
1519479864647,0.990479,-0.205078,0.202881
1519479864652,0.770752,-0.206055,0.144287
1519479864680,0.584961,-0.194336,0.052734
1519479864739,0.381104,-0.112549,0.059082
1519479864747,0.292725,-0.090088,0.069824
1519479864772,0.287109,-0.098389,0.018799
1519479864830,0.388428,-0.156006,-0.001465
1519479864840,0.535156,-0.234375,0.005127
1519479864872,0.642090,-0.310303,0.032471
1519479864905,0.845459,-0.402344,0.049072
1519479864946,1.244629,-0.475830,0.090088
1519479864980,1.523926,-0.527588,0.054932
1519479865012,1.333740,-0.539307,0.036621
1519479865043,1.459229,-0.612549,0.165283
1519479865077,1.361084,-0.665771,0.263672
1519479865110,0.883545,-0.522217,0.272217
1519479865142,0.663330,-0.614990,0.265381
1519479865174,0.545898,-0.658691,0.203613
1519479865207,0.519043,-0.687744,0.157227
1519479865240,0.614990,-0.734619,0.110596
1519479865272,0.659424,-0.765625,0.164551
1519479865304,0.833984,-0.645020,0.142090
1519479865318,1.089355,-0.617432,0.078125
1519479865363,1.287842,-0.615234,0.125977
1519479865396,1.156982,-0.453369,0.128174
1519479865429,1.198242,-0.486328,0.161133
1519479865463,1.398438,-0.681152,0.136230
1519479865493,1.763672,-0.513428,-0.090820
1519479865529,1.700684,-0.277100,-0.137695
1519479865561,1.191895,-0.287354,0.055908
1519479865593,0.633789,-0.346680,0.112793
1519479865626,0.531250,-0.324219,0.050293
1519479865659,0.442871,-0.254883,0.023682
1519479865691,0.378662,-0.183350,0.014404
1519479865723,0.367188,-0.161133,-0.009277
1519479865735,0.386963,-0.174561,-0.057861
1519479865768,0.599609,-0.223145,0.056152
1519479865804,0.721924,-0.281494,0.112793
1519479865836,0.953613,-0.240479,0.077148
1519479865869,1.130371,-0.331055,0.125977
1519479865903,1.244873,-0.412842,0.191162
1519479865934,1.387207,-0.350342,0.108154
1519479865968,1.334229,-0.449951,0.086670
1519479866025,1.419189,-0.650635,0.239990
1519479866034,1.404053,-0.616699,0.329834
1519479866085,0.932861,-0.385986,0.101074
1519479866117,0.668213,-0.510986,0.263428
1519479866126,0.480713,-0.671631,0.214600
1519479866176,0.308105,-0.657715,0.196045
1519479866208,0.377441,-0.635986,0.165527
1519479866240,0.568115,-0.612549,0.137939
1519479866273,0.871094,-0.496094,0.105225
1519479866305,1.105469,-0.481689,0.166992
1519479866336,1.268066,-0.444336,0.152832
1519479866369,1.199219,-0.379395,0.196289
1519479866402,1.010742,-0.324951,0.250732
1519479866435,1.101807,-0.476807,0.286621
1519479866469,1.530273,-0.678467,0.271484
1519479866499,1.507813,-0.368408,0.136719
1519479866533,1.378906,-0.197754,0.066406
1519479866550,1.071533,-0.428223,0.225586
1519479866607,0.760986,-0.344482,0.084717
1519479866614,0.543457,-0.253906,0.066650
1519479866670,0.376709,-0.228027,0.073486
1519479866702,0.352051,-0.226807,0.055908
1519479866710,0.348389,-0.214111,0.020996
1519479866759,0.526367,-0.267090,0.048096
1519479866764,0.707275,-0.307617,0.051025
1519479866823,0.858887,-0.317383,0.082275
1519479866854,1.057373,-0.337158,0.134521
1519479866860,1.330566,-0.427246,0.175537
1519479866919,1.534912,-0.514160,0.159180
1519479866951,0.937500,-0.476318,0.330322
1519479866966,1.110107,-0.502441,0.349365
1519479866999,1.346680,-0.515869,0.340820
1519479867069,0.866943,-0.335938,0.321777
1519479867077,0.546631,-0.394531,0.295410
1519479867134,0.406250,-0.494629,0.272217
1519479867143,0.400635,-0.495850,0.168213
1519479867202,0.465088,-0.507568,0.133789
1519479867207,0.510254,-0.488770,0.193604
1519479867269,0.598877,-0.497070,0.273682
1519479867273,0.859375,-0.518311,0.245850
1519479867336,1.093506,-0.518799,0.254150
1519479867341,1.326904,-0.479736,0.257813
1519479867403,1.448975,-0.463379,0.165039
1519479867473,1.412354,-0.551270,0.201660
1519479867529,1.214600,-0.541016,0.200439
1519479867540,1.556152,-0.477295,0.074219
1519479867550,1.573730,-0.473633,0.010498
1519479867558,0.952393,-0.364746,0.066650
1519479867567,0.817871,-0.351563,0.077148
1519479867596,0.684082,-0.357422,0.025146
1519479867630,0.546387,-0.229492,0.042236
1519479867663,0.571045,-0.221924,0.028320
1519479867694,0.597412,-0.271973,0.031250
1519479867727,0.540039,-0.260498,0.027344
1519479867764,0.507080,-0.264160,0.045654
1519479867770,0.647705,-0.396240,0.089355
1519479867797,0.896973,-0.423828,0.133545
1519479867830,1.173096,-0.441650,0.175049
1519479867862,1.382324,-0.526123,0.275879
1519479867894,1.176758,-0.465820,0.131104
1519479867926,1.108887,-0.524902,0.185791
1519479867984,1.147949,-0.643066,0.218506
1519479868018,1.186279,-0.524658,0.093994
1519479868049,1.223877,-0.555908,0.173584
1519479868058,1.058350,-0.491699,0.199463
1519479868112,0.811035,-0.422607,0.265625
1519479868145,0.571533,-0.369141,0.295898
1519479868154,0.357910,-0.319092,0.287598
1519479868203,0.322266,-0.308105,0.245117
1519479868217,0.376953,-0.293457,0.204346
1519479868250,0.450439,-0.322998,0.180420
1519479868309,0.602783,-0.375732,0.204834
1519479868317,0.765381,-0.372803,0.197754
1519479868340,1.010254,-0.375244,0.204102
1519479868398,1.093506,-0.338623,0.166992
1519479868430,0.923340,-0.363525,0.193115
1519479868463,1.015381,-0.461914,0.227783
1519479868497,1.215820,-0.613037,0.188232
1519479868529,1.532471,-0.604980,0.185791
1519479868562,1.552979,-0.458008,0.109375
1519479868593,1.127197,-0.372803,0.176270
1519479868626,0.751709,-0.466553,0.268066
1519479868635,0.552246,-0.451172,0.246094
1519479868673,0.440918,-0.302002,0.248047
1519479868709,0.410400,-0.250488,0.244629
1519479868742,0.411133,-0.243896,0.225342
1519479868775,0.481445,-0.234375,0.136475
1519479868807,0.639648,-0.257080,0.083252
1519479868839,0.888672,-0.287598,0.094727
1519479868871,1.069092,-0.280029,0.080078
1519479868904,1.179199,-0.295166,0.077637
1519479868936,1.374268,-0.387695,0.102051
1519479868969,1.197021,-0.485596,0.212402
1519479869002,1.120117,-0.456787,0.252441
1519479869035,1.293213,-0.507080,0.351563
1519479869077,1.096680,-0.333740,0.396240
1519479869108,0.701172,-0.357422,0.233154
1519479869141,0.462646,-0.414063,0.293213
1519479869174,0.324707,-0.451172,0.256836
1519479869204,0.368896,-0.416260,0.189941
1519479869212,0.469727,-0.429199,0.163818
1519479869262,0.636230,-0.406494,0.111084
1519479869296,0.809814,-0.453369,0.135986
1519479869328,0.989990,-0.459473,0.115967
1519479869361,1.237549,-0.479004,0.102295
1519479869391,1.383057,-0.479004,0.104004
1519479869424,1.386719,-0.596680,0.212402
1519479869456,1.552979,-0.656982,0.123779
1519479869489,1.655273,-0.492920,0.057617
1519479869521,1.262451,-0.408691,0.167480
1519479869554,0.691406,-0.451660,0.253418
1519479869586,0.529541,-0.430176,0.243164
1519479869621,0.446777,-0.330566,0.175049
1519479869654,0.398926,-0.266602,0.145752
1519479869690,0.440918,-0.263672,0.087891
1519479869722,0.455322,-0.263916,0.029541
1519479869755,0.779053,-0.277100,-0.005859
1519479869787,1.014893,-0.307861,-0.019287
1519479869793,1.122803,-0.304199,-0.022949
1519479869846,1.402344,-0.299561,-0.018555
1519479869879,1.396973,-0.444824,0.047363
1519479869886,1.041016,-0.463623,0.149658
1519479869940,1.212402,-0.525391,0.237061
1519479869973,1.251221,-0.475830,0.444824
1519479870005,0.864258,-0.264160,0.490234
1519479870038,0.515869,-0.319336,0.314941
1519479870071,0.416016,-0.458984,0.385010
1519479870104,0.354248,-0.494141,0.340820
1519479870135,0.449951,-0.484375,0.313477
1519479870168,0.542725,-0.470947,0.314453
1519479870201,0.732910,-0.456787,0.220703
1519479870235,1.078857,-0.493164,0.150146
1519479870249,1.193115,-0.481201,0.171875
1519479870306,1.440186,-0.491455,0.107910
1519479870339,1.474854,-0.584961,0.225342
1519479870348,1.355713,-0.585449,0.161621
1519479870373,1.464844,-0.459717,0.026367
1519479870405,1.181396,-0.396973,0.042480
1519479870437,0.718506,-0.356934,0.148682
1519479870484,0.543457,-0.405518,0.138184
1519479870515,0.510986,-0.327393,0.098389
1519479870548,0.482178,-0.245361,0.091797
1519479870582,0.440430,-0.212646,0.107422
1519479870613,0.497803,-0.283936,0.079834
1519479870648,0.653076,-0.302734,0.077393
1519479870661,0.840576,-0.303955,0.090332
1519479870720,1.144043,-0.310547,0.128906
1519479870751,1.217773,-0.302734,0.172363
1519479870755,1.303711,-0.324463,0.193115
1519479870811,1.228271,-0.399902,0.223389
1519479870817,1.045898,-0.383301,0.199951
1519479870850,1.244141,-0.479248,0.244385
1519479870907,1.171387,-0.360840,0.331299
1519479870915,0.815674,-0.331787,0.351074
1519479870972,0.546875,-0.403809,0.322021
1519479871004,0.398682,-0.392578,0.298096
1519479871036,0.388184,-0.387207,0.256104
1519479871069,0.415771,-0.433838,0.190674
1519479871084,0.562744,-0.507080,0.121338
1519479871115,0.654785,-0.533691,0.142578
1519479871147,0.852295,-0.568359,0.147217
1519479871205,1.041992,-0.567627,0.133301
1519479871238,1.187256,-0.573486,0.138916
1519479871247,1.218018,-0.665771,0.208740
1519479871296,1.343750,-0.806641,0.179932
1519479871330,1.598877,-0.785400,0.179199
1519479871338,1.619385,-0.454590,0.137451
1519479871388,0.916504,-0.377686,0.357178
1519479871418,0.595215,-0.443604,0.359131
1519479871451,0.520996,-0.413330,0.271240
1519479871483,0.540283,-0.244629,0.200684
1519479871516,0.546387,-0.204346,0.174805
1519479871548,0.519287,-0.215332,0.115479
1519479871581,0.565918,-0.258301,0.077393
1519479871617,0.752930,-0.297363,0.104980
1519479871650,0.875732,-0.269043,0.099609
1519479871683,0.992432,-0.232666,0.096191
1519479871714,1.164795,-0.305908,0.096680
1519479871763,1.212402,-0.413818,0.039795
1519479871765,1.104248,-0.489258,0.139893
1519479871796,1.415527,-0.562012,0.227783
1519479871829,1.461914,-0.469482,0.294189
1519479871863,0.946289,-0.332031,0.296631
1519479871904,0.614014,-0.461426,0.363770
1519479871910,0.490967,-0.517090,0.328857
1519479871967,0.401855,-0.534424,0.269775
1519479872040,0.443115,-0.570068,0.224609
1519479872049,0.555664,-0.575684,0.159180
1519479872106,0.824463,-0.618408,0.104248
1519479872110,1.037354,-0.578369,0.158691
1519479872175,1.207764,-0.498291,0.081055
1519479872184,1.177734,-0.489990,0.160889
1519479872242,1.193848,-0.536865,0.224609
1519479872250,1.230713,-0.751953,0.116455
1519479872309,1.557617,-0.716309,0.104004
1519479872378,1.632568,-0.362305,0.058105
1519479872444,1.356201,-0.340332,0.176514
1519479872447,0.804443,-0.417725,0.266357
1519479872511,0.669434,-0.375488,0.201660
1519479872515,0.604004,-0.265381,0.209717
1519479872536,0.485107,-0.162354,0.148438
1519479872539,0.440186,-0.193115,0.110840
1519479872543,0.437500,-0.227051,0.042969
1519479872545,0.622070,-0.228516,0.010498
1519479872574,0.791260,-0.226563,0.041016
1519479872606,0.870117,-0.227295,0.016846
1519479872639,0.953369,-0.285889,0.057617
1519479872673,1.106445,-0.366211,0.054443
1519479872706,1.198975,-0.390137,0.017822
1519479872737,1.284424,-0.528320,0.144531
1519479872770,1.358643,-0.594727,0.276611
1519479872802,1.201172,-0.456787,0.361328
1519479872835,0.820557,-0.442139,0.338623
1519479872868,0.602051,-0.603760,0.250732
1519479872877,0.500977,-0.746094,0.194580
1519479872930,0.522217,-0.839600,0.130615
1519479872963,0.630859,-0.782227,0.151855
1519479872996,0.777344,-0.655762,0.097656
1519479873045,0.991211,-0.595215,0.116211
1519479873055,1.152344,-0.520020,0.101807
1519479873077,1.271973,-0.504395,0.142822
1519479873114,1.362305,-0.427246,0.098145
1519479873145,1.412842,-0.568604,0.072754
1519479873178,1.540283,-0.625000,0.016357
1519479873211,1.661377,-0.433105,-0.150391
1519479873245,1.275635,-0.321045,0.040283
1519479873278,0.769775,-0.320801,0.222900
1519479873309,0.541992,-0.319580,0.167725
1519479873342,0.487305,-0.227051,0.070801
1519479873374,0.429932,-0.186523,0.011475
1519479873431,0.359863,-0.203613,-0.016113
1519479873436,0.361084,-0.233154,-0.041504
1519479873465,0.485840,-0.260498,-0.093506
1519479873522,0.803223,-0.296875,-0.070557
1519479873527,0.948242,-0.309082,-0.031982
1519479873558,1.081299,-0.325195,-0.005859
1519479873592,1.313721,-0.428955,0.023682
1519479873624,1.351807,-0.446289,-0.026123
1519479873656,1.244629,-0.489502,0.113525
1519479873688,1.418945,-0.534912,0.288574
1519479873720,1.199707,-0.438965,0.424316
1519479873753,0.792969,-0.431885,0.276367
1519479873810,0.515381,-0.420898,0.248047
1519479873845,0.523682,-0.506836,0.217285
1519479873851,0.527588,-0.561523,0.170654
1519479873908,0.661865,-0.553467,0.103516
1519479873922,0.711914,-0.521484,0.146729
1519479873955,0.767822,-0.477051,0.153320
1519479873988,0.904785,-0.452637,0.115967
1519479874020,1.151123,-0.469238,0.061768
1519479874053,1.176025,-0.419434,0.067383
1519479874085,1.350830,-0.501953,0.063721
1519479874116,1.491943,-0.655273,0.089600
1519479874150,1.559570,-0.579590,0.011719
1519479874183,1.482666,-0.377686,0.002441
1519479874216,1.031982,-0.386963,0.217041
1519479874249,0.752930,-0.375977,0.221191
1519479874281,0.594727,-0.312256,0.179443
1519479874325,0.535889,-0.255127,0.135742
1519479874338,0.476563,-0.209473,0.095215
1519479874371,0.435059,-0.228516,0.047119
1519479874402,0.466064,-0.236816,-0.012695
1519479874435,0.627686,-0.271240,-0.012207
1519479874468,0.832520,-0.271484,0.009521
1519479874504,0.961670,-0.275879,0.040283
1519479874537,1.069092,-0.332275,0.092773
1519479874568,1.288086,-0.365234,0.038086
1519479874600,1.136475,-0.422852,0.083252
1519479874633,0.986084,-0.448242,0.188721
1519479874665,1.436035,-0.439941,0.237305
1519479874698,1.304932,-0.339111,0.372803
1519479874730,0.899170,-0.354980,0.359619
1519479874772,0.657227,-0.386475,0.338379
1519479874804,0.511475,-0.356201,0.275879
1519479874836,0.436768,-0.378662,0.273438
1519479874869,0.499512,-0.503906,0.198242
1519479874901,0.577881,-0.525146,0.182129
1519479874934,0.685791,-0.454346,0.167236
1519479874968,1.037109,-0.437744,0.130615
1519479874974,1.128418,-0.435791,0.120361
1519479875000,1.087158,-0.435791,0.100342
1519479875058,1.175049,-0.444580,0.088379
1519479875063,1.349854,-0.668457,0.106689
1519479875120,1.507080,-0.705566,0.141357
1519479875134,1.625488,-0.406494,-0.028076
1519479875167,1.339600,-0.371094,0.214355
1519479875201,0.925781,-0.376953,0.334229
1519479875232,0.608887,-0.387939,0.291016
1519479875266,0.533691,-0.339111,0.219727
1519479875298,0.483398,-0.248291,0.146240
1519479875331,0.398438,-0.216064,0.107422
1519479875390,0.436523,-0.244873,0.050537
1519479875398,0.627686,-0.275391,0.011475
1519479875446,0.859863,-0.239746,0.022217
1519479875484,1.052734,-0.231445,-0.084473
1519479875490,1.128906,-0.273926,0.009033
1519479875540,0.734131,-0.262695,0.260254
1519479875547,1.213623,-0.199219,-0.080078
1519479875605,1.424561,-0.337646,-0.216309
1519479875636,1.248779,-0.762207,0.210693
1519479875643,1.252930,-0.735107,0.566895
1519479875700,0.994385,-0.331299,0.621094
1519479875734,0.761719,-0.336182,0.136963
1519479875771,0.558350,-0.315674,0.193848
1519479875803,0.465332,-0.486328,0.131348
1519479875834,0.372803,-0.705322,0.171631
1519479875842,0.624512,-0.652344,0.122314
1519479875899,0.885010,-0.567871,0.115967
1519479875930,1.252197,-0.506592,0.125732
1519479875944,1.216309,-0.432617,0.113281
1519479875979,1.294922,-0.457520,0.067383
1519479876038,1.494873,-0.677734,0.078369
1519479876047,1.473877,-0.627686,-0.017334
1519479876080,1.517334,-0.415527,-0.018311
1519479876113,1.347656,-0.378906,0.110840
1519479876145,1.044922,-0.421631,0.182617
1519479876178,0.847412,-0.357178,0.176514
1519479876211,0.679443,-0.248047,0.153564
1519479876244,0.607910,-0.199219,0.094727
1519479876276,0.619873,-0.183594,0.065918
1519479876307,0.559570,-0.175781,0.044434
1519479876340,0.528320,-0.175781,0.011963
1519479876374,0.555176,-0.183105,-0.034180
1519479876406,0.616211,-0.226563,0.019531
1519479876442,0.755127,-0.253662,0.044678
1519479876475,0.938477,-0.260742,0.017334
1519479876509,1.219482,-0.407959,0.021484
1519479876540,1.276123,-0.514160,-0.016357
1519479876548,1.135498,-0.542236,0.001953
1519479876600,1.470215,-0.558350,0.275391
1519479876634,1.386475,-0.367188,0.406250
1519479876643,1.078125,-0.409668,0.331787
1519479876697,0.707520,-0.410645,0.220215
1519479876730,0.579590,-0.442627,0.272949
1519479876763,0.502197,-0.490479,0.260498
1519479876796,0.449951,-0.522949,0.206055
1519479876827,0.547363,-0.552979,0.141846
1519479876893,0.767578,-0.551270,0.091309
1519479876904,1.131836,-0.491211,0.057617
1519479876925,1.251221,-0.456787,0.053955
1519479876958,1.236572,-0.442627,0.076660
1519479876991,1.210449,-0.442871,0.125488
1519479877064,1.123291,-0.582520,0.112549
1519479877069,1.388672,-0.579102,0.025879
1519479877131,1.668457,-0.358887,0.003906
1519479877136,1.299805,-0.271729,0.165771
1519479877198,0.908447,-0.364502,0.246338
1519479877204,0.625488,-0.342773,0.260498
1519479877265,0.511963,-0.241943,0.189697
1519479877270,0.400879,-0.203613,0.140381
1519479877332,0.406494,-0.217041,0.113770
1519479877336,0.528320,-0.208496,0.030273
1519479877400,0.743652,-0.232422,-0.065186
1519479877403,0.919922,-0.276367,-0.010986
1519479877468,0.990723,-0.262695,0.041992
1519479877474,1.133057,-0.309326,0.029297
1519479877530,1.181885,-0.454834,-0.028809
1519479877536,1.001709,-0.468018,0.000488
1519479877541,1.306641,-0.454346,0.111816
1519479877567,1.493896,-0.393555,0.319092
1519479877576,1.114014,-0.362305,0.377686
1519479877630,0.731934,-0.397461,0.337646
1519479877663,0.511963,-0.397705,0.258057
1519479877672,0.455322,-0.439209,0.264648
1519479877725,0.465088,-0.492920,0.162842
1519479877758,0.594238,-0.537109,0.093750
1519479877791,0.722656,-0.569092,0.120850
1519479877823,0.892090,-0.552979,0.090820
1519479877856,1.152588,-0.515869,0.047607
1519479877890,1.218750,-0.508789,0.091064
1519479877921,1.284424,-0.473389,0.074463
1519479877954,1.353027,-0.703125,0.046875
1519479877987,1.523193,-0.745117,0.004883
1519479877996,1.738770,-0.522461,-0.040527
1519479878045,1.503906,-0.263428,0.040039
1519479878076,0.964355,-0.309082,0.202148
1519479878109,0.689697,-0.361328,0.212646
1519479878163,0.526855,-0.280762,0.133789
1519479878166,0.471680,-0.209229,0.087891
1519479878197,0.439697,-0.196777,0.098145
1519479878258,0.503662,-0.227783,0.086670
1519479878267,0.595703,-0.220459,0.065918
1519479878293,0.768066,-0.218018,-0.027832
1519479878325,0.935791,-0.268799,0.041260
1519479878362,1.148438,-0.277832,-0.007080
1519479878393,1.436279,-0.404053,-0.029541
1519479878425,0.878662,-0.624023,0.222168
1519479878458,1.128418,-0.510254,0.315674
1519479878490,1.424072,-0.221924,0.192139
1519479878524,1.216797,-0.404053,0.156494
1519479878558,0.911865,-0.464844,0.213623
1519479878577,0.716797,-0.532959,0.248535
1519479878633,0.577393,-0.484619,0.317139
1519479878666,0.547363,-0.450928,0.236328
1519479878671,0.598145,-0.499268,0.209961
1519479878725,0.648682,-0.547119,0.193359
1519479878757,0.851563,-0.518066,0.130371
1519479878791,1.109375,-0.483643,0.200684
1519479878822,1.264404,-0.408936,0.113037
1519479878855,1.100342,-0.457031,0.161621
1519479878888,0.905518,-0.436035,0.156738
1519479878922,0.966064,-0.629639,0.111084
1519479878952,1.235352,-0.633057,0.023438
1519479878985,1.612793,-0.465332,-0.013428
1519479879019,1.536377,-0.288574,-0.019775
1519479879051,0.959229,-0.333984,0.155273
1519479879082,0.634766,-0.349365,0.244873
1519479879115,0.489502,-0.302246,0.162354
1519479879147,0.439453,-0.238037,0.112793
1519479879150,0.413086,-0.208740,0.098633
1519479879205,0.434082,-0.210449,0.079346
1519479879238,0.546631,-0.216309,0.011230
1519479879270,0.699707,-0.236084,0.008789
1519479879304,0.887207,-0.317627,0.096191
1519479879316,1.056641,-0.340576,0.077148
1519479879372,1.219238,-0.319092,0.045410
1519479879405,1.223389,-0.531982,0.092529
1519479879443,1.115967,-0.471436,0.176025
1519479879446,1.349854,-0.349121,0.156982
1519479879502,1.292969,-0.434326,0.258301
1519479879535,0.860107,-0.536133,0.323730
1519479879568,0.607422,-0.509033,0.246582
1519479879600,0.476074,-0.469971,0.262939
1519479879633,0.445068,-0.494873,0.166504
1519479879666,0.500488,-0.554688,0.097168
1519479879697,0.705566,-0.601074,0.063721
1519479879700,0.858154,-0.543945,0.124268
1519479879731,1.071045,-0.492432,0.084961
1519479879788,1.354248,-0.535889,0.075195
1519479879822,1.029541,-0.437012,0.210693
1519479879827,1.038574,-0.354980,0.170654
1519479879885,1.137451,-0.702637,0.057129
1519479879918,1.454102,-0.708740,-0.030762
1519479879949,1.759033,-0.487549,-0.072754
1519479879982,1.266357,-0.250732,0.078369
1519479880015,0.727783,-0.322754,0.266113
1519479880047,0.523438,-0.398926,0.268311
1519479880079,0.484375,-0.345703,0.098877
1519479880113,0.488037,-0.243164,0.018799
1519479880121,0.496338,-0.214111,0.022949
1519479880170,0.529297,-0.228271,-0.007813
1519479880203,0.614258,-0.249512,-0.053711
1519479880208,0.845947,-0.265625,-0.089600
1519479880267,1.089111,-0.347412,-0.058838
1519479880277,1.207764,-0.360840,-0.020752
1519479880334,1.406738,-0.471191,-0.060059
1519479880367,0.952881,-0.519287,0.118408
1519479880398,1.180908,-0.443359,0.142090
1519479880432,1.380615,-0.422119,0.213379
1519479880463,0.942627,-0.494629,0.395020
1519479880495,0.713135,-0.473389,0.324707
1519479880528,0.552246,-0.457520,0.245361
1519479880562,0.480957,-0.458252,0.260986
1519479880602,0.462158,-0.496826,0.179199
1519479880605,0.561279,-0.552490,0.105225
1519479880662,0.847656,-0.569824,0.070557
1519479880696,1.064697,-0.508545,0.053467
1519479880704,1.189941,-0.493652,0.075928
1519479880752,1.212402,-0.512207,0.094971
1519479880783,1.245850,-0.407715,0.069580
1519479880815,1.220459,-0.546387,0.146240
1519479880848,1.258057,-0.665771,0.063721
1519479880881,1.417725,-0.501953,0.012451
1519479880916,1.521729,-0.364502,0.049561
1519479880947,0.981689,-0.339844,0.185059
1519479880980,0.732666,-0.338135,0.183594
1519479880994,0.589111,-0.317139,0.156738
1519479881027,0.489014,-0.215088,0.122314
1519479881059,0.461914,-0.195801,0.081299
1519479881092,0.449219,-0.210205,0.046631
1519479881149,0.475342,-0.225586,-0.019043
1519479881182,0.614502,-0.239990,-0.064697
1519479881190,0.804688,-0.299561,-0.032959
1519479881239,0.991943,-0.341553,-0.029541
1519479881275,1.033691,-0.416992,0.063232
1519479881283,1.172363,-0.454102,0.130127
1519479881334,1.322510,-0.362061,-0.011963
1519479881341,1.114502,-0.509766,0.055664
1519479881398,1.217773,-0.691162,0.239990
1519479881439,1.182129,-0.519287,0.411865
1519479881446,0.826660,-0.484131,0.275146
1519479881472,0.613281,-0.449463,0.227295
1519479881530,0.537598,-0.494141,0.198486
1519479881561,0.515869,-0.488770,0.140137
1519479881595,0.558105,-0.523438,0.074707
1519479881629,0.738525,-0.579346,0.078857
1519479881662,0.822754,-0.502441,0.122314
1519479881693,0.978760,-0.475342,0.064453
1519479881726,1.270996,-0.521484,0.031006
1519479881758,1.344238,-0.446533,0.020508
1519479881766,1.427734,-0.451416,0.044434
1519479881790,1.206543,-0.591553,0.162598
1519479881848,1.225342,-0.494629,0.041748
1519479881853,1.314453,-0.421875,0.069092
1519479881910,1.098389,-0.405762,0.159180
1519479881943,0.844482,-0.374512,0.125244
1519479881976,0.681641,-0.303223,0.144043
1519479882046,0.523682,-0.266357,0.103271
1519479882051,0.460449,-0.262939,0.062500
1519479882114,0.432861,-0.257568,0.040771
1519479882124,0.460693,-0.287598,0.013672
1519479882181,0.498291,-0.294189,-0.034668
1519479882184,0.666992,-0.311768,-0.098633
1519479882250,1.029297,-0.418213,-0.054443
1519479882317,1.151611,-0.427002,-0.024414
1519479882383,1.214111,-0.438232,0.034912
1519479882386,1.338379,-0.483154,0.091553
1519479882450,1.110107,-0.402344,0.152588
1519479882455,0.969482,-0.432617,0.183838
1519479882519,1.169922,-0.463623,0.246094
1519479882524,1.107178,-0.391113,0.297363
1519479882541,0.795166,-0.398682,0.330322
1519479882546,0.572510,-0.415283,0.257813
1519479882551,0.501221,-0.405029,0.247070
1519479882556,0.487793,-0.406982,0.203613
1519479882577,0.553223,-0.471436,0.078613
1519479882611,0.666992,-0.509766,0.078857
1519479882643,0.773193,-0.483887,0.107178
1519479882683,1.015869,-0.478516,0.089355
1519479882717,1.265869,-0.482422,0.045898
1519479882725,1.342285,-0.468018,0.116943
1519479882776,1.261719,-0.406982,0.172363
1519479882808,1.182617,-0.610352,0.184570
1519479882840,1.286133,-0.631104,0.128174
1519479882874,1.456543,-0.378174,0.129150
1519479882906,1.179199,-0.324463,0.178711
1519479882939,0.787842,-0.399658,0.230957
1519479882971,0.574463,-0.360596,0.219727
1519479883004,0.488037,-0.278076,0.176758
1519479883038,0.435059,-0.248779,0.149658
1519479883070,0.445068,-0.281982,0.084717
1519479883102,0.521729,-0.310059,0.015381
1519479883135,0.691895,-0.304932,-0.036377
1519479883167,0.992432,-0.294189,-0.068359
1519479883204,1.104248,-0.339355,-0.068604
1519479883238,1.130615,-0.337646,-0.051270
1519479883285,1.291260,-0.364014,-0.032227
1519479883293,1.409668,-0.456299,-0.051514
1519479883317,1.022949,-0.498291,0.059814
1519479883375,1.108887,-0.500488,0.198975
1519479883378,1.177490,-0.347656,0.392334
1519479883408,0.807373,-0.340332,0.416016
1519479883466,0.515137,-0.363281,0.263916
1519479883471,0.507568,-0.340088,0.213867
1519479883499,0.520996,-0.361084,0.235840
1519479883533,0.591309,-0.411133,0.130127
1519479883591,0.720947,-0.441162,0.093994
1519479883599,0.845459,-0.471924,0.140381
1519479883653,0.972656,-0.458984,0.135742
1519479883685,1.166992,-0.450439,0.078613
1519479883719,1.420654,-0.464600,0.021484
1519479883751,1.483154,-0.525146,0.130615
1519479883783,1.297852,-0.604004,0.156006
1519479883792,1.327148,-0.537109,0.092285
1519479883841,1.339355,-0.432617,0.129639
1519479883873,0.997314,-0.443115,0.216309
1519479883879,0.715088,-0.382813,0.220215
1519479883939,0.575928,-0.317139,0.179688
1519479883969,0.509521,-0.288330,0.130371
1519479884003,0.492676,-0.272705,0.087158
1519479884036,0.511719,-0.275635,0.062744
1519479884069,0.577148,-0.268799,-0.001221
1519479884101,0.678711,-0.261475,-0.072021
1519479884134,1.037598,-0.297852,0.018066
1519479884173,1.096191,-0.295166,0.050049
1519479884205,1.259521,-0.289795,-0.018311
1519479884213,1.481445,-0.414551,0.000244
1519479884267,0.977295,-0.453613,0.131592
1519479884280,0.894043,-0.357178,0.204834
1519479884314,1.145264,-0.306152,0.248535
1519479884345,1.016113,-0.304932,0.284912
1519479884377,0.811279,-0.329834,0.384766
1519479884410,0.631104,-0.406738,0.325684
1519479884443,0.568115,-0.343750,0.313721
1519479884475,0.555176,-0.358154,0.248047
1519479884510,0.632568,-0.448975,0.154297
1519479884565,0.738770,-0.491211,0.163574
1519479884573,0.810791,-0.459229,0.193604
1519479884597,0.935547,-0.436768,0.135986
1519479884630,1.100098,-0.483398,0.083984
1519479884663,1.241699,-0.518799,0.068115
1519479884704,1.312012,-0.477539,0.110596
1519479884738,1.173828,-0.595703,0.151855
1519479884770,1.218994,-0.689453,0.083008
1519479884803,1.531982,-0.499023,-0.029053
1519479884834,1.419434,-0.378174,0.020020
1519479884866,0.994629,-0.410400,0.098389
1519479884899,0.714355,-0.384521,0.113770
1519479884930,0.579102,-0.318604,0.115234
1519479884963,0.472900,-0.255615,0.085205
1519479884996,0.453857,-0.227051,0.058105
1519479885029,0.488525,-0.238037,0.031006
1519479885061,0.518799,-0.239746,-0.020752
1519479885075,0.780762,-0.238525,-0.085205
1519479885111,0.916748,-0.298340,-0.044922
1519479885144,1.055176,-0.338135,-0.096436
1519479885202,1.082520,-0.416992,-0.001953
1519479885211,1.204346,-0.482422,0.159668
1519479885263,1.304443,-0.373291,0.011230
1519479885297,1.050781,-0.491455,0.086426
1519479885329,1.274658,-0.547363,0.197754
1519479885337,1.308838,-0.470947,0.302002
1519479885388,0.818115,-0.473877,0.354736
1519479885420,0.625000,-0.492676,0.268311
1519479885430,0.564697,-0.482666,0.264893
1519479885489,0.508057,-0.460693,0.189453
1519479885492,0.512695,-0.485352,0.090576
1519479885548,0.646240,-0.555908,0.064941
1519479885581,0.840820,-0.553467,0.068115
1519479885592,1.004883,-0.509033,0.076416
1519479885626,1.137939,-0.492188,0.065674
1519479885658,1.270020,-0.495361,0.015869
1519479885691,1.314453,-0.485107,0.004639
1519479885749,1.203857,-0.566650,0.086182
1519479885781,1.264404,-0.595703,0.077148
1519479885789,1.409180,-0.483154,0.055176
1519479885844,1.247070,-0.351074,0.147461
1519479885858,0.803223,-0.379883,0.165039
1519479885890,0.669434,-0.346191,0.126465
1519479885923,0.559326,-0.266602,0.136963
1519479885980,0.447266,-0.227295,0.097168
1519479885986,0.419922,-0.269775,0.056396
1519479886013,0.437988,-0.281006,0.027100
1519479886070,0.651855,-0.271729,-0.063965
1519479886073,0.943604,-0.311523,-0.036865
1519479886105,1.122314,-0.351807,0.006348
1519479886164,1.161377,-0.333008,0.009521
1519479886198,1.290039,-0.415283,0.011963
1519479886208,1.265381,-0.488525,-0.013184
1519479886261,1.051025,-0.478027,0.021729
1519479886274,1.182617,-0.586182,0.180664
1519479886308,1.221924,-0.432617,0.361328
1519479886340,0.800049,-0.336182,0.312256
1519479886398,0.579834,-0.359863,0.185547
1519479886404,0.510498,-0.367676,0.208984
1519479886460,0.471924,-0.409668,0.199463
1519479886492,0.461182,-0.433105,0.126221
1519479886497,0.579346,-0.493164,0.108887
1519479886527,0.788818,-0.494629,0.139893
1519479886558,0.972168,-0.435059,0.115234
1519479886590,1.157715,-0.453369,0.063477
1519479886624,1.149658,-0.508057,0.091309
1519479886656,1.192871,-0.399414,0.041748
1519479886698,1.087891,-0.541016,0.115479
1519479886731,1.269287,-0.724854,0.063232
1519479886764,1.534668,-0.625244,0.021973
1519479886795,1.533691,-0.404053,0.059082
1519479886827,0.920410,-0.355225,0.242188
1519479886859,0.688477,-0.394531,0.251953
1519479886892,0.604248,-0.372070,0.183350
1519479886926,0.510986,-0.240234,0.170654
1519479886957,0.477539,-0.212891,0.123291
1519479886990,0.457275,-0.217285,0.083740
1519479887062,0.534424,-0.245605,0.036133
1519479887065,0.716309,-0.255615,0.005371
1519479887130,0.923828,-0.283203,-0.026367
1519479887133,1.160156,-0.303955,-0.002441
1519479887198,1.239746,-0.334473,-0.012451
1519479887201,1.320068,-0.413818,-0.007568
1519479887265,1.040283,-0.434082,0.071045
1519479887269,1.020508,-0.424072,0.147217
1519479887334,1.252197,-0.488281,0.200439
1519479887339,1.130371,-0.366699,0.301514
1519479887402,0.801270,-0.396484,0.354736
1519479887408,0.634277,-0.429443,0.301758
1519479887467,0.530518,-0.451904,0.291504
1519479887536,0.497314,-0.456543,0.231689
1519479887559,0.530762,-0.497803,0.152100
1519479887561,0.706055,-0.512695,0.098877
1519479887564,0.862549,-0.468018,0.094727
1519479887567,1.031982,-0.462402,0.098633
1519479887596,1.283936,-0.471436,0.037109
1519479887630,1.210205,-0.398438,0.065918
1519479887663,1.238037,-0.364990,0.042236
1519479887696,1.100586,-0.661865,0.086182
1519479887730,1.120850,-0.668701,0.068359
1519479887764,1.302734,-0.466797,0.064453
1519479887795,1.403564,-0.352539,0.080566
1519479887828,1.004883,-0.419678,0.144043
1519479887860,0.712402,-0.402588,0.166260
1519479887892,0.561768,-0.342773,0.160889
1519479887924,0.520264,-0.297852,0.104492
1519479887933,0.517334,-0.279541,0.080322
1519479887989,0.516602,-0.245605,0.079102
1519479888025,0.553955,-0.224854,-0.015137
1519479888033,0.659668,-0.292236,-0.030518
1519479888087,0.992920,-0.333252,-0.043213
1519479888120,1.132568,-0.325439,-0.052002
1519479888153,1.132080,-0.337158,0.046387
1519479888185,1.267334,-0.415283,0.078369
1519479888217,1.095459,-0.405518,0.059814
1519479888250,0.903564,-0.424316,0.099609
1519479888283,1.117432,-0.520264,0.184814
1519479888297,1.266602,-0.434326,0.275146
1519479888354,0.995361,-0.357910,0.357178
1519479888404,0.691162,-0.407227,0.220215
1519479888413,0.588135,-0.419922,0.254883
1519479888437,0.545166,-0.434326,0.270752
1519479888469,0.482178,-0.438477,0.215332
1519479888502,0.565430,-0.435303,0.136475
1519479888535,0.714600,-0.428223,0.094727
1519479888568,0.924316,-0.426270,0.108154
1519479888600,1.017090,-0.457275,0.094238
1519479888632,1.153809,-0.479736,0.038574
1519479888665,1.178711,-0.450684,0.013184
1519479888697,1.167236,-0.551025,0.051025
1519479888710,1.257568,-0.747314,0.010498
1519479888770,1.509766,-0.644043,0.016357
1519479888778,1.578857,-0.455811,0.014893
1519479888832,1.173828,-0.371582,0.142578
1519479888865,0.686523,-0.383057,0.242188
1519479888899,0.601074,-0.375488,0.203125
1519479888931,0.555420,-0.296143,0.236084
1519479888962,0.529053,-0.194580,0.203125
1519479888974,0.503906,-0.185303,0.111084
1519479889031,0.473389,-0.205811,0.052734
1519479889063,0.587891,-0.262695,0.008545
1519479889095,0.850830,-0.293701,0.006348
1519479889099,1.048096,-0.293701,0.025391
1519479889141,1.238281,-0.325928,-0.038086
1519479889174,1.430664,-0.413330,0.002197
1519479889206,1.265625,-0.492676,0.059570
1519479889238,0.776855,-0.407227,0.199463
1519479889272,1.031250,-0.427246,0.164307
1519479889303,1.257080,-0.380127,0.121582
1519479889336,0.938232,-0.424072,0.277100
1519479889369,0.732178,-0.472656,0.307373
1519479889403,0.629150,-0.405762,0.258789
1519479889435,0.536865,-0.415771,0.271973
1519479889467,0.516846,-0.444824,0.205322
1519479889498,0.546143,-0.496094,0.142822
1519479889540,0.645752,-0.517334,0.124023
1519479889548,0.723877,-0.486816,0.151611
1519479889578,0.882813,-0.469971,0.102295
1519479889648,1.197754,-0.529297,-0.025635
1519479889654,1.228760,-0.535889,0.107666
1519479889685,1.278564,-0.394531,0.073486
1519479889717,1.309814,-0.651367,0.085693
1519479889750,1.403809,-0.667236,0.075684
1519479889782,1.567871,-0.485107,-0.004150
1519479889814,1.287354,-0.417969,0.128418
1519479889847,0.851563,-0.374756,0.203125
1519479889879,0.665527,-0.322998,0.234863
1519479889915,0.558838,-0.274902,0.177734
1519479889953,0.504639,-0.256592,0.175049
1519479889961,0.519043,-0.236084,0.103516
1519479890015,0.489746,-0.215088,0.083740
1519479890048,0.544922,-0.228271,0.050293
1519479890081,0.777344,-0.237549,0.013672
1519479890113,1.057861,-0.253662,0.003662
1519479890145,1.172607,-0.254639,-0.002686
1519479890177,1.238037,-0.350586,0.070313
1519479890211,1.193848,-0.394287,-0.025391
1519479890243,0.963135,-0.395508,0.043213
1519479890274,1.152344,-0.484375,0.144775
1519479890308,1.288818,-0.418701,0.348633
1519479890323,0.967529,-0.347656,0.269775
1519479890380,0.710938,-0.380615,0.440430
1519479890386,0.499756,-0.395020,0.454834
1519479890444,0.419189,-0.392090,0.415771
1519479890477,0.454590,-0.454346,0.332764
1519479890509,0.605957,-0.490723,0.249268
1519479890541,0.708252,-0.446533,0.197266
1519479890548,0.903320,-0.433350,0.167236
1519479890601,1.203125,-0.496582,0.120117
1519479890634,1.366455,-0.489502,0.124023
1519479890640,1.416016,-0.497070,0.146484
1519479890694,1.182617,-0.616211,0.177734
1519479890728,1.225586,-0.642090,0.152100
1519479890741,1.487793,-0.560059,0.116943
1519479890798,1.303955,-0.448486,0.119141
1519479890807,0.977783,-0.472168,0.166504
1519479890858,0.772217,-0.358154,0.247070
1519479890892,0.587402,-0.202148,0.245850
1519479890904,0.543701,-0.206543,0.193604
1519479890964,0.553223,-0.245850,0.167236
1519479890973,0.631592,-0.230957,0.081055
1519479891022,0.661133,-0.220947,0.027588
1519479891056,0.716309,-0.223633,0.006348
1519479891089,0.914795,-0.280029,-0.051025
1519479891122,1.043457,-0.333984,-0.045410
1519479891129,1.014404,-0.350098,0.060303
1519479891168,1.174072,-0.320068,0.096680
1519479891224,1.217285,-0.345947,0.125488
1519479891233,0.994873,-0.403076,0.100830
1519479891282,0.966797,-0.571533,0.162842
1519479891285,1.166260,-0.547119,0.297607
1519479891340,1.062744,-0.385254,0.353271
1519479891374,0.787842,-0.406494,0.300049
1519479891405,0.673340,-0.496094,0.309082
1519479891439,0.576660,-0.481445,0.298096
1519479891470,0.522705,-0.483887,0.248047
1519479891503,0.588867,-0.503662,0.173584
1519479891537,0.713379,-0.510254,0.161865
1519479891554,0.868164,-0.465576,0.109375
1519479891583,1.067383,-0.480713,0.055420
1519479891640,1.219971,-0.497559,0.045898
1519479891672,1.168457,-0.400391,0.131592
1519479891680,1.203613,-0.446777,0.121094
1519479891706,1.041260,-0.651855,0.117432
1519479891738,1.215820,-0.627686,0.134277
1519479891771,1.458740,-0.426025,0.119141
1519479891803,1.474609,-0.332520,0.094482
1519479891835,0.972412,-0.372070,0.222656
1519479891872,0.779053,-0.346436,0.223633
1519479891905,0.658936,-0.263184,0.210449
1519479891937,0.565430,-0.219482,0.218018
1519479891969,0.532959,-0.195068,0.198242
1519479892042,0.512695,-0.200684,0.142578
1519479892045,0.545166,-0.216553,0.105957
1519479892109,0.710205,-0.245850,0.096680
1519479892115,0.926270,-0.255859,0.061768
1519479892177,1.218262,-0.304932,-0.058594
1519479892182,1.115967,-0.364258,0.117676
1519479892246,1.061523,-0.411133,0.211426
1519479892255,1.028320,-0.367920,0.051025
1519479892312,0.893799,-0.410156,0.053711
1519479892317,0.922607,-0.598877,0.144531
1519479892380,1.137451,-0.546143,0.311523
1519479892448,0.943359,-0.359619,0.330811
1519479892514,0.799805,-0.379883,0.271240
1519479892517,0.640625,-0.474854,0.241211
1519479892565,0.557373,-0.434082,0.281738
1519479892570,0.524170,-0.444092,0.265381
1519479892576,0.634766,-0.475830,0.206543
1519479892583,0.715820,-0.447021,0.226318
1519479892601,0.870605,-0.442383,0.175537
1519479892634,1.202393,-0.499268,0.164795
1519479892666,1.417969,-0.476318,0.195557
1519479892672,1.414795,-0.343994,0.182373
1519479892726,1.191406,-0.471924,0.253662
1519479892735,1.114990,-0.584473,0.232422
1519479892765,1.246094,-0.414795,0.168701
1519479892823,1.410400,-0.386230,0.084717
1519479892831,1.208496,-0.421387,0.146484
1519479892884,0.874023,-0.323242,0.166016
1519479892917,0.630127,-0.262451,0.183838
1519479892949,0.483887,-0.292236,0.177734
1519479892982,0.361084,-0.290039,0.161865
1519479893015,0.352539,-0.257080,0.113281
1519479893049,0.477783,-0.261230,0.057861
1519479893082,0.675537,-0.292969,-0.003174
1519479893114,0.998779,-0.348389,-0.023682
1519479893145,1.114746,-0.358154,-0.019775
1519479893153,1.262207,-0.388916,-0.014160
1519479893207,1.384277,-0.492920,0.073975
1519479893240,1.153320,-0.423828,0.136719
1519479893245,0.907715,-0.408447,0.148438
1519479893300,1.007324,-0.472412,0.193359
1519479893333,1.114502,-0.360596,0.175293
1519479893365,1.049072,-0.278809,0.260986
1519479893397,0.792480,-0.410400,0.345703
1519479893428,0.661621,-0.333496,0.297119
1519479893461,0.553467,-0.298096,0.299561
1519479893493,0.492920,-0.359131,0.249756
1519479893523,0.519775,-0.379150,0.198242
1519479893557,0.606689,-0.395996,0.140625
1519479893589,0.727051,-0.432373,0.134033
1519479893623,0.817383,-0.451660,0.113037
1519479893656,0.986572,-0.488281,0.053223
1519479893687,1.234131,-0.546631,0.059814
1519479893720,1.276367,-0.477783,0.084961
1519479893728,1.183594,-0.504639,0.156250
1519479893785,1.135254,-0.685059,0.085938
1519479893823,1.350586,-0.595215,-0.010254
1519479893831,1.555664,-0.510254,-0.006836
1519479893880,1.118896,-0.446289,0.121094
1519479893912,0.748779,-0.382324,0.187744
1519479893945,0.550781,-0.352051,0.256104
1519479893977,0.481689,-0.314941,0.160889
1519479893991,0.505859,-0.295166,0.087891
1519479894024,0.541016,-0.251709,0.060791
1519479894082,0.617920,-0.244385,0.013672
1519479894114,0.669434,-0.267822,-0.013916
1519479894148,0.892578,-0.302979,-0.037842
1519479894157,1.091797,-0.333008,0.007324
1519479894211,1.197510,-0.352295,-0.035400
1519479894219,1.352295,-0.436279,-0.005127
1519479894270,1.130127,-0.427002,0.069824
1519479894279,0.906494,-0.375977,0.106201
1519479894332,1.044922,-0.423096,0.167725
1519479894365,1.150879,-0.401855,0.248047
1519479894373,0.899414,-0.310303,0.305908
1519479894428,0.715332,-0.356934,0.287598
1519479894462,0.577148,-0.405029,0.229980
1519479894492,0.520752,-0.419189,0.266113
1519479894524,0.543945,-0.476807,0.261719
1519479894557,0.681641,-0.485107,0.173340
1519479894590,0.776855,-0.462646,0.165771
1519479894624,0.875000,-0.458984,0.131836
1519479894655,1.105713,-0.514648,0.018799
1519479894688,1.313721,-0.571777,-0.019775
1519479894697,1.470459,-0.493164,0.086670
1519479894746,1.235107,-0.411377,0.240967
1519479894804,1.163086,-0.570068,0.158203
1519479894813,1.257080,-0.529785,0.030762
1519479894852,1.262451,-0.391602,-0.010986
1519479894860,1.127686,-0.413818,0.022461
1519479894911,0.858643,-0.354980,0.076416
1519479894944,0.612061,-0.296387,0.124023
1519479894954,0.506348,-0.300537,0.116211
1519479895007,0.466797,-0.280762,0.077148
1519479895039,0.485596,-0.254883,0.025635
1519479895073,0.517822,-0.242920,0.030273
1519479895105,0.672363,-0.260010,-0.028564
1519479895138,0.981445,-0.302734,-0.005615
1519479895171,1.086426,-0.336670,0.078613
1519479895203,1.185303,-0.340088,0.025635
1519479895236,1.308350,-0.404785,0.109375
1519479895269,1.152100,-0.393066,0.222168
1519479895278,0.904785,-0.359619,0.196777
1519479895328,1.041260,-0.408203,0.102783
1519479895360,1.262207,-0.450439,0.083984
1519479895369,1.134277,-0.379639,0.236572
1519479895424,0.806396,-0.406006,0.222656
1519479895456,0.646729,-0.440430,0.256592
1519479895487,0.546387,-0.440430,0.245850
1519479895520,0.489502,-0.422119,0.158936
1519479895553,0.511475,-0.445068,0.126709
1519479895584,0.603760,-0.485352,0.071533
1519479895617,0.798828,-0.497070,0.040039
1519479895649,0.974854,-0.495117,0.026855
1519479895684,1.206787,-0.535645,0.007080
1519479895716,1.300781,-0.513672,0.061279
1519479895753,1.365967,-0.427246,0.095703
1519479895786,1.212891,-0.532471,0.171875
1519479895819,1.103027,-0.648926,0.113770
1519479895852,1.245605,-0.567383,0.080566
1519479895859,1.361084,-0.438721,0.081055
1519479895909,1.012695,-0.375977,0.173340
1519479895941,0.781494,-0.361572,0.192627
1519479895950,0.655762,-0.310547,0.216797
1519479896005,0.592529,-0.263916,0.166504
1519479896019,0.545898,-0.274902,0.130859
1519479896052,0.504883,-0.265869,0.097900
1519479896085,0.522705,-0.250977,0.044434
1519479896142,0.596436,-0.318848,-0.018066
1519479896150,0.751221,-0.386475,-0.081543
1519479896205,1.040771,-0.498047,0.071045
1519479896236,0.855225,-0.597412,0.432617
1519479896269,1.267334,-0.513428,-0.378174
1519479896303,1.326172,-0.768799,0.121826
1519479896334,1.122559,-0.546387,0.219238
1519479896343,1.254395,-0.552246,0.123779
1519479896394,1.170898,-0.552002,0.111572
1519479896402,0.942627,-0.476318,0.099121
1519479896454,0.776855,-0.569580,0.081055
1519479896486,0.351318,-0.836182,0.253906
1519479896519,0.289063,-0.718262,0.272217
1519479896551,0.268799,-0.702637,0.449951
1519479896585,0.549072,-0.879150,0.140625
1519479896618,0.885254,-0.743652,0.102051
1519479896648,0.587646,-0.600098,0.078369
1519479896680,0.508545,-0.484619,-0.010742
1519479896717,0.444092,-0.458740,-0.127197
1519479896725,0.439697,-0.481445,-0.330078
1519479896775,0.424561,-0.679932,-0.328857
1519479896808,0.466064,-1.142334,-0.687256
1519479896817,0.762207,-1.209717,-0.388916
1519479896881,1.008301,-0.934326,0.309570
1519479896889,1.358154,-0.997803,-0.548584
1519479896937,0.714355,-0.468994,-0.141113
1519479896972,0.299316,-0.441650,0.003906
1519479896980,0.037354,-0.636963,-0.097656
1519479897046,-0.022461,-0.426025,-0.110107
1519479897112,0.101318,-0.434082,0.151367
1519479897117,0.357910,-0.430908,-0.166016
1519479897181,0.555420,-0.518311,-0.174561
1519479897190,0.939941,-0.481445,-0.225830
1519479897248,1.260254,-0.529785,-0.144775
1519479897316,1.418701,-0.664307,-0.082520
1519479897383,1.539795,-0.520508,-0.233154
1519479897392,1.198730,-0.465820,-0.008545
1519479897449,0.766357,-0.520752,0.206055
1519479897452,1.124512,-0.554199,0.446533
1519479897517,1.330566,-0.419922,0.236328
1519479897520,1.142090,-0.668213,0.145020
1519479897556,0.801025,-0.779297,0.178955
1519479897559,0.567383,-0.560547,0.134277
1519479897562,0.426758,-0.668457,0.115967
1519479897565,0.428711,-0.618896,-0.070557
1519479897568,0.620850,-0.541260,-0.205566
1519479897594,0.714111,-0.484375,-0.177490
1519479897626,0.868164,-0.395508,-0.127686
1519479897668,0.920898,-0.406982,-0.140625
1519479897700,1.042725,-0.492676,-0.188232
1519479897730,1.233887,-0.531982,-0.187744
1519479897763,1.359131,-0.431885,-0.205566
1519479897797,1.121826,-0.568359,-0.192627
1519479897828,1.033936,-0.667236,-0.202637
1519479897860,1.351563,-0.612793,-0.229004
1519479897893,1.446045,-0.649170,-0.125488
1519479897951,0.903320,-0.349121,-0.027344
1519479897959,0.538818,-0.496582,0.079834
1519479897988,0.311279,-0.447998,0.117676
1519479898046,0.408447,-0.321045,0.029297
1519479898052,0.490234,-0.195068,-0.031738
1519479898092,0.567627,-0.234863,0.007813
1519479898127,0.661621,-0.226318,-0.052734
1519479898159,0.879883,-0.255615,-0.088623
1519479898192,1.080322,-0.327148,-0.020264
1519479898222,1.467041,-0.291748,-0.111816
1519479898255,1.560791,-0.304199,-0.139160
1519479898288,0.951416,-0.394531,-0.087646
1519479898320,0.719727,-0.522705,0.102539
1519479898353,1.172119,-0.553955,-0.014648
1519479898385,1.275879,-0.577148,-0.032471
1519479898417,0.953369,-0.599121,0.167969
1519479898450,0.715820,-0.597412,0.097168
1519479898459,0.526611,-0.586182,0.191406
1519479898513,0.417969,-0.495117,0.139893
1519479898546,0.385498,-0.533203,0.036865
1519479898554,0.480225,-0.515869,-0.039307
1519479898611,0.716553,-0.458252,-0.087646
1519479898644,0.823242,-0.453613,-0.051514
1519479898676,0.949219,-0.476563,-0.044922
1519479898709,1.158447,-0.488525,-0.046875
1519479898743,1.211670,-0.494629,-0.052734
1519479898774,1.325928,-0.460693,-0.071045
1519479898806,1.073730,-0.632568,-0.106201
1519479898839,1.137451,-0.707031,-0.098145
1519479898855,1.449707,-0.652588,-0.061523
1519479898910,1.315186,-0.438477,0.014893
1519479898918,0.954346,-0.464844,0.072266
1519479898945,0.671631,-0.528809,0.133789
1519479899004,0.495605,-0.457764,0.101807
1519479899010,0.416504,-0.311035,0.075439
1519479899061,0.439209,-0.326660,0.053955
1519479899094,0.523438,-0.305420,-0.008789
1519479899128,0.611572,-0.271484,-0.075439
1519479899137,0.722656,-0.263428,-0.104248
1519479899192,1.073242,-0.324219,-0.076660
1519479899223,1.206543,-0.318359,-0.105469
1519479899255,1.332031,-0.303711,-0.172363
1519479899273,1.252441,-0.437988,-0.138428
1519479899327,0.779541,-0.432861,-0.084473
1519479899330,0.799561,-0.444092,-0.047363
1519479899385,1.220703,-0.490723,-0.043701
1519479899419,1.159180,-0.427246,0.033936
1519479899422,0.859131,-0.514404,0.143066
1519479899480,0.626709,-0.542480,0.089600
1519479899509,0.496582,-0.547852,0.143066
1519479899542,0.437012,-0.567627,0.131348
1519479899576,0.483398,-0.592285,0.028564
1519479899584,0.657715,-0.585693,-0.043213
1519479899642,0.852783,-0.577393,-0.093018
1519479899673,0.892822,-0.592285,-0.066406
1519479899705,0.982178,-0.595215,-0.049561
1519479899740,1.176025,-0.585205,-0.138672
1519479899773,1.372559,-0.606689,-0.179932
1519479899805,1.498047,-0.656006,-0.202881
1519479899838,1.368652,-0.798096,-0.129883
1519479899869,1.351074,-0.569824,-0.109863
1519479899923,1.372559,-0.466553,-0.075684
1519479899926,1.000488,-0.393311,0.063232
1519479899958,0.582764,-0.332031,0.052002
1519479899990,0.516602,-0.299805,-0.026367
1519479900022,0.471924,-0.272217,-0.081055
1519479900054,0.474365,-0.237793,-0.058838
1519479900087,0.481201,-0.172119,-0.097412
1519479900119,0.508057,-0.201660,-0.074219
1519479900151,0.769043,-0.238770,-0.069580
1519479900184,1.037598,-0.309814,-0.031250
1519479900216,1.246094,-0.267578,-0.097656
1519479900250,1.352051,-0.383301,0.041748
1519479900283,1.488770,-0.390869,-0.004395
1519479900316,1.238037,-0.437988,-0.036133
1519479900347,1.168457,-0.610107,0.164063
1519479900379,1.154053,-0.497070,0.305908
1519479900412,0.932617,-0.499756,0.234375
1519479900444,0.652832,-0.410156,0.140625
1519479900485,0.512207,-0.506348,0.144775
1519479900489,0.504395,-0.472168,0.053955
1519479900544,0.516846,-0.490967,-0.010498
1519479900579,0.626465,-0.568848,-0.083252
1519479900581,0.760742,-0.628418,-0.062988
1519479900638,0.931396,-0.551270,-0.011475
1519479900670,1.043701,-0.501953,0.014404
1519479900703,1.275879,-0.542725,-0.055176
1519479900735,1.505859,-0.563965,-0.079834
1519479900768,1.298096,-0.580078,0.010254
1519479900801,1.099854,-0.620605,0.029785
1519479900833,1.363037,-0.475830,-0.020020
1519479900865,1.308838,-0.425049,0.018555
1519479900880,0.945801,-0.408447,0.087646
1519479900937,0.684570,-0.294678,0.060303
1519479900944,0.586670,-0.248291,0.047607
1519479901002,0.490479,-0.282715,0.042969
1519479901034,0.512451,-0.278320,0.078613
1519479901037,0.512207,-0.222168,0.032959
1519479901068,0.497803,-0.177979,-0.015381
1519479901100,0.671875,-0.236816,-0.022217
1519479901133,0.946777,-0.334229,0.005615
1519479901165,1.120117,-0.326660,-0.014160
1519479901203,1.413574,-0.346191,-0.025391
1519479901236,1.436523,-0.531250,0.038818
1519479901268,1.039307,-0.546143,0.050781
1519479901300,1.149658,-0.462646,0.152832
1519479901333,1.258301,-0.452881,0.194580
1519479901365,1.077393,-0.418945,0.227295
1519479901398,0.737305,-0.447266,0.218506
1519479901430,0.608887,-0.421875,0.124756
1519479901463,0.508301,-0.438477,0.164307
1519479901496,0.490234,-0.447266,0.084961
1519479901531,0.544189,-0.457520,0.031250
1519479901564,0.650635,-0.488281,-0.004150
1519479901597,0.863037,-0.502930,0.014404
1519479901630,1.006836,-0.511963,0.041748
1519479901663,1.125732,-0.498535,0.066162
1519479901702,1.259766,-0.489502,0.036865
1519479901736,1.342773,-0.448730,0.046875
1519479901745,1.209473,-0.578857,0.095947
1519479901798,1.345215,-0.705322,0.041992
1519479901830,1.579590,-0.468262,0.014893
1519479901863,1.381104,-0.310791,0.080566
1519479901896,0.799316,-0.381836,0.164063
1519479901928,0.598389,-0.366211,0.160156
1519479901960,0.551025,-0.294678,0.095703
1519479901993,0.590088,-0.232422,0.022949
1519479902065,0.563965,-0.252197,0.014648
1519479902067,0.553711,-0.251465,-0.016846
1519479902133,0.729248,-0.306396,0.004395
1519479902136,0.895264,-0.348633,0.007813
1519479902202,1.033447,-0.318604,-0.046143
1519479902210,1.212891,-0.438477,0.030518
1519479902268,1.257080,-0.513184,0.100098
1519479902271,1.072510,-0.403076,0.040039
1519479902335,0.940674,-0.424805,0.133301
1519479902339,1.059814,-0.466797,0.161621
1519479902404,1.098145,-0.415283,0.287354
1519479902412,0.866211,-0.391602,0.325684
1519479902471,0.700439,-0.363037,0.211182
1519479902474,0.594238,-0.312012,0.142822
1519479902538,0.513428,-0.377686,0.180908
1519479902542,0.530762,-0.439941,0.119629
1519479902567,0.611328,-0.480225,0.053955
1519479902576,0.752686,-0.471191,0.062744
1519479902599,0.852051,-0.431885,0.076660
1519479902606,1.028320,-0.437500,0.061279
1519479902665,1.220215,-0.494141,0.022705
1519479902696,1.248779,-0.491211,0.073242
1519479902729,1.316162,-0.421875,0.048340
1519479902762,1.043701,-0.625244,0.077148
1519479902795,1.060059,-0.683838,0.062744
1519479902826,1.249268,-0.557129,0.068115
1519479902860,1.352783,-0.309326,-0.009033
1519479902891,1.013184,-0.390381,0.071289
1519479902924,0.711182,-0.399414,0.121826
1519479902956,0.582764,-0.347656,0.092285
1519479902989,0.504150,-0.283447,0.061279
1519479903021,0.468994,-0.252686,0.044434
1519479903054,0.541748,-0.304932,0.022461
1519479903087,0.620117,-0.280762,0.006836
1519479903093,0.757324,-0.284424,-0.007568
1519479903147,1.055908,-0.331055,-0.003906
1519479903179,1.238037,-0.330566,-0.023438
1519479903187,1.282471,-0.312988,-0.015869
1519479903245,1.259277,-0.479980,0.053467
1519479903277,0.987793,-0.453369,0.077148
1519479903310,1.068359,-0.398193,0.095215
1519479903341,1.166748,-0.428223,0.164551
1519479903374,0.959229,-0.407471,0.313232
1519479903407,0.735596,-0.403320,0.300781
1519479903438,0.550537,-0.411377,0.207764
1519479903473,0.512695,-0.394287,0.184814
1519479903506,0.485840,-0.386719,0.146240
1519479903538,0.580811,-0.439453,0.054688
1519479903570,0.730957,-0.500244,0.024414
1519479903574,0.835205,-0.500244,0.050537
1519479903631,0.987061,-0.489502,0.053711
1519479903640,1.141357,-0.530762,0.029297
1519479903695,1.247803,-0.528320,0.052246
1519479903726,1.337158,-0.489258,0.114258
1519479903734,1.165039,-0.631836,0.079590
1519479903768,1.272705,-0.651611,-0.038086
1519479903825,1.484863,-0.495850,0.024902
1519479903857,1.204590,-0.329590,0.102295
1519479903889,0.772461,-0.379150,0.131104
1519479903922,0.593750,-0.390137,0.117432
1519479903955,0.527588,-0.305664,0.093018
1519479903989,0.493408,-0.262695,0.072510
1519479904020,0.518311,-0.285156,0.081787
1519479904052,0.578613,-0.284180,0.068848
1519479904056,0.641113,-0.267090,0.028076
1519479904124,0.774414,-0.274658,-0.021729
1519479904156,0.897705,-0.311768,-0.030762
1519479904161,1.103027,-0.363525,-0.028564
1519479904215,1.100098,-0.435791,0.097656
1519479904221,1.309082,-0.412109,-0.003174
1519479904274,1.178223,-0.451416,-0.014160
1519479904307,1.000000,-0.569580,0.113525
1519479904316,1.227539,-0.552979,0.161377
1519479904370,1.200684,-0.479248,0.261719
1519479904403,0.739014,-0.401611,0.310059
1519479904440,0.623291,-0.439941,0.194824
1519479904472,0.544922,-0.470947,0.175537
1519479904505,0.509277,-0.468994,0.122070
1519479904536,0.538330,-0.474121,0.059082
1519479904568,0.646484,-0.478760,0.016357
1519479904600,0.868652,-0.529297,-0.000488
1519479904633,0.974854,-0.574951,0.107910
1519479904635,1.223877,-0.516602,0.070313
1519479904692,1.200684,-0.451416,0.062500
1519479904725,1.304443,-0.438477,0.073242
1519479904731,1.170410,-0.651123,0.074463
1519479904788,1.117920,-0.633545,0.065674
1519479904820,1.385010,-0.441406,-0.033691
1519479904853,1.424316,-0.375732,-0.022217
1519479904866,0.798828,-0.399902,0.167236
1519479904925,0.561279,-0.361084,0.203125
1519479904930,0.615234,-0.333008,0.057129
1519479904986,0.609375,-0.274658,0.068115
1519479905019,0.572266,-0.179932,0.077393
1519479905044,0.533203,-0.197754,0.076904
1519479905076,0.583740,-0.266113,0.013672
1519479905109,0.769287,-0.312500,0.020264
1519479905141,1.000488,-0.339844,0.011230
1519479905174,1.182861,-0.327637,-0.028809
1519479905207,1.391602,-0.430908,0.004395
1519479905214,1.154785,-0.523438,0.050049
1519479905271,0.846191,-0.440674,0.182617
1519479905303,1.094971,-0.454590,0.175293
1519479905310,1.094482,-0.485352,0.209717
1519479905367,0.873291,-0.529541,0.288574
1519479905380,0.708496,-0.537354,0.290283
1519479905435,0.602539,-0.512451,0.286621
1519479905468,0.551270,-0.538574,0.239014
1519479905500,0.586670,-0.505127,0.152588
1519479905533,0.669434,-0.534180,0.099121
1519479905565,0.725098,-0.493408,0.101563
1519479905598,0.771973,-0.461914,0.057129
1519479905631,1.034668,-0.505127,0.010254
1519479905646,1.311035,-0.535645,0.047363
1519479905702,1.469238,-0.436523,0.049805
1519479905705,1.375244,-0.598633,0.107178
1519479905762,1.208496,-0.552002,0.150391
1519479905767,1.410645,-0.392822,0.097168
1519479905795,1.374023,-0.434082,0.095947
1519479905828,0.842773,-0.427734,0.108154
1519479905885,0.673828,-0.338623,0.163330
1519479905918,0.559082,-0.283203,0.183105
1519479905926,0.448975,-0.249512,0.141846
1519479905981,0.431152,-0.242676,0.107666
1519479906014,0.487061,-0.231201,0.049316
1519479906047,0.604248,-0.243408,0.003906
1519479906060,0.774658,-0.267334,-0.030029
1519479906092,0.976318,-0.334473,0.011230
1519479906125,1.203857,-0.313477,-0.054688
1519479906182,1.190674,-0.383789,0.020996
1519479906188,1.233154,-0.458008,0.077881
1519479906241,1.132080,-0.389160,0.015381
1519479906247,0.974365,-0.372314,0.007813
1519479906301,1.130615,-0.583252,0.156494
1519479906324,1.082520,-0.422852,0.399658
1519479906361,0.849609,-0.283203,0.364258
1519479906393,0.663086,-0.304443,0.264893
1519479906426,0.562012,-0.376221,0.191162
1519479906458,0.529785,-0.392334,0.161621
1519479906500,0.539063,-0.423340,0.068359
1519479906507,0.764404,-0.468750,0.000977
1519479906562,0.802734,-0.516846,0.102783
1519479906595,0.987793,-0.473633,0.157471
1519479906627,1.162354,-0.508057,0.092285
1519479906660,1.270996,-0.501953,0.062988
1519479906665,1.211670,-0.396729,0.026367
1519479906719,1.042236,-0.485107,0.066406
1519479906753,1.037842,-0.692383,0.028320
1519479906758,1.160889,-0.657227,0.061768
1519479906812,1.463623,-0.415283,0.051270
1519479906845,1.194092,-0.341064,0.135498
1519479906877,0.736816,-0.362549,0.228516
1519479906894,0.604736,-0.370850,0.189941
1519479906922,0.549561,-0.295166,0.163086
1519479906979,0.486572,-0.198730,0.136475
1519479907052,0.513428,-0.229736,0.091797
1519479907057,0.614014,-0.242432,0.051025
1519479907119,0.768311,-0.257324,-0.011963
1519479907124,1.133301,-0.270508,0.001221
1519479907185,1.242676,-0.290527,-0.015381
1519479907189,1.332275,-0.290527,-0.070801
1519479907254,1.285645,-0.434570,-0.007813
1519479907258,0.949463,-0.461426,0.054688
1519479907320,0.948975,-0.478271,0.127441
1519479907324,1.149170,-0.432861,0.189941
1519479907389,0.979736,-0.269287,0.297852
1519479907394,0.704590,-0.274170,0.336182
1519479907456,0.629639,-0.388916,0.219727
1519479907462,0.546631,-0.420898,0.218994
1519479907524,0.493164,-0.413818,0.203613
1519479907530,0.550537,-0.411865,0.112793
1519479907539,0.682617,-0.445557,0.046875
1519479907545,0.775146,-0.502197,0.033691
1519479907572,0.955566,-0.500977,0.003906
1519479907604,1.150635,-0.514648,0.003906
1519479907638,1.330078,-0.541016,-0.022461
1519479907695,1.525635,-0.551514,0.002930
1519479907700,1.300293,-0.687500,0.093262
1519479907757,1.342285,-0.636719,0.051514
1519479907790,1.461182,-0.437256,0.032959
1519479907825,1.070068,-0.432129,0.160889
1519479907830,0.675537,-0.429443,0.239014
1519479907882,0.506836,-0.323975,0.224121
1519479907888,0.440674,-0.268066,0.160889
1519479907921,0.466797,-0.256592,0.061768
1519479907954,0.530762,-0.241455,0.009033
1519479907986,0.632324,-0.214355,-0.020996
1519479908044,0.805908,-0.215820,-0.072510
1519479908076,1.069092,-0.301025,0.022461
1519479908109,1.259521,-0.293213,-0.053711
1519479908117,1.495605,-0.308838,-0.155029
1519479908154,1.084961,-0.476074,0.026123
1519479908186,0.841064,-0.460693,0.128418
1519479908219,1.183594,-0.438232,0.087646
1519479908277,1.210693,-0.338135,0.251953
1519479908282,0.879150,-0.293457,0.472900
1519479908338,0.686768,-0.350098,0.451172
1519479908369,0.600586,-0.355469,0.261963
1519479908373,0.690186,-0.380127,0.148193
1519479908403,0.646484,-0.440674,0.109863
1519479908437,0.347168,-0.672607,0.258057
1519479908469,0.436279,-0.851563,0.213379
1519479908501,0.628906,-0.985840,0.051270
1519479908534,0.715820,-0.755859,0.009033
1519479908567,0.926270,-0.750000,-0.108643
1519479908624,1.089111,-0.828613,-0.113770
1519479908657,1.109375,-0.828125,-0.016113
1519479908689,1.019775,-0.714111,-0.108643
1519479908695,1.201416,-0.728760,-0.146240
1519479908748,1.362061,-0.595215,-0.114014
1519479908780,1.054199,-0.675537,-0.133545
1519479908786,0.779297,-0.162842,0.003662
1519479908840,0.532715,-0.304932,0.107666
1519479908884,0.469238,-0.272705,0.130615
1519479908889,0.456787,-0.246094,0.143066
1519479908943,0.485596,-0.248291,0.160156
1519479908948,0.549561,-0.220947,0.097168
1519479909005,0.772461,-0.176758,0.007080
1519479909038,1.124512,-0.250488,0.064209
1519479909070,1.382324,-0.347656,0.133545
1519479909103,1.394043,-0.412842,0.174316
1519479909135,1.225342,-0.396484,0.101807
1519479909168,1.036133,-0.405762,0.052734
1519479909200,1.157715,-0.399658,0.059326
1519479909233,1.227295,-0.503174,0.220703
1519479909270,0.981445,-0.439209,0.291992
1519479909275,0.677979,-0.434326,0.255615
1519479909328,0.506104,-0.428711,0.191162
1519479909360,0.488281,-0.414307,0.144531
1519479909366,0.504150,-0.418945,0.066406
1519479909420,0.605469,-0.434082,-0.024902
1519479909451,0.747803,-0.421387,-0.026367
1519479909484,0.786621,-0.479248,0.029541
1519479909516,0.889160,-0.495605,0.040527
1519479909549,1.171631,-0.521729,0.018311
1519479909581,1.186035,-0.539795,0.066406
1519479909597,1.299561,-0.451904,0.028320
1519479909654,1.151367,-0.675049,0.049561
1519479909687,1.264893,-0.672363,0.032715
1519479909693,1.541748,-0.515869,0.069824
1519479909750,1.238770,-0.373291,0.187256
1519479909782,0.837891,-0.383057,0.289307
1519479909815,0.612549,-0.387939,0.264893
1519479909848,0.523193,-0.332520,0.208252
1519479909853,0.524658,-0.242676,0.124512
1519479909906,0.517090,-0.214355,0.083740
1519479909939,0.559082,-0.194336,0.041748
1519479909944,0.731201,-0.202148,-0.017578
1519479910001,1.084717,-0.260986,-0.018066
1519479910035,1.229004,-0.319580,0.054932
1519479910066,1.297119,-0.311279,0.042725
1519479910099,1.268066,-0.395508,0.037354
1519479910132,0.961426,-0.415527,0.021973
1519479910164,0.812500,-0.422119,0.098877
1519479910197,1.093018,-0.475342,0.172363
1519479910234,1.083008,-0.470215,0.284912
1519479910245,0.846191,-0.413818,0.348633
1519479910304,0.617432,-0.403809,0.174561
1519479910310,0.561279,-0.446777,0.216797
1519479910365,0.549805,-0.475342,0.159912
1519479910398,0.588379,-0.496338,0.070801
1519479910429,0.675293,-0.494629,0.042480
1519479910433,0.806885,-0.507324,0.067383
1519479910463,0.953125,-0.553223,0.092285
1519479910496,1.138672,-0.512207,0.094482
1519479910529,1.169189,-0.486572,0.123291
1519479910561,1.218994,-0.493896,0.123047
1519479910594,1.116943,-0.659668,0.079102
1519479910626,1.345703,-0.659912,0.031738
1519479910684,1.707275,-0.449463,0.005371
1519479910689,1.395752,-0.321289,0.123047
1519479910746,0.856689,-0.353760,0.242920
1519479910779,0.591309,-0.406494,0.245361
1519479910812,0.528320,-0.326416,0.170654
1519479910817,0.455322,-0.218750,0.111328
1519479910870,0.497314,-0.199463,0.065430
1519479910876,0.602295,-0.197998,0.011963
1519479910909,0.696045,-0.227295,-0.056641
1519479910966,0.865479,-0.264893,-0.045410
1519479910974,1.022705,-0.325684,0.008301
1519479911030,1.204346,-0.384521,0.008301
1519479911062,1.382813,-0.425293,-0.026855
1519479911095,1.019287,-0.506104,0.055664
1519479911127,0.860596,-0.516846,0.150635
1519479911160,1.135742,-0.515137,0.202637
1519479911196,1.174316,-0.355469,0.206787
1519479911207,0.942383,-0.319824,0.273438
1519479911263,0.771240,-0.427246,0.217773
1519479911296,0.666016,-0.439453,0.290771
1519479911328,0.604736,-0.419678,0.297363
1519479911361,0.606689,-0.441895,0.204346
1519479911395,0.674561,-0.465088,0.175293
1519479911400,0.770996,-0.422607,0.140869
1519479911444,0.969238,-0.389648,0.101318
1519479911476,1.135986,-0.436768,0.071045
1519479911510,1.307129,-0.479736,0.111572
1519479911545,1.339844,-0.381348,0.107178
1519479911575,1.277832,-0.456543,0.119385
1519479911609,1.063721,-0.628174,0.106445
1519479911643,1.155762,-0.485596,0.078369
1519479911676,1.334229,-0.328857,0.043701
1519479911708,1.296631,-0.385498,0.051025
1519479911740,0.882813,-0.415283,0.136230
1519479911773,0.700439,-0.354980,0.169678
1519479911805,0.576660,-0.296875,0.170410
1519479911838,0.442383,-0.252930,0.138428
1519479911870,0.451416,-0.242920,0.073730
1519479911876,0.503174,-0.261230,0.031494
1519479911929,0.607178,-0.261719,0.003662
1519479911961,0.758545,-0.284668,-0.025635
1519479911994,0.950439,-0.353271,-0.024902
1519479912066,1.283203,-0.490234,-0.068604
1519479912071,1.488281,-0.648193,-0.059570
1519479912134,1.345215,-0.677979,0.022949
1519479912139,0.814697,-0.522217,0.072021
1519479912200,0.770020,-0.493652,0.161621
1519479912271,0.974121,-0.553711,0.056641
1519479912336,1.068848,-0.519775,0.044678
1519479912342,0.906982,-0.542236,0.225586
1519479912404,0.767334,-0.505371,0.148193
1519479912410,0.579834,-0.608643,0.064209
1519479912471,0.493164,-0.711426,0.087891
1519479912477,0.530762,-0.748047,0.064209
1519479912530,0.568604,-0.567627,-0.161133
1519479912543,0.532227,-0.670654,-0.182861
1519479912548,0.564697,-0.876221,-0.204590
1519479912552,0.644043,-0.974609,-0.278564
1519479912555,0.733643,-0.957275,-0.370361
1519479912567,0.751465,-0.997314,-0.414063
1519479912625,0.661621,-0.915771,-0.341064
1519479912630,0.535400,-1.063232,-0.299072
1519479912671,0.523438,-1.011719,-0.397705
1519479912725,0.628662,-0.907715,-0.404541
1519479912730,0.630127,-0.923584,-0.343506
1519479912758,0.575439,-0.848389,-0.418213
1519479912791,0.415771,-0.619873,-0.291260
1519479912824,0.324707,-0.700195,-0.081543
1519479912856,0.310303,-0.208252,0.243652
1519479912888,0.164063,-0.045654,0.329102
1519479912921,0.036865,-0.754150,-0.015869
1519479912952,0.013428,-0.655518,-0.027100
1519479912985,0.052490,-0.720459,-0.078369
1519479913018,0.129883,-0.821289,-0.187256
1519479913035,0.390869,-1.015625,-0.180908
1519479913090,0.305176,-1.515869,-0.099365
1519479913096,0.325439,-1.620850,-0.379883
1519479913154,0.394043,-1.464844,-0.403564
1519479913186,0.332031,-1.113770,-0.207764
1519479913219,0.430908,-1.011719,-0.037354
1519479913251,0.411621,-0.943359,-0.144287
