1519479916169,1.349121,-0.506104,0.149170
1519479916202,1.178955,-0.496826,0.157471
1519479916235,1.093994,-0.439209,0.122070
1519479916267,1.284180,-0.480713,0.177979
1519479916299,1.136230,-0.427490,0.193115
1519479916332,0.802979,-0.407959,0.213379
1519479916365,0.586426,-0.474365,0.250244
1519479916398,0.501221,-0.455322,0.253174
1519479916431,0.431885,-0.423828,0.222656
1519479916463,0.498047,-0.404541,0.144775
1519479916496,0.604980,-0.442383,0.106689
1519479916528,0.718018,-0.466064,0.094238
1519479916565,0.978760,-0.503174,0.088623
1519479916597,1.190430,-0.542725,0.101807
1519479916603,1.350342,-0.530029,0.072021
1519479916662,1.422119,-0.574463,0.170166
1519479916692,1.138184,-0.634521,0.253662
1519479916706,1.172852,-0.582031,0.208740
1519479916765,1.373047,-0.461426,0.204346
1519479916773,1.188477,-0.372070,0.193115
1519479916825,0.800537,-0.389404,0.193604
1519479916858,0.600830,-0.382813,0.187012
1519479916864,0.540771,-0.324219,0.192871
1519479916924,0.501465,-0.277344,0.133545
1519479916955,0.487549,-0.257080,0.132324
1519479916988,0.519775,-0.279541,0.099854
1519479917061,0.597900,-0.312500,0.017822
1519479917069,0.819092,-0.320068,0.008301
1519479917128,1.092041,-0.375000,0.062256
1519479917196,1.172607,-0.373535,0.046875
1519479917264,1.314941,-0.431641,0.097656
1519479917272,1.353027,-0.499512,0.133545
1519479917330,1.018555,-0.418701,0.107666
1519479917336,1.005371,-0.491455,0.221680
1519479917398,1.167236,-0.492920,0.281982
1519479917411,1.015869,-0.330078,0.340576
1519479917465,0.709229,-0.309326,0.297119
1519479917468,0.581299,-0.371094,0.287842
1519479917529,0.464844,-0.374756,0.268555
1519479917531,0.417725,-0.380859,0.241455
1519479917534,0.452881,-0.410889,0.199219
1519479917536,0.593262,-0.447266,0.154785
1519479917547,0.870850,-0.471924,0.109375
1519479917549,1.042725,-0.496338,0.124023
1519479917580,1.187500,-0.484619,0.151855
1519479917639,1.267578,-0.477051,0.160645
1519479917646,1.273682,-0.418945,0.173096
1519479917673,1.066895,-0.541992,0.226074
1519479917731,1.180176,-0.679443,0.172119
1519479917740,1.406006,-0.552979,0.089844
1519479917763,1.407471,-0.405029,0.087891
1519479917844,0.810303,-0.392822,0.222656
1519479917854,0.599121,-0.410645,0.227783
1519479917879,0.516602,-0.380859,0.189941
1519479917912,0.462646,-0.286377,0.133301
1519479917946,0.470215,-0.265381,0.084961
1519479917985,0.483643,-0.302490,0.052002
1519479918018,0.624756,-0.302979,-0.015381
1519479918050,0.829346,-0.333008,-0.009277
1519479918054,1.036865,-0.378418,0.051758
1519479918110,1.237793,-0.397705,0.026123
1519479918144,1.294189,-0.431396,0.058350
1519479918152,1.229248,-0.492676,0.147461
1519479918201,0.986816,-0.439209,0.147949
1519479918234,1.018799,-0.447754,0.176758
1519479918267,1.165039,-0.450195,0.237305
1519479918298,0.884521,-0.387939,0.357422
1519479918331,0.639648,-0.386475,0.317139
1519479918365,0.529785,-0.390137,0.218994
1519479918379,0.466553,-0.368896,0.216553
1519479918436,0.507324,-0.372070,0.173340
1519479918468,0.634766,-0.403320,0.117188
1519479918475,0.743896,-0.450195,0.128906
1519479918531,0.799072,-0.425293,0.173584
1519479918563,0.997559,-0.447998,0.127930
1519479918596,1.229736,-0.486816,0.099365
1519479918630,1.135010,-0.438721,0.152100
1519479918639,1.250244,-0.486816,0.141846
1519479918689,1.175781,-0.760010,0.186279
1519479918721,1.313477,-0.723633,0.122803
1519479918730,1.589111,-0.512207,0.004395
1519479918785,1.273682,-0.334717,0.076172
1519479918794,0.734131,-0.418945,0.206299
1519479918852,0.561523,-0.465820,0.199707
1519479918884,0.505615,-0.353516,0.100586
1519479918892,0.477295,-0.257568,0.046875
1519479918949,0.477051,-0.253906,0.041504
1519479918967,0.529785,-0.282227,-0.004395
1519479918998,0.675049,-0.267578,-0.051025
1519479919030,0.894287,-0.275879,-0.053711
1519479919063,1.106689,-0.351318,-0.031250
1519479919096,1.146240,-0.322021,-0.025391
1519479919125,1.250732,-0.374268,0.032227
1519479919167,1.149414,-0.459717,0.079590
1519479919199,0.866699,-0.439941,0.118164
1519479919233,0.961670,-0.444336,0.178711
1519479919266,1.214111,-0.373291,0.371338
1519479919298,0.988525,-0.359619,0.411377
1519479919330,0.804688,-0.358398,0.326904
1519479919362,0.634277,-0.350586,0.273438
1519479919396,0.538086,-0.374756,0.245850
1519479919429,0.489990,-0.420410,0.223389
1519479919462,0.513184,-0.474854,0.225586
1519479919493,0.652100,-0.442139,0.155029
1519479919526,0.803223,-0.439697,0.117676
1519479919557,1.008301,-0.447998,0.084473
1519479919574,1.111572,-0.489502,0.108154
1519479919629,1.092773,-0.486328,0.174561
1519479919662,1.177002,-0.385986,0.062500
1519479919695,1.260986,-0.633057,0.116455
1519479919728,1.335938,-0.776367,0.136963
1519479919761,1.666748,-0.544678,0.000732
1519479919774,1.472656,-0.329102,0.061035
1519479919797,0.904785,-0.313477,0.229248
1519479919830,0.594482,-0.397705,0.245605
1519479919863,0.506836,-0.364502,0.170898
1519479919896,0.493896,-0.297363,0.099854
1519479919929,0.489258,-0.226807,0.076416
1519479919960,0.496094,-0.233154,0.022705
1519479920002,0.549805,-0.244873,-0.035400
1519479920035,0.765625,-0.294434,-0.003906
1519479920066,0.903809,-0.336914,0.069824
1519479920099,1.020020,-0.330811,0.041992
1519479920132,1.169922,-0.421875,0.154785
1519479920164,1.366699,-0.363037,-0.021240
1519479920171,1.277344,-0.416260,-0.084961
1519479920227,1.109375,-0.728271,0.285889
1519479920261,1.180176,-0.601318,0.483643
1519479920292,1.013916,-0.395020,0.443115
1519479920325,0.684814,-0.279541,0.242676
1519479920359,0.508057,-0.348145,0.209473
1519479920373,0.461670,-0.426025,0.200684
1519479920431,0.399658,-0.486572,0.174316
1519479920462,0.568359,-0.484375,0.076660
1519479920471,0.760498,-0.526123,0.044189
1519479920525,0.942383,-0.589111,0.102539
1519479920558,1.185059,-0.580566,0.121094
1519479920591,1.335449,-0.590088,0.176514
1519479920622,1.309814,-0.409424,0.085205
1519479920655,1.142090,-0.555176,0.163330
1519479920687,1.189941,-0.739746,0.090332
1519479920720,1.481445,-0.509521,-0.006104
1519479920756,1.570801,-0.369873,-0.029053
1519479920764,1.088623,-0.360840,0.142334
1519479920823,0.658203,-0.363525,0.169189
1519479920829,0.579834,-0.345703,0.117920
1519479920856,0.501953,-0.283203,0.052246
1519479920915,0.458984,-0.233154,0.025635
1519479920924,0.448975,-0.237305,0.042725
1519479920975,0.485840,-0.238037,0.019287
1519479921008,0.628418,-0.256348,-0.034180
1519479921042,0.873535,-0.292236,0.005615
1519479921050,1.054199,-0.305176,0.049561
1519479921105,1.213379,-0.375977,0.155518
1519479921136,1.134033,-0.387207,0.218262
1519479921169,1.165771,-0.342285,0.088379
1519479921188,1.144043,-0.430176,0.031250
1519479921219,1.227295,-0.655273,0.270752
1519479921252,1.252930,-0.576904,0.458252
1519479921285,0.872803,-0.470703,0.248047
1519479921317,0.625977,-0.388672,0.184326
1519479921349,0.561523,-0.478760,0.220947
1519479921410,0.511475,-0.474121,0.126221
1519479921418,0.483154,-0.502930,0.063965
1519479921443,0.658936,-0.551270,0.000732
1519479921500,0.817139,-0.660156,0.013428
1519479921508,1.008789,-0.643311,0.036865
1519479921534,1.214355,-0.546143,0.099854
1519479921573,1.181641,-0.468750,0.116211
1519479921605,1.237305,-0.431396,0.119141
1519479921638,1.032227,-0.628174,0.150879
1519479921683,1.421631,-0.717773,-0.042969
1519479921719,1.688721,-0.542236,-0.086670
1519479921752,1.382080,-0.318115,0.040039
1519479921784,0.778076,-0.320557,0.245605
1519479921816,0.667480,-0.334961,0.188232
1519479921821,0.619141,-0.241699,0.053223
1519479921876,0.636719,-0.294434,0.085938
1519479921909,0.623779,-0.264893,0.130371
1519479921918,0.701904,-0.225830,0.108643
1519479921972,0.928467,-0.252441,0.123535
1519479921986,1.082520,-0.323242,0.102051
1519479922059,1.159424,-0.302002,0.064453
1519479922067,1.036133,-0.380127,0.234375
1519479922125,1.003174,-0.404785,0.284180
1519479922130,1.069824,-0.250977,0.037598
1519479922192,0.923096,-0.462402,0.200684
1519479922195,1.112793,-0.551758,0.348633
1519479922260,1.265869,-0.431885,0.395508
1519479922265,0.983154,-0.351807,0.206787
1519479922328,0.677979,-0.294434,0.147705
1519479922334,0.520996,-0.362793,0.270020
1519479922396,0.502686,-0.419434,0.188477
1519479922465,0.510986,-0.444336,0.104980
1519479922528,0.577393,-0.484375,0.081299
1519479922536,0.691895,-0.542480,0.071533
1519479922545,0.858154,-0.573242,0.121094
1519479922548,1.040283,-0.518799,0.122070
1519479922552,1.238037,-0.532227,0.059326
1519479922563,1.181641,-0.554443,0.086914
1519479922596,1.156982,-0.528809,0.172607
1519479922654,0.996338,-0.724854,0.177246
1519479922659,1.209961,-0.688232,0.111084
1519479922717,1.485596,-0.494873,-0.005371
1519479922750,1.348389,-0.347168,0.073730
1519479922783,0.959961,-0.356445,0.196045
1519479922791,0.698486,-0.394043,0.253174
1519479922848,0.505371,-0.051758,0.306885
1519479922881,0.478027,-0.237061,0.171875
1519479922884,0.484131,-0.331787,0.031982
1519479922964,0.561768,-0.210693,-0.167969
1519479922970,0.797119,-0.330811,-0.170654
1519479922982,0.896484,-0.420654,-0.224121
1519479923015,1.039063,-0.791504,-0.330811
1519479923047,0.936523,-0.835205,-0.141602
1519479923079,0.993164,-0.934326,-0.041748
1519479923112,0.920166,-0.516602,0.000000
1519479923145,0.585693,-0.598145,-0.027344
1519479923185,0.639648,-0.875977,-0.111084
1519479923217,0.807373,-0.699219,0.000000
1519479923248,0.634277,-0.550781,0.008301
1519479923282,0.484131,-0.492432,0.058594
1519479923313,0.319824,-0.543701,0.128906
1519479923346,0.457764,-0.144287,0.118652
1519479923380,0.501465,-0.275146,0.126709
1519479923413,0.748291,-0.422363,-0.042725
1519479923443,0.815918,-0.555176,-0.122803
1519479923477,0.892578,-0.599609,-0.128174
1519479923510,1.194092,-0.610107,-0.081299
1519479923543,1.321777,-0.668701,0.096191
1519479923574,1.250488,-0.541504,0.248291
1519479923616,1.209229,-0.607666,0.236816
1519479923628,1.056152,-0.881592,0.160156
1519479923656,1.247803,-0.841797,0.037109
1519479923714,1.536621,-0.461670,-0.077881
1519479923746,1.287842,-0.320068,0.063477
1519479923778,0.839844,-0.367920,0.189941
1519479923810,0.646484,-0.431641,0.159668
1519479923842,0.589355,-0.379883,0.100342
1519479923875,0.543945,-0.298828,0.040039
1519479923907,0.518311,-0.243408,0.016846
1519479923940,0.544678,-0.221191,-0.031982
1519479923945,0.635986,-0.238281,-0.090820
1519479924006,0.927246,-0.312012,-0.096436
1519479924012,0.971191,-0.354248,-0.058105
1519479924041,1.006104,-0.322510,-0.076904
1519479924099,1.239990,-0.487061,-0.003906
1519479924108,1.023682,-0.528564,0.035645
1519479924161,0.994629,-0.497070,0.045166
1519479924195,1.266357,-0.561035,0.127197
1519479924243,1.177002,-0.491455,0.240967
1519479924246,0.914307,-0.426270,0.305420
1519479924277,0.717285,-0.437744,0.281738
1519479924311,0.618164,-0.471924,0.233887
1519479924342,0.483154,-0.447510,0.262695
1519479924375,0.509033,-0.449219,0.200439
1519479924407,0.591797,-0.498779,0.159424
1519479924441,0.700439,-0.545410,0.148682
1519479924472,0.909668,-0.519287,0.112793
1519479924506,1.071289,-0.508545,0.037354
1519479924539,1.190430,-0.553711,-0.021240
1519479924571,1.405518,-0.590088,-0.022217
1519479924609,1.295166,-0.660156,0.054932
1519479924642,1.303711,-0.656494,0.014648
1519479924674,1.493408,-0.504883,-0.025879
1519479924706,1.243164,-0.440186,0.029053
1519479924739,0.832275,-0.438477,0.114502
1519479924771,0.583496,-0.370361,0.173340
1519479924812,0.502197,-0.316650,0.080322
1519479924844,0.475830,-0.265381,0.047607
1519479924850,0.480225,-0.212158,0.077148
1519479924908,0.519531,-0.211426,0.040771
1519479924917,0.625000,-0.255127,-0.011719
1519479924966,0.885742,-0.300781,-0.003906
1519479924972,1.098877,-0.318115,-0.033447
1519479925027,1.136475,-0.327637,-0.076660
1519479925061,1.268311,-0.440674,0.058594
1519479925069,1.181396,-0.455322,0.039063
1519479925125,0.988525,-0.447510,0.085693
1519479925157,1.231445,-0.532959,0.169678
1519479925190,1.286621,-0.476318,0.232666
1519479925204,0.959717,-0.355225,0.273438
1519479925234,0.692871,-0.450684,0.273438
1519479925267,0.545410,-0.471924,0.231201
1519479925301,0.461914,-0.452148,0.192383
1519479925358,0.453125,-0.455566,0.140137
1519479925390,0.553223,-0.480713,0.058838
1519479925395,0.700195,-0.522949,-0.019775
1519479925448,0.920654,-0.541260,-0.040283
1519479925482,1.035400,-0.576416,-0.038818
1519479925490,1.164307,-0.610596,-0.049561
1519479925550,1.263672,-0.520020,-0.029785
1519479925559,1.208252,-0.636475,-0.004883
1519479925587,1.289551,-0.893799,-0.042236
1519479925619,1.551514,-0.733398,-0.067871
1519479925653,1.571045,-0.380371,-0.043213
1519479925685,1.147461,-0.306396,0.163574
1519479925718,0.698486,-0.480957,0.253906
1519479925751,0.614990,-0.442383,0.166992
1519479925806,0.619629,-0.292969,0.090820
1519479925838,0.600586,-0.201660,0.088379
1519479925846,0.605469,-0.197510,0.067627
1519479925903,0.593750,-0.184570,0.024170
1519479925936,0.667969,-0.197998,0.005859
1519479925967,0.821289,-0.225586,-0.016602
1519479925970,0.919922,-0.239502,-0.058350
1519479926033,1.005371,-0.273193,-0.011475
1519479926066,1.150635,-0.448486,0.062012
1519479926069,0.981934,-0.526611,0.027100
1519479926126,1.005127,-0.495850,0.082031
1519479926135,1.316162,-0.517578,0.170898
1519479926190,1.343506,-0.474365,0.261719
1519479926222,0.922852,-0.417236,0.193604
1519479926228,0.724609,-0.451172,0.199951
1519479926286,0.639404,-0.517822,0.252930
1519479926317,0.539307,-0.558105,0.218506
1519479926350,0.522949,-0.599365,0.181885
1519479926383,0.607666,-0.635986,0.126465
1519479926416,0.791260,-0.614014,0.041016
1519479926431,0.971191,-0.584717,0.028564
1519479926461,1.121094,-0.575928,0.005859
1519479926518,1.290283,-0.572998,-0.004639
1519479926529,1.393555,-0.564941,-0.002686
1519479926553,1.269287,-0.682617,0.016113
1519479926613,1.214844,-0.664551,0.051025
1519479926621,1.408936,-0.462402,0.029541
1519479926649,1.382568,-0.373779,0.017334
1519479926706,0.905273,-0.436768,0.086426
1519479926715,0.729004,-0.347656,0.091797
1519479926769,0.589844,-0.259521,0.133789
1519479926804,0.465576,-0.245850,0.108154
1519479926817,0.490479,-0.279297,0.061279
1519479926849,0.545898,-0.270264,0.005615
1519479926881,0.651611,-0.203369,0.003662
1519479926914,0.822266,-0.239014,0.050293
1519479926946,0.853760,-0.268311,0.026123
1519479926993,1.012451,-0.303223,-0.038330
1519479927066,1.286377,-0.343994,-0.055176
1519479927070,1.256592,-0.469727,-0.038574
1519479927133,0.922607,-0.484619,0.121094
1519479927136,1.201904,-0.407471,0.183105
1519479927202,1.325684,-0.421387,0.280518
1519479927206,0.939209,-0.344482,0.336426
1519479927269,0.665527,-0.390869,0.275391
1519479927274,0.597412,-0.493164,0.296387
1519479927337,0.510498,-0.542725,0.239990
1519479927342,0.519043,-0.546143,0.131104
1519479927404,0.694092,-0.600342,0.042236
1519479927410,0.876709,-0.637451,0.021484
1519479927473,0.937256,-0.599609,0.030029
1519479927482,1.048096,-0.598389,0.052979
1519479927524,1.258057,-0.625000,0.011963
1519479927528,1.356445,-0.489502,-0.011475
1519479927531,1.320068,-0.565674,0.054688
1519479927560,1.288574,-0.759766,0.048096
1519479927592,1.433105,-0.553711,-0.025635
1519479927625,1.487305,-0.338867,0.024902
1519479927658,1.118408,-0.318359,0.103760
1519479927691,0.829346,-0.396729,0.127197
1519479927724,0.666504,-0.342529,0.103027
1519479927756,0.528809,-0.239990,0.078857
1519479927788,0.490234,-0.214600,0.063965
1519479927822,0.479004,-0.206055,0.025635
1519479927852,0.559082,-0.257324,-0.012695
1519479927885,0.697754,-0.346191,-0.023438
1519479927918,0.849365,-0.351563,-0.004395
1519479927950,0.990967,-0.341553,0.021240
1519479927982,0.955322,-0.359619,0.123291
1519479928014,1.027832,-0.424316,0.070313
1519479928047,0.858398,-0.520264,0.151367
1519479928086,0.789063,-0.448730,0.165039
1519479928095,1.184326,-0.385742,0.138672
1519479928146,1.397949,-0.486816,0.167725
1519479928180,1.127930,-0.526123,0.224609
1519479928213,0.851807,-0.462158,0.127197
1519479928244,0.670410,-0.473145,0.213623
1519479928277,0.594482,-0.513184,0.174561
1519479928310,0.538330,-0.522705,0.103271
1519479928341,0.598633,-0.600586,0.073730
1519479928374,0.725586,-0.631592,0.017578
1519479928407,0.850586,-0.628906,0.006104
1519479928441,1.062988,-0.582764,-0.048584
1519479928477,1.249512,-0.604248,-0.068604
1519479928494,1.258545,-0.546875,-0.047607
1519479928524,1.218994,-0.614502,0.014893
1519479928556,1.189209,-0.739746,0.005127
1519479928589,1.375488,-0.614990,-0.087646
1519479928619,1.585449,-0.413818,-0.067139
1519479928652,1.269531,-0.332275,0.025391
1519479928685,0.936279,-0.357666,0.086426
1519479928745,0.734863,-0.333740,0.076660
1519479928753,0.616943,-0.261963,0.050049
1519479928776,0.527344,-0.221436,0.059326
1519479928809,0.544189,-0.231689,0.032471
1519479928841,0.539063,-0.177734,0.006592
1519479928874,0.558105,-0.153320,-0.021240
1519479928917,0.820068,-0.210938,0.005371
1519479928949,0.975098,-0.275146,-0.023438
1519479928982,1.030762,-0.256348,-0.067871
1519479929013,1.219238,-0.373779,0.027344
1519479929045,1.278076,-0.425781,-0.040771
1519479929078,1.093506,-0.448242,-0.050049
1519479929111,1.299316,-0.576660,0.122803
1519479929142,1.432373,-0.467773,0.229980
1519479929174,1.130859,-0.396729,0.137695
1519479929207,0.720459,-0.183105,0.223877
1519479929239,0.669434,-0.403809,0.134766
1519479929271,0.542969,-0.590820,-0.071533
1519479929313,0.420654,-0.792480,-0.352051
1519479929318,0.375000,-1.023926,-0.490967
1519479929363,0.536377,-0.827148,-0.401123
1519479929397,0.707764,-0.869873,-0.258057
1519479929433,0.824951,-0.751953,-0.275146
1519479929466,0.999756,-0.733887,-0.317627
1519479929499,1.139404,-0.480469,-0.269287
1519479929531,1.055420,-0.440918,-0.206787
1519479929563,1.054688,-0.241943,-0.217773
1519479929595,1.210938,-0.458496,-0.141113
1519479929602,1.493652,-0.517822,-0.149902
1519479929659,1.439209,-0.446533,0.003418
1519479929691,0.919922,-0.353516,0.202637
1519479929725,0.735596,-0.367920,0.199951
1519479929756,0.718262,-0.364502,0.142822
1519479929789,0.680420,-0.316162,0.128662
1519479929823,0.605713,-0.260742,0.092773
1519479929854,0.552734,-0.214111,0.071533
1519479929887,0.519287,-0.165283,0.020020
1519479929920,0.605469,-0.169189,-0.023682
1519479929952,0.747314,-0.196289,-0.017090
1519479929986,0.980225,-0.212158,-0.074463
1519479930017,1.340576,-0.229980,-0.216309
1519479930051,1.643799,-0.488770,-0.212158
1519479930083,1.060791,-0.739258,0.231201
1519479930098,1.610596,-0.419922,0.061768
1519479930123,1.332031,-0.334717,0.320557
1519479930179,0.797119,-0.311279,0.320313
1519479930183,0.728760,-0.444824,0.221436
1519479930217,0.620605,-0.499512,0.129395
1519479930274,0.516846,-0.516357,0.076172
1519479930279,0.565186,-0.557861,-0.002686
1519479930337,0.644287,-0.635742,-0.034668
1519479930369,0.726074,-0.643555,0.004150
1519479930405,0.759033,-0.558838,0.104248
1519479930412,0.809570,-0.453613,0.056152
1519479930470,1.070801,-0.485596,-0.066406
1519479930502,1.244141,-0.516602,-0.075684
1519479930536,1.485840,-0.472900,-0.153809
1519479930568,1.357910,-0.664795,0.203125
1519479930600,1.165527,-0.529785,0.130615
1519479930608,1.321533,-0.333496,0.035400
1519479930669,1.338379,-0.477539,0.140869
1519479930701,1.025879,-0.492432,0.174072
1519479930709,0.785400,-0.329834,0.169922
1519479930760,0.542480,-0.216797,0.235840
1519479930763,0.559082,-0.204834,0.177734
1519479930822,0.573975,-0.222656,0.104980
1519479930854,0.622559,-0.221680,0.052490
1519479930862,0.687012,-0.206787,0.033447
1519479930899,0.820068,-0.211182,-0.010010
1519479930932,0.947510,-0.250244,0.047363
1519479930965,1.028320,-0.240234,0.086914
1519479930999,1.223633,-0.239014,0.065918
1519479931032,1.435547,-0.324219,-0.009521
1519479931063,1.032227,-0.453857,0.134277
1519479931096,1.092285,-0.435791,0.249512
1519479931154,1.202637,-0.323975,0.467529
1519479931186,1.088867,-0.300781,0.349609
1519479931195,0.916260,-0.315186,0.198730
1519479931243,0.693359,-0.343018,0.088135
1519479931280,0.592529,-0.344727,-0.076904
1519479931287,0.573242,-0.436035,-0.031250
1519479931338,0.580078,-0.496094,-0.086670
1519479931345,0.555176,-0.484863,-0.121582
1519479931402,0.605225,-0.500244,-0.104004
1519479931435,0.818848,-0.552246,-0.131836
1519479931441,1.086426,-0.626221,-0.169678
1519479931500,1.257080,-0.747070,-0.190430
1519479931533,1.755615,-0.856445,-0.259766
1519479931565,0.993652,-0.935791,0.091309
1519479931597,0.501953,-0.572510,0.225098
1519479931630,0.837158,-0.787842,0.170898
1519479931662,1.315186,-1.041504,-0.049316
1519479931694,1.146729,-0.953369,0.118652
1519479931708,0.960205,-0.639893,0.329834
1519479931765,0.885742,-0.432861,0.357178
1519479931768,0.817871,-0.263184,0.224609
1519479931800,0.673340,-0.376465,0.156250
1519479931857,0.687744,-0.376953,0.137695
1519479931860,0.725098,-0.242432,0.061768
1519479931891,0.726074,-0.223633,-0.042236
1519479931951,0.886963,-0.308594,-0.112793
1519479931983,0.946533,-0.297363,-0.132080
1519479932055,0.934082,-0.349609,0.042725
1519479932066,0.815430,-0.265869,0.042969
1519479932122,0.750244,-0.212891,-0.112061
1519479932190,0.544922,-0.441162,-0.024414
1519479932257,0.766113,-0.652100,0.110840
1519479932325,1.003662,-0.754639,0.257568
1519479932329,1.051025,-0.650146,0.350342
1519479932391,0.817627,-0.566406,0.281494
1519479932396,0.626465,-0.505615,0.244629
1519479932459,0.677734,-0.479248,0.197754
1519479932462,0.787354,-0.505127,0.186768
1519479932529,0.940918,-0.617188,0.246094
1519479932539,0.986328,-0.456055,0.246338
1519479932546,1.044678,-0.381104,0.241455
1519479932549,1.118164,-0.363281,0.121338
1519479932553,1.324219,-0.415527,-0.015625
1519479932556,1.289795,-0.422852,-0.005371
1519479932559,1.097168,-0.360352,-0.053711
1519479932581,0.928467,-0.503418,0.002197
1519479932613,0.981934,-0.774170,0.053711
1519479932646,1.165527,-0.698486,-0.054199
1519479932679,1.498779,-0.282471,-0.302734
1519479932712,1.298340,-0.220459,-0.113525
1519479932745,0.907471,-0.299561,0.016357
1519479932778,0.599365,-0.308594,-0.056641
1519479932810,0.537354,-0.281494,-0.068848
1519479932840,0.546387,-0.223145,-0.044189
1519479932873,0.572510,-0.196045,-0.044434
1519479932908,0.660889,-0.247803,-0.020996
1519479932941,0.802002,-0.267334,-0.028076
1519479932955,1.045898,-0.302734,0.007324
1519479933015,1.205078,-0.294922,0.061523
1519479933024,1.348145,-0.416260,0.127441
1519479933075,1.044434,-0.492920,0.327637
1519479933108,0.990479,-0.493164,0.387207
1519479933141,1.226074,-0.231689,0.373779
1519479933174,1.249268,-0.260010,0.298584
1519479933206,0.920898,-0.358887,0.324463
1519479933238,0.686523,-0.390625,0.355957
1519479933270,0.481934,-0.351074,0.233154
1519479933307,0.435791,-0.335449,0.169189
1519479933316,0.499268,-0.404785,0.119873
1519479933365,0.661621,-0.479980,0.023438
1519479933372,0.795410,-0.494629,-0.023682
1519479933404,0.908691,-0.496094,-0.029053
1519479933463,1.212402,-0.518555,-0.021729
1519479933472,1.254150,-0.589355,0.012451
1519479933525,1.330078,-0.547852,0.030273
1519479933559,1.197266,-0.726563,0.103027
1519479933590,1.251221,-0.815918,0.085205
1519479933624,1.445801,-0.655029,0.003174
1519479933655,1.458984,-0.365479,0.020020
1519479933688,1.045410,-0.342773,0.186768
1519479933720,0.680176,-0.404785,0.246338
1519479933753,0.562744,-0.335205,0.186768
1519479933786,0.483643,-0.306152,0.134766
1519479933795,0.493652,-0.280762,0.071777
1519479933844,0.529785,-0.256348,0.040771
1519479933876,0.575195,-0.231934,0.006348
1519479933884,0.727051,-0.271973,-0.020020
1519479933939,0.952148,-0.345947,-0.022217
1519479933974,1.140381,-0.347656,-0.063965
1519479934006,1.235596,-0.349365,-0.024414
1519479934040,1.319824,-0.444580,0.047852
1519479934072,1.176025,-0.456787,0.021973
1519479934104,0.928223,-0.405762,0.049561
1519479934136,1.062744,-0.428711,0.083496
1519479934152,1.134766,-0.437744,0.145752
1519479934209,0.949219,-0.354492,0.235596
1519479934219,0.680908,-0.395508,0.263428
1519479934250,0.565674,-0.385010,0.248535
1519479934282,0.504395,-0.389160,0.224609
1519479934341,0.508301,-0.404297,0.139404
1519479934373,0.604736,-0.445313,0.075928
1519479934378,0.723145,-0.468018,0.075928
1519479934433,0.954590,-0.451660,0.097412
1519479934442,1.086182,-0.437988,0.102539
1519479934483,1.230957,-0.456787,0.078369
1519479934516,1.374756,-0.416992,0.007813
1519479934548,1.333008,-0.546875,0.092773
1519479934582,1.151123,-0.625488,0.078369
1519479934614,1.242432,-0.413818,-0.097656
1519479934646,1.403809,-0.335449,-0.135010
1519479934680,1.149902,-0.335205,-0.073486
1519479934712,0.730469,-0.341553,0.020752
1519479934745,0.614502,-0.307617,0.048096
1519479934754,0.516113,-0.285645,0.048584
1519479934807,0.452637,-0.268311,0.042969
1519479934840,0.473877,-0.245605,0.006836
1519479934849,0.526611,-0.223145,-0.041016
1519479934902,0.778809,-0.228760,-0.073486
1519479934936,0.987549,-0.243652,-0.066650
1519479934950,1.163086,-0.295166,-0.010498
1519479934996,1.268066,-0.334717,0.026367
1519479935027,1.386230,-0.360352,-0.002197
1519479935060,1.326904,-0.418457,0.021484
1519479935093,1.023682,-0.394287,0.052979
1519479935126,1.138184,-0.424805,0.093750
1519479935158,1.146973,-0.430908,0.204102
1519479935190,0.794434,-0.384766,0.250732
1519479935227,0.596191,-0.387695,0.159180
1519479935259,0.517822,-0.461182,0.197266
1519479935292,0.481201,-0.434814,0.149902
1519479935324,0.530762,-0.428711,0.089844
1519479935334,0.605713,-0.430420,0.076660
1519479935386,0.783691,-0.411865,0.097656
1519479935419,0.974854,-0.446045,0.048584
1519479935428,1.215088,-0.509766,0.031982
1519479935484,1.270264,-0.485352,0.108154
1519479935516,1.368652,-0.334717,0.078369
1519479935549,1.172363,-0.521729,0.213623
1519479935580,1.206543,-0.495117,0.093750
1519479935613,1.459961,-0.362305,-0.147705
1519479935645,1.474121,-0.343994,-0.151611
1519479935677,0.841553,-0.365234,0.127686
1519479935710,0.569336,-0.306641,0.110840
1519479935763,0.504639,-0.320068,0.078369
1519479935767,0.456787,-0.277100,0.051270
1519479935810,0.429688,-0.228027,-0.000977
1519479935844,0.451904,-0.253906,-0.020752
1519479935875,0.543213,-0.261475,-0.029541
1519479935908,0.696777,-0.261963,-0.046631
1519479935914,0.953857,-0.320068,-0.042725
1519479935969,1.172607,-0.385254,0.004883
1519479936000,1.315186,-0.403809,0.008301
1519479936006,1.503174,-0.521240,0.028320
1519479936062,1.205566,-0.542480,0.153076
1519479936095,1.192627,-0.445313,0.205322
1519479936127,1.321533,-0.352783,0.216064
1519479936159,0.989746,-0.344971,0.288818
1519479936177,0.691406,-0.373047,0.257568
1519479936210,0.514893,-0.375977,0.229736
1519479936243,0.420654,-0.357910,0.168213
1519479936276,0.428711,-0.372803,0.145752
1519479936308,0.501953,-0.372314,0.117920
1519479936365,0.669678,-0.420654,0.086914
1519479936398,0.775635,-0.451660,0.087891
1519479936406,0.976807,-0.443848,0.063477
1519479936462,1.154785,-0.478271,0.075928
1519479936494,1.083008,-0.450684,0.097656
1519479936499,1.123535,-0.459717,0.102783
1519479936553,1.211670,-0.687744,0.056152
1519479936562,1.432129,-0.695801,0.041260
1519479936590,1.526855,-0.468262,-0.028320
1519479936623,1.214844,-0.332520,0.133301
1519479936656,0.862061,-0.383545,0.189941
1519479936688,0.705811,-0.375977,0.170898
1519479936746,0.604736,-0.287842,0.145752
1519479936779,0.551514,-0.290039,0.117188
1519479936787,0.498779,-0.280518,0.098877
1519479936843,0.476074,-0.261230,0.070068
1519479936875,0.556885,-0.288574,0.019287
1519479936908,0.698730,-0.328857,-0.001953
1519479936941,0.997070,-0.409180,0.042480
1519479936949,0.999756,-0.369385,0.056885
1519479936979,1.126953,-0.377441,0.090332
1519479937051,1.297607,-0.522705,0.138184
1519479937059,1.040771,-0.449951,0.118164
1519479937118,1.142578,-0.396484,0.145264
1519479937121,1.286865,-0.410889,0.281006
1519479937185,0.995605,-0.388672,0.337646
1519479937188,0.725830,-0.371826,0.289307
1519479937255,0.499023,-0.338623,0.172607
1519479937259,0.436279,-0.382324,0.186768
1519479937322,0.473389,-0.440430,0.135986
1519479937330,0.570801,-0.473633,0.064941
1519479937388,0.659668,-0.481934,0.068848
1519479937458,0.836670,-0.469971,0.075684
1519479937524,1.060791,-0.547363,0.087158
1519479937532,1.177490,-0.580078,0.088379
1519479937550,1.216553,-0.493652,0.136719
1519479937557,1.264648,-0.513916,0.144043
1519479937564,1.216797,-0.722900,0.147705
1519479937570,1.357910,-0.576904,0.059570
1519479937612,1.538330,-0.371826,0.034668
1519479937617,1.224854,-0.405518,0.153320
1519479937675,0.807129,-0.408936,0.212402
1519479937708,0.574707,-0.345215,0.227295
1519479937740,0.521484,-0.278076,0.185791
1519479937773,0.506348,-0.263672,0.115723
1519479937805,0.484863,-0.267334,0.059570
1519479937819,0.501953,-0.243408,0.008301
1519479937852,0.627686,-0.254395,-0.031250
1519479937908,0.858643,-0.350586,0.021240
1519479937941,0.938721,-0.332031,0.083252
1519479937944,1.009521,-0.292480,0.109375
1519479938000,1.358398,-0.432861,0.054688
1519479938033,1.196045,-0.497314,0.125244
1519479938037,1.062744,-0.429932,0.148438
1519479938091,1.484863,-0.374023,0.247314
1519479938101,1.250244,-0.356445,0.450684
1519479938157,0.886963,-0.366455,0.382813
1519479938190,0.631836,-0.375977,0.306152
1519479938199,0.572021,-0.413330,0.242920
1519479938255,0.566406,-0.484619,0.133789
1519479938287,0.595703,-0.546875,0.147705
1519479938324,0.644287,-0.516113,0.139404
1519479938358,0.735107,-0.485596,0.123779
1519479938388,1.016357,-0.515869,0.061768
1519479938397,1.279785,-0.493408,0.041748
1519479938454,1.139404,-0.446533,0.119873
1519479938486,0.902832,-0.409180,0.112793
1519479938519,1.055908,-0.629395,0.062988
1519479938528,1.511475,-0.690918,-0.027100
1519479938578,1.923096,-0.360352,-0.157715
1519479938609,1.590820,-0.171143,-0.014404
1519479938614,1.023438,-0.259033,0.155273
1519479938673,0.504883,-0.394775,0.212158
1519479938704,0.470215,-0.366699,0.107666
1519479938736,0.409180,-0.247070,0.024902
1519479938770,0.332764,-0.163330,0.049316
1519479938802,0.366699,-0.198486,0.091553
1519479938834,0.434082,-0.224365,0.031738
1519479938867,0.762207,-0.316650,-0.056641
1519479938899,1.061523,-0.375244,-0.041016
1519479938932,1.190186,-0.438965,0.005127
1519479938965,1.197754,-0.448486,0.157959
1519479938999,1.220215,-0.531006,0.133789
1519479939031,0.994629,-0.511475,0.140137
1519479939048,1.076416,-0.493164,0.102295
1519479939083,1.376465,-0.613037,0.154053
1519479939117,1.255615,-0.508301,0.180664
1519479939148,0.807861,-0.426514,0.220215
1519479939181,0.658203,-0.480225,0.254150
1519479939213,0.565918,-0.455078,0.224121
1519479939247,0.485596,-0.431152,0.167480
1519479939279,0.495850,-0.444580,0.147949
1519479939312,0.571289,-0.417969,0.121582
1519479939345,0.767822,-0.377441,0.127930
1519479939378,0.992920,-0.380615,0.075195
1519479939409,1.197510,-0.417480,0.085938
1519479939443,1.242676,-0.356445,0.128662
1519479939475,1.428955,-0.408936,0.087646
1519479939508,1.254639,-0.581299,0.210449
1519479939541,1.167480,-0.403076,0.103271
1519479939549,1.337646,-0.298828,0.043457
1519479939575,1.295410,-0.426270,0.042236
1519479939633,0.878418,-0.244141,0.139160
1519479939665,0.606689,-0.054199,0.196533
1519479939698,0.518311,-0.540039,0.123535
1519479939731,0.419922,-0.514893,0.043701
1519479939764,0.420410,-0.419189,0.012207
1519479939796,0.456787,-0.382324,-0.052490
1519479939828,0.626465,-0.288330,-0.114502
1519479939843,0.913330,-0.281738,-0.036865
1519479939900,0.960693,-0.238525,0.035400
1519479939933,1.136963,-0.239258,0.002930
1519479939966,1.204102,-0.390869,0.066895
1519479939975,1.233643,-0.399902,0.080811
1519479940024,1.121338,-0.322998,-0.034912
1519479940060,1.067627,-0.477783,0.057617
1519479940063,1.215820,-0.683594,0.224609
1519479940118,1.005859,-0.478760,0.405029
1519479940151,0.842285,-0.373291,0.219482
1519479940186,0.619141,-0.325684,0.244873
1519479940216,0.558350,-0.367676,0.200439
1519479940249,0.498291,-0.447021,0.165283
1519479940282,0.460449,-0.504150,0.148926
1519479940314,0.471924,-0.496094,0.111572
1519479940347,0.637695,-0.477295,0.045166
1519479940379,0.922363,-0.517334,-0.013916
1519479940412,1.229492,-0.574463,0.020264
1519479940444,1.202881,-0.504639,0.064941
1519479940476,1.389404,-0.472412,0.081543
1519479940508,1.152588,-0.662109,0.209717
1519479940541,1.169434,-0.552490,0.134277
1519479940546,1.510742,-0.429443,-0.046143
1519479940600,1.458496,-0.435303,0.063477
1519479940632,0.897217,-0.393311,0.227539
1519479940640,0.615967,-0.310547,0.212158
1519479940696,0.518799,-0.284180,0.201416
1519479940730,0.487549,-0.271240,0.119141
1519479940763,0.458252,-0.230713,0.063477
1519479940795,0.458496,-0.214111,0.039063
1519479940827,0.540283,-0.230713,0.003174
1519479940859,0.783691,-0.283203,-0.012207
1519479940884,1.042236,-0.374023,0.041992
1519479940916,1.161865,-0.352051,0.047363
1519479940948,1.237061,-0.377930,0.108887
1519479940982,1.476807,-0.460938,0.052979
1519479941019,1.128662,-0.462402,0.188232
1519479941051,0.964111,-0.509277,0.191162
1519479941082,1.264893,-0.514648,0.208740
1519479941115,1.155518,-0.412109,0.193848
1519479941147,0.814697,-0.387207,0.136230
1519479941180,0.605957,-0.482178,0.171143
1519479941213,0.519531,-0.510742,0.178711
1519479941222,0.462402,-0.481201,0.125732
1519479941276,0.463623,-0.463623,0.079590
1519479941309,0.579102,-0.457275,0.035400
1519479941343,0.731689,-0.478271,0.010010
1519479941374,0.998291,-0.498291,-0.013428
1519479941407,1.152100,-0.507568,0.037598
1519479941440,1.124756,-0.463867,0.102783
1519479941473,1.181885,-0.468750,0.093262
1519479941505,1.256104,-0.696777,0.142822
1519479941537,1.303223,-0.694336,0.196533
1519479941570,1.550537,-0.375244,0.014893
1519479941602,1.514160,-0.304199,0.070313
1519479941634,1.058594,-0.383545,0.208252
1519479941666,0.698486,-0.342529,0.236084
1519479941698,0.554443,-0.279053,0.231689
1519479941704,0.453857,-0.241211,0.183838
1519479941761,0.398193,-0.205566,0.051270
1519479941766,0.436768,-0.248291,0.024902
1519479941824,0.523926,-0.255371,-0.010498
1519479941856,0.707520,-0.309570,-0.055664
1519479941889,0.981934,-0.391357,-0.007568
1519479941921,1.047852,-0.400146,0.044189
1519479941955,1.060791,-0.402100,0.137451
1519479941968,1.282959,-0.464111,0.108398
1519479942092,1.234375,-0.388916,0.128906
1519479942094,0.953369,-0.402344,0.136963
1519479942130,1.198975,-0.532959,0.203369
1519479942132,1.246582,-0.560303,0.429443
1519479942198,0.871582,-0.355713,0.318604
1519479942202,0.704590,-0.340576,0.252686
1519479942266,0.589600,-0.388184,0.168213
1519479942271,0.535156,-0.496826,0.166992
1519479942334,0.513184,-0.511719,0.119141
1519479942342,0.545898,-0.479248,0.099854
1519479942400,0.734619,-0.480713,0.111328
1519479942406,0.898682,-0.523926,0.071777
1519479942469,1.104004,-0.561279,0.038330
1519479942478,1.374023,-0.556885,0.091064
1519479942537,1.563965,-0.531738,0.129395
1519479942545,1.210938,-0.573730,0.266357
1519479942554,0.980469,-0.508057,0.222656
1519479942561,1.287354,-0.398926,0.001709
1519479942585,1.405273,-0.449463,0.007324
1519479942619,0.952881,-0.433594,0.157227
1519479942650,0.706055,-0.308350,0.160156
1519479942681,0.631348,-0.280029,0.168701
1519479942740,0.544434,-0.290039,0.115723
1519479942744,0.497070,-0.260986,0.054199
1519479942772,0.512939,-0.244629,0.030762
1519479942830,0.603027,-0.250732,0.000000
1519479942835,0.679932,-0.291748,-0.010742
1519479942889,0.785889,-0.310791,0.012451
1519479942922,0.995850,-0.344971,0.061279
1519479942959,0.994141,-0.357178,0.144043
1519479942969,1.150879,-0.358398,0.103760
1519479943000,1.310303,-0.430420,0.106201
1519479943033,0.976318,-0.448486,0.182129
1519479943067,0.987549,-0.535645,0.219971
1519479943123,1.347656,-0.512695,0.401367
1519479943156,1.200439,-0.360596,0.300293
1519479943166,0.860107,-0.339600,0.269531
1519479943216,0.609131,-0.409180,0.234863
1519479943247,0.522217,-0.429199,0.197266
1519479943256,0.487549,-0.447510,0.172852
1519479943305,0.462158,-0.457275,0.136475
1519479943338,0.465820,-0.459473,0.113525
1519479943372,0.594482,-0.448486,0.038086
1519479943403,0.930420,-0.504639,0.017822
1519479943445,1.085938,-0.534668,0.074219
1519479943454,1.166260,-0.495117,0.102539
1519479943503,1.236816,-0.369873,0.071533
1519479943537,1.254395,-0.536133,0.127930
1519479943569,1.170654,-0.711182,0.198730
1519479943601,1.333252,-0.506592,0.035400
1519479943634,1.433838,-0.375732,0.068115
1519479943667,1.245361,-0.384277,0.135742
1519479943700,0.799805,-0.416992,0.185547
1519479943731,0.640625,-0.349609,0.213379
1519479943739,0.556152,-0.293701,0.209473
1519479943789,0.521484,-0.266602,0.116943
1519479943822,0.506104,-0.247803,0.087646
1519479943828,0.551758,-0.233154,0.045898
1519479943885,0.659180,-0.260498,-0.042480
1519479943895,0.829834,-0.307129,-0.031738
1519479943952,0.930908,-0.344482,-0.011963
1519479943958,1.125000,-0.368652,-0.037598
1519479944016,1.263428,-0.371826,-0.038574
1519479944050,1.313965,-0.429688,0.003418
1519479944082,0.945313,-0.470215,0.069092
1519479944114,0.984131,-0.456543,0.017090
1519479944147,1.246094,-0.556641,0.081543
1519479944180,1.131836,-0.435303,0.151855
1519479944212,0.793213,-0.405518,0.226807
1519479944244,0.663574,-0.449951,0.273682
1519479944285,0.561768,-0.453125,0.209717
1519479944290,0.530029,-0.460205,0.169922
1519479944318,0.537354,-0.475830,0.148193
1519479944350,0.630127,-0.472900,0.075195
1519479944383,0.716553,-0.463867,0.080811
1519479944415,0.857910,-0.478271,0.062012
1519479944447,1.105225,-0.500488,0.036133
1519479944480,1.135254,-0.497559,0.066895
1519479944512,1.111572,-0.423340,0.041504
1519479944545,1.131592,-0.648193,0.062744
1519479944577,1.102539,-0.726074,0.085205
1519479944609,1.200928,-0.608887,0.060059
1519479944642,1.434814,-0.530762,0.066650
1519479944674,1.230713,-0.450684,0.116943
1519479944723,0.873535,-0.352295,0.160400
1519479944756,0.608398,-0.361572,0.230225
1519479944788,0.536133,-0.294678,0.237305
1519479944790,0.497559,-0.221680,0.215576
1519479944847,0.476563,-0.218262,0.145996
1519479944857,0.495605,-0.235596,0.067871
1519479944913,0.504883,-0.253174,0.073242
1519479944946,0.684814,-0.285889,-0.015625
1519479944954,0.947998,-0.339600,-0.055176
1519479945009,1.150146,-0.400391,0.002197
1519479945042,1.482666,-0.512207,-0.030273
1519479945074,1.415771,-0.556152,0.027344
1519479945107,1.022949,-0.491943,0.113281
1519479945140,1.224121,-0.639404,0.239746
1519479945172,1.162842,-0.485596,0.316162
1519479945205,0.919678,-0.370850,0.373047
1519479945237,0.637695,-0.487305,0.394775
1519479945270,0.550781,-0.489746,0.344727
1519479945271,0.516357,-0.409180,0.305176
1519479945330,0.500488,-0.488525,0.183594
1519479945363,0.545410,-0.493164,0.118896
1519479945394,0.613281,-0.464844,0.131592
1519479945427,0.725098,-0.462402,0.096924
1519479945459,0.939453,-0.561035,0.071289
1519479945473,1.161133,-0.606934,0.084473
1519479945531,1.111328,-0.487793,0.146729
1519479945563,1.161621,-0.558105,0.175293
1519479945569,1.099854,-0.705322,0.162354
1519479945627,1.002197,-0.697510,0.262695
1519479945659,1.216797,-0.590332,0.272217
1519479945693,1.379395,-0.514648,0.216553
1519479945725,1.003662,-0.490479,0.235352
1519479945759,0.726318,-0.431641,0.262451
1519479945790,0.602783,-0.328125,0.282471
1519479945823,0.501221,-0.223389,0.247559
1519479945861,0.465576,-0.244385,0.189941
1519479945868,0.478027,-0.276855,0.132324
1519479945905,0.539307,-0.259033,0.091797
1519479945937,0.637695,-0.269775,0.053955
1519479945971,0.833496,-0.334229,0.032227
1519479946004,1.028076,-0.351074,0.006592
1519479946036,1.064453,-0.369141,0.041504
1519479946070,1.346924,-0.459229,0.041260
1519479946103,1.177490,-0.483154,0.125000
1519479946135,0.978271,-0.436035,0.149170
1519479946168,1.179688,-0.614502,0.233154
1519479946201,1.178223,-0.441406,0.322266
1519479946233,0.871582,-0.316406,0.344727
1519479946265,0.647949,-0.457764,0.373047
1519479946305,0.519287,-0.491699,0.315430
1519479946338,0.491455,-0.468750,0.248047
1519479946344,0.505127,-0.517334,0.193359
1519479946398,0.573486,-0.529297,0.144531
1519479946429,0.651367,-0.496582,0.129883
1519479946435,0.772217,-0.510742,0.114014
1519479946491,1.018555,-0.590576,0.085938
1519479946524,1.116699,-0.545654,0.134521
1519479946556,1.306152,-0.489258,0.090088
1519479946589,1.220703,-0.681152,0.195068
1519479946623,1.219482,-0.666504,0.142090
1519479946655,1.441895,-0.600098,0.086670
1519479946688,1.367188,-0.537842,0.110352
1519479946701,0.988281,-0.488037,0.149414
1519479946760,0.718018,-0.431641,0.191895
1519479946768,0.589844,-0.326904,0.249268
1519479946803,0.525879,-0.227539,0.226563
1519479946835,0.469727,-0.196045,0.219482
1519479946868,0.462646,-0.225342,0.144043
1519479946899,0.502197,-0.240967,0.072510
1519479946931,0.566650,-0.273926,0.029053
1519479946964,0.795410,-0.323486,0.058838
1519479946998,0.925293,-0.328125,0.051270
1519479947068,0.957764,-0.332520,0.053223
1519479947072,1.261230,-0.467041,0.073242
1519479947137,1.439697,-0.561035,0.080566
1519479947205,1.030518,-0.519287,0.135010
1519479947272,1.140381,-0.650146,0.282715
1519479947279,1.290771,-0.616699,0.351807
1519479947338,1.037598,-0.348389,0.356201
1519479947344,0.637207,-0.493896,0.432373
1519479947407,0.540527,-0.547607,0.363525
1519479947415,0.490234,-0.512939,0.324951
1519479947473,0.502930,-0.516113,0.235352
1519479947478,0.569336,-0.536133,0.169189
1519479947540,0.663574,-0.529053,0.160400
1519479947543,0.833252,-0.509766,0.160400
1519479947560,0.991943,-0.561523,0.133545
1519479947563,1.150391,-0.599365,0.145020
1519479947576,1.076904,-0.466797,0.192139
1519479947579,1.162598,-0.515869,0.205078
1519479947608,1.138672,-0.693359,0.178955
1519479947640,1.121338,-0.656982,0.189941
1519479947673,1.351318,-0.549316,0.180664
1519479947707,1.341797,-0.493408,0.128174
1519479947739,0.781250,-0.438721,0.208984
1519479947776,0.566406,-0.418945,0.244629
1519479947809,0.509521,-0.337158,0.235107
1519479947841,0.467773,-0.223877,0.213135
1519479947875,0.468262,-0.241699,0.169189
1519479947884,0.507324,-0.282471,0.115479
1519479947936,0.597412,-0.309570,0.076172
1519479947968,0.759521,-0.339844,0.049072
1519479947976,0.932373,-0.360840,0.066406
1519479948033,1.099609,-0.359863,0.056885
1519479948066,1.351807,-0.415039,0.035400
1519479948097,1.348877,-0.555176,0.141113
1519479948130,0.860840,-0.480225,0.218506
1519479948162,1.127930,-0.509766,0.270020
1519479948195,1.275391,-0.471924,0.281006
1519479948229,0.927490,-0.358398,0.343018
1519479948262,0.678955,-0.461182,0.383789
1519479948294,0.562012,-0.491699,0.340332
1519479948326,0.483887,-0.427734,0.243408
1519479948358,0.477539,-0.458008,0.199463
1519479948400,0.531250,-0.509521,0.127686
1519479948432,0.655273,-0.545410,0.086182
1519479948464,0.720215,-0.535156,0.067383
1519479948470,0.907471,-0.566406,0.023193
1519479948524,1.179199,-0.608398,0.029785
1519479948532,1.217041,-0.564209,0.038818
1519479948564,1.232910,-0.602295,0.139160
1519479948623,1.126465,-0.784424,0.125244
1519479948631,1.307373,-0.745605,0.064453
1519479948684,1.530518,-0.583252,0.071533
1519479948716,1.250244,-0.402588,0.125244
1519479948753,0.845459,-0.425781,0.192627
1519479948763,0.641357,-0.410400,0.209473
1519479948798,0.525879,-0.305664,0.185791
1519479948831,0.476318,-0.249023,0.152344
1519479948865,0.455811,-0.237793,0.108887
1519479948896,0.485107,-0.263916,0.049561
1519479948927,0.575439,-0.283203,-0.009766
1519479948960,0.690918,-0.315186,-0.009766
1519479948992,0.935059,-0.348633,-0.027832
1519479949026,1.064453,-0.359131,-0.051025
1519479949060,1.121338,-0.359619,-0.019775
1519479949092,1.356445,-0.463135,-0.004883
1519479949123,1.014160,-0.451660,0.011963
1519479949156,0.933105,-0.440430,0.042969
1519479949173,1.185059,-0.617432,0.200439
1519479949227,1.159424,-0.482910,0.395752
1519479949260,0.940918,-0.380615,0.339844
1519479949294,0.714355,-0.467773,0.255859
1519479949325,0.571289,-0.508301,0.261475
1519479949331,0.548096,-0.531494,0.212646
1519479949385,0.554443,-0.571289,0.136230
1519479949418,0.627197,-0.614014,0.109375
1519479949427,0.661133,-0.620850,0.074951
1519479949480,0.920898,-0.590820,0.014893
1519479949514,1.149658,-0.589844,0.055176
1519479949547,1.221680,-0.563232,0.078369
1519479949578,1.142578,-0.429443,0.030273
1519479949610,1.115967,-0.563232,0.142822
1519479949644,1.149902,-0.720947,0.104980
1519479949675,1.425293,-0.635498,0.024170
1519479949712,1.540771,-0.445068,0.012695
1519479949744,1.257324,-0.341553,0.095459
1519479949778,0.731689,-0.355713,0.223145
1519479949811,0.561035,-0.331299,0.239502
1519479949846,0.519287,-0.294678,0.219727
1519479949878,0.498779,-0.196289,0.117920
1519479949909,0.478760,-0.270264,0.009277
1519479949914,0.532471,-0.228027,-0.057861
1519479949968,0.600342,-0.289063,-0.189453
1519479950011,0.787842,-0.450439,-0.153076
1519479950019,0.940674,-0.517334,-0.196533
1519479950069,1.041992,-0.464111,-0.457764
1519479950074,1.149170,-0.864746,-0.274658
1519479950127,0.854248,-0.880859,0.006104
1519479950159,0.926025,-0.571045,0.151855
1519479950192,1.198486,-0.632324,0.050537
1519479950224,1.237061,-0.526367,-0.087891
1519479950256,0.805908,-0.356445,0.125244
1519479950290,0.661865,-0.255615,0.140625
1519479950322,0.580078,-0.380371,0.109863
1519479950354,0.537109,-0.592773,0.061768
1519479950388,0.600586,-0.684326,0.030518
1519479950420,0.682373,-0.668213,0.044434
1519479950452,0.791260,-0.577148,0.013672
1519479950485,0.995117,-0.612305,-0.007080
1519479950494,1.130127,-0.666016,-0.001709
1519479950543,1.141846,-0.559570,0.019043
1519479950575,1.358887,-0.563965,-0.026611
1519479950607,1.232178,-0.781982,0.030762
1519479950641,1.169434,-0.719238,-0.038574
1519479950653,1.488037,-0.570557,-0.072998
1519479950708,1.446533,-0.442139,-0.045166
1519479950741,0.897949,-0.443359,-0.017822
1519479950749,0.697754,-0.427002,0.039551
1519479950786,0.626465,-0.295654,0.055908
1519479950820,0.535400,-0.226807,-0.006104
1519479950853,0.435547,-0.325928,-0.076660
1519479950910,0.481689,-0.331299,-0.111816
1519479950942,0.443604,-0.213379,-0.165283
1519479950950,0.649170,-0.132813,-0.321533
1519479950994,0.742676,-0.636475,-0.450195
1519479951028,0.941162,-0.591064,-0.519287
1519479951060,1.137939,-0.604492,-0.552246
1519479951093,1.172607,-0.585938,-0.426758
1519479951125,0.710449,-0.497559,0.072754
1519479951157,0.956543,-0.241699,-0.002197
1519479951164,1.233887,-0.298584,0.083984
1519479951229,0.926025,-0.645020,0.182861
1519479951232,0.709717,-0.704834,0.071533
1519479951288,0.645752,-0.606689,0.073242
1519479951321,0.596680,-0.734619,-0.047852
1519479951353,0.556885,-0.828857,-0.141357
1519479951385,0.510742,-0.816650,-0.136963
1519479951418,0.507568,-0.761230,-0.109375
1519479951451,0.545166,-0.703125,-0.029785
1519479951483,0.657471,-0.703369,-0.121338
1519479951516,0.970703,-0.687500,-0.384277
1519479951549,0.977539,-0.643799,-0.340820
1519479951582,1.171143,-0.630371,-0.394531
1519479951614,1.004395,-0.839355,-0.408936
1519479951622,1.102051,-0.737305,-0.335449
1519479951653,1.304199,-0.549561,-0.435547
1519479951684,1.243164,-0.508057,-0.312988
1519479951741,0.818359,-0.618408,-0.196777
1519479951746,0.547607,-0.615967,-0.175293
1519479951803,0.369873,-0.564453,-0.164063
1519479951835,0.361816,-0.422852,-0.193115
1519479951869,0.360840,-0.220947,-0.107666
1519479951902,0.408447,-0.144043,-0.028320
1519479951933,0.803223,-0.223145,-0.129639
1519479951965,0.715332,-0.270752,-0.164307
1519479951998,0.923828,-0.441406,-0.097168
1519479952066,1.028320,-0.503906,-0.043945
1519479952074,1.128418,-0.573975,0.027588
1519479952133,1.302734,-0.700439,-0.153320
1519479952138,0.970947,-0.693115,-0.114258
1519479952201,0.982666,-0.580078,-0.121582
1519479952209,1.409912,-0.548340,-0.230713
1519479952267,1.031006,-0.519043,-0.134521
1519479952271,0.696045,-0.578125,-0.063721
1519479952335,0.543213,-0.678223,-0.145752
1519479952338,0.458496,-0.648682,-0.209229
1519479952403,0.343018,-0.640625,-0.180420
1519479952409,0.453125,-0.616699,-0.199463
1519479952471,0.597412,-0.584473,-0.088623
1519479952476,0.579590,-0.522461,-0.092285
1519479952538,0.721924,-0.539795,-0.176270
1519479952544,0.942627,-0.556885,-0.231689
1519479952569,1.010254,-0.590576,-0.261230
1519479952577,1.116699,-0.514893,-0.270020
1519479952605,1.065186,-0.668945,-0.296875
1519479952610,1.175781,-0.792969,-0.347656
1519479952668,1.430420,-0.748535,-0.318115
1519479952680,1.369385,-0.525635,-0.194092
1519479952736,0.947754,-0.440186,0.041260
1519479952766,0.521240,-0.549072,0.164307
1519479952799,0.455078,-0.611084,0.090820
1519479952832,0.505859,-0.520508,0.016357
1519479952847,0.575439,-0.332764,0.006104
1519479952878,0.615723,-0.272461,-0.000977
1519479952936,0.645264,-0.278564,-0.062500
1519479952945,0.948975,-0.293945,-0.172363
1519479952998,1.165283,-0.355469,-0.195068
1519479953031,1.162354,-0.314209,-0.115723
1519479953064,1.304443,-0.320068,-0.052490
1519479953097,1.220215,-0.462158,-0.132324
1519479953106,0.921143,-0.444336,-0.021240
1519479953156,1.127197,-0.523438,0.022949
1519479953188,1.213867,-0.525391,0.072510
1519479953197,0.915039,-0.461914,0.131348
1519479953260,0.592285,-0.482666,0.149902
1519479953269,0.519531,-0.539551,0.045898
1519479953292,0.461914,-0.574707,0.021240
1519479953350,0.426270,-0.562988,0.018799
1519479953355,0.482178,-0.555420,-0.011230
1519479953415,0.619385,-0.612549,-0.089111
1519479953445,0.872803,-0.596924,-0.157471
1519479953478,1.049316,-0.630615,-0.148682
1519479953512,1.154297,-0.634277,-0.111328
1519479953545,1.270020,-0.536621,-0.074219
1519479953555,1.166504,-0.748779,-0.065430
1519479953613,1.153320,-0.859131,-0.066406
1519479953645,1.514893,-0.644287,-0.051025
1519479953683,1.587646,-0.468994,-0.058350
1519479953687,1.166992,-0.454102,0.033936
1519479953734,0.666260,-0.487061,0.138428
1519479953765,0.568604,-0.417969,0.092773
1519479953771,0.533447,-0.301514,0.067139
1519479953829,0.500000,-0.261230,0.052734
1519479953862,0.515381,-0.272461,0.033447
1519479953894,0.540039,-0.239258,-0.037354
1519479953928,0.683350,-0.219482,-0.156006
1519479953959,0.862305,-0.249512,-0.103516
1519479953992,0.993652,-0.303467,-0.097412
1519479954025,0.973877,-0.292725,-0.079346
1519479954039,1.165283,-0.373291,-0.071045
1519479954097,1.182617,-0.400146,-0.124512
1519479954130,1.082275,-0.474609,-0.093994
1519479954138,1.376709,-0.746826,0.014160
1519479954191,1.433594,-0.676025,0.174316
1519479954225,0.964355,-0.542725,0.201660
1519479954234,0.749756,-0.650635,0.210205
1519479954260,0.577637,-0.682129,0.224365
1519479954291,0.497559,-0.589111,0.149414
1519479954324,0.463379,-0.611084,0.109619
1519479954354,0.449219,-0.583740,0.028809
1519479954387,0.666992,-0.553955,-0.078613
1519479954420,0.892578,-0.569824,-0.108643
1519479954461,1.072510,-0.571533,-0.105957
1519479954494,1.268311,-0.539551,-0.104004
1519479954531,1.518311,-0.526611,-0.146484
1519479954564,1.428711,-0.654541,-0.028809
1519479954597,1.000244,-0.587402,0.001465
1519479954630,1.251953,-0.516113,-0.055664
1519479954661,1.333252,-0.479492,-0.041016
1519479954694,0.975586,-0.455811,0.043945
1519479954727,0.760498,-0.372070,0.060303
1519479954736,0.657471,-0.308350,0.071045
1519479954790,0.537109,-0.298828,0.043457
1519479954824,0.511719,-0.293701,0.025635
1519479954855,0.488281,-0.252441,0.014404
1519479954887,0.510010,-0.215332,-0.019775
1519479954920,0.556641,-0.229980,-0.046387
1519479954964,0.737061,-0.257080,-0.035156
1519479954970,0.994873,-0.271729,-0.068848
1519479955011,1.105713,-0.299805,-0.021240
1519479955044,1.272461,-0.335205,-0.040771
1519479955078,1.398193,-0.389404,-0.062988
1519479955111,1.045166,-0.468262,-0.020020
1519479955143,1.135254,-0.579834,-0.016602
1519479955175,1.366211,-0.585205,0.234375
1519479955209,1.032227,-0.528320,0.288574
1519479955241,0.769775,-0.462402,0.189941
1519479955281,0.591797,-0.503418,0.140869
1519479955287,0.539795,-0.539795,0.132324
1519479955318,0.496094,-0.548828,0.058105
1519479955376,0.500977,-0.610107,0.017822
1519479955382,0.596436,-0.632568,-0.001953
1519479955439,0.774658,-0.595947,-0.072021
1519479955472,1.037598,-0.572266,-0.072510
1519479955508,1.117188,-0.523438,-0.107178
1519479955513,1.303467,-0.578369,-0.153564
1519479955571,1.625000,-0.734131,-0.030762
1519479955604,1.156006,-0.643066,0.092041
1519479955636,1.094971,-0.455566,-0.031738
1519479955669,1.294434,-0.563232,-0.061279
1519479955684,1.110840,-0.536377,-0.016846
1519479955717,0.824951,-0.435791,-0.014893
1519479955750,0.654541,-0.460205,-0.248291
1519479955782,0.645752,-0.733154,-0.218018
1519479955815,0.630615,-0.618896,-0.310303
1519479955873,0.609131,-0.349365,-0.312744
1519479955880,0.624756,-0.411865,-0.203857
1519479955904,0.646484,-0.437744,-0.102295
1519479955962,0.709717,-0.443604,0.097168
1519479955976,0.843262,-0.526855,0.177246
1519479956020,1.117920,-0.434082,0.067139
1519479956052,0.539307,-0.489746,0.050537
1519479956086,0.572510,-0.957275,-0.156250
1519479956119,0.223877,-1.083740,-0.432129
1519479956152,0.403564,-0.755371,-0.086426
1519479956185,0.622314,-0.966553,0.095703
1519479956215,0.720703,-0.773193,-0.311523
1519479956245,0.559570,-0.664551,-0.174561
1519479956278,0.474854,-0.664795,-0.108398
1519479956286,0.375000,-0.401611,-0.329346
1519479956339,0.370850,-0.239990,-0.177246
1519479956372,0.329346,-0.376465,-0.000488
1519479956378,0.356201,-0.458008,-0.009277
1519479956436,0.557861,-0.613281,-0.143799
1519479956448,0.803223,-0.791504,-0.105957
1519479956484,1.002686,-0.841064,-0.133301
1519479956518,1.015137,-0.971436,-0.040039
1519479956549,1.061768,-0.914551,0.107422
1519479956581,1.263428,-0.700195,0.092529
1519479956614,1.154297,-1.014648,0.048340
1519479956647,1.289795,-0.866943,-0.076416
1519479956679,1.548828,-0.616455,-0.058838
1519479956713,1.338623,-0.482910,0.066895
1519479956746,0.834229,-0.520508,0.137207
1519479956778,0.617188,-0.588135,0.217773
1519479956836,0.638184,-0.588867,0.121582
1519479956844,0.681885,-0.591553,0.156738
1519479956870,0.701416,-0.502441,-0.021973
1519479956911,0.539307,-0.550293,-0.005615
1519479956942,0.471680,-0.551270,0.121094
1519479956974,0.458984,-0.456787,0.054199
1519479957046,0.458740,-0.520264,-0.054932
1519479957049,0.585449,-0.612061,-0.148193
1519479957114,0.568115,-0.720703,-0.206543
1519479957117,0.711182,-0.718994,-0.289307
1519479957183,0.878418,-0.666016,-0.231934
1519479957191,0.796387,-0.483887,-0.402832
1519479957252,0.614746,-0.766602,-0.301758
1519479957259,0.740234,-0.849854,-0.131836
1519479957318,0.849854,-0.605713,-0.226318
1519479957327,0.693359,-0.494629,-0.042969
1519479957384,0.607910,-0.557373,0.222412
1519479957390,0.529541,-0.498047,0.186523
1519479957452,0.519043,-0.727051,0.121582
1519479957458,0.518555,-0.907715,0.013672
1519479957520,0.614502,-0.973633,-0.121826
1519479957529,0.926270,-0.885986,-0.255127
1519479957559,1.051514,-0.879883,-0.280273
1519479957575,0.882080,-0.907227,-0.235596
1519479957591,0.879395,-0.915771,-0.122314
1519479957624,1.018799,-0.961670,-0.226074
1519479957657,1.269775,-0.948730,-0.360352
1519479957689,1.544678,-0.723389,-0.320557
1519479957723,1.555176,-0.548828,-0.205811
1519479957740,1.139404,-0.487549,-0.058838
1519479957796,0.737549,-0.497314,0.009033
1519479957829,0.531006,-0.510742,0.077393
1519479957837,0.482666,-0.405518,0.023438
1519479957887,0.394043,-0.330322,0.007080
1519479957896,0.387695,-0.307129,0.015869
1519479957926,0.411621,-0.253662,-0.011719
1519479957982,0.626465,-0.291016,0.002197
1519479957990,0.704590,-0.333496,0.008057
1519479958045,0.677246,-0.393555,-0.003174
1519479958078,0.916260,-0.594727,0.003662
1519479958109,1.164551,-0.615967,-0.096436
1519479958124,1.000000,-0.653809,-0.075195
1519479958156,1.150146,-0.743896,0.173828
1519479958189,1.309082,-0.752441,0.224854
1519479958222,1.103516,-0.636963,0.163086
1519479958281,0.762695,-0.555176,0.167480
1519479958314,0.659424,-0.487793,0.113037
1519479958322,0.646240,-0.541504,0.077393
1519479958376,0.573486,-0.644287,0.032715
1519479958387,0.515625,-0.650391,0.011719
1519479958412,0.548340,-0.614014,0.019287
1519479958469,0.732422,-0.584229,-0.018555
1519479958475,0.918457,-0.610596,-0.044678
1519479958505,1.172363,-0.632080,-0.091553
1519479958554,1.163818,-0.524414,-0.003662
1519479958587,1.325195,-0.480469,0.088379
1519479958619,1.257813,-0.787598,0.069336
1519479958652,1.258057,-0.736084,0.022705
1519479958682,1.493896,-0.437988,-0.027832
1519479958716,1.497314,-0.292236,0.062012
1519479958747,0.991699,-0.381592,0.182129
1519479958805,0.723877,-0.403076,0.165771
1519479958814,0.620117,-0.333984,0.167969
1519479958838,0.495361,-0.241699,0.147949
1519479958871,0.471191,-0.234131,0.090332
1519479958902,0.455078,-0.214600,0.043213
1519479958935,0.477539,-0.194336,0.006592
1519479958967,0.575684,-0.230225,0.006592
1519479959000,0.702148,-0.293945,0.050293
1519479959034,0.941162,-0.298340,-0.023926
1519479959066,1.021484,-0.375732,0.018311
1519479959099,1.291260,-0.436523,0.039551
1519479959130,1.243896,-0.475098,0.060791
1519479959164,1.122803,-0.437256,0.036621
1519479959197,1.360596,-0.524170,0.119385
1519479959229,1.241943,-0.524658,0.260742
1519479959260,0.918457,-0.501953,0.258057
1519479959292,0.691406,-0.431885,0.160889
1519479959325,0.527832,-0.498047,0.217041
1519479959362,0.546631,-0.481934,0.106445
1519479959370,0.617188,-0.522217,0.025391
1519479959424,0.715576,-0.580078,0.039307
1519479959459,0.788574,-0.552979,0.067139
1519479959490,0.924316,-0.542725,0.087402
1519479959523,1.179688,-0.521240,0.060303
1519479959557,1.253174,-0.474609,0.035645
1519479959588,1.447998,-0.474121,0.034912
1519479959620,1.218018,-0.671631,0.123535
1519479959654,1.060791,-0.541992,0.013672
1519479959686,1.276855,-0.397217,0.035400
1519479959718,1.367676,-0.327637,0.057373
1519479959732,1.001221,-0.427734,0.114990
1519479959764,0.704102,-0.388916,0.125977
1519479959822,0.543457,-0.290039,0.173340
1519479959856,0.485596,-0.245117,0.147217
1519479959864,0.481689,-0.217529,0.081543
1519479959914,0.541992,-0.224121,0.004883
1519479959946,0.559814,-0.220459,-0.003174
1519479959955,0.628662,-0.210205,-0.024902
1519479960004,0.869141,-0.255615,-0.021973
1519479960036,1.012451,-0.335449,-0.011230
1519479960083,1.118408,-0.364746,-0.008789
1519479960086,1.607422,-0.383057,-0.061523
1519479960117,1.313721,-0.536377,0.057129
1519479960158,1.003662,-0.451172,0.091309
1519479960191,1.279053,-0.453613,0.228516
1519479960223,1.255371,-0.447266,0.330078
1519479960256,0.871338,-0.363770,0.264648
1519479960288,0.580322,-0.460449,0.269043
1519479960324,0.521729,-0.440186,0.185547
1519479960356,0.561523,-0.442139,0.135498
1519479960388,0.568359,-0.507324,0.096436
1519479960421,0.671631,-0.521973,0.036865
1519479960454,0.793457,-0.547607,0.060303
1519479960487,0.902344,-0.490234,0.143555
1519479960519,1.072266,-0.461426,0.089844
1519479960533,1.276367,-0.489990,0.083740
1519479960592,1.466797,-0.436035,0.038574
1519479960602,1.307617,-0.611328,0.121582
1519479960654,1.129150,-0.623779,0.068848
1519479960686,1.419189,-0.441650,0.023926
1519479960695,1.406738,-0.334717,0.081787
1519479960749,0.993164,-0.363281,0.144043
1519479960783,0.614990,-0.346680,0.157227
1519479960814,0.541748,-0.279541,0.154785
1519479960847,0.463623,-0.247070,0.117188
1519479960880,0.409424,-0.238281,0.063232
1519479960912,0.423828,-0.239258,0.048096
1519479960945,0.497559,-0.222412,0.000488
1519479960962,0.788086,-0.266357,-0.014893
1519479961017,0.980469,-0.286621,0.003906
1519479961023,1.150391,-0.281250,-0.022705
1519479961051,1.239258,-0.373291,0.010742
1519479961084,1.498047,-0.418701,-0.010498
1519479961117,1.331299,-0.380615,0.046631
1519479961148,0.986084,-0.407227,0.076660
1519479961181,1.186768,-0.471680,0.167969
1519479961212,1.172607,-0.446777,0.281982
1519479961245,0.791992,-0.342285,0.265137
1519479961280,0.593994,-0.366211,0.221680
1519479961314,0.491211,-0.352295,0.132813
1519479961365,0.496826,-0.434814,0.116699
1519479961378,0.545410,-0.462646,0.034912
1519479961411,0.663330,-0.481934,-0.021729
1519479961445,0.758789,-0.565674,0.010986
1519479961477,0.914063,-0.549805,0.079102
1519479961510,1.114990,-0.515625,0.016602
1519479961542,1.307617,-0.517578,-0.023682
1519479961575,1.476074,-0.531250,-0.004639
1519479961608,1.372803,-0.698486,0.040527
1519479961639,1.206055,-0.622559,0.008301
1519479961672,1.361816,-0.484375,0.046631
1519479961706,1.331299,-0.388672,0.084961
1519479961738,0.839111,-0.442139,0.162109
1519479961769,0.652588,-0.377441,0.184814
1519479961810,0.612793,-0.293945,0.130859
1519479961843,0.503906,-0.244873,0.084229
1519479961876,0.479248,-0.234375,0.034180
1519479961881,0.514404,-0.235107,0.009277
1519479961935,0.674805,-0.233154,-0.014404
1519479961968,0.764160,-0.222656,0.009033
1519479961975,0.970215,-0.262207,-0.029297
1519479962046,1.271729,-0.247559,-0.133545
1519479962055,1.507080,-0.296143,-0.168457
1519479962113,1.290283,-0.496582,-0.010010
1519479962181,0.999023,-0.437988,0.137207
1519479962189,1.218506,-0.256592,0.095703
1519479962248,1.162109,-0.333252,0.279541
1519479962253,0.938721,-0.360107,0.277100
1519479962315,0.679443,-0.346191,0.343994
1519479962318,0.539795,-0.369141,0.348145
1519479962383,0.497559,-0.383789,0.248535
1519479962389,0.498291,-0.395752,0.082520
1519479962450,0.579590,-0.435303,0.066650
1519479962456,0.707764,-0.564941,0.055176
1519479962518,0.791748,-0.559814,0.033936
1519479962524,0.965332,-0.552002,0.039795
1519479962530,1.254395,-0.622070,0.043457
1519479962560,1.133545,-0.597412,0.060791
1519479962566,1.426025,-0.508301,0.000244
1519479962645,1.294678,-0.843994,0.080811
1519479962653,1.200439,-0.701416,-0.010254
1519479962679,1.447998,-0.556152,0.027832
1519479962712,1.401367,-0.320313,0.110352
1519479962744,0.921875,-0.307861,0.159668
1519479962776,0.679932,-0.356934,0.175049
1519479962809,0.594482,-0.325928,0.129150
1519479962841,0.539063,-0.231201,0.075439
1519479962875,0.506348,-0.172852,0.040527
1519479962907,0.503418,-0.145264,-0.021240
1519479962937,0.568359,-0.145264,-0.060303
1519479962970,0.728760,-0.174072,-0.051270
1519479963002,0.925537,-0.257324,-0.023682
1519479963045,0.979248,-0.276123,-0.085938
1519479963053,1.131348,-0.356201,0.055664
1519479963103,1.456055,-0.326416,-0.025391
1519479963136,1.143555,-0.326660,0.007813
1519479963145,1.150635,-0.517578,0.106934
1519479963196,1.368652,-0.653076,0.463379
1519479963205,1.104736,-0.542725,0.391357
1519479963261,0.823730,-0.314941,0.360352
1519479963292,0.660645,-0.395020,0.156982
1519479963299,0.645508,-0.499512,0.138428
1519479963356,0.607666,-0.581787,0.156494
1519479963389,0.576904,-0.570801,0.067627
1519479963421,0.729492,-0.597656,-0.006348
1519479963441,0.870117,-0.632568,0.002930
1519479963493,1.057129,-0.553467,0.028320
1519479963499,1.179443,-0.552246,0.006104
1519479963556,1.110352,-0.517090,0.040039
1519479963591,1.157959,-0.524414,0.075928
1519479963623,1.298584,-0.748779,-0.011230
1519479963631,1.391846,-0.792969,0.037842
1519479963657,1.527832,-0.358154,0.030762
1519479963689,1.375488,-0.190430,0.103271
1519479963722,0.919922,-0.325195,0.201172
1519479963754,0.613525,-0.387939,0.180176
1519479963787,0.549316,-0.294434,0.129150
1519479963827,0.493408,-0.225342,0.079346
1519479963859,0.461426,-0.197266,0.056396
1519479963891,0.482666,-0.228516,0.026367
1519479963926,0.674072,-0.342529,0.000977
1519479963957,0.781738,-0.318115,0.020508
1519479963988,0.816406,-0.291992,0.006592
1519479964021,0.852783,-0.402832,0.028809
1519479964055,1.232422,-0.449219,0.019043
1519479964088,1.607666,-0.584229,-0.026367
1519479964120,0.945801,-0.697510,0.196045
1519479964153,1.101807,-0.501221,0.333496
1519479964165,1.133301,-0.216309,0.325684
1519479964222,1.083252,-0.388428,0.113281
1519479964235,0.741943,-0.437744,0.108398
1519479964269,0.583740,-0.469727,0.126465
1519479964301,0.500977,-0.508545,0.180176
1519479964333,0.498535,-0.469482,0.133789
1519479964364,0.541016,-0.496826,0.089111
1519479964421,0.588623,-0.516602,0.032959
1519479964454,0.831299,-0.510498,-0.020752
1519479964487,1.037354,-0.541260,-0.034424
1519479964495,1.249268,-0.510254,-0.035889
1519479964552,1.241455,-0.552490,0.104492
1519479964585,1.154785,-0.442627,0.099121
1519479964593,1.140137,-0.680420,0.082764
1519479964641,1.389404,-0.816162,0.023682
1519479964649,1.606201,-0.458008,-0.080078
1519479964683,1.604492,-0.210938,0.031006
1519479964740,0.941895,-0.312988,0.165527
1519479964748,0.753418,-0.383789,0.106445
1519479964803,0.649414,-0.336182,0.049072
1519479964836,0.558350,-0.272949,0.013428
1519479964868,0.512451,-0.214844,0.022217
1519479964900,0.495605,-0.180420,0.019531
1519479964935,0.592041,-0.204834,0.013672
1519479964964,0.695313,-0.218262,-0.005127
1519479964996,0.787354,-0.234131,-0.019043
1519479965029,0.960693,-0.283691,0.002930
1519479965062,1.269287,-0.419434,0.019287
1519479965065,1.268311,-0.541260,0.046143
1519479965121,0.976807,-0.566895,0.175537
1519479965158,1.255615,-0.380127,0.103027
1519479965167,1.451172,-0.371094,0.082764
1519479965231,1.093506,-0.597900,0.269775
1519479965240,0.789795,-0.561279,0.199707
1519479965264,0.622803,-0.521240,0.200684
1519479965323,0.549072,-0.495605,0.181152
1519479965332,0.507080,-0.495117,0.095459
1519479965383,0.518066,-0.504150,0.075439
1519479965416,0.580566,-0.466797,0.048584
1519479965430,0.770996,-0.479004,-0.005371
1519479965463,1.012207,-0.546875,-0.013672
1519479965494,1.368408,-0.502686,0.009521
1519479965527,1.484863,-0.468262,0.037598
1519479965560,1.438721,-0.507080,0.140381
1519479965619,1.158203,-0.596436,0.106934
1519479965651,1.226807,-0.470215,0.007813
1519479965660,1.412598,-0.343018,-0.011230
1519479965713,1.153076,-0.343262,0.096924
1519479965746,0.817139,-0.292725,0.036377
1519479965754,0.670898,-0.273193,0.046875
1519479965803,0.475342,-0.288086,0.054932
1519479965809,0.386719,-0.265137,0.029785
1519479965869,0.374512,-0.246338,0.017822
1519479965877,0.469971,-0.217529,0.004639
1519479965933,0.559570,-0.225098,0.002441
1519479965969,0.629150,-0.249268,-0.012695
1519479965998,0.918457,-0.309082,-0.028320
1519479966030,1.086670,-0.343262,-0.022461
1519479966063,1.125244,-0.398682,0.051270
1519479966095,1.563232,-0.382080,-0.059814
1519479966131,1.284912,-0.457520,-0.065430
1519479966139,1.083008,-0.561279,0.000488
1519479966200,1.433594,-0.679443,0.152344
1519479966208,1.229248,-0.489502,0.204834
1519479966260,0.808594,-0.342041,0.254395
1519479966269,0.596436,-0.360840,0.206787
1519479966299,0.489746,-0.422607,0.176025
1519479966331,0.434570,-0.434326,0.140137
1519479966365,0.422363,-0.385498,0.087402
1519479966396,0.570313,-0.407959,0.002441
1519479966432,0.809814,-0.470459,-0.012695
1519479966486,0.924805,-0.477051,0.130371
1519479966494,1.181152,-0.465820,0.059570
1519479966542,1.223389,-0.476318,0.048340
1519479966576,1.288574,-0.428955,0.007324
1519479966610,1.254639,-0.605957,0.055908
1519479966614,1.136475,-0.718994,0.050781
1519479966657,1.356445,-0.467529,-0.034180
1519479966689,1.490723,-0.413086,0.037109
1519479966723,1.117676,-0.375244,0.085449
1519479966755,0.695313,-0.327148,0.102295
1519479966788,0.592773,-0.303711,0.088867
1519479966820,0.497070,-0.291016,0.074219
1519479966853,0.436279,-0.255371,0.053955
1519479966885,0.451904,-0.245850,0.038330
1519479966919,0.483643,-0.214355,0.006836
1519479966951,0.700928,-0.252930,0.010986
1519479966972,0.944824,-0.301025,0.030518
1519479967066,1.076416,-0.271729,-0.038818
1519479967076,1.526123,-0.373779,-0.086426
1519479967133,1.567627,-0.561523,-0.025635
1519479967136,1.034424,-0.547607,0.084473
1519479967201,1.204346,-0.398682,0.129395
1519479967209,1.282227,-0.352539,0.142578
1519479967268,1.056641,-0.385010,0.196777
1519479967277,0.657715,-0.450928,0.247803
1519479967336,0.479248,-0.384277,0.169922
1519479967345,0.425781,-0.385742,0.187988
1519479967403,0.500244,-0.438721,0.105225
1519479967408,0.561035,-0.470947,0.066406
1519479967472,0.647705,-0.431641,0.012939
1519479967479,0.893555,-0.487549,-0.007324
1519479967526,1.080566,-0.539063,0.016602
1519479967531,1.200928,-0.533691,0.003418
1519479967536,1.420654,-0.495605,0.004150
1519479967560,1.435547,-0.607178,0.093018
1519479967593,1.250244,-0.668701,0.106689
1519479967625,1.346191,-0.481689,-0.007080
1519479967658,1.541748,-0.386963,0.044922
1519479967690,1.351074,-0.330078,0.103760
1519479967724,0.818604,-0.359863,0.111816
1519479967765,0.670410,-0.308594,0.110107
1519479967774,0.523193,-0.298096,0.115234
1519479967823,0.402832,-0.236328,0.081299
1519479967856,0.377686,-0.196045,0.062256
1519479967889,0.424805,-0.192383,0.012695
1519479967930,0.571533,-0.223145,-0.042725
1519479967939,0.768311,-0.250977,-0.031250
1519479967988,1.014160,-0.295410,-0.003662
1519479968020,1.109619,-0.328613,-0.026367
1519479968055,1.264893,-0.383545,0.032959
1519479968063,1.500000,-0.430908,-0.035889
1519479968119,1.147217,-0.422119,-0.059082
1519479968152,1.068848,-0.603516,0.097900
1519479968184,1.203857,-0.605225,0.175293
1519479968218,1.064941,-0.382324,0.288574
1519479968250,0.897949,-0.227051,0.317627
1519479968259,0.591553,-0.346924,0.208984
1519479968309,0.498047,-0.428955,0.186279
1519479968351,0.497070,-0.446777,0.185303
1519479968358,0.477783,-0.454590,0.144043
1519479968384,0.527832,-0.464111,0.086182
1519479968441,0.666260,-0.466553,0.055176
1519479968474,0.910889,-0.481201,0.029541
1519479968483,1.161377,-0.488281,0.069580
1519479968536,1.308105,-0.489502,0.037842
1519479968569,1.296631,-0.407959,0.010498
1519479968601,1.263916,-0.640137,0.072754
1519479968634,1.138428,-0.735107,0.100586
1519479968668,1.251465,-0.510254,0.049805
1519479968699,1.452881,-0.348389,0.036377
1519479968713,1.103027,-0.344482,0.148926
1519479968747,0.793213,-0.317627,0.120117
1519479968804,0.635498,-0.295166,0.096436
1519479968813,0.532471,-0.285400,0.094238
1519479968836,0.481689,-0.254883,0.077393
1519479968895,0.453125,-0.215820,0.045898
1519479968904,0.480225,-0.249756,0.001709
1519479968954,0.543945,-0.258057,-0.018555
1519479968987,0.770020,-0.339600,-0.037598
1519479968999,1.024658,-0.400391,-0.032715
1519479969054,1.061279,-0.415771,-0.013916
1519479969060,1.440918,-0.509277,0.032959
1519479969118,1.448242,-0.574463,0.067627
1519479969131,0.962402,-0.563477,0.137695
1519479969164,1.163818,-0.474609,0.202393
1519479969196,1.371826,-0.430176,0.241699
1519479969228,1.146484,-0.450439,0.189941
1519479969260,0.789551,-0.520508,0.273193
1519479969292,0.587891,-0.376465,0.189697
1519479969326,0.458740,-0.349609,0.203125
1519479969384,0.418457,-0.364990,0.121582
1519479969392,0.421143,-0.396973,0.054199
1519479969416,0.494629,-0.427490,0.001465
1519479969449,0.769775,-0.456299,-0.019287
1519479969481,1.066895,-0.500977,-0.013184
1519479969514,1.235840,-0.529785,-0.036133
1519479969555,1.266357,-0.481689,-0.038330
1519479969588,1.352783,-0.565918,-0.010986
1519479969620,1.243896,-0.752930,-0.010498
1519479969653,1.093994,-0.529541,0.018555
1519479969686,1.299316,-0.203857,0.120605
1519479969718,1.332275,-0.242188,0.202393
1519479969751,0.863525,0.109375,0.189941
1519479969784,0.721924,-0.093750,0.030518
1519479969817,0.614746,-0.206787,0.013428
1519479969850,0.495605,-0.065918,-0.102295
1519479969883,0.498535,-0.094971,-0.098145
1519479969914,0.546875,-0.054443,-0.128418
1519479969947,0.689209,-0.223633,-0.096191
1519479969983,0.901855,-0.445068,-0.176025
1519479970016,1.080811,-0.452393,-0.441406
1519479970047,1.308838,-0.552246,-0.478271
1519479970056,1.417969,-0.477783,-0.497314
1519479970111,1.543945,-0.474854,-0.392822
1519479970144,1.166748,-0.288818,-0.124268
1519479970178,0.766357,-0.296387,0.130615
1519479970209,0.970947,-0.331543,0.074219
1519479970241,1.344482,0.014404,-0.162354
1519479970274,1.023926,0.007080,-0.035400
1519479970324,0.781006,-0.138672,-0.164063
1519479970325,0.686279,-0.222412,-0.129639
1519479970370,0.542725,-0.192871,-0.085449
1519479970374,0.411377,-0.330078,-0.175049
1519479970431,0.388916,-0.441895,-0.181885
1519479970464,0.463867,-0.358398,-0.163818
1519479970472,0.598145,-0.190186,-0.193115
1519479970527,0.902832,-0.329346,-0.128418
1519479970560,1.073730,-0.332764,0.148438
1519479970592,1.124268,-0.371582,-0.263184
1519479970625,0.786377,-1.007568,-0.541504
1519479970657,1.173828,-0.981445,-0.386719
1519479970690,1.425781,-0.653564,-0.233887
1519479970722,1.148926,-0.370850,-0.116211
1519479970737,1.136719,-0.008789,-0.559326
1519479970797,1.212646,-0.286377,-0.549072
1519479970829,0.647949,-0.232178,-0.407471
1519479970862,0.478516,-0.297607,-0.255127
1519479970893,0.468018,-0.328857,-0.103760
1519479970926,0.417969,-0.217041,-0.053711
1519479970934,0.394531,-0.145020,-0.093750
1519479970963,0.476563,-0.205811,-0.199707
1519479970998,0.692383,-0.395996,-0.341309
1519479971029,0.853271,-0.516846,-0.376465
1519479971062,0.990479,-0.521240,-0.500977
1519479971095,1.249268,-0.427734,-0.537598
1519479971130,1.500244,-0.514893,-0.565918
1519479971163,1.352051,-0.557129,-0.471191
1519479971196,1.106934,-0.524170,0.052490
1519479971227,1.293457,-0.493164,-0.050049
1519479971260,1.313721,-0.231934,-0.115967
1519479971294,1.043457,-0.242676,-0.119629
1519479971327,0.736572,-0.216064,-0.021240
1519479971360,0.438965,-0.068848,0.058350
1519479971391,0.323975,-0.313232,0.056396
1519479971423,0.368408,-0.397217,-0.094238
1519479971456,0.422119,-0.426514,-0.181396
1519479971488,0.558105,-0.526123,-0.187744
1519479971520,0.674561,-0.573975,-0.213379
1519479971535,1.009033,-0.480957,-0.270996
1519479971605,1.147705,-0.672119,0.057373
1519479971614,1.158447,-0.710449,-0.291992
1519479971638,1.248535,-0.557373,-0.354492
1519479971670,1.261963,-0.745117,-0.018555
1519479971703,1.249512,-0.530029,-0.144531
1519479971735,1.342041,-0.121338,-0.183350
1519479971793,1.279541,-0.084229,-0.285645
1519479971826,0.894531,-0.153809,-0.179443
1519479971835,0.658936,-0.213867,-0.108887
1519479971885,0.517578,-0.151367,-0.132324
1519479971922,0.432861,-0.122070,-0.166260
1519479971927,0.456787,-0.619385,-0.449707
1519479971969,0.481934,-0.029541,-0.266602
1519479972040,0.510254,-0.150391,-0.341309
1519479972046,0.723633,-0.521729,-0.317383
1519479972109,0.955322,-0.577393,-0.620117
1519479972118,0.904541,-0.682373,-0.747803
1519479972177,1.160645,-0.931641,-0.726074
1519479972185,1.039795,-0.691650,-0.461914
1519479972243,0.867676,-0.573486,-0.278076
1519479972247,1.291504,-0.512451,-0.113037
1519479972311,1.119141,-0.210449,0.018555
1519479972319,1.102539,-0.592529,-0.269043
1519479972377,0.778320,-0.764404,-0.343018
1519479972447,0.338623,-0.308105,0.171143
1519479972515,0.234619,-0.472412,-0.176270
1519479972523,0.110840,-0.260986,-0.149902
1519479972531,0.514404,-0.415527,-0.032227
1519479972536,0.511230,-0.455078,0.104248
1519479972542,0.538086,-0.319092,0.175293
1519479972563,0.761230,-0.896240,0.284180
1519479972566,1.035645,-1.239746,0.224854
1519479972623,1.047119,-1.162598,-0.170654
1519479972654,1.226074,-1.217529,0.170410
1519479972688,1.015625,-0.324219,-0.122559
1519479972720,0.914063,-0.576172,-0.292236
1519479972752,0.827148,-0.418213,-0.393066
1519479972785,0.593018,-0.075684,-0.260010
1519479972799,0.531982,-0.245850,-0.302002
1519479972856,0.509521,-0.746582,-0.428223
1519479972885,0.564941,-0.421631,-0.274414
1519479972918,0.494141,-0.581543,-0.311523
1519479972951,0.418701,-0.177734,0.017090
1519479972984,0.177490,-0.262939,-0.217285
1519479972992,0.525391,-0.927002,-0.397949
1519479973040,1.242188,-0.628418,-0.263672
1519479973073,1.119385,-0.532227,-0.653564
1519479973078,1.226563,-0.901367,-0.590576
1519479973137,1.645508,-0.828125,-0.384033
1519479973170,1.025391,-0.890869,-0.416748
1519479973202,0.857666,-0.568604,-0.163330
1519479973216,1.216064,-0.798584,-0.330322
1519479973247,1.319092,-0.515381,-0.363770
1519479973279,1.226807,-0.166504,-0.162354
1519479973311,0.990479,-0.053467,0.237793
1519479973371,0.727295,-0.045898,0.022461
1519479973401,0.762207,-0.216064,-0.015381
1519479973434,0.712891,-0.459961,0.405273
1519479973437,0.516113,-0.140137,0.276855
1519479973468,0.254150,-0.317871,0.600342
1519479973526,0.507080,-0.345215,0.635254
1519479973536,0.720459,-0.150146,0.742676
1519479973585,1.097656,-0.387695,1.292725
1519479973618,1.395996,-0.596924,0.392334
1519479973632,1.443848,-0.647705,0.552490
1519479973663,1.250000,-0.786865,0.508789
1519479973696,0.774414,-0.432861,0.089111
1519479973731,0.599121,-0.581543,-0.080566
1519479973766,0.468506,-0.746338,-0.310059
1519479973797,0.185547,-0.743164,-0.276367
1519479973831,0.048096,-0.582031,-0.333496
1519479973864,-0.026611,-0.599854,-0.383545
1519479973896,-0.033691,-0.624756,-0.320557
1519479973929,0.066162,-0.678467,-0.236328
1519479973962,0.036865,-0.892334,-0.328369
1519479973994,0.109131,-0.906738,-0.351318
1519479974026,0.028809,-0.964844,-0.054932
1519479974039,0.250244,-1.022217,-0.334717
1519479974098,0.281738,-1.244141,-0.472168
1519479974129,0.415527,-1.254883,-0.580566
1519479974163,0.265381,-1.233643,-0.335205
1519479974196,0.230469,-1.225830,-0.396240
1519479974219,0.269043,-1.147705,-0.492676
1519479974244,0.235596,-1.047607,-0.407715
1519479974275,0.137695,-0.865723,-0.203125
1519479974307,0.036621,-0.791748,-0.172363
1519479974365,-0.042480,-0.640381,-0.199951
1519479974397,-0.141846,-0.747314,-0.052979
1519479974430,-0.142578,-0.656494,-0.241455
1519479974435,-0.087891,-0.847412,-0.340332
1519479974476,-0.081299,-0.831543,-0.115967
1519479974510,-0.125732,-0.911133,-0.285889
1519479974542,-0.040039,-1.080566,-0.511230
1519479974580,-0.078125,-1.013916,-0.522949
1519479974614,-0.168457,-1.115479,-0.507568
1519479974646,-0.065674,-1.219971,-0.587646
1519479974679,-0.210938,-0.600586,-0.607422
1519479974712,-0.072266,-0.833252,-1.088135
1519479974743,-0.174561,-0.830811,-1.277100
1519479974776,-0.231445,-0.540771,-0.722656
1519479974813,-0.179932,-0.361816,-0.574707
1519479974846,-0.052979,-0.485840,-0.348389
1519479974858,0.043945,-0.932861,-0.212646
1519479974890,-0.215332,-0.582764,-0.431396
1519479974929,-0.360352,-0.404785,-0.574707
1519479974962,-0.405273,-0.359619,-0.580566
1519479974994,-0.275146,-0.481934,-0.659668
1519479975026,-0.342529,-0.601563,-0.660156
1519479975058,-0.377686,-0.555420,-1.006836
1519479975090,-0.322021,-0.913330,-1.197266
1519479975124,-0.244629,-0.896729,-1.449463
1519479975157,-0.147217,-0.721191,-0.883789
1519479975189,-0.104004,-0.651855,-0.874512
1519479975222,-0.114502,-0.727539,-0.973389
1519479975254,-0.183350,-0.621826,-0.820557
1519479975286,-0.192627,-0.460205,-0.575439
1519479975319,-0.178955,-0.368408,-0.346436
1519479975352,-0.218506,-0.345703,-0.358154
1519479975384,-0.222168,-0.346191,-0.455078
1519479975419,-0.206299,-0.395996,-0.503662
1519479975445,-0.227783,-0.583984,-0.596680
1519479975477,-0.240234,-0.703125,-0.599609
1519479975509,-0.276855,-0.778809,-0.839600
1519479975543,-0.336426,-0.832031,-1.055420
1519479975575,-0.321533,-0.902344,-1.029297
1519479975608,-0.355225,-0.839355,-1.293457
1519479975642,-0.274902,-0.619629,-0.880859
1519479975655,-0.298828,-0.308594,-0.874023
1519479975689,-0.328857,-0.432861,-1.056885
1519479975721,-0.295898,-0.419678,-1.057129
