1519481572243,-0.525635,-0.822021,0.337646
1519481572279,-0.534424,-0.393311,0.147949
1519481572312,-0.512695,0.278809,-0.104980
1519481572317,-0.642578,0.410156,-0.203613
1519481572357,-0.750244,0.420898,-0.259521
1519481572388,-0.901611,0.285889,-0.182617
1519481572420,-0.552246,-0.649170,-0.020996
1519481572457,-0.691162,-3.888184,1.044922
1519481572498,1.026367,-3.544189,0.753418
1519481572530,0.341064,-1.916016,0.465088
1519481572536,0.139404,-0.988770,0.414551
1519481572590,0.135254,-0.343750,0.252930
1519481572622,0.227539,0.071289,0.005615
1519481572653,0.452393,0.338135,-0.034424
1519481572680,0.466309,0.355957,0.054443
1519481572713,0.507324,0.273438,0.062500
1519481572747,0.548096,0.182373,0.256104
1519481572779,0.997803,-3.120605,0.752686
1519481572811,0.629150,-3.497070,1.401123
1519481572842,-0.175293,-2.166992,0.906738
1519481572875,-0.653076,-0.695068,0.297119
1519481572907,-0.752441,-0.330078,0.200684
1519481572940,-0.718506,-0.015625,0.077148
1519481572973,-0.620605,0.282715,-0.101318
1519481573007,-0.650879,0.297363,-0.187256
1519481573038,-0.473145,0.111816,-0.136230
1519481573070,-0.538574,-0.680664,-0.025391
1519481573104,-0.148682,-3.801025,0.488281
1519481573135,0.501221,-3.553711,0.470459
1519481573168,0.213867,-2.459473,0.399414
1519481573201,0.194824,-1.297363,0.282471
1519481573232,0.183838,-0.643311,0.230469
1519481573264,0.344238,-0.031006,0.190674
1519481573307,0.637451,0.281738,0.135254
1519481573315,0.626953,0.513184,0.081055
1519481573371,0.756104,0.454590,-0.034912
1519481573403,0.704834,0.323242,0.114502
1519481573416,0.702637,-0.523193,0.558594
1519481573472,0.665771,-3.094482,0.925049
1519481573505,0.119629,-3.460693,0.974609
1519481573512,-0.345459,-2.121582,0.595459
1519481573567,-0.685547,-0.927734,0.214111
1519481573600,-0.677490,-0.592285,0.024414
1519481573605,-0.544922,-0.078857,-0.063477
1519481573633,-0.643066,0.313721,-0.082275
1519481573666,-0.709473,0.392578,-0.105469
1519481573707,-0.639160,0.258545,-0.121826
1519481573741,-0.670898,-1.709717,0.165771
1519481573774,-0.003662,-4.538330,0.808838
1519481573806,1.018311,-3.691162,0.437500
1519481573838,0.291016,-1.549316,0.255859
1519481573871,0.184082,-0.681885,0.040283
1519481573904,0.307617,-0.027344,0.038818
1519481573935,0.454590,0.269531,0.043457
1519481573962,0.516846,0.400879,0.007080
1519481573993,0.531250,0.412598,0.061523
1519481574051,0.335205,0.432617,0.160156
1519481574057,0.403076,0.229980,0.114014
1519481574086,0.840576,-2.403564,0.858154
1519481574143,1.284668,-3.995361,1.424316
1519481574148,0.113281,-2.730225,1.115234
1519481574202,-0.316162,-1.230469,0.610840
1519481574235,-0.711670,0.007568,0.215332
1519481574267,-0.826172,0.258301,0.143066
1519481574299,-0.742432,0.408691,0.075439
1519481574331,-0.599121,0.395020,-0.060303
1519481574363,-0.455811,0.034912,0.037842
1519481574398,-0.482910,-0.695801,0.068604
1519481574430,-0.289063,-2.729492,0.625488
1519481574464,0.381104,-3.696533,0.568115
1519481574473,0.314697,-2.873047,0.522461
1519481574511,0.189697,-1.361084,0.258789
1519481574542,0.219482,-0.593506,0.159912
1519481574576,0.512939,0.075195,0.155029
1519481574632,0.792725,0.538574,0.109131
1519481574636,0.623779,0.643311,0.114990
1519481574665,0.459961,0.614502,0.131348
1519481574724,0.445801,0.223877,0.109863
1519481574730,0.508057,-0.536865,0.411377
1519481574757,0.721680,-2.482910,1.148438
1519481574816,0.691406,-3.634766,1.326660
1519481574849,-0.017334,-1.659912,0.813965
1519481574882,-0.364502,-0.982666,0.293213
1519481574895,-0.632080,-0.409424,0.039795
1519481574927,-0.713379,-0.149414,-0.179443
1519481574959,-0.767578,-0.003662,-0.298340
1519481574992,-0.654297,-0.122803,-0.235352
1519481575028,-0.505615,-0.681641,-0.049805
1519481575061,-0.469482,-2.209473,0.526611
1519481575094,0.926514,-4.131592,1.110107
1519481575126,1.216309,-2.475830,0.657959
1519481575159,0.574951,-1.525635,0.635498
1519481575192,0.423340,-0.615723,0.364258
1519481575242,0.412354,-0.022217,0.072021
1519481575250,0.547119,0.322266,-0.105225
1519481575300,0.501953,0.560547,-0.292236
1519481575314,0.399414,0.547852,-0.272461
1519481575349,0.416992,0.401123,-0.253662
1519481575381,0.622803,0.068848,0.310791
1519481575414,0.327393,-2.197021,0.473877
1519481575447,1.379883,-4.032471,0.700928
1519481575479,-0.115234,-2.663086,0.924805
1519481575511,-0.486328,-1.084473,0.558350
1519481575543,-0.668213,-0.546143,0.373291
1519481575577,-0.600586,-0.117676,0.215576
1519481575610,-0.656006,0.019775,0.238281
1519481575641,-0.556885,0.304443,0.122559
1519481575674,-0.523193,0.258301,0.086182
1519481575707,-0.478760,-0.024658,0.200928
1519481575721,-0.569092,-1.637939,0.307373
1519481575778,0.578369,-4.091309,1.129639
1519481575810,0.722412,-2.714600,0.677979
1519481575843,0.048828,-1.715332,0.528564
1519481575874,0.036377,-0.599365,0.238281
1519481575908,0.113281,-0.113770,0.031250
1519481575940,0.328369,0.284180,-0.099609
1519481575972,0.564697,0.489014,-0.066650
1519481576006,0.742432,0.432373,-0.173340
1519481576013,0.790527,0.200928,-0.079590
1519481576064,0.566650,-0.244141,0.366699
1519481576097,0.648926,-1.849609,0.491211
1519481576106,0.393066,-3.566162,1.631836
1519481576167,-0.286621,-2.386230,1.115479
1519481576170,-0.802490,-1.522217,0.745361
1519481576225,-0.992188,-0.921631,0.662842
1519481576259,-0.580811,-0.065186,0.126221
1519481576292,-0.493408,0.338867,-0.003174
1519481576301,-0.351074,0.305420,0.043945
1519481576360,-0.196289,0.224854,0.005615
1519481576391,-0.305420,-0.039551,0.154053
1519481576424,-0.422852,-2.186035,0.872803
1519481576456,-0.097656,-3.396240,1.530029
1519481576489,0.915771,-2.323730,0.680908
1519481576520,-0.728516,-1.600586,0.682861
1519481576534,-0.121094,-0.871094,0.425049
1519481576592,0.067139,-0.446045,0.255127
1519481576600,0.332520,0.070801,0.070313
1519481576649,0.564941,0.378662,-0.048584
1519481576652,0.451416,0.471680,-0.017090
1519481576683,0.475586,0.449707,-0.231445
1519481576742,0.618164,-0.291748,0.138428
1519481576776,0.846924,-2.770508,0.671387
1519481576847,0.834717,-3.557861,1.271973
1519481576855,-0.285645,-2.498047,1.280029
1519481576914,-0.541504,-1.292969,0.792725
1519481576917,-0.653320,-0.732666,0.561523
1519481576981,-0.659668,-0.256348,0.110840
1519481577050,-0.495605,0.090820,-0.105713
1519481577117,-0.508545,0.251465,-0.140381
1519481577126,-0.592285,0.348145,-0.148682
1519481577185,-0.513428,0.161865,-0.160400
1519481577192,-0.856689,-0.916992,0.147705
1519481577207,0.164551,-4.171143,1.360107
1519481577210,0.530273,-3.058594,0.916992
1519481577213,-0.003418,-1.792480,0.560303
1519481577217,0.099854,-0.683105,0.302979
1519481577248,0.274902,-0.137451,0.146729
1519481577283,0.461914,0.387207,0.085205
1519481577316,0.599365,0.543945,-0.123779
1519481577349,0.497314,0.420166,-0.145996
1519481577382,0.483643,0.190186,0.057373
1519481577423,0.493164,-0.274414,0.294678
1519481577456,0.336182,-2.018799,1.008545
1519481577464,0.634277,-3.054199,1.437256
1519481577515,-0.282227,-2.896729,1.053711
1519481577546,-0.631104,-1.164063,0.576660
1519481577551,-0.950684,-0.814209,0.248047
1519481577607,-0.756348,-0.175049,0.061523
1519481577637,-0.720703,0.293213,-0.123779
1519481577669,-0.637695,0.466064,-0.200439
1519481577704,-0.500244,0.402832,-0.123535
1519481577736,-0.388916,0.097656,-0.025635
1519481577769,-1.116699,-1.406738,0.636475
1519481577801,0.462891,-3.975830,1.548584
1519481577815,0.241455,-2.932129,0.864746
1519481577873,-0.136230,-1.488770,0.530273
1519481577882,0.051758,-0.479736,0.279541
1519481577935,0.300049,0.041016,0.111084
1519481577968,0.538330,0.409180,-0.098145
1519481578002,0.522461,0.530518,-0.110107
1519481578032,0.445313,0.534912,-0.093750
1519481578038,0.531494,0.454834,-0.131592
1519481578091,0.620850,-0.791504,0.696045
1519481578124,0.601074,-3.846191,1.344971
1519481578130,0.422119,-3.591797,1.225098
1519481578185,-0.480957,-1.950195,0.987793
1519481578218,-0.672852,-0.853027,0.467773
1519481578232,-0.781006,-0.234619,0.204590
1519481578266,-0.682861,0.202637,-0.008789
1519481578298,-0.690430,0.395996,-0.110107
1519481578338,-0.848389,0.343018,-0.239258
1519481578361,-0.579834,0.130371,-0.120361
1519481578419,-0.535889,-0.567139,0.222656
1519481578451,-0.593506,-4.114990,1.076416
1519481578484,0.795654,-3.470947,0.870361
1519481578517,0.170410,-1.743164,0.635986
1519481578549,-0.057373,-0.964600,0.384277
1519481578583,0.090332,-0.153076,0.255127
1519481578591,0.398193,0.085938,-0.009033
1519481578622,0.416016,0.512451,0.015625
1519481578654,0.414063,0.506592,-0.082031
1519481578685,0.465088,0.364746,0.002930
1519481578719,0.356445,-0.267578,0.531006
1519481578751,0.856445,-4.044678,1.302734
1519481578784,0.005127,-3.813477,1.412354
1519481578817,-0.192383,-1.908936,0.800049
1519481578849,-0.733887,-0.716797,0.365967
1519481578882,-0.851807,0.021729,0.126709
1519481578915,-0.671143,0.415039,-0.061523
1519481578947,-0.660645,0.444092,-0.082520
1519481578980,-0.650391,0.551025,-0.071777
1519481578997,-0.538574,0.204590,-0.141357
1519481579079,-0.274414,-1.322266,0.151611
1519481579083,-0.732666,-2.757080,0.273682
1519481579114,-0.163818,-3.951904,0.624023
1519481579145,0.302734,-2.395508,0.356934
1519481579178,0.152588,-1.459961,0.333496
1519481579214,0.111572,-0.617676,0.298828
1519481579247,0.234863,-0.006104,0.112793
1519481579280,0.406738,0.489502,-0.017822
1519481579311,0.309814,0.479736,0.016602
1519481579345,0.246094,0.689209,-0.141357
1519481579378,0.442383,0.311768,-0.167969
1519481579411,0.643555,-0.301025,0.122314
1519481579426,1.124512,-4.095947,0.078857
1519481579482,0.485352,-4.013428,0.621094
1519481579490,-0.150391,-2.540771,0.643066
1519481579545,-0.568115,-0.763672,0.311279
1519481579577,-0.790771,-0.398193,0.143311
1519481579582,-0.692383,-0.085449,0.125732
1519481579638,-0.652344,0.402588,-0.054443
1519481579646,-0.713623,0.331787,-0.125732
1519481579673,-0.646729,0.256592,-0.106201
1519481579732,-0.615967,-1.000488,-0.062012
1519481579741,-0.695557,-2.854004,0.347900
1519481579794,-0.388184,-3.627197,0.676025
1519481579828,0.274170,-2.722168,0.469727
1519481579843,0.408936,-1.397461,0.241943
1519481579874,0.409180,-0.539795,0.201904
1519481579907,0.527832,0.040771,0.005127
1519481579940,0.660400,0.384277,-0.173828
1519481579973,0.681641,0.509033,-0.183594
1519481580029,0.476318,0.432373,-0.141357
1519481580061,0.468994,0.225342,-0.121094
1519481580064,0.654541,-0.580078,0.227539
1519481580120,0.358887,-3.541016,0.692383
1519481580151,0.069092,-3.685791,0.785645
1519481580155,-0.369141,-2.589355,0.880615
1519481580212,-0.325439,-0.912109,0.542480
1519481580244,-0.412598,-0.550781,0.335449
1519481580258,-0.588135,-0.179688,0.200439
1519481580290,-0.666260,0.242432,0.036377
1519481580322,-0.730469,0.388184,-0.147217
1519481580359,-0.711914,0.307617,-0.155273
1519481580392,-0.729736,-0.204834,-0.136963
1519481580424,-0.650391,-1.737549,0.167969
1519481580457,-0.895996,-3.214600,0.521973
1519481580489,0.587646,-3.319336,0.519287
1519481580522,0.240234,-1.940918,0.416016
1519481580554,0.224121,-0.970215,0.332031
1519481580587,0.368164,-0.062256,0.093506
1519481580619,0.527344,0.350098,-0.047607
1519481580653,0.627930,0.600098,-0.155762
1519481580684,0.412842,0.626709,-0.090576
1519481580718,0.496338,0.360840,-0.205078
1519481580751,0.730225,-0.655029,0.077637
1519481580784,0.230713,-2.954346,1.555908
1519481580815,0.639404,-3.411377,1.604492
1519481580848,-0.038574,-2.421875,1.362549
1519481580880,-0.397949,-1.005615,0.808350
1519481580914,-0.516602,-0.399170,0.518555
1519481580946,-0.518311,-0.056885,0.222900
1519481580979,-0.654053,0.266357,-0.135498
1519481581011,-1.013916,0.434082,-0.211182
1519481581019,-0.956299,0.120117,-0.323730
1519481581084,-1.282959,-0.991699,-0.051514
1519481581118,-1.019775,-2.145020,0.604248
1519481581126,-0.580078,-3.800049,1.308594
1519481581179,0.592285,-2.752930,0.976074
1519481581184,0.431152,-1.475098,0.653564
1519481581242,0.288086,-0.656006,0.249756
1519481581275,0.570557,-0.083008,0.100830
1519481581283,0.665283,0.177246,0.048584
1519481581339,0.733643,0.365234,-0.025391
1519481581371,0.562256,0.520264,0.084473
1519481581406,0.472412,0.434082,0.192139
1519481581438,0.795166,-0.730713,0.734131
1519481581470,1.120117,-4.196045,2.306641
1519481581484,0.602783,-3.123779,1.561768
1519481581517,-0.447998,-1.873047,1.201904
1519481581573,-0.886719,-0.281494,0.309082
1519481581604,-1.019775,0.309570,-0.130127
1519481581608,-0.925537,0.411865,-0.404785
1519481581664,-0.946777,0.337646,-0.468750
1519481581697,-0.877930,0.115723,-0.330811
1519481581700,-0.606201,-0.314697,-0.139160
1519481581757,-0.299072,-1.531982,0.546143
1519481581791,-0.465576,-2.336670,1.073242
1519481581863,0.127197,-3.093262,1.526123
1519481581872,0.539063,-2.408936,1.220703
1519481581930,0.208984,-1.378906,0.776855
1519481582000,0.296143,-0.585449,0.338135
1519481582063,0.449951,-0.018799,0.099365
1519481582066,0.765381,0.444336,-0.087891
1519481582133,0.551758,0.739258,-0.088867
1519481582141,0.318848,0.779785,-0.098633
1519481582198,0.357666,0.615479,-0.059082
1519481582206,0.813965,-0.692871,0.672852
1519481582267,1.655029,-4.437012,1.790283
1519481582272,0.597900,-3.205811,1.382813
1519481582322,-0.222412,-1.613525,0.927490
1519481582328,-0.572998,-0.586182,0.484131
1519481582333,-0.760010,-0.216064,0.189209
1519481582338,-0.761719,0.152344,-0.083496
1519481582342,-0.691650,0.157227,-0.217773
1519481582345,-0.840332,0.159668,-0.146729
1519481582403,-0.675537,-0.019531,-0.079590
1519481582434,-0.414795,-1.181152,0.322754
1519481582468,-0.058350,-3.317871,1.554688
1519481582501,0.747070,-3.335205,1.726563
1519481582534,0.319580,-1.330566,1.348633
1519481582567,-0.038818,-1.025146,0.886963
1519481582575,0.046875,-0.423340,0.471436
1519481582624,0.301025,-0.026367,0.093018
1519481582636,0.518066,0.314209,-0.196045
1519481582662,0.477783,0.541260,-0.283447
1519481582720,0.292969,0.575928,-0.210449
1519481582734,0.401123,0.444824,-0.153320
1519481582766,0.320801,0.110107,0.289795
1519481582800,0.393066,-3.042236,2.287842
1519481582833,0.979492,-3.593018,2.389648
1519481582867,0.083740,-2.121826,1.987305
1519481582922,-0.167725,-0.629395,0.885010
1519481582931,-0.442627,-0.141846,0.402588
1519481582986,-0.646973,0.142090,0.172852
1519481583000,-0.540771,0.385254,-0.080566
1519481583031,-0.481201,0.333252,-0.039795
1519481583066,-0.499268,0.238525,0.058105
1519481583098,-0.400146,-0.571533,0.375000
1519481583131,-0.514648,-2.299561,1.174072
1519481583145,0.404053,-3.554932,1.510986
1519481583203,0.424561,-2.395996,0.850586
1519481583210,0.062500,-1.447510,0.589844
1519481583268,0.032959,-0.829834,0.352783
1519481583300,0.179688,-0.254150,-0.004150
1519481583332,0.501709,0.020264,-0.198730
1519481583364,0.465576,0.410400,-0.129883
1519481583396,0.443115,0.500000,-0.220215
1519481583430,0.433594,0.366211,-0.240967
1519481583461,0.570557,0.170410,-0.158203
1519481583494,0.683105,-1.995850,0.630859
1519481583528,1.395264,-3.056885,0.027832
1519481583541,0.249023,-2.991455,1.328857
1519481583598,-0.218994,-1.617676,0.673828
1519481583630,-0.429443,-0.796143,0.384766
1519481583635,-0.492920,-0.523193,0.491455
1519481583689,-0.351318,-0.498047,0.466553
1519481583695,-0.528076,-0.552734,0.395264
1519481583723,-0.560059,0.066895,0.295410
1519481583780,-0.567627,-0.485840,0.036621
1519481583812,-0.440918,-1.514404,0.058838
1519481583844,-0.218994,-3.045654,0.541748
1519481583879,0.898193,-3.286377,0.257080
1519481583911,0.364014,-1.808594,0.205078
1519481583944,0.125977,-1.044678,0.239990
1519481583957,0.230469,-0.273682,0.025146
1519481584015,0.405029,0.199463,-0.024170
1519481584023,0.524170,0.462646,-0.146729
1519481584076,0.342041,0.605713,-0.105713
1519481584108,0.310303,0.477783,-0.045410
1519481584112,0.510986,0.077148,0.210938
1519481584167,0.578613,-3.512451,1.221436
1519481584172,1.252441,-3.223633,1.066650
1519481584229,0.084229,-2.482178,1.120605
1519481584262,-0.414795,-0.970703,0.252930
1519481584294,-0.637695,-0.458252,0.177979
1519481584327,-0.655518,0.047119,0.043701
1519481584359,-0.671387,0.389404,-0.115967
1519481584372,-0.677734,0.413818,-0.241455
1519481584429,-0.749268,0.322266,-0.257324
1519481584461,-0.597412,-0.258545,0.019043
1519481584469,-0.383057,-2.263184,0.500000
1519481584526,-0.623535,-3.239990,0.830078
1519481584557,0.595215,-3.185547,1.036377
1519481584589,0.296631,-1.989258,0.548096
1519481584593,0.227539,-0.920654,0.276367
1519481584649,0.282227,0.022949,0.041260
1519481584681,0.381592,0.365479,0.003418
1519481584687,0.587646,0.531006,-0.118408
1519481584742,0.400391,0.504883,-0.087891
1519481584776,0.401611,0.373291,-0.041260
1519481584789,0.730225,-0.132813,0.293701
1519481584821,0.769531,-2.967041,0.993896
1519481584854,0.837158,-3.168213,1.065430
1519481584888,-0.228516,-2.716553,0.943359
1519481584918,-0.690430,-1.216064,0.510986
1519481584977,-0.698242,-0.517090,0.322754
1519481584987,-0.655762,-0.083740,0.137451
1519481585046,-0.590088,0.540527,-0.046387
1519481585054,-0.610107,0.461670,-0.094238
1519481585106,-0.556885,0.358643,-0.052002
1519481585139,-0.386230,-0.313232,0.295410
1519481585172,-0.470947,-2.997559,0.724121
1519481585178,0.041992,-3.552734,0.823242
1519481585217,0.147217,-2.893799,0.816895
1519481585250,0.031738,-1.479248,0.419189
1519481585282,-0.035156,-0.867676,0.270264
1519481585315,0.222900,-0.238281,0.058838
1519481585348,0.403809,0.204346,-0.073730
1519481585382,0.427002,0.502930,-0.152344
1519481585414,0.347900,0.520508,-0.115723
1519481585447,0.444824,0.387207,-0.166016
1519481585481,0.736816,-0.173584,0.181152
1519481585512,0.666260,-3.325928,0.957520
1519481585545,0.851318,-3.273926,1.105957
1519481585550,-0.203125,-2.639893,1.152344
1519481585609,-0.554443,-1.067383,0.348877
1519481585641,-0.721191,-0.399902,0.042725
1519481585647,-0.679932,0.024170,-0.058838
1519481585704,-0.692139,0.366211,-0.149170
1519481585738,-0.718994,0.411133,-0.167969
1519481585771,-0.813965,0.292480,-0.134033
1519481585804,-0.482422,-0.298584,0.094482
1519481585835,-0.618408,-2.398438,0.561279
1519481585869,-0.889160,-3.556885,0.684082
1519481585900,0.312256,-2.922363,0.763428
1519481585933,0.185059,-1.733398,0.313721
1519481585969,0.122803,-0.864258,0.135986
1519481585984,0.165039,-0.255371,0.024902
1519481586039,0.354248,-0.024902,0.002686
1519481586043,0.542725,0.217529,-0.103271
1519481586099,0.676758,0.373291,-0.161865
1519481586132,0.656006,0.287842,-0.053223
1519481586137,0.688721,-0.134277,0.198730
1519481586190,0.644287,-2.623047,0.505127
1519481586223,0.583252,-3.633301,0.908936
1519481586255,-0.042725,-3.088379,0.853516
1519481586288,-0.497559,-1.249023,0.455322
1519481586295,-0.501953,-0.660156,0.277344
1519481586351,-0.519531,-0.243896,0.115723
1519481586385,-0.495117,0.261230,-0.001953
1519481586398,-0.480469,0.356445,-0.062256
1519481586457,-0.501953,0.282715,-0.024902
1519481586465,-0.433838,-0.010254,0.036865
1519481586519,-0.435303,-1.635010,0.093018
1519481586552,-0.672607,-2.812012,0.279541
1519481586585,0.147461,-3.199707,0.289551
1519481586616,0.047119,-1.857666,0.150879
1519481586619,-0.021729,-1.080566,-0.068115
1519481586674,0.106934,-0.429199,0.096436
1519481586707,0.251221,-0.042969,0.035645
1519481586711,0.484131,0.125732,-0.035156
1519481586786,0.470459,0.446777,0.064697
1519481586795,0.447510,0.330078,0.095703
1519481586854,0.461182,0.313721,0.076904
1519481586921,0.828613,-1.387207,0.061768
1519481586930,1.610840,-4.031738,0.518066
1519481586988,0.343262,-4.365479,0.916260
1519481586993,-0.418213,-1.512939,0.382080
1519481587055,-0.634521,-0.623779,0.243164
1519481587058,-0.828369,-0.052490,0.179443
1519481587123,-0.695313,0.264160,-0.008545
1519481587139,-0.665527,0.286865,-0.132080
1519481587190,-0.674072,0.426270,-0.176025
1519481587196,-0.611328,0.109131,-0.144043
1519481587257,-0.588379,-0.929443,-0.439941
1519481587261,-0.416260,-2.587646,-0.460693
1519481587325,0.158691,-3.395264,-0.423096
1519481587333,0.405762,-2.824707,-0.392090
1519481587342,0.259521,-1.588135,-0.169678
1519481587349,0.183350,-0.733887,0.050781
1519481587375,0.426025,-0.206055,0.195801
1519481587407,0.531250,0.088867,0.216797
1519481587440,0.579834,0.246338,0.248779
1519481587473,0.471924,0.416748,0.269043
1519481587506,0.541748,0.321289,0.190430
1519481587539,0.580078,-1.214844,0.200439
1519481587571,0.620361,-2.962891,0.005615
1519481587580,0.480713,-2.827881,-0.078369
1519481587634,-0.425781,-2.463379,0.223389
1519481587666,-0.392090,-1.516113,0.172119
1519481587680,-0.515869,-0.599609,0.020020
1519481587737,-0.687988,-0.002197,-0.018311
1519481587741,-0.665771,0.252686,0.070068
1519481587799,-0.690430,0.373779,0.076904
1519481587831,-0.649414,0.307129,-0.072266
1519481587837,-0.600830,-0.175781,-0.266357
1519481587874,-0.451416,-2.205566,-0.228027
1519481587932,-0.477295,-3.453613,-0.253418
1519481587964,0.255615,-2.842773,-0.157715
1519481587995,0.149658,-2.046387,-0.085449
1519481588041,0.111084,-0.811768,0.054932
1519481588049,0.381348,-0.260010,0.102539
1519481588073,0.423096,0.070801,0.085938
1519481588106,0.700684,0.537842,0.126953
1519481588165,0.594482,0.427734,0.172363
1519481588173,0.766602,0.083252,0.207764
1519481588222,1.061768,-1.910156,-0.182861
1519481588225,1.200684,-3.528076,0.152344
1519481588256,0.206055,-3.541260,0.300781
1519481588315,-0.463135,-1.658936,0.303955
1519481588347,-0.506348,-0.977051,0.126709
1519481588379,-0.737549,-0.301025,0.059082
1519481588412,-0.599365,0.053711,-0.006592
1519481588446,-0.500732,0.180176,0.006836
1519481588478,-0.573242,0.301025,-0.023926
1519481588508,-0.623535,0.231934,-0.094971
1519481588542,-0.684570,-0.270264,-0.248291
1519481588575,-0.647217,-2.674561,-0.454102
1519481588607,0.435791,-3.652344,-0.051514
1519481588615,0.226074,-2.838867,-0.192139
1519481588665,-0.053223,-1.483643,-0.063965
1519481588697,0.166016,-0.543457,0.079346
1519481588703,0.364990,-0.047363,0.108154
1519481588761,0.579834,0.332764,0.046143
1519481588795,0.555420,0.543945,0.096436
1519481588827,0.680664,0.392822,0.046631
1519481588833,0.711670,0.220459,0.041504
1519481588891,0.391846,-2.016113,0.047852
1519481588925,0.567383,-3.464111,0.190430
1519481588957,-0.215820,-3.417236,0.505371
1519481588989,-0.537109,-1.945557,0.270264
1519481589023,-0.583252,-0.904297,0.047852
1519481589032,-0.550293,-0.392090,-0.003418
1519481589080,-0.438477,0.083740,-0.009033
1519481589113,-0.426758,0.331787,-0.028320
1519481589119,-0.551270,0.506348,-0.025391
1519481589176,-0.700928,-0.027588,-0.166260
1519481589209,-1.001709,-0.636230,-0.482422
1519481589242,-1.316406,-2.350586,-0.843750
1519481589273,-0.027832,-2.641846,-1.005371
1519481589319,-0.527100,-1.668457,-0.373779
1519481589321,-0.447998,-1.378662,-0.307617
1519481589353,-0.157959,-0.709229,-0.067871
1519481589386,0.161133,-0.181885,-0.080322
1519481589446,0.426514,0.103027,-0.017578
1519481589454,0.492432,0.369629,0.272705
1519481589507,0.568848,0.108643,0.273193
1519481589538,0.497803,-0.311035,0.083252
1519481589571,0.086914,-1.617188,0.002686
1519481589605,0.208008,-2.639893,-0.209961
1519481589612,-0.497559,-3.066650,0.393066
1519481589662,-0.515869,-1.926514,-0.031738
1519481589694,-0.592285,-1.060791,0.067383
1519481589699,-0.730225,-0.399170,0.073242
1519481589758,-0.559326,-0.038818,0.005859
1519481589792,-0.514893,0.208252,-0.012207
1519481589803,-0.658447,0.385742,-0.000244
1519481589860,-0.656494,0.121826,-0.018066
1519481589869,-0.725342,-0.446045,-0.259277
1519481589923,-1.203613,-1.913574,-0.548828
1519481589955,-0.273682,-2.974365,-0.273926
1519481589988,-0.269043,-2.715088,-0.331055
1519481590020,0.012939,-1.665771,-0.339844
1519481590053,0.346191,-0.633789,-0.103516
1519481590084,0.524658,-0.188477,-0.014160
1519481590118,0.740723,0.030029,-0.000977
1519481590151,0.696533,0.212402,0.269043
1519481590183,0.646729,0.167480,0.324951
1519481590188,0.570313,-0.131592,0.339600
1519481590241,0.294922,-1.800049,0.419922
1519481590247,0.319092,-2.637695,0.226318
1519481590305,-0.062500,-3.046631,0.412842
1519481590335,-0.328125,-1.996094,0.642334
1519481590368,-0.439941,-1.325684,0.291016
1519481590400,-0.498779,-0.612061,-0.016846
1519481590433,-0.390137,0.001465,-0.074707
1519481590466,-0.481445,0.298340,-0.045166
1519481590500,-0.505859,0.385010,-0.048096
1519481590533,-0.558594,0.156250,-0.078125
1519481590566,-0.344482,-0.598145,-0.094238
1519481590573,-0.311523,-1.731689,0.006104
1519481590625,0.129639,-2.539307,0.061279
1519481590657,0.081055,-2.821777,0.055664
1519481590662,0.078125,-2.131836,0.242188
1519481590718,0.056152,-1.030029,0.367676
1519481590752,0.359131,-0.610596,0.244873
1519481590766,0.785156,-0.102051,0.213623
1519481590822,0.669678,0.768799,0.180176
1519481590832,0.516357,0.594971,0.038330
1519481590883,0.371338,0.420410,-0.022705
1519481590917,0.134521,-0.400146,0.392334
1519481590951,0.373779,-2.994141,0.758545
1519481590981,0.797363,-3.426758,1.058350
1519481591014,-0.032715,-2.408447,1.467285
1519481591046,-0.209717,-1.386963,0.813477
1519481591078,-0.591797,-0.616211,0.439941
1519481591111,-0.743408,0.440430,-0.017578
1519481591145,-0.614014,0.518066,-0.156982
1519481591153,-0.791016,0.266602,-0.220703
1519481591203,-0.769531,0.315918,-0.215088
1519481591236,-0.596436,0.327393,-0.219727
1519481591250,-0.530029,-0.477295,-0.220459
1519481591307,-0.011963,-3.885742,0.746582
1519481591312,1.307129,-3.479004,0.674561
1519481591368,0.481689,-2.735596,0.427246
1519481591400,0.309814,-1.062988,0.473389
1519481591433,0.287842,-0.474365,0.408936
1519481591465,0.281006,-0.004883,0.194092
1519481591497,0.500488,0.628906,0.199463
1519481591529,0.295166,0.641602,0.233887
1519481591564,0.298096,0.522949,0.017334
1519481591597,0.339600,0.227051,0.068115
1519481591629,0.528564,-1.022949,0.419678
1519481591661,1.576172,-3.098389,0.673340
1519481591692,1.145264,-3.075195,1.208984
1519481591724,0.188721,-1.579834,0.894043
1519481591728,-0.232178,-0.976074,0.480957
1519481591760,-0.625000,-0.367188,0.173584
1519481591859,-0.698242,-0.082275,0.161377
1519481591861,-0.693115,0.177979,0.072266
1519481591928,-0.881836,0.222412,-0.045654
1519481591932,-0.799316,0.024414,-0.071533
1519481591996,-0.704834,-0.865479,-0.071045
1519481592001,0.283203,-4.508057,0.521240
1519481592063,1.373047,-3.762939,0.624023
1519481592068,0.820313,-2.199219,0.145752
1519481592130,0.503174,-0.833496,0.074219
1519481592133,0.465332,-0.191895,0.049316
1519481592197,0.400391,0.289795,-0.119141
1519481592200,0.324707,0.496094,-0.131836
1519481592266,0.212891,0.558350,-0.011230
1519481592274,0.288818,0.465820,-0.002930
1519481592334,0.578857,0.024170,0.119629
1519481592343,0.715332,-2.028564,0.422852
1519481592358,1.329346,-3.401123,0.565430
1519481592367,0.097900,-2.963135,1.157227
1519481592390,-0.149658,-1.932373,0.619385
1519481592424,-0.279785,-1.038330,0.358154
1519481592456,-0.594238,-0.092041,0.124268
1519481592487,-0.626709,0.422607,0.052246
1519481592521,-0.797119,0.497803,-0.047119
1519481592561,-0.919922,0.480225,-0.398926
1519481592595,-0.831299,0.030518,-0.475098
1519481592603,-0.466064,-1.650391,-0.438477
1519481592653,-0.520020,-3.688477,0.002441
1519481592687,0.603760,-3.278076,0.247070
1519481592696,0.644287,-2.329102,0.143555
1519481592747,0.359131,-1.042480,0.321045
1519481592781,0.402344,-0.571289,0.400879
1519481592812,0.551758,-0.293701,0.329834
1519481592845,0.681396,0.142090,0.229492
1519481592853,0.411377,0.247559,0.267090
1519481592909,0.337891,0.391357,0.100830
1519481592942,0.247559,0.207520,0.248291
1519481592956,0.537842,-0.836182,0.375244
1519481593014,0.979980,-2.906494,0.710449
1519481593022,0.689453,-3.022705,0.941162
1519481593076,-0.103027,-2.073975,0.763428
1519481593108,-0.382324,-1.323242,0.475586
1519481593161,-0.564209,-0.709473,0.273682
1519481593169,-0.732910,-0.315186,0.106201
1519481593172,-0.852539,0.036377,-0.061279
1519481593227,-1.067871,0.205078,-0.347412
1519481593260,-0.990723,0.076660,-0.267334
1519481593293,-0.781494,-0.415771,-0.210938
1519481593326,-0.525879,-2.300781,0.046387
1519481593358,0.104492,-3.587891,0.722412
1519481593372,0.887939,-2.934326,0.669189
1519481593428,0.517334,-1.800537,0.508545
1519481593433,0.488281,-0.878662,0.448486
1519481593491,0.501709,-0.216797,0.331299
1519481593523,0.431885,0.127441,0.189453
1519481593556,0.468018,0.325439,0.065186
1519481593588,0.385498,0.461670,0.076904
1519481593621,0.387451,0.262207,0.074951
1519481593655,0.527832,-0.278809,0.320557
1519481593663,0.805908,-2.184082,0.748779
1519481593714,1.227295,-2.493164,0.960693
1519481593718,0.446777,-2.334229,0.858398
1519481593775,-0.099854,-1.635742,0.750488
1519481593789,-0.462158,-0.870605,0.318115
1519481593819,-0.740479,-0.307617,0.093994
1519481593852,-0.887939,-0.079346,-0.030029
1519481593885,-1.010498,0.002930,-0.164551
1519481593919,-1.112061,0.005371,-0.224854
1519481593975,-0.757813,-0.237793,-0.093018
1519481594010,-0.468262,-1.572998,0.126953
1519481594018,0.174805,-2.150391,0.479004
1519481594071,0.573730,-3.720215,1.049072
1519481594103,1.241211,-2.316895,0.553467
1519481594137,0.750488,-1.382080,0.624512
1519481594144,0.474854,-0.699463,0.425293
1519481594195,0.322998,-0.056885,0.218506
1519481594202,0.391602,0.208984,0.127441
1519481594234,0.287842,0.314697,0.144043
1519481594292,0.197266,0.403564,0.097168
1519481594301,0.229004,0.196289,0.152100
1519481594355,0.495361,-0.729980,0.593018
1519481594387,1.324951,-2.848389,0.817383
1519481594440,0.910156,-3.022705,1.026367
1519481594443,0.241211,-2.068115,0.942383
1519481594475,-0.216309,-0.992676,0.487793
1519481594508,-0.447754,-0.586670,0.411621
1519481594539,-0.579346,-0.141846,0.246582
1519481594572,-0.598389,0.202637,0.021240
1519481594605,-0.655518,0.233398,-0.126953
1519481594640,-0.815186,0.255127,-0.192627
1519481594673,-0.452148,-0.225586,-0.002686
1519481594705,-0.190918,-2.886475,0.502930
1519481594737,0.556152,-3.313477,0.869873
1519481594770,0.254883,-2.692871,0.895264
1519481594803,0.225098,-1.690430,0.583984
1519481594836,0.273682,-0.848389,0.380615
1519481594869,0.292969,-0.221680,0.233398
1519481594901,0.494629,0.154297,0.158691
1519481594934,0.537842,0.326416,0.155762
1519481594967,0.298828,0.588135,0.063721
1519481594999,0.422607,0.514404,0.047607
1519481595031,0.534912,-0.073730,0.382080
1519481595063,0.859375,-2.391602,0.861572
1519481595094,0.874023,-3.188477,1.162598
1519481595127,0.146240,-2.673096,1.075928
1519481595160,-0.292480,-1.323975,0.531494
1519481595169,-0.454102,-0.647461,0.270996
1519481595221,-0.556152,-0.244141,0.065674
1519481595254,-0.543213,0.177246,-0.075439
1519481595261,-0.597168,0.278320,-0.127441
1519481595319,-0.630371,0.302002,-0.165039
1519481595352,-0.556152,0.009521,-0.115479
1519481595384,-0.563721,-1.429443,0.049072
1519481595398,0.477783,-4.396729,0.596436
1519481595429,0.437500,-3.151855,0.495117
1519481595461,0.098145,-1.669434,0.257813
1519481595494,0.067627,-0.785156,0.238281
1519481595553,0.201904,-0.128174,0.162842
1519481595584,0.405518,0.308838,0.080566
1519481595589,0.508057,0.523193,-0.065674
1519481595646,0.391357,0.507813,0.021484
1519481595679,0.532227,0.278320,0.012451
1519481595687,0.489990,-0.495361,0.311768
1519481595744,0.631348,-3.008545,0.787354
1519481595747,0.473389,-3.255371,0.923828
1519481595779,-0.287354,-2.340576,0.942871
1519481595845,-0.446045,-1.137695,0.445313
1519481595848,-0.476074,-0.541504,0.252197
1519481595879,-0.480225,-0.080078,0.034424
1519481595912,-0.491211,0.190674,-0.106934
1519481595944,-0.666260,0.240234,-0.178711
1519481596002,-0.890869,0.353516,-0.279541
1519481596011,-0.876953,0.056885,-0.088135
1519481596066,-0.875488,-2.174561,0.194824
1519481596097,-0.815430,-3.936523,0.521973
1519481596129,0.607666,-3.470459,0.660156
1519481596163,0.450684,-2.297363,0.488037
1519481596171,0.554932,-1.120361,0.244629
1519481596226,0.603271,-0.157715,0.125488
1519481596259,0.717285,0.143066,0.129639
1519481596264,0.707764,0.302002,0.135498
1519481596318,0.564697,0.512207,0.179932
1519481596326,0.475586,0.666992,0.169434
1519481596383,0.361816,-0.102539,0.429688
1519481596416,0.582275,-2.754883,0.958740
1519481596424,0.534912,-3.740479,1.008057
1519481596479,-0.242432,-2.825195,0.734375
1519481596511,-0.560303,-1.163574,0.403809
1519481596544,-0.584229,-0.372070,0.092285
1519481596580,-0.565430,0.208984,-0.160156
1519481596593,-0.588623,0.286133,-0.269043
1519481596626,-0.520996,0.298828,-0.275391
1519481596659,-0.525391,0.273193,-0.202881
1519481596692,-0.447754,-0.253418,-0.060059
1519481596724,-0.611572,-1.465576,0.075195
1519481596756,-0.797119,-2.677979,0.398926
1519481596790,0.273926,-3.520752,0.708252
1519481596862,0.266357,-2.777832,0.422607
1519481596870,0.207275,-1.400391,0.412109
1519481596928,0.353027,-0.284668,0.295166
1519481596931,0.393799,-0.036621,0.118408
1519481596996,0.541992,0.434814,0.025879
1519481597066,0.335449,0.623779,0.038818
1519481597131,0.403320,0.583984,-0.089600
1519481597137,0.514648,0.377441,-0.104736
1519481597198,0.534424,-2.437500,0.471191
1519481597201,0.806641,-3.220947,0.525146
1519481597267,-0.046387,-3.479736,0.784668
1519481597272,-0.328857,-1.780762,0.870117
1519481597333,-0.310547,-0.834229,0.432373
1519481597336,-0.480957,-0.218506,0.226563
1519481597358,-0.492676,0.030518,0.050781
1519481597361,-0.522705,0.212646,-0.257324
1519481597364,-0.757324,0.413330,-0.390137
1519481597367,-0.733643,0.182373,-0.161133
1519481597394,-0.661865,-0.261475,-0.097900
1519481597436,-0.747559,-3.568359,-0.135986
1519481597468,0.455811,-3.385986,0.763672
1519481597501,0.246338,-2.458252,0.258301
1519481597538,-0.102051,-1.191895,0.182129
1519481597570,-0.079834,-0.481445,0.115967
1519481597601,0.131348,-0.251221,0.079346
1519481597633,0.340820,0.104980,-0.076416
1519481597667,0.403320,0.363281,-0.108154
1519481597698,0.412598,0.371826,0.173096
1519481597702,0.576172,0.219238,0.131104
1519481597758,0.971924,-0.294922,0.287109
1519481597791,1.645752,-4.172119,-0.198486
1519481597825,1.090332,-3.979736,1.006592
1519481597866,-0.290527,-2.489014,0.702637
1519481597874,-0.503418,-1.079102,0.236816
1519481597925,-0.762939,-0.587158,0.285156
1519481597958,-0.922852,-0.233643,0.191895
1519481597990,-0.890137,0.186279,-0.007324
1519481597998,-0.813965,0.399658,-0.033447
1519481598054,-0.736816,0.358398,-0.133057
1519481598087,-0.549316,-0.007813,-0.163086
1519481598118,-0.454590,-1.025391,0.011475
1519481598152,-0.623779,-3.429932,0.152344
1519481598185,0.405762,-3.489502,0.441162
1519481598193,0.372314,-2.422119,0.303467
1519481598243,0.143311,-1.099365,0.079102
1519481598281,0.178223,-0.451904,0.133545
1519481598289,0.336670,-0.190430,0.110840
1519481598339,0.460205,0.325684,0.033447
1519481598373,0.547607,0.528320,0.055420
1519481598404,0.560547,0.573730,0.030029
1519481598437,0.502686,0.110596,0.016113
1519481598470,0.559082,-0.933350,0.315674
1519481598504,0.111328,-2.473389,0.634766
1519481598540,0.359619,-2.902344,0.673584
1519481598569,-0.161865,-2.794434,0.853027
1519481598603,0.021973,-1.532227,0.510742
1519481598636,-0.229492,-0.733398,0.201416
1519481598650,-0.505371,-0.161865,0.114746
1519481598683,-0.689697,0.100586,-0.075195
1519481598738,-1.063232,0.506104,-0.281250
1519481598742,-0.908447,0.426514,-0.228027
1519481598772,-0.584473,-0.074219,-0.141357
1519481598830,-0.793213,-3.049805,0.340088
1519481598833,0.945557,-4.261230,0.875244
1519481598864,0.572510,-3.124268,0.600586
1519481598923,0.221436,-1.105225,0.485107
1519481598955,0.396484,-0.375488,0.276123
1519481598987,0.466309,0.170898,0.197266
1519481598994,0.644775,0.605957,-0.024414
1519481599052,0.568115,0.667969,-0.010986
1519481599065,0.407471,0.456055,0.012695
1519481599097,0.479248,-0.196289,0.021240
1519481599154,0.139404,-1.422852,0.372803
1519481599159,0.487549,-3.463867,0.409424
1519481599213,0.309570,-3.360107,0.963135
1519481599245,-0.074951,-1.852295,0.845215
1519481599251,-0.024414,-1.037109,0.392090
1519481599307,-0.382568,0.005615,0.313232
1519481599316,-0.606201,0.113770,0.299316
1519481599369,-0.802002,0.421387,-0.031982
1519481599402,-1.041992,0.545166,-0.272705
1519481599435,-0.830322,0.169922,-0.200195
1519481599446,-0.547363,-1.765625,0.120117
1519481599502,-0.334717,-3.799072,0.995605
1519481599534,0.670654,-4.086670,1.108643
1519481599560,1.102051,-2.322266,0.456299
1519481599592,0.535645,-0.685547,0.195557
1519481599624,0.525879,-0.200195,0.096924
1519481599658,0.555908,0.163330,0.040771
1519481599691,0.619629,0.502930,-0.113037
1519481599724,0.441650,0.350098,-0.015381
1519481599734,0.196289,0.344971,0.058594
1519481599787,0.237549,-0.163086,0.203857
1519481599820,0.332275,-1.697754,0.648193
1519481599829,0.528564,-2.847412,1.076172
1519481599882,0.391113,-2.849121,1.069824
1519481599896,-0.211670,-1.747559,0.922119
1519481599929,-0.425781,-0.960938,0.704346
1519481599962,-0.639404,-0.177246,0.339600
1519481599995,-0.752686,0.245361,0.083008
1519481600027,-0.759521,0.470215,-0.023682
1519481600060,-0.744385,0.306396,-0.129150
1519481600117,-0.786377,-0.086426,-0.100098
1519481600148,-0.641357,-1.005859,0.120850
1519481600181,-0.730225,-2.997559,0.664063
1519481600184,0.596680,-3.104980,0.850342
1519481600214,0.383057,-2.829346,0.712891
1519481600272,0.138916,-1.002441,0.308594
1519481600275,0.168945,-0.413574,0.169189
1519481600320,0.248779,-0.144531,0.040527
1519481600352,0.351074,0.205322,0.026367
1519481600386,0.297607,0.370361,0.130127
1519481600423,0.343750,0.322021,0.089111
1519481600456,0.518555,0.032227,0.149170
1519481600488,0.531738,-1.401855,0.812012
1519481600520,0.426514,-2.184814,0.920410
1519481600553,0.156006,-2.770752,1.166260
1519481600584,-0.316650,-2.084961,1.075684
1519481600615,-0.393799,-1.077881,0.612793
1519481600649,-0.561768,-0.214844,0.185791
1519481600681,-0.705322,0.006104,0.084961
1519481600695,-0.717285,0.314453,0.026123
1519481600753,-0.859375,0.453857,-0.057861
1519481600759,-0.795654,0.313232,-0.030762
1519481600792,-0.657471,-0.513916,0.128906
1519481600842,0.177979,-4.104004,0.962158
1519481600872,0.852539,-3.389648,0.990723
1519481600904,0.470947,-2.307617,0.566406
1519481600937,0.072021,-1.047119,0.320801
1519481600970,0.075195,-0.479248,0.239502
1519481601002,0.227539,-0.087646,0.169922
1519481601035,0.350830,0.265381,0.036377
1519481601070,0.383789,0.397217,0.023193
1519481601102,0.426758,0.419189,0.075684
1519481601142,0.488037,0.160400,-0.013916
1519481601174,0.825195,-0.495605,0.311279
1519481601182,0.739746,-2.446533,0.997559
1519481601233,0.691162,-3.156738,1.546143
1519481601265,-0.124512,-2.603027,1.208496
1519481601272,-0.375000,-1.304688,0.620850
1519481601330,-0.663086,-0.545166,0.205078
1519481601362,-0.662598,-0.189941,0.065430
1519481601399,-0.595215,0.215332,-0.115967
1519481601430,-0.519775,0.214111,-0.173340
1519481601437,-0.585205,0.223145,-0.285645
1519481601494,-0.604492,-0.056641,-0.194092
1519481601508,-0.752930,-1.713135,0.193604
1519481601541,0.156250,-4.093994,0.650146
1519481601575,0.488770,-3.208984,0.746338
1519481601605,0.051025,-1.529053,0.337158
1519481601638,0.044678,-0.778809,0.239502
1519481601669,0.121826,-0.438721,0.181152
1519481601727,0.463867,0.048096,0.093506
1519481601733,0.515869,0.417969,0.051025
1519481601761,0.458496,0.409912,0.058350
1519481601862,0.511475,0.337891,0.019531
1519481601871,0.462891,0.174316,0.343994
1519481601930,0.784912,-2.476074,0.683105
1519481601939,0.909668,-3.241211,1.469238
1519481601996,-0.069580,-2.476807,1.159424
1519481601999,-0.407227,-1.194336,0.551514
1519481602063,-0.654785,-0.403320,0.249756
1519481602067,-0.633545,0.032959,0.023438
1519481602131,-0.553955,0.337402,-0.125244
1519481602134,-0.512207,0.100830,-0.161377
1519481602199,-0.458984,0.059082,-0.172119
1519481602204,-0.531494,-0.229248,-0.112305
1519481602267,-0.641846,-2.490723,0.416748
1519481602272,-0.620117,-3.473633,0.654297
1519481602334,-0.065918,-3.216064,0.906250
1519481602342,0.138916,-1.722168,0.477783
1519481602352,0.164551,-0.784668,0.221924
1519481602361,0.269043,-0.279541,0.172607
1519481602384,0.432129,0.115723,0.050781
1519481602417,0.511230,0.330322,-0.109619
1519481602449,0.276123,0.343262,-0.042236
1519481602482,0.286865,0.080078,0.076660
1519481602514,0.389404,-0.524658,0.249756
1519481602548,0.210693,-1.972900,0.982178
1519481602581,0.242432,-2.079102,1.055176
1519481602614,0.026367,-2.308594,1.136230
1519481602646,-0.208740,-1.494141,0.970215
1519481602678,-0.514893,-0.601563,0.466553
1519481602711,-0.601563,-0.262451,0.326904
1519481602719,-0.543457,0.106689,0.183350
1519481602773,-0.656494,0.239990,0.060791
1519481602806,-0.619385,0.245117,0.021729
1519481602813,-0.556641,0.072266,-0.002686
1519481602870,-0.511719,-1.105225,0.013428
1519481602902,-0.456299,-3.382080,0.691650
1519481602935,0.488037,-3.065674,0.843262
1519481602968,0.113281,-2.026123,0.305664
1519481603002,0.127197,-0.964844,0.380127
1519481603034,0.221924,-0.578369,0.335938
1519481603066,0.519043,0.006592,0.185303
1519481603099,0.670898,0.268311,0.046631
1519481603130,0.504150,0.504883,0.099365
1519481603162,0.475830,0.436035,0.065674
1519481603196,0.389648,0.078613,0.333496
1519481603227,0.814697,-1.952881,0.637695
1519481603246,0.817627,-3.843994,1.347168
1519481603305,-0.079834,-2.957764,1.012207
1519481603313,-0.410400,-1.361816,0.475342
1519481603340,-0.610596,-0.364014,0.089111
1519481603373,-0.650635,-0.071289,0.005859
1519481603401,-0.608154,0.277588,-0.053467
1519481603433,-0.586182,0.330566,-0.095947
1519481603466,-0.555908,0.281982,-0.082520
1519481603499,-0.405762,0.065918,-0.103027
1519481603530,-0.499756,-2.078857,0.241943
1519481603568,-0.535156,-3.980957,1.040283
1519481603602,0.519043,-3.833740,0.869141
1519481603634,0.269775,-1.808105,0.416260
1519481603667,0.238281,-0.880615,0.195068
1519481603700,0.318359,-0.348633,0.121582
1519481603733,0.600098,0.119141,0.069824
1519481603764,0.739746,0.362549,-0.044189
1519481603797,0.608887,0.486328,0.036621
1519481603829,0.510986,0.396729,0.071045
1519481603861,0.495850,0.195801,0.113037
1519481603895,0.233154,-0.784180,0.817139
1519481603926,0.791748,-3.008301,1.242188
1519481603960,0.158447,-3.824951,1.363037
1519481603975,-0.482666,-2.118164,1.103027
1519481604032,-0.636719,-0.614258,0.432617
1519481604064,-0.665527,-0.148926,0.146973
1519481604097,-0.625244,0.216797,0.100586
1519481604130,-0.550781,0.388428,-0.053223
1519481604162,-0.580322,0.288330,-0.241455
1519481604167,-0.546143,0.043945,-0.158447
1519481604221,-0.479980,-1.780762,0.232910
1519481604253,-0.490234,-2.530518,0.410156
1519481604260,-0.358398,-3.070801,0.770020
1519481604316,0.423340,-2.136475,0.532227
1519481604348,0.143311,-1.191406,0.434326
1519481604381,0.107910,-0.632324,0.326660
1519481604424,0.447021,-0.069092,0.200195
1519481604432,0.693604,0.154297,0.128662
1519481604482,0.710693,0.429688,0.093018
1519481604516,0.456543,0.721436,-0.000732
1519481604548,0.354736,0.583252,0.012939
1519481604581,0.376221,-0.252930,0.287842
1519481604613,0.889160,-3.996094,1.334961
1519481604643,0.903809,-4.071533,1.041992
1519481604680,0.099854,-2.025391,0.890869
1519481604712,-0.464844,-0.730225,0.577637
1519481604744,-0.533447,-0.030029,0.321777
1519481604748,-0.720947,0.127930,0.158691
1519481604811,-0.694824,0.240234,-0.047363
1519481604845,-0.649658,0.268555,-0.077637
1519481604853,-0.556152,0.055664,-0.076416
1519481604879,-0.257324,-1.896729,0.334961
1519481604910,-0.073730,-2.927490,0.652588
1519481604968,0.356445,-3.463867,0.834717
1519481604978,0.517334,-1.938232,0.657471
1519481605028,0.346436,-1.164307,0.570801
1519481605061,0.258301,-0.525635,0.304443
1519481605093,0.216553,-0.251953,0.126221
1519481605128,0.427246,0.117432,-0.016846
1519481605160,0.467773,0.237305,-0.111084
1519481605173,0.371826,0.386963,-0.162598
1519481605205,0.285645,0.436279,-0.128174
1519481605242,0.349365,0.192871,-0.002441
1519481605276,0.827393,-1.968262,0.670898
1519481605308,1.710205,-3.392090,1.348877
1519481605339,0.620361,-3.503174,1.156494
1519481605372,-0.145264,-1.515869,0.926025
1519481605405,-0.363281,-0.818848,0.743896
1519481605437,-0.601807,-0.417236,0.542969
1519481605468,-0.602783,0.126953,0.260010
1519481605502,-0.589844,0.268799,0.088135
1519481605536,-0.613281,0.365479,0.030029
1519481605569,-0.594238,0.291260,-0.010254
1519481605609,-0.588623,0.057373,-0.028320
1519481605640,-0.627441,-2.285400,0.215332
1519481605674,1.858887,-4.514160,1.111084
1519481605707,0.686279,-3.050537,0.596680
1519481605716,0.338867,-1.383057,0.330811
1519481605763,0.564209,-0.359375,0.050781
1519481605796,0.572998,0.222412,0.040771
1519481605801,0.569580,0.507813,0.062500
1519481605858,0.586914,0.483398,-0.006592
1519481605892,0.419678,0.446289,0.040039
1519481605926,0.241211,0.393799,0.028809
1519481605962,0.205078,0.002197,-0.011963
1519481605971,0.250244,-0.554688,0.386719
1519481606009,0.129150,-1.736816,0.818115
1519481606042,1.162354,-2.664307,0.862793
1519481606074,0.576416,-3.352051,1.319092
1519481606105,0.374268,-1.989258,1.222900
1519481606139,-0.200684,-0.952148,0.737061
1519481606170,-0.481445,-0.718262,0.552734
1519481606205,-0.560547,-0.346680,0.324219
1519481606238,-0.783447,0.414307,-0.067139
1519481606270,-0.783936,0.359375,-0.137451
1519481606303,-0.718506,0.295898,-0.030273
1519481606362,-0.427979,-0.293701,-0.089111
1519481606370,-0.379639,-1.652344,0.330811
1519481606396,-0.023438,-3.908936,1.035156
1519481606453,1.277832,-3.079346,0.807617
1519481606462,0.500977,-1.944092,0.802490
1519481606488,0.405273,-1.003174,0.579102
1519481606542,0.519287,-0.169922,0.378174
1519481606577,0.699951,0.272705,0.297119
1519481606582,0.535889,0.850830,0.259521
1519481606641,0.414795,0.792969,0.037842
1519481606674,0.596924,0.533447,0.082275
1519481606707,0.763916,-0.364746,0.405762
1519481606738,1.533447,-2.949951,1.026855
1519481606741,1.119629,-3.543945,1.168213
1519481606771,0.343994,-2.592285,1.037109
1519481606852,-0.387695,-0.756104,0.514160
1519481606855,-0.866455,-0.218262,0.291016
1519481606920,-0.826660,0.097168,0.230225
1519481606926,-0.846924,0.768066,-0.228271
1519481606989,-1.043701,0.842285,-0.366699
1519481606997,-0.987061,-0.057129,-0.114990
1519481607056,-0.144775,-1.414795,0.051514
1519481607065,0.201660,-4.156982,0.739014
1519481607124,0.979736,-4.287598,0.730957
1519481607133,1.425049,-2.615723,0.631104
1519481607191,0.905518,-1.679932,0.476074
1519481607258,0.613525,-0.865967,0.257813
1519481607325,0.622803,0.115234,0.093262
1519481607328,0.549561,0.822266,-0.097168
1519481607353,0.403564,1.029541,-0.065430
1519481607358,0.336182,0.991699,0.070068
1519481607363,0.382568,0.479004,0.015381
1519481607368,0.419678,-0.289795,0.699219
1519481607396,1.705811,-3.607178,1.248047
1519481607430,1.385498,-3.680664,1.377197
1519481607462,0.400146,-2.244873,0.996094
1519481607495,-0.266602,-0.969727,0.475098
1519481607528,-0.579102,-0.183594,0.193115
1519481607560,-0.688965,0.157227,0.099365
1519481607592,-0.822510,0.498535,-0.188721
1519481607632,-0.816406,0.404297,-0.244141
1519481607664,-0.699707,0.260742,-0.101563
1519481607697,-0.500000,-0.513916,0.051025
1519481607730,-0.316650,-2.680664,0.787354
1519481607735,0.165527,-4.257813,1.253174
1519481607789,0.848389,-2.973633,0.938477
1519481607823,0.555908,-1.213379,0.488281
1519481607831,0.281738,-0.493164,0.118164
1519481607885,0.366699,0.096191,-0.153320
1519481607918,0.447998,0.328369,-0.222900
1519481607951,0.477051,0.576416,-0.302246
1519481607982,0.347168,0.551270,-0.166748
1519481608015,0.272705,0.512207,-0.021973
1519481608029,0.592529,0.250732,-0.021484
1519481608061,0.678467,-2.617920,0.969727
1519481608120,1.209229,-3.427246,1.065674
1519481608131,0.166260,-3.212646,1.165771
1519481608163,-0.296387,-1.438965,0.656494
1519481608196,-0.496582,-0.690430,0.420166
1519481608229,-0.593994,-0.283203,0.204102
1519481608261,-0.630615,0.150146,0.023438
1519481608293,-0.489502,0.204102,0.013184
1519481608326,-0.537842,0.230469,0.070313
1519481608357,-0.580078,0.138184,0.029053
1519481608390,-0.557617,-0.288574,0.071777
1519481608422,-0.530762,-4.308594,1.110596
1519481608455,0.885498,-4.307861,1.078857
1519481608488,0.323730,-1.998535,0.560547
1519481608521,-0.002686,-1.233887,0.268066
1519481608554,0.140381,-0.394043,0.068359
1519481608587,0.295654,0.122803,-0.038330
1519481608619,0.480957,0.334229,-0.131104
1519481608651,0.423096,0.508057,-0.102539
1519481608684,0.352051,0.488281,-0.106201
1519481608716,0.347168,0.365479,-0.325195
1519481608748,0.459961,-2.266602,0.611328
1519481608781,0.812744,-3.260986,1.381348
1519481608813,-0.110352,-3.445068,1.556396
1519481608855,-0.491943,-1.386719,0.757324
1519481608858,-0.517578,-0.553711,0.240234
1519481608914,-0.626465,-0.037598,0.043945
1519481608948,-0.623779,0.245850,-0.118896
1519481608980,-0.420410,0.356201,-0.119385
1519481609013,-0.403564,0.303711,-0.090088
1519481609045,-0.423096,0.157227,-0.101318
1519481609079,-0.397461,-0.227539,-0.016846
1519481609114,-0.614258,-2.652344,0.528076
1519481609147,0.399658,-4.468018,1.214111
1519481609154,0.404785,-3.105469,0.580322
1519481609210,0.054199,-1.251953,0.337646
1519481609224,0.149658,-0.500000,0.165283
1519481609257,0.218018,-0.074951,0.117432
1519481609289,0.455566,0.370361,0.051514
1519481609347,0.525635,0.524902,-0.025635
1519481609356,0.459473,0.555664,0.068604
1519481609381,0.621582,0.401611,-0.031494
1519481609439,0.838379,-0.486572,0.339844
1519481609447,0.989990,-3.072510,0.848633
1519481609496,0.863525,-3.271729,0.973145
1519481609529,-0.409180,-2.183350,0.610107
1519481609561,-0.529785,-1.475586,0.404297
1519481609594,-0.607910,-0.693115,0.043457
1519481609627,-0.565430,-0.292480,-0.044434
1519481609641,-0.519043,-0.028809,0.072998
1519481609674,-0.633301,0.008789,-0.108887
1519481609732,-0.721924,0.024902,-0.129639
1519481609764,-0.600586,-0.339355,-0.068848
1519481609773,-0.296143,-1.538086,-0.154541
1519481609826,-0.167725,-3.636230,0.575195
1519481609831,0.709961,-4.106201,0.766602
1519481609860,0.638672,-2.029785,0.423828
1519481609892,0.125488,-0.783447,0.175781
1519481609925,0.223389,-0.452881,0.228516
1519481609959,0.235107,-0.073730,0.159424
1519481609992,0.350098,0.528320,0.063232
1519481610025,0.378174,0.660645,-0.072998
1519481610072,0.367676,0.643555,-0.059814
1519481610103,0.732422,0.410156,-0.120361
1519481610136,0.757080,-0.161621,0.774658
1519481610144,1.003662,-3.936279,0.575684
1519481610196,0.327881,-3.766113,0.947021
1519481610229,-0.333496,-2.619629,0.582520
1519481610236,-0.358643,-1.086182,0.293701
1519481610292,-0.628174,-0.412842,0.086426
1519481610324,-0.687988,-0.022461,-0.011475
1519481610359,-0.843750,0.352539,-0.206299
1519481610392,-0.876465,0.292480,-0.315918
1519481610423,-0.847412,0.258545,-0.170410
1519481610437,-0.666504,-0.051758,-0.124756
1519481610471,-0.850098,-3.387451,0.546875
1519481610528,0.511719,-4.303223,1.189697
1519481610560,1.028320,-3.271729,0.664551
1519481610569,0.217041,-1.728516,0.493164
1519481610623,0.294434,-0.748535,0.181641
1519481610658,0.408447,-0.005371,-0.007080
1519481610688,0.570557,0.546631,-0.072998
1519481610720,0.338867,0.805908,-0.014893
1519481610727,0.296875,0.667725,-0.078369
1519481610779,0.340576,0.302002,-0.094482
1519481610812,0.414063,-0.655029,0.341797
1519481610818,0.192139,-2.057373,0.920166
1519481610874,0.148438,-2.700684,0.881836
1519481610906,-0.479736,-3.134766,0.889648
1519481610939,-0.363281,-1.557129,0.595459
1519481610971,-0.513184,-0.518555,0.427490
1519481611003,-0.552734,-0.052002,0.309814
1519481611040,-0.619629,0.371582,0.053223
1519481611080,-0.759766,0.497314,-0.278809
1519481611083,-0.888428,0.436035,-0.254150
1519481611142,-0.675293,0.138428,-0.295898
1519481611151,-0.911865,-1.527344,0.351074
1519481611204,-0.997559,-4.099854,1.226318
1519481611238,0.607422,-4.056641,1.174072
1519481611252,-0.295166,-2.173096,0.810303
1519481611285,0.206299,-0.981689,0.433594
1519481611315,0.388916,-0.203613,0.267334
1519481611347,0.660889,0.252930,0.229492
1519481611380,0.761230,0.589844,0.052490
1519481611412,0.581543,0.756592,-0.063232
1519481611445,0.397949,0.483887,-0.030518
1519481611478,0.452148,0.118408,0.044434
1519481611512,0.212891,-1.497559,0.560547
1519481611545,0.450928,-4.154297,1.133057
1519481611576,-0.259277,-3.637207,1.018799
1519481611609,-0.687744,-1.812012,0.767334
1519481611641,-0.934326,-0.359619,0.374512
1519481611683,-0.806641,-0.182617,0.260498
1519481611692,-0.641113,0.247314,0.000244
1519481611740,-0.488037,0.570313,-0.064697
1519481611772,-0.612061,0.529053,-0.099609
1519481611779,-0.631348,0.379395,-0.140137
1519481611851,-0.724609,-0.347656,0.039795
1519481611861,-0.767578,-4.828369,1.389160
1519481611920,0.044922,-4.136963,1.045898
1519481611929,-0.233887,-2.195801,0.657471
1519481611988,0.152344,-0.903320,0.327881
1519481611996,0.376709,-0.284668,0.162354
1519481612055,0.833740,0.353516,0.043945
1519481612124,0.914063,0.672119,-0.101807
1519481612189,0.840576,0.698242,-0.018555
1519481612195,0.580811,0.484863,-0.067871
1519481612257,0.824707,-0.319336,0.147461
1519481612266,0.836426,-4.087158,1.169678
1519481612324,-0.429688,-4.067871,1.268555
1519481612334,-1.088623,-2.169678,0.896729
1519481612342,-0.948242,-0.656982,0.410889
1519481612350,-0.911621,0.139893,0.056396
1519481612358,-0.618408,0.328125,-0.041260
1519481612367,-0.555908,0.462158,-0.053223
1519481612420,-0.684570,0.358398,-0.173828
1519481612451,-0.651611,0.168457,-0.253418
1519481612464,-0.547119,-0.400879,-0.091064
1519481612497,-0.770996,-3.232422,0.703125
1519481612530,0.115723,-4.988037,1.136475
1519481612563,1.117432,-2.661377,0.439453
1519481612596,0.359375,-1.254395,0.413818
1519481612629,0.203857,-0.447510,0.248291
1519481612661,0.375000,-0.066650,0.260254
1519481612719,0.575684,0.229492,0.182617
1519481612751,0.574463,0.417725,0.115234
1519481612761,0.345703,0.561279,0.121582
1519481612814,0.346680,0.339355,0.082520
1519481612846,0.654541,-0.271973,0.555908
1519481612849,1.062012,-2.599365,0.627686
1519481612880,0.449219,-3.620850,0.855713
1519481612913,-0.133057,-2.424805,0.875488
1519481612949,-0.491211,-0.971436,0.560547
1519481612982,-0.722412,-0.332520,0.181396
1519481613016,-0.814697,-0.008545,0.096191
1519481613048,-0.710205,0.320557,-0.030029
1519481613078,-0.782959,0.364990,-0.167236
1519481613112,-0.789307,0.306641,-0.109131
1519481613146,-0.654297,0.051270,-0.158203
1519481613180,-0.743408,-3.179199,0.548340
1519481613211,0.467529,-4.927734,0.908203
1519481613242,0.736572,-3.302734,0.681641
1519481613282,0.319336,-1.551270,0.513672
1519481613313,0.259521,-0.603516,0.341309
1519481613346,0.270996,-0.067871,0.182617
1519481613380,0.536377,0.243164,-0.041748
1519481613413,0.532471,0.420654,0.024658
1519481613446,0.472656,0.520996,0.028564
1519481613479,0.678955,0.490723,-0.150635
1519481613511,0.714600,0.191406,0.123291
1519481613543,0.498779,-1.521729,0.416748
1519481613573,0.924805,-4.432129,0.898438
1519481613607,-0.044922,-3.306396,0.986328
1519481613640,-0.477539,-1.747070,0.539063
1519481613674,-0.573486,-0.781006,0.281006
1519481613716,-0.646973,-0.090088,0.175293
1519481613724,-0.619629,0.214355,0.082275
1519481613774,-0.545410,0.449463,-0.048828
1519481613805,-0.462891,0.532471,-0.055908
1519481613808,-0.487549,0.472656,0.030762
1519481613865,-0.127930,-0.432617,0.234619
1519481613898,-0.254883,-4.002686,0.215576
1519481613907,1.201904,-4.342773,0.354980
1519481613964,0.306152,-2.304443,0.291016
1519481613970,0.157715,-1.179199,0.181152
1519481614027,0.263184,-0.487549,0.198975
1519481614060,0.293213,0.031250,0.140869
1519481614093,0.440674,0.179199,0.013428
1519481614106,0.510254,0.572998,-0.022217
1519481614140,0.344727,0.592773,0.059082
1519481614172,0.355713,0.425049,-0.096680
1519481614204,0.398926,0.027344,0.437256
1519481614263,1.743408,-4.455566,0.207031
1519481614293,0.531006,-4.152588,0.538086
1519481614297,-0.353027,-2.358154,0.421631
1519481614354,-0.554443,-0.797607,0.279053
1519481614385,-0.604736,-0.264648,0.161865
1519481614388,-0.651123,0.063721,0.088867
1519481614444,-0.621338,0.472900,-0.003906
1519481614476,-0.651855,0.431885,-0.070801
1519481614510,-0.623291,0.205322,-0.069824
1519481614524,-0.620361,-0.473877,0.108643
1519481614557,-0.551758,-2.506836,0.077393
1519481614590,-0.440674,-3.741943,0.219971
1519481614620,0.340576,-2.917236,0.378906
1519481614653,0.203857,-1.839844,0.177979
1519481614711,0.171387,-0.881592,0.029053
1519481614742,0.335205,-0.212891,0.025146
1519481614749,0.392578,0.007080,-0.014160
1519481614781,0.522705,0.211426,-0.085205
1519481614840,0.390137,0.323975,0.075439
1519481614848,0.288086,0.347168,0.018799
1519481614878,0.189941,0.183594,0.146484
1519481614921,0.359863,0.155273,0.342773
1519481614934,2.897705,-3.979736,0.981934
1519481614968,1.852783,-3.862061,1.400146
1519481615024,0.216064,-1.605225,0.912354
1519481615057,-0.322266,-1.129639,0.633789
1519481615090,-0.527100,-0.325928,0.188965
1519481615121,-0.707275,-0.074463,0.062988
1519481615154,-0.923096,-0.133057,-0.035400
1519481615187,-0.959961,1.364258,-0.029053
1519481615219,-0.884521,-0.051514,0.332275
1519481615253,-0.566650,-0.858643,0.633057
1519481615261,-0.550049,-1.827881,1.928711
1519481615311,0.426270,-2.824707,2.965088
1519481615325,1.843262,-2.903809,1.473877
1519481615358,0.851318,-1.297119,0.780762
1519481615402,0.362793,-0.554932,0.519287
1519481615435,0.603760,-0.152344,0.043213
1519481615468,0.626953,0.478027,-0.232422
1519481615501,0.386963,0.688477,-0.304443
1519481615535,0.297607,0.604004,-0.223633
1519481615567,0.240234,0.159424,-0.025146
1519481615599,-0.923340,-1.582764,1.013672
1519481615632,-0.469971,-2.108154,1.173096
1519481615664,-0.744629,-2.332031,1.301270
1519481615697,-0.738770,-1.586914,1.172607
1519481615729,-0.579102,-0.648438,0.582764
1519481615769,-0.475342,-0.211670,0.259033
1519481615801,-0.296143,0.034180,0.223389
1519481615834,-0.371338,0.149658,0.140137
1519481615837,-0.377197,0.304199,-0.207764
1519481615894,-0.693359,0.059326,-0.429932
1519481615899,-0.780518,-0.592041,-0.269775
1519481615933,-0.875732,-1.125977,-0.128906
1519481615989,-1.491455,-1.553223,0.057373
1519481615998,-1.268066,-2.340332,1.251221
1519481616053,-0.545410,-1.767090,0.958740
1519481616085,-0.467773,-0.964844,0.929199
1519481616118,-0.302979,-0.279785,0.861816
1519481616150,-0.001465,0.100830,0.593750
1519481616163,0.043701,0.106934,0.339844
1519481616200,0.403564,0.009033,0.226563
1519481616232,0.013672,-0.343262,0.395020
1519481616266,0.057617,-1.055908,0.665283
1519481616299,0.269775,-1.291992,0.943848
1519481616331,-0.246826,-0.598877,1.198730
1519481616364,-1.022217,-1.202393,1.526611
1519481616397,-1.105713,-1.328857,1.116211
1519481616427,-1.059814,-0.840820,0.576904
1519481616461,-0.766113,-0.382813,0.072266
1519481616492,-0.644531,-0.277344,-0.171143
1519481616525,-0.743164,0.083252,-0.389160
1519481616557,-0.776123,0.241943,-0.183105
1519481616599,-0.741943,0.063721,-0.073486
1519481616632,-1.076416,-0.372314,-0.102539
1519481616665,-1.600586,-1.188965,0.536377
1519481616699,-1.737305,-2.485840,0.157959
1519481616707,-1.043457,-1.882568,0.176758
1519481616757,-0.593750,-1.243896,0.430176
1519481616787,-0.209961,-0.943848,0.698730
1519481616792,0.235352,-0.586670,0.807861
1519481616862,0.526855,-0.202637,0.202148
1519481616866,0.557617,-0.258301,-0.141113
1519481616932,0.510498,-0.169678,-0.167969
1519481616999,-0.386963,-0.921387,-0.020264
1519481617008,-1.099121,-2.642090,-0.477051
1519481617067,-1.792725,-2.414307,-0.883301
1519481617075,-1.621338,-1.778320,-0.621094
1519481617135,-1.496094,-0.734619,-0.637695
1519481617143,-1.245850,-0.119141,-0.279785
1519481617200,-0.750244,0.290771,0.046387
1519481617203,-0.082764,0.198730,0.082275
1519481617267,0.064941,0.641113,0.100342
1519481617271,-0.227051,0.361328,-0.127441
1519481617320,-0.178711,0.599609,-0.229248
1519481617323,-0.679199,-0.542969,-0.013184
1519481617330,-2.205078,-0.975342,-0.183350
1519481617380,-2.213379,-1.604004,-0.834229
1519481617383,-1.409180,-1.702393,-1.729004
1519481617446,-0.773193,-1.307129,-0.637207
1519481617455,0.339355,-0.625244,-0.008057
1519481617482,0.450195,-0.493652,0.060547
1519481617515,0.568848,0.349365,0.085693
1519481617547,0.574951,0.436768,-0.034912
1519481617578,0.316895,-0.046387,-0.037109
1519481617612,0.335449,-0.989502,-0.268311
1519481617642,-0.598145,-2.576416,-1.604980
1519481617675,-0.021484,-2.998047,-0.932373
1519481617733,-0.975098,-2.314453,-0.523438
1519481617738,-1.091797,-1.161377,-0.732178
1519481617774,-1.074707,-0.427979,-0.515625
1519481617807,-0.580322,0.082764,-0.407227
1519481617823,-0.398193,0.547607,-0.000732
1519481617881,-0.038818,0.646973,0.476563
1519481617913,-0.635498,0.253906,0.152344
1519481617945,-1.138428,-0.010498,-0.390869
1519481617976,-1.349121,-1.188721,-1.094238
1519481618009,-1.002686,-2.722900,-1.609863
1519481618042,-0.596436,-2.531494,-1.531250
1519481618074,-0.278809,-1.418213,-0.755127
1519481618107,0.302979,-0.723877,0.066895
1519481618141,0.604492,-0.417969,0.197266
1519481618173,0.755859,0.087158,0.134033
1519481618204,0.442871,0.487305,0.092285
1519481618246,0.358154,0.293457,-0.116699
1519481618254,0.264404,0.309082,-0.454590
1519481618305,0.177734,-0.522705,-0.674316
1519481618310,-0.294678,-2.078125,-1.471436
1519481618338,0.000000,-2.715332,-1.650879
1519481618396,-0.435303,-2.780273,-0.642578
1519481618429,-0.494873,-1.606445,-0.348633
1519481618461,-0.755127,-0.729248,-0.166260
1519481618494,-0.877441,-0.168213,0.008789
1519481618526,-0.657227,0.250000,0.289795
1519481618560,-0.581543,0.520996,0.244629
1519481618592,-0.569092,0.249268,0.165039
1519481618625,-0.590332,0.302734,-0.140137
1519481618638,-0.731934,-0.254395,-1.006836
1519481618694,-1.010254,-4.006104,-1.937256
1519481618728,0.603516,-2.930664,-2.309814
1519481618737,-0.187500,-2.078857,-1.173340
1519481618789,0.078857,-0.776855,-0.634766
1519481618821,0.329834,-0.656250,-0.101807
1519481618824,0.547363,-0.328125,0.385498
1519481618881,0.621582,0.359131,0.470459
1519481618890,0.442871,0.444336,0.546387
1519481618918,0.411865,0.343506,0.315674
1519481618976,0.299316,-0.002686,0.171631
1519481619009,0.292969,-1.225830,-0.411133
1519481619040,1.032715,-3.062744,-0.899170
1519481619054,-0.103271,-3.800049,-0.630615
1519481619110,-0.683350,-2.399170,-0.025879
1519481619114,-0.267090,-1.145996,-0.044678
1519481619174,-0.695313,-0.033203,-0.236084
1519481619204,-0.825195,0.325928,-0.124756
1519481619238,-0.909912,0.633545,-0.012939
1519481619271,-0.994873,0.411133,-0.099121
1519481619303,-0.729736,-0.123535,-0.137451
1519481619308,-0.573242,-1.000977,-0.415771
1519481619363,-0.222412,-2.555420,-0.686523
1519481619374,-0.469727,-3.383789,-0.751953
1519481619407,0.217285,-2.750732,-0.496094
1519481619440,0.499023,-1.404785,-0.203613
1519481619470,0.309814,-0.762451,-0.102051
1519481619503,0.568359,-0.404785,-0.064209
1519481619534,0.432373,0.003174,0.149902
1519481619568,0.489502,0.142578,0.182861
1519481619600,0.286377,0.243408,0.211670
1519481619660,0.217285,0.220215,0.227295
1519481619692,0.261719,-0.007080,0.220215
1519481619701,0.842041,-2.736572,0.104980
1519481619755,1.346191,-3.970215,-0.349121
1519481619786,0.319580,-2.591064,-0.137451
1519481619794,-0.283447,-1.410156,-0.056885
1519481619843,-0.623291,-0.389893,0.013184
1519481619857,-0.567383,-0.121094,0.092529
1519481619890,-0.641113,0.160889,-0.021484
1519481619949,-0.672852,0.401611,-0.023682
1519481619953,-0.838867,0.141846,-0.010254
1519481619982,-0.923584,0.084473,-0.184814
1519481620041,-0.632324,-1.085205,-0.305176
1519481620075,-0.153076,-4.072510,-0.208252
1519481620107,0.813232,-4.184326,-0.404297
1519481620116,0.341553,-2.227051,-0.045166
1519481620169,0.326416,-1.286133,-0.029053
1519481620202,0.300049,-0.506348,0.012207
1519481620234,0.508057,0.249023,0.038574
1519481620268,0.556152,0.553711,0.058350
1519481620270,0.496094,0.748779,0.089600
1519481620325,0.349365,0.508545,0.092285
1519481620358,0.363525,0.278320,0.157227
1519481620364,0.762695,-0.532471,-0.070801
1519481620421,1.376465,-4.262939,0.248047
1519481620453,1.121582,-3.260986,0.105469
1519481620486,-0.100098,-1.962646,0.251709
1519481620528,-0.648193,-0.706787,0.093506
1519481620549,-0.848389,-0.494141,0.142822
1519481620582,-0.716064,-0.090576,0.105713
1519481620615,-0.521240,-0.022705,0.005127
1519481620646,-0.628174,0.205811,0.102539
1519481620682,-0.561279,0.141846,0.086670
1519481620714,-0.549561,-0.394287,-0.038574
1519481620746,-0.528076,-2.548828,-0.072510
1519481620780,-0.277344,-3.718262,-0.215332
1519481620812,1.274902,-2.777100,-0.265137
1519481620844,0.302734,-1.933838,0.058838
1519481620849,0.295166,-1.053711,-0.004883
1519481620903,0.333008,-0.445557,0.047852
1519481620934,0.483154,0.026611,0.031982
1519481620943,0.551270,0.365479,0.081787
1519481621000,0.339844,0.620117,0.204834
1519481621032,0.321045,0.549072,0.019775
1519481621065,0.405762,0.349121,0.216064
1519481621098,0.640625,-2.029785,0.705811
1519481621131,0.787598,-3.259766,0.438232
1519481621162,1.032227,-2.842041,0.758789
1519481621195,-0.493164,-2.085938,0.917480
1519481621227,-0.453857,-1.148438,0.083496
1519481621232,-0.662109,-0.833252,-0.047607
1519481621285,-0.595215,-0.200684,0.078125
1519481621320,-0.688232,0.166504,-0.046631
1519481621324,-1.003418,0.215576,-0.242188
1519481621382,-0.883057,0.385010,-0.121094
1519481621415,-0.663818,-0.056641,-0.059814
1519481621449,-0.470703,-0.779541,-0.084717
1519481621481,0.256592,-4.338867,0.142334
1519481621513,1.330566,-4.063965,0.402100
1519481621545,0.808105,-2.308838,0.122559
1519481621577,0.505859,-0.924316,0.133545
1519481621611,0.619873,-0.228027,0.205322
1519481621645,0.637451,0.290771,0.205078
1519481621678,0.590820,0.464355,0.173340
1519481621711,0.411621,0.673828,0.178711
1519481621743,0.273682,0.684570,0.102295
1519481621776,0.458740,0.354004,0.061768
1519481621848,0.808594,-0.899658,0.407471
1519481621854,1.293213,-4.077393,0.413818
1519481621917,0.100586,-3.657715,0.284180
1519481621925,-0.475830,-2.211182,0.467773
1519481621985,-0.505371,-0.898193,0.420166
1519481621993,-0.848145,-0.264648,0.088135
1519481622050,-0.806885,-0.041748,0.098389
1519481622053,-0.573486,0.017090,0.098877
1519481622118,-0.784668,0.081787,0.039551
1519481622121,-0.795654,-0.039551,-0.062500
1519481622186,-0.592773,-0.820801,0.041504
1519481622195,-0.052246,-3.588135,0.329590
1519481622253,0.995361,-3.529297,0.180176
1519481622259,0.472900,-2.384521,0.205322
1519481622322,0.460205,-0.878906,0.082275
1519481622330,0.270020,-0.352295,0.168701
1519481622336,0.204834,0.042236,0.089844
1519481622358,0.345459,0.330322,0.013428
1519481622391,0.238037,0.347656,0.062256
1519481622396,0.222412,0.323730,0.095215
1519481622424,0.320068,0.157959,0.053711
1519481622457,0.595947,-0.522217,0.191162
1519481622515,1.370361,-2.773682,0.397217
1519481622524,1.028564,-3.456055,0.559082
1519481622578,-0.051025,-2.362061,0.608154
1519481622602,-0.479492,-1.268799,0.581787
1519481622635,-0.868408,-0.341797,0.470703
1519481622667,-0.927246,0.065918,0.296143
1519481622699,-0.904053,0.434082,0.121094
1519481622730,-0.683594,0.364502,0.138184
1519481622762,-0.776123,0.328857,0.018799
1519481622769,-0.754395,-0.111572,-0.111084
1519481622826,-0.653564,-2.975586,0.187988
1519481622859,-0.198975,-3.554443,0.065186
1519481622893,0.445313,-3.619385,0.167725
1519481622926,0.285400,-2.205566,0.161621
1519481622959,0.377930,-1.108887,0.051270
1519481622990,0.615234,-0.499268,0.011963
1519481623023,0.776123,0.517334,0.056396
1519481623055,0.658691,0.527588,0.164307
1519481623087,0.541992,0.651611,0.105469
1519481623120,0.421387,0.542236,0.131348
1519481623151,0.468994,0.125977,0.152588
1519481623184,0.655762,-1.452637,0.509766
1519481623216,0.995361,-3.453125,0.071289
1519481623249,0.394531,-3.349854,0.116455
1519481623255,-0.386230,-2.303955,0.299805
1519481623312,-0.716553,-0.919922,0.104248
1519481623343,-0.893311,-0.339600,-0.028809
1519481623351,-0.814697,-0.148193,0.015869
1519481623409,-0.836670,0.341064,-0.095947
1519481623440,-0.721436,0.182373,-0.111328
1519481623472,-0.590332,0.123047,-0.049561
1519481623506,-0.574463,-1.160156,-0.216797
1519481623537,-0.033203,-3.986572,-0.015625
1519481623551,1.034668,-3.728516,0.203125
1519481623605,0.962646,-2.311035,-0.033691
1519481623638,0.432617,-1.287842,0.169434
1519481623671,0.415771,-0.557617,0.167236
1519481623704,0.436279,0.012207,0.100830
1519481623737,0.532471,0.268311,0.130371
1519481623770,0.472168,0.490234,0.155029
1519481623801,0.284424,0.616211,-0.041748
1519481623832,0.283203,0.371338,-0.117432
1519481623836,0.385742,-0.191650,0.078613
1519481623905,0.573730,-3.333740,-0.410400
1519481623937,0.717529,-3.819336,0.331543
1519481623941,-0.391846,-2.604004,0.511963
1519481623997,-0.437500,-0.951416,0.159668
1519481624002,-0.801758,-0.373047,0.126953
1519481624057,-0.668457,-0.025635,0.188232
1519481624090,-0.764160,0.316162,0.027588
1519481624098,-0.747803,0.356689,-0.064453
1519481624132,-0.634033,0.237549,-0.033447
1519481624165,-0.473145,-1.311279,-0.118164
1519481624198,-0.404297,-3.541016,-0.041748
1519481624255,0.098877,-3.889893,-0.018311
1519481624287,0.519531,-2.197754,-0.131592
1519481624290,0.168457,-0.857178,-0.073486
1519481624321,0.057861,-0.462158,-0.046875
1519481624379,0.216309,-0.111572,-0.035889
1519481624388,0.339111,0.153076,-0.015869
1519481624439,0.488770,0.354248,-0.034668
1519481624472,0.394043,0.448730,0.039307
1519481624503,0.489502,0.328613,0.001221
1519481624512,0.437256,-0.113281,0.276855
1519481624569,1.126465,-3.675293,-0.012207
1519481624602,0.727295,-4.182129,0.239014
1519481624634,-0.004639,-2.692871,0.484619
1519481624668,-0.501953,-1.056885,0.248779
1519481624699,-1.099854,-0.126465,-0.034668
1519481624732,-0.862305,0.449219,-0.205566
1519481624764,-0.721680,0.688477,-0.205811
1519481624798,-0.679443,0.460693,-0.164307
1519481624806,-0.631348,0.332520,-0.123047
1519481624855,-0.472900,-0.148682,-0.055908
1519481624889,-0.615723,-3.059814,-0.309082
1519481624897,-0.049561,-3.954834,0.003906
1519481624950,0.795166,-3.235107,-0.007324
1519481624984,-0.072510,-2.043701,0.112305
1519481625015,0.112305,-1.085449,-0.000488
1519481625048,0.347900,-0.396729,0.085693
1519481625081,0.498535,0.051270,0.091309
1519481625114,0.642090,0.451416,0.091064
1519481625162,0.362305,0.802246,0.052734
1519481625171,0.423096,0.572266,-0.095947
1519481625194,0.412354,0.164063,0.181396
1519481625252,0.537598,-3.340820,0.009521
1519481625285,0.918701,-3.641846,0.244873
1519481625293,-0.158447,-3.260742,0.682861
1519481625342,-0.463135,-1.252197,0.178467
1519481625359,-0.642334,-0.477051,0.031982
1519481625384,-0.677734,-0.139404,0.000488
1519481625442,-0.560303,0.352295,-0.024658
1519481625445,-0.536133,0.471436,-0.120605
1519481625504,-0.601807,0.353516,-0.142334
1519481625538,-0.491455,0.035645,-0.111328
1519481625547,-0.434082,-0.879883,-0.219971
1519481625601,-0.349854,-2.614502,0.113037
1519481625634,-0.258545,-3.305420,0.427002
1519481625666,0.615479,-2.147461,0.092285
1519481625697,-0.158203,-1.607178,0.167969
1519481625729,-0.070801,-0.838623,0.142090
1519481625763,0.088135,-0.524170,0.099609
1519481625776,0.371094,-0.142334,0.034424
1519481625832,0.666992,0.143799,0.040039
1519481625836,0.521484,0.514404,0.151855
1519481625866,0.557373,0.504150,-0.074707
1519481625926,0.711182,-0.254150,0.320068
1519481625934,0.812988,-2.701904,0.020020
1519481625960,0.838623,-3.747070,0.210449
1519481626017,-0.205078,-2.864258,0.748779
1519481626047,-0.524170,-1.171387,0.171143
1519481626080,-0.879883,-0.675781,0.192139
1519481626088,-0.691650,-0.128662,0.074219
1519481626144,-0.637695,0.326904,0.022217
1519481626178,-0.563721,0.352051,-0.029785
1519481626191,-0.645996,0.281494,-0.046143
1519481626248,-0.610840,0.041016,-0.117676
1519481626254,-0.499023,-0.973389,-0.237793
1519481626308,-0.454590,-3.575928,0.303467
1519481626339,0.901855,-3.414795,0.083984
1519481626345,-0.116455,-2.801270,0.040527
1519481626399,0.002686,-1.177002,0.089111
1519481626440,0.174805,-0.574219,0.121094
1519481626444,0.388428,0.020264,0.057373
1519481626476,0.585449,0.612061,-0.037598
1519481626507,0.276367,0.718262,-0.016357
1519481626541,0.161133,0.629395,-0.069824
1519481626574,0.390625,-0.095459,0.162598
1519481626615,0.380615,-3.046631,0.462402
1519481626648,1.325684,-3.468262,0.243164
1519481626681,-0.284668,-3.074219,0.848633
1519481626712,-0.422852,-1.597900,0.504883
1519481626745,-0.776367,-0.785156,0.306885
1519481626776,-0.882080,-0.262939,0.164551
1519481626849,-0.792480,0.295410,0.002441
1519481626851,-0.818359,0.477783,-0.047363
1519481626916,-1.125732,0.438721,-0.171143
1519481626919,-1.262451,-0.015381,-0.375000
1519481626984,-0.921387,-1.408203,-0.089844
1519481627052,-0.366943,-4.027344,-0.074463
1519481627119,0.549072,-3.693359,0.064453
1519481627121,0.525635,-1.830566,0.029297
1519481627186,0.456055,-0.650146,-0.025635
1519481627190,0.431152,0.037598,0.040039
1519481627254,0.500488,0.312744,0.098145
1519481627257,0.538086,0.434326,0.021484
1519481627321,0.476807,0.400635,0.042969
1519481627323,0.314209,0.268555,0.095459
1519481627325,0.540283,-0.302979,0.157715
1519481627328,0.899414,-2.732178,0.384033
1519481627330,1.038818,-2.668457,0.101807
1519481627360,0.247070,-3.258301,0.313477
1519481627372,-0.124268,-2.012939,0.305664
1519481627407,-0.466553,-1.100830,0.139160
1519481627442,-0.928223,-0.319824,0.052490
1519481627473,-0.832520,0.127441,-0.003662
1519481627505,-0.816162,0.514893,-0.070068
1519481627538,-0.494629,0.338867,-0.018555
1519481627571,-0.418701,0.114502,0.005127
1519481627603,-0.412598,-0.560791,-0.100342
1519481627636,0.062500,-3.012939,0.132568
1519481627692,1.129150,-3.648926,0.135986
1519481627720,0.526855,-2.565430,0.031982
1519481627752,0.194092,-1.107178,0.055420
1519481627785,-0.063477,-0.943604,0.162354
1519481627787,0.030273,-0.303467,0.073486
1519481627843,0.043701,0.219971,0.011719
1519481627876,0.075928,0.375977,-0.032715
1519481627881,0.146484,0.505371,-0.036377
1519481627938,0.307617,0.269775,-0.058105
1519481627971,0.707764,0.015381,0.057373
1519481628006,1.183594,-2.475586,0.459229
1519481628036,2.140381,-3.037598,0.598389
1519481628069,0.709961,-3.028564,0.942139
1519481628102,-0.056641,-1.932129,0.590088
1519481628135,-0.677246,-1.057373,0.209229
1519481628169,-0.804688,-0.384033,-0.073242
1519481628200,-0.843018,-0.074219,-0.226074
1519481628240,-0.709961,0.244629,-0.199463
1519481628273,-0.667480,0.207520,0.078369
1519481628276,-0.561279,0.298584,0.177979
1519481628331,-0.432617,-0.462158,0.090576
1519481628365,-0.280518,-3.433105,0.698486
1519481628370,0.479248,-3.810791,0.536377
1519481628428,0.526123,-2.299561,0.205322
1519481628437,0.265625,-1.351563,0.228271
1519481628491,0.327637,-0.631104,0.124023
1519481628525,0.365479,0.052490,0.013428
1519481628534,0.540039,0.266357,-0.011475
1519481628589,0.502441,0.410156,-0.020264
1519481628604,0.343994,0.490479,-0.010498
1519481628633,0.143066,0.469727,-0.144531
1519481628692,0.119385,0.033691,0.113037
1519481628700,0.617676,-3.938721,0.989746
1519481628752,1.695557,-3.257813,0.539307
1519481628784,0.105469,-2.557617,0.924561
1519481628817,-0.164795,-0.862305,0.479980
1519481628850,-0.412598,-0.250000,0.333008
1519481628853,-0.595215,0.143311,0.175781
1519481628909,-0.755615,0.473145,-0.056152
1519481628914,-0.842285,0.472900,-0.119385
1519481628968,-0.781494,0.286133,-0.114990
1519481629000,-0.608398,-1.137939,-0.038574
1519481629014,-0.060547,-3.222900,0.532227
1519481629073,0.452148,-3.217773,0.296875
1519481629083,0.284912,-2.231934,0.314453
1519481629133,0.068848,-1.355957,0.222656
1519481629166,-0.149170,-0.851074,0.149170
1519481629199,0.179199,-0.298096,0.032715
1519481629231,0.182373,0.144775,0.004395
1519481629235,0.122559,0.392822,0.059326
1519481629291,0.113770,0.457520,0.033936
1519481629323,0.233154,0.371826,0.070801
1519481629328,0.392578,0.085449,0.089355
1519481629384,1.699951,-4.144287,0.472900
1519481629417,1.376709,-3.110352,0.814697
1519481629431,0.101807,-2.749756,0.893311
1519481629463,-0.470947,-0.934570,0.349609
1519481629495,-1.025391,-0.514893,0.201416
1519481629528,-0.998047,-0.120850,0.129883
1519481629561,-0.791992,0.248535,-0.046631
1519481629618,-0.703613,0.301758,-0.085205
1519481629651,-0.683350,0.222656,-0.046143
1519481629685,-0.564209,-0.188965,-0.101807
1519481629695,-0.511719,-1.958984,0.232422
1519481629747,-0.517090,-3.034424,0.463867
1519481629779,0.513428,-3.548096,0.532227
1519481629811,0.860596,-2.151611,0.187256
1519481629814,0.144287,-1.366943,0.250488
1519481629870,0.283936,-0.480225,0.082764
1519481629904,0.303223,-0.080322,0.013428
1519481629913,0.527588,0.217285,-0.109375
1519481629966,0.439697,0.412109,-0.050293
1519481629998,0.367920,0.469727,-0.003418
1519481630030,0.426270,0.361816,-0.067627
1519481630062,0.766357,-1.181396,0.606689
1519481630095,0.657227,-3.222168,0.762695
1519481630127,0.489014,-3.158447,0.758301
1519481630159,-0.556396,-2.100098,0.798584
1519481630192,-0.303223,-1.207764,0.597412
1519481630224,-0.411621,-0.530518,0.235352
1519481630280,-0.681641,0.140381,0.085205
1519481630282,-0.576904,0.376465,0.078125
1519481630316,-0.603271,0.360840,-0.011230
1519481630349,-0.591309,0.293457,-0.053955
1519481630383,-0.520508,0.056885,-0.047607
1519481630415,-0.606201,-1.854004,0.123535
1519481630448,0.017334,-4.188232,0.940918
1519481630479,0.973877,-3.334717,0.540527
1519481630512,0.294189,-1.918457,0.402588
1519481630544,0.004150,-0.982422,0.223633
1519481630576,0.093994,-0.417725,0.058594
1519481630610,0.180664,0.060059,-0.067627
1519481630642,0.563721,0.377441,-0.086426
1519481630659,0.406494,0.542480,-0.061035
1519481630687,0.299072,0.530273,-0.037842
1519481630746,0.315430,0.278320,0.003906
1519481630777,0.464111,-0.407471,0.324707
1519481630785,0.990479,-3.824219,0.932861
1519481630834,0.962646,-3.354004,1.560303
1519481630840,-0.151123,-2.024170,1.358887
1519481630872,-0.445313,-0.974121,0.692627
1519481630930,-0.780273,0.016846,0.084717
1519481630938,-0.830566,0.272461,-0.117676
1519481630995,-0.640869,0.227295,-0.080566
1519481631028,-0.644775,0.293457,-0.170410
1519481631060,-0.609863,0.226807,-0.132324
1519481631074,-0.499512,-0.108154,0.018555
1519481631107,-0.466309,-3.268555,0.935791
1519481631138,0.411377,-4.172852,1.375977
1519481631170,1.072754,-2.544189,0.777100
1519481631228,0.114990,-1.245605,0.513916
1519481631261,0.101318,-0.591553,0.286133
1519481631267,0.078613,-0.049316,0.095215
1519481631322,0.263916,0.305664,-0.187500
1519481631354,0.406982,0.298584,-0.177490
1519481631360,0.441650,0.351807,-0.124023
1519481631428,0.527588,0.420410,-0.063721
1519481631436,0.814209,-0.199219,0.210205
1519481631460,0.902100,-3.878906,0.682129
1519481631502,0.392334,-3.622559,0.947510
1519481631536,-0.279053,-2.415039,1.081787
1519481631560,-0.303955,-1.222900,0.691406
