1519490846835,-0.394287,0.789307,-0.328369
1519490846867,-0.412354,0.853027,-0.380859
1519490846900,-0.421387,0.854004,-0.400635
1519490846932,-0.424316,0.882568,-0.382813
1519490846965,-0.415527,0.848877,-0.378174
1519490846997,-0.410645,0.839600,-0.380371
1519490847029,-0.407471,0.852051,-0.379883
1519490847062,-0.408691,0.842041,-0.368896
1519490847095,-0.406738,0.845703,-0.370850
1519490847128,-0.413086,0.856689,-0.378906
1519490847161,-0.412109,0.842773,-0.384277
1519490847193,-0.406250,0.839600,-0.380615
1519490847227,-0.401123,0.838135,-0.366699
1519490847259,-0.402832,0.834229,-0.373779
1519490847292,-0.417480,0.836914,-0.386719
1519490847329,-0.398682,0.851318,-0.367432
1519490847361,-0.401855,0.855957,-0.368652
1519490847402,-0.399658,0.856201,-0.374512
1519490847408,-0.397949,0.848145,-0.395752
1519490847461,-0.404297,0.855469,-0.385498
1519490847466,-0.404053,0.856689,-0.375488
1519490847523,-0.399658,0.844482,-0.375244
1519490847555,-0.399170,0.844238,-0.390625
1519490847561,-0.401367,0.864014,-0.392334
1519490847619,-0.395264,0.834473,-0.394287
1519490847652,-0.403564,0.810547,-0.359375
1519490847685,-0.398193,0.847168,-0.342529
1519490847718,-0.408691,0.877441,-0.430908
1519490847743,-0.402832,0.871826,-0.361328
1519490847776,-0.385010,0.853271,-0.330322
1519490847809,-0.394775,0.866943,-0.363770
1519490847842,-0.408203,0.851563,-0.381592
1519490847874,-0.406738,0.859375,-0.376709
1519490847883,-0.398926,0.847900,-0.372559
1519490847936,-0.400146,0.839111,-0.367676
1519490847970,-0.397705,0.844727,-0.361572
1519490848002,-0.389160,0.870361,-0.362061
1519490848035,-0.396973,0.859619,-0.378906
1519490848067,-0.407227,0.834473,-0.379883
1519490848086,-0.408691,0.842285,-0.367920
1519490848120,-0.394775,0.849121,-0.370850
1519490848151,-0.392578,0.855713,-0.343994
1519490848191,-0.369873,0.854980,-0.343262
1519490848224,-0.404541,0.891846,-0.401123
1519490848258,-0.397949,0.865967,-0.360107
1519490848296,-0.395020,0.825195,-0.346924
1519490848327,-0.414551,0.841553,-0.376221
1519490848360,-0.407715,0.864258,-0.375244
1519490848394,-0.397949,0.875977,-0.366943
1519490848426,-0.395996,0.851074,-0.367432
1519490848459,-0.395508,0.840576,-0.369385
1519490848467,-0.393799,0.848633,-0.366211
1519490848521,-0.395508,0.861816,-0.353271
1519490848553,-0.394287,0.874268,-0.358398
1519490848566,-0.395020,0.874023,-0.362793
1519490848623,-0.398193,0.850098,-0.376953
1519490848629,-0.401855,0.852051,-0.379639
1519490848685,-0.392090,0.855957,-0.374023
1519490848718,-0.389160,0.864014,-0.360107
1519490848751,-0.397949,0.843994,-0.363525
1519490848759,-0.391113,0.855957,-0.383301
1519490848814,-0.378662,0.884766,-0.311523
1519490848847,-0.395264,0.894043,-0.317383
1519490848879,-0.403076,0.853760,-0.347900
1519490848912,-0.398926,0.864258,-0.385742
1519490848944,-0.393311,0.857178,-0.383545
1519490848976,-0.395508,0.826904,-0.387207
1519490848992,-0.402100,0.830322,-0.383057
1519490849049,-0.401123,0.842773,-0.383545
1519490849055,-0.397949,0.845459,-0.382568
1519490849106,-0.398926,0.860352,-0.361084
1519490849110,-0.401855,0.851563,-0.366211
1519490849143,-0.397217,0.855469,-0.374268
1519490849202,-0.397705,0.862061,-0.370117
1519490849210,-0.401855,0.854980,-0.367188
1519490849244,-0.399658,0.858398,-0.374268
1519490849278,-0.400635,0.856201,-0.370361
1519490849311,-0.399170,0.843506,-0.371582
1519490849343,-0.395752,0.860840,-0.369629
1519490849376,-0.389893,0.849609,-0.366455
1519490849408,-0.394287,0.841309,-0.368408
1519490849464,-0.394531,0.844727,-0.375000
1519490849496,-0.391602,0.855713,-0.379395
1519490849529,-0.388672,0.866699,-0.381592
1519490849534,-0.399414,0.868408,-0.378418
1519490849589,-0.399170,0.857422,-0.383545
1519490849621,-0.398682,0.850586,-0.379883
1519490849626,-0.405762,0.848633,-0.379639
1519490849679,-0.391357,0.857666,-0.387695
1519490849713,-0.394775,0.786621,-0.352539
1519490849746,-0.385986,0.862793,-0.356201
1519490849778,-0.395508,0.847412,-0.336914
1519490849792,-0.386475,0.868652,-0.335938
1519490849824,-0.395508,0.883789,-0.369873
1519490849857,-0.402832,0.879395,-0.394531
1519490849927,-0.401611,0.845459,-0.389648
1519490849935,-0.400635,0.823730,-0.373779
1519490849994,-0.390137,0.849609,-0.364746
1519490850003,-0.386230,0.858154,-0.366943
1519490850061,-0.383057,0.864746,-0.366943
1519490850066,-0.386475,0.852295,-0.377197
1519490850128,-0.391113,0.850098,-0.368896
1519490850134,-0.386963,0.838135,-0.368896
1519490850195,-0.377930,0.852051,-0.368164
1519490850265,-0.369629,0.821045,-0.411621
1519490850332,-0.388184,0.839600,-0.449219
1519490850340,-0.381104,0.804199,-0.369385
1519490850398,-0.365234,0.844971,-0.312012
1519490850403,-0.341309,0.908203,-0.312988
1519490850412,-0.293457,0.897705,-0.314941
1519490850417,-0.265869,0.834229,-0.214111
1519490850422,-0.336914,1.091064,-0.425293
1519490850446,-0.390869,0.953125,-0.385498
1519490850479,-0.365479,0.881592,-0.363281
1519490850513,-0.376953,0.900146,-0.386719
1519490850545,-0.349609,0.781982,-0.339111
1519490850577,-0.312256,0.849365,-0.374268
1519490850610,-0.330078,0.914063,-0.393799
1519490850642,-0.341553,0.889160,-0.383545
1519490850674,-0.353516,0.872559,-0.349854
1519490850708,-0.352295,0.897217,-0.368896
1519490850741,-0.377686,0.868408,-0.365967
1519490850773,-0.377686,0.877197,-0.348877
1519490850805,-0.355469,0.873535,-0.362305
1519490850838,-0.337158,0.855469,-0.342529
1519490850871,-0.355713,0.894043,-0.357422
1519490850901,-0.360107,0.889893,-0.372803
1519490850934,-0.389893,0.857666,-0.358154
1519490850968,-0.406494,0.865723,-0.370361
1519490851001,-0.396484,0.881592,-0.339111
1519490851041,-0.368652,0.874512,-0.341553
1519490851073,-0.348877,0.904541,-0.330811
1519490851107,-0.328125,0.886475,-0.323975
1519490851139,-0.335449,0.865234,-0.338623
1519490851171,-0.343994,0.871582,-0.335693
1519490851176,-0.325928,0.878418,-0.303467
1519490851233,-0.345215,0.871582,-0.332031
1519490851241,-0.364746,0.830322,-0.379883
1519490851290,-0.370361,0.780029,-0.410400
1519490851324,-0.337891,0.796631,-0.344482
1519490851332,-0.344482,1.044922,-0.278564
1519490851388,-0.421387,0.923096,-0.333496
1519490851421,-0.372559,0.840820,-0.369385
1519490851434,-0.379883,0.851563,-0.415283
1519490851492,-0.378662,0.821777,-0.329834
1519490851524,-0.353271,1.024658,-0.351318
1519490851533,-0.349365,0.960449,-0.428467
1519490851584,-0.378662,0.845703,-0.412598
1519490851617,-0.374023,0.712402,-0.361084
1519490851647,-0.346924,0.971680,-0.239990
1519490851652,-0.321045,1.018555,-0.217041
1519490851707,-0.296631,0.732178,-0.315186
1519490851740,-0.246338,1.109863,-0.461670
1519490851746,-0.297363,0.908936,-0.377197
1519490851804,-0.244629,0.692871,-0.335205
1519490851837,-0.282227,0.966064,-0.456787
1519490851851,-0.360352,0.822021,-0.401611
1519490851887,-0.318115,0.965820,-0.345703
1519490851919,-0.302734,1.062012,-0.386963
1519490851951,-0.331299,0.940186,-0.352295
1519490851986,-0.303467,0.869873,-0.248291
1519490852018,-0.355957,0.853760,-0.401855
1519490852050,-0.379150,0.964844,-0.416016
1519490852082,-0.328857,0.938965,-0.301514
1519490852118,-0.318359,0.656982,-0.189209
1519490852155,-0.367188,1.078857,-0.235352
1519490852187,-0.322754,0.845459,-0.216797
1519490852220,-0.315674,0.829346,-0.147217
1519490852253,-0.305908,0.844971,-0.134766
1519490852295,-0.330322,1.006592,-0.101563
1519490852304,-0.324951,0.955566,-0.119629
1519490852330,-0.309082,0.873291,-0.162598
1519490852390,-0.302734,1.021484,-0.229004
1519490852399,-0.303467,0.971436,-0.203857
1519490852454,-0.287598,0.955811,-0.204102
1519490852486,-0.330566,0.962158,-0.249023
1519490852519,-0.326172,0.896729,-0.270996
1519490852551,-0.332764,0.885010,-0.305176
1519490852583,-0.327637,0.902832,-0.327881
1519490852616,-0.309326,0.828857,-0.348389
1519490852647,-0.294922,0.832275,-0.386475
1519490852661,-0.277100,0.822998,-0.320557
1519490852719,-0.289063,0.894287,-0.306885
1519490852727,-0.274170,0.886963,-0.295166
1519490852777,-0.272217,0.939453,-0.303223
1519490852810,-0.269775,0.992676,-0.304443
1519490852817,-0.249268,0.987549,-0.325928
1519490852863,-0.241455,0.930420,-0.326416
1519490852896,-0.251221,0.960205,-0.352539
1519490852930,-0.262939,0.974121,-0.366455
1519490852962,-0.258057,0.940918,-0.411133
1519490852994,-0.245361,0.922119,-0.391113
1519490853027,-0.247314,0.935547,-0.379883
1519490853059,-0.262451,0.908691,-0.388672
1519490853101,-0.260498,0.886719,-0.397949
1519490853113,-0.254639,0.915283,-0.434814
1519490853142,-0.244385,0.845215,-0.457520
1519490853198,-0.253662,0.828857,-0.416992
1519490853232,-0.239014,0.885742,-0.375732
1519490853264,-0.244385,0.905518,-0.374512
1519490853295,-0.273193,0.921631,-0.384521
1519490853298,-0.303955,0.960693,-0.397705
1519490853355,-0.307129,0.893555,-0.324707
1519490853388,-0.324707,0.838623,-0.317627
1519490853394,-0.322998,0.877441,-0.363770
1519490853448,-0.311279,0.907715,-0.382813
1519490853482,-0.306885,0.881836,-0.385742
1519490853495,-0.298584,0.906494,-0.374512
1519490853553,-0.291992,0.941650,-0.356934
1519490853562,-0.311279,0.922363,-0.374512
1519490853613,-0.325928,0.906738,-0.382080
1519490853645,-0.337646,0.904541,-0.371094
1519490853677,-0.331787,0.909424,-0.352783
1519490853711,-0.319092,0.907959,-0.358154
1519490853744,-0.305908,0.883057,-0.336426
1519490853777,-0.310303,0.853271,-0.318604
1519490853809,-0.317627,0.843994,-0.333252
1519490853841,-0.330078,0.886230,-0.324463
1519490853874,-0.351318,0.903320,-0.333740
1519490853883,-0.372559,0.885498,-0.327393
1519490853934,-0.382324,0.896729,-0.333496
1519490853965,-0.380371,0.916504,-0.345459
1519490853974,-0.375977,0.902344,-0.344971
1519490854029,-0.345215,0.881592,-0.342773
1519490854061,-0.343994,0.895996,-0.338379
1519490854097,-0.327637,0.899902,-0.332520
1519490854142,-0.312256,0.907715,-0.307373
1519490854145,-0.307861,0.928467,-0.284912
1519490854176,-0.300293,0.937012,-0.270752
1519490854210,-0.315918,0.940674,-0.276611
1519490854243,-0.324951,0.949463,-0.274658
1519490854275,-0.348389,0.953125,-0.259277
1519490854307,-0.358887,0.953613,-0.228027
1519490854341,-0.356934,0.941650,-0.244141
1519490854373,-0.352539,0.952148,-0.256104
1519490854404,-0.305908,0.917236,-0.270020
1519490854463,-0.305664,0.896973,-0.269043
1519490854472,-0.297852,0.875000,-0.246826
1519490854497,-0.301025,0.836426,-0.230469
1519490854554,-0.312744,0.843262,-0.220947
1519490854563,-0.333252,0.856445,-0.226807
1519490854587,-0.375977,0.894287,-0.230225
1519490854646,-0.406982,0.916260,-0.235352
1519490854676,-0.424316,0.925293,-0.239746
1519490854709,-0.437744,0.906738,-0.246338
1519490854724,-0.434082,0.885986,-0.251709
1519490854757,-0.437744,0.889160,-0.270264
1519490854789,-0.438477,0.885498,-0.306152
1519490854822,-0.436279,0.876465,-0.303223
1519490854854,-0.426270,0.884033,-0.277100
1519490854927,-0.397705,0.872314,-0.219482
1519490854935,-0.392822,0.895020,-0.271484
1519490854995,-0.407471,0.885742,-0.289307
1519490855003,-0.400391,0.892822,-0.287598
1519490855061,-0.408447,0.903564,-0.296143
1519490855066,-0.409180,0.889893,-0.285156
1519490855128,-0.421143,0.905029,-0.268066
1519490855197,-0.444580,0.868896,-0.286377
1519490855264,-0.437256,0.852539,-0.294189
1519490855270,-0.417725,0.885986,-0.285645
1519490855331,-0.396973,0.904297,-0.263184
1519490855340,-0.383789,0.896240,-0.262451
1519490855385,-0.380371,0.906738,-0.282959
1519490855394,-0.382813,0.906982,-0.291016
1519490855402,-0.387695,0.888184,-0.284668
1519490855405,-0.397705,0.855469,-0.289307
1519490855423,-0.440430,0.888184,-0.322998
1519490855426,-0.420410,0.885010,-0.290039
1519490855483,-0.421631,0.875000,-0.280273
1519490855491,-0.407471,0.908203,-0.261230
1519490855516,-0.385498,0.928711,-0.257813
1519490855574,-0.398438,0.869873,-0.280273
1519490855607,-0.420654,0.902344,-0.298584
1519490855638,-0.415283,0.949707,-0.297607
1519490855670,-0.401611,0.899414,-0.278320
1519490855703,-0.389893,0.860107,-0.210693
1519490855736,-0.385010,0.873535,-0.155029
1519490855769,-0.382568,0.906250,-0.101318
1519490855802,-0.406982,0.912598,-0.058105
1519490855835,-0.395508,0.835693,-0.085449
1519490855868,-0.418945,1.002930,-0.179443
1519490855899,-0.400879,0.898438,-0.163818
1519490855903,-0.406250,0.834473,-0.156982
1519490855959,-0.404053,0.896240,-0.239746
1519490855992,-0.421875,0.936523,-0.236084
1519490856000,-0.405273,0.908691,-0.293701
1519490856055,-0.371338,0.904297,-0.295654
1519490856088,-0.371338,0.925293,-0.311279
1519490856122,-0.394775,0.890625,-0.343994
1519490856153,-0.374756,0.904053,-0.286621
1519490856186,-0.385742,0.893799,-0.276367
1519490856220,-0.387939,0.874268,-0.302490
1519490856252,-0.399170,0.890869,-0.337646
1519490856284,-0.403809,0.887451,-0.358643
1519490856315,-0.400635,0.847656,-0.355469
1519490856349,-0.404297,0.889893,-0.340576
1519490856364,-0.404785,0.892578,-0.323975
1519490856397,-0.399658,0.876221,-0.314453
1519490856431,-0.389160,0.869141,-0.310303
1519490856486,-0.390381,0.885742,-0.314941
1519490856489,-0.394287,0.887695,-0.327393
1519490856547,-0.385254,0.884033,-0.325195
1519490856580,-0.383301,0.864746,-0.324951
1519490856588,-0.388184,0.872070,-0.322510
1519490856638,-0.386963,0.875244,-0.321777
1519490856670,-0.385986,0.883789,-0.318115
1519490856704,-0.379639,0.890137,-0.312012
1519490856737,-0.392090,0.884033,-0.311035
1519490856746,-0.395508,0.878906,-0.313721
1519490856780,-0.387695,0.870117,-0.314697
1519490856814,-0.384521,0.883545,-0.317383
1519490856848,-0.384766,0.888672,-0.311035
1519490856905,-0.382080,0.882568,-0.300781
1519490856914,-0.380371,0.882813,-0.310303
1519490856965,-0.383545,0.882813,-0.307129
1519490857002,-0.392578,0.887695,-0.309326
1519490857035,-0.391846,0.881592,-0.316406
1519490857066,-0.395508,0.879395,-0.312500
1519490857072,-0.387939,0.884033,-0.304443
1519490857125,-0.378418,0.892334,-0.307861
1519490857159,-0.381348,0.900146,-0.316895
1519490857166,-0.383301,0.891357,-0.316406
1519490857216,-0.384033,0.876221,-0.309814
1519490857249,-0.390137,0.883057,-0.299805
1519490857282,-0.393066,0.904053,-0.302734
1519490857314,-0.388672,0.865234,-0.307861
1519490857347,-0.392578,0.882324,-0.316162
1519490857380,-0.393799,0.899902,-0.321289
1519490857412,-0.382324,0.881836,-0.300781
1519490857444,-0.384521,0.876953,-0.295410
1519490857477,-0.389893,0.886963,-0.305664
1519490857509,-0.392822,0.890869,-0.318604
1519490857541,-0.394043,0.888672,-0.315918
1519490857573,-0.389160,0.883789,-0.305664
1519490857616,-0.386963,0.887451,-0.303955
1519490857648,-0.389160,0.887207,-0.307373
1519490857656,-0.385742,0.881348,-0.312988
1519490857706,-0.392578,0.882813,-0.307861
1519490857738,-0.389404,0.885742,-0.300781
1519490857744,-0.390625,0.894531,-0.303467
1519490857798,-0.386475,0.886230,-0.310547
1519490857830,-0.381348,0.876221,-0.307129
1519490857863,-0.382080,0.878174,-0.298584
1519490857896,-0.380615,0.889404,-0.299561
1519490857928,-0.378418,0.892578,-0.296875
1519490857940,-0.382568,0.889404,-0.308838
1519490857985,-0.385498,0.888672,-0.307617
1519490858018,-0.384766,0.886475,-0.304199
1519490858050,-0.382813,0.890137,-0.302002
1519490858081,-0.379150,0.889893,-0.308594
1519490858113,-0.376221,0.885498,-0.295654
1519490858145,-0.379639,0.890625,-0.294678
1519490858178,-0.385498,0.882080,-0.316406
1519490858210,-0.385254,0.878418,-0.317139
1519490858244,-0.383789,0.879639,-0.304932
1519490858277,-0.376709,0.902100,-0.305420
1519490858309,-0.374023,0.896484,-0.308838
1519490858342,-0.375977,0.889160,-0.309814
1519490858374,-0.385986,0.887207,-0.311279
1519490858390,-0.388428,0.878174,-0.312500
1519490858447,-0.389404,0.893555,-0.324219
1519490858480,-0.372803,0.863525,-0.274414
1519490858512,-0.379883,0.887939,-0.306152
1519490858543,-0.380371,0.914063,-0.321045
1519490858576,-0.374268,0.907959,-0.281250
1519490858609,-0.377197,0.892822,-0.302246
1519490858641,-0.388916,0.883301,-0.316406
1519490858673,-0.390381,0.884277,-0.308105
1519490858679,-0.389893,0.885742,-0.306885
1519490858733,-0.381592,0.890381,-0.304443
1519490858765,-0.372314,0.895752,-0.307617
1519490858770,-0.364502,0.897217,-0.307617
1519490858804,-0.373291,0.882568,-0.299316
1519490858862,-0.388916,0.895752,-0.309326
1519490858894,-0.384033,0.869629,-0.315918
1519490858903,-0.377197,0.881348,-0.316895
1519490858960,-0.379395,0.917969,-0.305664
1519490858991,-0.373291,0.895752,-0.302490
1519490859024,-0.372314,0.880371,-0.301514
1519490859057,-0.377197,0.882324,-0.302490
1519490859089,-0.380859,0.886230,-0.305420
1519490859097,-0.375977,0.896240,-0.308838
1519490859147,-0.378174,0.899414,-0.307861
1519490859179,-0.385010,0.894775,-0.307373
1519490859185,-0.383789,0.876709,-0.309570
1519490859263,-0.384521,0.881104,-0.315674
1519490859269,-0.379395,0.882568,-0.304688
1519490859297,-0.377441,0.892578,-0.306885
1519490859356,-0.375244,0.894775,-0.308594
1519490859364,-0.379150,0.891113,-0.313232
1519490859390,-0.378662,0.885498,-0.309814
1519490859422,-0.376221,0.885986,-0.310547
1519490859455,-0.376221,0.881836,-0.302002
1519490859512,-0.380859,0.876953,-0.301514
1519490859520,-0.381104,0.893311,-0.316895
1519490859573,-0.380371,0.891113,-0.314941
1519490859606,-0.375977,0.887451,-0.311279
1519490859621,-0.368652,0.892578,-0.307373
1519490859652,-0.367920,0.886230,-0.307373
1519490859685,-0.367188,0.883789,-0.305664
1519490859717,-0.375977,0.884521,-0.314941
1519490859750,-0.376709,0.890869,-0.319824
1519490859783,-0.377930,0.896973,-0.319824
1519490859841,-0.382568,0.898682,-0.312012
1519490859849,-0.380371,0.900635,-0.309326
1519490859918,-0.377441,0.889160,-0.308838
1519490859926,-0.380615,0.890869,-0.316650
1519490859985,-0.374023,0.889648,-0.314453
1519490859991,-0.368652,0.886719,-0.310059
1519490860052,-0.374023,0.881592,-0.313965
1519490860122,-0.373779,0.888916,-0.313721
1519490860188,-0.371582,0.891602,-0.308105
1519490860193,-0.370605,0.896240,-0.304932
1519490860256,-0.374756,0.889404,-0.306396
1519490860264,-0.379639,0.885742,-0.309082
1519490860322,-0.379395,0.895752,-0.322021
1519490860327,-0.373779,0.895996,-0.318115
1519490860387,-0.368652,0.894043,-0.307129
1519490860392,-0.371582,0.885010,-0.295898
1519490860400,-0.368164,0.898193,-0.304932
1519490860410,-0.369873,0.894043,-0.307373
1519490860414,-0.379395,0.888428,-0.313965
1519490860436,-0.383301,0.888672,-0.312988
1519490860470,-0.382324,0.892090,-0.304443
1519490860484,-0.381348,0.891113,-0.305908
1519490860518,-0.380371,0.891357,-0.308594
1519490860548,-0.374268,0.894043,-0.310791
1519490860602,-0.376953,0.886719,-0.301514
1519490860636,-0.380371,0.890625,-0.302979
1519490860668,-0.384277,0.885254,-0.309570
1519490860699,-0.382324,0.892090,-0.311523
1519490860732,-0.375732,0.888428,-0.306396
1519490860764,-0.372070,0.890381,-0.300537
1519490860799,-0.377686,0.886230,-0.292969
1519490860832,-0.379395,0.896729,-0.308105
1519490860840,-0.379883,0.886475,-0.311279
1519490860895,-0.376221,0.890625,-0.302979
1519490860911,-0.375244,0.895752,-0.300049
1519490860936,-0.373291,0.891602,-0.301025
1519490860994,-0.375000,0.876465,-0.304932
1519490861002,-0.380127,0.876953,-0.300781
1519490861051,-0.381348,0.884521,-0.307373
1519490861084,-0.381104,0.893311,-0.312500
1519490861116,-0.382080,0.911621,-0.310791
1519490861150,-0.385254,0.890625,-0.301514
1519490861181,-0.380615,0.893066,-0.300781
1519490861214,-0.381104,0.899414,-0.299561
1519490861247,-0.380859,0.906006,-0.308838
1519490861278,-0.376221,0.886719,-0.307373
1519490861312,-0.380615,0.886719,-0.304688
1519490861326,-0.394043,0.879639,-0.299805
1519490861384,-0.385742,0.868652,-0.292725
1519490861416,-0.381104,0.848633,-0.296631
1519490861424,-0.379150,0.907227,-0.312988
1519490861473,-0.383789,0.877686,-0.326904
1519490861479,-0.386475,0.885254,-0.309814
1519490861512,-0.380615,0.890625,-0.299561
1519490861571,-0.385498,0.904297,-0.302246
1519490861579,-0.386719,0.880859,-0.308350
1519490861634,-0.387207,0.875977,-0.301270
1519490861665,-0.381836,0.882568,-0.308105
1519490861698,-0.383545,0.888916,-0.311523
1519490861732,-0.378662,0.882324,-0.311768
1519490861746,-0.383057,0.889648,-0.311768
1519490861778,-0.380371,0.888672,-0.303467
1519490861823,-0.383301,0.906494,-0.300293
1519490861856,-0.384033,0.896240,-0.310059
1519490861889,-0.386230,0.885742,-0.307617
1519490861923,-0.383057,0.888428,-0.313965
1519490861955,-0.378906,0.886475,-0.309570
1519490861987,-0.371826,0.886719,-0.304199
1519490861997,-0.371094,0.881836,-0.298828
1519490862050,-0.381592,0.895996,-0.311035
1519490862081,-0.381592,0.891602,-0.306885
1519490862089,-0.378174,0.885498,-0.309326
1519490862145,-0.375488,0.897705,-0.310059
1519490862160,-0.374512,0.890381,-0.304199
1519490862191,-0.375732,0.892578,-0.308105
1519490862249,-0.382324,0.880127,-0.311523
1519490862282,-0.379639,0.883301,-0.310547
1519490862291,-0.379639,0.888184,-0.312744
1519490862344,-0.376221,0.895020,-0.307861
1519490862378,-0.377686,0.908691,-0.308594
1519490862411,-0.387695,0.885986,-0.319580
1519490862443,-0.386963,0.871826,-0.321533
1519490862455,-0.380127,0.873291,-0.321533
1519490862475,-0.372803,0.894287,-0.317139
1519490862534,-0.377441,0.884521,-0.318115
1519490862543,-0.375977,0.876465,-0.318115
1519490862581,-0.376709,0.874023,-0.325195
1519490862612,-0.375732,0.876221,-0.313232
1519490862645,-0.381592,0.877197,-0.304199
1519490862678,-0.388672,0.893555,-0.314209
1519490862710,-0.385742,0.898926,-0.322021
1519490862742,-0.384766,0.902100,-0.330322
1519490862779,-0.375977,0.883789,-0.321289
1519490862812,-0.374756,0.883545,-0.319336
1519490862844,-0.377197,0.882080,-0.314697
1519490862876,-0.379150,0.876709,-0.314941
1519490862909,-0.378662,0.875488,-0.321289
1519490862942,-0.378174,0.882568,-0.322998
1519490862955,-0.377686,0.888672,-0.318115
1519490863013,-0.372314,0.891602,-0.311279
1519490863046,-0.377686,0.891113,-0.315430
1519490863079,-0.381836,0.886963,-0.324707
1519490863103,-0.377441,0.870850,-0.320068
1519490863136,-0.377686,0.884521,-0.317139
1519490863169,-0.381348,0.890869,-0.319580
1519490863201,-0.374756,0.883301,-0.325439
1519490863233,-0.375488,0.886230,-0.330322
1519490863266,-0.363770,0.885498,-0.320557
1519490863299,-0.369385,0.878906,-0.312256
1519490863331,-0.376953,0.890381,-0.328125
1519490863363,-0.380127,0.889648,-0.331543
1519490863397,-0.372803,0.889404,-0.324951
1519490863429,-0.371582,0.893066,-0.317383
1519490863462,-0.374268,0.895996,-0.319580
1519490863494,-0.372803,0.887207,-0.324219
1519490863526,-0.375732,0.881104,-0.327148
1519490863534,-0.375244,0.877441,-0.327393
1519490863591,-0.369629,0.884277,-0.320068
1519490863624,-0.369873,0.882813,-0.315430
1519490863656,-0.375977,0.893066,-0.322510
1519490863689,-0.373291,0.880371,-0.326904
1519490863719,-0.372559,0.890381,-0.327393
1519490863754,-0.373291,0.887695,-0.319824
1519490863768,-0.377197,0.893311,-0.320801
1519490863800,-0.380127,0.884521,-0.322510
1519490863857,-0.377197,0.892822,-0.322510
1519490863891,-0.370605,0.884521,-0.320068
1519490863898,-0.366455,0.895264,-0.316895
1519490863955,-0.367432,0.884521,-0.304443
1519490863988,-0.367920,0.890869,-0.321045
1519490864021,-0.369385,0.892090,-0.325928
1519490864029,-0.366699,0.899170,-0.325439
1519490864080,-0.363281,0.885498,-0.302979
1519490864112,-0.370117,0.899170,-0.305664
1519490864119,-0.372803,0.886475,-0.316650
1519490864172,-0.376709,0.881104,-0.315430
1519490864206,-0.369141,0.875488,-0.320068
1519490864237,-0.370117,0.889893,-0.316650
1519490864270,-0.373047,0.890869,-0.311768
1519490864302,-0.374512,0.893311,-0.312012
1519490864334,-0.376709,0.892090,-0.312500
1519490864384,-0.370605,0.896729,-0.318115
1519490864393,-0.370117,0.885986,-0.311035
1519490864418,-0.372803,0.884521,-0.311768
1519490864451,-0.369385,0.889404,-0.318604
1519490864482,-0.368408,0.889160,-0.313965
1519490864514,-0.370605,0.883301,-0.307861
1519490864547,-0.366699,0.891113,-0.307861
1519490864604,-0.372559,0.902588,-0.311279
1519490864607,-0.371826,0.894775,-0.323242
1519490864664,-0.373779,0.885742,-0.314453
1519490864676,-0.365234,0.887207,-0.308350
1519490864702,-0.364258,0.895020,-0.309570
1519490864760,-0.362061,0.887207,-0.315918
1519490864766,-0.375488,0.891602,-0.322510
1519490864821,-0.365479,0.869385,-0.294189
1519490864854,-0.366455,0.897705,-0.322021
1519490864926,-0.374023,0.890381,-0.315186
1519490864935,-0.375732,0.890137,-0.312988
1519490864994,-0.372803,0.896729,-0.324219
1519490865062,-0.357666,0.888672,-0.326904
1519490865127,-0.374512,0.883301,-0.314209
1519490865131,-0.378906,0.881592,-0.315430
1519490865197,-0.369873,0.893555,-0.321777
1519490865205,-0.373779,0.880371,-0.313477
1519490865265,-0.370605,0.897217,-0.321777
1519490865273,-0.371094,0.897217,-0.313965
1519490865332,-0.376953,0.883545,-0.316895
1519490865341,-0.376709,0.885010,-0.323242
1519490865383,-0.371094,0.880859,-0.326172
1519490865386,-0.367920,0.891113,-0.320801
1519490865389,-0.370605,0.892822,-0.316650
1519490865392,-0.366455,0.891113,-0.315430
1519490865395,-0.367676,0.884766,-0.319092
1519490865420,-0.373535,0.879883,-0.320068
1519490865454,-0.374023,0.889404,-0.321533
1519490865486,-0.371826,0.894775,-0.318115
1519490865520,-0.375000,0.888428,-0.320313
1519490865552,-0.372070,0.883545,-0.318604
1519490865584,-0.373291,0.888428,-0.321289
1519490865616,-0.369873,0.883789,-0.315674
1519490865665,-0.371338,0.886963,-0.319092
1519490865674,-0.368408,0.885010,-0.320801
1519490865726,-0.365723,0.889893,-0.317627
1519490865759,-0.368896,0.892822,-0.321777
1519490865766,-0.370361,0.894775,-0.313477
1519490865818,-0.353516,0.868896,-0.300781
1519490865831,-0.375000,0.899902,-0.331055
1519490865865,-0.382080,0.892090,-0.337158
1519490865896,-0.358398,0.891846,-0.318359
1519490865928,-0.359375,0.894775,-0.314697
1519490865962,-0.371094,0.948486,-0.327148
1519490865994,-0.361084,0.820068,-0.325195
1519490866052,-0.363525,0.896729,-0.315674
1519490866084,-0.375244,0.889893,-0.322021
1519490866093,-0.363525,0.892578,-0.312256
1519490866148,-0.358398,0.888916,-0.326904
1519490866179,-0.361328,0.893311,-0.322754
1519490866212,-0.376465,0.899414,-0.322998
1519490866217,-0.373291,0.892578,-0.315430
1519490866258,-0.364746,0.884521,-0.317627
1519490866291,-0.364502,0.883057,-0.322998
1519490866324,-0.367920,0.892090,-0.329834
1519490866357,-0.366699,0.893311,-0.320801
1519490866390,-0.356445,0.893311,-0.309814
1519490866421,-0.358154,0.889404,-0.310059
1519490866454,-0.349365,0.843262,-0.308350
1519490866487,-0.356201,0.908691,-0.326172
1519490866519,-0.384033,0.943115,-0.367432
1519490866552,-0.384277,0.914307,-0.338135
1519490866584,-0.358398,0.877197,-0.311768
1519490866617,-0.349609,0.862061,-0.302002
1519490866631,-0.363281,0.883057,-0.320313
1519490866688,-0.371094,0.909424,-0.326416
1519490866721,-0.368164,0.896240,-0.313477
1519490866730,-0.355469,0.887939,-0.311279
1519490866778,-0.347900,0.904297,-0.313965
1519490866812,-0.352051,0.904297,-0.312256
1519490866845,-0.359131,0.895264,-0.317871
1519490866877,-0.355713,0.895752,-0.307129
1519490866908,-0.344727,0.899902,-0.291992
1519490866944,-0.357422,0.876221,-0.316406
1519490866978,-0.383545,0.856445,-0.362793
1519490867010,-0.374756,0.885742,-0.370361
1519490867040,-0.369629,0.892822,-0.360352
1519490867058,-0.373779,0.877930,-0.345215
1519490867086,-0.376953,0.818604,-0.309570
1519490867143,-0.364014,0.855225,-0.305176
1519490867177,-0.361328,0.917969,-0.369873
1519490867209,-0.376953,0.892090,-0.407471
1519490867214,-0.362549,0.872803,-0.344238
1519490867267,-0.369141,0.862549,-0.311279
1519490867301,-0.404053,0.913330,-0.353027
1519490867309,-0.389160,0.966553,-0.374756
1519490867359,-0.371094,0.835693,-0.291260
1519490867392,-0.355469,0.863525,-0.258301
1519490867425,-0.346191,0.938721,-0.247070
1519490867458,-0.392334,0.888672,-0.314209
1519490867471,-0.366943,0.900391,-0.305664
1519490867502,-0.367920,0.854492,-0.282715
1519490867561,-0.361816,0.875244,-0.282227
1519490867594,-0.368164,0.878418,-0.303223
1519490867606,-0.350342,0.849609,-0.277832
1519490867663,-0.364990,0.994385,-0.348389
1519490867672,-0.370605,0.973877,-0.342041
1519490867725,-0.348145,0.854248,-0.290771
1519490867755,-0.357422,0.871582,-0.300781
1519490867788,-0.371094,0.890381,-0.324707
1519490867791,-0.384033,0.873291,-0.340576
1519490867846,-0.352051,0.865723,-0.302979
1519490867853,-0.340576,0.899170,-0.316895
1519490867885,-0.341064,0.947266,-0.332764
1519490867943,-0.368164,0.906738,-0.326416
1519490867950,-0.365479,0.886230,-0.333252
1519490868007,-0.365967,0.897949,-0.331055
1519490868040,-0.393066,0.896729,-0.300537
1519490868073,-0.386230,0.864502,-0.267334
1519490868106,-0.346680,0.852295,-0.280273
1519490868137,-0.362061,0.913818,-0.285400
1519490868170,-0.365234,0.918945,-0.249756
1519490868223,-0.374756,0.928467,-0.294678
1519490868226,-0.368896,0.894043,-0.302734
1519490868256,-0.364258,0.886475,-0.295166
1519490868299,-0.367188,0.903564,-0.285889
1519490868331,-0.368652,0.898193,-0.294922
1519490868368,-0.366455,0.894775,-0.310303
1519490868376,-0.358887,0.887939,-0.305664
1519490868425,-0.357422,0.883301,-0.295166
1519490868459,-0.370850,0.881104,-0.294922
1519490868466,-0.372559,0.898193,-0.298584
1519490868523,-0.364990,0.915039,-0.292236
1519490868553,-0.361816,0.912842,-0.297119
1519490868590,-0.370117,0.937500,-0.304932
1519490868621,-0.350586,0.865479,-0.274658
1519490868654,-0.373779,0.905518,-0.298340
1519490868668,-0.379883,0.922119,-0.307129
1519490868700,-0.350586,0.843994,-0.268311
1519490868732,-0.381348,0.925049,-0.327148
1519490868765,-0.379639,0.910889,-0.304443
1519490868824,-0.356445,0.876953,-0.289063
1519490868856,-0.350586,0.879883,-0.288330
1519490868865,-0.363037,0.896240,-0.320313
1519490868914,-0.371582,0.885986,-0.315674
1519490868947,-0.365723,0.882324,-0.309814
1519490868956,-0.372559,0.855713,-0.314941
1519490869005,-0.350342,0.864502,-0.306641
1519490869038,-0.347900,0.845947,-0.330322
1519490869071,-0.329590,0.847656,-0.363770
1519490869112,-0.312256,0.867432,-0.315918
1519490869121,-0.336670,0.794678,-0.423340
1519490869169,-0.374268,0.676758,-0.493408
1519490869202,-0.344971,0.695801,-0.479492
1519490869235,-0.315186,0.690918,-0.557861
1519490869267,-0.339600,0.822998,-0.707764
1519490869301,-0.348145,0.826660,-0.782959
1519490869333,-0.320068,0.843262,-0.698486
1519490869366,-0.320557,0.989014,-0.606201
1519490869398,-0.249268,0.869873,-0.369385
1519490869432,-0.208740,0.772949,-0.422852
1519490869440,-0.243652,0.764160,-0.499023
1519490869504,-0.287354,0.937012,-0.514160
1519490869519,-0.272705,0.808105,-0.502197
1519490869527,-0.263428,0.667480,-0.538574
1519490869586,-0.237793,0.771973,-0.509766
1519490869619,-0.203125,0.851074,-0.391602
1519490869651,-0.181152,0.678711,-0.626221
1519490869683,-0.195313,0.761230,-0.659912
1519490869716,-0.187744,0.652344,-0.719971
1519490869747,-0.208496,0.620117,-0.812500
1519490869779,-0.259766,0.708252,-0.876709
1519490869813,-0.215088,0.660156,-0.919922
1519490869845,-0.219482,0.593994,-0.710938
1519490869919,-0.202393,0.791992,-0.795166
1519490869928,-0.185547,0.571777,-0.655029
1519490869984,-0.188721,0.627441,-0.737549
1519490869987,-0.259766,0.767090,-0.781250
1519490870052,-0.291504,0.761719,-0.628662
1519490870055,-0.256348,0.541748,-0.569824
1519490870121,-0.275391,0.681641,-0.516846
1519490870126,-0.211914,0.817139,-0.489502
1519490870188,-0.128174,0.598877,-0.718018
1519490870196,-0.144531,0.737305,-0.789551
1519490870255,-0.155518,0.768311,-0.732910
1519490870261,-0.188721,0.579590,-0.737793
1519490870324,-0.208984,0.600098,-0.792969
1519490870332,-0.254639,0.647461,-0.783691
1519490870383,-0.217285,0.767822,-0.733398
1519490870386,-0.235840,0.819824,-0.667480
1519490870389,-0.220459,0.931152,-0.616455
1519490870421,-0.265137,0.817383,-0.563477
1519490870452,-0.318359,0.850342,-0.494629
1519490870484,-0.263916,0.941406,-0.491943
1519490870521,-0.300049,0.825195,-0.551514
1519490870552,-0.291504,0.865723,-0.531250
1519490870557,-0.293945,0.952393,-0.467773
1519490870616,-0.260010,0.794189,-0.467529
1519490870647,-0.294678,0.892578,-0.342529
1519490870655,-0.317871,0.863770,-0.313232
1519490870712,-0.368652,0.771729,-0.287598
1519490870743,-0.365967,0.811768,-0.347656
1519490870756,-0.355713,0.785156,-0.298584
1519490870813,-0.400635,0.816406,-0.299561
1519490870846,-0.428223,0.792480,-0.349365
1519490870879,-0.414795,0.845703,-0.269043
1519490870911,-0.412842,0.852051,-0.268311
1519490870943,-0.433838,0.775635,-0.288818
1519490870976,-0.425049,0.872803,-0.291748
1519490870984,-0.434082,0.984619,-0.251709
1519490871033,-0.433350,0.883057,-0.294434
1519490871041,-0.421143,0.883545,-0.302246
1519490871070,-0.416260,0.859619,-0.302490
1519490871128,-0.415283,0.877930,-0.291260
1519490871159,-0.430176,0.880127,-0.308350
1519490871173,-0.432129,0.879639,-0.325684
1519490871231,-0.407227,0.862793,-0.318359
1519490871263,-0.410156,0.854492,-0.323242
1519490871269,-0.413086,0.861816,-0.322021
1519490871327,-0.411865,0.861084,-0.327637
1519490871359,-0.416748,0.870850,-0.329102
1519490871392,-0.408691,0.857666,-0.320557
1519490871424,-0.404053,0.847900,-0.320801
1519490871456,-0.404053,0.858154,-0.335205
1519490871492,-0.400635,0.836426,-0.342529
1519490871524,-0.387939,0.820313,-0.357178
1519490871558,-0.376953,0.834473,-0.366699
1519490871566,-0.369385,0.862793,-0.397705
1519490871630,-0.384521,0.869629,-0.417725
1519490871638,-0.376953,0.873047,-0.424072
1519490871663,-0.363525,0.877930,-0.409912
1519490871721,-0.363281,0.864990,-0.401123
1519490871729,-0.368164,0.868164,-0.405518
1519490871757,-0.369141,0.859131,-0.416260
1519490871812,-0.369141,0.853027,-0.424072
1519490871844,-0.367920,0.834229,-0.422119
1519490871853,-0.351563,0.826416,-0.412842
1519490871908,-0.352295,0.869629,-0.411621
1519490871942,-0.368408,0.877441,-0.423340
1519490871973,-0.366211,0.842529,-0.423340
1519490871985,-0.379639,0.856934,-0.423096
1519490872062,-0.372803,0.848877,-0.405029
1519490872065,-0.364746,0.847168,-0.398682
1519490872098,-0.354004,0.854980,-0.419434
1519490872132,-0.352295,0.857910,-0.417480
1519490872140,-0.355713,0.842041,-0.417969
1519490872193,-0.357178,0.836914,-0.410400
1519490872226,-0.362793,0.849609,-0.416504
1519490872257,-0.367920,0.852539,-0.412598
1519490872290,-0.369629,0.857178,-0.406738
1519490872323,-0.370361,0.850830,-0.407715
1519490872338,-0.360840,0.850098,-0.405029
1519490872372,-0.361328,0.853516,-0.402832
1519490872412,-0.365967,0.862793,-0.399414
1519490872450,-0.363770,0.838379,-0.400146
1519490872480,-0.357422,0.841309,-0.412354
1519490872514,-0.362061,0.848633,-0.410645
1519490872548,-0.361816,0.848633,-0.402588
1519490872580,-0.360107,0.864502,-0.402100
1519490872612,-0.363770,0.843994,-0.405273
1519490872621,-0.363770,0.854736,-0.396484
1519490872676,-0.367188,0.873779,-0.393311
1519490872708,-0.366455,0.861816,-0.409668
1519490872719,-0.365479,0.841309,-0.417725
1519490872771,-0.362793,0.842041,-0.413086
1519490872785,-0.369873,0.824951,-0.407959
1519490872818,-0.365234,0.843994,-0.389648
1519490872876,-0.356689,0.869141,-0.398682
1519490872885,-0.347900,0.855469,-0.392334
1519490872937,-0.366699,0.875977,-0.425049
1519490872970,-0.369141,0.855469,-0.417725
1519490873003,-0.365723,0.835693,-0.405029
1519490873037,-0.357178,0.828369,-0.422852
1519490873068,-0.360107,0.873291,-0.409668
1519490873100,-0.368408,0.852295,-0.404053
1519490873133,-0.366943,0.841309,-0.425537
1519490873166,-0.362305,0.849121,-0.424805
1519490873197,-0.365723,0.857666,-0.423828
1519490873202,-0.366699,0.853760,-0.416748
1519490873257,-0.361084,0.844238,-0.413818
1519490873290,-0.369141,0.840332,-0.423340
1519490873298,-0.367188,0.844727,-0.415039
1519490873348,-0.357422,0.838623,-0.401367
1519490873381,-0.348145,0.834961,-0.409180
1519490873417,-0.363281,0.860840,-0.415283
1519490873450,-0.370605,0.861572,-0.409424
1519490873482,-0.366699,0.856445,-0.415039
1519490873514,-0.361572,0.840576,-0.409180
1519490873547,-0.355225,0.817871,-0.395508
1519490873579,-0.358398,0.855957,-0.395996
1519490873612,-0.362549,0.884277,-0.402832
1519490873644,-0.353516,0.828125,-0.403809
1519490873676,-0.351074,0.862061,-0.405029
1519490873709,-0.355469,0.870850,-0.411133
1519490873740,-0.357910,0.863770,-0.409668
1519490873773,-0.350342,0.833008,-0.410645
1519490873779,-0.349609,0.838135,-0.409180
1519490873838,-0.357422,0.870605,-0.420898
1519490873871,-0.358154,0.862305,-0.419434
1519490873879,-0.351318,0.843262,-0.411133
1519490873935,-0.355225,0.864258,-0.415527
1519490873967,-0.352295,0.866455,-0.403564
1519490874000,-0.350098,0.848145,-0.417480
1519490874012,-0.347168,0.853271,-0.419434
1519490874045,-0.354004,0.849609,-0.417725
1519490874077,-0.351563,0.846436,-0.409912
1519490874111,-0.354492,0.837891,-0.419434
1519490874167,-0.354980,0.846924,-0.418457
1519490874201,-0.362793,0.850098,-0.409424
1519490874234,-0.363770,0.844727,-0.411865
1519490874242,-0.363770,0.854736,-0.407715
1519490874296,-0.361816,0.858398,-0.417480
1519490874329,-0.361816,0.854980,-0.416748
1519490874362,-0.362305,0.843262,-0.421143
1519490874370,-0.359619,0.849609,-0.418457
1519490874431,-0.365723,0.851807,-0.410400
1519490874439,-0.371338,0.850098,-0.418457
1519490874463,-0.369629,0.844482,-0.417725
1519490874520,-0.349121,0.834961,-0.417725
1519490874524,-0.356689,0.869385,-0.423340
1519490874582,-0.353271,0.865234,-0.427979
1519490874624,-0.344238,0.820801,-0.408691
1519490874633,-0.362061,0.841797,-0.401123
1519490874661,-0.373291,0.864258,-0.403809
1519490874693,-0.350342,0.882080,-0.390137
1519490874725,-0.344727,0.863281,-0.404785
1519490874782,-0.343262,0.826904,-0.417969
1519490874816,-0.329346,0.823242,-0.386475
1519490874828,-0.337158,0.778809,-0.358398
1519490874900,-0.330811,0.785156,-0.276123
1519490874909,-0.329102,0.938965,-0.293945
1519490874969,-0.200684,0.977295,-0.399170
1519490874976,-0.250244,0.898193,-0.410645
1519490875035,-0.223877,0.857666,-0.407471
1519490875043,-0.219971,0.869873,-0.436035
1519490875103,-0.259521,0.909668,-0.432861
1519490875112,-0.243896,0.816895,-0.504639
1519490875170,-0.231201,0.866211,-0.568848
1519490875176,-0.216064,0.917969,-0.537109
1519490875239,-0.186523,0.800049,-0.388184
1519490875306,-0.197266,0.828369,-0.437988
1519490875372,-0.174072,0.881592,-0.454834
1519490875375,-0.186523,0.863525,-0.402344
1519490875387,-0.190918,0.855469,-0.501465
1519490875392,-0.181885,0.864014,-0.586182
1519490875397,-0.205566,0.859131,-0.574707
1519490875423,-0.187012,0.848633,-0.642578
1519490875426,-0.183350,0.823730,-0.631592
1519490875482,-0.185547,0.832275,-0.581055
1519490875515,-0.200439,0.883545,-0.580078
1519490875521,-0.192871,0.942139,-0.511963
1519490875580,-0.192627,0.843750,-0.524414
1519490875612,-0.195068,0.844238,-0.547119
1519490875644,-0.191162,0.871338,-0.564941
1519490875686,-0.187256,0.833008,-0.559326
1519490875695,-0.182373,0.818359,-0.542480
1519490875743,-0.192139,0.822754,-0.563965
1519490875776,-0.197266,0.802002,-0.482666
1519490875809,-0.188232,0.784912,-0.427734
1519490875842,-0.190918,0.804199,-0.471924
1519490875874,-0.192139,0.840088,-0.487061
1519490875905,-0.179199,0.888916,-0.544678
1519490875937,-0.183105,0.874023,-0.528320
1519490875970,-0.183350,0.784668,-0.535156
1519490876002,-0.192627,0.761719,-0.538086
1519490876011,-0.199951,0.760498,-0.544922
1519490876062,-0.206543,0.753174,-0.564697
1519490876095,-0.225098,0.718262,-0.581543
1519490876104,-0.221191,0.684814,-0.648438
1519490876158,-0.239746,0.696533,-0.671387
1519490876191,-0.207275,0.559326,-0.636475
1519490876222,-0.180664,0.454834,-0.717041
1519490876255,-0.104248,0.385254,-0.876953
1519490876288,-0.071777,0.580322,-0.856934
1519490876326,0.012451,0.635742,-0.732666
1519490876338,0.004883,0.383789,-1.045898
1519490876370,0.011230,0.489502,-1.118896
1519490876428,0.024902,0.635010,-1.000977
1519490876436,-0.036865,0.684570,-0.927490
1519490876493,-0.044922,0.700195,-0.808350
1519490876524,-0.023438,0.679688,-0.811279
1519490876557,0.072754,0.604736,-0.710938
1519490876589,0.037109,0.631104,-0.876221
1519490876597,-0.049561,0.457520,-0.857422
1519490876622,-0.149658,0.321533,-0.999023
1519490876679,-0.123291,0.443359,-1.057617
1519490876684,-0.127197,0.607666,-0.883789
1519490876741,-0.057129,0.989990,-0.602783
1519490876772,-0.116211,0.828613,-0.754395
1519490876805,-0.155518,0.557373,-0.652832
1519490876838,-0.138184,0.749268,-0.716309
1519490876852,-0.115723,0.712402,-0.576416
1519490876884,-0.114502,0.602051,-0.629883
1519490876917,-0.091797,0.809570,-0.638428
1519490876975,-0.198242,0.727051,-0.675537
1519490877008,-0.174072,0.857422,-0.552979
1519490877039,-0.079834,0.946045,-0.418213
1519490877047,-0.101807,0.855469,-0.465088
1519490877106,-0.172363,0.906982,-0.416016
1519490877139,-0.157471,0.798340,-0.417969
1519490877146,-0.139893,0.797119,-0.282471
1519490877184,-0.181885,1.007324,-0.417969
1519490877217,-0.182861,0.932861,-0.396240
1519490877250,-0.169922,1.050049,-0.316406
1519490877263,-0.153076,1.044189,-0.240723
1519490877320,-0.135254,0.936035,-0.155518
1519490877353,-0.163330,0.944092,-0.249023
1519490877386,-0.157471,0.989258,-0.348389
1519490877419,-0.157227,0.979248,-0.247559
1519490877451,-0.012695,0.869141,-0.305664
1519490877484,-0.028564,1.094971,-0.288574
1519490877517,-0.138672,0.926270,-0.303223
1519490877549,-0.189209,0.848389,-0.370361
1519490877557,-0.228271,0.963379,-0.377686
1519490877605,-0.269287,1.064941,-0.288818
1519490877639,-0.251221,1.019287,-0.258789
1519490877648,-0.232178,0.982178,-0.224121
1519490877703,-0.221680,0.999512,-0.145996
1519490877735,-0.226074,0.930176,-0.170654
1519490877767,-0.200195,0.893799,-0.200684
1519490877800,-0.229492,0.980713,-0.093750
1519490877833,-0.205322,0.929443,-0.083984
1519490877866,-0.235596,0.931885,-0.032715
1519490877899,-0.283203,0.969238,0.058594
1519490877932,-0.281006,0.902100,0.025391
1519490877963,-0.271240,0.890381,0.006836
1519490877997,-0.322754,1.001709,0.066650
1519490878028,-0.323730,0.872070,0.203857
1519490878061,-0.291260,0.974121,0.392090
1519490878078,-0.269287,0.899658,0.280029
1519490878134,-0.215332,0.811523,0.235840
1519490878142,-0.188232,1.041260,0.342529
1519490878191,-0.179443,1.154541,0.362793
1519490878196,-0.201904,0.979492,0.247070
1519490878233,-0.227051,0.977539,0.182861
1519490878290,-0.244385,0.904297,0.101807
1519490878294,-0.233643,0.861572,0.165527
1519490878349,-0.232422,0.952393,0.262207
1519490878382,-0.276123,1.033447,0.258789
1519490878415,-0.233154,0.984375,0.186768
1519490878465,-0.275146,0.899170,0.154541
1519490878473,-0.216064,0.982178,0.201904
1519490878512,-0.191406,1.034668,0.205811
1519490878544,-0.240967,1.047363,0.105225
1519490878576,-0.257568,1.035400,0.062256
1519490878609,-0.221680,0.979980,0.169922
1519490878617,-0.224365,0.994629,0.232178
1519490878671,-0.218018,0.979492,0.214355
1519490878704,-0.206055,0.891357,0.196289
1519490878712,-0.184570,0.903809,0.190186
1519490878767,-0.150879,1.028076,0.169189
1519490878798,-0.157959,1.041260,0.049072
1519490878831,-0.150879,1.054443,0.093506
1519490878865,-0.199951,1.048828,0.102539
1519490878878,-0.226807,1.045654,0.039307
1519490878911,-0.238770,0.966553,0.075928
1519490878944,-0.206299,0.967529,0.156738
1519490879001,-0.206543,0.991943,0.137451
1519490879033,-0.195801,0.985107,0.158447
1519490879042,-0.180664,0.960205,0.162354
1519490879098,-0.170166,1.052246,0.139893
1519490879129,-0.137695,1.045166,-0.006348
1519490879162,-0.224121,0.897461,0.073486
1519490879193,-0.070313,1.094238,-0.027344
1519490879199,-0.137207,1.161133,-0.031494
1519490879256,-0.252197,1.037598,-0.008545
1519490879287,-0.277344,1.046387,-0.003418
1519490879293,-0.246338,1.076416,-0.095703
1519490879347,-0.238525,0.986816,-0.031006
1519490879378,-0.198486,0.957520,-0.019775
1519490879410,-0.217773,0.933594,-0.022217
1519490879444,-0.229248,0.830566,0.080078
1519490879477,-0.240967,0.922119,0.102783
1519490879509,-0.236328,0.958740,-0.006348
1519490879540,-0.216309,1.049316,-0.083984
1519490879573,-0.237549,1.029297,-0.127441
1519490879606,-0.239258,0.983887,-0.133301
1519490879639,-0.232666,0.997070,-0.131836
1519490879672,-0.252197,0.997803,-0.122803
1519490879689,-0.279053,1.006104,-0.138184
1519490879745,-0.270264,1.010742,-0.089111
1519490879777,-0.271973,0.982178,-0.152100
1519490879784,-0.278076,1.001709,-0.125977
1519490879835,-0.244141,0.967285,-0.095947
1519490879908,-0.244629,0.933838,-0.055664
1519490879916,-0.226807,0.948486,-0.067627
1519490879977,-0.252930,0.965088,-0.138672
1519490879985,-0.262939,0.996826,-0.147949
1519490880042,-0.321045,0.868164,-0.348633
1519490880045,-0.302002,0.937500,-0.095947
1519490880109,-0.193604,1.117676,0.185791
1519490880111,-0.254150,1.141357,-0.175781
1519490880176,-0.303223,1.040527,-0.102295
1519490880178,-0.303711,0.968750,-0.011230
1519490880245,-0.269775,1.005371,-0.147949
1519490880250,-0.286621,1.054443,-0.130371
1519490880312,-0.291504,1.035156,-0.147949
1519490880318,-0.329590,0.941162,-0.093750
1519490880381,-0.342773,0.834229,-0.053955
1519490880389,-0.338623,0.807617,-0.081543
1519490880402,-0.373047,0.804199,0.041504
1519490880408,-0.397705,0.960938,0.057373
1519490880435,-0.446777,1.046387,0.048828
1519490880467,-0.466797,1.050537,0.047363
1519490880526,-0.421875,0.965332,0.127930
1519490880534,-0.374268,0.890381,0.132324
1519490880571,-0.346191,0.911377,0.121094
1519490880603,-0.348145,0.919189,0.140625
1519490880637,-0.332031,0.862549,0.170654
1519490880669,-0.315918,0.766602,0.167236
1519490880702,-0.223145,0.818848,0.066406
1519490880735,-0.226563,1.024902,0.108398
1519490880767,-0.304932,1.009521,0.242432
1519490880798,-0.393066,0.992920,0.237793
1519490880831,-0.397217,1.092285,0.183350
1519490880864,-0.393555,1.058594,0.162354
1519490880898,-0.376221,0.998535,0.135498
1519490880930,-0.353027,0.973633,0.114746
1519490880943,-0.352051,0.965088,0.083740
1519490881002,-0.337402,0.875732,0.018799
1519490881023,-0.330566,0.823975,-0.024658
1519490881032,-0.308105,1.089600,0.089111
1519490881088,-0.330078,0.933350,0.061035
1519490881123,-0.337891,0.975830,0.070313
1519490881135,-0.326172,0.999023,0.106445
1519490881190,-0.328857,0.933838,0.128174
1519490881223,-0.343994,0.997314,0.131348
1519490881230,-0.367920,1.028564,0.105713
1519490881287,-0.366455,0.970947,0.143066
1519490881319,-0.337891,0.937744,0.249756
1519490881352,-0.358643,0.871826,0.266357
1519490881367,-0.360107,0.927246,0.203857
1519490881425,-0.343018,0.904053,0.192871
1519490881434,-0.411621,0.883789,0.058838
1519490881487,-0.345703,0.911865,0.243408
1519490881522,-0.288818,0.947754,0.274902
1519490881531,-0.317139,1.005371,0.167236
1519490881582,-0.331299,1.031494,0.189697
1519490881590,-0.331299,0.933838,0.249512
1519490881615,-0.358398,0.916016,0.153320
1519490881672,-0.396729,0.864502,0.213135
1519490881704,-0.363037,0.848145,0.276123
1519490881738,-0.397705,0.845215,0.241211
1519490881770,-0.516602,1.090820,0.224121
1519490881783,-0.427246,1.045166,0.384033
1519490881815,-0.329102,0.817627,0.376465
1519490881847,-0.286133,0.707031,0.382813
1519490881881,-0.294434,0.751953,0.427979
1519490881937,-0.268799,0.801514,0.489990
1519490881969,-0.296631,0.860107,0.446533
1519490882002,-0.322998,0.880859,0.412109
1519490882005,-0.332031,0.842773,0.427002
1519490882062,-0.340820,0.827637,0.473877
1519490882094,-0.320801,0.824219,0.460938
1519490882103,-0.296631,0.907471,0.408691
1519490882154,-0.328369,0.974121,0.399902
1519490882187,-0.330811,0.927002,0.389893
1519490882201,-0.328613,0.874023,0.362549
1519490882259,-0.338135,0.891357,0.394775
1519490882267,-0.338867,0.910645,0.356689
1519490882304,-0.335205,0.906494,0.335205
1519490882336,-0.337402,0.912109,0.363525
1519490882370,-0.324219,0.960449,0.341553
1519490882402,-0.333984,0.975586,0.261475
1519490882435,-0.333008,0.888916,0.311035
1519490882468,-0.319092,0.890625,0.336670
1519490882498,-0.285156,0.898193,0.356201
1519490882531,-0.290039,0.943604,0.323486
1519490882564,-0.303711,0.908447,0.293213
1519490882597,-0.294189,0.929443,0.291504
1519490882637,-0.302734,0.850586,0.308105
1519490882669,-0.300293,0.737793,0.279541
1519490882676,-0.294189,0.398682,0.040771
1519490882735,-0.211426,0.798584,-0.302490
1519490882767,-0.167725,1.277832,-0.550049
1519490882798,-0.119629,1.173340,-0.381592
1519490882831,-0.067871,1.544189,-0.356934
1519490882865,-0.180664,1.191406,-0.698975
1519490882898,-0.240723,1.072510,-0.609863
1519490882930,-0.378174,0.920410,-0.562744
1519490882962,-0.433350,0.903564,-0.381836
1519490882996,-0.361084,0.789063,-0.190918
1519490883028,-0.333008,0.783691,-0.273193
1519490883041,-0.285156,0.863770,-0.262451
1519490883076,-0.261963,1.045898,-0.383545
1519490883110,-0.286621,0.950928,-0.409180
1519490883142,-0.429199,0.726807,-0.281006
1519490883175,-0.476563,0.845947,-0.226807
1519490883206,-0.424805,1.097412,-0.120361
1519490883239,-0.381592,0.896973,-0.204346
1519490883270,-0.343018,0.768066,-0.163330
1519490883303,-0.417236,0.742676,-0.241455
1519490883336,-0.427246,0.802490,-0.292725
1519490883370,-0.437256,0.791260,-0.262451
1519490883400,-0.438965,0.804199,-0.250244
1519490883433,-0.471680,0.925293,-0.243652
1519490883475,-0.526123,1.020752,-0.289551
1519490883509,-0.535645,0.885986,-0.276123
1519490883541,-0.553467,0.782715,-0.252686
1519490883544,-0.566162,0.778076,-0.278564
1519490883608,-0.539063,0.737305,-0.269775
1519490883642,-0.543213,0.753418,-0.249268
1519490883651,-0.536621,0.840820,-0.219727
1519490883701,-0.511719,0.813232,-0.151367
1519490883710,-0.467773,0.763184,-0.135742
1519490883764,-0.466553,0.869385,-0.210693
1519490883798,-0.500244,0.901611,-0.312500
1519490883805,-0.497314,0.836670,-0.283447
1519490883860,-0.490479,0.836182,-0.208252
1519490883893,-0.516357,0.836182,-0.189941
1519490883925,-0.526367,0.835938,-0.190430
1519490883956,-0.527344,0.814453,-0.184570
1519490883989,-0.495117,0.896240,-0.210205
1519490884022,-0.490723,0.911377,-0.230957
1519490884057,-0.479004,0.842285,-0.220703
1519490884089,-0.524658,0.812988,-0.266846
1519490884122,-0.526855,0.895264,-0.287354
1519490884125,-0.495605,0.866943,-0.261230
1519490884180,-0.494141,0.833984,-0.220215
1519490884213,-0.504150,0.825684,-0.246826
1519490884217,-0.526611,0.830811,-0.281982
1519490884276,-0.520996,0.819336,-0.272461
1519490884309,-0.499268,0.832031,-0.235107
1519490884341,-0.516113,0.842285,-0.238281
1519490884374,-0.516846,0.833008,-0.233154
1519490884407,-0.509521,0.843018,-0.243164
1519490884440,-0.515137,0.859375,-0.235352
1519490884472,-0.497314,0.839600,-0.261963
1519490884504,-0.492188,0.812500,-0.260498
1519490884536,-0.485596,0.802002,-0.289063
1519490884568,-0.486328,0.798096,-0.272705
1519490884601,-0.484131,0.848389,-0.276367
1519490884634,-0.472168,0.873779,-0.261475
1519490884666,-0.486816,0.895508,-0.279541
1519490884699,-0.514893,0.875000,-0.251953
1519490884704,-0.525879,0.852783,-0.234863
1519490884761,-0.529053,0.920654,-0.304199
1519490884793,-0.520752,0.862305,-0.303223
1519490884801,-0.525635,0.821777,-0.296875
1519490884899,-0.517578,0.784180,-0.274414
1519490884908,-0.510498,0.795898,-0.264893
1519490884968,-0.520752,0.833496,-0.260498
1519490884976,-0.519043,0.836426,-0.251465
1519490885034,-0.521729,0.826904,-0.260254
1519490885043,-0.536133,0.811279,-0.265869
1519490885103,-0.550537,0.825439,-0.260742
1519490885111,-0.551270,0.832520,-0.245605
1519490885170,-0.569092,0.819824,-0.243408
1519490885174,-0.554932,0.810303,-0.224854
1519490885236,-0.561768,0.803467,-0.234131
1519490885242,-0.555420,0.807861,-0.242676
1519490885304,-0.543945,0.815918,-0.231201
1519490885310,-0.549805,0.864990,-0.218262
1519490885372,-0.548096,0.820557,-0.206787
1519490885380,-0.551270,0.817383,-0.193604
1519490885391,-0.567627,0.819092,-0.192383
1519490885394,-0.572510,0.821045,-0.180664
1519490885448,-0.563477,0.790283,-0.185303
1519490885450,-0.561035,0.807129,-0.196289
1519490885482,-0.555420,0.848877,-0.212646
1519490885541,-0.547119,0.836914,-0.203125
1519490885573,-0.557861,0.823730,-0.179932
1519490885605,-0.543701,0.813965,-0.135498
1519490885613,-0.558350,0.857666,-0.151123
1519490885669,-0.581055,0.876709,-0.186523
1519490885701,-0.586426,0.869385,-0.197754
1519490885734,-0.541992,0.839111,-0.122803
1519490885767,-0.553223,0.830566,-0.117188
1519490885776,-0.581299,0.868408,-0.146240
1519490885824,-0.555176,0.802246,-0.152832
1519490885857,-0.503174,0.782227,-0.117920
1519490885865,-0.494385,0.829346,-0.137207
1519490885922,-0.517090,0.854980,-0.105469
1519490885955,-0.552002,0.885742,-0.128418
1519490885966,-0.583008,0.864746,-0.107666
1519490886024,-0.581543,0.828613,-0.128418
1519490886032,-0.586426,0.810059,-0.180664
1519490886088,-0.593994,0.843994,-0.181641
1519490886121,-0.571777,0.837158,-0.145996
1519490886145,-0.571777,0.838867,-0.136475
1519490886177,-0.593750,0.863525,-0.110352
1519490886208,-0.574707,0.827637,-0.073975
1519490886241,-0.563477,0.841309,-0.108643
1519490886273,-0.542725,0.847412,-0.127197
1519490886305,-0.556885,0.829834,-0.148926
1519490886338,-0.565674,0.814453,-0.136230
1519490886371,-0.537354,0.800781,-0.118652
1519490886405,-0.569092,0.864258,-0.126709
1519490886437,-0.609619,0.848633,-0.142334
1519490886446,-0.583496,0.803711,-0.117432
1519490886501,-0.575195,0.814453,-0.122559
1519490886533,-0.573730,0.839600,-0.129395
1519490886566,-0.582764,0.861084,-0.119385
1519490886599,-0.573730,0.833252,-0.116699
1519490886629,-0.559326,0.833496,-0.133789
1519490886663,-0.566162,0.847412,-0.147949
1519490886696,-0.547607,0.818848,-0.120117
1519490886728,-0.539551,0.846924,-0.103516
1519490886761,-0.551514,0.846680,-0.087646
1519490886794,-0.564941,0.836182,-0.108398
1519490886824,-0.562500,0.841797,-0.109375
1519490886857,-0.556641,0.842529,-0.083008
1519490886891,-0.556641,0.845459,-0.076416
1519490886899,-0.537598,0.850098,-0.075684
1519490886931,-0.524170,0.853027,-0.102051
1519490886964,-0.531006,0.813721,-0.064453
1519490886997,-0.530518,0.838135,-0.081543
1519490887030,-0.450684,0.976074,-0.111084
1519490887062,-0.425293,0.918701,-0.041016
1519490887095,-0.451660,0.977783,-0.050781
1519490887152,-0.527832,0.967529,-0.032959
1519490887184,-0.516357,0.850342,-0.092773
1519490887193,-0.505615,0.870361,-0.194580
1519490887247,-0.513428,0.828857,-0.190918
1519490887281,-0.546143,0.818604,-0.247314
1519490887313,-0.567383,0.772461,-0.331299
1519490887319,-0.559326,0.712891,-0.334229
1519490887371,-0.548096,0.745850,-0.308350
1519490887476,-0.553955,0.759521,-0.336670
1519490887477,-0.574219,0.725342,-0.395264
1519490887480,-0.563965,0.812012,-0.348633
1519490887482,-0.542969,0.839111,-0.296143
1519490887514,-0.576172,0.822510,-0.320313
1519490887548,-0.576904,0.834961,-0.337402
1519490887580,-0.566895,0.796875,-0.350342
1519490887613,-0.562500,0.752686,-0.367676
1519490887654,-0.590576,0.770508,-0.385254
1519490887687,-0.628662,0.734131,-0.361084
1519490887720,-0.592773,0.778564,-0.366211
1519490887752,-0.526611,0.787842,-0.315186
1519490887784,-0.533203,0.807617,-0.287109
1519490887816,-0.528564,0.804688,-0.343018
1519490887849,-0.565918,0.852783,-0.356689
1519490887882,-0.543457,0.806641,-0.342041
1519490887891,-0.538818,0.748779,-0.301514
1519490887949,-0.526123,0.790771,-0.298584
1519490887982,-0.553955,0.825928,-0.294434
1519490887991,-0.562988,0.799316,-0.292480
1519490888044,-0.574951,0.708008,-0.323242
1519490888077,-0.568359,0.699707,-0.336182
1519490888110,-0.544189,0.786621,-0.320557
1519490888142,-0.575928,0.802979,-0.316162
1519490888175,-0.587158,0.782227,-0.307373
1519490888208,-0.576416,0.783936,-0.261475
1519490888239,-0.542480,0.813965,-0.221680
1519490888271,-0.448486,0.853271,-0.220947
1519490888303,-0.395020,0.796387,-0.097656
1519490888336,-0.411865,0.882324,-0.248291
1519490888368,-0.523438,0.875488,-0.298584
1519490888374,-0.513184,0.760986,-0.327881
1519490888432,-0.432129,0.717285,-0.387695
1519490888473,-0.439209,0.731934,-0.411621
1519490888481,-0.457031,0.803711,-0.493652
1519490888530,-0.463379,0.750244,-0.500732
1519490888539,-0.424072,0.776123,-0.445313
1519490888595,-0.374756,0.907715,-0.400146
1519490888628,-0.400879,0.955322,-0.341797
1519490888636,-0.432129,0.840332,-0.354248
1519490888705,-0.417969,0.792236,-0.363770
1519490888713,-0.350098,0.845215,-0.361084
1519490888737,-0.309570,0.868164,-0.364014
1519490888799,-0.285645,0.781006,-0.416992
1519490888807,-0.220703,0.756348,-0.422119
1519490888857,-0.155762,0.835693,-0.477539
1519490888870,-0.108887,0.736572,-0.530273
1519490888903,-0.093018,0.848145,-0.498291
1519490888962,-0.073486,0.865234,-0.639648
1519490888970,-0.050049,0.873779,-0.719727
1519490889021,0.019287,0.881104,-0.732178
1519490889054,0.034424,0.829590,-0.712891
1519490889062,-0.047363,0.807861,-0.785156
1519490889112,-0.109131,0.734619,-0.838867
1519490889120,-0.106934,0.765137,-0.828613
1519490889177,-0.096191,0.741211,-0.812012
1519490889213,-0.037598,0.713623,-0.793213
1519490889221,0.010010,0.594238,-0.757568
1519490889274,0.020752,0.586914,-0.701172
1519490889288,-0.007568,0.641602,-0.751221
1519490889321,0.001221,0.640625,-0.658936
1519490889353,-0.027100,0.682617,-0.714844
1519490889385,-0.053955,0.675781,-0.741943
1519490889418,-0.067383,0.694092,-0.760010
1519490889449,-0.091797,0.658203,-0.828613
1519490889507,-0.099854,0.636230,-0.839355
1519490889539,-0.134277,0.678955,-0.746582
1519490889543,-0.163086,0.726563,-0.709229
1519490889599,-0.192871,0.708008,-0.726074
1519490889632,-0.216553,0.645264,-0.650879
1519490889641,-0.228516,0.615479,-0.626709
1519490889690,-0.239014,0.681152,-0.626953
1519490889722,-0.210693,0.693115,-0.585938
1519490889754,-0.200928,0.619385,-0.589600
1519490889787,-0.250000,0.667725,-0.615967
1519490889795,-0.201904,0.766113,-0.675537
1519490889830,-0.170654,0.752686,-0.700928
1519490889903,-0.184814,0.786133,-0.652344
1519490889906,-0.241699,0.714355,-0.665771
1519490889972,-0.315186,0.747070,-0.711670
1519490889976,-0.314209,0.774658,-0.708496
1519490890038,-0.295410,0.771240,-0.736572
1519490890042,-0.277344,0.839355,-0.691162
1519490890106,-0.277100,0.760010,-0.625000
1519490890176,-0.278076,0.735596,-0.626221
1519490890241,-0.285400,0.774170,-0.664551
1519490890246,-0.325928,0.650146,-0.690430
1519490890310,-0.347656,0.625732,-0.682129
1519490890318,-0.356689,0.578613,-0.669922
1519490890377,-0.365234,0.594482,-0.622314
1519490890382,-0.388672,0.575928,-0.657471
1519490890418,-0.403076,0.567627,-0.695557
1519490890427,-0.326416,0.596191,-0.644775
1519490890435,-0.269043,0.663574,-0.610107
1519490890443,-0.265381,0.641602,-0.622314
1519490890454,-0.282471,0.654541,-0.663574
1519490890486,-0.269775,0.657959,-0.644531
1519490890520,-0.261963,0.709473,-0.588623
1519490890552,-0.256592,0.719727,-0.598877
1519490890583,-0.213379,0.738525,-0.622314
1519490890616,-0.182129,0.740967,-0.620117
1519490890649,-0.114258,0.844482,-0.608154
1519490890682,-0.076904,0.868164,-0.587402
1519490890714,-0.067871,0.885986,-0.559814
1519490890747,-0.067383,0.959229,-0.509766
1519490890780,-0.084229,0.977051,-0.508545
1519490890817,-0.109619,0.932129,-0.585693
1519490890849,-0.085938,0.866211,-0.672607
1519490890881,-0.072021,0.787842,-0.703125
1519490890915,-0.047119,0.777588,-0.674316
1519490890930,-0.021729,0.843506,-0.617432
1519490890988,-0.013428,0.832275,-0.585693
1519490890996,-0.000488,0.805908,-0.593262
1519490891050,0.001953,0.795166,-0.626709
1519490891081,0.024658,0.807373,-0.618164
1519490891086,0.029053,0.820068,-0.598145
1519490891141,0.029297,0.850830,-0.604980
1519490891149,0.031006,0.817627,-0.572998
1519490891179,0.003174,0.733887,-0.514893
1519490891235,-0.097412,0.706787,-0.534668
1519490891264,-0.139893,0.749512,-0.549072
1519490891297,-0.144287,0.776123,-0.514160
1519490891329,-0.177490,0.788818,-0.510986
1519490891346,-0.223877,0.836670,-0.534668
1519490891373,-0.233398,0.870850,-0.560059
1519490891432,-0.217773,0.854492,-0.580566
1519490891464,-0.226318,0.820557,-0.619141
1519490891497,-0.218262,0.779297,-0.639893
1519490891529,-0.212646,0.780273,-0.645264
1519490891561,-0.206543,0.781006,-0.623779
1519490891569,-0.197998,0.806641,-0.585449
1519490891618,-0.218994,0.806396,-0.588623
1519490891651,-0.222168,0.836426,-0.563477
1519490891659,-0.242676,0.837402,-0.545410
1519490891716,-0.266113,0.794922,-0.586670
1519490891749,-0.287842,0.786865,-0.625000
1519490891762,-0.277832,0.797852,-0.628418
1519490891820,-0.247070,0.766113,-0.542236
1519490891832,-0.253174,0.740967,-0.536377
1519490891879,-0.256104,0.739014,-0.564697
1519490891913,-0.261963,0.744873,-0.594727
1519490891945,-0.270508,0.747314,-0.591553
1519490891979,-0.282227,0.766602,-0.561279
1519490892012,-0.318359,0.806396,-0.561035
1519490892044,-0.331543,0.802734,-0.565674
1519490892077,-0.341064,0.819580,-0.559570
1519490892108,-0.338379,0.834961,-0.560303
1519490892140,-0.353027,0.801270,-0.557129
1519490892145,-0.363281,0.764160,-0.522949
1519490892210,-0.406982,0.729736,-0.527100
1519490892243,-0.430420,0.754395,-0.518555
1519490892245,-0.435547,0.769531,-0.486328
1519490892303,-0.414063,0.738037,-0.469727
1519490892307,-0.387451,0.719238,-0.471924
1519490892365,-0.366211,0.708252,-0.458252
1519490892398,-0.375732,0.708496,-0.467041
1519490892406,-0.402344,0.716064,-0.469238
1519490892461,-0.415771,0.775635,-0.481689
1519490892494,-0.433838,0.773682,-0.491455
1519490892546,-0.459229,0.782227,-0.476074
1519490892554,-0.451416,0.793213,-0.449463
1519490892589,-0.426758,0.835938,-0.447998
1519490892623,-0.419434,0.814209,-0.464600
1519490892656,-0.425293,0.788330,-0.479736
1519490892688,-0.416748,0.794189,-0.483154
1519490892720,-0.400879,0.799805,-0.474121
1519490892734,-0.382324,0.798096,-0.453125
1519490892782,-0.378174,0.772217,-0.476563
1519490892814,-0.364502,0.759277,-0.476074
1519490892820,-0.349121,0.739746,-0.451660
1519490892876,-0.342285,0.714844,-0.467285
1519490892909,-0.318848,0.706787,-0.513672
1519490892943,-0.250977,0.778564,-0.532959
1519490892956,-0.174561,0.751465,-0.568359
1519490892988,-0.169922,0.755615,-0.635742
1519490893021,-0.191650,0.697754,-0.653320
1519490893053,-0.240723,0.678467,-0.707275
1519490893111,-0.262695,0.740967,-0.726318
1519490893143,-0.262451,0.717041,-0.718750
1519490893175,-0.257813,0.692139,-0.720215
1519490893208,-0.238770,0.726807,-0.736084
1519490893239,-0.244873,0.711914,-0.768311
1519490893272,-0.225098,0.744873,-0.784668
1519490893304,-0.195068,0.751221,-0.758301
1519490893308,-0.170166,0.747559,-0.766113
1519490893370,-0.143311,0.726807,-0.781738
1519490893403,-0.117920,0.721436,-0.747314
1519490893411,-0.107422,0.702881,-0.733643
1519490893462,-0.112061,0.696289,-0.727783
1519490893472,-0.115967,0.698730,-0.725342
1519490893527,-0.121338,0.694092,-0.711670
1519490893558,-0.131836,0.680176,-0.689697
1519490893565,-0.140137,0.674561,-0.682129
1519490893621,-0.143311,0.671143,-0.683105
1519490893654,-0.141357,0.671387,-0.678223
1519490893687,-0.130859,0.665527,-0.671631
1519490893724,-0.128662,0.667725,-0.664551
1519490893757,-0.130615,0.675537,-0.671875
1519490893771,-0.131348,0.668945,-0.674561
1519490893824,-0.126221,0.664307,-0.670166
1519490893857,-0.113770,0.674072,-0.675781
1519490893888,-0.094238,0.695313,-0.710938
1519490893894,-0.065918,0.693115,-0.739014
1519490893923,-0.038818,0.695313,-0.725586
1519490893956,-0.028564,0.721680,-0.702148
1519490893989,-0.019043,0.730713,-0.706299
1519490894023,0.012939,0.853271,-0.669922
1519490894053,0.010010,0.886230,-0.604004
1519490894086,0.010498,0.831299,-0.621094
1519490894118,0.006104,0.738770,-0.686035
1519490894151,0.026123,0.748291,-0.688477
1519490894192,0.029541,0.782959,-0.682129
1519490894224,0.037109,0.759033,-0.660645
1519490894256,0.039551,0.749756,-0.631104
1519490894289,0.016357,0.754639,-0.617920
1519490894322,-0.016357,0.747559,-0.635498
1519490894354,-0.026367,0.748291,-0.635010
1519490894386,-0.038330,0.759766,-0.634521
1519490894420,-0.025635,0.816650,-0.669678
1519490894451,0.025635,0.845459,-0.675537
1519490894484,0.071777,0.813721,-0.652344
1519490894517,0.118652,0.806641,-0.624023
1519490894550,0.145264,0.791260,-0.599121
1519490894563,0.153320,0.782227,-0.560059
1519490894597,0.128662,0.799072,-0.503662
1519490894654,0.094238,0.834229,-0.504883
1519490894664,0.048340,0.820068,-0.552246
1519490894722,0.003418,0.823242,-0.604248
1519490894754,-0.004883,0.817139,-0.610107
1519490894762,0.003418,0.782959,-0.631592
1519490894812,-0.009766,0.814209,-0.644531
1519490894844,0.005371,0.820557,-0.620361
1519490894850,0.035889,0.834229,-0.556396
1519490894917,0.041748,0.811035,-0.494141
1519490894922,0.015625,0.825928,-0.513916
1519490894986,0.000732,0.865967,-0.561279
1519490895055,-0.025391,0.865967,-0.583496
1519490895122,-0.105713,0.821045,-0.570313
1519490895130,-0.164307,0.785645,-0.593994
1519490895188,-0.198730,0.771240,-0.621338
1519490895193,-0.218750,0.789795,-0.634033
1519490895256,-0.242920,0.802246,-0.641602
1519490895323,-0.284180,0.735107,-0.659424
1519490895331,-0.304932,0.739258,-0.687988
1519490895390,-0.296875,0.752930,-0.685303
1519490895395,-0.290527,0.702148,-0.640869
1519490895413,-0.339844,0.633545,-0.599365
1519490895427,-0.372559,0.617432,-0.574219
1519490895436,-0.384766,0.679199,-0.568604
1519490895444,-0.363281,0.705322,-0.576416
1519490895452,-0.349609,0.716553,-0.590576
1519490895501,-0.351074,0.730957,-0.610107
1519490895509,-0.343994,0.725830,-0.606445
1519490895536,-0.345947,0.756104,-0.576904
1519490895596,-0.349854,0.787354,-0.600342
1519490895601,-0.338867,0.819092,-0.612549
1519490895633,-0.313965,0.853760,-0.608154
1519490895665,-0.350098,0.928711,-0.678711
1519490895698,-0.207031,1.019775,-0.729248
1519490895730,-0.130127,0.907715,-0.543701
1519490895762,-0.187744,0.718506,-0.357178
1519490895796,-0.270508,0.661621,-0.443604
1519490895828,-0.241699,0.808838,-0.518066
1519490895868,-0.104736,0.955322,-0.536865
1519490895901,-0.123291,0.844971,-0.542480
1519490895912,-0.189209,0.709473,-0.544922
1519490895971,-0.259277,0.726807,-0.496094
1519490896003,-0.287354,0.775146,-0.463379
1519490896013,-0.314697,0.781982,-0.446045
1519490896066,-0.312012,0.786865,-0.401367
1519490896098,-0.326904,0.851563,-0.405273
1519490896131,-0.337891,0.854248,-0.406738
1519490896164,-0.364746,0.818604,-0.456787
1519490896196,-0.371582,0.818604,-0.447266
1519490896228,-0.379150,0.824463,-0.460205
1519490896242,-0.398193,0.843018,-0.482178
1519490896274,-0.361328,0.897705,-0.525635
1519490896335,-0.353027,0.872070,-0.557129
1519490896343,-0.388916,0.796143,-0.555176
1519490896384,-0.408936,0.775391,-0.562500
1519490896416,-0.360352,0.818848,-0.597412
1519490896450,-0.278076,0.739502,-0.674316
1519490896485,-0.318359,0.729736,-0.725830
1519490896492,-0.305176,0.642578,-0.745361
1519490896550,-0.217529,0.676025,-0.649902
1519490896584,-0.223145,0.705322,-0.605225
1519490896593,-0.260010,0.679932,-0.617920
1519490896652,-0.287354,0.681152,-0.677002
1519490896661,-0.273193,0.739014,-0.725586
1519490896714,-0.243652,0.765137,-0.726074
1519490896747,-0.301758,0.696045,-0.674561
1519490896756,-0.345703,0.706299,-0.652832
1519490896811,-0.333984,0.778564,-0.611816
1519490896844,-0.278076,0.769287,-0.527344
1519490896876,-0.287842,0.731934,-0.514160
1519490896907,-0.302734,0.758789,-0.523926
1519490896939,-0.251465,0.862793,-0.522217
1519490896973,-0.187988,0.909912,-0.549561
1519490897006,-0.164551,0.880615,-0.550537
1519490897039,-0.201416,0.809326,-0.519043
1519490897056,-0.225342,0.829102,-0.498047
1519490897081,-0.218018,0.830322,-0.460449
1519490897138,-0.239014,0.793701,-0.434814
1519490897146,-0.257324,0.818604,-0.444824
1519490897172,-0.280518,0.915527,-0.458740
1519490897228,-0.259277,0.974365,-0.511230
1519490897262,-0.274170,0.952637,-0.472168
1519490897293,-0.305420,0.900635,-0.426758
1519490897325,-0.299316,0.868164,-0.413086
1519490897358,-0.265137,0.827881,-0.438965
1519490897390,-0.229004,0.807617,-0.487793
1519490897423,-0.241211,0.909668,-0.538086
1519490897456,-0.216309,1.010742,-0.589844
1519490897470,-0.185791,1.014893,-0.573730
1519490897528,-0.184326,0.905273,-0.504150
1519490897560,-0.199463,0.809082,-0.471924
1519490897570,-0.221191,0.805176,-0.473877
1519490897624,-0.232178,0.812500,-0.497070
1519490897665,-0.265625,0.823242,-0.516113
1519490897673,-0.275391,0.767578,-0.467041
1519490897724,-0.341797,0.703613,-0.439697
1519490897732,-0.429443,0.724121,-0.489746
1519490897757,-0.468994,0.762939,-0.475098
1519490897816,-0.465332,0.788330,-0.437500
1519490897824,-0.422607,0.796387,-0.448486
1519490897872,-0.403320,0.793457,-0.498047
1519490897886,-0.419189,0.744385,-0.518799
1519490897919,-0.395264,0.759033,-0.489014
1519490897951,-0.394531,0.790039,-0.475586
1519490897985,-0.366699,0.802246,-0.495850
1519490898018,-0.374512,0.798096,-0.486084
1519490898075,-0.375000,0.800293,-0.476807
1519490898106,-0.359131,0.820801,-0.467041
1519490898140,-0.384277,0.760742,-0.458984
1519490898148,-0.381348,0.743408,-0.481201
1519490898199,-0.399414,0.847656,-0.525879
1519490898232,-0.406738,0.867676,-0.499268
1519490898240,-0.416504,0.787842,-0.471924
1519490898289,-0.393555,0.830811,-0.473877
1519490898323,-0.374023,0.813477,-0.520752
1519490898356,-0.369629,0.763428,-0.477783
1519490898362,-0.322754,0.875977,-0.458740
1519490898397,-0.365234,0.875244,-0.511475
1519490898457,-0.381592,0.775391,-0.486084
1519490898488,-0.380615,0.826660,-0.476074
1519490898520,-0.437500,0.818604,-0.470459
1519490898558,-0.432373,0.788086,-0.456787
1519490898566,-0.415039,0.791504,-0.465820
1519490898622,-0.411621,0.801025,-0.455566
1519490898653,-0.398193,0.800049,-0.461914
1519490898685,-0.382813,0.781494,-0.467041
1519490898699,-0.385010,0.791504,-0.449951
1519490898731,-0.370850,0.735352,-0.457275
1519490898764,-0.357666,0.853027,-0.510498
1519490898798,-0.388916,0.832764,-0.488037
1519490898830,-0.369385,0.769775,-0.417480
1519490898861,-0.404053,0.842773,-0.499512
1519490898894,-0.431396,0.849365,-0.469727
1519490898945,-0.419189,0.836426,-0.450684
1519490898954,-0.417236,0.797119,-0.479980
1519490898978,-0.410889,0.790283,-0.472412
1519490899036,-0.398193,0.808105,-0.431641
1519490899069,-0.402832,0.789307,-0.437256
1519490899103,-0.404297,0.780762,-0.451904
1519490899115,-0.411377,0.790283,-0.461182
1519490899148,-0.401611,0.793945,-0.461182
1519490899180,-0.411865,0.798828,-0.443604
1519490899213,-0.434082,0.781250,-0.457520
1519490899270,-0.412842,0.785400,-0.448486
1519490899279,-0.402588,0.794922,-0.437988
1519490899303,-0.438965,0.811768,-0.468750
1519490899335,-0.437256,0.777344,-0.449951
1519490899367,-0.437744,0.778809,-0.392090
1519490899399,-0.406982,0.763672,-0.363037
1519490899432,-0.417236,0.851563,-0.450439
1519490899466,-0.410889,0.728760,-0.453369
1519490899502,-0.422607,0.725342,-0.472412
1519490899535,-0.440918,0.749756,-0.512695
1519490899568,-0.432373,0.752197,-0.514160
1519490899601,-0.420410,0.735596,-0.522949
1519490899632,-0.444824,0.725586,-0.494385
1519490899664,-0.454834,0.639648,-0.507324
1519490899696,-0.441162,0.592285,-0.510742
1519490899730,-0.460205,0.810547,-0.613037
1519490899761,-0.399170,0.739746,-0.548828
1519490899794,-0.425781,0.788818,-0.636719
1519490899828,-0.477295,0.796143,-0.654053
1519490899860,-0.465576,0.607666,-0.612061
1519490899927,-0.453125,0.635986,-0.568115
1519490899932,-0.475098,0.691406,-0.606689
1519490899996,-0.460693,0.709473,-0.579590
1519490900004,-0.406250,0.716553,-0.532959
1519490900063,-0.393799,0.703125,-0.607910
1519490900071,-0.393066,0.720215,-0.640137
1519490900130,-0.386230,0.718994,-0.591309
1519490900138,-0.370605,0.733154,-0.567871
1519490900197,-0.377197,0.734863,-0.574707
1519490900204,-0.348877,0.716309,-0.554443
1519490900264,-0.378662,0.697754,-0.559570
1519490900267,-0.369873,0.691650,-0.632813
1519490900332,-0.368896,0.774414,-0.770508
1519490900399,-0.315918,0.630859,-0.694580
1519490900404,-0.377441,0.551270,-0.600098
1519490900431,-0.338379,0.719971,-0.670410
1519490900436,-0.287354,0.785889,-0.579590
1519490900442,-0.312988,0.774902,-0.637207
1519490900472,-0.296875,0.811279,-0.660400
1519490900504,-0.293945,0.588379,-0.521729
1519490900537,-0.297607,0.676758,-0.674805
1519490900567,-0.345947,0.825928,-0.722168
1519490900599,-0.273438,0.672119,-0.494873
1519490900633,-0.273193,0.660400,-0.620361
1519490900666,-0.216064,0.730713,-0.654297
1519490900699,-0.200928,0.805176,-0.609863
1519490900734,-0.238525,0.767090,-0.617920
1519490900766,-0.243896,0.782715,-0.576172
1519490900799,-0.237793,0.733154,-0.582275
1519490900831,-0.216064,0.719971,-0.613037
1519490900864,-0.185547,0.794922,-0.601318
1519490900896,-0.153809,0.769287,-0.513916
1519490900927,-0.155518,0.816162,-0.573242
1519490900960,-0.173096,0.849365,-0.631348
1519490900992,-0.145508,0.792480,-0.551758
1519490901024,-0.126709,0.815430,-0.589355
1519490901058,-0.157227,0.873291,-0.567871
1519490901089,-0.194580,0.852783,-0.484619
1519490901124,-0.194580,0.813232,-0.458740
1519490901156,-0.166748,0.787354,-0.465820
1519490901188,-0.203613,0.847412,-0.536377
1519490901220,-0.223389,0.896973,-0.535400
1519490901262,-0.240234,0.833984,-0.503662
1519490901294,-0.228027,0.760254,-0.547607
1519490901327,-0.242676,0.814941,-0.521729
1519490901332,-0.178955,0.782471,-0.457275
1519490901384,-0.195313,0.777832,-0.518311
1519490901418,-0.234375,0.822754,-0.561035
1519490901423,-0.251953,0.821777,-0.512207
1519490901480,-0.273438,0.761963,-0.547852
1519490901505,-0.289307,0.803711,-0.597168
1519490901538,-0.239990,0.803955,-0.605225
1519490901570,-0.233887,0.754150,-0.635010
1519490901602,-0.260742,0.724854,-0.625488
1519490901636,-0.249512,0.724365,-0.648438
1519490901676,-0.221924,0.799316,-0.717041
1519490901709,-0.200928,0.759521,-0.701172
1519490901740,-0.194824,0.722656,-0.738525
1519490901773,-0.196533,0.668945,-0.712402
1519490901806,-0.197998,0.718018,-0.696533
1519490901838,-0.159668,0.684326,-0.728271
1519490901871,-0.118164,0.658936,-0.700928
1519490901903,-0.143066,0.725586,-0.701660
1519490901909,-0.177734,0.755859,-0.692383
1519490901961,-0.210938,0.708252,-0.663574
1519490901995,-0.187744,0.697998,-0.708008
1519490902003,-0.213135,0.737061,-0.681152
1519490902058,-0.181152,0.687500,-0.653809
1519490902091,-0.208008,0.690674,-0.681396
1519490902124,-0.221436,0.749268,-0.722900
1519490902156,-0.246826,0.744385,-0.693359
1519490902189,-0.250000,0.653320,-0.722900
1519490902220,-0.250244,0.663574,-0.724609
1519490902253,-0.264404,0.704102,-0.705078
1519490902284,-0.240723,0.646973,-0.660400
1519490902317,-0.249756,0.666260,-0.710449
1519490902351,-0.226318,0.754150,-0.776367
1519490902382,-0.211914,0.747070,-0.737305
1519490902418,-0.187988,0.664551,-0.691162
1519490902432,-0.191895,0.686279,-0.633789
1519490902490,-0.219971,0.702881,-0.657959
1519490902498,-0.194092,0.695313,-0.624268
1519490902550,-0.236572,0.701904,-0.643799
1519490902582,-0.268555,0.751953,-0.635742
1519490902591,-0.277100,0.724121,-0.638916
1519490902639,-0.287598,0.643066,-0.625732
1519490902673,-0.288330,0.708496,-0.620117
1519490902706,-0.303223,0.778076,-0.653809
1519490902739,-0.274902,0.734131,-0.642334
1519490902785,-0.272949,0.739258,-0.682617
1519490902794,-0.307617,0.783447,-0.698486
1519490902817,-0.302002,0.774170,-0.731445
1519490902849,-0.274658,0.761963,-0.665039
1519490902882,-0.303711,0.849609,-0.609131
1519490902940,-0.359375,0.791016,-0.577393
1519490902945,-0.345459,0.818848,-0.594727
1519490903004,-0.330322,0.782471,-0.599365
1519490903036,-0.357178,0.816406,-0.629395
1519490903068,-0.369629,0.725098,-0.582520
1519490903076,-0.304932,0.724609,-0.550781
1519490903126,-0.212891,0.688477,-0.521973
1519490903160,-0.188477,0.679688,-0.475342
1519490903168,-0.199463,0.688721,-0.472656
1519490903218,-0.191895,0.771484,-0.496338
1519490903251,-0.142090,0.817139,-0.506348
1519490903265,-0.116943,0.898682,-0.521729
1519490903322,-0.138428,0.936768,-0.496826
1519490903327,-0.167480,0.877686,-0.472412
1519490903362,-0.181885,0.852783,-0.447998
1519490903395,-0.163818,0.870850,-0.465088
1519490903453,-0.154785,0.868408,-0.476807
1519490903486,-0.135254,0.848145,-0.471924
1519490903517,-0.133301,0.846680,-0.457275
1519490903525,-0.135010,0.857666,-0.449707
1519490903582,-0.128174,0.851807,-0.477295
1519490903615,-0.106445,0.858154,-0.473145
1519490903647,-0.101318,0.890869,-0.482910
1519490903655,-0.106689,0.909668,-0.503662
1519490903705,-0.089355,0.875488,-0.496094
1519490903713,-0.078369,0.881104,-0.466064
1519490903742,-0.093506,0.905762,-0.438721
1519490903800,-0.119385,0.911133,-0.428223
1519490903832,-0.133301,0.926025,-0.414551
1519490903865,-0.151855,0.932861,-0.423340
1519490903897,-0.135986,0.915771,-0.453613
1519490903929,-0.126221,0.895508,-0.469971
1519490903961,-0.136719,0.868408,-0.473633
1519490903995,-0.144287,0.820068,-0.505859
1519490904027,-0.161377,0.806152,-0.535400
1519490904065,-0.137451,0.796875,-0.557617
1519490904079,-0.140869,0.770752,-0.526855
1519490904136,-0.186035,0.791748,-0.527588
1519490904145,-0.206787,0.770996,-0.524170
1519490904199,-0.228516,0.758545,-0.502930
1519490904231,-0.252441,0.781738,-0.563232
1519490904239,-0.253418,0.812744,-0.618164
1519490904290,-0.264648,0.825439,-0.640625
1519490904299,-0.272705,0.781982,-0.644775
1519490904332,-0.307373,0.759033,-0.637939
1519490904368,-0.313477,0.763428,-0.653320
1519490904400,-0.329590,0.761230,-0.657959
1519490904433,-0.302002,0.698975,-0.653320
1519490904465,-0.309326,0.760742,-0.656494
1519490904507,-0.270508,0.698486,-0.583984
1519490904540,-0.295410,0.760010,-0.604980
1519490904572,-0.315918,0.792969,-0.655029
1519490904605,-0.316162,0.760010,-0.625488
1519490904638,-0.313232,0.712646,-0.600342
1519490904671,-0.307129,0.681885,-0.597900
1519490904702,-0.288818,0.752441,-0.615967
1519490904711,-0.285156,0.824219,-0.620850
1519490904767,-0.248535,0.777100,-0.618652
1519490904776,-0.211670,0.723877,-0.593018
1519490904830,-0.252686,0.768799,-0.604248
1519490904901,-0.320068,0.748291,-0.593750
1519490904912,-0.346680,0.712402,-0.573242
1519490904967,-0.358643,0.659912,-0.604492
1519490904980,-0.315430,0.650879,-0.583740
1519490905035,-0.272461,0.700684,-0.590820
1519490905044,-0.297607,0.738770,-0.610840
1519490905103,-0.295166,0.819336,-0.685791
1519490905107,-0.332764,0.756348,-0.678711
1519490905172,-0.366943,0.755127,-0.613281
1519490905180,-0.365479,0.711182,-0.586914
1519490905239,-0.367920,0.679688,-0.572510
1519490905247,-0.300537,0.636963,-0.531494
1519490905306,-0.321045,0.802246,-0.651123
1519490905374,-0.307373,0.714355,-0.673584
1519490905412,-0.279297,0.713623,-0.649414
1519490905422,-0.318604,0.745361,-0.584961
1519490905435,-0.334717,0.681641,-0.574463
1519490905440,-0.353027,0.648926,-0.603516
1519490905444,-0.336670,0.663330,-0.629150
1519490905478,-0.330566,0.688232,-0.640381
1519490905512,-0.326416,0.700928,-0.646240
1519490905520,-0.315918,0.670166,-0.629639
1519490905574,-0.305664,0.732178,-0.665771
1519490905607,-0.270020,0.692627,-0.681885
1519490905641,-0.236572,0.704102,-0.645264
1519490905675,-0.245850,0.738281,-0.706543
1519490905682,-0.259766,0.721436,-0.702881
1519490905731,-0.275635,0.759521,-0.724121
1519490905765,-0.273926,0.703369,-0.734619
1519490905773,-0.251953,0.682861,-0.711670
1519490905827,-0.230225,0.667725,-0.648193
1519490905857,-0.227783,0.651123,-0.657227
1519490905890,-0.219238,0.696045,-0.706299
1519490905923,-0.223145,0.677979,-0.743408
1519490905955,-0.264404,0.682373,-0.736816
1519490905987,-0.258545,0.658203,-0.702881
1519490906021,-0.277100,0.606689,-0.718750
1519490906054,-0.279297,0.616211,-0.679688
1519490906087,-0.218506,0.693848,-0.694580
1519490906120,-0.244873,0.666992,-0.711182
1519490906132,-0.236572,0.663330,-0.713867
1519490906190,-0.229980,0.708984,-0.735596
1519490906221,-0.292236,0.720947,-0.695313
1519490906254,-0.331055,0.688721,-0.709229
1519490906259,-0.351074,0.659668,-0.723145
1519490906313,-0.327148,0.637695,-0.661377
1519490906346,-0.355225,0.757568,-0.653320
1519490906349,-0.310547,0.712891,-0.630371
1519490906405,-0.299072,0.630127,-0.716309
1519490906437,-0.319580,0.681641,-0.702393
1519490906470,-0.278320,0.674072,-0.661865
1519490906502,-0.228271,0.599121,-0.616211
1519490906537,-0.216797,0.681152,-0.614502
1519490906550,-0.230225,0.715332,-0.645996
