1519491103101,-0.441406,0.877197,-0.313232
1519491103135,-0.436279,0.875732,-0.304443
1519491103143,-0.432129,0.848877,-0.308105
1519491103193,-0.427246,0.859131,-0.320557
1519491103227,-0.423096,0.852295,-0.314941
1519491103235,-0.418945,0.841553,-0.298584
1519491103284,-0.420166,0.866943,-0.286377
1519491103317,-0.425537,0.871094,-0.290771
1519491103350,-0.429932,0.844971,-0.292236
1519491103382,-0.431641,0.848633,-0.320068
1519491103415,-0.433838,0.869385,-0.322754
1519491103448,-0.440918,0.877441,-0.323730
1519491103479,-0.448730,0.868408,-0.319092
1519491103512,-0.434814,0.882813,-0.330078
1519491103545,-0.426270,0.877441,-0.352783
1519491103579,-0.416260,0.831543,-0.341797
1519491103591,-0.409180,0.829102,-0.328857
1519491103650,-0.417480,0.841064,-0.356201
1519491103681,-0.424561,0.891602,-0.340088
1519491103713,-0.416992,0.892822,-0.342773
1519491103719,-0.417236,0.852051,-0.337646
1519491103772,-0.413574,0.889404,-0.308105
1519491103802,-0.426025,0.883301,-0.294678
1519491103807,-0.451416,0.878662,-0.314209
1519491103868,-0.458252,0.850098,-0.320801
1519491103875,-0.451904,0.834961,-0.352295
1519491103933,-0.459473,0.834961,-0.327393
1519491103942,-0.454102,0.823975,-0.301514
1519491103996,-0.449463,0.832275,-0.299316
1519491104010,-0.454590,0.852295,-0.305908
1519491104043,-0.457031,0.858887,-0.334229
1519491104075,-0.451172,0.829102,-0.330322
1519491104133,-0.443359,0.824463,-0.323975
1519491104142,-0.444824,0.850586,-0.325195
1519491104195,-0.465088,0.862061,-0.329102
1519491104229,-0.474121,0.874268,-0.329102
1519491104260,-0.465332,0.838867,-0.311523
1519491104292,-0.458740,0.814453,-0.322510
1519491104297,-0.454346,0.818604,-0.349365
1519491104327,-0.439697,0.845459,-0.334961
1519491104384,-0.435059,0.864502,-0.322754
1519491104393,-0.447021,0.857910,-0.328857
1519491104423,-0.456299,0.829590,-0.329834
1519491104480,-0.461426,0.820801,-0.352783
1519491104512,-0.465088,0.840576,-0.354492
1519491104545,-0.455078,0.857422,-0.326416
1519491104554,-0.453857,0.841797,-0.311523
1519491104609,-0.460449,0.821533,-0.332520
1519491104642,-0.460693,0.830078,-0.358154
1519491104674,-0.451660,0.851807,-0.358398
1519491104707,-0.437256,0.849854,-0.343506
1519491104739,-0.417480,0.857666,-0.338379
1519491104772,-0.402100,0.838379,-0.327637
1519491104804,-0.416992,0.796875,-0.311523
1519491104842,-0.437256,0.813232,-0.334961
1519491104850,-0.415039,0.866699,-0.352051
1519491104921,-0.387207,0.894775,-0.344727
1519491104927,-0.389160,0.877686,-0.343018
1519491104988,-0.434082,0.910156,-0.346924
1519491104994,-0.428223,0.910400,-0.351563
1519491105058,-0.400391,0.878418,-0.341309
1519491105066,-0.380371,0.865234,-0.321045
1519491105124,-0.378906,0.896973,-0.318115
1519491105132,-0.396729,0.942139,-0.335693
1519491105192,-0.390137,0.954346,-0.329346
1519491105200,-0.384033,0.940430,-0.304688
1519491105260,-0.393799,0.853027,-0.331299
1519491105327,-0.421631,0.848877,-0.368164
1519491105394,-0.424072,0.805176,-0.401367
1519491105403,-0.441650,0.756348,-0.384521
1519491105412,-0.478516,0.752441,-0.375488
1519491105417,-0.496582,0.782959,-0.393066
1519491105422,-0.507568,0.823486,-0.396240
1519491105427,-0.510986,0.822021,-0.357910
1519491105460,-0.493896,0.817871,-0.336426
1519491105493,-0.474365,0.791992,-0.341064
1519491105526,-0.468750,0.803955,-0.336426
1519491105559,-0.477539,0.823975,-0.341797
1519491105593,-0.478027,0.829590,-0.358887
1519491105625,-0.476318,0.834961,-0.358887
1519491105657,-0.467285,0.841553,-0.363037
1519491105699,-0.465820,0.809326,-0.339600
1519491105730,-0.466797,0.774902,-0.329346
1519491105763,-0.455811,0.820557,-0.346436
1519491105801,-0.440918,0.869873,-0.337646
1519491105832,-0.424316,0.877930,-0.348633
1519491105837,-0.428955,0.858154,-0.375244
1519491105891,-0.430664,0.835693,-0.386963
1519491105922,-0.425781,0.835449,-0.361816
1519491105929,-0.426270,0.821777,-0.353760
1519491105986,-0.447754,0.839600,-0.384033
1519491106020,-0.426514,0.863525,-0.379395
1519491106052,-0.398193,0.895020,-0.363525
1519491106085,-0.392090,0.878906,-0.347412
1519491106102,-0.381592,0.843506,-0.330566
1519491106131,-0.389404,0.849609,-0.349854
1519491106188,-0.413574,0.854248,-0.336182
1519491106221,-0.411377,0.850830,-0.334717
1519491106253,-0.412842,0.871582,-0.348633
1519491106300,-0.434814,0.865479,-0.369629
1519491106308,-0.434082,0.845215,-0.340820
1519491106333,-0.419434,0.837402,-0.316162
1519491106365,-0.416504,0.860596,-0.300781
1519491106397,-0.391846,0.894043,-0.311523
1519491106430,-0.385742,0.924805,-0.336182
1519491106487,-0.367188,0.807617,-0.330811
1519491106497,-0.394775,0.874268,-0.346680
1519491106521,-0.371582,0.835938,-0.318115
1519491106579,-0.464355,0.916504,-0.352295
1519491106587,-0.495361,0.919434,-0.395264
1519491106638,-0.441650,0.842285,-0.368164
1519491106670,-0.404053,0.816650,-0.388184
1519491106703,-0.381348,0.831299,-0.414551
1519491106734,-0.387207,0.900635,-0.377686
1519491106744,-0.427734,0.836426,-0.418213
1519491106801,-0.398682,0.836182,-0.291748
1519491106834,-0.416992,0.890625,-0.220459
1519491106866,-0.450195,0.848389,-0.240967
1519491106898,-0.447510,0.902832,-0.224609
1519491106904,-0.433105,0.923828,-0.223877
1519491106967,-0.417236,0.851074,-0.257813
1519491106998,-0.399902,0.893799,-0.258545
1519491107003,-0.385254,0.908447,-0.244385
1519491107058,-0.391113,0.884521,-0.238281
1519491107066,-0.394043,0.905273,-0.208252
1519491107119,-0.385986,0.913818,-0.195557
1519491107153,-0.413330,0.904541,-0.235840
1519491107162,-0.423828,0.915039,-0.237061
1519491107215,-0.407471,0.897949,-0.209229
1519491107248,-0.400879,0.905029,-0.225342
1519491107280,-0.419189,0.891846,-0.246582
1519491107314,-0.459473,0.932617,-0.301758
1519491107328,-0.439941,0.581543,-0.308350
1519491107359,-0.376953,1.041748,-0.062012
1519491107392,-0.342285,1.083252,-0.095459
1519491107450,-0.290771,1.009521,0.010498
1519491107483,-0.358154,0.983887,-0.080811
1519491107491,-0.370850,0.924561,-0.166992
1519491107541,-0.362549,0.880859,-0.241455
1519491107579,-0.375244,0.843750,-0.293701
1519491107587,-0.409424,0.780762,-0.338379
1519491107636,-0.424072,0.840820,-0.340088
1519491107643,-0.406250,0.875488,-0.355469
1519491107702,-0.417725,0.866943,-0.356201
1519491107713,-0.424561,0.844238,-0.382568
1519491107746,-0.438965,0.864258,-0.359131
1519491107777,-0.434814,0.881348,-0.374512
1519491107810,-0.433350,0.881348,-0.346436
1519491107843,-0.406250,0.855469,-0.323242
1519491107900,-0.389160,0.844238,-0.343506
1519491107933,-0.397217,0.865723,-0.355957
1519491107942,-0.409424,0.848877,-0.345215
1519491107996,-0.416016,0.808350,-0.348389
1519491108028,-0.433105,0.867432,-0.387207
1519491108062,-0.450684,0.863037,-0.380859
1519491108070,-0.442383,0.849365,-0.332031
1519491108131,-0.410645,0.876709,-0.327393
1519491108146,-0.406006,0.881104,-0.349854
1519491108178,-0.406250,0.861816,-0.343750
1519491108210,-0.400635,0.866455,-0.323730
1519491108242,-0.408447,0.867676,-0.328369
1519491108276,-0.400635,0.848633,-0.327637
1519491108308,-0.414307,0.867676,-0.373535
1519491108341,-0.421631,0.860352,-0.379639
1519491108373,-0.406250,0.859131,-0.345947
1519491108405,-0.404785,0.867188,-0.337402
1519491108438,-0.400635,0.856934,-0.323486
1519491108471,-0.397705,0.877686,-0.340088
1519491108501,-0.411865,0.848877,-0.344727
1519491108535,-0.416016,0.888916,-0.318359
1519491108568,-0.409668,0.866455,-0.326172
1519491108600,-0.406738,0.850098,-0.344727
1519491108633,-0.385742,0.890137,-0.320068
1519491108641,-0.386963,0.893066,-0.320313
1519491108704,-0.414551,0.839111,-0.307617
1519491108713,-0.438721,0.889404,-0.284180
1519491108741,-0.434814,0.855225,-0.308594
1519491108798,-0.395508,0.899902,-0.317139
1519491108807,-0.327148,0.973389,-0.210938
1519491108859,-0.354980,0.844971,-0.221436
1519491108891,-0.348633,0.882568,-0.289063
1519491108923,-0.372070,1.010254,-0.394287
1519491108957,-0.387695,0.812500,-0.349365
1519491108971,-0.467529,0.967529,-0.271973
1519491109027,-0.429688,0.894287,-0.268066
1519491109061,-0.388916,0.830078,-0.287842
1519491109093,-0.383057,0.841309,-0.348145
1519491109125,-0.388428,0.891846,-0.423096
1519491109158,-0.377930,0.906982,-0.430664
1519491109191,-0.360107,0.866699,-0.358154
1519491109223,-0.381592,0.852295,-0.338623
1519491109232,-0.383545,0.889160,-0.365723
1519491109282,-0.406006,0.860596,-0.396484
1519491109290,-0.407471,0.850830,-0.398438
1519491109318,-0.407959,0.795166,-0.356934
1519491109389,-0.395264,0.840088,-0.370361
1519491109398,-0.386719,0.854492,-0.377441
1519491109422,-0.376953,0.836670,-0.372559
1519491109455,-0.380371,0.864746,-0.380371
1519491109489,-0.378906,0.854736,-0.372559
1519491109520,-0.361084,0.839600,-0.362061
1519491109553,-0.325439,0.825684,-0.322510
1519491109586,-0.334473,0.832520,-0.316406
1519491109641,-0.341309,0.863281,-0.345947
1519491109652,-0.281494,0.726318,-0.364746
1519491109709,-0.214600,0.848633,-0.364990
1519491109718,-0.152344,1.008545,-0.350098
1519491109768,-0.111572,1.003418,-0.318359
1519491109785,-0.127930,0.975586,-0.314697
1519491109810,-0.122559,1.011963,-0.381348
1519491109907,-0.182129,0.961914,-0.374756
1519491109919,-0.235840,0.906738,-0.306152
1519491109975,-0.281738,0.906982,-0.333496
1519491109978,-0.275146,0.828613,-0.390869
1519491110043,-0.239014,0.874023,-0.401855
1519491110049,-0.156250,0.959229,-0.316162
1519491110111,-0.072510,0.882324,-0.413818
1519491110117,-0.030273,0.946777,-0.385498
1519491110179,-0.087891,1.041260,-0.571777
1519491110187,-0.163330,0.962646,-0.530518
1519491110246,-0.182617,0.966553,-0.416748
1519491110251,-0.173584,0.836426,-0.419434
1519491110315,-0.129639,0.822998,-0.350342
1519491110323,-0.169678,0.832764,-0.308105
1519491110380,-0.161133,0.751709,-0.396729
1519491110383,-0.052734,0.768311,-0.467285
1519491110404,-0.054443,0.786865,-0.725342
1519491110407,-0.024902,0.864746,-0.875488
1519491110439,-0.058350,0.789551,-0.719238
1519491110472,-0.033203,0.787842,-0.708008
1519491110503,-0.072266,0.777588,-0.726074
1519491110536,-0.063965,0.657959,-0.697266
1519491110569,-0.046631,0.623047,-0.744629
1519491110602,-0.052490,0.661621,-0.729492
1519491110616,-0.041504,0.724609,-0.750000
1519491110674,-0.036377,0.733398,-0.711182
1519491110706,-0.030273,0.678223,-0.667236
1519491110715,-0.048828,0.637939,-0.647705
1519491110770,-0.047119,0.730957,-0.663086
1519491110801,-0.061768,0.804443,-0.697510
1519491110834,-0.031250,0.845215,-0.760986
1519491110868,-0.059814,0.820068,-0.709473
1519491110876,-0.092773,0.800293,-0.670166
1519491110900,-0.138184,0.766602,-0.652832
1519491110932,-0.153320,0.741211,-0.656250
1519491110967,-0.163574,0.752197,-0.617920
1519491110999,-0.162109,0.736084,-0.636230
1519491111031,-0.182617,0.704346,-0.644775
1519491111064,-0.183594,0.679688,-0.638428
1519491111122,-0.175537,0.697998,-0.636963
1519491111131,-0.165527,0.705566,-0.611816
1519491111185,-0.156982,0.729004,-0.651611
1519491111217,-0.126465,0.747070,-0.696289
1519491111251,-0.102539,0.760010,-0.708984
1519491111282,-0.089111,0.746094,-0.689941
1519491111315,-0.083008,0.739990,-0.700195
1519491111349,-0.083984,0.691650,-0.693848
1519491111380,-0.065186,0.687012,-0.667480
1519491111418,-0.023438,0.713623,-0.663574
1519491111421,-0.034668,0.697266,-0.686523
1519491111464,-0.015869,0.670654,-0.698242
1519491111497,0.032227,0.760010,-0.643799
1519491111529,0.070068,0.753418,-0.619385
1519491111562,0.095703,0.805176,-0.606934
1519491111600,0.133301,0.828857,-0.620850
1519491111632,0.153809,0.807617,-0.601074
1519491111665,0.203613,0.855225,-0.592285
1519491111696,0.259277,0.772705,-0.539551
1519491111729,0.252930,0.780518,-0.555420
1519491111761,0.239990,0.787109,-0.581299
1519491111794,0.239258,0.741943,-0.526367
1519491111826,0.232666,0.756348,-0.532715
1519491111833,0.237549,0.770264,-0.560791
1519491111897,0.291992,0.783447,-0.603516
1519491111903,0.301514,0.802490,-0.587402
1519491111931,0.306641,0.813721,-0.603271
1519491111989,0.314209,0.787598,-0.593262
1519491111999,0.321533,0.765381,-0.588867
1519491112049,0.336182,0.740967,-0.571045
1519491112083,0.361572,0.730957,-0.560791
1519491112116,0.385742,0.741699,-0.561768
1519491112148,0.397949,0.766602,-0.565186
1519491112181,0.400879,0.762939,-0.554443
1519491112213,0.391846,0.740479,-0.541260
1519491112245,0.382080,0.733643,-0.525879
1519491112259,0.354980,0.744873,-0.516846
1519491112317,0.334717,0.772461,-0.531982
1519491112326,0.316650,0.784668,-0.526367
1519491112379,0.302490,0.784912,-0.528320
1519491112413,0.288818,0.799561,-0.522217
1519491112421,0.267334,0.792480,-0.546875
1519491112470,0.261719,0.799561,-0.577881
1519491112475,0.265625,0.816162,-0.576904
1519491112507,0.266357,0.830322,-0.587158
1519491112569,0.265381,0.814941,-0.617188
1519491112578,0.259766,0.829346,-0.640381
1519491112629,0.251465,0.853516,-0.631836
1519491112662,0.237061,0.817627,-0.628906
1519491112699,0.209717,0.769287,-0.607666
1519491112704,0.182861,0.752930,-0.585938
1519491112762,0.138916,0.741455,-0.575439
1519491112877,0.127930,0.752197,-0.577148
1519491112878,0.096924,0.765381,-0.583740
1519491112879,0.044434,0.758789,-0.607666
1519491112891,0.018066,0.752686,-0.638916
1519491112892,0.019531,0.724609,-0.656494
1519491112950,0.004150,0.727783,-0.648193
1519491112982,-0.025635,0.778076,-0.683838
1519491112989,-0.003174,0.753662,-0.687500
1519491113047,-0.018555,0.713379,-0.661621
1519491113079,-0.052734,0.700439,-0.669434
1519491113093,-0.070068,0.722900,-0.671143
1519491113151,-0.083740,0.688232,-0.680908
1519491113156,-0.084961,0.681641,-0.698486
1519491113209,-0.092529,0.706787,-0.710449
1519491113244,-0.098389,0.727295,-0.700684
1519491113277,-0.120117,0.720215,-0.709229
1519491113309,-0.137207,0.697266,-0.696533
1519491113342,-0.119873,0.700195,-0.695557
1519491113374,-0.125244,0.717285,-0.707764
1519491113407,-0.134521,0.713379,-0.697266
1519491113438,-0.154297,0.690186,-0.686279
1519491113471,-0.176514,0.690918,-0.698730
1519491113476,-0.206055,0.705078,-0.705078
1519491113533,-0.199219,0.687256,-0.705566
1519491113566,-0.199707,0.681641,-0.708740
1519491113572,-0.203857,0.694824,-0.711426
1519491113625,-0.194580,0.683838,-0.708984
1519491113658,-0.196045,0.671631,-0.711182
1519491113691,-0.189209,0.667480,-0.718262
1519491113723,-0.190430,0.672363,-0.708008
1519491113755,-0.190430,0.663574,-0.708740
1519491113788,-0.201904,0.667236,-0.720703
1519491113820,-0.220947,0.677002,-0.733398
1519491113852,-0.213135,0.686035,-0.726563
1519491113885,-0.197510,0.685059,-0.711670
1519491113917,-0.170898,0.687744,-0.712646
1519491113932,-0.150146,0.679443,-0.721191
1519491113979,-0.131836,0.673584,-0.723633
1519491114011,-0.120850,0.669189,-0.704590
1519491114044,-0.130859,0.647217,-0.705566
1519491114077,-0.142822,0.643799,-0.703125
1519491114109,-0.164795,0.651367,-0.697266
1519491114141,-0.175049,0.667480,-0.708008
1519491114173,-0.174561,0.677246,-0.708252
1519491114207,-0.173096,0.706543,-0.723145
1519491114239,-0.161621,0.708252,-0.724609
1519491114271,-0.156982,0.717041,-0.728271
1519491114304,-0.146729,0.695313,-0.719727
1519491114337,-0.148438,0.694092,-0.716797
1519491114350,-0.159424,0.675781,-0.698486
1519491114383,-0.160645,0.671875,-0.707520
1519491114441,-0.166260,0.682129,-0.707520
1519491114473,-0.166748,0.676025,-0.702148
1519491114508,-0.168457,0.701172,-0.716553
1519491114513,-0.169434,0.690430,-0.720215
1519491114571,-0.166748,0.684814,-0.715576
1519491114604,-0.177734,0.673096,-0.714600
1519491114636,-0.192627,0.648438,-0.710693
1519491114641,-0.192871,0.662842,-0.715576
1519491114695,-0.187012,0.657959,-0.708984
1519491114728,-0.189697,0.667236,-0.720459
1519491114733,-0.182861,0.682373,-0.717529
1519491114793,-0.184814,0.677246,-0.711670
1519491114799,-0.195557,0.680664,-0.703857
1519491114897,-0.200684,0.685547,-0.706299
1519491114903,-0.196289,0.675049,-0.696777
1519491114966,-0.202148,0.671143,-0.705811
1519491114971,-0.202393,0.674072,-0.716064
1519491115032,-0.209473,0.666748,-0.717285
1519491115038,-0.210449,0.665283,-0.724609
1519491115101,-0.218506,0.666504,-0.720703
1519491115106,-0.223145,0.660645,-0.727783
1519491115167,-0.225098,0.666992,-0.727783
1519491115173,-0.215820,0.665771,-0.714111
1519491115236,-0.217285,0.666504,-0.715088
1519491115241,-0.219971,0.649170,-0.718994
1519491115302,-0.222412,0.645996,-0.715088
1519491115308,-0.226318,0.655518,-0.719238
1519491115371,-0.224121,0.652100,-0.718994
1519491115376,-0.228271,0.662842,-0.715576
1519491115407,-0.228271,0.654785,-0.721680
1519491115412,-0.217529,0.661865,-0.731201
1519491115418,-0.220703,0.668457,-0.715088
1519491115449,-0.216553,0.692383,-0.718018
1519491115481,-0.219482,0.676514,-0.718018
1519491115513,-0.221191,0.661865,-0.715820
1519491115546,-0.223389,0.664795,-0.708008
1519491115585,-0.217529,0.662598,-0.708496
1519491115618,-0.214600,0.654785,-0.704590
1519491115649,-0.221924,0.668701,-0.722656
1519491115683,-0.210693,0.667969,-0.718506
1519491115716,-0.200195,0.660156,-0.703613
1519491115748,-0.199707,0.659180,-0.715332
1519491115781,-0.192871,0.657227,-0.735596
1519491115813,-0.185059,0.655762,-0.723877
1519491115846,-0.180664,0.654785,-0.723389
1519491115878,-0.179688,0.654053,-0.712158
1519491115910,-0.165039,0.646240,-0.710205
1519491115942,-0.179688,0.669678,-0.720947
1519491115975,-0.182861,0.663330,-0.715576
1519491116016,-0.175049,0.671387,-0.732422
1519491116049,-0.171143,0.711182,-0.732666
1519491116081,-0.162354,0.717285,-0.726807
1519491116114,-0.148193,0.701904,-0.702637
1519491116146,-0.151855,0.715820,-0.689941
1519491116179,-0.126709,0.733887,-0.676270
1519491116211,-0.100342,0.742432,-0.681152
1519491116244,-0.075439,0.730469,-0.670166
1519491116277,-0.085938,0.712402,-0.648926
1519491116282,-0.097900,0.674072,-0.671143
1519491116336,-0.102295,0.677246,-0.682861
1519491116368,-0.085938,0.679688,-0.705811
1519491116375,-0.059570,0.698486,-0.715332
1519491116422,-0.028809,0.698975,-0.721436
1519491116454,-0.023682,0.685303,-0.715820
1519491116486,-0.011230,0.693115,-0.723877
1519491116538,0.019043,0.724609,-0.730957
1519491116544,0.025146,0.704590,-0.708984
1519491116597,0.047363,0.698486,-0.707520
1519491116630,0.064697,0.696777,-0.665039
1519491116661,0.057861,0.703369,-0.647705
1519491116694,0.091797,0.757813,-0.678223
1519491116727,0.121826,0.748047,-0.639404
1519491116760,0.139160,0.769531,-0.634277
1519491116793,0.169434,0.771240,-0.624756
1519491116806,0.203369,0.753174,-0.599365
1519491116838,0.194580,0.723633,-0.606934
1519491116872,0.195068,0.741699,-0.647705
1519491116904,0.211670,0.743408,-0.634766
1519491116936,0.216309,0.761963,-0.641113
1519491116969,0.242188,0.774170,-0.664307
1519491117001,0.274658,0.765869,-0.649170
1519491117033,0.276611,0.751953,-0.624756
1519491117065,0.280518,0.737061,-0.599121
1519491117086,0.282471,0.736328,-0.589600
1519491117143,0.299561,0.722900,-0.582275
1519491117176,0.292969,0.676514,-0.578857
1519491117209,0.288086,0.703857,-0.590332
1519491117223,0.283936,0.744385,-0.615479
1519491117255,0.291260,0.789063,-0.630859
1519491117287,0.294189,0.791992,-0.617676
1519491117320,0.290771,0.771240,-0.629150
1519491117352,0.287354,0.729492,-0.644287
1519491117389,0.288330,0.750244,-0.630859
1519491117421,0.292725,0.749023,-0.596924
1519491117454,0.281250,0.756104,-0.580322
1519491117486,0.269043,0.827637,-0.570801
1519491117518,0.266357,0.843994,-0.548828
1519491117550,0.262939,0.830811,-0.524414
1519491117583,0.272949,0.791016,-0.551025
1519491117615,0.255127,0.794678,-0.564697
1519491117657,0.226563,0.792725,-0.552002
1519491117690,0.195313,0.734619,-0.512695
1519491117722,0.170654,0.779297,-0.509277
1519491117755,0.162109,0.824219,-0.524902
1519491117787,0.154785,0.832764,-0.593506
1519491117819,0.136230,0.819824,-0.605225
1519491117825,0.114258,0.816162,-0.610840
1519491117879,0.067139,0.828857,-0.622070
1519491117911,0.058105,0.831299,-0.644287
1519491117917,0.049561,0.818604,-0.642822
1519491117975,0.018311,0.815186,-0.666748
1519491118007,-0.007568,0.831055,-0.710693
1519491118040,0.011230,0.853271,-0.754639
1519491118054,0.034180,0.909180,-0.741943
1519491118087,0.030029,0.879639,-0.684326
1519491118120,0.022949,0.798584,-0.620117
1519491118151,-0.030273,0.731934,-0.552734
1519491118208,-0.105225,0.724854,-0.528809
1519491118241,-0.164551,0.741211,-0.562012
1519491118274,-0.164063,0.742432,-0.547852
1519491118282,-0.181885,0.760254,-0.521973
1519491118337,-0.233398,0.701660,-0.543701
1519491118374,-0.269287,0.731934,-0.545166
1519491118406,-0.320068,0.726318,-0.555420
1519491118412,-0.343994,0.692139,-0.579102
1519491118471,-0.361084,0.708740,-0.621094
1519491118477,-0.343506,0.742676,-0.609863
1519491118505,-0.339600,0.749023,-0.587402
1519491118561,-0.342529,0.747070,-0.566162
1519491118565,-0.356689,0.711182,-0.604004
1519491118624,-0.379883,0.699219,-0.603516
1519491118656,-0.390381,0.709961,-0.570557
1519491118689,-0.385742,0.700439,-0.591309
1519491118722,-0.379639,0.707275,-0.618408
1519491118754,-0.368896,0.722412,-0.629883
1519491118787,-0.377930,0.710449,-0.623779
1519491118819,-0.390137,0.738037,-0.596680
1519491118852,-0.391357,0.722900,-0.585205
1519491118869,-0.386963,0.719971,-0.561279
1519491118897,-0.394531,0.679199,-0.556152
1519491118954,-0.427490,0.649414,-0.566406
1519491118986,-0.462158,0.679443,-0.585693
1519491118989,-0.451416,0.720703,-0.609131
1519491119044,-0.424072,0.737305,-0.605225
1519491119049,-0.412842,0.739502,-0.582275
1519491119099,-0.411621,0.758789,-0.565918
1519491119131,-0.411133,0.736328,-0.562500
1519491119163,-0.390869,0.713135,-0.562012
1519491119197,-0.395508,0.685303,-0.547119
1519491119229,-0.405762,0.678711,-0.567871
1519491119261,-0.438965,0.751465,-0.466064
1519491119294,-0.407715,0.658447,-0.507324
1519491119332,-0.424316,0.690674,-0.579346
1519491119364,-0.412598,0.795410,-0.554443
1519491119397,-0.411865,0.818848,-0.476807
1519491119430,-0.385254,0.857910,-0.530029
1519491119461,-0.420166,0.784180,-0.592529
1519491119466,-0.419678,0.805908,-0.532959
1519491119524,-0.370605,0.849854,-0.391357
1519491119556,-0.435059,0.760986,-0.478271
1519491119562,-0.392334,0.850586,-0.466797
1519491119621,-0.412354,0.840088,-0.402100
1519491119652,-0.426758,0.795166,-0.390137
1519491119666,-0.474854,0.684326,-0.445068
1519491119723,-0.426758,0.756104,-0.450928
1519491119728,-0.411133,0.722656,-0.449707
1519491119784,-0.425293,0.726807,-0.486572
1519491119817,-0.391846,0.831299,-0.421387
1519491119850,-0.451416,0.817139,-0.490479
1519491119922,-0.454346,0.760010,-0.545898
1519491119927,-0.478271,0.741943,-0.413574
1519491119990,-0.491943,0.761719,-0.434814
1519491119995,-0.505371,0.801514,-0.431396
1519491120057,-0.505615,0.812744,-0.418945
1519491120125,-0.489258,0.742676,-0.377686
1519491120191,-0.457275,0.785156,-0.400391
1519491120194,-0.452148,0.796387,-0.437988
1519491120260,-0.479736,0.771484,-0.482666
1519491120265,-0.450195,0.792236,-0.499023
1519491120328,-0.451416,0.756104,-0.529053
1519491120336,-0.444824,0.694824,-0.549072
1519491120394,-0.449219,0.725586,-0.575439
1519491120397,-0.467041,0.764404,-0.544189
1519491120407,-0.460205,0.730469,-0.544678
1519491120415,-0.463135,0.740723,-0.495117
1519491120418,-0.447266,0.685059,-0.513428
1519491120421,-0.469971,0.693359,-0.560547
1519491120466,-0.472412,0.730713,-0.563965
1519491120480,-0.451660,0.691650,-0.538330
1519491120514,-0.457031,0.713379,-0.517090
1519491120545,-0.448730,0.733398,-0.559570
1519491120577,-0.441162,0.738770,-0.526855
1519491120610,-0.433838,0.719238,-0.507324
1519491120644,-0.437256,0.722900,-0.529297
1519491120677,-0.452637,0.723389,-0.544678
1519491120710,-0.465332,0.698730,-0.526611
1519491120742,-0.472656,0.722656,-0.541260
1519491120775,-0.479492,0.731445,-0.520508
1519491120807,-0.469727,0.722168,-0.524170
1519491120840,-0.465820,0.718994,-0.540283
1519491120872,-0.477539,0.689941,-0.530518
1519491120914,-0.460938,0.696777,-0.509766
1519491120945,-0.476807,0.712402,-0.515869
1519491120961,-0.468262,0.719238,-0.525635
1519491120994,-0.448730,0.762451,-0.483154
1519491121026,-0.448730,0.768066,-0.484619
1519491121059,-0.477783,0.710205,-0.574707
1519491121091,-0.489014,0.717285,-0.574707
1519491121124,-0.474854,0.719482,-0.515137
1519491121157,-0.472656,0.715332,-0.531006
1519491121189,-0.472168,0.729248,-0.530762
1519491121222,-0.466553,0.739258,-0.520264
1519491121260,-0.463867,0.710693,-0.512695
1519491121293,-0.484131,0.750244,-0.522705
1519491121306,-0.482666,0.759033,-0.521240
1519491121364,-0.471436,0.730957,-0.504639
1519491121396,-0.460693,0.744141,-0.493652
1519491121428,-0.462646,0.747070,-0.502930
1519491121462,-0.457275,0.778564,-0.486816
1519491121493,-0.438477,0.753906,-0.460693
1519491121526,-0.441406,0.746094,-0.444092
1519491121557,-0.466309,0.862549,-0.452881
1519491121590,-0.407227,0.719971,-0.383301
1519491121595,-0.442871,0.950928,-0.451172
1519491121659,-0.438477,0.758057,-0.340332
1519491121667,-0.421875,0.798096,-0.177002
1519491121692,-0.416992,0.783203,-0.191162
1519491121751,-0.434326,0.869385,-0.365234
1519491121760,-0.457275,0.838867,-0.426514
1519491121812,-0.447266,0.783447,-0.446289
1519491121843,-0.411621,0.760010,-0.463867
1519491121877,-0.432373,0.776123,-0.567627
1519491121908,-0.445557,0.815674,-0.558105
1519491121940,-0.450928,0.810791,-0.521484
1519491121973,-0.447021,0.736328,-0.497314
1519491122007,-0.454834,0.719971,-0.504395
1519491122040,-0.453857,0.734619,-0.549561
1519491122070,-0.451172,0.745850,-0.511230
1519491122105,-0.471680,0.762451,-0.491455
1519491122137,-0.451660,0.697754,-0.498047
1519491122153,-0.439697,0.705322,-0.512207
1519491122177,-0.446777,0.737061,-0.530762
1519491122239,-0.464600,0.750488,-0.523682
1519491122248,-0.455078,0.743652,-0.518799
1519491122273,-0.450928,0.728760,-0.520020
1519491122330,-0.462646,0.730713,-0.519775
1519491122339,-0.465576,0.743652,-0.513916
1519491122394,-0.461670,0.748291,-0.512939
1519491122426,-0.460449,0.759033,-0.498779
1519491122459,-0.459229,0.748535,-0.499023
1519491122467,-0.465088,0.747314,-0.501953
1519491122520,-0.462158,0.725098,-0.492432
1519491122553,-0.464600,0.727051,-0.495605
1519491122566,-0.457764,0.751221,-0.504883
1519491122625,-0.452637,0.730225,-0.494141
1519491122658,-0.475098,0.746826,-0.514893
1519491122666,-0.480713,0.757080,-0.512939
1519491122717,-0.459473,0.793213,-0.520264
1519491122750,-0.451416,0.709229,-0.534668
1519491122759,-0.470703,0.739258,-0.522705
1519491122807,-0.470459,0.772949,-0.495361
1519491122841,-0.465576,0.773926,-0.485840
1519491122872,-0.465332,0.738525,-0.480713
1519491122905,-0.474609,0.725098,-0.494873
1519491122939,-0.472900,0.725586,-0.494873
1519491122971,-0.474121,0.743896,-0.479736
1519491122985,-0.477295,0.739502,-0.489014
1519491123017,-0.476807,0.725342,-0.505371
1519491123074,-0.485352,0.742188,-0.498535
1519491123079,-0.481934,0.759277,-0.498291
1519491123137,-0.478760,0.751709,-0.497803
1519491123170,-0.465332,0.761719,-0.481689
1519491123206,-0.455811,0.751953,-0.482666
1519491123238,-0.458740,0.755371,-0.471680
1519491123244,-0.467285,0.756592,-0.463379
1519491123298,-0.470215,0.763672,-0.455322
1519491123330,-0.471680,0.736572,-0.454102
1519491123339,-0.478271,0.768066,-0.455566
1519491123390,-0.474121,0.776123,-0.479248
1519491123403,-0.461182,0.777344,-0.469238
1519491123436,-0.449707,0.766846,-0.458252
1519491123493,-0.454590,0.763184,-0.474121
1519491123502,-0.479004,0.745117,-0.503662
1519491123550,-0.491943,0.752441,-0.525635
1519491123584,-0.483887,0.797363,-0.505127
1519491123618,-0.479736,0.740234,-0.449219
1519491123649,-0.477051,0.762207,-0.423096
1519491123682,-0.451904,0.822754,-0.350586
1519491123714,-0.475586,0.812256,-0.392334
1519491123746,-0.494629,0.790771,-0.441650
1519491123778,-0.474609,0.793457,-0.449463
1519491123810,-0.447510,0.746094,-0.383545
1519491123812,-0.430420,0.799072,-0.349121
1519491123882,-0.436279,0.844727,-0.377441
1519491123914,-0.412109,0.852051,-0.373291
1519491123918,-0.406494,0.814209,-0.361084
1519491123949,-0.393555,0.829834,-0.366455
1519491123981,-0.466309,0.846436,-0.452393
1519491124014,-0.474854,0.838135,-0.411133
1519491124071,-0.461670,0.772461,-0.362549
1519491124077,-0.487793,0.816895,-0.445068
1519491124134,-0.489990,0.822754,-0.423584
1519491124144,-0.472168,0.777588,-0.439453
1519491124219,-0.467041,0.765137,-0.450439
1519491124227,-0.461426,0.734375,-0.464844
1519491124266,-0.440918,0.786621,-0.442627
1519491124299,-0.459717,0.795410,-0.452148
1519491124332,-0.471191,0.782959,-0.464355
1519491124364,-0.477051,0.755615,-0.463135
1519491124372,-0.463867,0.776367,-0.440674
1519491124398,-0.463867,0.773926,-0.455078
1519491124430,-0.469727,0.726563,-0.495117
1519491124462,-0.460205,0.768311,-0.470215
1519491124495,-0.463135,0.765381,-0.450928
1519491124526,-0.481201,0.764893,-0.463379
1519491124584,-0.464600,0.757080,-0.472656
1519491124617,-0.466064,0.761719,-0.481445
1519491124631,-0.446533,0.750488,-0.485107
1519491124663,-0.453857,0.760986,-0.503174
1519491124696,-0.458252,0.754639,-0.515137
1519491124729,-0.453125,0.752197,-0.496582
1519491124762,-0.455811,0.764160,-0.503174
1519491124793,-0.429932,0.771973,-0.474854
1519491124852,-0.441162,0.783447,-0.460205
1519491124860,-0.477051,0.813721,-0.523926
1519491124924,-0.489502,0.744141,-0.517090
1519491124932,-0.495361,0.712158,-0.437500
1519491124990,-0.481934,0.749756,-0.458496
1519491124998,-0.473877,0.716553,-0.447021
1519491125057,-0.444336,0.796631,-0.421387
1519491125127,-0.439697,0.726563,-0.499512
1519491125193,-0.449707,0.709473,-0.496338
1519491125202,-0.428467,0.790283,-0.453857
1519491125261,-0.468750,0.788574,-0.581543
1519491125270,-0.475098,0.704590,-0.571777
1519491125327,-0.463379,0.743896,-0.494629
1519491125333,-0.444336,0.802734,-0.493652
1519491125381,-0.480225,0.787842,-0.535400
1519491125385,-0.443848,0.709473,-0.444092
1519491125395,-0.443848,0.806396,-0.428955
1519491125404,-0.454346,0.788330,-0.444580
1519491125417,-0.448486,0.734619,-0.439453
1519491125425,-0.456055,0.754639,-0.468994
1519491125454,-0.444336,0.790527,-0.504883
1519491125525,-0.411865,0.771729,-0.488281
1519491125533,-0.411865,0.738281,-0.448730
1519491125557,-0.428467,0.780518,-0.477295
1519491125590,-0.442139,0.777344,-0.565430
1519491125647,-0.458252,0.769043,-0.553467
1519491125652,-0.436768,0.711182,-0.525146
1519491125712,-0.426758,0.736328,-0.522949
1519491125742,-0.425293,0.764160,-0.512207
1519491125776,-0.412598,0.763672,-0.522949
1519491125809,-0.411621,0.762451,-0.541992
1519491125842,-0.412109,0.758789,-0.523926
1519491125850,-0.399658,0.738525,-0.529297
1519491125906,-0.346436,0.644775,-0.495117
1519491125939,-0.293945,0.656494,-0.511963
1519491125949,-0.302490,0.704102,-0.522217
1519491125995,-0.295166,0.685303,-0.546631
1519491126028,-0.294678,0.546875,-0.587158
1519491126061,-0.269531,0.515137,-0.638672
1519491126098,-0.240234,0.748047,-0.578369
1519491126103,-0.220459,0.674072,-0.596191
1519491126159,-0.181885,0.938965,-0.635498
1519491126193,-0.218750,0.902100,-0.655029
1519491126225,-0.185791,0.871094,-0.759033
1519491126257,-0.156738,0.744141,-0.795654
1519491126272,-0.145020,0.667480,-0.859863
1519491126303,-0.131836,0.553467,-0.878418
1519491126337,-0.179932,0.663574,-0.999023
1519491126395,-0.160156,0.366943,-0.937256
1519491126428,-0.135010,0.403809,-0.917480
1519491126436,-0.147949,0.443359,-0.891113
1519491126486,-0.158447,0.500244,-0.872070
1519491126518,-0.094482,0.479248,-0.905762
1519491126526,-0.137451,0.363770,-0.888916
1519491126575,-0.114258,0.366943,-0.835938
1519491126608,-0.135742,0.347900,-0.940674
1519491126641,-0.191650,0.365234,-0.956543
1519491126674,-0.037109,0.313232,-0.809814
1519491126688,-0.084717,0.403564,-0.970703
1519491126721,-0.102783,0.348389,-1.059326
1519491126753,-0.127930,0.316650,-0.969238
1519491126808,-0.151367,0.306152,-0.972168
1519491126841,-0.131348,0.332520,-0.945557
1519491126850,-0.096680,0.336182,-0.902344
1519491126904,-0.068848,0.402344,-0.890137
1519491126938,-0.056396,0.460449,-0.865967
1519491126969,-0.076660,0.486328,-0.871582
1519491127002,-0.099365,0.481689,-0.867432
1519491127011,-0.131104,0.439941,-0.881836
1519491127064,-0.147461,0.458984,-0.872803
1519491127097,-0.163574,0.429199,-0.847656
1519491127102,-0.184082,0.391602,-0.888184
1519491127169,-0.186035,0.391113,-0.883301
1519491127177,-0.187500,0.396973,-0.892090
1519491127204,-0.187500,0.395508,-0.885010
1519491127237,-0.168701,0.412598,-0.911865
1519491127267,-0.141113,0.426758,-0.897217
1519491127301,-0.122803,0.422607,-0.877686
1519491127333,-0.123047,0.424561,-0.879150
1519491127391,-0.128906,0.437012,-0.883057
1519491127424,-0.129395,0.455566,-0.864014
1519491127456,-0.140381,0.481934,-0.864502
1519491127465,-0.152588,0.489990,-0.870117
1519491127502,-0.155273,0.460938,-0.869141
1519491127533,-0.159668,0.439941,-0.882324
1519491127565,-0.148193,0.452637,-0.871338
1519491127597,-0.138916,0.454834,-0.871582
1519491127655,-0.132324,0.442139,-0.867432
1519491127661,-0.138428,0.456543,-0.856201
1519491127693,-0.147949,0.475586,-0.853271
1519491127727,-0.154053,0.466553,-0.846680
1519491127760,-0.164795,0.488525,-0.859863
1519491127792,-0.158936,0.481689,-0.862061
1519491127824,-0.144043,0.505371,-0.860840
1519491127857,-0.146240,0.477295,-0.841553
1519491127889,-0.156006,0.477051,-0.859375
1519491127932,-0.156006,0.473633,-0.882324
1519491127962,-0.161377,0.505615,-0.861084
1519491127995,-0.162354,0.518555,-0.842041
1519491128032,-0.192139,0.507080,-0.862549
1519491128058,-0.200195,0.513184,-0.870850
1519491128091,-0.180664,0.509033,-0.829590
1519491128124,-0.191162,0.494385,-0.822021
1519491128133,-0.185791,0.495117,-0.842529
1519491128186,-0.176514,0.487793,-0.840820
1519491128219,-0.154297,0.510742,-0.813965
1519491128252,-0.161621,0.503906,-0.808594
1519491128285,-0.185059,0.511475,-0.832031
1519491128298,-0.186523,0.506104,-0.816895
1519491128332,-0.192383,0.526123,-0.817383
1519491128364,-0.198242,0.522705,-0.829102
1519491128421,-0.194336,0.536621,-0.823975
1519491128453,-0.191895,0.550537,-0.825439
1519491128462,-0.174561,0.554688,-0.831299
1519491128518,-0.167725,0.533936,-0.818115
1519491128548,-0.171631,0.525635,-0.824951
1519491128551,-0.174805,0.515869,-0.827881
1519491128607,-0.188232,0.529053,-0.813232
1519491128613,-0.200195,0.511719,-0.802002
1519491128645,-0.213135,0.513672,-0.811523
1519491128702,-0.222168,0.523193,-0.828857
1519491128714,-0.224121,0.518799,-0.829346
1519491128747,-0.221436,0.506592,-0.832031
1519491128780,-0.216309,0.493896,-0.832764
1519491128813,-0.208740,0.510254,-0.840088
1519491128845,-0.191406,0.510498,-0.835938
1519491128878,-0.197510,0.522461,-0.840088
1519491128908,-0.195068,0.507080,-0.838379
1519491128966,-0.177979,0.510010,-0.834229
1519491128976,-0.189453,0.509521,-0.825439
1519491129033,-0.200439,0.514648,-0.852051
1519491129035,-0.194580,0.506836,-0.853271
1519491129091,-0.184570,0.507324,-0.827148
1519491129105,-0.189453,0.505371,-0.833008
1519491129137,-0.194336,0.499512,-0.846924
1519491129195,-0.192871,0.509277,-0.846680
1519491129197,-0.185791,0.502441,-0.822510
1519491129229,-0.193359,0.504150,-0.820313
1519491129288,-0.197754,0.489502,-0.836914
1519491129296,-0.187988,0.498047,-0.843506
1519491129339,-0.186768,0.495850,-0.829102
1519491129371,-0.204834,0.491455,-0.822021
1519491129403,-0.215332,0.504150,-0.837158
1519491129436,-0.211426,0.501953,-0.847168
1519491129468,-0.210449,0.507324,-0.858643
1519491129501,-0.213135,0.500244,-0.857910
1519491129542,-0.210938,0.515869,-0.844971
1519491129575,-0.204834,0.510010,-0.840088
1519491129608,-0.199463,0.492188,-0.849854
1519491129613,-0.199707,0.491943,-0.833496
1519491129665,-0.191650,0.519531,-0.810547
1519491129699,-0.179932,0.518555,-0.806641
1519491129707,-0.192383,0.494141,-0.794189
1519491129761,-0.214355,0.500977,-0.833008
1519491129794,-0.195313,0.514648,-0.846436
1519491129827,-0.172607,0.531738,-0.825684
1519491129900,-0.180664,0.546143,-0.831299
1519491129904,-0.184082,0.523193,-0.810791
1519491129966,-0.203857,0.520752,-0.801270
1519491130034,-0.213135,0.532959,-0.829590
1519491130101,-0.197998,0.549316,-0.836670
1519491130106,-0.185791,0.577881,-0.850098
1519491130170,-0.189453,0.595947,-0.856201
1519491130178,-0.187256,0.611816,-0.821777
1519491130238,-0.189697,0.608398,-0.797363
1519491130246,-0.240234,0.610596,-0.823242
1519491130305,-0.246094,0.626221,-0.821777
1519491130315,-0.225586,0.688965,-0.791260
1519491130371,-0.229736,0.656250,-0.749023
1519491130374,-0.263672,0.679443,-0.742432
1519491130384,-0.275391,0.664063,-0.728271
1519491130387,-0.282715,0.638672,-0.667236
1519491130391,-0.280762,0.651855,-0.657227
1519491130404,-0.287842,0.644287,-0.583252
1519491130437,-0.295898,0.704590,-0.625732
1519491130471,-0.273682,0.671875,-0.626221
1519491130502,-0.295654,0.674316,-0.620850
1519491130534,-0.316406,0.717773,-0.590332
1519491130567,-0.306885,0.683105,-0.522949
1519491130620,-0.314209,0.693359,-0.503906
1519491130628,-0.292480,0.851807,-0.477539
1519491130653,-0.296631,0.885254,-0.521240
1519491130685,-0.352539,0.995605,-0.544434
1519491130743,-0.306885,0.760986,-0.478760
1519491130776,-0.323486,0.830566,-0.579102
1519491130784,-0.336914,0.838867,-0.478027
1519491130835,-0.346680,0.886230,-0.422363
1519491130867,-0.319580,0.888184,-0.418457
1519491130876,-0.306396,0.795166,-0.357422
1519491130928,-0.339111,0.815674,-0.467041
1519491130934,-0.361084,0.954346,-0.523682
1519491130992,-0.366455,0.831543,-0.464111
1519491131026,-0.344482,0.760254,-0.407959
1519491131034,-0.350830,0.818604,-0.505371
1519491131089,-0.376465,0.832520,-0.540527
1519491131121,-0.352783,0.741699,-0.478271
1519491131154,-0.353760,0.759033,-0.469727
1519491131185,-0.376709,0.874268,-0.482422
1519491131200,-0.407471,0.824951,-0.459229
1519491131234,-0.396484,0.780029,-0.463379
1519491131267,-0.380615,0.779297,-0.505859
1519491131298,-0.370605,0.766846,-0.488770
1519491131356,-0.341064,0.820557,-0.458740
1519491131364,-0.349854,0.860352,-0.453369
1519491131415,-0.375244,0.804199,-0.499512
1519491131420,-0.399170,0.761230,-0.534668
1519491131452,-0.397217,0.812012,-0.511230
1519491131510,-0.380127,0.765137,-0.495361
1519491131518,-0.368164,0.768066,-0.465332
1519491131572,-0.332275,0.826416,-0.475830
1519491131605,-0.340576,0.864258,-0.545654
1519491131619,-0.344238,0.794678,-0.529541
1519491131652,-0.359131,0.808105,-0.512207
1519491131683,-0.375977,0.796387,-0.536133
1519491131716,-0.390137,0.770508,-0.515625
1519491131748,-0.389160,0.772949,-0.475098
1519491131806,-0.390381,0.756348,-0.513916
1519491131839,-0.378906,0.768311,-0.522949
1519491131847,-0.387451,0.806885,-0.496094
1519491131900,-0.393555,0.746338,-0.491455
1519491131932,-0.403564,0.738281,-0.490479
1519491131940,-0.381836,0.754639,-0.510742
1519491131992,-0.385254,0.765381,-0.543213
1519491132022,-0.391113,0.751465,-0.485596
1519491132036,-0.393799,0.784424,-0.469238
1519491132094,-0.378174,0.777344,-0.462891
1519491132099,-0.380615,0.845215,-0.453369
1519491132153,-0.401611,0.822021,-0.485352
1519491132186,-0.410156,0.807617,-0.492920
1519491132217,-0.407227,0.770508,-0.470947
1519491132250,-0.397217,0.784424,-0.471680
1519491132283,-0.386963,0.816650,-0.491211
1519491132316,-0.380859,0.811279,-0.515869
1519491132348,-0.388184,0.803955,-0.493164
1519491132381,-0.398438,0.785400,-0.485107
1519491132413,-0.394043,0.777344,-0.488281
1519491132422,-0.399658,0.762695,-0.500732
1519491132470,-0.400391,0.771973,-0.487305
1519491132504,-0.405029,0.792969,-0.484375
1519491132514,-0.409668,0.794434,-0.497803
1519491132569,-0.406494,0.788818,-0.492920
1519491132586,-0.408936,0.786377,-0.474854
1519491132618,-0.419434,0.800049,-0.474854
1519491132678,-0.421143,0.796143,-0.488037
1519491132686,-0.417725,0.745605,-0.451660
1519491132710,-0.415039,0.786377,-0.491455
1519491132767,-0.408691,0.787842,-0.500977
1519491132801,-0.406738,0.786621,-0.485352
1519491132834,-0.398438,0.754883,-0.478760
1519491132847,-0.412598,0.781494,-0.485596
1519491132880,-0.414063,0.785645,-0.490967
1519491132912,-0.421631,0.775879,-0.504883
1519491132945,-0.451172,0.811768,-0.517090
1519491133001,-0.457275,0.804688,-0.465332
1519491133007,-0.437744,0.816162,-0.424561
1519491133062,-0.367188,0.832031,-0.356445
1519491133092,-0.397949,0.790527,-0.466553
1519491133098,-0.400635,0.788086,-0.487061
1519491133151,-0.409180,0.845459,-0.452881
1519491133178,-0.425049,0.776367,-0.478271
1519491133213,-0.433350,0.773438,-0.456543
1519491133244,-0.412109,0.788818,-0.403809
1519491133276,-0.402100,0.787109,-0.410889
1519491133310,-0.414307,0.788818,-0.442871
1519491133342,-0.422852,0.810303,-0.461182
1519491133375,-0.404541,0.824463,-0.458008
1519491133408,-0.433350,0.807129,-0.482422
1519491133438,-0.452637,0.774658,-0.480713
1519491133471,-0.433838,0.783691,-0.472412
1519491133505,-0.430664,0.763184,-0.479980
1519491133537,-0.437500,0.772949,-0.496094
1519491133570,-0.431885,0.777588,-0.471924
1519491133578,-0.430908,0.770752,-0.476807
1519491133632,-0.427246,0.781494,-0.480713
1519491133674,-0.426758,0.791260,-0.462891
1519491133683,-0.434814,0.781250,-0.487549
1519491133707,-0.429199,0.762695,-0.494385
1519491133765,-0.429688,0.790527,-0.478027
1519491133798,-0.439941,0.789795,-0.485840
1519491133809,-0.441650,0.771484,-0.490723
1519491133842,-0.435059,0.760254,-0.483398
1519491133875,-0.425781,0.782959,-0.481934
1519491133907,-0.428711,0.771729,-0.497314
1519491133965,-0.429688,0.761719,-0.494629
1519491133996,-0.419922,0.774170,-0.493164
1519491134029,-0.434082,0.770508,-0.489014
1519491134037,-0.433594,0.761475,-0.479248
1519491134073,-0.436523,0.760254,-0.477783
1519491134106,-0.447021,0.761963,-0.501953
1519491134140,-0.439209,0.765625,-0.499756
1519491134171,-0.433105,0.786865,-0.489258
1519491134204,-0.441895,0.766357,-0.495117
1519491134238,-0.440186,0.745361,-0.489258
1519491134271,-0.440186,0.749268,-0.485352
1519491134303,-0.443604,0.761230,-0.487549
1519491134335,-0.441162,0.767578,-0.511475
1519491134368,-0.433838,0.772217,-0.489746
1519491134401,-0.433838,0.758301,-0.479004
1519491134432,-0.445068,0.758057,-0.505127
1519491134458,-0.439941,0.775391,-0.506592
1519491134501,-0.438232,0.764404,-0.475342
1519491134534,-0.446777,0.764404,-0.470703
1519491134566,-0.445313,0.762695,-0.496338
1519491134597,-0.421143,0.771484,-0.479492
1519491134630,-0.425293,0.770752,-0.473145
1519491134664,-0.426758,0.750732,-0.492432
1519491134696,-0.429199,0.768066,-0.499512
1519491134705,-0.437256,0.776855,-0.486084
1519491134760,-0.437744,0.764648,-0.484375
1519491134772,-0.427002,0.766357,-0.483887
1519491134828,-0.434570,0.814453,-0.482666
1519491134837,-0.454346,0.813965,-0.495117
1519491134907,-0.430664,0.798584,-0.490967
1519491134912,-0.420654,0.788818,-0.496094
1519491134975,-0.404541,0.749512,-0.455566
1519491134984,-0.436768,0.772217,-0.497070
1519491135041,-0.443848,0.801514,-0.563477
1519491135049,-0.448730,0.726807,-0.567139
1519491135109,-0.431152,0.721680,-0.498291
1519491135114,-0.436279,0.777588,-0.484619
1519491135178,-0.442139,0.771484,-0.497803
1519491135186,-0.450684,0.764160,-0.513672
1519491135246,-0.436523,0.763184,-0.516846
1519491135254,-0.434814,0.770752,-0.487305
1519491135312,-0.446045,0.738037,-0.500244
1519491135321,-0.444824,0.747559,-0.501465
1519491135381,-0.444092,0.753174,-0.496582
1519491135389,-0.448242,0.746338,-0.501465
1519491135397,-0.426758,0.735840,-0.482422
1519491135419,-0.440430,0.773926,-0.495361
1519491135453,-0.444824,0.769531,-0.499512
1519491135486,-0.446533,0.755615,-0.502686
1519491135519,-0.438965,0.761230,-0.497314
1519491135576,-0.443115,0.753418,-0.501953
1519491135607,-0.441650,0.756592,-0.513184
1519491135613,-0.437988,0.764160,-0.506836
1519491135667,-0.439209,0.754395,-0.499023
1519491135699,-0.443115,0.756592,-0.515137
1519491135708,-0.446533,0.744141,-0.520508
1519491135765,-0.447266,0.723145,-0.495850
1519491135773,-0.432617,0.746582,-0.447754
1519491135824,-0.442871,0.783936,-0.446045
1519491135856,-0.445313,0.793457,-0.476563
1519491135889,-0.432861,0.762939,-0.494873
1519491135921,-0.442383,0.746338,-0.506836
1519491135954,-0.464111,0.760986,-0.535156
1519491135986,-0.453369,0.770508,-0.510010
1519491136017,-0.455566,0.777832,-0.523438
1519491136051,-0.445801,0.752441,-0.495605
1519491136084,-0.443115,0.744873,-0.475098
1519491136115,-0.456543,0.745361,-0.496826
1519491136148,-0.462646,0.762695,-0.472900
1519491136181,-0.433350,0.802979,-0.422607
1519491136189,-0.408936,0.780273,-0.409668
1519491136238,-0.435303,0.842773,-0.442871
1519491136271,-0.425293,0.810547,-0.449951
1519491136303,-0.376709,0.793213,-0.393799
1519491136337,-0.386475,0.889893,-0.431641
1519491136370,-0.432861,0.862061,-0.443115
1519491136402,-0.431885,0.809082,-0.370361
1519491136435,-0.408936,0.810547,-0.328369
1519491136468,-0.396484,0.848877,-0.324707
1519491136500,-0.391846,0.922119,-0.368408
1519491136531,-0.292236,0.796875,-0.333008
1519491136548,-0.341309,0.833496,-0.279785
1519491136603,-0.400391,0.912598,-0.418213
1519491136609,-0.466064,0.779541,-0.492920
1519491136668,-0.392334,0.727783,-0.439209
1519491136703,-0.398438,0.724365,-0.554443
1519491136712,-0.424072,0.801514,-0.549316
1519491136769,-0.416260,0.833008,-0.494141
1519491136772,-0.421387,0.785889,-0.496338
1519491136829,-0.409180,0.794434,-0.424072
1519491136861,-0.410156,0.811279,-0.438232
1519491136869,-0.438477,0.811768,-0.491211
1519491136919,-0.450684,0.853760,-0.468262
1519491136952,-0.424316,0.796387,-0.439697
1519491136966,-0.407471,0.774414,-0.429443
1519491137019,-0.400391,0.812500,-0.420410
1519491137025,-0.402100,0.817383,-0.413818
1519491137083,-0.411133,0.795410,-0.425049
1519491137115,-0.423340,0.835449,-0.430176
1519491137148,-0.421143,0.858398,-0.428955
1519491137180,-0.421387,0.816650,-0.422363
1519491137214,-0.407715,0.815674,-0.378906
1519491137247,-0.408203,0.813477,-0.373047
1519491137279,-0.409180,0.829590,-0.381836
1519491137312,-0.410156,0.839600,-0.416748
1519491137344,-0.405029,0.848389,-0.407959
1519491137352,-0.402832,0.850342,-0.400635
1519491137402,-0.395508,0.842041,-0.390625
1519491137435,-0.401367,0.865723,-0.392578
1519491137445,-0.406494,0.829834,-0.389893
1519491137498,-0.407471,0.825195,-0.390137
1519491137529,-0.402832,0.831299,-0.393311
1519491137562,-0.394775,0.836670,-0.381836
1519491137596,-0.377930,0.848633,-0.374023
1519491137627,-0.360596,0.907715,-0.371094
1519491137659,-0.431396,0.902832,-0.418945
1519491137694,-0.433594,0.775146,-0.387695
1519491137727,-0.411865,0.816406,-0.344971
1519491137760,-0.438965,0.912598,-0.394531
1519491137779,-0.427979,0.838135,-0.383301
1519491137811,-0.400146,0.807373,-0.333984
1519491137843,-0.417969,0.794189,-0.395264
1519491137876,-0.426025,0.831055,-0.457031
1519491137908,-0.416016,0.854492,-0.422363
1519491137941,-0.402588,0.832764,-0.415771
1519491137998,-0.414307,0.851318,-0.404053
1519491138005,-0.424805,0.848633,-0.409424
1519491138031,-0.433594,0.788086,-0.405518
1519491138090,-0.431641,0.828125,-0.415527
1519491138098,-0.425781,0.867188,-0.413330
1519491138147,-0.425781,0.812744,-0.412842
1519491138181,-0.414795,0.802490,-0.375488
1519491138195,-0.433105,0.854980,-0.388184
1519491138227,-0.444336,0.813477,-0.392090
1519491138260,-0.446777,0.804443,-0.389404
1519491138299,-0.445313,0.823975,-0.385498
1519491138332,-0.435791,0.836182,-0.381104
1519491138365,-0.440918,0.814697,-0.384033
1519491138398,-0.442627,0.826172,-0.376465
1519491138430,-0.444580,0.845459,-0.381836
1519491138463,-0.443604,0.796875,-0.364990
1519491138495,-0.444824,0.825195,-0.371826
1519491138528,-0.446289,0.833984,-0.385742
1519491138561,-0.437012,0.832275,-0.377441
1519491138592,-0.448486,0.826416,-0.379883
1519491138607,-0.456299,0.843262,-0.379883
1519491138667,-0.468994,0.826172,-0.376465
1519491138675,-0.471191,0.803955,-0.363770
1519491138726,-0.466797,0.835693,-0.351074
1519491138760,-0.477051,0.826904,-0.373047
1519491138793,-0.479248,0.818848,-0.375488
1519491138824,-0.468750,0.796143,-0.374756
1519491138857,-0.474121,0.800049,-0.367676
1519491138890,-0.465088,0.833496,-0.358887
1519491138922,-0.460449,0.817627,-0.350586
1519491138955,-0.455078,0.802734,-0.339844
1519491138988,-0.448486,0.807861,-0.367188
1519491138996,-0.461670,0.822754,-0.367676
1519491139057,-0.492188,0.838867,-0.353760
1519491139091,-0.483643,0.820801,-0.348633
1519491139099,-0.458252,0.839844,-0.344971
1519491139148,-0.432373,0.819336,-0.347168
1519491139154,-0.458740,0.817383,-0.382813
1519491139212,-0.457275,0.840332,-0.391357
1519491139245,-0.450928,0.961426,-0.328369
1519491139253,-0.560059,1.145996,-0.303955
1519491139309,-0.625732,1.318359,-0.510254
1519491139341,-0.542725,1.072510,-0.287842
1519491139373,-0.515137,0.969971,-0.072510
1519491139407,-0.692871,0.943115,0.150879
1519491139419,-0.842773,1.046143,0.199463
1519491139452,-0.843506,0.805420,0.093506
1519491139485,-0.722412,0.655029,0.089844
1519491139542,-0.475586,0.479980,0.283691
1519491139580,-0.472656,0.247070,0.517822
1519491139587,-0.493896,0.264160,0.515625
1519491139616,-0.542480,0.299561,0.457275
1519491139648,-0.554199,0.375732,0.424316
1519491139682,-0.703857,0.579346,0.421875
1519491139741,-0.804932,0.565918,0.421875
1519491139748,-0.824951,0.448975,0.430420
1519491139774,-0.814209,0.270996,0.457275
1519491139806,-0.822510,0.360352,0.428223
1519491139848,-0.793457,0.472168,0.449463
1519491139920,-0.849121,0.415039,0.429443
1519491139928,-0.822754,0.411133,0.420166
1519491139986,-0.831543,0.394531,0.416504
1519491139989,-0.850830,0.419434,0.430176
1519491140054,-0.849854,0.378906,0.474121
1519491140059,-0.851563,0.336914,0.471436
1519491140120,-0.864746,0.345703,0.391602
1519491140124,-1.015625,0.386719,0.354980
1519491140190,-0.960693,0.338867,0.469482
1519491140197,-0.851074,0.413574,0.460693
1519491140258,-0.808350,0.479980,0.380859
1519491140266,-0.860352,0.455811,0.357178
1519491140325,-0.858398,0.425293,0.377197
1519491140333,-0.868164,0.395264,0.363770
1519491140383,-0.864746,0.468262,0.390137
1519491140392,-0.824463,0.459473,0.366211
1519491140400,-0.829346,0.350342,0.281982
1519491140431,-0.913086,0.321289,0.189453
1519491140464,-1.033691,0.217773,0.148682
1519491140498,-1.103027,0.392090,0.357422
1519491140530,-1.061279,0.359131,0.312256
1519491140562,-0.920166,0.331299,0.279541
1519491140599,-0.800049,0.409424,0.328369
1519491140631,-0.745605,0.368408,0.327881
1519491140664,-0.618896,0.267334,0.297852
1519491140680,-0.469727,0.223145,0.252197
1519491140711,-0.396973,0.146973,0.182861
1519491140743,-0.366943,0.059082,0.097168
1519491140776,-0.299316,0.035645,0.041992
1519491140809,-0.214844,0.691895,0.094727
1519491140860,-0.183350,1.040771,0.055420
1519491140868,-0.174561,0.978516,-0.030029
1519491140918,-0.007813,1.529297,0.028320
1519491140950,-0.124268,1.317383,0.025391
1519491140983,0.075195,1.862549,-0.057129
1519491141015,0.110352,1.936768,0.105713
1519491141048,-0.005371,1.493164,0.384277
1519491141081,0.032471,1.050537,0.803711
1519491141095,0.083008,1.110352,0.870117
1519491141151,0.076172,1.079590,0.700684
1519491141185,0.105225,1.097168,0.481689
1519491141194,0.197998,1.216553,0.394775
1519491141218,0.294434,1.161377,0.454590
1519491141276,0.403076,0.933594,0.616943
1519491141284,0.464600,0.653076,0.687500
1519491141335,0.442871,0.509521,0.602051
1519491141367,0.331543,0.723145,0.574951
1519491141400,0.272705,0.831787,0.573486
1519491141432,0.260254,0.788330,0.471680
1519491141465,0.242188,0.689941,0.395996
1519491141496,0.181152,0.677734,0.469482
1519491141510,0.117188,0.626221,0.477783
1519491141547,0.045410,0.723877,0.401123
1519491141580,0.005615,0.872314,0.443115
1519491141612,0.027100,0.926270,0.504639
1519491141644,0.039307,0.965820,0.440918
1519491141676,0.018555,1.041504,0.406006
1519491141708,0.025391,1.026367,0.368652
1519491141768,0.030029,1.039063,0.269043
1519491141776,0.043213,1.032227,0.187500
1519491141801,0.035156,1.046875,0.167969
1519491141857,-0.007813,1.047607,0.121582
1519491141862,-0.030762,1.084473,0.099365
1519491141891,-0.040283,1.066895,0.159424
1519491141933,-0.047363,1.080078,0.015137
1519491141966,-0.038330,1.057617,0.009277
1519491141998,0.003418,1.028076,0.037354
1519491142030,-0.028564,0.996338,-0.139893
1519491142062,-0.049316,0.977539,-0.162354
1519491142096,-0.079834,0.979004,-0.132568
1519491142139,-0.119385,1.044922,-0.149902
1519491142171,-0.136230,1.051025,-0.190918
1519491142177,-0.124268,1.005127,-0.255127
1519491142235,-0.185547,1.078125,-0.198242
1519491142267,-0.238525,0.978760,-0.175293
1519491142273,-0.251221,0.928711,-0.220459
1519491142331,-0.258789,0.889160,-0.207275
1519491142364,-0.263428,0.908203,-0.173340
1519491142395,-0.287598,0.938477,-0.175293
1519491142428,-0.295410,0.958252,-0.224609
1519491142459,-0.283203,0.993652,-0.208984
1519491142493,-0.279541,0.968506,-0.284912
1519491142529,-0.253174,0.908691,-0.281250
1519491142561,-0.256348,0.824219,-0.249268
1519491142594,-0.272949,0.830566,-0.273926
1519491142626,-0.271240,0.952637,-0.271729
1519491142658,-0.285889,0.844482,-0.314453
1519491142692,-0.348389,0.875244,-0.298828
1519491142706,-0.385254,0.974854,-0.246338
1519491142763,-0.376465,0.945313,-0.218262
1519491142772,-0.353516,0.938965,-0.225098
1519491142822,-0.388672,0.908447,-0.268555
1519491142855,-0.395752,0.889648,-0.237305
1519491142864,-0.364014,0.915771,-0.216309
1519491142913,-0.358887,0.910400,-0.238281
1519491142944,-0.385010,0.848389,-0.228271
1519491142977,-0.413330,0.885254,-0.214600
1519491143011,-0.416260,0.916504,-0.200928
1519491143044,-0.420898,0.901855,-0.205322
1519491143075,-0.416504,0.880615,-0.189941
1519491143109,-0.420166,0.901367,-0.163574
1519491143123,-0.416260,0.915527,-0.176758
1519491143180,-0.423340,0.915283,-0.218018
1519491143188,-0.421143,0.900146,-0.210938
1519491143242,-0.411377,0.885254,-0.200195
1519491143275,-0.403320,0.891602,-0.214355
1519491143306,-0.396240,0.896973,-0.201172
1519491143339,-0.385742,0.886719,-0.176514
1519491143344,-0.379639,0.923340,-0.174805
1519491143418,-0.373047,0.940674,-0.176025
1519491143424,-0.365234,0.942871,-0.177246
1519491143453,-0.361328,0.945801,-0.182617
1519491143490,-0.362793,0.913330,-0.211670
1519491143522,-0.363281,0.880859,-0.220947
1519491143555,-0.345703,0.882080,-0.238037
1519491143587,-0.355957,0.956787,-0.237549
1519491143618,-0.374512,0.956787,-0.268066
1519491143651,-0.370605,0.901123,-0.272705
1519491143684,-0.368408,0.886963,-0.231201
1519491143718,-0.377930,0.907959,-0.239502
1519491143751,-0.385742,0.915527,-0.248535
1519491143782,-0.387939,0.900146,-0.285400
1519491143815,-0.379150,0.904053,-0.309082
1519491143848,-0.374512,0.909912,-0.310059
1519491143880,-0.385742,0.901611,-0.306885
1519491143913,-0.391357,0.904785,-0.301025
1519491143922,-0.395020,0.947021,-0.277100
1519491143977,-0.381592,0.966309,-0.243164
1519491144009,-0.364990,0.910889,-0.270264
1519491144016,-0.355957,0.872559,-0.276367
1519491144072,-0.344971,0.903076,-0.281738
1519491144105,-0.349609,0.890137,-0.266113
1519491144136,-0.349121,0.900635,-0.256836
1519491144169,-0.354736,0.873535,-0.257813
1519491144202,-0.361816,0.883301,-0.276367
1519491144215,-0.370850,0.848389,-0.306885
1519491144271,-0.337402,0.830078,-0.319824
1519491144306,-0.343506,0.865234,-0.359619
1519491144318,-0.326416,0.840332,-0.387451
1519491144352,-0.319580,0.897949,-0.396240
1519491144384,-0.331299,0.966309,-0.446045
1519491144417,-0.370117,0.925781,-0.472412
1519491144454,-0.369629,0.842041,-0.478027
1519491144486,-0.362305,0.837646,-0.421143
1519491144519,-0.357422,0.839355,-0.413574
1519491144552,-0.358154,0.840576,-0.443115
1519491144584,-0.370117,0.825928,-0.433105
1519491144615,-0.360107,0.818848,-0.429443
1519491144647,-0.371338,0.841309,-0.452637
1519491144699,-0.372070,0.846924,-0.454590
1519491144704,-0.371582,0.836426,-0.459961
1519491144733,-0.338867,0.823242,-0.459717
1519491144767,-0.314697,0.807129,-0.459961
1519491144799,-0.297607,0.808594,-0.445557
1519491144832,-0.300537,0.832520,-0.458252
1519491144903,-0.317139,0.852539,-0.437744
1519491144912,-0.322510,0.867676,-0.415283
1519491144972,-0.352051,0.882324,-0.401611
1519491144980,-0.405518,0.879883,-0.371582
1519491145037,-0.415771,0.909668,-0.341553
1519491145043,-0.402100,0.862061,-0.318848
1519491145106,-0.405029,0.860107,-0.369629
1519491145115,-0.403564,0.852295,-0.408203
1519491145173,-0.361816,0.825684,-0.427979
1519491145241,-0.355957,0.853760,-0.376465
1519491145308,-0.351807,0.823975,-0.372070
1519491145316,-0.376709,0.769531,-0.394775
1519491145374,-0.381592,0.767822,-0.379395
1519491145377,-0.394531,0.808594,-0.405762
1519491145386,-0.400635,0.853516,-0.387207
1519491145393,-0.409912,0.939453,-0.381592
1519491145397,-0.406494,0.880859,-0.397217
1519491145423,-0.397217,0.840820,-0.404297
1519491145456,-0.393311,0.812500,-0.437988
1519491145488,-0.391846,0.815186,-0.466064
1519491145522,-0.378662,0.805908,-0.491211
1519491145555,-0.360596,0.809326,-0.485840
1519491145587,-0.346680,0.830078,-0.479004
1519491145627,-0.345703,0.843262,-0.490234
1519491145659,-0.343506,0.833496,-0.472656
1519491145662,-0.345459,0.832764,-0.478516
1519491145719,-0.354736,0.815430,-0.503662
1519491145751,-0.343506,0.818115,-0.503662
1519491145784,-0.351563,0.818359,-0.504883
1519491145817,-0.362305,0.806396,-0.482422
1519491145850,-0.368164,0.778809,-0.493896
1519491145882,-0.381836,0.765869,-0.494141
1519491145915,-0.372314,0.764404,-0.516602
1519491145948,-0.362061,0.776123,-0.542480
1519491145978,-0.358154,0.781006,-0.564697
1519491145992,-0.348389,0.788574,-0.537109
1519491146025,-0.353760,0.774658,-0.520752
1519491146058,-0.348633,0.790527,-0.521729
1519491146116,-0.372803,0.794434,-0.542236
1519491146147,-0.381104,0.774658,-0.547363
1519491146153,-0.376465,0.751221,-0.531250
1519491146206,-0.368896,0.727539,-0.527588
1519491146240,-0.371826,0.756836,-0.536377
1519491146247,-0.368164,0.778564,-0.539063
1519491146298,-0.347656,0.772217,-0.540527
1519491146332,-0.355713,0.760498,-0.529053
1519491146362,-0.367920,0.779297,-0.535156
1519491146399,-0.391113,0.777344,-0.519531
1519491146406,-0.413574,0.771484,-0.519043
1519491146463,-0.417725,0.764160,-0.508301
1519491146495,-0.403320,0.770996,-0.510010
1519491146528,-0.395508,0.759521,-0.502686
1519491146562,-0.397217,0.757324,-0.514893
1519491146594,-0.395508,0.764160,-0.518555
1519491146625,-0.387451,0.783936,-0.520508
1519491146657,-0.385010,0.770752,-0.519775
1519491146689,-0.412354,0.766357,-0.503174
1519491146722,-0.417969,0.774170,-0.496582
1519491146724,-0.428467,0.765625,-0.493164
1519491146782,-0.428955,0.770752,-0.482666
1519491146824,-0.426025,0.761230,-0.490479
1519491146832,-0.421387,0.785400,-0.484619
1519491146856,-0.408203,0.815918,-0.493408
1519491146888,-0.413330,0.899658,-0.520264
1519491146946,-0.391357,0.860107,-0.444580
1519491146978,-0.429199,0.853271,-0.353516
1519491146987,-0.400879,0.783203,-0.221436
1519491147043,-0.401367,0.836182,-0.192383
1519491147075,-0.445313,0.840088,-0.379639
1519491147109,-0.437500,0.811523,-0.453613
1519491147140,-0.418945,0.804688,-0.441650
1519491147173,-0.425781,0.751221,-0.537354
1519491147206,-0.428711,0.771973,-0.516602
1519491147220,-0.434814,0.824219,-0.467285
1519491147259,-0.459961,0.777344,-0.512451
1519491147291,-0.456299,0.758301,-0.494629
1519491147324,-0.435303,0.773682,-0.477051
1519491147361,-0.415039,0.802490,-0.419434
1519491147369,-0.431885,0.787598,-0.436768
1519491147424,-0.446777,0.826172,-0.455566
1519491147457,-0.413574,0.802734,-0.393555
1519491147490,-0.389893,0.842285,-0.369385
1519491147522,-0.395508,0.821533,-0.402832
1519491147555,-0.416504,0.840820,-0.425537
1519491147588,-0.423828,0.809082,-0.412598
1519491147619,-0.437500,0.814453,-0.402588
1519491147635,-0.375488,0.881836,-0.394287
1519491147691,-0.371826,0.991455,-0.329590
1519491147723,-0.365967,0.963135,-0.250488
1519491147757,-0.358398,0.779297,-0.129639
1519491147766,-0.385254,0.788330,-0.135254
1519491147814,-0.460938,0.854492,-0.330566
1519491147849,-0.481689,0.957031,-0.363525
1519491147857,-0.429443,0.840332,-0.375488
1519491147910,-0.437012,0.793457,-0.397217
1519491147942,-0.406738,0.804443,-0.392578
1519491147975,-0.425049,0.845947,-0.402832
1519491147984,-0.450928,0.819336,-0.438477
1519491148037,-0.455811,0.839355,-0.431641
1519491148052,-0.426270,0.847168,-0.413086
1519491148084,-0.427979,0.819092,-0.405273
1519491148118,-0.438721,0.835449,-0.399414
1519491148176,-0.419678,0.867676,-0.368652
1519491148182,-0.426514,0.822510,-0.367432
1519491148240,-0.490723,0.798096,-0.363770
1519491148272,-0.495361,0.836182,-0.364990
1519491148281,-0.489258,0.826416,-0.361328
1519491148334,-0.452881,0.802002,-0.328613
1519491148341,-0.456299,0.825195,-0.342529
1519491148367,-0.466309,0.853516,-0.349365
1519491148426,-0.467529,0.777832,-0.307861
1519491148434,-0.445801,0.816650,-0.256836
1519491148490,-0.451416,0.861572,-0.272461
1519491148538,-0.465576,0.858154,-0.307617
1519491148541,-0.464355,0.869629,-0.295898
1519491148572,-0.443848,0.907959,-0.304688
1519491148606,-0.441650,0.763916,-0.361572
1519491148638,-0.470215,0.785400,-0.419434
1519491148669,-0.492676,0.790527,-0.399170
1519491148702,-0.474854,0.798340,-0.402832
1519491148736,-0.451172,0.850098,-0.426758
1519491148768,-0.456299,0.779785,-0.457275
1519491148801,-0.462402,0.788818,-0.436768
1519491148834,-0.460205,0.833008,-0.431396
1519491148847,-0.468994,0.822021,-0.427490
1519491148905,-0.451416,0.818604,-0.400635
1519491148937,-0.454834,0.808838,-0.398682
1519491148969,-0.460693,0.759521,-0.419678
1519491149002,-0.446777,0.797607,-0.411621
1519491149034,-0.455322,0.812500,-0.389648
1519491149066,-0.462646,0.840332,-0.395508
1519491149099,-0.454346,0.821777,-0.389648
1519491149132,-0.458008,0.830078,-0.350342
1519491149164,-0.471191,0.833252,-0.345459
1519491149197,-0.452393,0.846680,-0.332520
1519491149230,-0.459717,0.849854,-0.355225
1519491149262,-0.460205,0.802246,-0.339111
1519491149300,-0.459717,0.850342,-0.346436
1519491149331,-0.477783,0.843018,-0.370850
1519491149336,-0.494385,0.824707,-0.371094
1519491149391,-0.473877,0.829834,-0.383057
1519491149423,-0.481201,0.822021,-0.319580
1519491149428,-0.445313,0.903320,-0.216797
1519491149486,-0.452148,0.895264,-0.244629
1519491149519,-0.460205,0.811035,-0.251465
1519491149550,-0.446777,0.866943,-0.242432
1519491149583,-0.467285,0.887207,-0.267334
1519491149616,-0.466797,0.826660,-0.244385
1519491149648,-0.461426,0.852295,-0.202637
1519491149662,-0.481201,0.864990,-0.223877
1519491149718,-0.494873,0.889160,-0.258057
1519491149752,-0.478027,0.830566,-0.221680
1519491149761,-0.428467,0.896240,-0.157471
1519491149821,-0.386719,0.980713,-0.102051
1519491149829,-0.307617,0.931396,-0.052734
1519491149922,-0.366211,0.816895,-0.139893
1519491149931,-0.407471,1.107178,-0.247803
1519491149989,-0.466797,0.777588,-0.255371
1519491149998,-0.510254,0.918457,-0.239502
1519491150057,-0.481689,0.910645,-0.207031
1519491150126,-0.463623,0.898438,-0.246582
1519491150192,-0.441650,0.854492,-0.298096
1519491150197,-0.437744,0.883545,-0.306641
1519491150260,-0.427979,0.880127,-0.303467
1519491150270,-0.435791,0.827881,-0.334961
1519491150327,-0.425293,0.853271,-0.302734
1519491150336,-0.427246,0.870850,-0.302246
1519491150379,-0.435547,0.858887,-0.327637
1519491150382,-0.430176,0.853760,-0.315674
1519491150386,-0.438965,0.873291,-0.341553
1519491150389,-0.447998,0.825684,-0.378662
1519491150392,-0.444580,0.829834,-0.375000
1519491150418,-0.434570,0.847656,-0.343750
1519491150450,-0.414795,0.839355,-0.317871
1519491150484,-0.416260,0.861816,-0.339355
1519491150517,-0.424316,0.850830,-0.337402
1519491150548,-0.436279,0.841064,-0.365723
1519491150581,-0.432861,0.850586,-0.368652
1519491150613,-0.428223,0.847168,-0.354492
1519491150646,-0.424561,0.845703,-0.364746
1519491150677,-0.424805,0.840332,-0.353516
1519491150709,-0.417236,0.820801,-0.346680
1519491150742,-0.430420,0.853760,-0.378662
1519491150775,-0.431152,0.843018,-0.392578
1519491150808,-0.433838,0.842285,-0.391113
1519491150841,-0.434570,0.850586,-0.396240
1519491150874,-0.433105,0.825684,-0.364746
1519491150906,-0.430176,0.835693,-0.378906
1519491150938,-0.438477,0.828613,-0.390137
1519491150971,-0.438721,0.835205,-0.386719
1519491151003,-0.437744,0.829102,-0.383301
1519491151037,-0.430664,0.812256,-0.375977
1519491151067,-0.429688,0.834717,-0.394287
1519491151073,-0.430420,0.847656,-0.398682
1519491151129,-0.432373,0.828369,-0.394775
1519491151161,-0.434326,0.815430,-0.391113
1519491151193,-0.432129,0.831543,-0.392822
1519491151230,-0.430420,0.829102,-0.403564
1519491151262,-0.427979,0.831055,-0.393555
1519491151276,-0.425049,0.823242,-0.399902
1519491151308,-0.423340,0.826660,-0.393799
1519491151339,-0.429688,0.824707,-0.397705
1519491151371,-0.434814,0.812012,-0.409668
1519491151404,-0.429688,0.835205,-0.420410
1519491151437,-0.430176,0.833496,-0.404297
1519491151496,-0.432861,0.825684,-0.400635
1519491151529,-0.434814,0.820557,-0.398438
1519491151561,-0.427246,0.821777,-0.404053
1519491151569,-0.426270,0.813232,-0.409668
1519491151625,-0.429443,0.819824,-0.398682
1519491151656,-0.425537,0.828369,-0.397949
1519491151659,-0.424561,0.831055,-0.399658
1519491151728,-0.427490,0.822021,-0.393311
1519491151736,-0.429932,0.818359,-0.395996
1519491151763,-0.431152,0.831299,-0.398682
1519491151820,-0.430176,0.815186,-0.399414
1519491151828,-0.424316,0.805176,-0.395020
1519491151854,-0.415283,0.856201,-0.382080
1519491151911,-0.420898,0.842529,-0.416260
1519491151944,-0.430176,0.829590,-0.413330
1519491151962,-0.424561,0.827393,-0.397217
1519491151995,-0.423340,0.834229,-0.398926
1519491152027,-0.424072,0.822510,-0.395752
1519491152059,-0.422363,0.827637,-0.392822
1519491152100,-0.417236,0.826660,-0.397949
1519491152133,-0.419189,0.819336,-0.397461
1519491152142,-0.418701,0.818115,-0.396729
1519491152197,-0.423584,0.826904,-0.394775
1519491152229,-0.424561,0.843750,-0.401855
1519491152233,-0.426270,0.835205,-0.395264
1519491152292,-0.423584,0.820801,-0.397949
1519491152325,-0.433594,0.828369,-0.401123
1519491152380,-0.429199,0.830322,-0.396973
1519491152389,-0.429932,0.832275,-0.394287
1519491152414,-0.429199,0.830322,-0.402344
1519491152446,-0.422852,0.829102,-0.393799
1519491152486,-0.425293,0.836670,-0.393555
1519491152519,-0.432373,0.833984,-0.394043
1519491152552,-0.431885,0.810059,-0.382813
1519491152584,-0.441895,0.817627,-0.393311
1519491152616,-0.438721,0.836670,-0.392578
1519491152650,-0.434814,0.800781,-0.398682
1519491152681,-0.457764,0.871826,-0.369873
1519491152714,-0.426270,0.825928,-0.364258
1519491152720,-0.423584,0.806885,-0.372803
1519491152776,-0.427734,0.809814,-0.389404
1519491152809,-0.442871,0.845459,-0.402100
1519491152819,-0.437744,0.844727,-0.385498
1519491152871,-0.430908,0.830322,-0.375000
1519491152905,-0.430176,0.818848,-0.370117
1519491152938,-0.428223,0.823975,-0.384766
1519491152970,-0.428955,0.839355,-0.394043
1519491153002,-0.436768,0.837402,-0.391113
1519491153035,-0.429199,0.834473,-0.382813
1519491153067,-0.427002,0.830078,-0.372803
1519491153098,-0.431641,0.825195,-0.377197
1519491153132,-0.436035,0.831543,-0.383545
1519491153145,-0.437500,0.833008,-0.392822
1519491153200,-0.432861,0.829346,-0.386963
1519491153234,-0.434570,0.823242,-0.385010
1519491153266,-0.442627,0.835938,-0.385010
1519491153283,-0.440430,0.829590,-0.375732
1519491153307,-0.436279,0.829102,-0.380371
1519491153365,-0.439941,0.838623,-0.384033
1519491153397,-0.439209,0.823975,-0.379883
1519491153406,-0.439209,0.823486,-0.381836
1519491153456,-0.431641,0.834717,-0.382568
1519491153465,-0.423828,0.830078,-0.381592
1519491153520,-0.434570,0.822998,-0.376953
1519491153552,-0.443604,0.839600,-0.383057
1519491153585,-0.447754,0.836914,-0.379639
1519491153617,-0.441895,0.835938,-0.383789
1519491153660,-0.432617,0.830322,-0.372314
1519491153673,-0.431396,0.830566,-0.375488
1519491153705,-0.424316,0.818848,-0.386719
1519491153737,-0.439697,0.829590,-0.397461
1519491153771,-0.440430,0.833740,-0.388672
1519491153804,-0.439941,0.829834,-0.375244
1519491153837,-0.446777,0.832031,-0.380127
1519491153869,-0.441895,0.818604,-0.387207
1519491153902,-0.433594,0.817383,-0.386230
1519491153933,-0.437500,0.835693,-0.386719
1519491153966,-0.441895,0.835938,-0.381836
1519491153998,-0.436523,0.833984,-0.377930
1519491154030,-0.439697,0.823975,-0.378174
1519491154063,-0.439453,0.816650,-0.382813
1519491154078,-0.431152,0.832520,-0.388184
1519491154114,-0.428223,0.833740,-0.385010
1519491154146,-0.445313,0.828857,-0.383545
1519491154180,-0.437500,0.839844,-0.380859
1519491154212,-0.424561,0.821777,-0.380859
1519491154245,-0.436035,0.841797,-0.399170
1519491154301,-0.431641,0.837158,-0.394287
1519491154334,-0.433350,0.835693,-0.380615
1519491154340,-0.432861,0.819824,-0.370605
1519491154393,-0.444580,0.815186,-0.386230
1519491154425,-0.440918,0.815674,-0.392090
1519491154430,-0.439697,0.831299,-0.385986
1519491154461,-0.438477,0.832520,-0.389160
1519491154516,-0.440186,0.827393,-0.393066
1519491154549,-0.437012,0.818604,-0.390869
1519491154557,-0.441162,0.834717,-0.391846
1519491154614,-0.444580,0.835693,-0.388184
1519491154645,-0.440430,0.824707,-0.380127
1519491154677,-0.433105,0.813232,-0.371826
1519491154710,-0.429932,0.833008,-0.403076
1519491154744,-0.435059,0.835205,-0.401123
1519491154777,-0.426514,0.831055,-0.382813
1519491154810,-0.422119,0.829346,-0.373779
1519491154841,-0.429199,0.830322,-0.384033
1519491154849,-0.436035,0.829834,-0.393555
1519491154915,-0.416748,0.803223,-0.369873
1519491154923,-0.417480,0.843506,-0.362793
1519491154981,-0.445801,0.891113,-0.445557
1519491155051,-0.440918,0.820068,-0.392334
1519491155059,-0.433594,0.806396,-0.386719
1519491155116,-0.437012,0.802002,-0.407471
1519491155120,-0.433838,0.845459,-0.396484
1519491155184,-0.437012,0.840088,-0.388428
1519491155186,-0.442871,0.818848,-0.381104
1519491155252,-0.425537,0.816650,-0.376953
1519491155256,-0.431885,0.824951,-0.392578
1519491155320,-0.437744,0.838135,-0.398926
1519491155323,-0.426514,0.837158,-0.374512
1519491155387,-0.429932,0.798828,-0.390381
1519491155391,-0.415283,0.826172,-0.395752
1519491155405,-0.421631,0.864990,-0.385986
1519491155408,-0.440186,0.843018,-0.399170
1519491155438,-0.419189,0.814453,-0.370117
1519491155496,-0.433838,0.826904,-0.403564
1519491155499,-0.448730,0.832764,-0.429932
1519491155529,-0.447998,0.819824,-0.460449
1519491155586,-0.416992,0.818848,-0.363770
1519491155587,-0.419922,0.841797,-0.339844
1519491155620,-0.421875,0.854248,-0.362061
1519491155664,-0.441162,0.837402,-0.418213
1519491155696,-0.442383,0.818848,-0.401367
1519491155729,-0.438477,0.798096,-0.389160
1519491155761,-0.422363,0.830078,-0.360840
1519491155794,-0.423340,0.836670,-0.383545
1519491155826,-0.425049,0.824463,-0.398438
1519491155868,-0.430420,0.799316,-0.393799
1519491155900,-0.428223,0.834229,-0.384033
1519491155904,-0.430176,0.841309,-0.391602
1519491155961,-0.438477,0.838867,-0.408936
1519491155994,-0.445557,0.821777,-0.416748
1519491156000,-0.439941,0.818848,-0.414307
1519491156060,-0.432617,0.821045,-0.401123
1519491156093,-0.423340,0.830322,-0.390869
1519491156125,-0.429688,0.824219,-0.404785
1519491156158,-0.429688,0.825684,-0.399414
1519491156165,-0.427002,0.820313,-0.413086
1519491156218,-0.413086,0.816406,-0.415283
1519491156250,-0.422852,0.831787,-0.412842
1519491156283,-0.431396,0.826904,-0.424561
1519491156315,-0.421143,0.802490,-0.403076
1519491156348,-0.419922,0.821289,-0.405762
1519491156380,-0.427246,0.817139,-0.420410
1519491156413,-0.426758,0.839600,-0.423096
1519491156445,-0.423340,0.829346,-0.413574
1519491156486,-0.428955,0.809326,-0.419678
1519491156487,-0.422363,0.818848,-0.406738
1519491156545,-0.423096,0.816650,-0.414063
1519491156578,-0.421875,0.833008,-0.418701
1519491156581,-0.425537,0.821289,-0.414063
1519491156639,-0.429443,0.821533,-0.408936
1519491156671,-0.428467,0.822021,-0.413574
1519491156704,-0.423096,0.817383,-0.414063
1519491156736,-0.421387,0.814697,-0.404297
1519491156769,-0.420898,0.831787,-0.410645
1519491156801,-0.426514,0.829834,-0.421631
1519491156834,-0.423584,0.814209,-0.403076
1519491156866,-0.416260,0.827148,-0.402344
1519491156883,-0.417969,0.831055,-0.410400
1519491156939,-0.412842,0.812988,-0.391846
1519491156945,-0.415283,0.804199,-0.405273
1519491157003,-0.422363,0.820801,-0.411133
1519491157038,-0.434082,0.818359,-0.432129
1519491157070,-0.415527,0.793701,-0.384521
1519491157071,-0.420654,0.843018,-0.430176
1519491157129,-0.423828,0.829102,-0.403809
1519491157161,-0.416016,0.811768,-0.392090
1519491157162,-0.416748,0.826416,-0.418945
1519491157220,-0.428711,0.827148,-0.423340
1519491157253,-0.432129,0.830811,-0.420898
1519491157285,-0.421143,0.833496,-0.410889
1519491157299,-0.422119,0.831787,-0.399658
1519491157331,-0.428467,0.804199,-0.411621
1519491157364,-0.428223,0.800049,-0.426270
1519491157396,-0.417480,0.825928,-0.421387
1519491157429,-0.418457,0.847412,-0.413818
1519491157498,-0.416748,0.833984,-0.396973
1519491157499,-0.418457,0.822754,-0.406494
1519491157531,-0.419434,0.811279,-0.421875
1519491157564,-0.421143,0.824951,-0.409912
1519491157597,-0.429932,0.822510,-0.403320
1519491157629,-0.428711,0.844727,-0.409668
1519491157661,-0.426270,0.820313,-0.425293
1519491157700,-0.421875,0.815918,-0.412598
1519491157733,-0.418213,0.822754,-0.414063
1519491157765,-0.425293,0.822998,-0.406250
1519491157798,-0.422363,0.811768,-0.411377
1519491157830,-0.420166,0.818115,-0.418457
1519491157863,-0.421387,0.821045,-0.417480
1519491157895,-0.422363,0.824219,-0.408936
1519491157928,-0.420166,0.814453,-0.411865
1519491157960,-0.430908,0.817871,-0.421143
1519491157995,-0.424561,0.830078,-0.412354
1519491158028,-0.422607,0.826416,-0.405029
1519491158060,-0.422852,0.828613,-0.413330
1519491158093,-0.427002,0.825439,-0.421387
1519491158134,-0.423340,0.801025,-0.410156
1519491158140,-0.438477,0.818848,-0.413574
1519491158197,-0.432129,0.812256,-0.429932
1519491158230,-0.431396,0.801270,-0.414551
1519491158231,-0.433350,0.812500,-0.405518
1519491158289,-0.439209,0.827881,-0.420654
1519491158294,-0.433838,0.820313,-0.411133
1519491158326,-0.425781,0.797363,-0.411621
1519491158384,-0.425293,0.828857,-0.404785
1519491158392,-0.424072,0.825684,-0.404785
1519491158448,-0.425537,0.820068,-0.407715
1519491158480,-0.431396,0.812744,-0.424561
1519491158513,-0.435303,0.810547,-0.414063
1519491158526,-0.434570,0.819824,-0.395264
1519491158559,-0.433350,0.820313,-0.416016
1519491158592,-0.433594,0.826416,-0.425049
1519491158624,-0.427734,0.824219,-0.415283
1519491158681,-0.428223,0.818848,-0.400391
1519491158714,-0.424316,0.811279,-0.404541
1519491158715,-0.432861,0.808594,-0.416504
1519491158777,-0.439697,0.813477,-0.424072
1519491158810,-0.439941,0.825439,-0.425049
1519491158811,-0.439453,0.803955,-0.410400
1519491158869,-0.429199,0.817383,-0.410156
1519491158875,-0.432861,0.821777,-0.408447
1519491158933,-0.429688,0.838867,-0.384277
1519491158978,-0.427490,0.839111,-0.378662
1519491158979,-0.423584,0.822998,-0.393799
1519491159011,-0.422852,0.786865,-0.400391
1519491159044,-0.438232,0.820068,-0.416016
1519491159076,-0.445068,0.835938,-0.419189
1519491159109,-0.434570,0.823975,-0.419189
1519491159141,-0.415283,0.823486,-0.412109
1519491159174,-0.415039,0.812744,-0.409668
1519491159206,-0.422607,0.852295,-0.430420
1519491159239,-0.426025,0.841064,-0.412354
1519491159296,-0.416748,0.820557,-0.397705
1519491159298,-0.416016,0.808594,-0.400879
1519491159355,-0.424072,0.859863,-0.392822
1519491159369,-0.426758,0.842773,-0.404541
1519491159401,-0.421387,0.841309,-0.405029
1519491159459,-0.419922,0.832031,-0.385742
1519491159460,-0.422852,0.844238,-0.360352
1519491159493,-0.422607,0.843994,-0.328369
1519491159550,-0.420898,0.844727,-0.328369
1519491159551,-0.412842,0.839355,-0.345703
1519491159609,-0.415527,0.849121,-0.362549
1519491159641,-0.424072,0.839111,-0.358643
1519491159674,-0.421143,0.849365,-0.372314
1519491159706,-0.403564,0.883789,-0.347168
1519491159718,-0.410156,0.858643,-0.343994
1519491159774,-0.407715,0.868164,-0.346924
1519491159788,-0.390137,0.859375,-0.344482
1519491159820,-0.348389,0.864746,-0.271240
1519491159920,-0.337646,0.915039,-0.308105
1519491159921,-0.380127,0.899658,-0.352783
1519491159988,-0.413330,0.843018,-0.373779
1519491159989,-0.383301,0.765137,-0.321045
1519491160055,-0.437500,0.935303,-0.360352
1519491160056,-0.434326,0.855469,-0.395996
1519491160123,-0.413574,0.807129,-0.385742
1519491160124,-0.393066,0.810791,-0.367920
1519491160190,-0.391113,0.859863,-0.353760
1519491160191,-0.398926,0.814697,-0.395264
1519491160258,-0.403320,0.824463,-0.411377
1519491160259,-0.390137,0.838623,-0.429688
1519491160325,-0.415527,0.812500,-0.481445
1519491160326,-0.417969,0.828125,-0.467285
1519491160393,-0.418945,0.782227,-0.475586
1519491160394,-0.412109,0.776611,-0.489014
1519491160414,-0.412109,0.774658,-0.488525
1519491160415,-0.396240,0.811279,-0.478271
1519491160448,-0.410156,0.812256,-0.490234
1519491160451,-0.419189,0.785156,-0.495361
1519491160509,-0.411865,0.768799,-0.490723
1519491160514,-0.421875,0.773438,-0.502441
1519491160572,-0.426514,0.756592,-0.504150
1519491160604,-0.423828,0.779541,-0.489258
1519491160618,-0.418457,0.784424,-0.479492
1519491160650,-0.424072,0.789307,-0.495605
1519491160708,-0.428223,0.786133,-0.488037
1519491160714,-0.420410,0.778320,-0.491943
1519491160771,-0.421875,0.769043,-0.488037
1519491160804,-0.428223,0.787842,-0.471191
1519491160836,-0.419678,0.801270,-0.476563
1519491160869,-0.425537,0.796631,-0.474854
1519491160904,-0.419922,0.823242,-0.433838
1519491160905,-0.423584,0.777344,-0.417969
1519491160963,-0.423584,0.838135,-0.430420
1519491160995,-0.420166,0.828857,-0.432129
1519491160996,-0.426270,0.808350,-0.403564
1519491161054,-0.425537,0.836670,-0.376221
1519491161086,-0.418701,0.825439,-0.385986
1519491161119,-0.429688,0.834473,-0.414063
1519491161151,-0.426758,0.849609,-0.396729
1519491161184,-0.415283,0.829346,-0.361572
1519491161216,-0.423340,0.860352,-0.345703
1519491161249,-0.418701,0.856445,-0.335693
1519491161281,-0.428955,0.851563,-0.359619
1519491161314,-0.417480,0.865723,-0.343750
1519491161338,-0.416992,0.864502,-0.320313
1519491161370,-0.432373,0.816406,-0.347168
1519491161403,-0.460449,0.909912,-0.374023
1519491161435,-0.490479,0.913574,-0.386963
1519491161476,-0.383789,0.720215,-0.137207
1519491161481,-0.403564,0.853760,-0.280518
1519491161514,-0.439209,0.883545,-0.411377
1519491161572,-0.443848,0.981445,-0.362549
1519491161579,-0.418701,0.899170,-0.355713
1519491161635,-0.321045,0.835205,-0.139160
1519491161667,-0.334717,0.870361,-0.227783
1519491161700,-0.440186,1.022461,-0.402100
1519491161733,-0.467773,0.931641,-0.436279
1519491161765,-0.436035,0.781982,-0.390381
1519491161798,-0.416992,0.743896,-0.369873
1519491161830,-0.422852,0.785156,-0.386719
1519491161846,-0.409424,0.870605,-0.354980
1519491161904,-0.418213,0.913086,-0.379150
1519491161905,-0.436035,0.833008,-0.460938
1519491161963,-0.413574,0.807861,-0.333008
1519491161995,-0.422363,0.850098,-0.347412
1519491161996,-0.423340,0.867432,-0.329590
1519491162054,-0.422607,0.874268,-0.329346
1519491162086,-0.433838,0.843994,-0.363525
1519491162119,-0.440186,0.841797,-0.379883
1519491162152,-0.464844,0.802246,-0.376465
1519491162159,-0.442383,0.788086,-0.394043
1519491162215,-0.431396,0.864258,-0.333984
1519491162248,-0.361816,0.926758,-0.230957
1519491162261,-0.323975,0.911377,-0.159912
1519491162319,-0.348389,0.986084,-0.280518
1519491162324,-0.410400,0.898438,-0.344971
1519491162381,-0.426758,0.861328,-0.335938
1519491162414,-0.426270,0.818848,-0.330078
