1519427650888,-0.024414,-0.178223,0.989990
1519427650892,-0.056152,-0.185059,0.978516
1519427650898,-0.059326,-0.148438,0.971436
1519427650902,-0.045410,-0.200928,0.950195
1519427650909,-0.014404,-0.216553,0.992676
1519427650978,-0.026367,-0.173828,1.073242
1519427650981,-0.014648,-0.202637,1.021729
1519427650983,-0.023926,-0.092773,1.069580
1519427651055,-0.041260,-0.238037,0.973389
1519427651058,-0.050293,-0.156738,0.879395
1519427651077,-0.030273,-0.233887,0.874023
1519427651156,-0.067383,-0.192139,0.960693
1519427651160,-0.065186,-0.248291,1.016357
1519427651240,-0.072266,-0.208008,0.993408
1519427651243,-0.054199,-0.218750,0.928711
1519427651246,-0.049561,-0.219482,0.993408
1519427651315,-0.051758,-0.200684,0.989990
1519427651317,-0.036865,-0.221191,0.978516
1519427651403,-0.062988,-0.260010,0.986572
1519427651407,-0.055664,-0.277832,0.964355
1519427651414,-0.051514,-0.235352,0.984375
1519427651454,-0.040283,-0.227295,0.985107
1519427651476,-0.041504,-0.187744,0.994873
1519427651502,-0.040039,-0.188965,0.988770
1519427651550,-0.025146,-0.241699,0.969238
1519427651615,-0.026855,-0.234131,0.963867
1519427651620,-0.034180,-0.216309,0.948730
1519427651644,-0.038086,-0.226318,0.962646
1519427651670,-0.048340,-0.217041,0.973389
1519427651700,-0.044189,-0.241699,0.989258
1519427651726,-0.045166,-0.225586,0.989502
1519427651774,-0.039063,-0.226563,0.966553
1519427651800,-0.032715,-0.233154,0.964844
1519427651824,-0.022461,-0.219238,0.974121
1519427651877,-0.016357,-0.227295,0.989502
1519427651899,-0.033203,-0.246094,0.970703
1519427651926,-0.046143,-0.220703,0.961426
1519427651956,-0.063232,-0.230957,0.967529
1519427652004,-0.074463,-0.257568,0.964111
1519427652029,-0.062256,-0.210693,0.952393
1519427652085,-0.042969,-0.245605,0.965820
1519427652097,-0.032471,-0.225586,1.016846
1519427652146,-0.019775,-0.229492,0.941406
1519427652167,-0.006104,-0.213623,0.961670
1519427652253,-0.040283,-0.210205,0.950928
1519427652256,-0.039307,-0.192871,1.084473
1519427652260,-0.063721,-0.330078,0.927246
1519427652333,0.027100,-0.163574,0.991943
1519427652338,-0.054688,-0.304443,1.017334
1519427652416,-0.084473,-0.350586,0.918701
1519427652419,-0.059814,-0.316650,0.809082
1519427652423,-0.088379,-0.012451,1.132080
1519427652441,-0.116943,-0.198486,0.872803
1519427652479,-0.064697,-0.262207,0.895752
1519427652526,-0.034180,-0.333252,0.972168
1519427652540,-0.031738,-0.239746,1.034424
1519427652581,0.032715,-0.059570,0.910645
1519427652621,0.002197,-0.198975,1.060547
1519427652645,-0.014648,-0.200439,0.922119
1519427652675,-0.066406,-0.178711,0.899414
1519427652750,-0.048096,-0.212402,1.088135
1519427652756,-0.132813,-0.070068,1.050537
1519427652780,-0.119385,-0.194092,0.926270
1519427652803,-0.096680,-0.214111,0.930664
1519427652858,-0.121094,-0.208984,0.936523
1519427652881,-0.135498,-0.305908,0.953369
1519427652912,-0.140625,-0.213867,0.971436
1519427652941,-0.116455,-0.245361,0.957275
1519427652972,-0.077637,-0.239014,1.075684
1519427653020,-0.022949,-0.158447,0.983887
1519427653047,0.171875,-0.170166,0.966064
1519427653054,0.330566,-0.212891,1.248291
1519427653110,0.078125,-0.305664,0.868652
1519427653161,0.060303,-0.076904,0.861084
1519427653168,-0.005127,-0.049561,0.988525
1519427653207,-0.084961,-0.158203,1.144531
1519427653235,-0.171387,-0.096924,0.926758
1519427653329,-0.236328,-0.073242,1.002441
1519427653515,-0.252686,-0.108887,1.001465
1519427653568,-0.183350,0.093506,1.002441
1519427653593,-0.190674,-0.079346,0.777832
1519427653619,-0.015381,-0.356445,1.021729
1519427653646,-0.027588,-0.241699,1.036377
1519427653712,0.080078,-0.319336,1.004150
1519427653738,-0.005371,-0.198975,1.000244
1519427653772,-0.063477,-0.142090,0.957031
1519427653804,-0.026367,-0.170166,0.993164
1519427653809,-0.019531,-0.178955,0.962158
1519427653812,-0.020264,-0.151611,0.987793
1519427653815,-0.023682,-0.213379,0.993164
1519427653818,-0.070557,-0.180176,0.976807
1519427653821,-0.078125,-0.157471,0.979248
1519427653825,-0.101318,-0.224854,1.001709
1519427653828,-0.104736,-0.205078,0.980713
1519427653831,-0.066162,-0.187256,0.959717
1519427653835,-0.057373,-0.213135,0.997314
1519427653897,-0.065674,-0.128662,1.052246
1519427653919,-0.087646,-0.158447,0.937256
1519427653948,0.072754,-0.238281,0.929199
1519427653983,0.010498,-0.133301,1.155273
1519427654013,0.008545,-0.242920,0.991699
1519427654033,-0.011719,-0.165283,1.010986
1519427654075,-0.065674,-0.162109,0.892334
1519427654103,-0.061768,-0.168701,0.865723
1519427654150,-0.075928,-0.127686,0.887695
1519427654182,-0.070801,-0.221191,1.012939
1519427654202,-0.100098,-0.144531,0.998047
1519427654287,-0.072998,-0.191406,0.941895
1519427654290,-0.037109,-0.288818,1.027588
1519427654311,-0.080811,-0.229980,1.024902
1519427654387,-0.091309,-0.230957,0.957520
1519427654392,-0.070557,-0.259521,0.979736
1519427654410,-0.072266,-0.199707,0.979492
1519427654439,-0.057617,-0.211182,0.979492
1519427654471,-0.038330,-0.232666,0.958984
1519427654514,-0.053711,-0.233643,0.984619
1519427654519,-0.055176,-0.228271,0.939941
1519427654586,-0.063232,-0.216309,0.968262
1519427654608,-0.061035,-0.223633,0.989258
1519427654621,-0.074463,-0.250244,0.956787
1519427654681,-0.065674,-0.202148,0.990967
1519427654686,-0.062256,-0.240967,0.979492
1519427654732,-0.047119,-0.257324,0.970703
1519427654782,-0.038818,-0.253174,0.993164
1519427654799,-0.038330,-0.271729,0.956299
1519427654829,-0.065430,-0.219238,0.989502
1519427654868,-0.064209,-0.270264,0.949219
1519427654899,-0.059082,-0.218994,0.964355
1519427654921,-0.053223,-0.255615,0.937012
1519427654999,-0.037598,-0.259766,0.992188
1519427655002,-0.065674,-0.248779,0.996582
1519427655020,-0.058105,-0.237793,0.946289
1519427655045,-0.043701,-0.222168,0.954590
1519427655095,-0.048096,-0.231201,0.952148
1519427655124,-0.042480,-0.219727,0.963135
1519427655151,-0.050049,-0.234131,1.006592
1519427655191,-0.068359,-0.252930,0.999268
1519427655215,-0.061035,-0.232178,0.969727
1519427655266,-0.020996,-0.197754,0.954834
1519427655287,0.000732,-0.217041,0.958008
1519427655318,0.002930,-0.207520,0.976074
1519427655342,0.012939,-0.131104,1.012695
1519427655422,-0.014160,-0.240234,0.939209
1519427655425,-0.026367,-0.199463,0.976807
1519427655443,-0.047119,-0.225830,1.011475
1519427655506,-0.044922,-0.383789,0.937500
1519427655512,-0.091064,-0.331055,0.981934
1519427655589,-0.113525,-0.278809,0.935547
1519427655592,-0.076416,-0.353516,0.906006
1519427655618,-0.027832,-0.259766,0.983887
1519427655661,-0.022461,-0.312744,0.946533
1519427655665,-0.008789,-0.200439,0.943604
1519427655709,0.027344,-0.210938,0.925049
1519427655754,-0.058350,-0.240723,1.016357
1519427655761,-0.047119,-0.255127,1.054199
1519427655803,-0.053467,-0.342773,0.926270
1519427655834,0.098389,-0.221191,1.114258
1519427655861,-0.066162,-0.297852,0.965820
1519427655906,-0.084473,-0.317871,0.884277
1519427655936,-0.076904,-0.171143,0.907715
1519427655966,-0.072266,-0.209229,0.914307
1519427656014,-0.042725,-0.288818,0.965088
1519427656037,-0.046631,-0.178467,0.995605
1519427656066,-0.040527,-0.227295,0.964844
1519427656096,-0.030273,-0.305420,0.968506
1519427656131,-0.019287,-0.185303,1.004639
1519427656171,-0.051025,-0.246094,0.969238
1519427656255,-0.053467,-0.251953,0.938232
1519427656262,-0.042480,-0.235840,0.994873
1519427656334,-0.034912,-0.295654,0.973389
1519427656338,-0.028564,-0.264160,0.721680
1519427656341,-0.023926,-0.319092,1.098145
1519427656417,-0.108154,-0.275635,0.925537
1519427656420,-0.057373,-0.289307,0.915039
1519427656426,-0.046387,-0.229248,0.894287
1519427656449,-0.026611,-0.229492,1.022949
1519427656479,-0.044922,-0.201172,1.028076
1519427656520,-0.080322,-0.289551,0.937012
1519427656542,-0.056396,-0.248291,0.987305
1519427656569,-0.083008,-0.230225,1.022949
1519427656624,-0.083740,-0.264893,0.911133
1519427656648,-0.004395,-0.212158,0.989258
1519427656676,-0.053223,-0.172852,0.996826
1519427656727,-0.097412,-0.142578,0.950684
1519427656750,-0.093750,-0.169922,0.945557
1519427656774,-0.080078,-0.202393,1.052490
1519427656815,-0.055420,-0.287354,1.049561
1519427656872,-0.124268,-0.293457,0.977783
1519427656878,-0.087158,-0.125977,0.937256
1519427656957,-0.120117,-0.171631,0.826660
1519427656960,-0.174561,0.015869,0.875488
1519427657047,-0.142578,-0.116211,0.968994
1519427657054,0.011230,-0.243164,1.062500
1519427657058,0.204346,-0.218994,1.252441
1519427657061,-0.011719,-0.145996,1.047607
1519427657123,-0.067139,-0.075439,0.847656
1519427657152,-0.056641,-0.327393,0.908447
1519427657156,-0.073975,-0.352051,0.919189
1519427657204,-0.073730,-0.018799,1.135498
1519427657219,-0.136719,-0.252441,0.918213
1519427657258,-0.095703,-0.186279,0.889893
1519427657292,-0.111084,-0.190674,0.944580
1519427657323,-0.072998,-0.236328,0.928955
1519427657366,-0.087402,-0.235107,0.993408
1519427657395,-0.046387,-0.233643,0.971191
1519427657424,0.013428,-0.310547,0.974365
1519427657470,-0.004883,-0.263184,1.009766
1519427657490,-0.056152,-0.242920,1.015869
1519427657538,-0.054688,-0.209717,0.958008
1519427657566,-0.044189,-0.214111,0.956055
1519427657588,-0.029053,-0.238770,0.970215
1519427657635,-0.049805,-0.237305,0.977539
1519427657658,-0.047363,-0.251465,0.952881
1519427657702,-0.051025,-0.241943,0.941406
1519427657724,-0.033203,-0.270264,0.977539
1519427657749,-0.050781,-0.236084,0.971191
1519427657795,-0.076660,-0.224609,0.963379
1519427657819,-0.037842,-0.239258,0.979248
1519427657843,-0.047852,-0.240967,0.971436
1519427657885,-0.055908,-0.238525,0.969482
1519427657903,-0.052734,-0.262695,0.960693
1519427657949,-0.058105,-0.259521,0.964600
1519427657992,-0.062988,-0.256836,0.963867
1519427658036,-0.073486,-0.275635,0.965576
1519427658062,-0.069824,-0.291992,0.937012
1519427658089,-0.067139,-0.260498,0.954346
1519427658117,-0.074707,-0.270996,0.917480
1519427658142,-0.066895,-0.268311,0.946289
1519427658196,-0.072266,-0.177002,0.967285
1519427658220,-0.045654,-0.266357,0.939453
1519427658247,-0.000488,-0.213135,0.968750
1519427658275,-0.024414,-0.255371,1.106445
1519427658300,-0.084961,-0.243408,0.947266
1519427658356,-0.057373,-0.252686,0.946289
1519427658382,-0.014893,-0.218506,0.967285
1519427658422,-0.046875,-0.270264,0.939209
1519427658513,-0.036377,-0.233154,1.050293
1519427658571,-0.076660,-0.233154,0.817627
1519427658574,0.086670,-0.195557,0.840332
1519427658577,0.034912,-0.068848,1.049072
1519427658580,0.076416,-0.367432,0.949219
1519427658668,-0.106689,-0.326660,0.931641
1519427658671,-0.056152,-0.363770,0.872070
1519427658674,-0.114746,0.023438,1.218750
1519427658689,-0.107910,-0.352539,0.992920
1519427658741,-0.066895,-0.269287,0.870361
1519427658791,-0.064209,-0.231689,0.917480
1519427658817,-0.049561,-0.198975,0.915283
1519427658822,-0.053223,-0.270996,0.946045
1519427658902,-0.055420,-0.180176,1.006104
1519427658906,-0.010010,-0.213135,0.958740
1519427658925,-0.020508,-0.328613,0.976807
1519427658980,-0.044189,-0.290039,0.987549
1519427658985,-0.045654,-0.228516,0.987549
1519427659022,-0.045898,-0.243164,0.965820
1519427659050,-0.038086,-0.234863,0.954102
1519427659081,-0.036377,-0.227295,0.951172
1519427659134,-0.037598,-0.249756,0.980225
1519427659158,-0.066895,-0.271729,0.954102
1519427659240,-0.055908,-0.245605,0.955566
1519427659244,-0.051025,-0.262695,0.986084
1519427659247,-0.048584,-0.248779,0.959961
1519427659329,-0.051514,-0.244385,0.931396
1519427659333,-0.008545,-0.248291,0.954102
1519427659404,-0.014160,-0.204346,0.987305
1519427659407,-0.037842,-0.195557,1.000488
1519427659486,-0.045166,-0.221680,1.015625
1519427659489,-0.058105,-0.232422,0.961670
1519427659499,-0.059814,-0.209717,0.932129
1519427659502,-0.067383,-0.270996,0.931885
1519427659566,-0.083008,-0.240723,0.979248
1519427659588,-0.086670,-0.248535,0.967529
1519427659666,-0.093506,-0.247314,0.997314
1519427659670,-0.018311,-0.320313,0.851807
1519427659674,0.064209,-0.307129,1.117676
1519427659751,-0.012939,-0.307129,0.976318
1519427659829,0.028809,-0.057373,0.744629
1519427659836,-0.002441,-0.144531,1.008545
1519427659843,-0.136475,-0.273682,1.078369
1519427659850,-0.069824,-0.200928,0.971191
1519427659910,-0.080566,-0.294922,1.116455
1519427659914,-0.101563,0.025146,1.031494
1519427659922,-0.121582,-0.145752,0.867188
1519427659977,-0.095459,-0.044922,0.893555
1519427660001,-0.073975,-0.341309,0.939453
1519427660029,-0.099365,-0.188965,0.936523
1519427660077,-0.079102,-0.193848,1.048096
1519427660104,0.095947,-0.172119,1.024170
1519427660126,0.161865,0.000488,1.148926
1519427660174,0.072510,-0.314453,0.996094
1519427660206,0.027832,-0.287354,0.746582
1519427660234,-0.035645,-0.149658,0.906494
1519427660278,-0.067139,-0.238037,0.896729
1519427660283,-0.121826,-0.281494,0.946289
1519427660331,-0.140381,-0.275635,0.947021
1519427660379,-0.111816,-0.243896,1.114014
1519427660384,-0.083252,-0.265137,1.240967
1519427660430,-0.128662,-0.192383,0.929688
1519427660452,-0.120605,0.077148,0.882324
1519427660479,-0.037598,-0.347656,0.891113
1519427660524,-0.051025,-0.197754,0.973877
1519427660546,0.053955,-0.122070,0.989502
1519427660592,-0.038574,-0.175293,1.069824
1519427660619,-0.053955,-0.139648,1.010254
1519427660646,-0.032471,-0.157227,0.979004
1519427660674,-0.011963,-0.228760,0.955811
1519427660726,0.001709,-0.209961,0.977539
1519427660738,-0.013916,-0.202393,0.963623
1519427660772,-0.044678,-0.261230,0.937500
1519427660830,-0.067871,-0.259277,0.963623
1519427660855,-0.075928,-0.233643,0.983643
1519427660885,-0.071045,-0.205566,1.004639
1519427660908,-0.080566,-0.148926,1.068604
1519427660938,-0.139404,-0.179199,0.942383
1519427660990,-0.110840,-0.087646,0.919678
1519427661024,-0.027100,-0.263184,0.979736
1519427661055,-0.041260,-0.267822,1.013916
1519427661058,-0.037842,-0.219971,0.907471
1519427661156,0.000488,-0.319336,0.920654
1519427661160,-0.009766,-0.261719,0.974365
1519427661170,-0.033691,-0.229980,1.001953
1519427661234,-0.036621,-0.237061,0.953613
1519427661238,-0.060059,-0.168945,0.978760
1519427661319,-0.057617,-0.205566,1.010010
1519427661324,-0.049805,-0.202393,0.971436
1519427661328,-0.046387,-0.199951,0.983398
1519427661352,-0.046875,-0.222168,0.978271
1519427661399,-0.045898,-0.218994,0.988281
1519427661422,-0.036865,-0.209717,0.998779
1519427661478,-0.048828,-0.208740,0.968506
1519427661501,-0.056641,-0.204102,0.968994
1519427661525,-0.050293,-0.197998,0.987549
1519427661572,-0.060547,-0.191650,0.967529
1519427661587,-0.051758,-0.200195,0.993652
1519427661662,-0.047119,-0.199219,0.993896
1519427661668,-0.050781,-0.213135,0.964844
1519427661708,-0.071533,-0.203613,0.978516
1519427661746,-0.086426,-0.229492,0.991943
1519427661774,-0.086426,-0.239746,0.952148
1519427661804,-0.080566,-0.212158,0.969238
1519427661831,-0.032715,-0.200684,0.966797
1519427661835,-0.035156,-0.325684,0.947510
1519427661909,-0.045898,-0.304688,0.919434
1519427661987,-0.078613,-0.236572,0.931885
1519427661990,-0.060303,-0.282715,0.914063
1519427662000,-0.078369,-0.145508,0.982422
1519427662002,-0.067627,-0.199219,0.993652
1519427662085,-0.075439,-0.204346,1.026855
1519427662089,-0.043701,-0.185791,1.020996
1519427662170,-0.062744,-0.242432,0.942871
1519427662175,-0.049072,-0.247803,0.928711
1519427662261,-0.064209,-0.223877,1.063965
1519427662265,-0.039795,-0.244873,1.036133
1519427662269,-0.023926,-0.084961,0.928223
1519427662290,-0.058594,-0.480469,0.939453
1519427662324,-0.127686,-0.296875,0.939697
1519427662337,-0.137451,-0.242188,0.731934
1519427662376,-0.096680,-0.034424,1.245850
1519427662404,-0.081543,-0.353271,1.056396
1519427662475,-0.017090,-0.299561,0.952881
1519427662479,0.094482,-0.297607,0.931396
1519427662503,0.040771,-0.176270,0.978271
1519427662548,-0.060791,-0.143066,0.913818
1519427662578,-0.134766,-0.082520,0.814453
1519427662604,-0.160645,-0.328369,0.933105
1519427662632,-0.141357,-0.263184,1.135010
1519427662675,-0.138672,-0.223633,0.965332
1519427662700,-0.047363,-0.213135,0.921631
1519427662742,0.011475,-0.170166,0.976807
1519427662774,0.125488,-0.187500,1.102783
1519427662859,0.114502,-0.152832,1.210449
1519427662862,0.077148,0.079102,0.808838
1519427662959,0.088135,-0.081787,0.859131
1519427662963,-0.043701,-0.263672,0.718506
1519427662966,-0.150635,-0.433838,0.888672
1519427662970,-0.208008,-0.107666,0.913574
1519427663025,-0.248779,-0.044189,1.296143
1519427663030,-0.235107,-0.395264,1.066650
1519427663047,-0.151367,-0.291748,0.961426
1519427663099,-0.146973,-0.226807,0.959961
1519427663146,-0.147705,-0.296387,0.843506
1519427663172,-0.077148,-0.186035,0.985352
1519427663198,0.041260,-0.247559,0.986328
1519427663223,0.177002,-0.180664,1.029053
1519427663448,0.271729,0.043213,1.343262
1519427663474,0.036133,-0.155273,0.811035
1519427663500,-0.003418,-0.073975,0.827637
1519427663526,-0.038086,-0.223633,1.041504
1519427663553,-0.094727,-0.146484,1.077881
1519427663587,-0.065674,-0.235352,1.056885
1519427663622,-0.055908,-0.137695,1.007568
1519427663634,-0.134033,-0.093018,0.940674
1519427663638,-0.190186,0.045166,0.863037
1519427663640,-0.082031,-0.292480,0.806152
1519427663642,-0.052002,-0.336670,1.156494
1519427663652,-0.052002,-0.217041,1.032715
1519427663656,-0.046387,-0.216309,1.078369
1519427663662,-0.080322,-0.309814,0.855957
1519427663709,-0.074463,-0.262207,0.988037
1519427663759,-0.054688,-0.037354,0.956787
1519427663763,-0.011475,-0.286133,0.981445
1519427663806,-0.042969,-0.225098,1.009277
1519427663832,0.010742,-0.251709,0.945313
1519427663883,-0.034912,-0.322021,0.989746
1519427663905,-0.058105,-0.215820,1.006836
1519427663928,-0.078125,-0.140625,0.935303
1519427663976,-0.023682,-0.252930,0.963135
1519427663997,-0.044434,-0.166504,1.003906
1519427664044,-0.058594,-0.252441,0.956787
1519427664063,-0.039307,-0.193359,0.942871
1519427664104,-0.048096,-0.238770,1.019775
1519427664127,-0.060547,-0.233887,0.981445
1519427664170,-0.049316,-0.186768,0.977295
1519427664195,-0.047363,-0.226807,0.975098
1519427664245,-0.044189,-0.211182,0.950195
1519427664266,-0.053955,-0.238525,0.927979
1519427664288,-0.028320,-0.223389,0.959961
1519427664340,-0.046875,-0.220215,1.009277
1519427664366,-0.074951,-0.226807,0.948730
1519427664395,-0.048340,-0.231689,0.955811
1519427664425,-0.052002,-0.227051,1.076172
1519427664453,-0.102295,-0.335693,1.030273
1519427664476,-0.145020,-0.040771,0.955566
1519427664531,-0.141846,-0.271240,0.827637
1519427664539,-0.131836,-0.264648,0.833008
1519427664578,0.068848,-0.148193,0.865234
1519427664631,0.105225,-0.024902,1.300049
1519427664657,0.047119,-0.305176,0.908691
1519427664681,0.027588,-0.220703,0.915527
1519427664707,-0.004150,-0.228271,0.928467
1519427664742,-0.027588,-0.119629,0.999023
1519427664794,-0.050537,-0.167480,0.916260
1519427664823,-0.031494,-0.134766,1.045654
1519427664845,-0.109619,-0.288330,0.987305
1519427664897,-0.134033,-0.101074,1.188721
1519427664923,-0.146973,-0.216797,0.972656
1519427664945,-0.046631,-0.240479,0.945801
1519427664975,-0.088379,-0.143066,0.954834
1519427665017,-0.062256,-0.111328,0.951416
1519427665045,0.102539,-0.194092,1.062500
1519427665068,0.051270,-0.136475,1.062988
1519427665118,0.018555,-0.251709,0.810547
1519427665144,0.007568,-0.644287,0.722656
1519427665172,-0.046631,0.029297,1.166992
1519427665218,-0.103027,-0.462158,0.963379
1519427665224,-0.074219,-0.314209,0.934326
1519427665258,-0.090332,-0.221436,0.967041
1519427665318,-0.047119,-0.274902,0.938721
1519427665320,-0.080078,-0.005127,0.934082
1519427665370,-0.045410,-0.288086,0.881348
1519427665392,-0.023682,-0.212646,0.988525
1519427665437,-0.038574,-0.260010,0.989990
1519427665466,-0.052490,-0.251465,1.027832
1519427665549,-0.061523,-0.252197,1.017578
1519427665552,-0.095703,-0.264160,0.937988
1519427665555,-0.056641,-0.197754,0.970215
1519427665590,0.003418,-0.229248,0.963135
1519427665637,0.093750,-0.352783,1.078613
1519427665663,-0.039551,-0.232910,1.033203
1519427665691,-0.033691,-0.213623,0.879639
1519427665718,-0.069336,-0.313965,0.849854
1519427665769,-0.064453,-0.165283,0.932373
1519427665799,-0.075195,-0.223633,0.988525
1519427665824,-0.062256,-0.268066,0.975342
1519427665851,-0.085449,-0.241455,0.974121
1519427665903,-0.077637,-0.267090,0.950928
1519427665941,-0.075195,-0.278809,1.019043
1519427665946,-0.069824,-0.247070,0.977783
1519427665988,-0.069824,-0.186035,0.905762
1519427666014,-0.029785,-0.327393,0.950684
1519427666042,-0.070557,-0.222900,0.971924
1519427666071,-0.065186,-0.230469,0.925049
1519427666119,-0.029053,-0.374023,1.009766
1519427666145,-0.083496,-0.274902,0.949707
1519427666195,0.035889,-0.015869,1.207031
1519427666214,-0.073242,-0.385986,1.007813
1519427666264,-0.086670,-0.206299,0.948730
1519427666289,-0.107178,-0.235596,0.922607
1519427666299,-0.074219,-0.236084,0.873535
1519427666351,-0.050049,-0.181396,1.015869
1519427666379,-0.117188,-0.272217,0.910400
1519427666464,-0.048340,-0.172607,0.841064
1519427666469,-0.005127,-0.197021,1.064453
1519427666541,-0.022705,-0.404053,0.930908
1519427666544,-0.070313,-0.014160,1.175537
1519427666546,-0.107422,-0.189697,1.002197
1519427666620,-0.093750,-0.169678,0.821777
1519427666622,-0.025391,-0.067871,1.214355
1519427666624,-0.164307,-0.413330,0.972168
1519427666676,-0.087158,0.012451,0.932373
1519427666704,0.110596,-0.106934,1.004150
1519427666782,0.132080,-0.430420,1.091064
1519427666786,0.014648,-0.030762,0.898926
1519427666855,-0.046143,-0.121094,0.922607
1519427666859,-0.157715,-0.300293,0.967041
1519427666869,-0.166016,-0.126953,0.909180
1519427666955,-0.021973,-0.136963,1.071777
1519427666958,0.092773,-0.093994,1.242920
1519427667029,0.042969,-0.139160,0.911377
1519427667034,0.050293,-0.171875,0.840576
1519427667038,0.027588,-0.164063,0.877441
1519427667109,-0.006104,-0.226318,0.999512
1519427667112,-0.056396,-0.203857,0.995117
1519427667117,-0.068359,-0.195068,0.947266
1519427667198,-0.060303,-0.286377,1.013184
1519427667201,-0.065674,-0.221436,1.037354
1519427667221,-0.072021,-0.124756,0.989258
1519427667283,-0.078613,-0.227539,0.950928
1519427667286,-0.089355,-0.194336,0.927002
1519427667332,-0.106201,-0.126953,0.889648
1519427667361,-0.081055,-0.180908,1.067871
1519427667391,-0.067383,-0.303223,0.993408
1519427667473,-0.086182,-0.005859,1.114258
1519427667477,-0.081543,-0.341797,1.007080
1519427667481,-0.038818,-0.193848,0.947510
1519427667547,-0.098877,-0.119385,0.900635
1519427667551,-0.045898,-0.212158,0.936035
1519427667636,-0.036377,-0.228271,1.022461
1519427667639,-0.046875,-0.198975,0.986084
1519427667713,-0.032715,-0.264404,0.955078
1519427667717,-0.047852,-0.252441,0.987549
1519427667727,-0.055664,-0.247803,0.967285
1519427667744,-0.063721,-0.236572,0.969971
1519427667766,-0.058838,-0.211670,0.988525
1519427667795,-0.048828,-0.232910,1.014404
1519427667833,-0.062500,-0.249023,0.927002
1519427667885,-0.060791,-0.171143,0.965576
1519427667914,-0.036377,-0.200928,0.965088
1519427667940,-0.029053,-0.239014,0.973389
1519427667968,-0.023193,-0.225586,1.048584
1519427667993,-0.036377,-0.227295,0.990234
1519427668046,-0.041504,-0.204834,0.982666
1519427668074,-0.048096,-0.202393,0.986328
1519427668098,-0.042969,-0.216553,0.961426
1519427668124,-0.046387,-0.226318,0.960205
1519427668196,-0.029541,-0.226074,0.977295
1519427668222,-0.036133,-0.218262,0.981445
1519427668250,-0.028320,-0.194824,0.964844
1519427668275,-0.041016,-0.218018,0.954346
1519427668301,-0.038086,-0.227051,0.966553
1519427668329,-0.041504,-0.229004,0.982178
1519427668380,-0.066406,-0.227295,0.975830
1519427668386,-0.062012,-0.228027,0.959961
1519427668431,-0.039795,-0.237061,0.977051
1519427668459,-0.044189,-0.202148,0.977539
1519427668479,-0.049561,-0.220703,0.957520
1519427668543,-0.041748,-0.225098,0.962646
1519427668546,-0.041748,-0.215576,0.990967
1519427668594,-0.056885,-0.218018,0.979248
1519427668624,-0.044189,-0.226807,0.975830
1519427668656,-0.037354,-0.217529,0.968018
1519427668680,-0.046875,-0.225098,0.965576
1519427668737,-0.043945,-0.237549,0.962158
1519427668741,-0.052002,-0.219482,0.986328
1519427668791,-0.054688,-0.217041,0.978271
1519427668815,-0.059814,-0.217773,0.983398
1519427668848,-0.048584,-0.233154,0.971191
1519427668875,-0.043701,-0.228760,0.969238
1519427668925,-0.061279,-0.229492,0.972168
1519427668948,-0.061523,-0.232178,0.962646
1519427668975,-0.053467,-0.221191,0.973145
1519427669014,-0.046875,-0.203125,0.976074
1519427669047,-0.054199,-0.186035,0.967773
1519427669076,-0.060059,-0.203369,0.962646
1519427669106,-0.037598,-0.217773,1.005859
1519427669153,-0.059082,-0.148438,1.008789
1519427669158,-0.055420,-0.192627,0.975830
1519427669226,0.002686,-0.212646,0.993896
1519427669230,-0.051025,-0.390137,0.968506
1519427669268,-0.049561,-0.361572,0.933838
1519427669309,-0.083252,-0.257813,0.929932
1519427669330,-0.064697,-0.325195,0.891846
1519427669361,-0.060547,-0.214844,0.929199
1519427669414,-0.048340,-0.280029,0.996094
1519427669441,-0.052002,-0.223877,0.970947
1519427669472,-0.050293,-0.181641,0.975342
1519427669526,-0.033447,-0.132324,0.989502
1519427669530,-0.038330,-0.186768,0.976074
1519427669554,-0.025391,-0.178955,1.033691
1519427669605,-0.034180,-0.223145,1.003174
1519427669630,-0.054199,-0.232422,0.957520
1519427669660,-0.059082,-0.239258,0.947510
1519427669689,-0.051514,-0.203613,0.974121
1519427669729,-0.071045,-0.297852,0.948486
1519427669754,-0.071777,-0.215332,0.928223
1519427669809,-0.101563,-0.238770,1.005859
1519427669831,-0.070068,-0.118896,0.999268
1519427669857,0.050293,-0.229004,0.871338
1519427669889,-0.011719,-0.174072,1.112549
1519427669938,-0.077148,-0.229492,0.975830
1519427669944,-0.095947,-0.222412,0.928467
1519427669992,-0.069824,-0.215088,0.987305
1519427670004,-0.077637,-0.232178,0.962158
1519427670044,-0.086914,-0.217041,0.949707
1519427670092,-0.062988,-0.205566,0.991943
1519427670133,-0.095703,-0.235352,0.989014
1519427670139,-0.010986,-0.279053,0.955078
1519427670200,0.078125,-0.059326,1.164307
1519427670206,-0.058350,-0.221680,0.956055
1519427670269,-0.088623,-0.295166,0.849609
1519427670357,-0.066406,-0.115234,0.900879
1519427670362,-0.067627,-0.177246,0.958740
1519427670367,-0.077637,-0.215332,0.979492
1519427670438,-0.066895,-0.162842,1.049561
1519427670442,-0.094727,-0.200439,0.978271
1519427670445,-0.035645,-0.174561,0.971680
1519427670528,-0.027344,-0.169189,1.146484
1519427670532,-0.092041,-0.132568,0.952881
1519427670535,-0.059326,-0.198975,0.918457
1519427670572,-0.069336,-0.166992,0.942139
1519427670616,-0.069336,-0.204102,0.952637
1519427670621,-0.083252,-0.217773,0.980225
1519427670675,-0.087646,-0.237549,0.950439
1519427670700,-0.066895,-0.266113,0.951172
1519427670775,-0.038086,-0.192871,1.004883
1519427670779,-0.041016,-0.240723,0.943359
1519427670801,-0.034180,-0.187012,0.950439
1519427670830,-0.000244,-0.204590,1.033447
1519427670876,-0.054443,-0.236328,0.998779
1519427670906,-0.068604,-0.206543,0.977051
1519427670926,-0.067139,-0.202881,0.952148
1519427670976,-0.066406,-0.189941,0.978516
1519427671007,-0.057617,-0.211670,0.959473
1519427671030,-0.062988,-0.221924,0.956787
1519427671056,0.002197,-0.261963,1.037598
1519427671080,-0.001709,-0.233643,1.091553
1519427671123,-0.041016,-0.210205,0.928223
1519427671156,-0.029785,-0.168945,0.852783
1519427671191,-0.076904,-0.381104,0.873779
1519427671218,-0.025391,-0.367432,0.797607
1519427671260,-0.011475,0.000488,1.232422
1519427671296,-0.111572,-0.238281,0.964111
1519427671320,-0.089844,-0.218750,0.833252
1519427671350,-0.105713,-0.179199,0.894043
1519427671394,-0.020996,-0.220703,1.005615
1519427671424,-0.108643,-0.286621,1.012451
1519427671448,-0.089844,-0.331055,1.036865
1519427671492,-0.100830,-0.204590,0.985107
1519427671515,-0.007568,-0.149414,0.915771
1519427671564,0.000244,-0.176758,0.980469
1519427671594,0.000488,-0.087158,0.996338
1519427671597,-0.005371,-0.189453,1.028076
1519427671670,-0.041992,-0.190186,1.080566
1519427671698,-0.110840,-0.249756,0.928467
1519427671705,-0.178467,-0.093262,0.878418
1519427671762,-0.219971,-0.033936,0.816895
1519427671766,-0.148926,-0.016113,0.875732
1519427671813,-0.051270,-0.253418,0.983643
1519427671839,0.029541,0.092529,1.171631
1519427671861,0.062988,-0.232178,1.195557
1519427671910,0.085938,-0.205566,1.077148
1519427671939,0.043701,-0.205811,1.004150
1519427671967,-0.000488,-0.176270,0.893066
1519427672021,-0.062012,-0.026367,0.769775
1519427672045,-0.020264,-0.475830,0.953613
1519427672067,-0.087891,-0.211426,1.011230
1519427672098,-0.128906,-0.131348,1.113525
1519427672143,-0.129639,-0.414551,1.049316
1519427672223,-0.161621,-0.296143,0.956787
1519427672227,-0.134277,-0.212646,0.984619
1519427672237,-0.077148,-0.206299,0.904053
1519427672300,-0.046143,-0.253418,0.950195
1519427672304,-0.027832,-0.223389,0.995850
1519427672398,-0.028809,-0.177246,0.927734
1519427672402,-0.008545,-0.265137,0.943604
1519427672405,-0.028564,-0.241455,1.029053
1519427672432,-0.042236,-0.287109,0.884521
1519427672453,-0.026123,-0.305908,1.185547
1519427672476,-0.154297,-0.202881,1.082275
1519427672563,-0.188232,-0.175049,0.829834
1519427672634,-0.169678,0.134766,0.734375
1519427672639,-0.026123,-0.251221,1.000977
1519427672649,0.046143,-0.105469,1.140137
1519427672654,0.017822,-0.156250,0.954346
1519427672740,0.021484,-0.140869,0.931152
1519427672745,-0.046387,-0.095459,1.023438
1519427672749,-0.072998,-0.217285,0.990234
1519427672815,-0.074951,-0.071045,0.957275
1519427672819,-0.040283,-0.152100,0.950439
1519427672844,-0.027344,-0.080322,1.094482
1519427672873,-0.046387,-0.123047,0.985352
1519427672920,-0.015381,-0.163818,0.935791
1519427672943,0.000000,-0.198975,0.951660
1519427672993,-0.030029,-0.268555,0.942871
1519427673022,-0.045654,-0.214111,0.968994
1519427673042,-0.075195,-0.278564,1.030762
1519427673072,-0.131348,-0.238281,0.980469
1519427673116,-0.126709,-0.185791,0.998291
1519427673145,-0.089355,-0.218262,0.980469
1519427673173,-0.053955,-0.205078,0.982910
1519427673212,-0.025146,-0.210938,0.995605
1519427673237,-0.034180,-0.174072,0.986572
1519427673312,-0.016602,-0.203125,0.953857
1519427673318,-0.014160,-0.198242,0.984131
1519427673397,-0.006592,-0.212646,1.013184
1519427673399,-0.027344,-0.198730,0.968018
1519427673401,-0.049316,-0.179443,0.950928
1519427673423,-0.026367,-0.169922,0.935547
1519427673511,-0.060303,-0.228271,0.988281
1519427673534,-0.055176,-0.169434,1.026367
1519427673560,-0.072998,-0.202148,0.951660
1519427673606,-0.027344,-0.191650,0.941162
1519427673631,-0.018799,-0.201172,1.051270
1519427673658,-0.036133,-0.216064,1.011475
1519427673684,-0.051025,-0.206787,0.969482
1519427673710,-0.064697,-0.168457,0.948730
1519427673738,-0.043457,-0.180420,0.999756
1519427673764,-0.048340,-0.229248,0.938965
1519427673791,0.007568,-0.151367,0.981445
1519427673846,-0.010010,-0.266357,0.998291
1519427673881,-0.059570,-0.188721,0.988525
1519427673924,-0.084229,-0.212158,0.939941
1519427673950,-0.088867,-0.173584,0.954834
1519427673964,-0.033936,-0.205078,0.972412
1519427673997,0.020264,-0.197266,0.993164
1519427674024,0.010986,-0.247559,1.005127
1519427674053,-0.014160,-0.207520,1.004883
1519427674103,-0.032715,-0.221680,0.978516
1519427674133,0.001953,-0.209473,0.986816
1519427674138,0.000244,-0.220459,0.999512
1519427674191,-0.018311,-0.217529,0.955078
1519427674220,-0.049072,-0.194824,0.957764
1519427674249,-0.093750,-0.161133,0.955566
1519427674294,-0.090332,-0.175781,0.974121
1519427674323,-0.088379,-0.181396,0.994873
1519427674356,-0.079346,-0.178711,0.966064
1519427674370,-0.092529,-0.194336,0.989258
1519427674408,-0.078857,-0.177002,0.978271
1519427674459,-0.093994,-0.119629,1.019287
1519427674489,-0.092529,-0.252930,0.880371
1519427674499,0.031250,-0.265869,0.948730
1519427674561,0.152832,-0.438965,1.216797
1519427674651,0.033936,-0.457031,1.070801
1519427674654,-0.081055,-0.160400,0.795898
1519427674657,-0.050049,-0.388428,0.739014
1519427674715,-0.028076,-0.211670,0.914307
1519427674719,-0.100342,-0.151123,0.976807
1519427674803,-0.130127,-0.124023,0.933594
1519427674807,-0.129150,-0.029297,1.058594
1519427674818,-0.077881,-0.101563,1.093262
1519427674821,-0.067139,-0.237061,0.971436
1519427674885,0.069336,-0.100342,1.005615
1519427674912,0.110352,-0.298096,1.332764
1519427674972,-0.080566,-0.177979,0.841309
1519427674976,-0.177490,0.005371,0.807861
1519427675059,-0.161377,-0.073730,0.927002
1519427675063,-0.121826,-0.224609,0.994629
1519427675066,-0.024414,-0.157227,0.990234
1519427675152,0.187744,-0.339844,0.890625
1519427675156,0.259766,-0.145264,1.292236
1519427675159,0.006592,-0.214600,0.859131
1519427675234,0.031738,-0.160156,0.924316
1519427675237,-0.016113,-0.074219,0.944580
1519427675248,-0.121094,-0.070557,1.137939
1519427675315,-0.170410,-0.010742,1.002441
1519427675319,-0.180420,0.168701,0.823486
1519427675402,-0.136719,-0.229248,0.812012
1519427675406,-0.093994,-0.375244,1.089111
1519427675431,-0.118652,-0.157715,1.288818
1519427675460,-0.090576,-0.264893,1.020752
1519427675486,-0.088623,-0.321045,0.877930
1519427675530,-0.091064,-0.101807,0.933594
1519427675554,-0.066406,-0.207764,0.937012
1519427675582,-0.072266,-0.255615,0.933350
1519427675612,-0.073242,-0.170410,0.962891
1519427675668,-0.060303,-0.236816,0.938232
1519427675682,-0.038818,-0.217285,0.994629
1519427675694,-0.026367,-0.161621,1.031738
1519427675785,-0.038574,-0.234131,1.004150
1519427675789,-0.079590,-0.179688,0.974609
1519427675810,-0.072510,-0.168945,0.938477
1519427675837,-0.086670,-0.148926,0.970459
1519427675874,0.038330,-0.255127,0.948242
1519427675894,0.149414,-0.164551,1.046631
1519427675944,0.027832,-0.390137,0.930420
1519427675998,-0.045654,-0.084961,0.827881
1519427676002,-0.058105,0.160400,1.074463
1519427676062,-0.087158,-0.226318,1.044922
1519427676064,-0.073730,-0.179199,1.011230
1519427676150,-0.081543,-0.186523,1.120361
1519427676155,-0.122070,0.014893,0.982422
1519427676240,-0.159668,-0.120605,0.804688
1519427676244,-0.116455,-0.337402,0.869873
1519427676247,-0.057129,-0.099854,1.112305
1519427676270,-0.074707,-0.427246,0.811523
1519427676294,-0.040283,-0.096924,1.116943
1519427676342,-0.098145,-0.292236,0.954346
1519427676370,-0.114014,-0.169678,0.883545
1519427676404,-0.091064,-0.122314,0.951416
1519427676438,-0.013428,-0.162109,0.940430
1519427676462,0.110352,-0.231445,1.008545
1519427676487,0.119385,-0.189453,1.128418
1519427676535,0.040283,-0.140381,1.055420
1519427676562,-0.029297,-0.072754,1.002441
1519427676584,-0.083008,-0.109375,0.804443
1519427676613,0.001953,-0.238037,1.068604
1519427676659,-0.113525,-0.324219,0.910156
1519427676680,-0.093018,-0.150146,1.107178
1519427676708,-0.110107,-0.256104,1.084229
1519427676742,-0.106934,-0.331299,0.906982
1519427676780,-0.123779,-0.167969,0.901123
1519427676812,-0.036377,-0.313232,1.033447
1519427676847,-0.100586,-0.268311,0.923584
1519427676895,-0.025635,-0.026367,0.916504
1519427676907,0.117188,-0.184326,1.237305
1519427676952,-0.037842,-0.281006,1.080566
1519427677005,-0.088135,-0.260986,0.865479
1519427677031,-0.153564,-0.003906,0.844482
1519427677041,-0.116943,0.000000,0.960938
1519427677090,-0.046143,-0.467773,1.009521
1519427677115,-0.080811,-0.119873,0.982666
1519427677141,0.060791,-0.257568,0.993896
1519427677167,0.291016,-0.261230,1.276611
1519427677228,0.097900,-0.118408,0.900879
1519427677232,0.039551,-0.172852,0.843750
1519427677254,0.017822,0.040527,0.826660
1519427677308,-0.018066,-0.379395,0.830078
1519427677335,-0.090576,-0.390869,0.999512
1519427677376,-0.148438,-0.132080,1.080566
1519427677406,-0.156494,-0.157959,1.147949
1519427677435,-0.193359,-0.380127,0.953613
1519427677460,-0.145264,-0.217529,1.015137
1519427677508,-0.150146,-0.173096,0.927490
1519427677536,-0.087158,-0.251221,0.940430
1519427677559,-0.059326,-0.156494,0.962891
1519427677612,-0.031250,-0.201172,0.868896
1519427677637,-0.012695,-0.156494,1.030762
1519427677661,0.087402,-0.227295,1.016113
1519427677696,0.233398,-0.181885,1.048096
1519427677721,0.097900,-0.193848,1.037109
1519427677773,-0.001221,-0.217285,0.828613
1519427677799,-0.083740,-0.329590,1.022217
1519427677824,-0.126709,-0.111328,0.902344
1519427677864,-0.100098,0.246338,1.038086
1519427677911,-0.135498,-0.289795,1.019775
1519427677944,-0.123291,-0.062500,1.064453
1519427677949,-0.054688,-0.170898,1.075195
1519427678005,-0.118652,-0.210938,0.832520
1519427678008,-0.010010,-0.087402,1.141602
1519427678077,-0.122314,-0.190918,0.992432
1519427678096,-0.042725,-0.104492,0.914063
1519427678122,0.096924,-0.184814,1.000732
1519427678153,0.056152,-0.215332,1.061768
1519427678193,-0.047363,-0.049072,0.960449
1519427678225,-0.122803,-0.114502,0.869385
1519427678245,-0.136230,-0.321533,0.962891
1519427678286,-0.112305,-0.102539,1.015625
1519427678312,-0.009277,-0.037109,1.036133
1519427678338,0.106201,-0.152344,1.149658
1519427678395,0.037842,-0.171143,0.931152
1519427678419,0.017578,-0.074707,0.750244
1519427678443,0.049316,-0.223877,0.875488
1519427678480,-0.068848,-0.221191,1.099854
1519427678505,-0.110352,-0.209717,0.918701
1519427678560,-0.088623,-0.217041,0.920410
1519427678583,-0.055908,-0.134277,1.007080
1519427678610,-0.050781,-0.198242,0.973877
1519427678646,-0.049561,-0.229004,0.991455
1519427678673,-0.070801,-0.235596,1.026123
1519427678710,-0.064453,-0.270752,0.958496
1519427678738,-0.041992,-0.259033,0.961914
1519427678783,-0.046875,-0.196533,1.041748
1519427678814,-0.071289,-0.223145,0.951172
1519427678843,-0.056885,-0.228516,0.898438
1519427678870,-0.051514,-0.182861,1.027344
1519427678922,-0.046631,-0.269043,1.014160
1519427678926,-0.074219,-0.235840,0.817627
1519427678975,0.013184,-0.271484,1.090576
1519427678998,-0.093750,-0.362305,0.880859
1519427679019,-0.099609,-0.066650,0.997559
1519427679067,-0.021484,-0.206787,0.958008
1519427679095,-0.014648,-0.230713,0.974121
1519427679124,-0.016602,-0.144531,0.957764
1519427679166,-0.005127,-0.267822,1.005127
1519427679190,-0.052734,-0.248535,0.992920
1519427679221,-0.046387,-0.144775,1.026855
1519427679250,-0.051514,-0.251465,0.963379
1519427679288,0.017334,-0.217285,1.142334
1519427679330,-0.015625,-0.122559,1.076172
1519427679350,-0.030762,-0.140381,0.920166
1519427679386,0.002197,-0.319824,0.791992
1519427679435,-0.105469,-0.397949,0.903076
1519427679462,-0.107666,-0.195557,1.068359
1519427679489,-0.076660,-0.258057,1.039795
1519427679540,-0.073486,-0.368408,0.937012
1519427679594,-0.073242,-0.299805,0.956299
1519427679598,-0.080811,-0.250977,1.021240
1519427679602,-0.022217,-0.133545,1.054443
1519427679663,0.159668,-0.060547,1.156494
1519427679690,-0.064941,-0.234619,0.921631
1519427679721,0.035889,-0.178467,0.896973
1519427679749,-0.094482,-0.422607,0.803223
1519427679774,-0.094971,-0.254639,0.983887
1519427679804,-0.129395,-0.127930,1.061768
1519427679852,-0.082764,-0.311035,1.010010
1519427679877,-0.097900,-0.290527,0.965576
1519427679905,-0.138184,-0.181641,0.931641
1519427679934,-0.095703,-0.255371,0.935059
1519427679975,-0.098633,-0.230225,0.972168
1519427680000,-0.077881,-0.129639,0.978027
1519427680042,-0.006836,-0.263184,1.026855
1519427680065,-0.090820,-0.169678,1.043701
1519427680108,-0.087158,-0.168457,0.949951
1519427680130,-0.110840,-0.115723,0.962891
1519427680164,-0.063232,-0.141113,0.864258
1519427680215,0.006836,-0.149170,1.050537
1519427680260,-0.059814,-0.068604,1.066895
1519427680266,-0.108154,-0.138428,0.884277
1519427680304,-0.072754,-0.215576,0.909668
1519427680332,-0.052979,-0.140137,1.049316
1519427680386,-0.083740,-0.131348,0.957764
1519427680391,-0.064453,-0.009277,0.970459
1519427680438,0.083008,0.072754,1.207764
1519427680462,0.007080,-0.106934,1.071045
1519427680492,0.023682,-0.173096,0.921143
1519427680535,-0.052979,-0.137939,0.930176
1519427680550,-0.041260,-0.114990,0.896973
1519427680590,-0.105957,-0.221191,0.886963
1519427680632,-0.127197,-0.140381,0.952393
1519427680662,-0.110352,-0.214844,0.945557
1519427680687,-0.098877,-0.183105,0.953369
1519427680714,-0.057861,-0.121582,1.077148
1519427680764,-0.093506,-0.236572,1.003662
1519427680791,-0.107910,-0.241211,0.977539
1519427680820,-0.064453,-0.245361,1.063477
1519427680849,-0.079346,-0.321533,0.972168
1519427680900,-0.069092,-0.171387,0.955322
1519427680927,-0.043945,-0.188232,0.946533
1519427680952,-0.036865,-0.165771,1.007324
1519427680995,0.018799,-0.291016,1.112061
1519427681024,0.029053,-0.161621,1.145508
1519427681052,-0.077148,-0.211182,0.845703
1519427681096,-0.053223,-0.199219,0.838867
1519427681121,-0.081055,-0.259277,0.845947
1519427681149,-0.053955,-0.290039,0.823730
1519427681173,-0.046387,-0.228271,1.093018
1519427681227,-0.041016,-0.229492,0.655518
1519427681250,0.052734,0.046631,1.270752
1519427681275,-0.080811,-0.269287,0.982422
1519427681332,-0.005615,-0.236572,0.958496
1519427681336,-0.062012,-0.232422,0.959717
1519427681367,-0.035645,-0.239258,0.892578
1519427681397,-0.084961,-0.251465,0.931885
1519427681448,-0.044434,-0.102051,0.911621
1519427681467,-0.008301,-0.369385,0.989014
1519427681524,-0.021973,-0.201904,1.038086
1519427681536,-0.032227,-0.238770,0.958984
1519427681617,-0.031494,-0.231445,0.942627
1519427681620,-0.048584,-0.186523,0.997559
1519427681623,-0.020020,-0.231445,0.963379
1519427681720,-0.030518,-0.167725,0.995117
1519427681724,-0.038330,-0.253174,0.966309
1519427681728,-0.046387,-0.125244,1.009277
1519427681763,-0.007813,-0.178467,0.943359
1519427681801,-0.013428,-0.264404,0.973389
1519427681828,-0.040771,-0.183350,0.970459
1519427681854,-0.051270,-0.181396,0.948242
1519427681900,-0.028564,-0.218994,0.992432
1519427681938,-0.040771,-0.200195,1.014648
1519427681942,-0.056152,-0.232422,0.962646
1519427682005,-0.011963,-0.194824,1.009277
1519427682010,-0.006592,-0.215820,0.982422
1519427682060,-0.041016,-0.190918,0.971436
1519427682106,-0.020508,-0.175049,1.031494
1519427682134,-0.058105,-0.229492,0.948730
1519427682156,-0.038086,-0.195557,0.986328
1519427682256,-0.035889,-0.262451,1.054688
1519427682260,-0.042969,-0.198730,0.985352
1519427682263,-0.037109,-0.164551,0.957520
1519427682335,-0.061035,-0.085449,0.910645
1519427682338,-0.051758,-0.054932,0.900635
1519427682341,-0.121826,-0.407959,0.905762
1519427682377,-0.095459,-0.175293,1.036865
1519427682407,-0.093750,-0.281250,1.010742
1519427682436,-0.106934,-0.246094,1.082275
1519427682477,-0.151367,-0.205078,0.971436
1519427682506,-0.142090,-0.156250,0.887451
1519427682548,-0.098389,-0.188721,0.912598
1519427682577,0.051025,-0.157227,1.029297
1519427682605,0.278076,-0.310059,1.053223
1519427682654,0.289795,0.044434,1.156494
1519427682680,0.104248,0.033203,0.859619
1519427682713,0.052246,-0.200195,0.876465
1519427682738,-0.088623,-0.392578,0.843262
1519427682785,-0.090332,-0.288086,1.082031
1519427682815,-0.242920,-0.125732,1.169434
1519427682837,-0.216064,-0.379883,0.940430
1519427682880,-0.158936,-0.199951,1.069092
1519427682969,-0.174316,-0.263916,0.937988
1519427682974,-0.017090,-0.185303,0.908447
1519427682977,0.120850,-0.214111,1.129395
1519427683046,-0.087158,-0.265625,0.997803
1519427683050,-0.186768,-0.081787,0.908936
1519427683099,-0.153076,-0.178711,0.777100
1519427683123,-0.062256,-0.007324,1.066406
1519427683150,0.110107,-0.248779,1.096191
1519427683175,0.198242,-0.362549,1.143066
1519427683203,0.021240,-0.253662,0.850830
1519427683228,0.032471,-0.135498,0.950195
1519427683258,-0.048340,-0.140137,0.912354
1519427683282,-0.093750,0.026367,1.108154
1519427683497,-0.146240,-0.080566,0.933838
1519427683522,-0.212402,0.131348,0.754395
1519427683549,-0.175537,-0.249756,0.819580
1519427683574,-0.152588,-0.620605,0.943604
1519427683577,-0.150391,0.031250,1.192871
1519427683580,-0.079834,-0.447266,1.017334
1519427683582,-0.102783,-0.173096,1.088135
1519427683585,0.097900,-0.020020,0.930176
1519427683605,0.136475,-0.581055,1.051270
1519427683607,-0.024170,-0.221680,0.980957
1519427683657,-0.005371,-0.327148,0.842285
1519427683687,-0.014648,-0.273926,1.061035
1519427683720,-0.095703,-0.157227,0.924072
1519427683764,-0.118896,-0.007324,0.946289
1519427683768,-0.121826,-0.208984,1.100342
1519427683816,-0.133301,-0.027832,1.088379
1519427683865,-0.116943,-0.081055,0.917969
1519427683870,-0.063232,-0.116943,0.777832
1519427683901,-0.066650,-0.228760,0.884277
1519427683983,-0.096924,-0.292236,0.970947
1519427683989,-0.095703,-0.206055,0.930908
1519427684012,-0.039307,-0.155762,1.200684
1519427684043,-0.145264,-0.311768,0.995850
1519427684065,-0.105469,-0.138428,0.930908
1519427684118,-0.050781,-0.158447,1.022461
1519427684140,0.021973,-0.266602,0.878906
1519427684187,0.069336,-0.311523,0.979492
1519427684210,0.028076,-0.267334,1.036621
1519427684232,-0.153564,-0.178711,0.987305
1519427684261,-0.134277,-0.202148,1.023438
1519427684307,-0.116699,-0.228271,0.972412
1519427684337,-0.048584,-0.163818,0.976318
1519427684364,-0.009766,-0.268066,1.038330
1519427684386,-0.003906,-0.274414,1.092041
1519427684437,-0.044434,-0.156982,0.910156
1519427684461,0.001465,-0.334717,0.930176
1519427684489,-0.043945,-0.184570,1.033691
1519427684535,-0.057373,-0.211914,0.923584
1519427684566,-0.030029,-0.138184,0.876709
1519427684591,-0.032227,-0.142334,0.968018
1519427684637,-0.106445,-0.278076,0.969971
1519427684664,-0.098389,-0.267334,0.969727
1519427684692,-0.090088,-0.279053,0.942383
1519427684717,-0.082764,-0.256836,0.961914
1519427684757,-0.078613,-0.281982,1.019531
1519427684803,-0.078369,-0.253662,0.982422
1519427684826,-0.075684,-0.187012,0.872314
1519427684852,-0.004883,-0.261963,0.980713
1519427684897,-0.050293,-0.280518,1.062012
1519427684927,-0.082275,-0.210938,0.978027
1519427684956,-0.103027,-0.246338,0.954834
1519427684985,-0.101563,-0.217773,0.865234
1519427685022,-0.046875,-0.286133,0.991943
1519427685044,-0.078857,-0.288330,1.025635
1519427685098,-0.076172,-0.258057,0.903809
1519427685112,-0.054443,-0.258057,0.963623
1519427685162,-0.063721,-0.285889,1.033447
1519427685167,-0.076416,-0.283936,0.927246
1519427685207,-0.034424,-0.131348,1.181885
1519427685257,-0.124756,-0.351074,1.007324
1519427685262,-0.120850,-0.294922,0.896729
1519427685320,-0.131836,-0.239258,0.887695
1519427685341,-0.074463,-0.310059,1.020996
1519427685377,-0.100342,-0.322754,0.979980
1519427685402,-0.004150,-0.092773,1.008057
1519427685448,0.135742,-0.255127,0.944092
1519427685477,0.108154,-0.135498,1.114990
1519427685523,0.008301,-0.098389,0.863281
1519427685527,-0.024170,-0.155762,0.903076
1519427685568,-0.056885,-0.377441,0.861572
1519427685599,-0.059326,-0.232178,1.066895
1519427685625,-0.140625,-0.221191,1.113037
1519427685726,-0.156494,-0.153809,1.021729
1519427685730,-0.169189,-0.360352,0.940186
1519427685735,-0.147949,-0.226074,0.960693
1519427685831,-0.119873,-0.267578,0.894287
1519427685835,-0.130859,-0.282227,0.986328
1519427685838,-0.128662,-0.245117,0.982178
1519427685862,-0.127686,-0.280762,0.878418
1519427685910,-0.110840,-0.274414,0.980957
1519427685924,-0.085938,-0.213135,0.994629
1519427685956,-0.072266,-0.263672,0.907471
1519427685995,-0.061035,-0.171631,0.990967
1519427686022,-0.068848,-0.189453,0.955566
1519427686060,-0.124756,-0.300049,0.905029
1519427686106,-0.015381,-0.075928,0.974121
1519427686136,0.303467,-0.219238,1.018799
1519427686163,0.139893,-0.234863,1.291992
1519427686212,-0.005371,-0.088623,0.865723
1519427686223,-0.067383,-0.074707,0.944580
1519427686253,-0.018799,-0.188965,0.852783
1519427686296,-0.094482,-0.209961,1.033936
1519427686323,-0.066162,-0.144531,0.989746
1519427686338,-0.182861,0.018555,0.746338
1519427686379,-0.162842,-0.340088,1.095947
1519427686409,-0.172119,0.070557,1.205811
1519427686438,-0.102539,-0.420166,1.011963
1519427686485,-0.022949,0.009766,0.922363
1519427686507,-0.056396,-0.325684,1.016602
1519427686558,-0.077637,-0.215576,1.031250
1519427686581,-0.062988,-0.240479,0.863525
1519427686611,-0.057617,-0.236816,0.846191
1519427686644,-0.056396,-0.209717,0.969727
1519427686686,-0.049561,-0.204102,0.976074
1519427686708,-0.023682,-0.351563,1.028809
1519427686738,-0.074951,-0.014404,1.173096
1519427686789,-0.122314,-0.253174,0.897217
1519427686811,-0.020508,-0.211182,0.816162
1519427686904,-0.041260,-0.295654,0.953613
1519427686908,-0.060303,-0.303223,1.006836
1519427686911,-0.068848,-0.237305,0.933105
1519427686990,-0.035400,-0.269775,0.938965
1519427686996,-0.075195,-0.240967,0.947754
1519427687004,-0.086182,-0.198242,0.920166
1519427687076,-0.088867,-0.246826,1.032959
1519427687080,-0.163330,-0.221436,0.794189
1519427687102,-0.017578,-0.013184,1.157471
1519427687154,-0.096191,-0.434570,1.043213
1519427687158,-0.070801,-0.235352,0.931152
1519427687194,-0.129639,-0.105713,0.993408
1519427687219,-0.058838,-0.270020,0.949951
1519427687266,-0.032715,-0.214355,0.997559
1519427687289,-0.054443,-0.261719,1.009033
1519427687358,-0.078857,-0.300293,1.001709
1519427687361,-0.124268,-0.287109,0.931641
1519427687387,-0.196533,-0.191650,0.996338
1519427687431,-0.131836,-0.307373,0.937500
1519427687463,-0.135010,-0.138184,0.889893
1519427687491,-0.075928,-0.212158,0.908447
1519427687519,-0.035889,-0.231445,0.986572
1519427687572,0.277588,-0.143066,1.191650
1519427687586,0.140869,-0.178223,1.305176
1519427687620,-0.018799,-0.302979,0.848145
1519427687649,-0.138428,0.140137,0.897949
1519427687693,-0.197754,-0.316162,0.906250
1519427687718,-0.276123,-0.180420,0.989502
1519427687778,-0.110840,-0.194824,0.867920
1519427687782,0.096680,-0.142334,1.107910
1519427687814,0.120605,0.114502,1.063965
1519427687855,0.063477,0.044189,0.809326
1519427687885,0.102051,-0.345459,0.823730
1519427687908,-0.011963,-0.625732,0.867432
1519427687935,-0.175781,-0.187744,1.167236
1519427687978,-0.189209,-0.281494,1.059326
1519427687996,-0.186279,-0.158691,1.106934
1519427688077,-0.096924,-0.280273,1.009766
1519427688081,-0.078125,-0.296631,0.843018
1519427688103,-0.077393,-0.181396,0.895996
1519427688166,-0.063232,-0.199951,0.950439
1519427688171,-0.072510,-0.162842,1.009521
1519427688219,-0.046143,-0.201660,1.024658
1519427688244,-0.084473,-0.200928,0.929688
1519427688275,-0.044189,-0.242188,0.890869
1519427688319,-0.030518,-0.264404,1.017334
1519427688347,-0.078613,-0.249023,0.963379
1519427688429,-0.099365,-0.248535,0.895264
1519427688437,-0.062744,-0.163330,0.968262
1519427688444,-0.049561,-0.177002,1.007568
1519427688532,-0.012207,-0.201904,1.013428
1519427688648,0.013916,-0.334961,1.100342
1519427688674,-0.095703,-0.160156,0.926758
1519427688711,-0.099854,-0.017578,0.845703
1519427688735,-0.088379,-0.385498,0.820068
1519427688763,-0.114746,0.048584,1.250000
1519427688789,-0.083496,-0.265625,1.053467
1519427688818,-0.086426,-0.201904,0.868164
1519427688847,-0.116211,-0.152832,0.962402
1519427689017,-0.065430,-0.228516,0.988525
1519427689026,-0.080078,-0.228760,1.003174
1519427689029,-0.064697,-0.185791,0.977295
1519427689032,-0.046143,-0.226074,0.933105
1519427689035,-0.019043,-0.178223,0.990967
1519427689037,-0.007813,-0.218262,0.979492
1519427689038,-0.017334,-0.267090,0.963623
1519427689040,-0.056152,-0.205811,1.009277
1519427689041,-0.087158,-0.247314,0.923828
1519427689100,-0.052246,-0.231934,0.931396
1519427689104,-0.028320,-0.202637,0.988281
1519427689126,-0.002197,-0.271484,0.985352
1519427689155,-0.019043,-0.155273,1.005859
1519427689185,-0.061768,-0.225830,1.020996
1519427689215,-0.113525,-0.135254,0.950439
1519427689256,-0.114014,-0.149414,0.954102
1519427689260,-0.044922,-0.239990,1.073242
1519427689315,-0.060547,-0.321533,1.048828
1519427689328,-0.083008,-0.204346,0.959229
1519427689412,-0.037842,-0.216064,0.891113
1519427689415,-0.071777,-0.218506,0.954834
1519427689460,-0.080566,-0.158936,0.941406
1519427689465,-0.065918,-0.208984,0.936279
1519427689520,-0.068848,-0.186035,0.965332
1519427689543,-0.088135,-0.246582,0.957031
1519427689565,-0.088867,-0.195801,0.977295
1519427689621,-0.073730,-0.224609,0.968750
1519427689626,-0.077637,-0.231445,0.971924
1519427689663,-0.085449,-0.219238,0.974121
1519427689716,-0.083496,-0.260254,0.977051
1519427689729,-0.093994,-0.258789,0.941650
1519427689762,-0.093994,-0.183838,0.961426
1519427689811,-0.066650,-0.192627,1.000977
1519427689834,-0.033203,-0.192871,0.941650
1519427689864,0.005859,-0.297363,0.961670
1519427689907,-0.078369,-0.217529,1.017334
1519427689936,-0.065430,-0.242920,0.952881
1519427689966,-0.081787,-0.227051,0.959961
1519427689990,-0.038086,-0.277100,0.976807
1519427690023,-0.065186,-0.086914,1.034424
1519427690066,-0.060547,-0.204590,0.958496
1519427690090,-0.029297,-0.265381,0.943604
1519427690181,-0.041016,-0.251709,1.005615
1519427690185,-0.056885,-0.255127,0.979492
1519427690190,-0.079346,-0.223389,0.970947
1519427690265,-0.079346,-0.204834,0.961182
1519427690269,-0.062500,-0.228760,0.920898
1519427690346,-0.048584,-0.230225,1.011475
1519427690349,-0.061035,-0.215820,1.109131
1519427690353,-0.048096,-0.258301,0.943848
1519427690433,-0.031494,-0.223389,0.920654
1519427690438,-0.072266,-0.270020,0.947510
1519427690442,-0.084717,-0.212402,0.930664
1519427690527,-0.075439,-0.223633,0.906006
1519427690530,-0.033691,-0.233887,0.996338
1519427690612,-0.052979,-0.232666,1.063721
1519427690616,-0.069580,-0.228027,0.995850
1519427690618,-0.076416,-0.211426,0.939697
1519427690693,-0.057373,-0.165039,0.998779
1519427690696,-0.068604,-0.242920,0.954834
1519427690721,0.000000,-0.244141,0.939453
1519427690744,0.001709,-0.264648,1.018311
1519427690788,-0.059570,-0.244873,0.964111
1519427690833,-0.079590,-0.213379,0.906738
1519427690858,-0.060303,-0.203125,0.947266
1519427690892,-0.035156,-0.222656,0.982666
1519427690917,-0.043945,-0.208740,0.984863
1519427690944,-0.054443,-0.222168,0.994385
1519427690997,-0.071045,-0.228760,1.016846
1519427691022,-0.085449,-0.189941,0.970703
1519427691047,-0.088379,-0.215576,0.929199
1519427691076,-0.107178,-0.122559,0.989502
1519427691100,-0.074219,-0.238281,0.826904
1519427691129,-0.074463,-0.141113,1.072021
1519427691179,-0.045898,-0.289063,1.013184
1519427691205,0.054199,-0.449463,0.935547
1519427691232,-0.013428,-0.132324,1.124268
1519427691258,-0.137207,-0.229248,0.904297
1519427691284,-0.066895,-0.231445,0.840088
1519427691337,0.025879,-0.220459,0.937988
1519427691354,-0.025146,-0.226074,1.089844
1519427691397,-0.116943,-0.183105,0.936768
1519427691419,-0.067383,-0.187256,0.903564
1519427691468,0.064697,-0.256104,0.970703
1519427691551,-0.035400,-0.267822,1.051025
1519427691555,-0.108887,-0.200928,1.000732
1519427691561,-0.104492,-0.165771,0.954590
1519427691628,0.012695,-0.219727,1.051270
1519427691631,0.008789,-0.267334,1.057373
1519427691653,-0.044434,-0.167480,0.900391
1519427691703,-0.047607,-0.334229,0.842529
1519427691707,-0.039551,-0.403564,1.003418
1519427691766,-0.106934,-0.196289,0.934814
1519427691777,-0.066650,-0.224854,0.909912
1519427691808,-0.073486,-0.090576,0.962646
1519427691851,-0.031738,-0.149170,1.070557
1519427691876,-0.061768,-0.126709,1.083008
1519427691924,-0.042480,-0.145752,1.031494
1519427691950,-0.098145,-0.172119,1.063721
1519427691973,-0.072998,-0.216309,0.964355
1519427692010,0.000000,-0.280518,0.963623
1519427692036,-0.021240,-0.242920,1.036377
1519427692080,-0.019775,-0.189941,0.941895
1519427692103,-0.052490,-0.157471,0.849854
1519427692155,-0.068604,-0.158203,0.903320
1519427692169,-0.039551,-0.139648,1.014648
1519427692205,-0.097412,-0.169434,1.025635
1519427692231,-0.054199,-0.207275,0.937256
1519427692280,-0.041016,-0.179932,1.034180
1519427692304,-0.062988,-0.269775,1.013184
1519427692335,-0.092285,-0.229004,0.995605
1519427692387,-0.104492,-0.151123,0.948486
1519427692414,-0.063721,-0.124023,0.879639
1519427692442,-0.073486,-0.170166,1.049316
1519427692471,-0.043945,-0.179199,0.941650
1519427692497,0.030029,-0.215576,0.941650
1519427692549,-0.007080,-0.216064,1.139404
1519427692553,-0.063232,-0.333496,0.922607
1519427692581,-0.064697,-0.044678,0.965332
1519427692629,-0.070801,-0.021973,0.981934
1519427692691,-0.028076,-0.381104,0.985107
1519427692695,-0.091064,-0.223389,1.090332
1519427692773,-0.102295,-0.062744,0.886963
1519427692777,-0.111084,-0.121338,0.760010
1519427692780,-0.035156,-0.336670,0.900879
1519427692876,-0.087402,-0.332520,0.985596
1519427692879,-0.064941,-0.106689,1.160400
1519427692882,-0.124268,-0.282227,0.965332
1519427692924,-0.086182,-0.330811,0.897461
1519427692954,-0.081055,-0.125732,0.933594
1519427692978,-0.010742,-0.341553,0.942139
1519427693029,-0.074463,-0.228516,1.049561
1519427693056,-0.079102,-0.288574,1.017822
1519427693080,-0.085449,-0.289551,0.909912
1519427693113,-0.039307,-0.262207,0.946289
1519427693159,-0.034912,-0.299805,0.999268
1519427693165,-0.045654,-0.269043,0.989746
1519427693213,-0.041016,-0.292480,0.944580
1519427693251,-0.006348,-0.292236,0.929932
1519427693281,-0.015869,-0.229736,1.002441
1519427693331,-0.024170,-0.267334,0.956299
1519427693354,-0.035889,-0.260498,0.937500
1519427693367,-0.045898,-0.263428,0.947510
1519427693424,-0.063965,-0.234375,0.964844
1519427693501,-0.067627,-0.244385,0.949219
1519427693505,-0.058350,-0.264404,0.970703
1519427693526,-0.048828,-0.268555,0.966553
1519427693528,-0.058594,-0.251465,0.944336
1519427693605,-0.043945,-0.250977,0.958740
1519427693607,-0.059570,-0.260254,0.971436
1519427693627,-0.059814,-0.267578,0.948486
1519427693666,-0.051514,-0.267334,0.953857
1519427693694,-0.055664,-0.290527,0.958008
1519427693747,-0.064453,-0.286865,0.965088
1519427693771,-0.038574,-0.285889,0.989746
1519427693795,-0.044434,-0.283936,0.968262
1519427693845,-0.062744,-0.271973,0.963135
1519427693867,-0.060547,-0.288818,0.958252
1519427693897,-0.064209,-0.280273,0.929932
1519427693934,-0.062744,-0.274170,0.947998
1519427693961,-0.059082,-0.295898,0.945313
1519427694004,-0.057861,-0.292480,0.943848
1519427694034,-0.054688,-0.290039,0.944092
1519427694060,-0.061279,-0.271240,0.962158
1519427694116,-0.049805,-0.301270,0.952148
1519427694140,-0.053711,-0.277832,0.973389
1519427694144,-0.056396,-0.289551,0.944580
1519427694191,-0.060303,-0.295654,0.966064
1519427694225,-0.056396,-0.291504,0.971680
1519427694247,-0.060303,-0.290283,0.956543
1519427694325,-0.066895,-0.295166,0.923096
1519427694336,-0.064697,-0.296387,0.929688
1519427694370,-0.062012,-0.286865,0.954102
1519427694449,-0.065430,-0.282715,0.969482
1519427694452,-0.068359,-0.293457,0.930908
1519427694454,-0.057861,-0.300293,0.967041
1519427694530,-0.059814,-0.293213,0.962646
1519427694533,-0.063965,-0.274902,0.939697
1519427694556,-0.063477,-0.283447,0.944824
1519427694635,-0.057373,-0.310303,0.968018
1519427694639,-0.057129,-0.287842,0.963135
1519427694724,-0.054932,-0.280518,0.946777
1519427694728,-0.056396,-0.285889,0.952637
1519427694732,-0.065186,-0.285400,0.954102
1519427694789,-0.065674,-0.289551,0.956299
1519427694794,-0.056885,-0.289795,0.959717
1519427694821,-0.065674,-0.292969,0.945557
1519427694850,-0.077393,-0.281250,0.948975
1519427694881,-0.075684,-0.299316,0.938721
1519427694928,-0.084961,-0.271973,0.967529
1519427694931,-0.110352,-0.227051,0.918701
1519427694977,-0.127441,-0.175293,0.954834
1519427695075,-0.110840,-0.257813,0.865723
1519427695080,0.020996,-0.297363,0.924316
1519427695088,0.163330,-0.348877,1.131348
1519427695094,0.075439,-0.209229,1.033447
1519427695152,-0.008301,-0.080566,1.014160
1519427695157,-0.039551,-0.110352,0.810791
1519427695238,-0.018311,-0.268799,0.803711
1519427695241,-0.066406,-0.283203,1.027588
1519427695325,-0.083252,-0.119873,1.313721
1519427695329,-0.125000,-0.221191,1.190674
1519427695332,-0.137695,-0.339355,0.867432
1519427695415,-0.058594,-0.295654,0.889160
1519427695420,-0.103516,-0.197021,0.945068
1519427695426,-0.095459,-0.209961,1.000000
1519427695503,-0.063965,-0.281982,0.916260
1519427695507,-0.054443,-0.168701,1.045654
1519427695523,-0.056152,-0.112061,0.965088
1519427695555,-0.010742,-0.407227,0.888428
1519427695585,0.056396,-0.146973,0.998291
1519427695640,0.117432,-0.125488,1.015869
1519427695664,0.052979,-0.285156,0.949463
1519427695691,-0.016357,-0.174805,1.145752
1519427695722,-0.099121,-0.114014,0.915283
1519427695772,-0.074219,0.015381,0.782227
1519427695798,-0.077637,-0.427246,0.814697
1519427695802,-0.074951,-0.226318,1.061523
1519427695878,-0.094482,-0.226318,1.190674
1519427695882,-0.135254,-0.254883,0.994629
1519427695904,-0.099854,-0.273926,0.906006
1519427695954,-0.100342,-0.151367,0.907471
1519427695980,-0.055176,-0.238770,0.947754
1519427696011,-0.075928,-0.106689,0.994629
1519427696046,0.009521,-0.135010,1.001221
1519427696068,0.102051,-0.234863,1.070557
1519427696120,0.060059,-0.197754,1.099121
1519427696149,-0.096680,-0.259033,0.720703
1519427696178,0.012939,-0.292236,0.839111
1519427696206,-0.045166,-0.078613,1.091309
1519427696246,-0.035645,-0.329346,1.176514
1519427696324,-0.121826,-0.349854,1.060791
1519427696328,-0.144287,-0.046875,0.829346
1519427696340,-0.072998,-0.225098,0.879150
1519427696425,-0.126465,-0.394775,0.887451
1519427696428,-0.022461,0.073975,1.111572
1519427696433,-0.043945,-0.161865,1.160645
1519427696526,-0.039063,-0.120361,0.990723
1519427696566,-0.012207,-0.226563,0.916992
1519427696591,-0.049316,-0.217285,0.955078
1519427696823,-0.050537,-0.202881,0.958740
1519427696848,-0.060059,-0.197754,0.947266
1519427696884,-0.032715,-0.184082,0.940918
1519427696924,-0.032959,-0.241455,1.019043
1519427696940,-0.013672,-0.243896,0.977051
1519427696944,-0.040039,-0.168945,1.027832
1519427696947,-0.047119,-0.164795,0.970947
1519427696949,-0.022217,-0.215088,1.100830
1519427696950,-0.128662,-0.180176,1.031738
1519427696952,-0.152588,-0.161133,0.960938
1519427696953,-0.138184,-0.225342,0.764160
1519427696955,-0.072998,-0.171387,0.852783
1519427696971,0.048584,-0.019287,0.752197
1519427696977,0.121582,-0.028076,1.310547
1519427697027,0.078369,-0.118164,1.105469
1519427697051,-0.011963,-0.136963,0.878174
1519427697100,0.072998,-0.047852,0.996582
1519427697124,-0.058594,-0.086182,0.914063
1519427697170,-0.053711,-0.449951,0.882324
1519427697182,-0.200684,-0.045898,1.171631
1519427697234,-0.208740,-0.246338,1.015137
1519427697258,-0.158691,-0.164551,0.936768
1519427697290,-0.100098,-0.159668,0.966553
1519427697346,-0.023926,-0.192871,0.937012
1519427697351,-0.009033,-0.032959,0.988281
1519427697430,0.133789,-0.289063,0.952637
1519427697434,-0.024414,-0.106201,1.198730
1519427697456,-0.043213,-0.231445,0.935303
1519427697518,-0.027100,-0.221191,0.817383
1519427697524,-0.058350,-0.130859,0.987305
1519427697543,-0.050293,-0.211914,0.904785
1519427697605,-0.079102,-0.143311,0.971680
1519427697617,-0.066162,-0.082031,1.009521
1519427697626,-0.046875,-0.142822,0.963379
1519427697670,-0.052979,-0.231689,1.006104
1519427697703,-0.054199,-0.188232,1.035156
1519427697730,-0.050537,-0.264404,1.020264
1519427697829,-0.094727,-0.179688,1.029297
1519427697833,-0.083740,-0.106201,0.912842
1519427697836,-0.003174,-0.250488,0.902588
1519427697903,0.039551,-0.323730,1.035645
1519427697907,-0.025391,-0.228516,0.977051
1519427697987,-0.062256,-0.238525,0.912842
1519427697990,-0.072998,-0.130371,0.976318
1519427697994,-0.035156,-0.151611,0.968994
1519427698073,-0.006836,-0.285645,0.999756
1519427698077,-0.058350,-0.191406,1.020264
1519427698161,-0.063721,-0.240479,0.947510
1519427698162,-0.054443,-0.187988,0.969727
1519427698162,-0.082520,-0.200684,0.951660
1519427698200,-0.018066,-0.180420,1.008301
1519427698228,0.006348,-0.242920,0.954102
1519427698256,-0.044678,-0.214355,1.020996
1519427698301,-0.054443,-0.182373,1.010742
1519427698327,-0.083740,-0.201172,1.005371
1519427698352,-0.017090,-0.176758,0.853760
1519427698425,0.001709,-0.156006,1.078857
1519427698431,-0.060303,-0.207520,0.973633
1519427698441,-0.034180,-0.216064,0.956543
1519427698491,-0.040039,-0.218262,1.091553
1519427698524,-0.064209,-0.187012,0.960693
1519427698555,-0.020752,-0.192139,1.005371
1519427698576,-0.006836,-0.207275,0.966797
1519427698626,0.008545,-0.206787,0.945068
1519427698655,-0.017090,-0.213135,0.889648
1519427698676,-0.035889,-0.142090,0.967041
1519427698725,-0.001221,-0.340820,0.966553
1519427698745,-0.068848,-0.224854,1.010254
1519427698771,-0.081055,-0.147705,0.988037
1519427698807,-0.058350,-0.117676,0.974121
1519427698852,-0.020752,-0.151611,1.062500
1519427698876,-0.020996,-0.094482,1.036621
1519427698925,-0.039551,-0.147705,0.991455
1519427698929,-0.030762,-0.195068,0.963135
1519427698973,-0.031006,-0.126953,1.051758
1519427699022,-0.045166,-0.111084,0.988525
1519427699026,-0.038086,-0.225830,0.957764
1519427699090,-0.046631,-0.125000,0.973877
1519427699095,-0.059082,-0.133789,0.942871
1519427699145,-0.028809,-0.220947,0.891602
1519427699190,-0.082520,-0.122314,1.057373
1519427699194,-0.105713,-0.218262,0.881836
1519427699240,-0.094482,-0.211914,0.957275
1519427699254,0.100830,-0.298828,1.003174
1519427699290,0.113525,-0.243652,0.997070
1519427699343,-0.028809,-0.364014,1.069580
1519427699374,-0.151123,-0.170898,0.868164
1519427699400,-0.019287,-0.289551,0.895020
1519427699427,0.109619,-0.092285,1.116699
1519427699458,-0.045410,-0.201660,1.003418
1519427699505,-0.176758,-0.182129,0.778809
1519427699529,-0.080322,-0.204590,0.849365
1519427699556,-0.059082,-0.121582,1.024414
1519427699586,-0.054688,-0.067871,0.909424
1519427699628,-0.005127,-0.099609,1.040771
1519427699655,0.004883,-0.060059,1.233887
1519427699708,-0.033691,-0.243896,1.020020
1519427699712,-0.039063,-0.160400,0.822510
1519427699751,-0.027100,-0.180664,0.944336
1519427699853,0.013916,-0.218994,0.980225
1519427699858,-0.025635,-0.151855,0.979980
1519427699861,-0.009521,-0.153320,0.977539
1519427699941,-0.037354,-0.151611,0.979736
1519427699944,-0.033203,-0.223877,1.029053
1519427699947,-0.057129,-0.188965,1.024658
1519427700024,-0.064697,-0.207031,0.970703
1519427700026,-0.039063,-0.149902,0.934082
1519427700129,-0.044434,-0.177490,1.015381
1519427700132,-0.002441,-0.218262,0.984375
1519427700134,-0.019287,-0.142578,0.958984
1519427700195,-0.006348,-0.196045,1.024902
1519427700197,-0.018555,-0.196045,0.927490
1519427700199,-0.016846,-0.166748,1.005371
1519427700298,-0.011475,-0.237061,0.979004
1519427700300,-0.016113,-0.147217,1.142090
1519427700302,-0.052246,-0.280029,0.965820
1519427700352,0.108154,-0.110596,1.001221
1519427700381,-0.025635,-0.222168,1.056152
1519427700461,-0.010498,-0.294189,1.007568
1519427700464,-0.072021,-0.285889,0.853516
1519427700474,-0.047852,-0.382813,0.948730
1519427700550,-0.074951,-0.181152,0.908447
1519427700556,-0.043457,-0.019287,1.138184
1519427700635,-0.057129,-0.327881,0.929443
1519427700639,-0.057373,-0.092285,0.979248
1519427700642,-0.030762,-0.077881,0.979004
1519427700739,0.036133,-0.239990,1.115967
1519427700742,0.043701,-0.133057,1.114014
1519427700745,0.063965,-0.288818,0.908447
1519427700763,-0.005127,-0.253906,0.873779
1519427700787,-0.009521,-0.232178,0.968506
1519427700836,-0.060791,-0.136475,1.071533
1519427700855,-0.101807,-0.180176,1.050293
1519427700883,-0.102051,-0.155029,0.899902
1519427700930,-0.125977,-0.170898,0.950684
1519427700950,-0.112061,-0.081543,0.942383
1519427700995,0.036377,-0.077637,1.008545
1519427701019,-0.027588,-0.182617,1.093262
1519427701048,-0.053467,-0.098633,0.864258
1519427701128,-0.072510,-0.059326,0.973877
1519427701134,-0.037354,-0.152588,0.911377
1519427701151,-0.011475,-0.109375,0.847168
1519427701226,0.032959,-0.246338,1.086426
1519427701229,-0.045654,-0.237305,1.026367
1519427701251,-0.081787,-0.133301,1.068115
1519427701302,-0.116699,-0.112549,0.883301
1519427701330,-0.079346,-0.080566,0.893555
1519427701353,-0.093018,-0.368164,0.879150
1519427701405,-0.117432,-0.183838,1.146240
1519427701424,-0.112793,-0.214600,1.092529
1519427701447,-0.067871,-0.198975,0.947998
1519427701474,-0.063477,-0.200439,0.896973
1519427701524,-0.031250,-0.193604,1.011719
1519427701552,-0.052490,-0.197510,0.954346
1519427701584,-0.030029,-0.218750,1.032227
1519427701613,0.025879,-0.145020,0.901855
1519427701638,-0.089111,-0.366943,1.036621
1519427701665,-0.080078,-0.153564,0.942383
1519427701711,0.002441,-0.235840,0.821777
1519427701735,-0.021729,0.087646,0.942871
1519427701945,-0.039063,-0.266113,0.877197
1519427701993,-0.174805,-0.163086,0.965576
1519427702031,-0.172607,-0.289063,1.082275
1519427702057,-0.143311,-0.079590,1.202393
1519427702083,-0.151367,-0.228271,0.879150
1519427702100,-0.060303,-0.250488,0.889160
1519427702104,-0.025635,-0.134033,0.952637
1519427702106,0.170166,-0.296143,1.120605
1519427702110,0.032959,-0.161377,1.098145
1519427702115,-0.011230,-0.123047,1.046631
1519427702118,-0.108398,-0.067627,0.711914
1519427702140,0.011963,-0.317383,0.925293
1519427702167,-0.085693,-0.359863,1.033447
1519427702208,-0.098633,-0.134277,1.187988
1519427702232,-0.140381,-0.221191,0.971436
1519427702259,-0.101318,-0.254883,0.841064
1519427702312,-0.064453,-0.260742,0.943848
1519427702318,-0.049561,-0.184326,0.923340
1519427702365,-0.035400,-0.098389,0.981689
1519427702417,-0.053955,-0.231201,0.985352
1519427702421,-0.059814,-0.157227,0.958008
1519427702458,-0.046143,-0.191650,0.970215
1519427702483,-0.052490,-0.231201,1.022461
1519427702520,-0.079346,-0.232666,1.024902
1519427702538,-0.079590,-0.211182,0.963135
1519427702588,-0.048584,-0.197754,0.974609
1519427702611,-0.038330,-0.183105,0.991943
1519427702664,-0.031982,-0.230713,0.957275
1519427702688,-0.082275,-0.215576,0.986816
1519427702711,-0.096680,-0.195801,0.939941
1519427702737,-0.081055,-0.197510,0.936279
1519427702824,-0.070313,-0.187988,1.059326
1519427702828,-0.043213,-0.194824,0.954834
1519427702853,0.024902,-0.302734,1.072510
1519427702879,-0.014648,-0.169189,1.008057
1519427702909,-0.037354,-0.249268,0.880615
1519427702935,-0.052490,-0.158203,0.868408
1519427702975,-0.019531,-0.270752,0.971680
1519427703027,-0.059570,-0.237061,1.024170
1519427703031,-0.098145,-0.189941,0.971680
1519427703095,-0.105225,-0.201660,0.965820
1519427703101,-0.086182,-0.167236,0.963623
1519427703141,-0.033203,-0.218506,0.983154
1519427703188,-0.020264,-0.229004,1.053955
1519427703192,-0.060059,-0.264404,0.985352
1519427703242,-0.060791,-0.197754,0.942383
1519427703264,-0.064209,-0.247314,1.006836
1519427703294,-0.056641,-0.264160,1.013428
1519427703338,-0.068115,-0.237793,0.938721
1519427703392,0.051025,-0.064941,1.131592
1519427703394,-0.062256,-0.315918,0.979980
1519427703421,-0.062500,-0.103760,0.931396
1519427703464,-0.067871,-0.244629,0.973145
1519427703489,-0.068848,-0.200684,0.956299
1519427703536,-0.103271,-0.213623,0.945313
1519427703567,-0.106445,-0.219482,0.953125
1519427703592,-0.112793,-0.187988,0.928711
1519427703621,-0.096191,-0.191895,0.947510
1519427703674,-0.120361,-0.224365,0.948975
1519427703760,-0.104004,-0.071289,1.023926
1519427703763,-0.039795,-0.292236,1.177734
1519427703846,-0.085938,-0.242432,0.888184
1519427703852,-0.074219,-0.199951,0.932861
1519427703855,-0.086914,-0.228271,0.976807
1519427703861,-0.122070,-0.160889,0.913818
1519427703888,-0.043457,-0.209961,1.028809
1519427703924,-0.053467,-0.083496,1.143311
1519427703965,-0.036865,-0.289551,0.938477
1519427703995,-0.044922,-0.205811,0.921387
1519427704020,-0.008057,-0.157471,0.847656
1519427704074,0.072754,0.113037,0.948242
1519427704080,0.131836,-0.264648,1.022949
1519427704119,-0.094971,-0.511963,0.935547
1519427704169,-0.122314,-0.162598,0.921631
1519427704175,-0.223389,0.024170,1.230225
1519427704211,-0.201904,-0.283936,1.014893
1519427704241,-0.095947,-0.167725,0.979980
1519427704282,-0.067627,-0.314697,1.018799
1519427704304,-0.113281,-0.116455,0.974121
1519427704356,0.103027,-0.223877,0.935059
1519427704379,0.149902,-0.179932,1.072998
1519427704402,0.058105,-0.079102,1.009033
1519427704444,-0.014893,-0.225342,0.916016
1519427704490,-0.123779,-0.127197,0.915039
1519427704494,-0.003662,-0.478516,0.926758
1519427704554,-0.083740,0.063965,1.241211
1519427704564,-0.113525,-0.367920,0.937256
1519427704601,-0.121338,-0.204346,0.934814
1519427704649,-0.195801,-0.029541,0.964844
1519427704679,-0.182373,-0.272217,1.008545
1519427704702,-0.157959,-0.241455,0.920898
1519427704734,-0.167969,-0.298584,1.073242
1519427704774,-0.095215,-0.320313,0.963379
1519427704802,-0.154053,-0.131348,0.933594
1519427704834,-0.034424,-0.036133,0.943115
1519427704857,0.093262,-0.089600,1.021973
1519427704884,0.314453,-0.225342,1.125977
1519427704925,0.079834,0.024170,0.865479
1519427704953,0.117920,-0.090576,0.864014
1519427705005,-0.163330,-0.311523,0.778809
1519427705018,-0.231689,-0.236572,1.065674
1519427705051,-0.342773,-0.062256,1.087646
1519427705099,-0.236084,-0.184570,1.081787
1519427705123,-0.079834,-0.208252,1.049561
1519427705146,0.090088,-0.322266,1.183105
1519427705195,0.033203,-0.183594,1.049805
1519427705229,0.011719,-0.171143,0.837891
1519427705255,-0.017334,-0.221924,0.847168
1519427705297,-0.018799,-0.250977,0.945313
1519427705326,-0.044922,-0.271240,0.960693
1519427705349,-0.086426,-0.243164,1.001465
1519427705380,-0.085205,-0.248779,1.021484
1519427705423,-0.082764,-0.224121,0.966309
1519427705452,-0.074707,-0.199951,0.977783
1519427705480,-0.041260,-0.267578,0.980713
1519427705515,-0.084229,-0.231689,0.958496
1519427705592,-0.083984,-0.239014,0.947998
1519427705597,-0.075684,-0.247070,0.942139
1519427705685,-0.083984,-0.255615,0.924805
1519427705689,-0.058594,-0.273438,0.964355
1519427705692,-0.064209,-0.257813,0.979492
1519427705763,-0.072510,-0.252441,0.966064
1519427705767,-0.067627,-0.209717,0.985596
1519427705770,-0.057129,-0.247559,0.988770
1519427705845,-0.038330,-0.223633,0.958984
1519427705857,-0.083496,-0.224365,0.983643
1519427705871,-0.090820,-0.218994,0.976807
1519427705942,-0.099609,-0.267090,0.902832
1519427705946,-0.055420,-0.201904,0.980225
1519427706027,0.016602,-0.284668,1.014648
1519427706034,-0.072998,-0.122070,1.197754
1519427706037,-0.081787,-0.251221,0.908203
1519427706108,-0.035645,-0.189209,0.882080
1519427706111,-0.067139,-0.179443,0.928467
1519427706191,-0.083252,-0.148682,0.926514
1519427706195,-0.065430,-0.210693,0.952637
1519427706199,-0.018555,-0.184082,0.965088
1519427706250,0.024414,-0.221680,1.092041
1519427706253,-0.044678,-0.121338,1.090332
1519427706296,-0.085449,-0.300781,0.901123
1519427706319,-0.066162,-0.239990,0.914063
1519427706348,-0.060059,-0.180908,0.980225
1519427706401,-0.093506,-0.198730,0.969971
1519427706422,-0.054932,-0.236328,0.897461
1519427706449,-0.078857,-0.244141,0.938232
1519427706500,-0.078369,-0.203857,0.964355
1519427706519,-0.102051,-0.237305,1.035889
1519427706550,-0.127930,-0.236816,0.746094
1519427706582,-0.038818,-0.300293,1.046631
1519427706631,-0.132813,-0.302002,0.904785
1519427706741,-0.116211,0.002930,1.103516
1519427706853,-0.046143,-0.201416,0.875000
1519427706886,0.071045,-0.547607,1.053955
1519427706921,0.001709,-0.107910,1.081787
1519427706946,-0.002441,-0.231934,0.871826
1519427706972,-0.017334,-0.539307,0.816162
1519427707000,-0.096924,-0.194580,0.822266
1519427707037,-0.101563,-0.349365,1.104004
1519427707065,-0.137939,-0.350098,0.951416
1519427707069,-0.199707,-0.089844,0.973877
1519427707090,-0.108887,-0.267334,0.861084
1519427707125,-0.062500,-0.137451,1.046875
1519427707148,-0.042725,-0.260986,1.000000
1519427707150,-0.024170,-0.194580,0.898193
1519427707153,0.027832,-0.307373,0.975098
1519427707156,-0.025635,-0.161377,0.984863
1519427707196,-0.012939,-0.148926,1.009766
1519427707199,0.010010,-0.054443,1.130615
1519427707224,-0.011230,-0.206055,0.982422
1519427707270,-0.100586,-0.285400,0.843506
1519427707299,-0.021484,-0.384277,0.794922
1519427707322,-0.140137,-0.244385,1.040527
1519427707390,-0.135742,-0.314209,1.182373
1519427707395,-0.186768,-0.117432,0.953125
1519427707433,-0.173828,-0.057373,0.851074
1519427707456,-0.201416,-0.303955,0.797119
1519427707528,-0.116211,-0.294678,0.934814
1519427707533,-0.064941,-0.190674,1.009521
1519427707560,-0.024902,-0.257568,0.910889
1519427707588,0.133057,-0.111084,1.036621
1519427707644,0.349609,-0.094971,1.440430
1519427707666,-0.059570,-0.187256,0.910400
1519427707705,0.002197,-0.147705,0.866943
1519427707712,-0.058838,-0.183594,0.827393
1519427707768,-0.066162,-0.243408,0.960938
1519427707792,-0.114746,-0.306152,0.956543
1519427707822,-0.099609,-0.281982,0.934326
1519427707862,-0.082520,-0.231689,0.976563
1519427707884,-0.115479,-0.282959,1.000732
1519427707915,-0.105469,-0.232666,1.011719
1519427707966,-0.082520,-0.241699,0.988037
1519427707991,-0.075928,-0.261963,0.984619
1519427708052,-0.051025,-0.247803,0.970703
1519427708065,-0.045654,-0.220459,0.951904
1519427708071,-0.052002,-0.210205,0.963623
1519427708135,-0.046387,-0.239990,0.982178
1519427708165,-0.032471,-0.215576,0.984863
1519427708172,-0.042480,-0.214600,0.982178
1519427708252,-0.045654,-0.236816,0.966309
1519427708259,-0.036621,-0.215820,0.968506
1519427708280,-0.067871,-0.231445,0.955566
1519427708317,-0.083252,-0.250977,0.950195
1519427708346,-0.079590,-0.238525,0.971436
1519427708370,-0.083984,-0.238281,0.964355
1519427708405,-0.065674,-0.248779,0.982666
1519427708445,-0.055176,-0.233154,0.975586
1519427708471,-0.067871,-0.243896,0.925049
1519427708518,-0.050049,-0.248535,0.961182
1519427708542,-0.046875,-0.243408,0.978760
1519427708582,-0.065918,-0.252930,0.957764
1519427708608,-0.079102,-0.272705,0.956299
1519427708657,-0.065674,-0.256592,0.982910
1519427708678,-0.052979,-0.240479,0.984131
1519427708699,-0.038330,-0.248535,0.977783
1519427708745,-0.030762,-0.232666,0.970947
1519427708781,-0.037598,-0.244141,0.942383
1519427708786,-0.062500,-0.234863,0.958252
1519427708847,-0.075928,-0.238770,0.966553
1519427708860,-0.090332,-0.250244,0.980713
1519427708894,-0.091064,-0.257080,0.975342
1519427708936,-0.075195,-0.250732,0.969238
1519427708949,-0.060547,-0.242188,0.961182
1519427708999,-0.055908,-0.241699,0.966064
1519427709023,-0.053223,-0.244385,0.986816
1519427709051,-0.060059,-0.240479,0.970215
1519427709099,-0.054688,-0.243164,0.973633
1519427709119,-0.057617,-0.249268,0.959717
1519427709168,-0.061768,-0.255859,0.958008
1519427709199,-0.061035,-0.249512,0.952393
1519427709228,-0.062012,-0.230225,0.963867
1519427709254,-0.066406,-0.237549,0.967041
1519427709298,-0.066406,-0.243652,0.958008
1519427709321,-0.065674,-0.239746,0.969727
1519427709355,-0.069092,-0.228271,0.955078
1519427709385,-0.062744,-0.225830,0.921875
1519427709433,-0.047363,-0.260010,0.914063
1519427709457,-0.094727,-0.207520,0.989014
1519427709481,-0.123779,-0.178223,1.004395
1519427709525,-0.156006,-0.139893,0.885742
1519427709555,-0.120850,-0.199219,1.004395
1519427709579,-0.048096,-0.318604,1.088867
1519427709626,0.005859,-0.361328,1.159180
1519427709657,-0.030029,-0.222900,1.049072
1519427709673,-0.018799,-0.266846,0.933350
1519427709699,-0.007813,-0.222900,0.833496
1519427709732,-0.014404,-0.167480,0.854492
1519427709791,-0.011230,-0.173340,0.958740
1519427709883,-0.051025,-0.174316,0.984619
1519427709888,-0.071045,-0.193848,0.972412
1519427709893,-0.083252,-0.193115,1.010986
1519427709913,-0.104736,-0.229248,1.000977
1519427709937,-0.098145,-0.197754,0.991699
1519427709987,-0.093506,-0.241699,1.001953
1519427710007,-0.099854,-0.241943,0.938477
1519427710030,-0.103760,-0.238037,0.918213
1519427710087,-0.061279,-0.258057,1.005859
1519427710108,-0.037842,-0.198975,0.937256
1519427710132,0.057373,-0.161865,0.810303
1519427710186,0.129639,-0.222412,1.218506
1519427710205,-0.040771,-0.277100,0.965088
1519427710251,-0.115479,-0.146484,0.823486
1519427710255,-0.098633,-0.231934,0.840332
1519427710301,-0.110352,-0.200195,1.003906
1519427710330,-0.021484,-0.314209,1.104736
1519427710357,0.020020,-0.344727,0.993652
1519427710406,-0.065186,-0.091064,0.977051
1519427710436,-0.061035,-0.159912,0.964600
1519427710456,-0.079834,-0.142090,0.982178
