1519418253641,0.904297,-0.273682,-0.044922
1519418253673,0.960205,-0.231201,-0.045166
1519418253706,0.948975,-0.210693,-0.004150
1519418253777,0.927734,-0.240479,0.070068
1519418253779,0.947998,-0.224121,0.135010
1519418253845,0.952148,-0.182129,0.079834
1519418253847,0.899902,-0.140869,0.067139
1519418253908,0.860596,-0.133057,0.114502
1519418253913,0.936523,-0.132080,0.147461
1519418253919,0.988525,0.036133,0.129883
1519418253973,1.025635,-0.100342,0.160889
1519418253986,0.987549,-0.089600,0.243652
1519418254018,1.022705,0.008057,0.218750
1519418254076,1.014404,0.024902,0.204346
1519418254110,0.971191,0.013428,0.208740
1519418254118,0.937988,0.018799,0.218506
1519418254173,0.986572,0.106934,0.201904
1519418254189,0.958984,0.101318,0.205811
1519418254220,0.945557,0.091309,0.208496
1519418254252,0.921631,0.145020,0.232178
1519418254289,0.974365,0.198730,0.295166
1519418254328,0.973389,0.178467,0.364502
1519418254353,0.945557,0.153564,0.318359
1519418254393,0.932861,0.130371,0.250488
1519418254428,0.978027,0.177979,0.160400
1519418254457,1.008057,0.236816,0.198975
1519418254490,1.042969,0.182373,0.213379
1519418254539,0.986572,0.244873,0.228271
1519418254545,0.885986,0.319092,0.263672
1519418254573,0.864014,0.298584,0.277588
1519418254607,0.856201,0.273193,0.301514
1519418254639,0.893799,0.250000,0.367676
1519418254672,0.953369,0.328125,0.426514
1519418254705,1.044434,0.320068,0.405273
1519418254737,0.994873,0.203857,0.288574
1519418254770,0.908691,0.218018,0.238281
1519418254803,0.820557,0.143799,0.294189
1519418254833,0.808838,0.246338,0.317627
1519418254892,0.884766,0.334229,0.335938
1519418254900,0.919678,0.429443,0.357666
1519418254949,0.900635,0.317383,0.336670
1519418254955,0.904541,0.229980,0.304932
1519418254982,0.872803,0.223389,0.317139
1519418255016,0.870361,0.325928,0.341553
1519418255047,0.864746,0.320068,0.344971
1519418255106,0.902832,0.257813,0.341309
1519418255116,0.899170,0.259766,0.344238
1519418255170,0.879639,0.270996,0.324463
1519418255184,0.895020,0.283691,0.287354
1519418255217,0.918457,0.262207,0.282715
1519418255255,0.939941,0.269531,0.278076
1519418255287,0.925781,0.282471,0.295898
1519418255319,0.889893,0.281738,0.318115
1519418255350,0.897217,0.266602,0.321289
1519418255382,0.911377,0.260254,0.315430
1519418255416,0.913086,0.272217,0.290039
1519418255449,0.899170,0.271729,0.281250
1519418255481,0.908447,0.272217,0.279053
1519418255513,0.936035,0.275635,0.281494
1519418255547,0.936523,0.258545,0.292725
1519418255580,0.924561,0.261963,0.279297
1519418255621,0.927246,0.253906,0.261719
1519418255654,0.922852,0.270264,0.270264
1519418255686,0.922607,0.270996,0.255615
1519418255717,0.916992,0.268799,0.270752
1519418255751,0.925049,0.249268,0.270996
1519418255782,0.926514,0.256348,0.272461
1519418255820,0.930420,0.270508,0.265137
1519418255852,0.922119,0.280273,0.264160
1519418255857,0.922852,0.288818,0.273438
1519418255911,0.916260,0.317627,0.283203
1519418255944,0.923828,0.312744,0.285889
1519418255952,0.914795,0.314209,0.274170
1519418256002,0.926025,0.291748,0.252686
1519418256016,0.954590,0.278564,0.209717
1519418256049,0.952881,0.275879,0.197266
1519418256095,0.953369,0.165283,0.210693
1519418256129,0.892822,0.234131,0.276855
1519418256161,0.873779,0.256104,0.297852
1519418256194,0.916748,0.302002,0.267578
1519418256231,0.904541,0.322021,0.257568
1519418256264,0.958252,0.309570,0.245117
1519418256296,0.955811,0.277832,0.234131
1519418256332,0.939453,0.263428,0.228271
1519418256361,0.938721,0.277832,0.230713
1519418256394,0.924561,0.278564,0.249512
1519418256425,0.926514,0.261475,0.257813
1519418256434,0.917969,0.265137,0.257568
1519418256482,0.923828,0.269531,0.246338
1519418256515,0.928223,0.272461,0.246094
1519418256523,0.926514,0.278076,0.250244
1519418256579,0.909424,0.287109,0.251221
1519418256611,0.921143,0.284912,0.254150
1519418256644,0.922119,0.296631,0.257813
1519418256676,0.928467,0.288574,0.257324
1519418256708,0.921875,0.279541,0.254150
1519418256741,0.916260,0.296631,0.262451
1519418256773,0.916016,0.290527,0.264160
1519418256805,0.922852,0.280518,0.253418
1519418256847,0.925537,0.283203,0.252930
1519418256920,0.908936,0.284668,0.264648
1519418256924,0.917725,0.278809,0.251221
1519418256988,0.928223,0.280762,0.245117
1519418256991,0.920410,0.286133,0.269043
1519418257030,0.920898,0.276855,0.256104
1519418257035,0.914063,0.277832,0.251953
1519418257061,0.930420,0.274658,0.248535
1519418257099,0.928711,0.282227,0.250488
1519418257103,0.919434,0.277344,0.256348
1519418257161,0.932373,0.271973,0.250732
1519418257171,0.924316,0.266846,0.246338
1519418257227,0.912354,0.266602,0.250000
1519418257241,0.911621,0.278564,0.247314
1519418257273,0.921387,0.285156,0.255859
1519418257310,0.941406,0.274414,0.249268
1519418257338,0.933350,0.268311,0.246826
1519418257371,0.915039,0.278809,0.247070
1519418257429,0.906738,0.273682,0.254639
1519418257461,0.922119,0.280273,0.254395
1519418257494,0.925781,0.279297,0.254395
1519418257498,0.925293,0.286133,0.262207
1519418257553,0.934326,0.283447,0.254639
1519418257585,0.920898,0.278564,0.251465
1519418257589,0.921387,0.275635,0.248291
1519418257646,0.927490,0.270020,0.243408
1519418257677,0.923340,0.276123,0.252441
1519418257709,0.922607,0.278564,0.260742
1519418257742,0.927734,0.278320,0.265137
1519418257774,0.922363,0.274170,0.264160
1519418257806,0.919678,0.278809,0.256104
1519418257839,0.921631,0.279541,0.247559
1519418257871,0.927734,0.284180,0.246094
1519418257904,0.930176,0.273682,0.251953
1519418257937,0.932861,0.263916,0.240967
1519418257969,0.923828,0.264648,0.242432
1519418258001,0.912598,0.262451,0.249023
1519418258034,0.925537,0.271973,0.248779
1519418258075,0.921875,0.275391,0.254639
1519418258078,0.932129,0.283447,0.253662
1519418258134,0.922607,0.284668,0.256348
1519418258169,0.920410,0.281250,0.254883
1519418258172,0.923340,0.279541,0.247559
1519418258228,0.919678,0.278564,0.252686
1519418258236,0.925049,0.280762,0.259033
1519418258292,0.927002,0.276855,0.253906
1519418258324,0.921631,0.276611,0.254150
1519418258380,0.915527,0.279785,0.255371
1519418258385,0.923828,0.286865,0.258301
1519418258413,0.925293,0.280273,0.250244
1519418258447,0.922363,0.282227,0.262207
1519418258487,0.922852,0.282959,0.258057
1519418258519,0.922119,0.276367,0.259766
1519418258552,0.924072,0.280518,0.246582
1519418258587,0.928223,0.275635,0.252197
1519418258618,0.922852,0.275635,0.254395
1519418258657,0.932861,0.276611,0.250000
1519418258665,0.924072,0.275146,0.253418
1519418258717,0.921631,0.269287,0.241211
1519418258750,0.918701,0.275146,0.245361
1519418258758,0.919434,0.279297,0.253418
1519418258807,0.932373,0.277100,0.247803
1519418258841,0.924072,0.274414,0.253418
1519418258872,0.911621,0.285889,0.260254
1519418258886,0.922119,0.277832,0.250244
1519418258920,0.935059,0.284668,0.251465
1519418258951,0.934814,0.286133,0.251709
1519418258983,0.926514,0.289063,0.247803
1519418259016,0.916260,0.277100,0.250488
1519418259074,0.923828,0.269775,0.251465
1519418259107,0.927734,0.272705,0.250244
1519418259115,0.924072,0.275146,0.250977
1519418259170,0.925293,0.278809,0.251709
1519418259204,0.933105,0.277100,0.244141
1519418259243,0.927490,0.277832,0.245361
1519418259252,0.929688,0.271729,0.244141
1519418259294,0.933838,0.274414,0.239746
1519418259332,0.926514,0.276123,0.260742
1519418259342,0.912354,0.270996,0.257080
1519418259389,0.923584,0.280029,0.247803
1519418259421,0.915283,0.284180,0.260498
1519418259453,0.922852,0.286133,0.258057
1519418259484,0.930420,0.283691,0.240967
1519418259516,0.930664,0.279053,0.248047
1519418259549,0.921631,0.270020,0.247559
1519418259582,0.919189,0.264160,0.249268
1519418259615,0.925293,0.266846,0.251465
1519418259661,0.927734,0.269531,0.255371
1519418259671,0.927979,0.270996,0.243408
1519418259696,0.919434,0.270020,0.247314
1519418259730,0.912354,0.273926,0.258545
1519418259763,0.934570,0.275879,0.251221
1519418259820,0.929932,0.274658,0.245850
1519418259829,0.931396,0.272705,0.242188
1519418259854,0.917725,0.270508,0.240234
1519418259886,0.923096,0.277832,0.249756
1519418259918,0.928467,0.281006,0.253662
1519418259951,0.924072,0.280273,0.249268
1519418260023,0.926270,0.284424,0.254639
1519418260029,0.922119,0.286133,0.250244
1519418260091,0.927246,0.275391,0.242432
1519418260151,0.930664,0.275146,0.238770
1519418260160,0.928955,0.268799,0.238770
1519418260168,0.920654,0.257080,0.233398
1519418260185,0.920410,0.260498,0.241211
1519418260219,0.918701,0.281738,0.252441
1519418260250,0.928711,0.282715,0.246338
1519418260285,0.934326,0.288330,0.252686
1519418260316,0.924316,0.285645,0.253418
1519418260349,0.927246,0.277344,0.250000
1519418260381,0.929688,0.262939,0.231201
1519418260415,0.930908,0.268311,0.235840
1519418260447,0.921387,0.264648,0.239502
1519418260478,0.927246,0.264160,0.229492
1519418260511,0.925781,0.280273,0.246826
1519418260525,0.936523,0.309082,0.239746
1519418260582,0.941162,0.333252,0.251465
1519418260614,0.933350,0.292480,0.246094
1519418260648,0.903564,0.239990,0.285156
1519418260681,0.900146,0.255371,0.261230
1519418260712,0.932129,0.235352,0.240723
1519418260745,0.936523,0.272949,0.247803
1519418260778,0.934082,0.280518,0.258301
1519418260787,0.918701,0.274658,0.270752
1519418260831,0.908203,0.279053,0.266602
1519418260863,0.916504,0.277344,0.253662
1519418260895,0.912109,0.279541,0.258057
1519418260928,0.915283,0.281738,0.253906
1519418260943,0.928955,0.268799,0.236816
1519418260975,0.927979,0.268311,0.250732
1519418261032,0.919678,0.268311,0.265381
1519418261044,0.928223,0.272705,0.274902
1519418261101,0.936523,0.291504,0.279785
1519418261110,0.917725,0.281494,0.276855
1519418261166,0.917725,0.278564,0.265625
1519418261195,0.911621,0.279053,0.252441
1519418261229,0.916504,0.274658,0.239502
1519418261263,0.919434,0.281250,0.248291
1519418261271,0.922852,0.284424,0.254150
1519418261323,0.929443,0.272705,0.230469
1519418261351,0.939453,0.276611,0.247314
1519418261365,0.931885,0.278320,0.262939
1519418261424,0.917236,0.249023,0.253174
1519418261438,0.918213,0.248047,0.245117
1519418261481,0.927490,0.243408,0.234863
1519418261514,0.939453,0.267822,0.229004
1519418261520,0.944336,0.278809,0.227783
1519418261578,0.929199,0.276123,0.230957
1519418261610,0.927002,0.268066,0.236328
1519418261642,0.924561,0.270264,0.236572
1519418261676,0.927734,0.268555,0.226074
1519418261690,0.945068,0.269043,0.223145
1519418261723,0.935791,0.281006,0.247314
1519418261757,0.932129,0.273438,0.256592
1519418261798,0.931885,0.267578,0.249512
1519418261830,0.929199,0.273193,0.256348
1519418261863,0.917480,0.277100,0.262451
1519418261894,0.916748,0.267822,0.230957
1519418261928,0.940186,0.268066,0.214111
1519418261960,0.943604,0.263916,0.214600
1519418261992,0.945557,0.271973,0.201904
1519418262028,0.942139,0.278320,0.207764
1519418262061,0.945313,0.265625,0.220947
1519418262093,0.933105,0.243652,0.210693
1519418262102,0.928223,0.253418,0.212646
1519418262157,0.933350,0.260010,0.219238
1519418262171,0.957764,0.255859,0.202637
1519418262219,0.986084,0.252930,0.195557
1519418262252,0.985352,0.242920,0.202148
1519418262284,0.961426,0.239502,0.206299
1519418262319,0.989990,0.236816,0.197998
1519418262348,1.009277,0.214600,0.189941
1519418262381,0.995850,0.212158,0.203125
1519418262414,1.027588,0.197998,0.194580
1519418262424,1.038086,0.169189,0.182617
1519418262476,1.011963,0.148682,0.170898
1519418262509,0.993164,0.145996,0.159912
1519418262517,0.998047,0.137939,0.145264
1519418262572,0.984375,0.377441,0.160156
1519418262605,0.980225,0.201904,0.147461
1519418262638,0.972168,-0.015869,0.165039
1519418262670,0.901367,-0.102539,0.117188
1519418262702,0.876221,0.070313,0.121826
1519418262736,0.884033,0.195068,0.128418
1519418262768,0.988281,0.030029,0.137207
1519418262800,0.980957,-0.067871,0.108154
1519418262832,0.965820,0.000977,0.141357
1519418262869,0.926514,0.024414,0.123047
1519418262897,0.909668,-0.023682,0.130127
1519418262931,0.893555,-0.026855,0.123779
1519418262963,0.906006,0.002686,0.131836
1519418262983,0.941895,-0.027588,0.105225
1519418263008,0.979248,-0.110596,0.080322
1519418263066,0.996094,0.038818,0.083984
1519418263071,1.009277,-0.015137,0.109131
1519418263139,0.962646,-0.072266,0.147705
1519418263206,0.994141,-0.044189,0.126953
1519418263211,1.013672,-0.032227,0.077148
1519418263271,1.036133,-0.096680,0.086426
1519418263280,1.058350,-0.116211,0.021729
1519418263289,1.021240,-0.072754,-0.024414
1519418263305,0.972168,-0.058838,0.004639
1519418263339,0.987549,-0.161621,0.019287
1519418263369,0.996338,-0.006592,0.027588
1519418263411,0.967773,-0.064209,-0.021240
1519418263443,0.930176,-0.110596,-0.028809
1519418263476,0.942139,-0.135986,-0.011963
1519418263500,0.964355,-0.064453,-0.026367
1519418263532,0.985352,-0.116455,-0.058105
1519418263567,1.002930,-0.113525,-0.061035
1519418263600,1.052490,-0.069092,-0.047119
1519418263632,1.065430,-0.098877,-0.120605
1519418263665,1.033936,-0.153320,-0.130371
1519418263701,1.005615,-0.211670,-0.048340
1519418263731,0.903809,-0.128662,-0.036865
1519418263764,0.903809,-0.212402,-0.085693
1519418263781,0.913574,-0.173340,-0.113525
1519418263817,0.985840,-0.048340,-0.091553
1519418263873,1.008301,-0.194336,-0.145264
1519418263881,0.997314,-0.185791,-0.179443
1519418263935,1.015625,-0.128418,-0.158447
1519418263945,0.989990,-0.172119,-0.180176
1519418264001,0.967773,-0.197510,-0.167725
1519418264034,0.954834,-0.157959,-0.147461
1519418264068,0.959717,-0.187988,-0.148438
1519418264077,0.953613,-0.207764,-0.155029
1519418264127,0.959717,-0.175537,-0.135742
1519418264158,0.975098,-0.187256,-0.137451
1519418264163,0.991699,-0.202148,-0.131104
1519418264218,0.970947,-0.201416,-0.104492
1519418264251,0.981201,-0.217285,-0.119629
1519418264284,0.958984,-0.237305,-0.150146
1519418264316,0.946045,-0.233398,-0.142578
1519418264347,0.968994,-0.217041,-0.127441
1519418264380,0.968994,-0.207520,-0.104980
1519418264413,0.988037,-0.208252,-0.088379
1519418264446,0.981689,-0.207520,-0.075928
1519418264478,0.953125,-0.178467,-0.031738
1519418264509,0.933105,-0.182617,0.004639
1519418264542,0.940674,-0.180664,0.031250
1519418264574,0.962646,-0.142334,0.048096
1519418264617,0.948730,-0.086914,0.061768
1519418264649,0.922363,-0.079834,0.090332
1519418264654,0.896240,-0.275879,0.102051
1519418264709,0.932129,-0.150879,0.090332
1519418264741,0.966064,-0.150879,0.101807
1519418264750,0.988037,-0.102539,0.136719
1519418264781,0.995361,-0.024414,0.196533
1519418264811,1.033691,-0.037598,0.195068
1519418264844,0.992920,-0.040527,0.152100
1519418264879,0.945557,-0.129150,0.206543
1519418264914,0.922852,-0.089111,0.218018
1519418264947,0.881348,-0.085693,0.259766
1519418264987,0.932861,-0.085449,0.372559
1519418265019,1.021484,-0.013184,0.411621
1519418265051,1.001221,0.023438,0.368408
1519418265084,0.944824,0.097412,0.286621
1519418265117,0.930176,0.192627,0.250732
1519418265150,0.894775,0.214355,0.226563
1519418265183,0.880615,0.196045,0.245850
1519418265214,0.890381,0.156006,0.378662
1519418265247,0.851807,0.128418,0.389648
1519418265280,0.811768,0.202393,0.210938
1519418265312,0.825684,0.264404,0.363281
1519418265344,0.859131,0.201660,0.474365
1519418265381,0.908936,0.222168,0.490967
1519418265392,0.965088,0.146240,0.462402
1519418265450,0.986572,0.167480,0.411865
1519418265482,0.976074,0.204834,0.372559
1519418265491,0.926270,0.233643,0.375244
1519418265544,0.878662,0.202881,0.403564
1519418265578,0.863525,0.191406,0.391602
1519418265610,0.898438,0.233887,0.378662
1519418265644,0.925049,0.279297,0.369141
1519418265677,0.916016,0.324951,0.385010
1519418265709,0.899414,0.314453,0.381348
1519418265717,0.901123,0.339111,0.394287
1519418265767,0.884277,0.298584,0.384277
1519418265776,0.892334,0.293701,0.374268
1519418265830,0.919922,0.269775,0.358154
1519418265861,0.930420,0.256592,0.335938
1519418265870,0.938232,0.260498,0.319336
1519418265927,0.931396,0.268311,0.290039
1519418265940,0.898926,0.270020,0.232422
1519418265973,0.879395,0.284180,0.237793
1519418266006,0.858643,0.281006,0.253906
1519418266060,0.875244,0.236816,0.205811
1519418266091,0.924561,0.248779,0.200928
1519418266125,0.953857,0.283203,0.233154
1519418266159,0.927002,0.298340,0.250244
1519418266189,0.897949,0.299316,0.234375
1519418266195,0.885742,0.317871,0.231689
1519418266277,0.887451,0.334961,0.256348
1519418266286,0.907227,0.323486,0.262695
1519418266344,0.917236,0.326416,0.275635
1519418266347,0.937744,0.309814,0.254150
1519418266387,0.961182,0.317383,0.245361
1519418266391,0.945557,0.331787,0.254395
1519418266423,0.925293,0.317139,0.241211
1519418266479,0.927002,0.301514,0.212646
1519418266484,0.911377,0.304688,0.205566
1519418266541,0.930664,0.316162,0.206299
1519418266577,0.944580,0.319336,0.218262
1519418266608,0.942139,0.313965,0.210449
1519418266622,0.941650,0.313232,0.200684
1519418266679,0.959961,0.322021,0.218018
1519418266688,0.965088,0.308350,0.222900
1519418266740,0.958496,0.295898,0.225342
1519418266772,0.937012,0.290283,0.217773
1519418266776,0.925781,0.290283,0.214600
1519418266833,0.912598,0.294189,0.213623
1519418266841,0.903564,0.296387,0.207764
1519418266871,0.906250,0.297852,0.194092
1519418266928,0.916748,0.308838,0.187500
1519418266941,0.941162,0.315186,0.188965
1519418266990,0.966553,0.317383,0.179443
1519418267023,0.975586,0.318115,0.173828
1519418267037,0.958984,0.321289,0.189209
1519418267070,0.963379,0.311035,0.201172
1519418267104,0.953369,0.272217,0.202881
1519418267137,0.938477,0.248779,0.199951
1519418267169,0.922363,0.250977,0.207031
1519418267226,0.899170,0.261230,0.216064
1519418267259,0.894287,0.259033,0.228271
1519418267268,0.905029,0.244629,0.229736
1519418267340,0.927979,0.233398,0.239258
1519418267348,0.920166,0.232178,0.256592
1519418267374,0.924316,0.234131,0.273438
1519418267407,0.938721,0.309082,0.275146
1519418267440,0.925537,0.327637,0.239502
1519418267453,0.918457,0.296143,0.223633
1519418267510,0.927979,0.276855,0.217041
1519418267516,0.933838,0.281494,0.204590
1519418267573,0.946289,0.287109,0.198242
1519418267605,0.932617,0.313232,0.209229
1519418267638,0.930420,0.307617,0.217041
1519418267671,0.944580,0.305176,0.216064
1519418267702,0.956543,0.303223,0.219482
1519418267735,0.952881,0.300049,0.212891
1519418267768,0.949463,0.313232,0.220703
1519418267800,0.943359,0.307373,0.226318
1519418267837,0.950195,0.298828,0.224365
1519418267845,0.944824,0.293457,0.229980
1519418267884,0.926270,0.281982,0.232178
1519418267916,0.931885,0.273193,0.230469
1519418267949,0.929199,0.268066,0.236328
1519418267983,0.915283,0.257568,0.231445
1519418268013,0.912598,0.252930,0.226074
1519418268046,0.911621,0.252686,0.224854
1519418268094,0.926758,0.252930,0.223877
1519418268102,0.937012,0.257080,0.223633
1519418268151,0.922363,0.259277,0.218506
1519418268185,0.923584,0.267822,0.222168
1519418268217,0.926270,0.272461,0.229736
1519418268248,0.910156,0.266602,0.226074
1519418268263,0.928711,0.271240,0.226563
1519418268296,0.939453,0.273438,0.225830
1519418268353,0.922607,0.275635,0.225586
1519418268385,0.947998,0.285156,0.223877
1519418268418,0.940918,0.288818,0.223145
1519418268422,0.934814,0.281738,0.226563
1519418268476,0.945801,0.279297,0.216309
1519418268508,0.947266,0.276123,0.216309
1519418268511,0.951904,0.275391,0.218506
1519418268567,0.950928,0.268555,0.202393
1519418268621,0.951416,0.265869,0.198975
1519418268630,0.947021,0.264404,0.192627
1519418268654,0.944580,0.262451,0.187256
1519418268697,0.935791,0.262451,0.188477
1519418268728,0.937744,0.254395,0.179199
1519418268760,0.933350,0.249756,0.181641
1519418268798,0.934082,0.245361,0.178711
1519418268830,0.941162,0.249023,0.177734
1519418268862,0.932617,0.250732,0.171387
1519418268896,0.929443,0.249512,0.177490
1519418268927,0.927734,0.256592,0.190674
1519418268961,0.915039,0.267822,0.207764
1519418268994,0.927246,0.259521,0.210938
1519418269001,0.931885,0.263672,0.214111
1519418269050,0.928223,0.269287,0.224365
1519418269084,0.927734,0.281738,0.234863
1519418269117,0.939453,0.285645,0.238037
1519418269147,0.948242,0.285400,0.241211
1519418269180,0.953125,0.283691,0.236572
1519418269213,0.952148,0.291016,0.236084
1519418269245,0.937012,0.296875,0.238037
1519418269279,0.942627,0.293457,0.226318
1519418269311,0.941650,0.291748,0.222900
1519418269384,0.939941,0.296387,0.213623
1519418269391,0.944580,0.291016,0.205078
1519418269450,0.943115,0.287598,0.195801
1519418269459,0.941650,0.282227,0.196777
1519418269508,0.947754,0.278076,0.191406
1519418269521,0.949219,0.279785,0.187988
1519418269525,0.933105,0.273193,0.187012
1519418269580,0.936523,0.265381,0.192383
1519418269584,0.936523,0.262695,0.194092
1519418269641,0.933838,0.257080,0.189941
1519418269650,0.928955,0.258789,0.192871
1519418269673,0.937012,0.262939,0.196533
1519418269732,0.943604,0.255859,0.197998
1519418269741,0.936035,0.257324,0.206055
1519418269798,0.936523,0.250732,0.204590
1519418269831,0.938477,0.255859,0.204590
1519418269862,0.940186,0.267578,0.212402
1519418269900,0.936279,0.268555,0.212646
1519418269906,0.935059,0.268311,0.206055
1519418269961,0.936768,0.273438,0.205078
1519418269995,0.935547,0.271729,0.206543
1519418270027,0.938721,0.279785,0.208740
1519418270060,0.938232,0.284668,0.205811
1519418270093,0.931885,0.283203,0.208496
1519418270125,0.932861,0.287354,0.212402
1519418270159,0.937500,0.281250,0.210449
1519418270167,0.932129,0.285156,0.215088
1519418270192,0.932129,0.283936,0.217529
1519418270224,0.933838,0.279541,0.216797
1519418270257,0.946045,0.287109,0.223877
1519418270288,0.936768,0.282227,0.233154
1519418270327,0.932129,0.276855,0.230225
1519418270359,0.928711,0.268799,0.227295
1519418270391,0.927246,0.264648,0.228027
1519418270425,0.933350,0.267090,0.223145
1519418270458,0.939697,0.270996,0.216309
1519418270491,0.946045,0.261719,0.212158
1519418270521,0.934082,0.265137,0.208496
1519418270554,0.931641,0.268311,0.207764
1519418270588,0.932129,0.268311,0.203857
1519418270620,0.922607,0.270020,0.202393
1519418270653,0.921387,0.272217,0.198975
1519418270686,0.927246,0.276855,0.198486
1519418270723,0.920166,0.284180,0.197998
1519418270737,0.913086,0.288574,0.201416
1519418270794,0.918213,0.288574,0.198486
1519418270827,0.929443,0.295898,0.201416
1519418270858,0.936523,0.302734,0.208252
1519418270892,0.954834,0.301758,0.213623
1519418270924,0.963135,0.296875,0.205811
1519418270956,0.968262,0.303711,0.226563
1519418270989,0.943604,0.288574,0.230957
1519418271022,0.937500,0.280029,0.229736
1519418271031,0.929199,0.275391,0.249023
1519418271081,0.942871,0.252441,0.246826
1519418271114,0.954102,0.260254,0.248535
1519418271122,0.961670,0.271240,0.240479
1519418271180,0.958252,0.265869,0.233398
1519418271189,0.952637,0.265381,0.231201
1519418271245,0.948730,0.264648,0.220215
1519418271277,0.934814,0.257080,0.215332
1519418271286,0.932373,0.267822,0.216309
1519418271339,0.928955,0.275391,0.223633
1519418271371,0.935791,0.264893,0.227051
1519418271404,0.979980,0.238037,0.206055
1519418271438,0.958740,0.231201,0.179688
1519418271471,0.930664,0.265625,0.170166
1519418271501,0.941895,0.286377,0.165039
1519418271534,0.935547,0.266357,0.145020
1519418271548,0.944092,0.261963,0.161621
1519418271608,0.952881,0.257080,0.166260
1519418271615,0.967285,0.259033,0.149902
1519418271665,1.006592,0.272705,0.186279
1519418271701,0.977295,0.268311,0.204102
1519418271711,0.959717,0.249268,0.212158
1519418271760,0.963623,0.243164,0.243652
1519418271769,0.976807,0.228516,0.269531
1519418271824,1.020508,0.212402,0.290283
1519418271855,0.985596,0.179443,0.287109
1519418271863,0.933594,0.153809,0.291992
1519418271919,0.898438,0.108398,0.254639
1519418271952,0.894531,0.133545,0.289063
1519418271966,0.917725,0.161377,0.299805
1519418272023,0.962891,0.046387,0.260010
1519418272056,0.985352,0.009766,0.227539
1519418272065,1.015625,-0.020508,0.232910
1519418272098,1.010010,-0.009766,0.221924
1519418272131,1.012451,-0.020752,0.261230
1519418272189,1.066162,-0.054932,0.251953
1519418272197,1.027344,-0.123779,0.196045
1519418272246,0.984375,-0.092285,0.241699
1519418272279,0.967773,-0.097168,0.252930
1519418272288,0.932617,-0.110107,0.216797
1519418272343,0.952393,-0.138184,0.231689
1519418272372,0.971924,-0.127197,0.222656
1519418272384,0.968994,-0.135742,0.215576
1519418272417,0.965576,-0.147705,0.216064
1519418272490,0.956543,-0.164551,0.190918
1519418272502,0.940674,-0.197510,0.187988
1519418272555,0.878174,-0.198242,0.187500
1519418272558,0.874756,-0.202637,0.191650
1519418272624,0.880859,-0.224854,0.176270
1519418272632,0.935547,-0.252686,0.088623
1519418272666,0.906982,-0.321777,0.006592
1519418272698,0.898438,-0.357666,-0.042236
1519418272732,0.896484,-0.370850,0.051270
1519418272764,0.896973,-0.248047,0.215576
1519418272772,0.850342,-0.321777,0.319824
1519418272822,0.908447,-0.350586,0.247803
1519418272855,0.890381,-0.403076,0.135986
1519418272863,0.865723,-0.519043,0.160645
1519418272916,0.802734,-0.315186,0.164307
1519418272949,0.813965,-0.397705,0.113281
1519418272984,0.832764,-0.372314,0.071045
1519418273016,0.890137,-0.349609,0.042236
1519418273047,0.921631,-0.369629,0.018799
1519418273080,0.928223,-0.393311,0.031006
1519418273112,0.896729,-0.419678,0.066650
1519418273146,0.914795,-0.445068,0.055420
1519418273178,0.930420,-0.450928,0.043457
1519418273219,0.920654,-0.409912,0.075684
1519418273252,0.926270,-0.378906,0.079102
1519418273261,0.906006,-0.368408,0.087402
1519418273315,0.916016,-0.346680,0.082031
1519418273347,0.946045,-0.366699,0.061035
1519418273355,0.920898,-0.375977,0.062256
1519418273406,0.894531,-0.352051,0.076660
1519418273410,0.906006,-0.346924,0.086182
1519418273444,0.923828,-0.351563,0.080811
1519418273502,0.918213,-0.360596,0.060303
1519418273517,0.898682,-0.353027,0.067139
1519418273564,0.899658,-0.313477,0.081787
1519418273598,0.908447,-0.377686,0.075928
1519418273612,0.885498,-0.371826,0.071289
1519418273645,0.921631,-0.330811,0.088135
1519418273678,0.958496,-0.374023,0.087402
1519418273710,0.951172,-0.388672,0.088623
1519418273743,0.924805,-0.394287,0.083008
1519418273799,0.931641,-0.378662,0.073730
1519418273833,0.922363,-0.368896,0.073486
1519418273841,0.915039,-0.350342,0.096680
1519418273890,0.883789,-0.334961,0.110840
1519418273923,0.893066,-0.341064,0.107910
1519418273929,0.925537,-0.323975,0.105713
1519418273997,0.914795,-0.345703,0.117432
1519418274005,0.879639,-0.364258,0.125488
1519418274041,0.878906,-0.362793,0.100586
1519418274074,0.930664,-0.351074,0.079346
1519418274107,0.948730,-0.344482,0.089844
1519418274140,0.947510,-0.376709,0.082031
1519418274173,0.914063,-0.401855,0.065674
1519418274203,0.895996,-0.418213,0.048096
1519418274237,0.887939,-0.380127,0.060791
1519418274270,0.882568,-0.368164,0.063965
1519418274303,0.877441,-0.359375,0.078613
1519418274333,0.901611,-0.310547,0.076660
1519418274365,0.951172,-0.365723,0.056641
1519418274398,0.946045,-0.362549,0.071289
1519418274412,0.919434,-0.367432,0.072754
1519418274470,0.906006,-0.397461,0.053223
1519418274502,0.924561,-0.377441,0.062012
1519418274505,0.945068,-0.370605,0.072510
1519418274561,0.934814,-0.361328,0.057129
1519418274576,0.917480,-0.361816,0.073975
1519418274630,0.917725,-0.357666,0.065430
1519418274662,0.936035,-0.349854,0.057129
1519418274671,0.936279,-0.328125,0.077148
1519418274726,0.906006,-0.361084,0.092041
1519418274758,0.880127,-0.361328,0.104248
1519418274791,0.875732,-0.333496,0.119141
1519418274823,0.886475,-0.329102,0.106201
1519418274856,0.934326,-0.298828,0.122803
1519418274887,0.997559,-0.337402,0.091309
1519418274920,0.996338,-0.339844,0.066895
1519418274952,0.915039,-0.360840,0.118408
1519418274985,0.853271,-0.344238,0.129395
1519418274990,0.844971,-0.350830,0.120117
1519418275045,0.943848,-0.298096,0.107422
1519418275077,0.949707,-0.292236,0.091064
1519418275085,0.960693,-0.290771,0.109131
1519418275141,0.916748,-0.323730,0.099365
1519418275174,0.910400,-0.343750,0.105225
1519418275207,0.938477,-0.349854,0.088623
1519418275220,0.920410,-0.361816,0.082764
1519418275253,0.933105,-0.312500,0.102539
1519418275286,0.948242,-0.325928,0.099854
1519418275348,0.958252,-0.316895,0.099365
1519418275378,0.938965,-0.305176,0.106934
1519418275408,0.922607,-0.282959,0.112793
1519418275441,0.915527,-0.272461,0.128662
1519418275473,0.941406,-0.291748,0.110840
1519418275505,0.928467,-0.291260,0.115967
1519418275537,0.917480,-0.306152,0.142334
1519418275573,0.930176,-0.327881,0.125977
1519418275579,0.942139,-0.334473,0.096191
1519418275646,0.952148,-0.358887,0.079346
1519418275651,0.946289,-0.361328,0.062256
1519418275714,0.934326,-0.333008,0.059570
1519418275719,0.939209,-0.318848,0.068359
1519418275751,0.931641,-0.313721,0.071289
1519418275783,0.917725,-0.290283,0.080078
1519418275815,0.899170,-0.274170,0.109375
1519418275848,0.908936,-0.261719,0.127197
1519418275881,0.919922,-0.262207,0.123535
1519418275913,0.913330,-0.270020,0.095215
1519418275946,0.921387,-0.266846,0.116699
1519418275981,0.932373,-0.265381,0.119385
1519418276012,0.931641,-0.295166,0.101074
1519418276018,0.933350,-0.310059,0.084717
1519418276076,0.934326,-0.297363,0.100342
1519418276108,0.954102,-0.294434,0.095703
1519418276115,0.956787,-0.320313,0.072021
1519418276172,0.974121,-0.333008,0.041260
1519418276206,0.958496,-0.265869,0.080566
1519418276238,0.952637,-0.250000,0.098877
1519418276271,0.938477,-0.251465,0.083496
1519418276300,0.914551,-0.214355,0.118652
1519418276333,0.909668,-0.220459,0.118164
1519418276365,0.912598,-0.192139,0.119873
1519418276398,0.887695,-0.144775,0.159912
1519418276430,0.895264,-0.125977,0.164063
1519418276462,0.931885,-0.110107,0.174316
1519418276480,0.958496,-0.094238,0.170166
1519418276518,0.993408,-0.095703,0.169189
1519418276549,0.981934,-0.122314,0.157715
1519418276582,0.964844,-0.142578,0.133057
1519418276615,0.977539,-0.121338,0.134033
1519418276647,0.998779,-0.098633,0.134766
1519418276680,1.025879,-0.071533,0.123047
1519418276713,1.062500,-0.082031,0.129395
1519418276746,1.051270,-0.072754,0.132324
1519418276778,1.033203,-0.072021,0.159668
1519418276811,1.024414,0.027832,0.182617
1519418276843,0.993896,-0.059814,0.223145
1519418276874,0.967529,0.007324,0.228516
1519418276916,0.961914,0.062500,0.238770
1519418276949,0.955322,0.091553,0.246094
1519418276981,0.918945,0.113037,0.261719
1519418277014,0.929443,0.137207,0.270020
1519418277019,0.917236,0.122559,0.270020
1519418277072,0.919678,0.118896,0.285400
1519418277106,0.938721,0.126465,0.319092
1519418277112,0.950439,0.162354,0.355957
1519418277169,0.963379,0.144287,0.363770
1519418277202,1.005859,0.167236,0.350098
1519418277234,1.013184,0.186523,0.366943
1519418277266,0.896484,0.094238,0.347168
1519418277299,0.854980,0.147705,0.279785
1519418277312,0.868896,0.209717,0.262207
1519418277351,0.879150,0.248291,0.239990
1519418277403,0.872314,0.254395,0.223877
1519418277434,0.876953,0.260010,0.227051
1519418277442,0.907715,0.274414,0.214844
1519418277478,0.957520,0.294189,0.205566
1519418277510,0.996338,0.356445,0.213867
1519418277542,1.039795,0.351807,0.218262
1519418277579,1.073242,0.247314,0.244141
1519418277613,1.024902,0.214355,0.270020
1519418277645,0.956299,0.222656,0.251221
1519418277678,0.915283,0.292480,0.235596
1519418277691,0.884521,0.271240,0.221924
1519418277758,0.868896,0.218994,0.219238
1519418277763,0.899170,0.186279,0.200928
1519418277817,0.932373,0.214844,0.197021
1519418277849,0.931396,0.261963,0.157959
1519418277857,0.907959,0.315186,0.149658
1519418277912,0.883301,0.341309,0.144043
1519418277945,0.855469,0.359619,0.157959
1519418277977,0.872559,0.380127,0.181885
1519418278011,0.902588,0.395508,0.187256
1519418278042,0.933838,0.380615,0.188477
1519418278077,0.963379,0.352539,0.189941
1519418278112,1.015869,0.346191,0.221191
1519418278125,1.016113,0.354980,0.232666
1519418278183,0.982666,0.339844,0.221680
1519418278188,0.954346,0.318604,0.225098
1519418278241,0.982178,0.335205,0.250000
1519418278274,0.992676,0.324951,0.268311
1519418278279,0.964844,0.315674,0.277100
1519418278332,0.891846,0.292725,0.276855
1519418278340,0.898682,0.281494,0.273682
1519418278396,0.925293,0.263184,0.290283
1519418278429,0.935303,0.140869,0.314453
1519418278437,0.960938,0.173828,0.284180
1519418278495,0.952148,0.208008,0.259277
1519418278527,0.979004,0.233398,0.251953
1519418278541,0.966309,0.285889,0.247314
1519418278573,0.956299,0.305176,0.228516
1519418278632,0.928711,0.259033,0.208740
1519418278638,0.927002,0.261963,0.210449
1519418278694,0.919678,0.267334,0.205322
1519418278767,0.914551,0.288574,0.189941
1519418278772,0.911621,0.291260,0.186279
1519418278835,0.897217,0.294922,0.183838
1519418278840,0.884277,0.305664,0.193848
1519418278889,0.904053,0.296631,0.183594
1519418278895,0.928955,0.287354,0.188232
1519418278924,0.946533,0.281738,0.194824
1519418278929,0.940674,0.290283,0.206543
1519418278970,0.929932,0.276367,0.212891
1519418279003,0.917725,0.266113,0.218506
1519418279036,0.928467,0.264404,0.214355
1519418279067,0.920410,0.280273,0.246582
1519418279100,0.922607,0.272217,0.269531
1519418279132,0.923584,0.256836,0.279053
1519418279165,0.939941,0.265625,0.300049
1519418279198,0.951660,0.281250,0.305176
1519418279230,0.935547,0.302979,0.288818
1519418279264,0.930664,0.291504,0.259766
1519418279297,0.925293,0.273926,0.233887
1519418279329,0.936523,0.277100,0.218994
1519418279349,0.931641,0.287109,0.216553
1519418279399,0.927246,0.300537,0.208496
1519418279405,0.929688,0.302246,0.206787
1519418279439,0.934326,0.293213,0.205566
1519418279496,0.920166,0.282715,0.195068
1519418279503,0.929199,0.284424,0.194336
1519418279560,0.944580,0.280762,0.193604
1519418279570,0.952148,0.279297,0.198730
1519418279626,0.954102,0.277832,0.201904
1519418279632,0.940918,0.278564,0.212402
1519418279691,0.921875,0.267090,0.223389
1519418279723,0.920898,0.259277,0.229492
1519418279737,0.924316,0.259766,0.229004
1519418279769,0.925049,0.262695,0.228516
1519418279826,0.931396,0.266113,0.224121
1519418279832,0.941895,0.268311,0.221191
1519418279889,0.940430,0.267578,0.211670
1519418279921,0.943359,0.272705,0.209717
1519418279927,0.943604,0.277832,0.206787
1519418279979,0.943848,0.271240,0.197754
1519418279984,0.944824,0.269043,0.195068
1519418280017,0.952148,0.267578,0.193604
1519418280073,0.953857,0.265869,0.178223
1519418280081,0.949707,0.268311,0.176270
1519418280139,0.956299,0.274902,0.178467
1519418280154,0.955811,0.269531,0.176270
1519418280186,0.949463,0.261230,0.182129
1519418280220,0.966797,0.267090,0.198242
1519418280254,0.920654,0.246094,0.177490
1519418280292,0.898193,0.253906,0.187744
1519418280325,0.892090,0.270996,0.195313
1519418280359,0.902100,0.275146,0.201416
1519418280394,0.932373,0.273438,0.210693
1519418280400,0.940918,0.268555,0.215576
1519418280458,0.934570,0.281982,0.227051
1519418280492,0.928467,0.281738,0.227051
1519418280500,0.934814,0.283691,0.224609
1519418280556,0.935791,0.288574,0.229980
1519418280587,0.940918,0.295898,0.226807
1519418280620,0.940918,0.295410,0.219238
1519418280652,0.939697,0.303223,0.217285
1519418280685,0.935303,0.306152,0.216064
1519418280718,0.930176,0.310303,0.221680
1519418280750,0.938232,0.302002,0.210693
1519418280782,0.935059,0.303223,0.216064
1519418280816,0.936768,0.304199,0.216064
1519418280847,0.943604,0.296387,0.212891
1519418280880,0.939697,0.292480,0.205322
1519418280913,0.935547,0.288818,0.208740
1519418280945,0.937744,0.281494,0.210938
1519418280986,0.932617,0.275146,0.209229
1519418280992,0.933594,0.270752,0.204102
1519418281046,0.941406,0.271973,0.206055
1519418281077,0.928467,0.266113,0.207520
1519418281083,0.927490,0.266357,0.202881
1519418281138,0.923340,0.266602,0.196777
1519418281170,0.936035,0.271729,0.200195
1519418281201,0.946777,0.281982,0.201172
1519418281209,0.952148,0.282959,0.214355
1519418281266,0.953613,0.269531,0.211670
1519418281298,0.949951,0.257813,0.215332
1519418281331,0.928711,0.253662,0.209473
1519418281372,0.920166,0.260986,0.208252
1519418281383,0.917725,0.260986,0.205566
1519418281420,0.924805,0.261719,0.195313
1519418281467,0.939941,0.272217,0.205322
1519418281501,0.951660,0.268311,0.205322
1519418281531,0.945557,0.268555,0.206055
1519418281562,0.932617,0.270264,0.207275
1519418281567,0.918945,0.267334,0.209717
1519418281597,0.929199,0.269531,0.211426
1519418281658,0.933350,0.272217,0.217773
1519418281663,0.931152,0.269775,0.214844
1519418281717,0.932373,0.276123,0.211426
1519418281750,0.940674,0.279053,0.218750
1519418281783,0.941162,0.276855,0.216064
1519418281795,0.934570,0.276367,0.208252
1519418281868,0.927734,0.273926,0.209717
1519418281877,0.929932,0.272705,0.207520
1519418281935,0.932129,0.275879,0.217041
1519418281940,0.936035,0.274170,0.204590
1519418281987,0.936279,0.279053,0.210449
1519418281999,0.938232,0.288818,0.210938
1519418282027,0.932861,0.291016,0.210449
1519418282058,0.924316,0.294189,0.212646
1519418282090,0.936768,0.289063,0.211182
1519418282123,0.936768,0.289063,0.214600
1519418282156,0.938477,0.292725,0.212891
1519418282190,0.935059,0.290771,0.206543
1519418282206,0.930664,0.292725,0.208984
1519418282263,0.933594,0.291504,0.208008
1519418282295,0.930664,0.289795,0.201660
1519418282333,0.931641,0.291748,0.203613
1519418282365,0.935547,0.295166,0.200928
1519418282399,0.933594,0.290771,0.202393
1519418282403,0.931152,0.291016,0.199707
1519418282457,0.930420,0.287109,0.201660
1519418282490,0.946533,0.283936,0.192871
1519418282521,0.942871,0.280273,0.186279
1519418282527,0.916992,0.279297,0.179688
1519418282579,0.910400,0.291992,0.185303
1519418282611,0.925537,0.294678,0.196533
1519418282625,0.937988,0.283936,0.189941
1519418282701,0.927002,0.306396,0.190186
1519418282709,0.923096,0.318848,0.197998
1519418282734,0.925049,0.317383,0.192871
1519418282766,0.935791,0.312500,0.193115
1519418282800,0.944824,0.309082,0.187256
1519418282833,0.951660,0.315918,0.187988
1519418282865,0.939453,0.320801,0.183594
1519418282897,0.936279,0.318115,0.183350
1519418282930,0.942139,0.305908,0.187256
1519418282961,0.934814,0.299561,0.185547
1519418282994,0.933594,0.303467,0.190674
1519418283027,0.935303,0.294189,0.186523
1519418283067,0.944824,0.290771,0.183350
1519418283100,0.944824,0.291260,0.186768
1519418283106,0.938232,0.288330,0.180664
1519418283163,0.935791,0.287842,0.180664
1519418283195,0.944580,0.291748,0.184570
1519418283201,0.934570,0.290771,0.189209
1519418283259,0.928223,0.295654,0.182373
1519418283271,0.934082,0.301270,0.175049
1519418283313,0.923096,0.294189,0.168701
1519418283346,0.923340,0.305908,0.163086
1519418283378,0.941650,0.323242,0.167480
1519418283410,0.935059,0.315186,0.163574
1519418283442,0.951416,0.319824,0.166992
1519418283487,0.955078,0.328369,0.178467
1519418283517,0.965576,0.317139,0.191895
1519418283550,0.959961,0.296143,0.188477
1519418283580,0.954102,0.294189,0.191406
1519418283588,0.942139,0.302979,0.207520
1519418283645,0.917725,0.307861,0.220703
1519418283678,0.914551,0.293213,0.214844
1519418283687,0.914307,0.280762,0.230713
1519418283742,0.945801,0.275391,0.238770
1519418283774,0.970947,0.276611,0.233887
1519418283807,0.986572,0.264404,0.216797
1519418283840,0.978027,0.258789,0.207520
1519418283853,0.955322,0.272217,0.197021
1519418283887,0.938721,0.269531,0.185791
1519418283943,0.930908,0.257568,0.174316
1519418283980,0.911865,0.260254,0.169922
1519418283986,0.915283,0.266357,0.170166
1519418284020,0.933594,0.273193,0.177002
1519418284053,0.934326,0.261230,0.171631
1519418284083,0.926025,0.252441,0.163574
1519418284142,0.943359,0.257813,0.157715
1519418284175,0.973389,0.278320,0.183838
1519418284183,0.997070,0.281982,0.194824
1519418284232,1.003906,0.252686,0.198242
1519418284269,0.983643,0.233887,0.203125
1519418284278,0.947021,0.237793,0.222168
1519418284341,0.901855,0.239990,0.232178
1519418284350,0.894043,0.218994,0.218506
1519418284373,0.908203,0.202393,0.216797
1519418284433,0.946533,0.220459,0.218750
1519418284444,0.963135,0.239746,0.214600
1519418284466,0.957764,0.238770,0.202148
1519418284524,0.948242,0.245850,0.200195
1519418284555,0.950684,0.245117,0.206299
1519418284587,0.955078,0.237305,0.209961
1519418284620,0.957031,0.233887,0.212402
1519418284653,0.958740,0.231201,0.205811
1519418284686,0.954834,0.238770,0.203125
1519418284701,0.916748,0.235352,0.206299
1519418284734,0.912354,0.231934,0.191406
1519418284766,0.916992,0.254883,0.215820
1519418284799,0.927002,0.261475,0.252441
1519418284831,0.906982,0.236328,0.262451
1519418284864,0.902832,0.236816,0.257568
1519418284921,0.918701,0.243164,0.298096
1519418284930,0.931885,0.227051,0.302002
1519418284995,0.947754,0.202148,0.309082
1519418285000,0.939209,0.192871,0.311523
1519418285063,0.934570,0.187744,0.308350
1519418285071,0.930664,0.195801,0.316895
1519418285107,0.925049,0.205322,0.319092
1519418285121,0.937988,0.184326,0.294678
1519418285154,0.972412,0.174805,0.285156
1519418285187,0.974609,0.196045,0.297363
1519418285223,0.966064,0.187500,0.288574
1519418285264,0.973145,0.182129,0.279053
1519418285297,0.961426,0.174805,0.288086
1519418285328,0.966064,0.158691,0.282715
1519418285336,0.961426,0.149902,0.273193
1519418285386,0.949463,0.166016,0.266846
1519418285420,1.006104,0.172119,0.283203
1519418285450,1.010010,0.148926,0.291748
1519418285485,0.956055,0.134766,0.282227
1519418285518,0.916016,0.120117,0.289063
1519418285530,0.889160,0.105225,0.291016
1519418285587,0.885498,0.083496,0.268311
1519418285593,0.904053,0.111572,0.284424
1519418285650,0.923584,0.147949,0.298096
1519418285683,0.933594,0.148193,0.293457
1519418285715,0.924805,0.134766,0.279541
1519418285749,0.915527,0.141602,0.277100
1519418285781,0.901855,0.126221,0.265381
1519418285815,0.888916,0.119873,0.247803
1519418285848,0.884521,0.140625,0.237549
1519418285880,0.890381,0.155273,0.265137
1519418285912,0.891113,0.155762,0.266602
1519418285920,0.885742,0.139893,0.253906
1519418285971,0.887451,0.147705,0.264404
1519418285979,0.898193,0.162842,0.298340
1519418286007,0.910400,0.165527,0.318359
1519418286067,0.941406,0.160889,0.335449
1519418286097,0.949951,0.148438,0.334473
1519418286132,0.941406,0.138916,0.346191
1519418286166,0.918945,0.138428,0.350830
1519418286178,0.910156,0.152832,0.354004
1519418286208,0.931885,0.150391,0.354980
1519418286263,0.935303,0.144287,0.319092
1519418286296,0.931396,0.165039,0.306396
1519418286330,0.929199,0.190674,0.309814
1519418286343,0.922852,0.220459,0.327148
1519418286403,0.916504,0.220215,0.327393
1519418286411,0.911865,0.205811,0.311279
1519418286465,0.923828,0.210938,0.331055
1519418286497,0.937988,0.213867,0.352783
1519418286506,0.947021,0.209717,0.360840
1519418286565,0.966064,0.211426,0.354492
1519418286572,0.965576,0.220215,0.352051
1519418286598,0.947754,0.223633,0.344238
1519418286657,0.910400,0.223389,0.324951
1519418286665,0.916260,0.223389,0.311768
1519418286692,0.932129,0.229248,0.322266
1519418286749,0.923828,0.226074,0.324707
1519418286762,0.913330,0.230469,0.320068
1519418286795,0.906250,0.235107,0.330566
1519418286827,0.905029,0.237061,0.338379
1519418286859,0.903564,0.237549,0.340332
1519418286893,0.903320,0.245361,0.348145
1519418286925,0.901367,0.249023,0.345459
1519418286981,0.895508,0.256104,0.359131
1519418286987,0.908203,0.257813,0.359619
1519418287041,0.902588,0.272949,0.377197
1519418287072,0.889893,0.264893,0.377686
1519418287078,0.889404,0.288330,0.383789
1519418287106,0.890137,0.287109,0.382324
1519418287143,0.895264,0.295410,0.384277
1519418287177,0.902588,0.282471,0.377441
1519418287209,0.896973,0.265137,0.351807
1519418287242,0.897461,0.257324,0.354736
1519418287274,0.903076,0.263672,0.365234
1519418287306,0.897949,0.246094,0.364502
1519418287366,0.884766,0.242920,0.368408
1519418287394,0.883545,0.234131,0.353271
1519418287402,0.889893,0.237549,0.348145
1519418287459,0.902588,0.240723,0.352051
1519418287492,0.911377,0.240479,0.354248
1519418287525,0.899658,0.243408,0.358643
1519418287533,0.892578,0.239502,0.352539
1519418287558,0.884033,0.234131,0.349609
1519418287623,0.899414,0.234863,0.337646
1519418287628,0.896973,0.243164,0.335693
1519418287660,0.892334,0.251709,0.346680
1519418287694,0.905762,0.248535,0.347656
1519418287727,0.898193,0.246582,0.359619
1519418287759,0.895020,0.243408,0.363525
1519418287792,0.906738,0.241455,0.364014
1519418287822,0.901367,0.248535,0.372559
1519418287854,0.889160,0.230713,0.375732
1519418287910,0.908936,0.232178,0.361816
1519418287944,0.907959,0.224854,0.352539
1519418287976,0.904297,0.218994,0.342529
1519418287989,0.906738,0.207764,0.323975
1519418288021,0.907715,0.210938,0.325928
1519418288054,0.909668,0.220947,0.335449
1519418288127,0.906982,0.210938,0.335449
1519418288132,0.903809,0.215820,0.343750
1519418288194,0.906250,0.220459,0.343018
1519418288199,0.908203,0.225586,0.336914
1519418288228,0.908447,0.231201,0.335449
1519418288237,0.897217,0.236816,0.343506
1519418288291,0.888672,0.234375,0.351318
1519418288322,0.896240,0.232910,0.350098
1519418288354,0.900635,0.246094,0.351318
1519418288390,0.900635,0.253418,0.351807
1519418288401,0.902832,0.256836,0.350342
1519418288434,0.927979,0.258057,0.354980
1519418288468,0.904785,0.271484,0.373535
1519418288524,0.888428,0.263672,0.377930
1519418288532,0.876709,0.255615,0.377441
1519418288582,0.877930,0.262451,0.372559
1519418288614,0.885742,0.268066,0.354004
1519418288617,0.905518,0.261475,0.334961
1519418288677,0.918945,0.250000,0.322266
1519418288685,0.912598,0.236816,0.316162
1519418288739,0.914063,0.220215,0.320801
1519418288772,0.914063,0.210449,0.340820
1519418288805,0.921631,0.210693,0.343994
1519418288818,0.926758,0.216797,0.343262
1519418288854,0.916992,0.220703,0.332764
1519418288887,0.909424,0.228027,0.330811
1519418288918,0.892578,0.239502,0.329102
1519418288963,0.881348,0.251709,0.327637
1519418288996,0.903564,0.253906,0.322510
1519418289029,0.910400,0.252686,0.339355
1519418289070,0.912598,0.256836,0.355957
1519418289099,0.908691,0.253662,0.358154
1519418289102,0.901123,0.239014,0.335449
1519418289159,0.902100,0.223389,0.312256
1519418289168,0.906982,0.224609,0.291748
1519418289196,0.921143,0.222168,0.284912
1519418289253,0.936279,0.221680,0.290771
1519418289287,0.933838,0.220215,0.299561
1519418289320,0.928467,0.218506,0.303223
1519418289353,0.919922,0.226563,0.322754
1519418289385,0.920898,0.233643,0.321777
1519418289417,0.915771,0.239746,0.326416
1519418289450,0.914063,0.242432,0.319824
1519418289493,0.920166,0.243652,0.322266
1519418289518,0.918945,0.248291,0.322998
1519418289546,0.920410,0.241699,0.324951
1519418289579,0.922363,0.232666,0.328369
1519418289610,0.932861,0.228516,0.328125
1519418289644,0.920166,0.234619,0.331787
1519418289676,0.913330,0.238037,0.329834
1519418289685,0.916992,0.242676,0.332520
1519418289736,0.917236,0.249268,0.335693
1519418289769,0.907227,0.230469,0.321289
1519418289801,0.914063,0.243896,0.322510
1519418289832,0.912109,0.230469,0.326172
1519418289864,0.904297,0.233154,0.326904
1519418289898,0.910889,0.226807,0.314453
1519418289932,0.905029,0.226074,0.313721
1519418289963,0.899902,0.241943,0.318359
1519418289995,0.898438,0.232178,0.316895
1519418290028,0.909180,0.240479,0.321045
1519418290044,0.908447,0.248779,0.331787
1519418290100,0.898438,0.240723,0.337891
1519418290133,0.900635,0.237793,0.342773
1519418290166,0.908691,0.230957,0.340332
1519418290174,0.921875,0.232178,0.332275
1519418290225,0.919922,0.224609,0.328857
1519418290258,0.915771,0.224121,0.328369
1519418290266,0.906250,0.219971,0.326172
1519418290316,0.901855,0.230957,0.328125
1519418290349,0.911133,0.231689,0.331055
1519418290381,0.910400,0.234619,0.334961
1519418290413,0.910889,0.235840,0.336426
1519418290446,0.906738,0.235840,0.341064
1519418290460,0.919189,0.230713,0.345947
1519418290518,0.934326,0.226563,0.348145
1519418290550,0.919189,0.215332,0.336670
1519418290582,0.905273,0.219482,0.319336
1519418290614,0.893799,0.228516,0.312988
1519418290646,0.897217,0.247070,0.312012
1519418290680,0.903320,0.263184,0.318359
1519418290713,0.912842,0.249512,0.347900
1519418290745,0.927979,0.236084,0.371094
1519418290754,0.925293,0.216797,0.361328
1519418290803,0.928467,0.197266,0.327637
1519418290846,0.913818,0.194580,0.299072
1519418290854,0.893311,0.209473,0.300049
1519418290892,0.904297,0.246582,0.326416
1519418290925,0.923828,0.259521,0.350586
1519418290955,0.926270,0.239258,0.346436
1519418290988,0.904053,0.247070,0.343262
1519418291024,0.893311,0.221924,0.333984
1519418291057,0.899658,0.231201,0.340088
1519418291090,0.902832,0.249512,0.343018
1519418291121,0.908203,0.245605,0.354492
1519418291154,0.904541,0.241211,0.345459
1519418291228,0.912842,0.236572,0.334717
1519418291236,0.924561,0.245850,0.329102
1519418291352,0.928955,0.236084,0.329346
1519418291362,0.897217,0.244141,0.381836
1519418291370,0.900635,0.250732,0.400879
1519418291378,0.891357,0.224854,0.381592
1519418291390,0.897705,0.218506,0.318604
1519418291419,0.902100,0.205078,0.281494
1519418291423,0.904785,0.206787,0.270264
1519418291479,0.912598,0.197754,0.288330
1519418291512,0.918945,0.195557,0.335205
1519418291545,0.925537,0.210205,0.368164
1519418291577,0.911133,0.228271,0.375244
1519418291608,0.899170,0.235596,0.372803
1519418291660,0.894775,0.234131,0.359863
1519418291667,0.918701,0.236084,0.322998
1519418291693,0.931885,0.232910,0.303711
1519418291734,0.912598,0.211426,0.307617
1519418291768,0.901123,0.178955,0.316162
1519418291802,0.911377,0.170654,0.337158
1519418291834,0.917236,0.212891,0.335693
1519418291866,0.918213,0.229492,0.330811
1519418291898,0.906494,0.231445,0.343018
1519418291907,0.913818,0.240234,0.348877
1519418291962,0.913330,0.239258,0.353027
1519418291998,0.917725,0.239014,0.348877
1519418292003,0.925537,0.230469,0.347412
1519418292059,0.911133,0.224365,0.347656
1519418292093,0.891113,0.223145,0.340088
1519418292124,0.899170,0.250244,0.339111
1519418292137,0.916748,0.238281,0.324707
1519418292171,0.912354,0.242676,0.313232
1519418292203,0.899170,0.228271,0.328857
1519418292235,0.900635,0.221680,0.343506
1519418292293,0.906250,0.219727,0.348145
1519418292327,0.931152,0.215332,0.353516
1519418292359,0.946289,0.216309,0.338379
1519418292372,0.930176,0.212646,0.326660
1519418292421,0.906494,0.217773,0.312500
1519418292455,0.908691,0.212402,0.307617
1519418292488,0.911621,0.228271,0.327393
1519418292496,0.925049,0.231689,0.330322
1519418292550,0.910156,0.228760,0.323975
1519418292554,0.893799,0.230957,0.319336
1519418292584,0.896973,0.239258,0.329834
1519418292617,0.913574,0.239746,0.327881
1519418292649,0.916260,0.246094,0.334229
1519418292708,0.910156,0.235107,0.339600
1519418292742,0.904541,0.222168,0.336914
1519418292774,0.906250,0.228516,0.340820
1519418292781,0.913818,0.226807,0.333984
1519418292839,0.914795,0.236572,0.333008
1519418292873,0.912842,0.236572,0.339600
1519418292905,0.907227,0.233154,0.348145
1519418292942,0.910645,0.224854,0.342773
1519418292954,0.910889,0.220703,0.343994
1519418292985,0.907715,0.221191,0.336182
1519418293018,0.912842,0.230469,0.323975
1519418293052,0.914795,0.229004,0.331543
1519418293085,0.910645,0.217529,0.343994
1519418293116,0.906494,0.221924,0.346191
1519418293150,0.908203,0.220703,0.338623
1519418293183,0.915771,0.221680,0.327881
1519418293215,0.920898,0.239258,0.337402
1519418293248,0.914551,0.243164,0.355957
1519418293280,0.915283,0.226563,0.345703
1519418293313,0.899658,0.213867,0.322998
1519418293345,0.899902,0.220703,0.327637
1519418293386,0.904053,0.229004,0.347168
1519418293418,0.900146,0.239746,0.354004
1519418293450,0.908203,0.238770,0.343018
1519418293483,0.911865,0.232910,0.338867
1519418293514,0.913086,0.227539,0.339355
1519418293518,0.909668,0.226074,0.341797
1519418293548,0.905762,0.231445,0.343994
1519418293605,0.906982,0.233887,0.343750
1519418293610,0.910889,0.232910,0.339600
1519418293646,0.911621,0.222412,0.342041
1519418293704,0.910645,0.230469,0.334473
1519418293738,0.916504,0.224854,0.325928
1519418293751,0.910400,0.216309,0.318848
1519418293783,0.900635,0.218262,0.321777
1519418293817,0.914307,0.230713,0.329834
1519418293849,0.915283,0.242432,0.347900
1519418293881,0.905518,0.232422,0.341064
1519418293918,0.899902,0.229980,0.344971
1519418293950,0.906250,0.234131,0.348633
1519418293981,0.914551,0.230957,0.337402
1519418294019,0.905273,0.227783,0.328857
1519418294047,0.907715,0.225586,0.330811
1519418294079,0.912598,0.232178,0.337158
1519418294111,0.905273,0.237061,0.349609
1519418294144,0.901611,0.238770,0.349121
1519418294176,0.898926,0.236084,0.330566
1519418294219,0.906982,0.230713,0.333252
1519418294226,0.919678,0.228516,0.333740
1519418294284,0.905029,0.211182,0.319580
1519418294355,0.903320,0.213379,0.317627
1519418294358,0.905273,0.220215,0.320068
1519418294424,0.919434,0.236084,0.327637
1519418294427,0.912354,0.243408,0.337646
1519418294470,0.903564,0.242188,0.342041
1519418294476,0.902588,0.241211,0.333496
1519418294503,0.908447,0.249268,0.333496
1519418294512,0.914307,0.250244,0.339111
1519418294561,0.919189,0.248047,0.333740
1519418294594,0.914307,0.241943,0.342529
1519418294626,0.916016,0.232910,0.345947
1519418294659,0.904053,0.251221,0.351318
1519418294691,0.907227,0.259277,0.342041
1519418294731,0.917480,0.262695,0.325439
1519418294756,0.915283,0.242676,0.330322
1519418294789,0.922363,0.232666,0.322754
1519418294823,0.921387,0.220947,0.313721
1519418294857,0.916748,0.216797,0.307617
1519418294896,0.919678,0.214111,0.313232
1519418294928,0.919678,0.225830,0.312500
1519418294960,0.913330,0.240234,0.319824
1519418294993,0.907471,0.235107,0.318115
1519418295024,0.901611,0.234375,0.314697
1519418295057,0.903320,0.247314,0.334229
1519418295090,0.913086,0.255859,0.346680
1519418295099,0.908447,0.250488,0.345947
1519418295148,0.900391,0.225830,0.326660
1519418295181,0.900635,0.233154,0.322754
1519418295214,0.906006,0.247559,0.332764
1519418295245,0.902832,0.252441,0.331787
1519418295278,0.907715,0.253662,0.325684
1519418295312,0.904053,0.258301,0.343018
1519418295343,0.902100,0.248291,0.350830
1519418295357,0.903809,0.240479,0.345703
1519418295392,0.905029,0.242920,0.332031
1519418295423,0.906982,0.246582,0.349121
1519418295502,0.922119,0.250977,0.364502
1519418295510,0.938477,0.238281,0.358154
1519418295542,0.920898,0.202881,0.314941
1519418295567,0.891113,0.212646,0.291504
1519418295599,0.883057,0.219727,0.296387
1519418295631,0.895264,0.234619,0.326172
1519418295664,0.901367,0.237305,0.335205
1519418295697,0.919189,0.259033,0.345215
1519418295730,0.922607,0.256592,0.351318
1519418295763,0.913330,0.264404,0.354004
1519418295776,0.894775,0.260742,0.349121
1519418295834,0.902100,0.257568,0.333252
1519418295843,0.905762,0.242676,0.330811
1519418295896,0.913330,0.225830,0.330078
1519418295929,0.913574,0.223633,0.323730
1519418295962,0.911377,0.232178,0.325684
1519418295994,0.905029,0.229980,0.329102
1519418296025,0.903076,0.237793,0.327637
1519418296057,0.909668,0.239258,0.335449
1519418296090,0.917480,0.232910,0.342285
1519418296123,0.914063,0.224365,0.329102
1519418296155,0.916260,0.223389,0.321289
1519418296188,0.920654,0.223633,0.329590
1519418296202,0.917969,0.232178,0.327881
1519418296259,0.908691,0.227295,0.335205
1519418296268,0.914795,0.227783,0.328369
1519418296318,0.914795,0.231934,0.332031
1519418296323,0.911865,0.230225,0.337158
1519418296356,0.910400,0.220947,0.323242
1519418296413,0.907959,0.226074,0.324707
1519418296422,0.916016,0.227051,0.326172
1519418296465,0.916748,0.233154,0.324707
1519418296497,0.916016,0.230713,0.331055
1519418296529,0.902832,0.223145,0.326416
1519418296561,0.906494,0.224609,0.317627
1519418296594,0.921631,0.234619,0.335938
1519418296635,0.925537,0.228027,0.336426
1519418296668,0.917480,0.219727,0.333740
1519418296700,0.921631,0.224365,0.336670
1519418296734,0.921387,0.224609,0.343750
1519418296743,0.907471,0.219727,0.334473
1519418296805,0.902832,0.218262,0.326172
1519418296817,0.907227,0.218262,0.319824
1519418296841,0.919922,0.220459,0.321533
1519418296899,0.917236,0.224854,0.331787
1519418296908,0.910645,0.224365,0.334473
1519418296936,0.912109,0.216553,0.338135
1519418296994,0.912109,0.215576,0.327148
1519418297006,0.902588,0.210693,0.310791
1519418297039,0.900146,0.215820,0.306885
1519418297072,0.919678,0.226563,0.335449
1519418297105,0.932129,0.229492,0.366699
1519418297136,0.922607,0.211670,0.357422
1519418297169,0.914063,0.167725,0.310303
1519418297203,0.916504,0.179443,0.291748
1519418297235,0.922852,0.190918,0.308105
1519418297269,0.920898,0.218994,0.337646
1519418297302,0.914551,0.230469,0.354004
1519418297334,0.909668,0.226563,0.356201
1519418297367,0.906982,0.206787,0.350586
1519418297401,0.921387,0.200928,0.345947
1519418297415,0.928711,0.212158,0.345215
1519418297483,0.919922,0.204590,0.326172
1519418297491,0.915527,0.181885,0.307129
1519418297550,0.913574,0.170898,0.310303
1519418297592,0.929932,0.177246,0.323975
1519418297596,0.923340,0.182373,0.326904
1519418297626,0.917236,0.191162,0.329102
1519418297658,0.922119,0.212402,0.337158
1519418297691,0.917725,0.215576,0.332764
1519418297723,0.906250,0.204346,0.335449
1519418297756,0.911377,0.194824,0.336182
1519418297791,0.913818,0.203613,0.340820
1519418297824,0.907471,0.198975,0.333252
1519418297857,0.918701,0.209473,0.333740
1519418297890,0.920166,0.205078,0.342529
1519418297923,0.913574,0.201904,0.339111
1519418297955,0.906250,0.184570,0.319092
1519418297988,0.904053,0.195557,0.316162
1519418298019,0.916260,0.233643,0.342529
1519418298061,0.909180,0.244385,0.364502
1519418298069,0.894531,0.237549,0.375000
1519418298118,0.897705,0.219727,0.376465
1519418298151,0.913818,0.222412,0.340332
1519418298185,0.915527,0.214111,0.332031
1519418298217,0.909180,0.210449,0.329834
1519418298231,0.906250,0.218262,0.343262
1519418298264,0.911377,0.220215,0.344238
1519418298321,0.911865,0.218994,0.343994
1519418298353,0.908691,0.223633,0.347412
1519418298362,0.911377,0.226807,0.351318
1519418298418,0.911865,0.229980,0.353760
1519418298450,0.908691,0.225098,0.333008
1519418298483,0.908936,0.212402,0.318359
1519418298491,0.914307,0.205322,0.319824
1519418298515,0.915527,0.195068,0.320557
1519418298548,0.914307,0.200928,0.322754
1519418298583,0.916016,0.213867,0.335938
1519418298613,0.901123,0.243652,0.354004
1519418298655,0.913574,0.250244,0.363525
1519418298689,0.927734,0.238281,0.358887
1519418298721,0.897217,0.217041,0.333252
1519418298758,0.895508,0.200439,0.319092
1519418298791,0.893066,0.224365,0.318848
1519418298822,0.910889,0.239990,0.329834
1519418298856,0.909912,0.248535,0.340332
1519418298889,0.909912,0.249023,0.351807
1519418298920,0.910645,0.234619,0.339844
1519418298928,0.897461,0.241699,0.331787
1519418298984,0.905762,0.248779,0.338135
1519418299017,0.897705,0.254639,0.337646
1519418299031,0.899658,0.260742,0.339844
1519418299065,0.916504,0.247559,0.332275
1519418299097,0.915527,0.224365,0.327637
1519418299129,0.913086,0.208496,0.325684
1519418299161,0.924316,0.209717,0.322266
1519418299193,0.922363,0.222900,0.320801
1519418299226,0.918701,0.231201,0.328857
1519418299260,0.919434,0.226563,0.336914
1519418299315,0.925293,0.229248,0.322998
1519418299340,0.920166,0.213379,0.314209
1519418299373,0.920410,0.212891,0.324463
1519418299406,0.911133,0.227051,0.341309
1519418299424,0.907715,0.227295,0.335205
1519418299448,0.903809,0.224121,0.323242
1519418299504,0.916016,0.224609,0.316162
1519418299508,0.922119,0.227783,0.316895
1519418299540,0.921143,0.217041,0.328369
1519418299600,0.918701,0.216309,0.322266
1519418299608,0.912842,0.223389,0.314209
1519418299662,0.916016,0.225098,0.317383
1519418299697,0.925537,0.223877,0.311279
1519418299708,0.934082,0.237061,0.337646
1519418299741,0.921387,0.227783,0.359375
1519418299774,0.910889,0.214600,0.330811
1519418299806,0.903564,0.216309,0.311279
1519418299847,0.912598,0.227539,0.294922
1519418299881,0.929443,0.221924,0.288818
1519418299913,0.928467,0.209961,0.291748
1519418299945,0.922607,0.201904,0.304199
1519418299978,0.917969,0.212891,0.335938
1519418300011,0.920410,0.217529,0.343018
1519418300043,0.918213,0.227539,0.333740
1519418300076,0.918701,0.220459,0.317383
1519418300108,0.912354,0.197266,0.279541
1519418300140,0.914551,0.194092,0.283203
1519418300173,0.912598,0.198486,0.303223
1519418300190,0.924561,0.213623,0.324951
1519418300230,0.933105,0.225098,0.341553
1519418300263,0.928955,0.227783,0.351563
1519418300295,0.915283,0.217773,0.324951
1519418300327,0.905029,0.204590,0.316162
1519418300359,0.912109,0.212402,0.325928
1519418300398,0.927734,0.201660,0.320557
1519418300429,0.936279,0.182129,0.291260
1519418300458,0.945313,0.191162,0.270752
1519418300490,0.938965,0.210938,0.299805
1519418300522,0.926270,0.223633,0.346436
1519418300595,0.920654,0.208496,0.360840
1519418300603,0.919922,0.197266,0.341309
1519418300661,0.929932,0.204346,0.320557
1519418300731,0.936279,0.195801,0.308105
1519418300741,0.927002,0.187012,0.300293
1519418300756,0.931396,0.176514,0.281982
1519418300759,0.941162,0.167969,0.273438
1519418300773,0.957520,0.170166,0.301270
1519418300806,0.958008,0.165039,0.328369
1519418300840,0.959961,0.169434,0.351318
1519418300877,0.961426,0.165283,0.344727
1519418300908,0.947510,0.168701,0.321045
1519418300939,0.971436,0.164063,0.292236
1519418300973,0.988037,0.165283,0.301025
1519418301006,0.961914,0.142822,0.281250
1519418301038,0.948730,0.141357,0.261230
1519418301070,0.945313,0.145020,0.276367
1519418301103,0.945801,0.136963,0.288818
1519418301136,0.939697,0.130127,0.277100
1519418301168,0.932617,0.135010,0.279785
1519418301201,0.953125,0.129883,0.286377
1519418301234,0.978027,0.125000,0.275146
1519418301265,0.964600,0.128662,0.270020
1519418301298,0.961670,0.131104,0.275635
1519418301330,0.992676,0.102783,0.284668
1519418301363,0.969238,0.096680,0.256104
1519418301402,0.946777,0.102539,0.250488
1519418301426,0.927490,0.106934,0.254639
1519418301461,0.907959,0.101807,0.252441
1519418301501,0.897705,0.097900,0.236816
1519418301535,0.901367,0.108154,0.233643
1519418301566,0.903809,0.101074,0.244141
1519418301599,0.897705,0.091309,0.230957
1519418301630,0.893555,0.093750,0.214600
1519418301666,0.886963,0.109375,0.223145
1519418301669,0.895508,0.128662,0.245850
1519418301725,0.921143,0.119873,0.254883
1519418301759,0.922119,0.132324,0.259277
1519418301768,0.909912,0.135010,0.281738
1519418301821,0.918945,0.143066,0.301270
1519418301854,0.933105,0.138672,0.306885
1519418301899,0.964600,0.138672,0.307861
1519418301903,0.958496,0.135254,0.316895
1519418301947,0.946045,0.141846,0.301025
1519418301980,0.938477,0.167969,0.303711
1519418302013,0.919678,0.175049,0.304443
1519418302044,0.912598,0.157227,0.282959
1519418302064,0.900391,0.159424,0.254395
1519418302123,0.938477,0.192871,0.222656
1519418302131,0.954346,0.221191,0.294189
1519418302184,0.975830,0.209229,0.388428
1519418302217,0.983643,0.173584,0.447998
1519418302251,0.955078,0.124756,0.445313
1519418302259,0.912842,0.152588,0.381592
1519418302309,0.947021,0.180176,0.331787
1519418302318,0.945068,0.206543,0.318359
1519418302345,0.929199,0.218262,0.308594
1519418302401,0.917725,0.227783,0.334229
1519418302435,0.909912,0.220459,0.364014
1519418302467,0.913818,0.205322,0.350830
1519418302499,0.892090,0.252197,0.351807
1519418302533,0.894043,0.260498,0.347656
1519418302564,0.883789,0.257324,0.370361
1519418302599,0.882568,0.243164,0.372559
1519418302610,0.896729,0.256104,0.371582
1519418302665,0.904785,0.269043,0.375488
1519418302700,0.881592,0.236572,0.358154
1519418302713,0.865723,0.203369,0.336182
1519418302747,0.883545,0.244385,0.335449
1519418302780,0.935303,0.271729,0.396484
1519418302813,0.946045,0.277344,0.437988
1519418302845,0.937988,0.276855,0.454346
1519418302879,0.843750,0.267090,0.359131
1519418302915,0.837891,0.283691,0.309570
1519418302943,0.854248,0.236084,0.317627
1519418302977,0.895508,0.236572,0.360107
1519418303008,0.925049,0.223877,0.390137
1519418303040,0.952393,0.239014,0.423096
1519418303073,0.950684,0.258301,0.444336
1519418303106,0.923584,0.287109,0.417969
1519418303146,0.885498,0.270752,0.397217
1519418303180,0.848145,0.256348,0.379395
1519418303214,0.835693,0.240723,0.386230
1519418303247,0.851563,0.246582,0.374756
1519418303283,0.878174,0.243652,0.391602
1519418303316,0.890869,0.247314,0.426758
1519418303324,0.875000,0.217041,0.447266
1519418303373,0.907715,0.202148,0.465088
1519418303405,0.951660,0.179443,0.442627
1519418303411,0.922852,0.183105,0.397705
1519418303468,0.809082,0.183105,0.339111
1519418303497,0.774414,0.174316,0.327637
1519418303531,0.814941,0.178955,0.328857
1519418303545,0.890625,0.154053,0.307861
1519418303582,0.936523,0.157227,0.309082
1519418303614,0.940186,0.173096,0.310303
1519418303647,0.950439,0.160889,0.313965
1519418303721,0.926758,0.135986,0.338135
1519418303730,0.895264,0.081299,0.386475
1519418303789,0.893066,0.054688,0.440186
1519418303798,0.893799,0.148926,0.429199
1519418303829,0.899414,0.160400,0.386719
1519418303862,0.901611,0.200684,0.366699
1519418303894,0.905762,0.221680,0.358643
1519418303902,0.918457,0.202881,0.347900
1519418303957,0.905273,0.212402,0.355225
1519418303992,0.897705,0.224609,0.370850
1519418304000,0.896973,0.212158,0.383545
1519418304024,0.898438,0.215576,0.391113
1519418304056,0.904297,0.224121,0.388184
1519418304115,0.907959,0.228760,0.375977
1519418304123,0.919678,0.227539,0.364990
1519418304176,0.917236,0.225098,0.357422
1519418304209,0.909180,0.228516,0.367432
1519418304243,0.901123,0.222900,0.371826
1519418304276,0.906738,0.226074,0.362305
1519418304309,0.907959,0.231445,0.350586
1519418304342,0.903564,0.230957,0.352539
1519418304355,0.919922,0.220215,0.351563
1519418304402,0.924561,0.221680,0.344727
1519418304461,0.912109,0.225830,0.335693
1519418304470,0.907959,0.220459,0.358154
1519418304493,0.919189,0.214600,0.373047
1519418304527,0.913086,0.226318,0.361328
1519418304535,0.913330,0.223389,0.331299
1519418304592,0.926025,0.219971,0.312988
1519418304624,0.921387,0.214111,0.318115
1519418304657,0.916748,0.212646,0.335693
1519418304690,0.907959,0.204834,0.365967
1519418304722,0.913086,0.214355,0.372314
1519418304757,0.910645,0.231934,0.376709
1519418304769,0.906250,0.241455,0.367920
1519418304827,0.907715,0.242188,0.343018
1519418304860,0.910889,0.231934,0.353271
1519418304869,0.914307,0.216797,0.365723
1519418304919,0.909424,0.215820,0.362061
1519418304951,0.900146,0.215820,0.339111
1519418304959,0.890137,0.218018,0.331543
1519418305010,0.901855,0.227051,0.340576
1519418305041,0.903809,0.208740,0.346680
1519418305074,0.896729,0.205811,0.338623
1519418305108,0.909424,0.187500,0.349121
1519418305140,0.927979,0.194092,0.358887
1519418305171,0.924316,0.208008,0.358643
1519418305185,0.904297,0.190918,0.343750
1519418305218,0.901855,0.189697,0.345459
1519418305276,0.905518,0.198242,0.344727
1519418305309,0.906738,0.209961,0.349854
1519418305318,0.916748,0.223389,0.356689
1519418305372,0.918945,0.229736,0.372314
1519418305405,0.897949,0.232666,0.387451
1519418305437,0.890869,0.222900,0.385986
1519418305446,0.889160,0.217041,0.363525
1519418305496,0.904541,0.218018,0.344238
1519418305506,0.904053,0.223389,0.346436
1519418305536,0.901123,0.224365,0.360596
1519418305602,0.904053,0.215820,0.370117
1519418305610,0.894043,0.220703,0.363281
1519418305634,0.891602,0.217773,0.357178
1519418305669,0.913574,0.212646,0.362549
1519418305706,0.910889,0.219971,0.376221
1519418305740,0.904541,0.222168,0.386719
1519418305774,0.897705,0.223145,0.384277
1519418305806,0.903564,0.213379,0.375977
1519418305846,0.898926,0.208740,0.358643
1519418305878,0.897705,0.210205,0.357666
1519418305909,0.897461,0.206055,0.365723
1519418305942,0.900391,0.210205,0.374268
1519418305975,0.904297,0.211182,0.375000
1519418306016,0.909668,0.213867,0.375244
1519418306025,0.904785,0.205566,0.369385
1519418306074,0.898682,0.198730,0.347168
1519418306107,0.889648,0.212402,0.362549
1519418306116,0.884277,0.208496,0.380127
1519418306169,0.894531,0.212158,0.394531
1519418306201,0.904053,0.207764,0.388184
1519418306235,0.916992,0.213379,0.377930
1519418306268,0.906982,0.201172,0.370850
1519418306300,0.894775,0.200195,0.365967
1519418306333,0.891357,0.199951,0.365967
1519418306366,0.892578,0.202881,0.372559
1519418306378,0.897949,0.209229,0.376465
1519418306434,0.899902,0.214844,0.375000
1519418306467,0.892090,0.210449,0.386475
1519418306505,0.897461,0.198242,0.394287
1519418306513,0.903076,0.198486,0.370850
1519418306564,0.899658,0.192139,0.345459
1519418306594,0.899658,0.193359,0.354492
1519418306597,0.911133,0.196289,0.359131
1519418306653,0.929443,0.200928,0.361084
1519418306686,0.908203,0.191895,0.373535
1519418306720,0.887451,0.199463,0.379639
1519418306753,0.897705,0.225586,0.376221
1519418306825,0.898926,0.240234,0.375244
1519418306833,0.898682,0.219482,0.368896
1519418306950,0.896729,0.210693,0.370117
1519418306960,0.901611,0.207764,0.375488
1519418306968,0.907715,0.206787,0.375732
1519418306976,0.898438,0.211670,0.364746
1519418306979,0.891113,0.219238,0.362793
1519418307020,0.904785,0.229736,0.370605
1519418307028,0.908936,0.232422,0.378662
1519418307084,0.895996,0.220215,0.375244
1519418307089,0.894775,0.211914,0.367920
1519418307143,0.898682,0.215332,0.348389
1519418307175,0.901611,0.216797,0.357178
1519418307182,0.906006,0.220215,0.364746
1519418307234,0.909424,0.218262,0.354248
1519418307248,0.896973,0.221924,0.356201
1519418307281,0.895752,0.228027,0.364502
1519418307339,0.905518,0.228271,0.368164
1519418307348,0.892822,0.225342,0.380615
1519418307399,0.891602,0.222412,0.390137
1519418307428,0.906250,0.223877,0.363037
1519418307442,0.904053,0.222168,0.356934
1519418307501,0.900879,0.223633,0.359131
1519418307510,0.895996,0.219727,0.356934
1519418307562,0.892578,0.229980,0.366455
1519418307595,0.907471,0.229980,0.377686
1519418307628,0.901611,0.232422,0.377686
1519418307662,0.892578,0.229492,0.365479
1519418307665,0.889404,0.220703,0.355957
1519418307718,0.901611,0.232666,0.360352
1519418307752,0.895752,0.229248,0.359619
1519418307761,0.895752,0.223389,0.355713
1519418307815,0.893799,0.227539,0.362061
1519418307848,0.901611,0.229492,0.359131
1519418307881,0.898682,0.239990,0.360840
1519418307913,0.886963,0.249756,0.379639
1519418307944,0.892334,0.240234,0.388916
1519418307978,0.897949,0.243896,0.382080
1519418308010,0.906738,0.230957,0.359619
1519418308041,0.909424,0.231689,0.339355
1519418308073,0.919434,0.212158,0.327148
1519418308105,0.922852,0.193848,0.348633
1519418308139,0.915283,0.202637,0.356934
1519418308171,0.908203,0.220703,0.360840
1519418308204,0.892090,0.240479,0.354492
1519418308237,0.894287,0.251221,0.348389
1519418308246,0.900879,0.253906,0.345947
1519418308301,0.904785,0.230957,0.363281
1519418308335,0.904785,0.219482,0.374756
1519418308343,0.906006,0.216064,0.358398
1519418308398,0.906250,0.229004,0.334473
1519418308409,0.899658,0.231934,0.325928
1519418308463,0.900879,0.230713,0.344238
1519418308477,0.904297,0.227539,0.364502
1519418308510,0.904297,0.231201,0.375732
1519418308543,0.906982,0.242676,0.374268
1519418308576,0.902100,0.249512,0.351563
1519418308607,0.883545,0.255127,0.352295
1519418308640,0.885986,0.246826,0.363281
1519418308696,0.892090,0.239990,0.371826
1519418308701,0.879150,0.245361,0.362793
1519418308760,0.879639,0.247314,0.358154
1519418308793,0.900391,0.253906,0.376953
1519418308826,0.906494,0.240479,0.375244
1519418308834,0.907471,0.235107,0.364990
1519418308884,0.901123,0.234619,0.347900
1519418308892,0.903076,0.245117,0.348877
1519418308921,0.903809,0.248535,0.355957
1519418308979,0.904297,0.236816,0.359863
1519418308988,0.907471,0.228027,0.363525
1519418309043,0.908936,0.226074,0.353271
1519418309075,0.903076,0.237305,0.355469
1519418309108,0.893311,0.248779,0.349854
1519418309141,0.893066,0.253906,0.360840
1519418309172,0.892822,0.249756,0.368896
1519418309205,0.904297,0.243408,0.366699
1519418309238,0.922607,0.237549,0.360352
1519418309273,0.909424,0.225586,0.348877
1519418309289,0.891846,0.219971,0.348145
1519418309317,0.886230,0.229736,0.355469
1519418309374,0.894043,0.244141,0.366455
1519418309385,0.895508,0.244873,0.373779
1519418309417,0.885254,0.235840,0.370361
1519418309449,0.885986,0.247314,0.362061
1519418309483,0.898438,0.251465,0.370117
1519418309515,0.899414,0.247803,0.371338
1519418309547,0.898438,0.237549,0.364746
1519418309582,0.899170,0.239746,0.360596
1519418309619,0.886475,0.248535,0.369385
1519418309649,0.869141,0.268066,0.364258
1519418309682,0.874023,0.259277,0.364746
1519418309715,0.886230,0.269287,0.366211
1519418309749,0.903320,0.259277,0.379150
1519418309782,0.900635,0.244385,0.364990
1519418309812,0.893311,0.239014,0.355225
1519418309846,0.894287,0.242676,0.359619
1519418309878,0.903809,0.249512,0.362549
1519418309887,0.905273,0.240479,0.364014
1519418309953,0.899170,0.229004,0.357910
1519418309962,0.894531,0.237549,0.353516
1519418310019,0.902588,0.242432,0.351318
1519418310023,0.912842,0.234619,0.362061
1519418310069,0.909668,0.238525,0.358887
1519418310082,0.898926,0.232910,0.354004
1519418310116,0.906250,0.232910,0.350098
1519418310149,0.902100,0.239258,0.357910
1519418310205,0.893555,0.234375,0.361328
1519418310238,0.894775,0.233643,0.360352
1519418310269,0.902344,0.239258,0.367920
1519418310303,0.907959,0.240479,0.356934
1519418310337,0.902588,0.224121,0.344727
1519418310347,0.897705,0.216553,0.342529
1519418310405,0.900879,0.224365,0.350830
1519418310437,0.900879,0.243896,0.364258
1519418310446,0.899414,0.245850,0.370117
1519418310471,0.898438,0.238525,0.366699
1519418310513,0.894775,0.233887,0.353027
1519418310546,0.902588,0.236816,0.350098
1519418310577,0.908447,0.235840,0.358398
1519418310609,0.898682,0.227539,0.357910
1519418310642,0.894775,0.224365,0.350830
1519418310673,0.907471,0.228271,0.351807
1519418310706,0.908447,0.231445,0.349121
1519418310743,0.899414,0.229004,0.350830
1519418310772,0.905273,0.227539,0.352295
1519418310806,0.910400,0.233154,0.362061
1519418310862,0.917480,0.232910,0.354736
1519418310870,0.925049,0.231201,0.370117
1519418310906,0.900146,0.210449,0.347900
1519418310940,0.890137,0.200195,0.322021
1519418310948,0.888428,0.206787,0.320801
1519418311004,0.904053,0.233887,0.347900
1519418311036,0.901123,0.243408,0.364258
1519418311068,0.899902,0.239502,0.371094
1519418311100,0.897705,0.238525,0.374756
1519418311134,0.904053,0.243164,0.370117
1519418311166,0.906250,0.231689,0.354980
1519418311198,0.901855,0.227051,0.340820
1519418311230,0.902832,0.220703,0.341553
1519418311263,0.900879,0.227051,0.357666
1519418311281,0.907715,0.229980,0.357422
1519418311319,0.911133,0.224609,0.347412
1519418311352,0.913574,0.199219,0.342285
1519418311384,0.919434,0.192627,0.333252
1519418311416,0.902344,0.206299,0.334717
1519418311437,0.901611,0.227295,0.342529
1519418311492,0.900635,0.249512,0.366211
1519418311524,0.899414,0.250488,0.374756
1519418311528,0.903076,0.245850,0.369385
1519418311584,0.899414,0.234131,0.358643
1519418311616,0.899170,0.225830,0.352295
1519418311650,0.900635,0.222412,0.344482
1519418311777,0.889160,0.229736,0.350586
1519418311779,0.884033,0.231689,0.339355
1519418311779,0.887451,0.220459,0.325195
1519418311780,0.921631,0.227783,0.336182
1519418311794,0.939941,0.239014,0.361328
1519418311828,0.926758,0.259766,0.423828
1519418311861,0.905273,0.283203,0.424561
1519418311894,0.924072,0.247070,0.380371
1519418311927,0.925781,0.228516,0.338379
1519418311959,0.905273,0.218750,0.320557
1519418312016,0.912842,0.221680,0.329102
1519418312024,0.912109,0.195801,0.324707
1519418312076,0.897949,0.190674,0.307129
1519418312081,0.903320,0.182129,0.283203
1519418312141,0.901611,0.193115,0.264404
1519418312174,0.907959,0.230469,0.300293
1519418312182,0.906494,0.232910,0.354492
1519418312231,0.887451,0.262207,0.387939
1519418312265,0.903320,0.270508,0.400146
1519418312276,0.905273,0.244629,0.394775
1519418312309,0.908447,0.216553,0.363525
1519418312342,0.918457,0.190430,0.317627
1519418312375,0.923340,0.183594,0.291504
1519418312430,0.918701,0.195068,0.301514
1519418312462,0.914795,0.213135,0.330811
1519418312494,0.900635,0.218018,0.336426
1519418312508,0.890625,0.212646,0.347168
1519418312540,0.902832,0.233154,0.380127
1519418312577,0.911621,0.239746,0.389648
1519418312606,0.907959,0.230957,0.371338
1519418312665,0.902832,0.231934,0.352051
1519418312673,0.915283,0.238525,0.355225
1519418312698,0.911377,0.236328,0.348877
1519418312756,0.899902,0.219971,0.333008
1519418312764,0.899170,0.220459,0.344971
1519418312791,0.905518,0.226074,0.362061
1519418312848,0.903076,0.231934,0.365234
1519418312857,0.907227,0.235840,0.360596
1519418312889,0.910645,0.232422,0.356934
1519418312922,0.898682,0.219238,0.352295
1519418312953,0.911133,0.217041,0.355713
1519418313012,0.916260,0.229004,0.359375
1519418313083,0.900635,0.217285,0.348877
1519418313088,0.891602,0.218018,0.328125
1519418313151,0.900879,0.231934,0.330078
1519418313159,0.913086,0.237305,0.351807
1519418313187,0.907227,0.234131,0.348877
1519418313190,0.910889,0.212891,0.343750
1519418313221,0.911865,0.218506,0.348633
1519418313257,0.909180,0.226318,0.348389
1519418313290,0.897461,0.225830,0.342529
1519418313323,0.900635,0.225098,0.328857
1519418313356,0.914307,0.230957,0.339111
1519418313387,0.913086,0.232178,0.355713
