1519239766312,-0.246826,0.867920,-0.518555
1519239766346,-0.266846,0.833008,-0.497314
1519239766377,-0.276855,0.828613,-0.475586
1519239766409,-0.285156,0.794922,-0.424805
1519239766450,-0.239502,0.867188,-0.441406
1519239766476,-0.261963,0.899414,-0.514893
1519239766525,-0.252441,0.943848,-0.507324
1519239766545,-0.211426,0.964844,-0.368164
1519239766572,-0.198486,1.013184,-0.367676
1519239766601,-0.226074,0.852295,-0.348389
1519239766641,-0.258057,0.769043,-0.245361
1519239766670,-0.282227,0.878174,-0.229004
1519239766692,-0.277100,1.007813,-0.277832
1519239766738,-0.281250,0.837891,-0.238281
1519239766755,-0.276855,0.911133,-0.215820
1519239766790,-0.279053,0.942383,-0.240234
1519239766823,-0.252686,0.929199,-0.312012
1519239766857,-0.227783,0.952393,-0.340820
1519239766892,-0.211914,0.998535,-0.330078
1519239766926,-0.241211,0.930420,-0.272461
1519239766955,-0.213379,0.947998,-0.301025
1519239766991,-0.219482,0.983398,-0.308350
1519239767036,-0.236816,0.947021,-0.295166
1519239767059,-0.247803,0.935547,-0.292480
1519239767075,-0.250977,0.939209,-0.313232
1519239767126,-0.250977,0.919922,-0.303955
1519239767144,-0.256592,0.920898,-0.310547
1519239767187,-0.260986,0.921631,-0.320557
1519239767224,-0.263672,0.917969,-0.323242
1519239767263,-0.258057,0.909180,-0.325195
1519239767275,-0.263184,0.934326,-0.332275
1519239767311,-0.259033,0.906982,-0.328857
1519239767342,-0.246582,0.924561,-0.333252
1519239767369,-0.255371,0.930908,-0.332764
1519239767405,-0.245117,0.914795,-0.327881
1519239767441,-0.251709,0.915527,-0.340820
1519239767475,-0.248291,0.936279,-0.341064
1519239767514,-0.250732,0.928223,-0.313721
1519239767540,-0.251709,0.926758,-0.318848
1519239767586,-0.229492,0.927490,-0.319580
1519239767612,-0.221680,0.919922,-0.330078
1519239767660,-0.213623,0.969727,-0.341797
1519239767661,-0.220947,0.928467,-0.342773
1519239767706,-0.224121,0.891113,-0.324219
1519239767723,-0.221680,0.909912,-0.299805
1519239767751,-0.223633,0.913574,-0.304932
1519239767802,-0.227783,0.930176,-0.331299
1519239767820,-0.227295,0.935547,-0.348389
1519239767853,-0.233154,0.926025,-0.346191
1519239767888,-0.224854,0.924072,-0.342529
1519239767922,-0.234619,0.920166,-0.327637
1519239767950,-0.235107,0.912842,-0.334229
1519239767985,-0.238770,0.926270,-0.334473
1519239768018,-0.240479,0.937256,-0.340332
1519239768053,-0.238770,0.943604,-0.344971
1519239768087,-0.237549,0.940674,-0.340820
1519239768121,-0.237793,0.942627,-0.343018
1519239768139,-0.236328,0.944092,-0.341064
1519239768184,-0.233887,0.952881,-0.318604
1519239768219,-0.229736,0.937256,-0.300781
1519239768235,-0.225342,0.942871,-0.293457
1519239768270,-0.217773,0.950195,-0.285400
1519239768337,-0.221436,0.946289,-0.279297
1519239768340,-0.210693,0.948975,-0.275879
1519239768405,-0.206787,0.927490,-0.251465
1519239768530,-0.202148,0.950195,-0.256836
1519239768531,-0.202148,0.955566,-0.265137
1519239768532,-0.201660,0.944824,-0.248291
1519239768600,-0.201904,0.954590,-0.229980
1519239768734,-0.207764,0.964844,-0.229736
1519239768802,-0.212646,0.982666,-0.244629
1519239768918,-0.210693,0.972900,-0.215088
1519239768920,-0.193359,1.016846,-0.213379
1519239768923,-0.187012,1.015625,-0.220703
1519239768925,-0.177246,1.012207,-0.187988
1519239768927,-0.173340,0.988770,-0.153809
1519239768929,-0.182129,1.030762,-0.104736
1519239768931,-0.188721,1.035156,-0.005859
1519239768939,-0.217041,1.025146,0.048096
1519239768941,-0.202881,1.088379,0.094482
1519239768943,-0.269043,1.067139,0.126221
1519239768945,-0.263184,1.000000,0.179199
1519239768948,-0.294434,0.918701,0.356934
1519239768994,-0.316650,0.807617,0.415771
1519239769015,-0.301758,0.778564,0.451172
1519239769050,-0.270996,0.794922,0.457031
1519239769084,-0.264404,0.814209,0.504639
1519239769102,-0.261719,0.788086,0.515137
1519239769147,-0.214844,0.820313,0.494873
1519239769180,-0.221680,0.832031,0.546875
1519239769198,-0.237549,0.812012,0.597900
1519239769249,-0.244385,0.738525,0.608643
1519239769267,-0.260010,0.821045,0.581787
1519239769300,-0.271729,0.844482,0.515625
1519239769334,-0.272461,0.785645,0.537354
1519239769363,-0.255371,0.774902,0.560791
1519239769396,-0.242920,0.837158,0.522705
1519239769432,-0.248047,0.885498,0.566162
1519239769465,-0.265869,0.829590,0.588379
1519239769509,-0.286621,0.833984,0.574219
1519239769532,-0.309814,0.789551,0.546631
1519239769586,-0.308838,0.732178,0.581055
1519239769596,-0.294678,0.781738,0.604736
1519239769630,-0.283691,0.818604,0.596680
1519239769664,-0.279053,0.819336,0.602539
1519239769682,-0.271240,0.809082,0.573242
1519239769731,-0.260986,0.821045,0.549805
1519239769761,-0.258545,0.810547,0.554688
1519239769783,-0.268555,0.790527,0.581543
1519239769829,-0.269287,0.810059,0.572754
1519239769859,-0.277100,0.825195,0.564209
1519239769880,-0.271973,0.814209,0.549316
1519239769915,-0.280762,0.784912,0.554932
1519239769943,-0.281494,0.773438,0.561768
1519239769978,-0.283936,0.816650,0.555664
1519239770011,-0.278320,0.824707,0.547852
1519239770045,-0.274658,0.835693,0.558105
1519239770080,-0.285400,0.832764,0.545410
1519239770114,-0.284668,0.813721,0.538574
1519239770141,-0.286865,0.814453,0.546631
1519239770181,-0.276611,0.807373,0.541992
1519239770210,-0.279541,0.835205,0.554443
1519239770245,-0.278809,0.842529,0.552979
1519239770261,-0.283936,0.822998,0.549072
1519239770313,-0.286621,0.812500,0.553711
1519239770330,-0.295410,0.827881,0.560791
1519239770358,-0.295898,0.845215,0.573242
1519239770409,-0.301758,0.825439,0.578857
1519239770428,-0.309326,0.802979,0.561523
1519239770461,-0.287842,0.815918,0.550049
1519239770495,-0.284180,0.797607,0.568604
1519239770530,-0.287354,0.799561,0.553467
1519239770557,-0.286865,0.793213,0.523926
1519239770595,-0.291748,0.792236,0.504395
1519239770628,-0.287109,0.794189,0.503418
1519239770661,-0.284424,0.805176,0.493164
1519239770695,-0.300537,0.812500,0.514648
1519239770728,-0.308350,0.815430,0.531738
1519239770745,-0.309570,0.837402,0.548340
1519239770794,-0.307861,0.811035,0.562012
1519239770828,-0.296387,0.817383,0.556152
1519239770844,-0.292236,0.832520,0.562988
1519239770893,-0.279297,0.834961,0.505615
1519239770911,-0.285889,0.848877,0.565186
1519239770944,-0.297607,0.833252,0.566895
1519239770977,-0.289551,0.837158,0.536133
1519239771011,-0.292725,0.830322,0.515869
1519239771043,-0.300537,0.814697,0.507568
1519239771076,-0.305176,0.806885,0.507568
1519239771109,-0.312256,0.804199,0.512939
1519239771143,-0.311035,0.824707,0.517090
1519239771213,-0.305176,0.829346,0.528564
1519239771215,-0.303223,0.832031,0.525146
1519239771243,-0.302002,0.827881,0.523682
1519239771275,-0.300781,0.831787,0.520996
1519239771319,-0.300049,0.828857,0.518311
1519239771325,-0.300537,0.825195,0.516357
1519239771375,-0.296875,0.835693,0.516846
1519239771391,-0.301514,0.839600,0.521729
1519239771425,-0.292480,0.837402,0.524658
1519239771475,-0.298828,0.832520,0.521729
1519239771492,-0.300293,0.838623,0.519775
1519239771524,-0.303467,0.823242,0.511719
1519239771557,-0.305420,0.826660,0.508301
1519239771590,-0.305908,0.833008,0.512207
1519239771624,-0.304443,0.837158,0.510010
1519239771657,-0.302734,0.837891,0.510986
1519239771690,-0.302002,0.833496,0.506592
1519239771724,-0.305664,0.827881,0.509277
1519239771756,-0.299072,0.827148,0.510498
1519239771790,-0.301758,0.839111,0.512695
1519239771806,-0.307129,0.842285,0.512207
1519239771855,-0.305908,0.836182,0.514160
1519239771890,-0.305420,0.838867,0.513916
1519239771906,-0.304688,0.830078,0.507324
1519239771956,-0.303223,0.828125,0.505859
1519239771973,-0.301514,0.820313,0.500732
1519239772006,-0.305908,0.826416,0.505127
1519239772039,-0.302246,0.851318,0.507568
1519239772073,-0.302246,0.845947,0.504883
1519239772116,-0.300781,0.853760,0.505371
1519239772139,-0.302002,0.852051,0.505371
1519239772171,-0.300049,0.837402,0.510498
1519239772205,-0.302979,0.824707,0.508789
1519239772237,-0.302490,0.838135,0.515869
1519239772271,-0.302490,0.840576,0.507813
1519239772304,-0.305420,0.832031,0.497803
1519239772337,-0.306641,0.828857,0.498047
1519239772371,-0.308350,0.832520,0.493652
1519239772387,-0.306641,0.836670,0.494141
1519239772437,-0.305664,0.830078,0.506348
1519239772454,-0.298340,0.837158,0.510010
1519239772488,-0.297119,0.824707,0.496094
1519239772537,-0.289063,0.878906,0.504150
1519239772554,-0.301025,0.870605,0.511475
1519239772587,-0.297607,0.843018,0.502197
1519239772620,-0.291260,0.841553,0.502686
1519239772654,-0.293701,0.830078,0.504639
1519239772686,-0.296875,0.845703,0.506836
1519239772720,-0.299561,0.838867,0.507568
1519239772753,-0.298828,0.825439,0.496094
1519239772786,-0.291748,0.843994,0.503174
1519239772820,-0.294922,0.846680,0.516846
1519239772853,-0.307617,0.842773,0.511719
1519239772870,-0.305908,0.842773,0.492920
1519239772919,-0.309082,0.824951,0.484375
1519239772953,-0.312256,0.836182,0.494141
1519239772969,-0.312256,0.829834,0.510010
1519239773017,-0.307861,0.837646,0.502930
1519239773035,-0.310059,0.840820,0.504639
1519239773069,-0.316406,0.852295,0.502930
1519239773101,-0.325195,0.849365,0.495850
1519239773135,-0.327393,0.859375,0.480713
1519239773168,-0.336182,0.830322,0.487061
1519239773201,-0.339844,0.857666,0.520020
1519239773234,-0.360107,0.849365,0.516846
1519239773267,-0.348633,0.825684,0.447021
1519239773340,-0.336914,0.792236,0.477539
1519239773341,-0.322021,0.759766,0.502930
1519239773409,-0.306396,0.780762,0.503662
1519239773410,-0.297607,0.916504,0.533447
1519239773477,-0.319824,0.895508,0.526855
1519239773479,-0.325684,0.841064,0.504639
1519239773546,-0.339844,0.825195,0.500977
1519239773547,-0.341797,0.827148,0.502197
1519239773615,-0.344482,0.827881,0.499756
1519239773616,-0.346924,0.852783,0.505371
1519239773684,-0.345215,0.851807,0.502441
1519239773749,-0.352539,0.846191,0.504639
1519239773751,-0.353027,0.820068,0.504639
1519239773816,-0.364502,0.796143,0.504150
1519239773819,-0.371826,0.783936,0.503906
1519239773859,-0.371094,0.789063,0.501221
1519239773862,-0.373779,0.783936,0.487549
1519239773864,-0.385254,0.700684,0.409668
1519239773883,-0.404297,0.888184,0.445557
1519239773915,-0.413574,0.760498,0.505859
1519239773949,-0.379150,0.878174,0.459961
1519239773982,-0.394043,0.825684,0.390381
1519239774016,-0.366455,0.839844,0.253906
1519239774032,-0.385010,0.770264,0.157715
1519239774084,-0.358643,0.908447,0.126221
1519239774098,-0.361328,0.937500,-0.011475
1519239774132,-0.352051,1.114990,-0.022949
1519239774165,-0.360596,0.915527,-0.088867
1519239774198,-0.331299,0.933105,-0.170654
1519239774230,-0.334473,0.949707,-0.182861
1519239774264,-0.304932,0.889404,-0.243896
1519239774297,-0.218750,0.914551,-0.265625
1519239774330,-0.295410,0.991211,-0.339355
1519239774364,-0.295166,0.849609,-0.364258
1519239774397,-0.312500,0.879883,-0.440674
1519239774431,-0.337891,0.830811,-0.433838
1519239774465,-0.335449,0.802002,-0.397217
1519239774498,-0.326660,0.861328,-0.454590
1519239774514,-0.315430,0.803711,-0.445068
1519239774563,-0.329346,0.847168,-0.471191
1519239774598,-0.319824,0.843262,-0.492432
1519239774615,-0.326416,0.866211,-0.505371
1519239774663,-0.324707,0.832764,-0.486572
1519239774680,-0.318604,0.854980,-0.458984
1519239774713,-0.318115,0.879883,-0.431641
1519239774745,-0.333984,0.840576,-0.448486
1519239774779,-0.341797,0.884277,-0.427734
1519239774812,-0.345459,0.885254,-0.406006
1519239774845,-0.338623,0.848145,-0.439453
1519239774882,-0.344971,0.784424,-0.439941
1519239774910,-0.350342,0.834961,-0.428467
1519239774944,-0.340088,0.867920,-0.416260
1519239774979,-0.340088,0.872314,-0.417725
1519239775012,-0.342285,0.847168,-0.405762
1519239775044,-0.340332,0.850098,-0.418457
1519239775078,-0.336426,0.805420,-0.398682
1519239775094,-0.320068,0.862305,-0.412598
1519239775144,-0.375977,0.879883,-0.447998
1519239775160,-0.355957,0.828369,-0.406250
1519239775193,-0.353760,0.833496,-0.404785
1519239775244,-0.339600,0.865723,-0.441895
1519239775261,-0.360352,0.867188,-0.433350
1519239775293,-0.344971,0.854736,-0.404541
1519239775327,-0.342041,0.855713,-0.414063
1519239775361,-0.339111,0.825684,-0.416504
1519239775393,-0.345703,0.837646,-0.427734
1519239775427,-0.359619,0.855713,-0.431152
1519239775459,-0.347168,0.864014,-0.432617
1519239775498,-0.358887,0.849365,-0.425049
1519239775525,-0.342773,0.854492,-0.424805
1519239775571,-0.343018,0.840088,-0.429199
1519239775575,-0.337646,0.863037,-0.440186
1519239775625,-0.333252,0.858398,-0.433594
1519239775664,-0.315186,0.864990,-0.423828
1519239775675,-0.357178,0.836914,-0.445557
1519239775724,-0.319336,0.832764,-0.411621
1519239775741,-0.327637,0.896240,-0.464355
1519239775775,-0.359863,0.891113,-0.441162
1519239775808,-0.339844,0.807617,-0.429199
1519239775842,-0.340576,0.846924,-0.451172
1519239775874,-0.340820,0.860107,-0.456299
1519239775908,-0.335449,0.822998,-0.448975
1519239775941,-0.341553,0.833008,-0.453613
1519239775974,-0.339844,0.838623,-0.467285
1519239776008,-0.346191,0.829102,-0.468262
1519239776041,-0.345459,0.817627,-0.465088
1519239776074,-0.347656,0.836670,-0.472656
1519239776107,-0.347412,0.837402,-0.462891
1519239776141,-0.347412,0.830566,-0.458008
1519239776157,-0.346924,0.824707,-0.460938
1519239776206,-0.347656,0.830811,-0.459717
1519239776223,-0.354980,0.833740,-0.460449
1519239776261,-0.349854,0.827148,-0.461182
1519239776307,-0.341797,0.828125,-0.463623
1519239776323,-0.348877,0.822754,-0.461914
1519239776360,-0.338135,0.823975,-0.470459
1519239776390,-0.339844,0.849121,-0.471436
1519239776439,-0.350830,0.845459,-0.463135
1519239776460,-0.354736,0.807617,-0.471680
1519239776491,-0.356201,0.816406,-0.465088
1519239776523,-0.352051,0.828369,-0.457764
1519239776556,-0.360840,0.808594,-0.460449
1519239776592,-0.361328,0.824707,-0.466309
1519239776623,-0.355225,0.832764,-0.474121
1519239776657,-0.356201,0.836182,-0.464844
1519239776689,-0.352539,0.829834,-0.458252
1519239776722,-0.344727,0.851074,-0.464355
1519239776738,-0.348877,0.804688,-0.443359
1519239776787,-0.330078,0.800537,-0.451904
1519239776804,-0.364014,0.870850,-0.505127
1519239776848,-0.369141,0.828369,-0.474365
1519239776871,-0.364014,0.789063,-0.459473
1519239776904,-0.358398,0.811279,-0.464111
1519239776937,-0.356934,0.832764,-0.468750
1519239776971,-0.359131,0.829834,-0.470459
1519239777003,-0.360596,0.824219,-0.480957
1519239777037,-0.359619,0.826172,-0.475830
1519239777070,-0.357910,0.828857,-0.462646
1519239777103,-0.355469,0.823730,-0.464844
1519239777136,-0.355713,0.825684,-0.476074
1519239777169,-0.349121,0.828857,-0.466309
1519239777203,-0.347168,0.813965,-0.470215
1519239777259,-0.349854,0.794678,-0.484863
1519239777269,-0.363770,0.805664,-0.480713
1519239777304,-0.371094,0.822998,-0.478271
1519239777325,-0.372314,0.821777,-0.474365
1519239777371,-0.358887,0.814697,-0.469971
1519239777396,-0.356689,0.818848,-0.471924
1519239777420,-0.345215,0.832275,-0.458740
1519239777453,-0.354980,0.820313,-0.483154
1519239777485,-0.361572,0.813477,-0.501953
1519239777539,-0.377197,0.813965,-0.487793
1519239777551,-0.343750,0.820313,-0.454590
1519239777584,-0.343750,0.815186,-0.449707
1519239777617,-0.348145,0.801514,-0.465332
1519239777654,-0.339844,0.844238,-0.468750
1519239777682,-0.343018,0.803223,-0.448975
1519239777716,-0.327393,0.836914,-0.476074
1519239777750,-0.366211,0.842773,-0.484131
1519239777784,-0.360596,0.822021,-0.474609
1519239777800,-0.357178,0.821289,-0.499756
1519239777849,-0.360107,0.827393,-0.455566
1519239777866,-0.348877,0.828369,-0.463135
1519239777900,-0.346924,0.837891,-0.450195
1519239777950,-0.344727,0.847168,-0.457031
1519239777966,-0.350586,0.820068,-0.458496
1519239777999,-0.360352,0.831055,-0.460449
1519239778040,-0.362061,0.834229,-0.446533
1519239778065,-0.357178,0.841309,-0.446045
1519239778097,-0.359619,0.845947,-0.454834
1519239778132,-0.374512,0.853271,-0.465332
1519239778165,-0.375977,0.836426,-0.448730
1519239778199,-0.371826,0.836182,-0.420166
1519239778232,-0.378662,0.838135,-0.403564
1519239778265,-0.378174,0.843506,-0.401855
1519239778282,-0.378418,0.835693,-0.399902
1519239778348,-0.376465,0.834473,-0.378906
1519239778414,-0.387207,0.817627,-0.401367
1519239778415,-0.382568,0.809082,-0.406738
1519239778483,-0.388916,0.839600,-0.401611
1519239778815,-0.389404,0.843018,-0.397949
1519239778860,-0.385498,0.837158,-0.401855
1519239778873,-0.388916,0.844971,-0.406494
1519239778874,-0.390625,0.840088,-0.403076
1519239778876,-0.394287,0.825439,-0.405273
1519239778878,-0.386475,0.841309,-0.412598
1519239778879,-0.386963,0.853760,-0.415771
1519239778891,-0.388184,0.870850,-0.413818
1519239778893,-0.379639,0.849609,-0.399658
1519239778896,-0.370361,0.849365,-0.399658
1519239778897,-0.371582,0.844971,-0.405518
1519239778898,-0.384521,0.852051,-0.412109
1519239778899,-0.377441,0.860596,-0.407227
1519239778900,-0.388184,0.847656,-0.415771
1519239778913,-0.382813,0.828613,-0.405273
1519239778953,-0.372803,0.835938,-0.398193
1519239778963,-0.383301,0.834717,-0.394043
1519239779012,-0.379883,0.843994,-0.403076
1519239779032,-0.372803,0.846680,-0.402100
1519239779061,-0.370850,0.844482,-0.400635
1519239779108,-0.371582,0.857666,-0.407471
1519239779129,-0.368652,0.861084,-0.399658
1519239779160,-0.368408,0.855957,-0.396729
1519239779195,-0.368164,0.855225,-0.400635
1519239779226,-0.364746,0.857422,-0.406494
1519239779262,-0.367676,0.861572,-0.401611
1519239779294,-0.366699,0.859863,-0.394287
1519239779340,-0.373779,0.857666,-0.398926
1519239779345,-0.371338,0.860352,-0.402344
1519239779393,-0.368896,0.855469,-0.395264
1519239779426,-0.358154,0.864990,-0.399170
1519239779444,-0.365479,0.851563,-0.389404
1519239779494,-0.364258,0.859863,-0.386230
1519239779543,-0.371094,0.854492,-0.381348
1519239779546,-0.376709,0.848389,-0.387207
1519239779576,-0.377930,0.858887,-0.389160
1519239779623,-0.367920,0.859375,-0.389648
1519239779643,-0.376709,0.852295,-0.390625
1519239779676,-0.373047,0.866943,-0.395020
1519239779728,-0.364746,0.867920,-0.386963
1519239779742,-0.365234,0.856689,-0.389648
1519239779806,-0.366455,0.861816,-0.396240
1519239779808,-0.370361,0.852295,-0.395264
1519239779843,-0.363770,0.859863,-0.396973
1519239779875,-0.359863,0.861816,-0.393311
1519239779909,-0.357422,0.862305,-0.403320
1519239779925,-0.359131,0.863525,-0.409424
1519239779975,-0.358154,0.858887,-0.409180
1519239779991,-0.355469,0.843018,-0.392334
1519239780025,-0.362793,0.832764,-0.381348
1519239780074,-0.358154,0.850342,-0.378906
1519239780099,-0.352539,0.869873,-0.391846
1519239780124,-0.354004,0.871094,-0.397705
1519239780157,-0.357666,0.861084,-0.392578
1519239780191,-0.346436,0.864258,-0.390381
1519239780224,-0.356201,0.851563,-0.392090
1519239780257,-0.364746,0.853516,-0.400146
1519239780290,-0.358887,0.849121,-0.395020
1519239780324,-0.360596,0.844971,-0.391113
1519239780356,-0.341797,0.863525,-0.396240
1519239780390,-0.346191,0.858643,-0.403564
1519239780423,-0.348145,0.854248,-0.407959
1519239780456,-0.335693,0.855957,-0.405762
1519239780491,-0.327881,0.893311,-0.419922
1519239780506,-0.330811,0.854248,-0.407471
1519239780556,-0.338135,0.869873,-0.426025
1519239780574,-0.306641,0.875000,-0.409180
1519239780615,-0.318848,0.862061,-0.389160
1519239780656,-0.318848,0.852051,-0.423340
1519239780706,-0.302246,0.867188,-0.426514
1519239780707,-0.301514,0.865967,-0.453857
1519239780739,-0.269043,0.864990,-0.460449
1519239780772,-0.274902,0.885498,-0.479492
1519239780805,-0.273926,0.887939,-0.476318
1519239780844,-0.265137,0.850586,-0.473145
1519239780874,-0.257568,0.837891,-0.467041
1519239780904,-0.255127,0.845459,-0.457764
1519239780937,-0.255371,0.856201,-0.452393
1519239780984,-0.254395,0.890869,-0.440674
1519239780992,-0.232178,0.912598,-0.421143
1519239781040,-0.244385,0.927490,-0.423096
1519239781070,-0.250977,0.913086,-0.391357
1519239781116,-0.268555,0.837158,-0.363770
1519239781136,-0.274902,0.898682,-0.381348
1519239781162,-0.287354,0.918701,-0.390137
1519239781187,-0.270996,0.915039,-0.386230
1519239781220,-0.270508,0.902100,-0.375000
1519239781259,-0.247559,0.925781,-0.376465
1519239781286,-0.227295,0.964111,-0.374023
1519239781349,-0.178955,0.935059,-0.361816
1519239781352,-0.189697,0.919189,-0.332031
1519239781386,-0.177246,0.963623,-0.272217
1519239781430,-0.183350,1.020508,-0.235596
1519239781453,-0.184082,1.026123,-0.273926
1519239781485,-0.210205,0.977295,-0.228027
1519239781519,-0.209473,0.983398,-0.137207
1519239781551,-0.229248,1.015625,-0.077148
1519239781591,-0.252686,1.039795,-0.037109
1519239781619,-0.245117,1.064697,0.048584
1519239781635,-0.279053,1.076904,0.153809
1519239781669,-0.316162,0.933594,0.236816
1519239781717,-0.319336,0.906982,0.285645
1519239781739,-0.316162,0.830078,0.348389
1519239781766,-0.316650,0.821045,0.385498
1519239781801,-0.332520,0.772461,0.412109
1519239781834,-0.325928,0.751221,0.435303
1519239781867,-0.335449,0.755615,0.458496
1519239781901,-0.323242,0.805908,0.501221
1519239781934,-0.310303,0.847656,0.508057
1519239781966,-0.321289,0.852539,0.520508
1519239782000,-0.326660,0.825928,0.528320
1519239782032,-0.326904,0.816895,0.521729
1519239782050,-0.332031,0.826660,0.529297
1519239782100,-0.351074,0.780273,0.476318
1519239782135,-0.320557,0.808350,0.442383
1519239782150,-0.328857,0.834961,0.440430
1519239782199,-0.345215,0.879883,0.453125
1519239782216,-0.359375,0.883301,0.454346
1519239782249,-0.367188,0.880859,0.447754
1519239782282,-0.375732,0.894043,0.477051
1519239782315,-0.366699,0.896973,0.479004
1519239782349,-0.368652,0.853027,0.495850
1519239782382,-0.359863,0.837402,0.506104
1519239782424,-0.354248,0.760254,0.496338
1519239782449,-0.338135,0.796631,0.501465
1519239782483,-0.322266,0.801025,0.528320
1519239782514,-0.313965,0.804932,0.534424
1519239782547,-0.319824,0.810791,0.518555
1519239782600,-0.328857,0.810303,0.520264
1519239782614,-0.333496,0.792480,0.518311
1519239782631,-0.334473,0.814697,0.532227
1519239782681,-0.341553,0.818604,0.514160
1519239782725,-0.342041,0.813965,0.510498
1519239782731,-0.337646,0.820801,0.514893
1519239782780,-0.341797,0.809326,0.521973
1519239782803,-0.343506,0.810059,0.510498
1519239782830,-0.341553,0.816650,0.497314
1519239782881,-0.344482,0.816406,0.508057
1519239782896,-0.338135,0.806396,0.516602
1519239782936,-0.350342,0.822266,0.530762
1519239782964,-0.356201,0.824463,0.520508
1519239782996,-0.345703,0.821045,0.516113
1519239783039,-0.351074,0.822754,0.513672
1519239783062,-0.353760,0.817627,0.510742
1519239783096,-0.352783,0.812500,0.514404
1519239783129,-0.347900,0.811279,0.505615
1519239783162,-0.348389,0.818115,0.504639
1519239783195,-0.350586,0.813477,0.511963
1519239783212,-0.349121,0.814453,0.509277
1519239783261,-0.351074,0.814697,0.511963
1519239783279,-0.350342,0.819824,0.506348
1519239783345,-0.354248,0.821533,0.516602
1519239783749,-0.356445,0.822021,0.514404
1519239783817,-0.359131,0.818359,0.521973
1519239783824,-0.354736,0.814697,0.512939
1519239783838,-0.354736,0.818115,0.513428
1519239783841,-0.355469,0.815674,0.515137
1519239783844,-0.351807,0.812500,0.510498
1519239783847,-0.356934,0.807373,0.514893
1519239783851,-0.350586,0.809082,0.517822
1519239783854,-0.353027,0.811768,0.516602
1519239783857,-0.358887,0.814453,0.504883
1519239783860,-0.364502,0.820801,0.519287
1519239783863,-0.370850,0.800049,0.506104
1519239783866,-0.368164,0.820801,0.504395
1519239783870,-0.378174,0.828125,0.504883
1519239783873,-0.380615,0.842041,0.514160
1519239783875,-0.388428,0.879150,0.515137
1519239783878,-0.405762,0.866455,0.506104
1519239783893,-0.421631,0.818359,0.494141
1519239783940,-0.418701,0.802002,0.464355
1519239783961,-0.417480,0.789795,0.456787
1519239783995,-0.418701,0.780518,0.455811
1519239784028,-0.431152,0.784180,0.454102
1519239784061,-0.449219,0.838135,0.458984
1519239784094,-0.450684,0.856445,0.446045
1519239784125,-0.469482,0.822266,0.430908
1519239784159,-0.479004,0.801025,0.425293
1519239784193,-0.484863,0.773193,0.424561
1519239784226,-0.507324,0.772461,0.452881
1519239784259,-0.502686,0.651611,0.476807
1519239784275,-0.503906,0.655029,0.485596
1519239784324,-0.512207,0.719727,0.515625
1519239784342,-0.506104,0.728516,0.517822
1519239784374,-0.505127,0.725586,0.499268
1519239784426,-0.520752,0.741699,0.491455
1519239784443,-0.525146,0.747559,0.486084
1519239784476,-0.534180,0.747314,0.485840
1519239784509,-0.533447,0.729492,0.472656
1519239784542,-0.542725,0.720703,0.465088
1519239784577,-0.550049,0.680908,0.453613
1519239784609,-0.527100,0.712158,0.453369
1519239784642,-0.522705,0.753662,0.487549
1519239784673,-0.534912,0.769287,0.492920
1519239784708,-0.544434,0.738281,0.482422
1519239784739,-0.531494,0.748047,0.493652
1519239784757,-0.536621,0.728760,0.481934
1519239784809,-0.533447,0.719482,0.476318
1519239784842,-0.548584,0.725830,0.489746
1519239784859,-0.551270,0.720215,0.476318
1519239784908,-0.550049,0.715088,0.467529
1519239784925,-0.546143,0.695313,0.447754
1519239784957,-0.536865,0.705078,0.447754
1519239784992,-0.534912,0.765869,0.474365
1519239785025,-0.539063,0.778564,0.475586
1519239785056,-0.548584,0.765869,0.471436
1519239785090,-0.547363,0.734131,0.464600
1519239785124,-0.540039,0.732910,0.463867
1519239785157,-0.538574,0.731689,0.454346
1519239785190,-0.541016,0.689453,0.455322
1519239785223,-0.532715,0.680176,0.418945
1519239785257,-0.511230,0.709717,0.436523
1519239785289,-0.509033,0.734375,0.479492
1519239785320,-0.504639,0.747314,0.508301
1519239785338,-0.505615,0.771729,0.517822
1519239785388,-0.502930,0.759521,0.495850
1519239785406,-0.494385,0.783691,0.490479
1519239785438,-0.488525,0.778564,0.486084
1519239785489,-0.479736,0.780762,0.522705
1519239785505,-0.474121,0.751221,0.506348
1519239785537,-0.472656,0.774414,0.518066
1519239785572,-0.477783,0.767334,0.513184
1519239785605,-0.467773,0.758301,0.507080
1519239785638,-0.461182,0.774658,0.510986
1519239785671,-0.473389,0.763184,0.506592
1519239785703,-0.477295,0.763428,0.504639
1519239785735,-0.470703,0.779053,0.510010
1519239785769,-0.467285,0.752930,0.537598
1519239785802,-0.469727,0.736328,0.561523
1519239785820,-0.466797,0.738281,0.549072
1519239785875,-0.466309,0.754883,0.523438
1519239785902,-0.469971,0.752197,0.501465
1519239785920,-0.457275,0.756348,0.502441
1519239785970,-0.459473,0.755859,0.517334
1519239785988,-0.470215,0.715088,0.537598
1519239786020,-0.465820,0.704102,0.536865
1519239786052,-0.465332,0.713135,0.547119
1519239786084,-0.473633,0.737061,0.559570
1519239786117,-0.472656,0.763184,0.565918
1519239786150,-0.469727,0.750488,0.555908
1519239786185,-0.473877,0.719238,0.548096
1519239786216,-0.463135,0.726563,0.555664
1519239786250,-0.457275,0.726074,0.544434
1519239786282,-0.459473,0.724854,0.537842
1519239786316,-0.465088,0.716553,0.544922
1519239786351,-0.457275,0.738037,0.561035
1519239786383,-0.453857,0.720947,0.539063
1519239786400,-0.453857,0.721191,0.546875
1519239786449,-0.452148,0.723633,0.556885
1519239786466,-0.448242,0.745850,0.564209
1519239786499,-0.449219,0.741455,0.563232
1519239786549,-0.448975,0.721680,0.562256
1519239786565,-0.448486,0.728271,0.570557
1519239786599,-0.448242,0.719482,0.557861
1519239786633,-0.449463,0.723389,0.562744
1519239786674,-0.447754,0.724365,0.565674
1519239786699,-0.449707,0.732910,0.570801
1519239786731,-0.441650,0.734619,0.562988
1519239786764,-0.447021,0.727783,0.575439
1519239786799,-0.449219,0.738770,0.576172
1519239786831,-0.450684,0.747314,0.580078
1519239786864,-0.453613,0.724121,0.561768
1519239786897,-0.447266,0.734375,0.562744
1519239786931,-0.448975,0.727295,0.549561
1519239786964,-0.452393,0.730713,0.551758
1519239786981,-0.446533,0.726074,0.548340
1519239787030,-0.447266,0.737061,0.545898
1519239787047,-0.454590,0.727539,0.543213
1519239787080,-0.458008,0.726807,0.537354
1519239787113,-0.461914,0.719482,0.537109
1519239787146,-0.461914,0.735107,0.541748
1519239787180,-0.464111,0.734619,0.537354
1519239787212,-0.471191,0.754639,0.553223
1519239787246,-0.475098,0.755615,0.559326
1519239787280,-0.472900,0.738037,0.550781
1519239787312,-0.466064,0.738037,0.542236
1519239787346,-0.466064,0.737305,0.532715
1519239787379,-0.466309,0.745850,0.532471
1519239787417,-0.463135,0.747314,0.527100
1519239787445,-0.461670,0.728027,0.521240
1519239787506,-0.459717,0.742676,0.524414
1519239787512,-0.460205,0.742432,0.525635
1519239787545,-0.461670,0.743652,0.530029
1519239787566,-0.455322,0.745117,0.522705
1519239787611,-0.450928,0.757813,0.540527
1519239787629,-0.454102,0.758057,0.535645
1519239787661,-0.448975,0.736084,0.536621
1519239787697,-0.443604,0.759277,0.543213
1519239787727,-0.446777,0.784668,0.541748
1519239787778,-0.447510,0.760010,0.530273
1519239787793,-0.437988,0.762939,0.528320
1519239787827,-0.437744,0.754150,0.532471
1519239787860,-0.437744,0.766602,0.532227
1519239787901,-0.444092,0.761963,0.535400
1519239787926,-0.437988,0.758301,0.531494
1519239787960,-0.439941,0.754883,0.528809
1519239787992,-0.437500,0.758057,0.536133
1519239788026,-0.437744,0.752441,0.535156
1519239788044,-0.438232,0.758301,0.536865
1519239788092,-0.438477,0.763184,0.536377
1519239788110,-0.440186,0.757080,0.538086
1519239788142,-0.439697,0.752686,0.539795
1519239788192,-0.436523,0.764404,0.531250
1519239788209,-0.432617,0.759277,0.524170
1519239788242,-0.437500,0.760986,0.529785
1519239788287,-0.432617,0.762207,0.531250
1519239788353,-0.429199,0.761475,0.533203
1519239788419,-0.433838,0.760742,0.534180
1519239788486,-0.439697,0.764404,0.539307
1519239788554,-0.439941,0.755371,0.532471
1519239788621,-0.440430,0.755615,0.524902
1519239788623,-0.436279,0.755859,0.525635
1519239788690,-0.437744,0.755615,0.526123
1519239788692,-0.439697,0.752930,0.530518
1519239788759,-0.439697,0.764648,0.531982
1519239788760,-0.443604,0.750732,0.528320
1519239788826,-0.437744,0.763672,0.530762
1519239788827,-0.434570,0.757324,0.511719
1519239788829,-0.427490,0.768555,0.518555
1519239788830,-0.431641,0.758789,0.520020
1519239788831,-0.434570,0.761963,0.524658
1519239788832,-0.444336,0.765381,0.528809
1519239788833,-0.449951,0.753906,0.531738
1519239788857,-0.447510,0.757324,0.522461
1519239788890,-0.447510,0.771729,0.530029
1519239788922,-0.449219,0.781494,0.531250
1519239788955,-0.443115,0.777344,0.522705
1519239788989,-0.438965,0.764404,0.519043
1519239789022,-0.435303,0.758789,0.519775
1519239789059,-0.432617,0.767090,0.514160
1519239789089,-0.437012,0.768799,0.522217
1519239789106,-0.439941,0.766602,0.522949
1519239789155,-0.441162,0.771484,0.520752
1519239789173,-0.439453,0.769287,0.515625
1519239789205,-0.440918,0.763184,0.512695
1519239789255,-0.438721,0.761963,0.518311
1519239789271,-0.441650,0.767822,0.520996
1519239789305,-0.439697,0.767090,0.518066
1519239789339,-0.438232,0.778564,0.514404
1519239789372,-0.429443,0.770996,0.510986
1519239789404,-0.434082,0.778320,0.514893
1519239789442,-0.435303,0.782471,0.525635
1519239789470,-0.441650,0.771240,0.514648
1519239789516,-0.446045,0.755859,0.508057
1519239789537,-0.448975,0.752197,0.509521
1519239789570,-0.447754,0.762451,0.517334
1519239789603,-0.450439,0.760742,0.505127
1519239789636,-0.447510,0.773193,0.507568
1519239789670,-0.444824,0.787354,0.516846
1519239789686,-0.449463,0.783447,0.509033
1519239789736,-0.448730,0.758789,0.511475
1519239789752,-0.447266,0.763184,0.509521
1519239789786,-0.451904,0.762939,0.505859
1519239789820,-0.447266,0.777832,0.509521
1519239789852,-0.448975,0.771484,0.507324
1519239789886,-0.449951,0.773926,0.511230
1519239789919,-0.444824,0.776367,0.511475
1519239789952,-0.447510,0.772461,0.509766
1519239789985,-0.447266,0.756836,0.508057
1519239790019,-0.449707,0.758789,0.502930
1519239790051,-0.447998,0.758789,0.509277
1519239790085,-0.445313,0.776855,0.517578
1519239790117,-0.448730,0.786133,0.505371
1519239790151,-0.447754,0.770264,0.502686
1519239790167,-0.451660,0.759033,0.500977
1519239790217,-0.455811,0.768799,0.485107
1519239790251,-0.464844,0.762695,0.519287
1519239790267,-0.468262,0.780029,0.555176
1519239790339,-0.473877,0.788330,0.559570
1519239790340,-0.475830,0.770264,0.554199
1519239790367,-0.469482,0.736084,0.539795
1519239790400,-0.452637,0.731934,0.541260
1519239790434,-0.441406,0.739990,0.528809
1519239790466,-0.436035,0.727783,0.539063
1519239790500,-0.423096,0.721436,0.549316
1519239790532,-0.417480,0.769775,0.542969
1519239790566,-0.418213,0.740234,0.543213
1519239790600,-0.421875,0.752930,0.521484
1519239790639,-0.427246,0.759033,0.498291
1519239790666,-0.434570,0.759521,0.503906
1519239790730,-0.443604,0.714844,0.523926
1519239790731,-0.449951,0.762939,0.537598
1519239790749,-0.467773,0.749512,0.542480
1519239790805,-0.477051,0.723389,0.552979
1519239790815,-0.476807,0.699707,0.551758
1519239790849,-0.474854,0.716064,0.564209
1519239790899,-0.468262,0.759521,0.570557
1519239790915,-0.458740,0.802002,0.572510
1519239790959,-0.444336,0.787109,0.556152
1519239790982,-0.432617,0.754883,0.532959
1519239791015,-0.429199,0.751465,0.538330
1519239791047,-0.431396,0.743408,0.530273
1519239791081,-0.444824,0.742188,0.536865
1519239791120,-0.447021,0.743408,0.547119
1519239791148,-0.447754,0.742920,0.551514
1519239791181,-0.442627,0.747559,0.545898
1519239791214,-0.437256,0.750732,0.545166
1519239791230,-0.437744,0.746582,0.542236
1519239791280,-0.440674,0.747803,0.539795
1519239791314,-0.441406,0.747559,0.536621
1519239791330,-0.445068,0.742432,0.546143
1519239791380,-0.449463,0.749268,0.548096
1519239791396,-0.447021,0.748047,0.545898
1519239791430,-0.444092,0.746338,0.530029
1519239791463,-0.447754,0.732422,0.551514
1519239791506,-0.434570,0.739990,0.541748
1519239791529,-0.438721,0.757568,0.554688
1519239791563,-0.444336,0.768066,0.542236
1519239791619,-0.446289,0.748535,0.537109
1519239791629,-0.443115,0.736816,0.526367
1519239791663,-0.451172,0.725830,0.523438
1519239791695,-0.453369,0.751709,0.532471
1519239791729,-0.457764,0.749268,0.523438
1519239791761,-0.457275,0.756836,0.530273
1519239791795,-0.456055,0.753174,0.538818
1519239791811,-0.456787,0.770996,0.544434
1519239791861,-0.452148,0.760254,0.535645
1519239791879,-0.447510,0.755127,0.528809
1519239791911,-0.447754,0.749023,0.526123
1519239791961,-0.447998,0.755127,0.536865
1519239791977,-0.445313,0.762451,0.538574
1519239792010,-0.447266,0.764648,0.532227
1519239792044,-0.445801,0.761719,0.523438
1519239792077,-0.447021,0.744873,0.534668
1519239792110,-0.445801,0.759277,0.533447
1519239792144,-0.451172,0.760498,0.535156
1519239792176,-0.451660,0.740723,0.532227
1519239792211,-0.459473,0.765137,0.524414
1519239792243,-0.461914,0.763672,0.558350
1519239792276,-0.455566,0.736084,0.564697
1519239792310,-0.446045,0.693848,0.550537
1519239792342,-0.435791,0.757324,0.542480
1519239792376,-0.440186,0.770020,0.554199
1519239792392,-0.446045,0.733643,0.550293
1519239792441,-0.438477,0.729980,0.535645
1519239792459,-0.449707,0.746826,0.546631
1519239792492,-0.460938,0.761719,0.562012
1519239792541,-0.472412,0.742920,0.548828
1519239792559,-0.485840,0.729248,0.548096
1519239792591,-0.472656,0.721924,0.545410
1519239792625,-0.449707,0.689209,0.553467
1519239792658,-0.432129,0.684326,0.551025
1519239792691,-0.416260,0.747803,0.565430
1519239792725,-0.383545,0.668701,0.577637
1519239792757,-0.342529,0.802246,0.587891
1519239792791,-0.380127,0.801758,0.599121
1519239792826,-0.418457,0.742432,0.579102
1519239792857,-0.427490,0.737061,0.552979
1519239792873,-0.430420,0.691406,0.532715
1519239792923,-0.437744,0.691162,0.535645
1519239792957,-0.427734,0.727295,0.491211
1519239792973,-0.418701,0.750000,0.514648
1519239793024,-0.413086,0.740723,0.552979
1519239793040,-0.405762,0.815430,0.499512
1519239793073,-0.401611,0.849121,0.500244
1519239793108,-0.406982,0.869141,0.506836
1519239793140,-0.413818,0.839600,0.479736
1519239793172,-0.413818,0.808838,0.473389
1519239793206,-0.401123,0.769043,0.526123
1519239793238,-0.397461,0.787109,0.521973
1519239793272,-0.387939,0.779541,0.491455
1519239793337,-0.348633,0.854248,0.510986
1519239793339,-0.343018,0.865479,0.505371
1519239793405,-0.341064,0.893555,0.504395
1519239793406,-0.366211,0.842285,0.464355
1519239793472,-0.367920,0.806396,0.458984
1519239793739,-0.370117,0.792969,0.482666
1519239793806,-0.379639,0.827637,0.430664
1519239793856,-0.390869,0.839844,0.420166
1519239793858,-0.393311,0.850586,0.418457
1519239793859,-0.397949,0.838867,0.410645
1519239793860,-0.398682,0.859619,0.413574
1519239793862,-0.394775,0.855225,0.416992
1519239793864,-0.394287,0.846436,0.427979
1519239793865,-0.400879,0.834961,0.435059
1519239793865,-0.404785,0.834473,0.417480
1519239793866,-0.393555,0.816895,0.425049
1519239793867,-0.388184,0.817627,0.439453
1519239793867,-0.392090,0.831055,0.405029
1519239793886,-0.393799,0.852051,0.389648
1519239793930,-0.391357,0.868652,0.408447
1519239793953,-0.400146,0.868896,0.397949
1519239793986,-0.399658,0.879395,0.366943
1519239794020,-0.395508,0.877197,0.395996
1519239794036,-0.388184,0.905762,0.374756
1519239794086,-0.391113,0.903076,0.367676
1519239794102,-0.395264,0.898682,0.379639
1519239794136,-0.385498,0.878174,0.377197
1519239794179,-0.370850,0.885254,0.401123
1519239794202,-0.377930,0.880615,0.412109
1519239794235,-0.373047,0.859619,0.390381
1519239794268,-0.361572,0.849854,0.369141
1519239794301,-0.373535,0.841553,0.390381
1519239794335,-0.373047,0.825684,0.352051
1519239794369,-0.364990,0.879150,0.336182
1519239794401,-0.366699,0.850586,0.419678
1519239794459,-0.381836,0.860352,0.470703
1519239794467,-0.422607,0.823975,0.418213
1519239794501,-0.429932,0.833496,0.434570
1519239794520,-0.428955,0.788086,0.471191
1519239794567,-0.421631,0.796875,0.471436
1519239794600,-0.435547,0.784912,0.505615
1519239794617,-0.425537,0.765137,0.564209
1519239794666,-0.425049,0.759277,0.597900
1519239794683,-0.436279,0.711182,0.614990
1519239794716,-0.439453,0.734619,0.627930
1519239794750,-0.452637,0.721436,0.599609
1519239794784,-0.449463,0.700439,0.605225
1519239794816,-0.437256,0.699219,0.583984
1519239794875,-0.431152,0.711914,0.591553
1519239794881,-0.419434,0.738281,0.603760
1519239794916,-0.420654,0.731934,0.588623
1519239794950,-0.415039,0.721436,0.616455
1519239794982,-0.412598,0.725342,0.634033
1519239795016,-0.402100,0.708984,0.630371
1519239795052,-0.390381,0.702148,0.621826
1519239795082,-0.404785,0.680664,0.587891
1519239795134,-0.412109,0.695557,0.595215
1519239795149,-0.399414,0.718018,0.604248
1519239795165,-0.379395,0.752930,0.610596
1519239795282,-0.357422,0.741943,0.600098
1519239795283,-0.368164,0.718994,0.627930
1519239795285,-0.390137,0.692627,0.628662
1519239795298,-0.396729,0.691406,0.633301
1519239795331,-0.409180,0.692383,0.636963
1519239795365,-0.421143,0.698242,0.648682
1519239795397,-0.428223,0.687500,0.631592
1519239795431,-0.427734,0.700928,0.626221
1519239795464,-0.430420,0.683105,0.623047
1519239795497,-0.424561,0.709473,0.625000
1519239795530,-0.418701,0.697754,0.624756
1519239795564,-0.420166,0.687256,0.615234
1519239795580,-0.418945,0.685547,0.637939
1519239795630,-0.425781,0.693848,0.644287
1519239795662,-0.425537,0.687744,0.645264
1519239795680,-0.426514,0.666992,0.653076
1519239795730,-0.424805,0.687744,0.668213
1519239795746,-0.421631,0.667480,0.664551
1519239795780,-0.422852,0.650146,0.666504
1519239795812,-0.425293,0.671143,0.660645
1519239795846,-0.432617,0.665039,0.651855
1519239795882,-0.430908,0.661865,0.648926
1519239795912,-0.435547,0.678223,0.649902
1519239795956,-0.435059,0.659912,0.652588
1519239795979,-0.423096,0.647217,0.651367
1519239796013,-0.425537,0.643311,0.668945
1519239796045,-0.419922,0.645020,0.676758
1519239796077,-0.417725,0.630371,0.683105
1519239796111,-0.419678,0.648193,0.696533
1519239796145,-0.419922,0.665283,0.697266
1519239796161,-0.423096,0.635010,0.684570
1519239796211,-0.420898,0.637939,0.684814
1519239796244,-0.425781,0.635254,0.689941
1519239796280,-0.433594,0.629883,0.685791
1519239796311,-0.438477,0.628418,0.686523
1519239796347,-0.436035,0.629395,0.695557
1519239796360,-0.439209,0.625244,0.692383
1519239796394,-0.435791,0.608398,0.689941
1519239796427,-0.429688,0.601318,0.682861
1519239796460,-0.426514,0.614746,0.696777
1519239796494,-0.425293,0.634766,0.710938
1519239796526,-0.425049,0.621338,0.704590
1519239796570,-0.427002,0.625732,0.709961
1519239796593,-0.424072,0.601807,0.706299
1519239796626,-0.427246,0.600098,0.704102
1519239796659,-0.422852,0.591797,0.698242
1519239796693,-0.425537,0.606445,0.698730
1519239796740,-0.420898,0.613525,0.713623
1519239796744,-0.425049,0.623291,0.722900
1519239796792,-0.431152,0.613281,0.719971
1519239796807,-0.433838,0.609619,0.731934
1519239796847,-0.435547,0.609375,0.738037
1519239796891,-0.434082,0.593750,0.726563
1519239796909,-0.437012,0.572510,0.713379
1519239796963,-0.434814,0.569092,0.698486
1519239796975,-0.425781,0.569580,0.681396
1519239797007,-0.419189,0.573730,0.675537
1519239797042,-0.416260,0.589111,0.684570
1519239797075,-0.420410,0.599609,0.700195
1519239797109,-0.422607,0.598145,0.704834
1519239797141,-0.430420,0.603760,0.732422
1519239797174,-0.432861,0.607910,0.739502
1519239797207,-0.429199,0.600342,0.728027
1519239797254,-0.431152,0.588379,0.718994
1519239797274,-0.423828,0.600098,0.735352
1519239797306,-0.426025,0.596191,0.731445
1519239797324,-0.428223,0.584961,0.719482
1519239797373,-0.430176,0.586914,0.720459
1519239797390,-0.438965,0.592041,0.726074
1519239797423,-0.440430,0.581787,0.723877
1519239797456,-0.438965,0.591797,0.724365
1519239797490,-0.437256,0.583008,0.721191
1519239797523,-0.434814,0.592285,0.718994
1519239797556,-0.435791,0.572998,0.710693
1519239797589,-0.443115,0.579590,0.714600
1519239797623,-0.446533,0.593750,0.723389
1519239797655,-0.451660,0.606934,0.736084
1519239797689,-0.459717,0.578125,0.721924
1519239797721,-0.466064,0.591064,0.723389
1519239797755,-0.455811,0.614746,0.744141
1519239797799,-0.451660,0.535889,0.720215
1519239797805,-0.409424,0.595459,0.720947
1519239797854,-0.408936,0.605225,0.711182
1519239797888,-0.404785,0.586426,0.679443
1519239797909,-0.396240,0.589111,0.675293
1519239797961,-0.410400,0.590332,0.676270
1519239797971,-0.423096,0.587891,0.683838
1519239798019,-0.432861,0.572998,0.683838
1519239798046,-0.450439,0.587158,0.686523
1519239798071,-0.453125,0.599854,0.685791
1519239798104,-0.450439,0.608154,0.668457
1519239798137,-0.447021,0.623535,0.684082
1519239798170,-0.446045,0.616211,0.691406
1519239798202,-0.460449,0.582520,0.674561
1519239798236,-0.456055,0.583008,0.710693
1519239798270,-0.450195,0.600586,0.731445
1519239798335,-0.434814,0.624268,0.727295
1519239798337,-0.418457,0.641602,0.758057
1519239798403,-0.415527,0.648926,0.752686
1519239798405,-0.421387,0.639648,0.719971
1519239798470,-0.411133,0.635498,0.679199
1519239798472,-0.415527,0.578369,0.721191
1519239798537,-0.395508,0.610596,0.689453
1519239798539,-0.397217,0.663330,0.656006
1519239798605,-0.401611,0.670166,0.649170
1519239798607,-0.417969,0.723633,0.638916
1519239798674,-0.423584,0.647949,0.614502
1519239798676,-0.435059,0.606445,0.539795
1519239798742,-0.409668,0.786133,0.419922
1519239798743,-0.359619,0.801025,0.282959
1519239798810,-0.301514,0.930908,0.176758
1519239798812,-0.297363,1.043457,0.068604
1519239798830,-0.293213,1.060059,-0.030518
1519239798852,-0.294678,1.025635,-0.065430
1519239798886,-0.313477,1.067871,-0.034912
1519239798919,-0.316406,0.993652,-0.037842
1519239798951,-0.321289,0.939209,-0.049561
1519239798969,-0.263428,0.914063,0.024170
1519239799029,-0.264893,1.051514,-0.075684
1519239799038,-0.279785,0.986572,-0.180908
1519239799067,-0.314209,0.919434,-0.199219
1519239799117,-0.315186,0.968506,-0.189941
1519239799134,-0.303223,0.977295,-0.164063
1519239799167,-0.329590,0.795898,-0.226807
1519239799200,-0.315186,1.010742,-0.293213
1519239799241,-0.324707,0.856689,-0.340820
1519239799266,-0.330566,0.867188,-0.304932
1519239799300,-0.298584,0.939697,-0.334717
1519239799334,-0.346436,0.890625,-0.333740
1519239799368,-0.330078,0.822021,-0.412598
1519239799400,-0.315674,0.813721,-0.397705
1519239799433,-0.298340,0.863770,-0.410889
1519239799449,-0.293945,0.878906,-0.492188
1519239799497,-0.298584,0.844482,-0.515625
1519239799531,-0.291504,0.823730,-0.546875
1519239799550,-0.284180,0.822266,-0.554688
1519239799599,-0.265381,0.830811,-0.560059
1519239799616,-0.291504,0.749512,-0.529541
1519239799647,-0.280029,0.743408,-0.555176
1519239799684,-0.307861,0.813232,-0.600586
1519239799715,-0.308838,0.756836,-0.599854
1519239799749,-0.298584,0.789063,-0.590332
1519239799781,-0.290283,0.850586,-0.617432
1519239799815,-0.283936,0.849609,-0.606445
1519239799848,-0.279053,0.814209,-0.534668
1519239799882,-0.270264,0.795166,-0.481689
1519239799914,-0.265625,0.787354,-0.492432
1519239799947,-0.260986,0.775879,-0.506104
1519239799979,-0.277344,0.761963,-0.542725
1519239800013,-0.262451,0.781738,-0.559814
1519239800030,-0.260986,0.791016,-0.561768
1519239800079,-0.253418,0.814453,-0.561279
1519239800113,-0.250488,0.833496,-0.560547
1519239800129,-0.234131,0.855713,-0.550293
1519239800177,-0.200928,0.825439,-0.520264
1519239800195,-0.167725,0.782227,-0.485596
1519239800229,-0.182129,0.874756,-0.560547
1519239800261,-0.201904,0.784912,-0.492920
1519239800295,-0.194824,0.793945,-0.500244
1519239800329,-0.211426,0.834473,-0.488525
1519239800361,-0.208740,0.849121,-0.494141
1519239800394,-0.208740,0.845703,-0.495605
1519239800427,-0.209473,0.867188,-0.498047
1519239800461,-0.201416,0.858398,-0.502441
1519239800494,-0.206543,0.857422,-0.507324
1519239800527,-0.217041,0.860107,-0.495117
1519239800579,-0.210693,0.859619,-0.515625
1519239800594,-0.203857,0.875244,-0.514893
1519239800610,-0.203613,0.897461,-0.516602
1519239800660,-0.198730,0.896484,-0.494629
1519239800677,-0.210449,0.847900,-0.448730
1519239800710,-0.233398,0.866943,-0.421143
1519239800760,-0.227295,0.885986,-0.431885
1519239800776,-0.228760,0.876221,-0.438721
1519239800825,-0.225830,0.872559,-0.436035
1519239800843,-0.205811,0.865234,-0.420898
1519239800886,-0.202637,0.883301,-0.416016
1519239800909,-0.198242,0.897461,-0.408691
1519239800942,-0.206055,0.900879,-0.409180
1519239800975,-0.198975,0.885498,-0.395508
1519239801009,-0.222900,0.883057,-0.391357
1519239801042,-0.244385,0.886230,-0.441895
1519239801075,-0.249512,0.900879,-0.448730
1519239801109,-0.256104,0.888672,-0.442139
1519239801143,-0.281738,0.890137,-0.435059
1519239801175,-0.309326,0.901855,-0.448730
1519239801243,-0.316895,0.905029,-0.465576
1519239801245,-0.276367,0.901855,-0.453857
1519239801257,-0.290527,0.857666,-0.413818
1519239801309,-0.309326,0.835205,-0.410156
1519239801325,-0.319580,0.824463,-0.453857
1519239801357,-0.309814,0.781494,-0.441895
1519239801390,-0.306152,0.815186,-0.448242
1519239801423,-0.298828,0.829590,-0.478760
1519239801458,-0.286621,0.836426,-0.457275
1519239801490,-0.276611,0.844727,-0.460449
1519239801523,-0.277100,0.846191,-0.459717
1519239801556,-0.286621,0.850830,-0.440918
1519239801593,-0.280518,0.852539,-0.411133
1519239801622,-0.273438,0.871826,-0.420898
1519239801656,-0.275146,0.872559,-0.427246
1519239801673,-0.277100,0.887695,-0.423340
1519239801722,-0.265869,0.870361,-0.417480
1519239801757,-0.268311,0.853760,-0.406982
1519239801776,-0.263428,0.869141,-0.410156
1519239801822,-0.268311,0.885010,-0.398193
1519239801859,-0.266846,0.892578,-0.391357
1519239801872,-0.262695,0.898438,-0.375488
1519239801911,-0.267090,0.931396,-0.352539
1519239801939,-0.260986,0.898682,-0.370117
1519239801971,-0.270752,0.884766,-0.377686
1519239802009,-0.276855,0.881348,-0.381592
1519239802061,-0.270996,0.905762,-0.399658
1519239802092,-0.282715,0.913330,-0.400879
1519239802144,-0.284668,0.899414,-0.407471
1519239802188,-0.278076,0.894287,-0.403809
1519239802231,-0.273926,0.908203,-0.394531
1519239802284,-0.285645,0.914795,-0.408936
1519239802286,-0.277344,0.937012,-0.412842
1519239802287,-0.280518,0.915771,-0.393799
1519239802303,-0.259766,0.906738,-0.347412
1519239802321,-0.251465,0.906250,-0.351318
1519239802360,-0.258789,0.899902,-0.351318
1519239802403,-0.246582,0.917480,-0.352051
1519239802432,-0.241211,0.920898,-0.366943
1519239802452,-0.240479,0.927734,-0.354736
1519239802486,-0.252197,0.932861,-0.330566
1519239802519,-0.236084,0.948975,-0.303711
1519239802551,-0.243408,0.935547,-0.307861
1519239802586,-0.256836,0.921143,-0.334473
1519239802618,-0.256104,0.974609,-0.373779
1519239802652,-0.263672,0.927002,-0.333252
1519239802684,-0.246338,0.921875,-0.293213
1519239802718,-0.233398,0.962891,-0.257813
1519239802753,-0.215576,0.974121,-0.231201
1519239802786,-0.199707,0.953369,-0.198242
1519239802824,-0.206299,0.947754,-0.173340
1519239802836,-0.211182,0.968262,-0.186523
1519239802890,-0.219482,0.970703,-0.186523
1519239802902,-0.227783,0.986572,-0.191406
1519239802958,-0.232178,0.982666,-0.195068
1519239802985,-0.231689,0.962158,-0.197510
1519239803037,-0.231689,0.960205,-0.195801
1519239803039,-0.223389,0.975342,-0.191162
1519239803067,-0.221191,0.979004,-0.184082
1519239803101,-0.223633,0.968750,-0.184326
1519239803141,-0.212646,0.960938,-0.172363
1519239803168,-0.212891,0.981445,-0.175537
1519239803206,-0.221680,0.971924,-0.174072
1519239803234,-0.223389,0.971436,-0.179688
1519239803354,-0.231689,0.959229,-0.174805
1519239803356,-0.226807,0.949707,-0.180908
1519239803421,-0.216553,0.967285,-0.184570
1519239803423,-0.217529,0.966797,-0.158203
1519239803489,-0.231934,0.980957,-0.195557
1519239803490,-0.231689,0.951172,-0.197754
1519239803556,-0.230469,0.970947,-0.177246
1519239803558,-0.236572,0.982178,-0.174561
1519239803689,-0.243896,0.986572,-0.186279
1519239803691,-0.244385,0.966064,-0.198730
1519239803692,-0.224365,0.978516,-0.194824
1519239803759,-0.223633,0.979248,-0.179932
1519239803761,-0.229980,0.971436,-0.191406
1519239803824,-0.236572,0.943115,-0.202881
1519239803825,-0.238525,0.943848,-0.200928
1519239803827,-0.231445,0.992676,-0.220215
1519239803829,-0.229980,0.964844,-0.225586
1519239803830,-0.202881,0.955078,-0.207520
1519239803847,-0.213379,0.941406,-0.218262
1519239803891,-0.189941,0.982666,-0.216553
1519239803897,-0.199219,1.024414,-0.231201
1519239803947,-0.211670,0.974121,-0.216309
1519239803980,-0.212158,0.951172,-0.228027
1519239803998,-0.213623,0.951172,-0.234863
1519239804046,-0.214844,0.945801,-0.246826
1519239804063,-0.209717,0.967529,-0.245850
1519239804096,-0.215820,0.960938,-0.258301
1519239804137,-0.221924,0.929688,-0.260986
1519239804163,-0.213623,0.942871,-0.269043
1519239804224,-0.218994,0.956055,-0.264404
1519239804229,-0.217529,0.969727,-0.245850
1519239804262,-0.234131,0.963379,-0.252930
1519239804308,-0.242676,0.965332,-0.260498
1519239804328,-0.242676,0.954834,-0.250244
1519239804362,-0.236816,0.967285,-0.260254
1519239804395,-0.247314,0.933105,-0.275146
1519239804428,-0.247803,0.916504,-0.266846
1519239804461,-0.242432,0.927246,-0.289795
1519239804511,-0.239746,0.946533,-0.283447
1519239804531,-0.242676,0.949219,-0.316650
1519239804545,-0.247803,0.925293,-0.318115
1519239804583,-0.249023,0.884521,-0.319336
1519239804628,-0.269531,0.919922,-0.433594
1519239804665,-0.288574,0.902588,-0.493896
1519239804681,-0.281494,0.892822,-0.473633
1519239804712,-0.284912,0.885254,-0.423096
1519239804745,-0.278564,0.862305,-0.440674
1519239804779,-0.272949,0.862061,-0.434082
1519239804818,-0.253174,0.865967,-0.440430
1519239804845,-0.256836,0.870361,-0.459473
1519239804891,-0.254395,0.887451,-0.438232
1519239804911,-0.231445,0.867188,-0.402588
1519239804944,-0.240723,0.882813,-0.447754
1519239804976,-0.240479,0.893066,-0.441895
1519239805010,-0.254395,0.884766,-0.429199
1519239805042,-0.243652,0.875000,-0.427490
1519239805059,-0.242432,0.850586,-0.433350
1519239805112,-0.236572,0.880127,-0.431396
1519239805126,-0.240967,0.889404,-0.406738
1519239805158,-0.235352,0.885742,-0.401611
1519239805192,-0.231689,0.875977,-0.401367
1519239805226,-0.231689,0.894775,-0.423828
1519239805258,-0.226074,0.906738,-0.435547
1519239805292,-0.205566,0.880371,-0.403809
1519239805324,-0.216064,0.898926,-0.411377
1519239805358,-0.209473,0.878418,-0.425537
1519239805391,-0.209717,0.915771,-0.452637
1519239805425,-0.207275,0.885986,-0.438232
1519239805458,-0.229004,0.895508,-0.430420
1519239805491,-0.231201,0.889160,-0.438965
1519239805525,-0.225098,0.898438,-0.428467
1519239805541,-0.211426,0.900146,-0.422363
1519239805591,-0.213623,0.894287,-0.424316
1519239805623,-0.207764,0.872070,-0.418457
1519239805641,-0.204102,0.874023,-0.417725
1519239805698,-0.201416,0.894775,-0.419922
1519239805707,-0.203125,0.902588,-0.424072
1519239805739,-0.208008,0.912842,-0.421143
1519239805773,-0.232666,0.892334,-0.406738
1519239805807,-0.221191,0.895264,-0.407959
1519239805839,-0.224121,0.890625,-0.409424
1519239805873,-0.224121,0.894287,-0.410889
1519239805906,-0.233887,0.888428,-0.409912
1519239805940,-0.223145,0.890137,-0.407227
1519239805974,-0.222900,0.899170,-0.407715
1519239806007,-0.225098,0.893799,-0.399902
1519239806039,-0.230713,0.894775,-0.393311
1519239806073,-0.230225,0.896484,-0.397705
1519239806106,-0.232422,0.906250,-0.401611
1519239806123,-0.229980,0.904541,-0.402832
1519239806176,-0.224609,0.900391,-0.403564
1519239806190,-0.222412,0.905518,-0.400879
1519239806223,-0.215820,0.899170,-0.400635
1519239806272,-0.213379,0.899414,-0.399658
1519239806290,-0.210449,0.892090,-0.401123
1519239806322,-0.212402,0.899902,-0.407471
1519239806356,-0.205566,0.917480,-0.411865
1519239806388,-0.208740,0.902832,-0.407715
1519239806420,-0.204102,0.925537,-0.406250
1519239806454,-0.193604,0.907227,-0.390625
1519239806488,-0.202881,0.928223,-0.421875
1519239806521,-0.209473,0.887207,-0.407471
1519239806553,-0.205811,0.891846,-0.399658
1519239806586,-0.202393,0.908691,-0.407471
1519239806619,-0.205566,0.900635,-0.407227
1519239806653,-0.203613,0.909424,-0.407715
1519239806699,-0.206543,0.911133,-0.409180
1519239806703,-0.210205,0.907227,-0.395996
1519239806752,-0.218018,0.901123,-0.398438
1519239806781,-0.222656,0.900391,-0.402832
1519239806802,-0.218750,0.900391,-0.394531
1519239806852,-0.216309,0.899414,-0.386963
1519239806870,-0.218994,0.899658,-0.378418
1519239806902,-0.219238,0.903320,-0.381592
1519239806953,-0.229248,0.909180,-0.390625
1519239806978,-0.240967,0.919434,-0.395508
1519239807002,-0.240967,0.911133,-0.387207
1519239807046,-0.247559,0.903564,-0.382568
1519239807068,-0.244141,0.908691,-0.375732
1519239807101,-0.240967,0.910645,-0.376465
1519239807135,-0.245361,0.903320,-0.377686
1519239807167,-0.248535,0.897217,-0.373779
1519239807212,-0.260254,0.898926,-0.368164
1519239807233,-0.260254,0.908447,-0.362061
1519239807267,-0.255371,0.902344,-0.357666
1519239807289,-0.261963,0.911377,-0.373291
1519239807333,-0.267822,0.916260,-0.369629
1519239807351,-0.268311,0.907471,-0.352539
1519239807382,-0.275879,0.894287,-0.345703
1519239807417,-0.269531,0.902344,-0.350830
1519239807449,-0.277588,0.914063,-0.360840
1519239807483,-0.276367,0.906738,-0.357666
1519239807516,-0.276123,0.906006,-0.355469
1519239807549,-0.278564,0.904785,-0.353760
1519239807582,-0.278809,0.906006,-0.355713
1519239807616,-0.276123,0.905518,-0.350098
1519239807651,-0.275391,0.911865,-0.333984
1519239807682,-0.271484,0.907227,-0.342041
1519239807729,-0.280029,0.906250,-0.347168
1519239807749,-0.278076,0.911377,-0.354980
1519239807767,-0.282959,0.906982,-0.357910
1519239807816,-0.286865,0.914307,-0.368164
1519239807849,-0.282471,0.907959,-0.355713
1519239807895,-0.289307,0.906250,-0.355225
1519239807915,-0.286377,0.908447,-0.351074
1519239807931,-0.290283,0.904785,-0.347900
1519239807975,-0.288818,0.915771,-0.338623
1519239807999,-0.293457,0.913574,-0.333496
1519239808031,-0.297607,0.909912,-0.338623
1519239808065,-0.293701,0.905029,-0.343994
1519239808097,-0.288818,0.902344,-0.333740
1519239808146,-0.291504,0.894287,-0.331299
1519239808169,-0.292480,0.901855,-0.339844
1519239808196,-0.302734,0.906494,-0.343750
1519239808260,-0.307861,0.903809,-0.344482
1519239808264,-0.308594,0.908691,-0.344482
1519239808355,-0.310791,0.899414,-0.338867
1519239808421,-0.308838,0.892578,-0.335938
1519239808486,-0.302246,0.901123,-0.335449
1519239808553,-0.298584,0.900146,-0.343262
1519239808563,-0.299805,0.903076,-0.344482
1519239808565,-0.303467,0.908203,-0.346191
1519239808621,-0.302246,0.914063,-0.340088
1519239808624,-0.304443,0.917236,-0.331543
1519239808689,-0.318359,0.906006,-0.332275
1519239808693,-0.316162,0.908936,-0.323242
1519239808756,-0.314941,0.904541,-0.324219
1519239808759,-0.312256,0.902588,-0.324463
1519239808824,-0.309082,0.902588,-0.329590
1519239808828,-0.304688,0.898926,-0.325439
1519239808830,-0.302734,0.907959,-0.317383
1519239808832,-0.300049,0.912598,-0.311523
1519239808834,-0.304443,0.918945,-0.313477
1519239808845,-0.300537,0.927002,-0.307861
1519239808882,-0.298828,0.928711,-0.299316
1519239808912,-0.298828,0.922119,-0.299561
1519239808955,-0.298340,0.920166,-0.302979
1519239808977,-0.302734,0.908447,-0.287598
1519239808994,-0.298584,0.911621,-0.294678
1519239809027,-0.299561,0.916016,-0.300781
1519239809061,-0.297119,0.912842,-0.307617
1519239809097,-0.299561,0.909424,-0.306885
1519239809126,-0.298828,0.911377,-0.307129
1519239809173,-0.294922,0.913330,-0.312256
1519239809193,-0.294434,0.921631,-0.300537
1519239809226,-0.297852,0.926270,-0.308105
1519239809260,-0.293945,0.917236,-0.307129
1519239809292,-0.295898,0.914795,-0.306885
1519239809326,-0.293945,0.916504,-0.308838
1519239809359,-0.290039,0.923340,-0.312012
1519239809408,-0.293701,0.928955,-0.316650
1519239809413,-0.296143,0.926514,-0.312988
1519239809459,-0.301270,0.919434,-0.314941
1519239809492,-0.295166,0.919922,-0.316650
1519239809509,-0.304688,0.910889,-0.316162
1519239809559,-0.307861,0.915527,-0.313477
1519239809602,-0.297607,0.918945,-0.311768
1519239809608,-0.297607,0.924561,-0.314941
1519239809642,-0.289795,0.944336,-0.304932
1519239809676,-0.293457,0.927490,-0.303223
1519239809707,-0.290771,0.919678,-0.311035
1519239809750,-0.290527,0.917725,-0.300537
1519239809773,-0.295166,0.924561,-0.295410
1519239809809,-0.302734,0.916504,-0.288818
1519239809841,-0.298096,0.920654,-0.279297
1519239809874,-0.287842,0.931885,-0.266846
1519239809907,-0.282959,0.939209,-0.267822
1519239809950,-0.286377,0.940674,-0.262695
1519239809985,-0.289063,0.941162,-0.259766
1519239809991,-0.287109,0.937012,-0.229980
1519239810039,-0.287354,0.928467,-0.210693
1519239810060,-0.281738,0.945557,-0.214844
1519239810099,-0.272461,0.971680,-0.213135
1519239810171,-0.264160,0.981934,-0.199951
1519239810184,-0.261230,0.958008,-0.185791
1519239810191,-0.264648,0.956787,-0.181641
1519239810222,-0.270996,0.953857,-0.186523
1519239810257,-0.281250,0.947998,-0.190674
1519239810287,-0.287109,0.958740,-0.192383
1519239810321,-0.283203,0.968262,-0.199707
1519239810367,-0.294922,0.962158,-0.192871
1519239810389,-0.289063,0.967041,-0.182617
1519239810431,-0.280762,0.968506,-0.170410
1519239810456,-0.285889,0.955811,-0.155762
1519239810490,-0.284668,0.957764,-0.153809
1519239810522,-0.288574,0.973633,-0.157715
1519239810556,-0.287598,0.973877,-0.154053
1519239810572,-0.290771,0.963623,-0.146240
1519239810621,-0.291748,0.947998,-0.122070
1519239810637,-0.279297,0.951660,-0.136963
1519239810671,-0.290527,0.964355,-0.145020
1519239810721,-0.295166,0.967773,-0.149170
1519239810756,-0.297607,0.970947,-0.148193
1519239810770,-0.300049,0.968262,-0.143555
1519239810819,-0.295898,0.974609,-0.142822
1519239810837,-0.296387,0.960449,-0.135010
1519239810880,-0.292480,0.962646,-0.136230
1519239810904,-0.288818,0.959717,-0.142090
1519239810955,-0.287109,0.962891,-0.141357
1519239810970,-0.286133,0.964355,-0.139160
1519239811003,-0.285156,0.961426,-0.135742
1519239811036,-0.283936,0.960938,-0.132568
1519239811053,-0.285156,0.963379,-0.131592
1519239811103,-0.284668,0.967041,-0.139648
1519239811136,-0.287842,0.973145,-0.140381
1519239811194,-0.289795,0.970703,-0.131836
1519239811203,-0.289795,0.966553,-0.133301
1519239811249,-0.287842,0.960938,-0.136719
1519239811253,-0.288330,0.962891,-0.133545
1519239811285,-0.282471,0.962402,-0.136963
1519239811326,-0.280029,0.962646,-0.131592
1519239811351,-0.276367,0.959473,-0.128906
1519239811402,-0.278564,0.964111,-0.135498
1519239811417,-0.279541,0.970215,-0.136230
1519239811451,-0.279053,0.974854,-0.137695
1519239811485,-0.280762,0.970459,-0.137451
1519239811517,-0.281494,0.964355,-0.138184
1519239811559,-0.283936,0.964355,-0.136230
1519239811593,-0.278809,0.971680,-0.138428
1519239811637,-0.276123,0.964355,-0.141602
1519239811640,-0.273193,0.963135,-0.145996
1519239811684,-0.275146,0.957031,-0.138428
1519239811717,-0.278320,0.956055,-0.142090
1519239811734,-0.269531,0.978027,-0.155029
1519239811783,-0.277344,0.966309,-0.144287
1519239811800,-0.275391,0.962402,-0.144775
1519239811834,-0.271729,0.969971,-0.149414
1519239811866,-0.271729,0.969238,-0.152100
1519239811900,-0.273926,0.966064,-0.147949
1519239811953,-0.273926,0.961426,-0.148193
1519239811966,-0.273926,0.975342,-0.144531
1519239811998,-0.268555,0.976318,-0.149658
1519239812032,-0.281738,0.958496,-0.156982
1519239812065,-0.277100,0.963623,-0.161377
1519239812100,-0.280273,0.961182,-0.169189
1519239812131,-0.280273,0.962158,-0.167480
1519239812165,-0.283203,0.972656,-0.156006
1519239812203,-0.278320,0.979248,-0.161865
1519239812215,-0.279297,0.967529,-0.171143
1519239812263,-0.283447,0.965088,-0.158203
1519239812281,-0.274902,0.969238,-0.145264
1519239812315,-0.270264,0.968994,-0.142334
1519239812364,-0.269043,0.973389,-0.156738
1519239812384,-0.272461,0.970215,-0.157471
1519239812425,-0.281250,0.959961,-0.158203
1519239812447,-0.280029,0.959229,-0.160400
1519239812481,-0.274658,0.960693,-0.154541
1519239812514,-0.273193,0.970703,-0.158447
1519239812547,-0.270264,0.969482,-0.157959
1519239812580,-0.275391,0.967773,-0.165771
1519239812614,-0.269531,0.967285,-0.170654
1519239812646,-0.270996,0.970215,-0.157959
1519239812681,-0.262939,0.962891,-0.145020
1519239812713,-0.262939,0.980469,-0.149658
1519239812756,-0.256104,0.984375,-0.136719
1519239812786,-0.259033,0.975586,-0.137695
1519239812835,-0.263916,0.957031,-0.140381
1519239812846,-0.263672,0.963135,-0.147217
1519239812862,-0.268799,0.966309,-0.155518
1519239812916,-0.272461,0.971680,-0.149902
1519239812929,-0.257813,0.982910,-0.143311
1519239812962,-0.260986,0.982910,-0.138428
1519239812996,-0.261963,0.977783,-0.123535
1519239813030,-0.257324,0.980713,-0.114014
1519239813066,-0.260742,0.974854,-0.114502
1519239813096,-0.262695,0.972656,-0.108643
1519239813144,-0.253174,0.974121,-0.107910
1519239813167,-0.261230,0.973389,-0.099121
1519239813197,-0.263672,0.974121,-0.095703
1519239813226,-0.271729,0.958740,-0.089111
1519239813260,-0.250000,0.981934,-0.095215
1519239813277,-0.255615,0.986572,-0.086182
1519239813364,-0.255127,0.993164,-0.093506
1519239813430,-0.258789,0.981445,-0.100830
1519239813441,-0.267090,0.964844,-0.097412
1519239813497,-0.279541,0.966309,-0.113770
1519239813500,-0.278564,0.965088,-0.116211
1519239813565,-0.277100,0.969727,-0.113281
1519239813630,-0.274902,0.974121,-0.118408
1519239813696,-0.276367,0.971680,-0.118896
1519239813762,-0.275391,0.959961,-0.116211
1519239813766,-0.286865,0.961426,-0.123291
1519239813832,-0.283691,0.969971,-0.134033
1519239813835,-0.283691,0.973145,-0.140137
1519239813851,-0.280273,0.980713,-0.138916
1519239813856,-0.275635,0.980957,-0.137207
1519239813861,-0.268311,0.976318,-0.130615
1519239813864,-0.267334,0.979004,-0.126465
1519239813867,-0.266113,0.979248,-0.128662
1519239813871,-0.266602,0.975586,-0.125244
1519239813907,-0.266846,0.977295,-0.122803
1519239813925,-0.266357,0.979736,-0.122070
1519239813959,-0.268066,0.978027,-0.119629
1519239814007,-0.271484,0.979492,-0.117432
1519239814025,-0.272949,0.982422,-0.117920
1519239814057,-0.273193,0.976807,-0.109863
1519239814092,-0.271240,0.969971,-0.107178
1519239814124,-0.269043,0.965820,-0.107910
1519239814167,-0.263672,0.979248,-0.094727
1519239814190,-0.266602,0.975342,-0.104492
1519239814223,-0.269775,0.971924,-0.103027
1519239814257,-0.271484,0.970947,-0.104492
1519239814290,-0.271240,0.966797,-0.109619
1519239814326,-0.274658,0.971191,-0.114014
1519239814356,-0.269775,0.976807,-0.119629
1519239814390,-0.267334,0.982422,-0.118408
1519239814422,-0.270020,0.971191,-0.120605
1519239814440,-0.269531,0.958252,-0.133301
1519239814489,-0.280518,0.962646,-0.145508
1519239814506,-0.280273,0.949463,-0.151123
1519239814539,-0.283936,0.929688,-0.160400
1519239814589,-0.282227,0.960205,-0.200684
1519239814610,-0.265381,0.973389,-0.223877
1519239814659,-0.264893,0.975586,-0.227539
1519239814672,-0.243408,0.956055,-0.232422
1519239814720,-0.252197,0.960693,-0.241455
1519239814739,-0.250000,0.953613,-0.248291
1519239814772,-0.260254,0.945801,-0.260742
1519239814805,-0.261475,0.945557,-0.257813
1519239814837,-0.263916,0.956299,-0.256104
1519239814871,-0.252441,0.947754,-0.255127
1519239814905,-0.264160,0.943604,-0.249756
1519239814940,-0.268555,0.921631,-0.246826
1519239814972,-0.277100,0.918457,-0.260498
1519239815016,-0.280762,0.918213,-0.270996
1519239815022,-0.270508,0.925781,-0.280518
1519239815071,-0.303711,0.905273,-0.285889
1519239815095,-0.289063,0.859375,-0.281738
1519239815121,-0.277344,0.865723,-0.338867
1519239815190,-0.291260,0.900146,-0.350586
1519239815199,-0.264893,0.856689,-0.326172
1519239815222,-0.276367,0.895996,-0.427246
1519239815264,-0.271729,0.896240,-0.495361
1519239815288,-0.236816,0.895752,-0.497559
1519239815335,-0.226563,0.888916,-0.473145
1519239815355,-0.245117,0.818848,-0.489502
1519239815389,-0.230469,0.826416,-0.532715
1519239815419,-0.212646,0.848145,-0.536133
1519239815453,-0.210693,0.856201,-0.567871
1519239815487,-0.217041,0.835693,-0.567139
1519239815504,-0.242432,0.809326,-0.565430
1519239815552,-0.208008,0.884033,-0.602783
1519239815585,-0.215088,0.818604,-0.557129
1519239815601,-0.201416,0.847656,-0.555664
1519239815651,-0.229980,0.836914,-0.585449
1519239815669,-0.224854,0.812988,-0.553223
1519239815703,-0.229736,0.833740,-0.530029
1519239815735,-0.225342,0.821289,-0.489014
1519239815767,-0.222656,0.808838,-0.496582
1519239815801,-0.247070,0.802734,-0.493408
1519239815834,-0.252930,0.832520,-0.505371
1519239815876,-0.237061,0.843262,-0.506104
1519239815900,-0.241211,0.838379,-0.489990
1519239815939,-0.245361,0.854248,-0.481445
1519239815967,-0.247803,0.864014,-0.470703
1519239816017,-0.243896,0.868164,-0.473633
1519239816034,-0.232178,0.865967,-0.473145
1519239816066,-0.222412,0.860352,-0.469238
1519239816084,-0.236572,0.870605,-0.472656
1519239816133,-0.255371,0.833740,-0.454102
1519239816150,-0.262451,0.833496,-0.461670
1519239816183,-0.274658,0.862305,-0.491211
1519239816233,-0.282227,0.870117,-0.484375
1519239816249,-0.283936,0.854492,-0.462402
1519239816290,-0.275635,0.856201,-0.463867
1519239816316,-0.269043,0.839844,-0.472168
1519239816375,-0.277588,0.830811,-0.465088
1519239816381,-0.285645,0.836914,-0.462646
1519239816415,-0.285645,0.832275,-0.474609
1519239816447,-0.274170,0.840088,-0.464355
1519239816481,-0.262939,0.859131,-0.464355
1519239816515,-0.257324,0.864990,-0.481201
1519239816547,-0.247803,0.863037,-0.485352
1519239816581,-0.258301,0.843994,-0.473389
1519239816632,-0.250977,0.834717,-0.459961
1519239816647,-0.248047,0.885254,-0.500000
1519239816667,-0.266357,0.857422,-0.500977
1519239816714,-0.248535,0.847412,-0.452148
1519239816731,-0.252930,0.880615,-0.459717
1519239816769,-0.262451,0.879883,-0.477051
1519239816814,-0.264160,0.874023,-0.461426
1519239816830,-0.263428,0.859375,-0.448975
1519239816871,-0.264893,0.855713,-0.445313
1519239816896,-0.255859,0.870605,-0.437744
1519239816945,-0.256836,0.876709,-0.442627
1519239816963,-0.265137,0.864990,-0.438965
1519239816996,-0.269043,0.875977,-0.437256
1519239817029,-0.271240,0.866699,-0.427979
1519239817061,-0.260498,0.867432,-0.431885
1519239817095,-0.263916,0.871338,-0.429443
1519239817129,-0.268555,0.867676,-0.419678
1519239817163,-0.269531,0.871582,-0.430664
1519239817197,-0.267822,0.866699,-0.423584
1519239817231,-0.270264,0.864014,-0.422852
1519239817246,-0.274170,0.874268,-0.432129
1519239817295,-0.273438,0.877686,-0.436035
1519239817311,-0.273682,0.872559,-0.441162
1519239817355,-0.268555,0.866455,-0.433105
1519239817377,-0.273926,0.869873,-0.425537
1519239817411,-0.267334,0.871582,-0.425293
1519239817444,-0.273193,0.871582,-0.437500
1519239817479,-0.272461,0.876221,-0.434082
1519239817510,-0.252441,0.892822,-0.441162
1519239817554,-0.283691,0.833496,-0.440430
1519239817577,-0.253662,0.900391,-0.439941
1519239817610,-0.269043,0.882568,-0.470459
1519239817644,-0.275391,0.848877,-0.436279
1519239817676,-0.265625,0.873535,-0.422119
1519239817710,-0.266113,0.883301,-0.437744
1519239817727,-0.271484,0.883301,-0.433594
1519239817776,-0.270020,0.871094,-0.426758
1519239817810,-0.270508,0.883057,-0.429688
1519239817826,-0.276367,0.873535,-0.433350
1519239817876,-0.281250,0.878418,-0.432373
1519239817927,-0.278320,0.867188,-0.436523
1519239817930,-0.279297,0.867188,-0.420410
1519239817959,-0.282959,0.870850,-0.426025
1519239818002,-0.284668,0.873291,-0.423584
1519239818025,-0.281982,0.875488,-0.421875
1519239818057,-0.283447,0.864990,-0.415771
1519239818091,-0.281982,0.873291,-0.408447
1519239818125,-0.284668,0.881104,-0.414063
1519239818158,-0.285889,0.869873,-0.408936
1519239818197,-0.280273,0.879150,-0.408203
1519239818228,-0.283447,0.888672,-0.407227
1519239818260,-0.286865,0.883057,-0.401611
1519239818294,-0.281494,0.894287,-0.409180
1519239818359,-0.285645,0.887939,-0.406982
1519239818491,-0.285889,0.877930,-0.396484
1519239818495,-0.282959,0.878418,-0.401855
1519239818560,-0.279297,0.885742,-0.400879
1519239818565,-0.276123,0.888428,-0.404541
1519239818630,-0.275146,0.888184,-0.405762
1519239818695,-0.275391,0.879395,-0.392578
1519239818701,-0.276123,0.889648,-0.402100
1519239818764,-0.280762,0.897949,-0.400635
1519239818773,-0.282227,0.884766,-0.398193
1519239818829,-0.279053,0.888184,-0.399170
1519239818833,-0.278076,0.883545,-0.396240
1519239818852,-0.277344,0.888428,-0.401611
1519239818858,-0.277832,0.885010,-0.394043
1519239818863,-0.277832,0.881104,-0.398682
1519239818869,-0.274170,0.883545,-0.397949
1519239818876,-0.274414,0.888184,-0.399414
1519239818882,-0.274902,0.894043,-0.395752
1519239818889,-0.277588,0.897705,-0.395752
1519239818938,-0.275879,0.896240,-0.386719
1519239818956,-0.277344,0.898682,-0.385986
1519239818988,-0.274902,0.910400,-0.387695
1519239819023,-0.275146,0.903809,-0.372559
1519239819055,-0.275146,0.904785,-0.359619
1519239819102,-0.273926,0.902588,-0.348389
1519239819123,-0.271240,0.900391,-0.331543
1519239819156,-0.262939,0.901611,-0.314697
1519239819190,-0.258789,0.924561,-0.324463
1519239819224,-0.259521,0.933594,-0.322998
1519239819275,-0.266602,0.933105,-0.326904
1519239819289,-0.266602,0.938721,-0.322266
1519239819327,-0.264648,0.939697,-0.309326
1519239819354,-0.267578,0.931152,-0.307617
1519239819370,-0.261475,0.922363,-0.310059
1519239819420,-0.258301,0.929932,-0.306641
1519239819455,-0.256348,0.927734,-0.305420
1519239819470,-0.261963,0.927246,-0.301758
1519239819520,-0.260498,0.926025,-0.302734
1519239819582,-0.262939,0.931152,-0.307129
1519239819586,-0.260742,0.936768,-0.313232
1519239819603,-0.262939,0.934326,-0.303955
1519239819636,-0.265869,0.916260,-0.290039
1519239819675,-0.251953,0.942383,-0.294922
1519239819703,-0.248535,0.939209,-0.297852
1519239819736,-0.244873,0.949219,-0.302734
1519239819780,-0.248047,0.948975,-0.290283
1519239819805,-0.254150,0.942627,-0.277588
1519239819836,-0.255615,0.931885,-0.270996
1519239819869,-0.250977,0.938232,-0.276855
1519239819903,-0.237305,0.940918,-0.272949
1519239819937,-0.255859,0.934814,-0.276611
1519239819952,-0.264648,0.940674,-0.291748
1519239820004,-0.266602,0.939453,-0.303711
1519239820019,-0.268066,0.943359,-0.308105
1519239820052,-0.261719,0.950195,-0.303955
1519239820101,-0.257813,0.944092,-0.305176
1519239820164,-0.253418,0.942627,-0.306641
1519239820174,-0.250977,0.932129,-0.288330
1519239820185,-0.252441,0.922119,-0.279785
1519239820218,-0.246582,0.917969,-0.276855
1519239820252,-0.244629,0.921387,-0.283447
1519239820285,-0.254883,0.922852,-0.277832
1519239820316,-0.256104,0.927490,-0.276855
1519239820350,-0.254150,0.924561,-0.258545
1519239820383,-0.250488,0.960449,-0.273926
1519239820416,-0.268311,0.960938,-0.290039
1519239820456,-0.281982,0.959961,-0.292480
1519239820482,-0.286621,0.940674,-0.273193
1519239820515,-0.277100,0.918945,-0.269775
1519239820560,-0.266602,0.923584,-0.285156
1519239820582,-0.257324,0.923828,-0.284424
1519239820598,-0.245117,0.918213,-0.279541
1519239820635,-0.250000,0.939453,-0.305420
1519239820681,-0.262939,0.939209,-0.313232
1519239820712,-0.267822,0.937988,-0.331055
1519239820732,-0.261719,0.929199,-0.334229
1519239820765,-0.276367,0.933838,-0.348145
1519239820797,-0.282959,0.933350,-0.349854
1519239820832,-0.278809,0.914063,-0.345703
1519239820865,-0.267578,0.898682,-0.348877
1519239820897,-0.254883,0.901855,-0.364990
1519239820931,-0.243652,0.907471,-0.378662
1519239820976,-0.240967,0.898438,-0.393555
1519239820997,-0.229980,0.907715,-0.353516
1519239821014,-0.222412,0.898926,-0.342285
1519239821064,-0.236572,0.836426,-0.344238
1519239821096,-0.242920,0.796875,-0.407471
1519239821128,-0.222168,0.937256,-0.486084
1519239821163,-0.228760,0.933350,-0.462158
1519239821224,-0.203613,0.855225,-0.475342
1519239821228,-0.165771,0.848389,-0.470703
1519239821247,-0.170898,0.852295,-0.490234
1519239821281,-0.209229,0.812012,-0.531250
1519239821314,-0.226563,0.807861,-0.509766
1519239821347,-0.219238,0.778320,-0.558594
1519239821379,-0.246338,0.821289,-0.600586
1519239821414,-0.239014,0.853760,-0.619141
1519239821447,-0.205566,0.822510,-0.577881
1519239821480,-0.218262,0.819336,-0.562988
1519239821512,-0.232178,0.820801,-0.595459
1519239821545,-0.214600,0.831543,-0.581055
1519239821577,-0.192139,0.789307,-0.587158
1519239821595,-0.160889,0.808350,-0.592529
1519239821645,-0.183838,0.801025,-0.557861
1519239821677,-0.190430,0.794678,-0.573242
1519239821709,-0.201416,0.809082,-0.565674
1519239821743,-0.189697,0.785400,-0.553467
1519239821761,-0.195068,0.764648,-0.531982
1519239821801,-0.213379,0.821045,-0.564697
1519239821827,-0.215088,0.830322,-0.572998
1519239821859,-0.206543,0.788574,-0.559326
1519239821893,-0.218262,0.780029,-0.565430
1519239821939,-0.210449,0.818604,-0.563232
1519239821961,-0.207275,0.798096,-0.554443
1519239822022,-0.223633,0.793457,-0.533203
1519239822025,-0.235596,0.809082,-0.567139
1519239822089,-0.231689,0.833008,-0.549316
1519239822117,-0.217041,0.804443,-0.537842
1519239822126,-0.218018,0.819580,-0.558594
1519239822159,-0.221680,0.830566,-0.559082
1519239822181,-0.229736,0.831299,-0.518066
1519239822224,-0.225830,0.791260,-0.495605
1519239822256,-0.231689,0.847168,-0.488281
1519239822276,-0.229980,0.861084,-0.552002
1519239822338,-0.223877,0.848633,-0.545654
1519239822342,-0.260986,0.900635,-0.523438
1519239822374,-0.282471,0.784180,-0.530273
1519239822408,-0.226074,0.841309,-0.452148
1519239822441,-0.198486,0.819336,-0.441895
1519239822484,-0.230225,0.852051,-0.514648
1519239822507,-0.251953,0.841553,-0.546143
1519239822548,-0.176025,0.955078,-0.511475
1519239822573,-0.267578,0.799805,-0.495117
1519239822607,-0.192139,0.910400,-0.525391
1519239822639,-0.249756,0.881348,-0.489502
1519239822673,-0.192627,0.848877,-0.434326
1519239822707,-0.205811,0.809814,-0.452637
1519239822739,-0.248779,0.809814,-0.494873
1519239822757,-0.277344,0.829590,-0.529297
1519239822806,-0.275635,0.828369,-0.523193
1519239822823,-0.269775,0.841797,-0.529541
1519239822857,-0.247803,0.877197,-0.531250
1519239822906,-0.201416,0.903076,-0.510742
1519239822922,-0.183105,0.881104,-0.470703
1519239822972,-0.209229,0.858398,-0.449463
1519239822989,-0.239258,0.856445,-0.471680
1519239823022,-0.239014,0.843750,-0.460205
1519239823054,-0.235352,0.832764,-0.462891
1519239823088,-0.239258,0.837891,-0.484131
1519239823129,-0.239258,0.856689,-0.490723
1519239823154,-0.230713,0.875488,-0.496826
1519239823188,-0.212402,0.873779,-0.492188
1519239823221,-0.214844,0.865723,-0.495117
1519239823238,-0.230469,0.854492,-0.481201
1519239823361,-0.266357,0.858154,-0.473633
1519239823430,-0.248779,0.850098,-0.466797
1519239823435,-0.241455,0.846436,-0.462646
1519239823500,-0.250000,0.866699,-0.476318
1519239823504,-0.253906,0.876709,-0.475098
1519239823568,-0.235596,0.899658,-0.458496
1519239823574,-0.207520,0.902100,-0.453857
1519239823637,-0.218750,0.896729,-0.445313
1519239823645,-0.224854,0.881592,-0.440430
1519239823705,-0.237305,0.864502,-0.425293
1519239823708,-0.238770,0.855225,-0.431396
1519239823776,-0.240723,0.839111,-0.446289
1519239823784,-0.254150,0.838623,-0.451904
1519239823843,-0.239990,0.884277,-0.473633
1519239823849,-0.205078,0.893066,-0.454346
1519239823860,-0.246582,0.870605,-0.464111
1519239823869,-0.251709,0.892578,-0.419189
1519239823877,-0.250977,0.888916,-0.420898
1519239823883,-0.283936,0.854492,-0.437256
1519239823903,-0.278564,0.861084,-0.447021
1519239823921,-0.250000,0.877197,-0.441895
1519239823969,-0.226074,0.834961,-0.396729
1519239823985,-0.197510,0.817383,-0.365967
1519239824020,-0.196533,0.834717,-0.427979
1519239824054,-0.158203,0.900146,-0.410156
1519239824086,-0.184570,0.929932,-0.418945
1519239824125,-0.186523,0.883545,-0.468018
1519239824153,-0.218994,0.899414,-0.483887
1519239824186,-0.237061,0.895020,-0.469971
1519239824219,-0.214600,0.889648,-0.428955
1519239824251,-0.209961,0.879150,-0.484619
1519239824284,-0.257813,0.827881,-0.515869
1519239824317,-0.248535,0.833496,-0.493408
1519239824350,-0.219971,0.877930,-0.494873
1519239824383,-0.216553,0.893555,-0.493896
1519239824400,-0.214600,0.903320,-0.480469
1519239824450,-0.198730,0.889404,-0.447021
1519239824467,-0.204834,0.879639,-0.433350
1519239824500,-0.218262,0.873047,-0.421143
1519239824550,-0.222412,0.894531,-0.431641
1519239824566,-0.236816,0.886719,-0.461914
1519239824600,-0.224854,0.894531,-0.458496
1519239824633,-0.227539,0.899658,-0.459717
1519239824666,-0.242188,0.863525,-0.445557
1519239824699,-0.258301,0.861572,-0.442139
1519239824732,-0.252930,0.847900,-0.440918
1519239824765,-0.257324,0.844727,-0.445313
1519239824797,-0.263916,0.831543,-0.451172
1519239824831,-0.245117,0.855469,-0.438721
1519239824865,-0.252441,0.902832,-0.468262
1519239824899,-0.240967,0.880859,-0.437012
1519239824931,-0.244385,0.866943,-0.429199
1519239824965,-0.242920,0.882813,-0.435791
1519239824981,-0.269775,0.884033,-0.430420
1519239825030,-0.246582,0.883789,-0.433594
1519239825047,-0.218750,0.867920,-0.431152
1519239825081,-0.238281,0.879883,-0.434814
1519239825131,-0.239502,0.865967,-0.425781
1519239825147,-0.244385,0.867920,-0.429932
1519239825180,-0.249756,0.865723,-0.428955
1519239825214,-0.234375,0.857910,-0.436279
1519239825247,-0.238525,0.847168,-0.445557
1519239825280,-0.247803,0.861816,-0.432129
1519239825314,-0.253906,0.908936,-0.425781
1519239825346,-0.254150,0.930176,-0.417969
1519239825381,-0.250244,0.927002,-0.421143
1519239825417,-0.249512,0.906006,-0.435547
