1519420791869,1.013428,0.266357,0.146729
1519420791914,0.756592,0.248047,0.889404
1519420791917,0.560303,0.145264,1.070313
1519420791951,0.603027,0.545410,1.108154
1519420791999,0.648438,0.576416,1.060547
1519420792032,0.622803,0.117920,0.542236
1519420792080,0.403076,0.460938,0.236816
1519420792094,0.379395,0.657471,0.789307
1519420792113,0.439209,0.210205,0.924561
1519420792149,1.067871,0.386963,0.737061
1519420792199,0.682373,0.380127,1.060791
1519420792243,0.031982,0.914551,1.047119
1519420792248,0.512451,0.724365,0.924072
1519420792281,0.344971,-0.049805,0.668701
1519420792327,0.785400,0.576416,0.448242
1519420792332,0.544189,0.197510,0.882568
1519420792365,0.552734,0.240479,0.563965
1519420792410,0.601807,0.238037,0.559814
1519420792443,0.602539,0.080078,0.579590
1519420792463,0.579590,-0.098145,0.565674
1519420792516,0.569824,-0.023438,0.805420
1519420792570,0.532227,0.237305,0.723145
1519420792576,0.396484,0.407471,0.741943
1519420792598,0.688232,0.126465,0.657227
1519420792656,0.700928,-0.050781,0.571045
1519420792661,0.673828,0.247070,0.759521
1519420792719,0.580078,0.075439,0.961182
1519420792751,0.730957,0.209473,0.880127
1519420792760,0.713379,0.335205,0.789063
1519420792809,0.840820,0.392090,0.664795
1519420792816,0.523193,0.438477,0.780762
1519420792845,0.379395,0.385742,1.002441
1519420792908,0.340820,0.396484,1.293213
1519420792911,0.530518,0.642822,0.782471
1519420792967,0.470215,0.506592,0.461914
1519420793001,0.497070,-0.022949,0.373291
1519420793038,0.696045,0.643799,0.246826
1519420793047,0.584473,0.108643,0.852295
1519420793100,0.649414,0.034424,0.906738
1519420793134,0.850830,0.428955,0.643066
1519420793166,0.580322,0.200684,0.529053
1519420793196,0.704102,0.395508,0.909424
1519420793229,0.398682,0.029785,0.948242
1519420793232,0.632813,0.512451,0.937256
1519420793287,0.583252,0.236328,0.807617
1519420793329,0.742432,0.500732,0.606201
1519420793334,0.714844,0.538818,0.383789
1519420793364,0.591309,0.507324,0.655762
1519420793397,0.556641,0.217041,1.059082
1519420793430,0.379639,0.187988,1.095459
1519420793462,0.417969,0.432373,0.590088
1519420793495,0.690430,0.316162,0.644531
1519420793527,0.609619,0.130859,0.646973
1519420793584,0.588379,0.437012,0.704346
1519420793615,0.516357,0.577637,1.087402
1519420793648,0.560547,-0.002441,0.998291
1519420793656,0.302246,0.364990,0.753174
1519420793692,0.577881,0.351807,0.753906
1519420793765,0.671387,0.346680,0.610352
1519420793768,0.715088,0.309082,0.665283
1519420793833,0.390625,0.300537,1.108643
1519420793838,0.425049,0.621094,1.226807
1519420793901,0.595215,0.184570,0.723877
1519420793912,0.694824,-0.047119,0.296875
1519420793922,0.480469,0.125244,0.192871
1519420793942,0.445068,0.323975,1.135498
1519420793977,0.696777,-0.082520,0.724365
1519420794011,0.709229,0.065186,0.522461
1519420794043,0.506836,0.153564,0.872559
1519420794077,0.615234,0.282715,0.959229
1519420794110,0.736816,0.175049,0.606689
1519420794142,0.844727,-0.048584,0.773682
1519420794175,0.332520,0.460205,1.031982
1519420794207,0.485596,0.326904,1.187988
1519420794239,0.631836,0.304199,0.710205
1519420794271,0.559082,0.358154,0.321533
1519420794304,0.215820,0.448730,0.687256
1519420794361,0.613525,0.121826,1.515137
1519420794364,0.664063,0.698242,0.992676
1519420794394,0.461670,0.343506,0.256104
1519420794437,0.430176,0.790283,0.326172
1519420794470,0.858643,0.174805,1.085449
1519420794501,0.632813,-0.374023,0.893555
1519420794534,0.511719,0.604248,1.117920
1519420794566,0.775146,0.354248,0.875488
1519420794599,0.740967,0.153076,0.858398
1519420794632,0.385010,0.442871,0.729492
1519420794664,0.328857,0.321289,0.759033
1519420794698,0.503906,0.125488,0.667725
1519420794729,0.648926,-0.037842,0.381104
1519420794761,0.425293,0.420654,0.508545
1519420794795,0.503418,0.610596,1.042236
1519420794828,0.864990,0.251953,0.965576
1519420794860,0.701172,-0.054688,0.218750
1519420794894,0.494629,0.391113,0.800781
1519420794935,0.353516,0.156250,1.198730
1519420794943,0.724365,0.117432,0.289307
1519420794971,1.197998,0.075928,-0.166260
1519420795005,0.530762,0.107422,0.829346
1519420795036,0.366943,0.457031,1.258301
1519420795069,0.925293,0.067383,0.871094
1519420795101,0.643799,0.389893,0.529541
1519420795134,0.351807,0.299561,1.063721
1519420795194,0.457275,0.572021,1.689941
1519420795225,0.829834,0.706543,0.513184
1519420795231,0.633545,0.211182,0.220703
1519420795288,0.757568,0.345215,0.647705
1519420795302,0.447510,0.066406,0.854980
1519420795334,0.377686,0.491699,0.869629
1519420795367,0.586914,0.313721,0.626465
1519420795424,0.718750,-0.024658,0.319580
1519420795427,0.475586,0.336914,0.571533
1519420795458,0.813965,-0.060547,1.022705
1519420795516,0.550781,0.637695,1.008301
1519420795518,0.590820,0.629395,1.092285
1519420795550,0.542236,0.385498,0.889893
1519420795607,0.252686,0.531494,0.821045
1519420795640,0.333008,0.405029,1.051514
1519420795647,0.369873,0.041016,0.294678
1519420795703,0.843506,0.576660,0.483887
1519420795717,0.743408,0.015869,0.898438
1519420795749,0.421387,0.126709,0.688232
1519420795807,0.467529,0.831055,1.261963
1519420795839,0.212646,0.194824,1.026123
1519420795846,0.371094,0.214600,0.480225
1519420795903,0.779297,0.239258,0.061523
1519420795938,0.591309,0.164307,0.362305
1519420795940,1.213135,-0.075195,1.019531
1519420795997,0.279541,-0.111084,1.046875
1519420795999,0.289307,0.927246,1.406738
1519420796031,0.708252,0.301025,0.785889
1519420796088,0.798096,-0.099121,-0.341309
1519420796121,0.751221,-0.050293,0.023926
1519420796134,0.153076,-0.076904,1.255859
1519420796167,0.639160,0.067383,1.616455
1519420796199,1.010986,0.425781,0.856689
1519420796232,0.989502,-0.000488,-0.054443
1519420796264,0.457764,0.520996,0.619385
1519420796297,0.254883,0.178223,1.446777
1519420796330,0.645996,-0.142090,1.253174
1519420796387,0.805176,0.032471,0.633301
1519420796436,0.565918,0.396973,0.576904
1519420796438,0.540039,0.666992,0.595459
1519420796470,0.697266,-0.038574,0.620605
1519420796502,0.787109,-0.410156,0.551758
1519420796535,0.530518,0.230225,0.903564
1519420796548,0.781250,0.410889,1.241211
1519420796581,0.860840,-0.138184,0.440186
1519420796638,0.901367,0.373779,0.234863
1519420796643,0.483398,0.218262,0.881592
1519420796701,0.621826,-0.080322,1.065186
1519420796733,0.824951,0.252930,1.194092
1519420796766,0.550293,0.438477,0.511963
1519420796798,0.843994,0.166504,0.781738
1519420796831,0.563965,0.004150,0.673584
1519420796842,0.466309,0.395996,1.147949
1519420796877,0.458008,0.128174,0.850098
1519420796935,0.639404,0.373291,0.441895
1519420796967,0.745361,0.445068,0.645020
1519420796969,0.531738,0.315674,0.655273
1519420797013,0.496094,0.220947,0.694824
1519420797060,0.789307,0.136475,0.761963
1519420797062,0.249756,0.231689,0.580078
1519420797093,0.592285,0.270264,0.726074
1519420797151,0.679688,0.005371,1.188721
1519420797183,0.508301,0.531982,0.858154
1519420797216,0.267334,0.436523,0.399658
1519420797224,0.668213,0.166992,0.441406
1519420797280,0.893555,-0.040283,0.686768
1519420797312,0.499023,-0.339355,1.098389
1519420797345,0.385498,0.303955,1.468018
1519420797379,0.529785,0.193115,0.464111
1519420797388,0.823486,0.359619,-0.250977
1519420797425,0.531738,0.103271,0.895996
1519420797460,0.764160,0.286621,0.972168
1519420797492,0.393066,-0.021240,1.087158
1519420797549,0.352783,0.353760,1.113525
1519420797558,0.715820,0.156738,0.654053
1519420797583,0.780273,0.491211,0.332764
1519420797615,0.798828,0.463379,0.603271
1519420797647,0.615967,-0.282959,0.804688
1519420797680,0.751221,-0.035645,1.082520
1519420797717,0.725098,0.137451,0.864014
1519420797749,0.417969,0.132324,0.346680
1519420797782,0.610352,0.266113,0.699219
1519420797816,0.645508,-0.004639,0.828125
1519420797853,0.395508,0.286377,0.707520
1519420797884,0.453369,0.378662,1.347900
1519420797918,0.785156,0.240479,0.960938
1519420797951,0.385986,0.418701,0.320557
1519420797982,0.348389,0.460938,0.138916
1519420798014,0.583984,-0.363770,1.239014
1519420798047,0.413330,-0.099609,1.248535
1519420798080,0.618896,0.855713,0.615234
1519420798112,0.835938,0.551758,0.496582
1519420798145,0.660889,-0.027344,1.061279
1519420798179,0.424561,-0.352783,1.009033
1519420798210,0.465576,-0.023682,0.437988
1519420798224,0.762695,0.527588,0.493164
1519420798255,0.780273,-0.083496,0.987061
1519420798315,0.505127,0.251221,1.031982
1519420798346,0.388916,0.959473,0.629883
1519420798378,0.516602,0.303955,1.063721
1519420798411,0.609131,-0.191162,0.823242
1519420798443,0.625732,0.131836,0.256104
1519420798475,0.681396,0.511475,0.596191
1519420798508,0.571777,-0.104736,0.595947
1519420798541,0.965576,0.294678,0.844727
1519420798550,0.818359,-0.046387,0.813721
1519420798601,0.613037,0.175537,0.743896
1519420798614,0.557617,0.290771,0.851074
1519420798646,0.378174,0.108154,0.485840
1519420798702,0.907959,0.373047,1.875488
1519420798706,0.079834,-0.226563,0.135986
1519420798762,0.690186,1.044678,0.416748
1519420798794,0.850586,-0.614502,1.012451
1519420798830,0.528320,0.493408,0.530762
1519420798839,0.674805,0.841309,1.190430
1519420798894,0.449707,-0.445313,0.627197
1519420798927,0.722412,0.601074,0.933838
1519420798960,0.560303,0.313721,0.601807
1519420798999,0.729004,0.203857,0.544434
1519420799030,0.870605,0.263916,0.784180
1519420799044,0.455811,0.187744,1.016602
1519420799076,0.479248,-0.185059,0.979004
1519420799108,0.827881,0.598877,0.804199
1519420799140,0.461914,-0.290527,1.073242
1519420799173,0.588135,0.702148,-0.028564
1519420799207,0.329102,0.306152,1.809082
1519420799238,0.458252,-0.668945,1.388184
1519420799271,0.735840,0.467773,-0.023438
1519420799304,0.297119,0.419678,0.220215
1519420799337,0.767578,-0.349854,0.385498
1519420799369,0.868896,0.294434,0.931641
1519420799402,0.551758,-0.809814,0.524170
1519420799435,0.256104,0.128174,1.691895
1519420799474,0.907959,0.264893,0.389160
1519420799506,1.096680,0.351807,-0.728027
1519420799540,0.793457,-0.345459,-0.039063
1519420799572,0.746338,-0.054199,2.277588
1519420799604,0.342041,-0.160645,0.801514
1519420799611,0.751953,0.496826,0.346436
1519420799663,0.741699,0.147949,0.831055
1519420799697,1.167236,-0.189697,0.074707
1519420799706,0.694580,0.506104,0.229736
1519420799758,0.400146,-0.638428,1.315186
1519420799770,1.097656,0.422852,1.438232
1519420799825,0.952881,0.822998,1.284912
1519420799832,-0.183838,0.656006,0.858154
1519420799891,0.424561,0.455811,1.404541
1519420799921,1.069580,-0.039551,0.623291
1519420799955,0.532227,0.310791,0.535156
1519420800023,0.586670,1.051270,1.134277
1519420800032,0.106689,0.570313,1.058105
1519420800089,0.641602,0.685303,1.064209
1519420800091,0.692627,0.066406,0.482422
1519420800123,0.700439,0.418213,0.097168
1519420800156,0.945068,0.260742,-0.189941
1519420800158,0.571289,0.277344,0.131348
1519420800189,0.587402,-0.077637,1.361328
1519420800247,0.550293,-0.523926,1.013184
1519420800249,0.797119,0.841797,0.844971
1519420800281,0.954590,0.809814,0.421387
1519420800339,0.515381,0.531006,0.626953
1519420800371,0.506836,-0.138672,1.139404
1519420800403,0.617920,0.029541,1.372803
1519420800411,0.281006,0.441650,0.718506
1519420800467,0.405518,0.365479,0.540283
1519420800500,0.667236,0.224365,0.531006
1519420800532,0.601563,0.003906,0.376465
1519420800564,0.513916,-0.322266,0.316895
1519420800567,0.531006,0.081787,1.000732
1519420800624,0.605469,0.364502,1.066406
1519420800656,0.771729,0.211426,0.633301
1519420800670,0.943604,0.337158,0.656494
1519420800727,0.866211,-0.386719,0.830078
1519420800730,0.593262,-0.061523,0.665283
1519420800787,0.396973,0.012939,0.984131
1519420800820,0.447754,0.115479,0.595215
1519420800828,0.556885,0.358154,0.506592
1519420800884,0.534668,-0.023438,1.390137
1519420800916,0.871826,-0.178223,1.048828
1519420800949,0.747559,0.356445,0.187256
1519420800981,1.021973,0.515137,0.734863
1519420801014,1.200684,0.189209,0.446533
1519420801046,0.955322,0.247803,0.144775
1519420801060,0.806885,0.223877,0.473145
1519420801118,0.983643,0.349854,0.728271
1519420801150,0.693848,0.218750,-0.014404
1519420801153,0.808350,0.093506,-0.065918
1519420801209,1.034180,1.050537,1.287109
1519420801242,1.021729,0.991699,1.432373
1519420801258,0.541992,0.152344,1.058594
1519420801300,0.696289,0.730469,0.750000
1519420801332,0.389160,0.856201,0.583984
1519420801365,0.244385,0.736084,0.248779
1519420801398,0.367188,0.681396,0.080566
1519420801431,0.615479,1.069580,-0.017090
1519420801463,0.928955,0.939209,-0.207520
1519420801477,1.011230,0.643311,0.065918
1519420801557,1.206299,0.795898,-0.030762
1519420801563,0.855469,0.131836,-0.011230
1519420801590,0.749268,0.317627,-0.056885
1519420801622,0.548828,1.060547,-0.314453
1519420801655,0.064453,0.791260,-0.202881
1519420801688,0.819580,0.684082,0.030762
1519420801723,1.016846,0.593018,0.091553
1519420801726,0.797852,-0.423340,-0.368408
1519420801784,0.959229,0.149414,-0.225830
1519420801816,0.823730,1.108643,-0.107910
1519420801824,0.689453,0.850586,-0.048584
1519420801880,0.671387,0.797607,0.048828
1519420801913,0.677002,0.596680,0.044434
1519420801945,0.570068,0.425293,-0.010010
1519420801978,0.723633,0.668701,0.331055
1519420802010,0.991699,1.042480,-0.092773
1519420802043,0.753662,0.524170,-0.327637
1519420802075,0.857910,0.027344,0.264893
1519420802108,1.107178,0.296875,0.324951
1519420802141,0.830078,0.662598,0.193359
1519420802174,0.918945,0.674316,0.157471
1519420802206,0.955811,0.613770,-0.012939
1519420802238,1.006836,0.667969,0.199463
1519420802270,1.104492,0.228027,0.300049
1519420802312,0.860840,0.239502,0.083252
1519420802318,0.849609,0.364990,-0.026611
1519420802371,0.916504,0.253906,-0.053223
1519420802377,1.053711,0.358887,0.003174
1519420802408,1.165283,0.445068,0.208496
1519420802466,1.163086,0.177490,0.118896
1519420802474,0.965820,0.293701,0.015381
1519420802530,0.826660,0.302246,0.012451
1519420802563,0.876221,0.327148,0.014404
1519420802595,0.844727,0.306641,-0.022461
1519420802629,1.003662,0.280029,-0.052490
1519420802660,1.090576,0.289307,0.027832
1519420802674,0.879150,0.372314,0.034180
1519420802707,0.854248,0.248779,0.105713
1519420802763,0.816406,0.339844,0.013916
1519420802796,0.886475,0.500000,0.166260
1519420802801,1.084961,0.481689,0.254883
1519420802837,1.041992,0.302490,0.101074
1519420802894,1.158203,0.340576,0.032471
1519420802897,1.064453,0.494385,0.045898
1519420802929,0.606201,0.463135,0.101318
1519420802961,1.008545,0.395264,0.236328
1519420802995,1.157715,0.503906,0.127930
1519420803026,0.723877,0.400146,0.050537
1519420803059,0.527832,0.113525,-0.053711
1519420803140,0.735107,0.288574,0.092041
1519420803148,0.989014,0.510498,0.232422
1519420803206,0.872314,0.408203,-0.005127
1519420803210,0.904785,0.437256,-0.024414
1519420803244,1.051514,0.485840,0.217529
1519420803251,1.067139,0.473877,0.115723
1519420803310,0.926514,0.491211,0.079346
1519420803343,0.740479,0.394531,0.195313
1519420803348,0.752930,0.331055,0.141602
1519420803378,0.684814,0.275146,0.049072
1519420803433,0.663330,0.326660,-0.097412
1519420803439,0.790283,0.373779,-0.116699
1519420803474,0.986816,0.477539,0.038574
1519420803506,0.908936,0.269775,0.063477
1519420803539,0.930176,0.254639,-0.122314
1519420803571,0.921631,0.234619,-0.336914
1519420803604,0.947510,0.410156,-0.246582
1519420803639,0.888184,0.486816,-0.036621
1519420803672,0.792480,0.452148,0.220703
1519420803705,0.937500,0.313232,0.143555
1519420803738,1.086914,0.373291,-0.282715
1519420803769,1.063232,0.541748,-0.373779
1519420803802,1.060547,0.556641,0.071533
1519420803834,1.211426,0.412354,0.155273
1519420803867,1.212891,0.298096,0.015137
1519420803907,0.797363,0.410400,-0.140625
1519420803941,0.751953,0.430420,-0.119385
1519420803974,0.991943,0.429199,0.039795
1519420804008,1.041016,0.587402,0.055664
1519420804039,0.830322,0.512207,-0.005859
1519420804072,0.882080,0.452393,-0.253174
1519420804119,0.990234,0.249268,0.137207
1519420804127,0.498047,0.651123,-0.024658
1519420804177,0.672607,0.846924,0.132568
1519420804209,1.046143,0.371094,0.338623
1519420804217,1.023438,0.498535,0.121826
1519420804271,0.938232,0.475342,-0.182373
1519420804285,0.842285,0.175781,-0.389648
1519420804318,1.010254,0.539307,0.014648
1519420804350,1.193604,0.450684,0.021973
1519420804410,1.145752,0.445801,0.227295
1519420804419,1.136475,0.562988,0.237305
1519420804447,1.122559,0.692139,0.012939
1519420804505,0.789551,0.281494,-0.283203
1519420804513,0.636719,0.572754,-0.249023
1519420804538,0.684570,0.601074,-0.246094
1519420804570,0.694580,0.186279,-0.322021
1519420804607,0.764404,0.478760,-0.222412
1519420804637,0.853760,0.527832,-0.143311
1519420804670,0.886230,0.019531,0.105957
1519420804713,1.010498,0.780029,0.042480
1519420804745,0.736328,1.177490,0.095947
1519420804777,0.364990,0.977783,-0.274170
1519420804818,0.211182,1.021729,-0.371826
1519420804850,0.351563,1.242920,-0.562744
1519420804883,0.529785,1.129639,-0.504883
1519420804914,0.400635,0.707764,-0.252197
1519420804917,0.527100,0.664063,-0.197021
1519420804973,0.550537,0.463135,-0.051758
1519420805005,0.115479,0.193359,0.293457
1519420805011,0.090332,0.041748,0.617188
1519420805070,0.367432,0.318604,1.083496
1519420805084,0.318604,0.502441,0.877686
1519420805117,0.599365,0.101074,0.747314
1519420805149,0.775391,0.205566,0.794922
1519420805208,1.235352,0.156738,1.069336
1519420805217,1.269287,0.145020,0.642090
1519420805267,1.360596,0.555176,0.548828
1519420805301,1.004883,0.523193,0.993408
1519420805334,1.137695,0.294189,0.988525
1519420805366,0.799316,-0.082520,0.020996
1519420805399,0.073242,-1.144775,0.842041
1519420805432,0.293945,-0.182861,1.126221
1519420805464,0.833984,0.768555,1.521484
1519420805497,0.468506,0.164063,0.223145
1519420805506,0.243652,-0.464600,0.805420
1519420805569,0.605469,-0.344727,0.493408
1519420805577,0.931152,1.000488,0.246826
1519420805604,1.557373,0.255859,1.306396
1519420805662,0.637939,-0.602783,0.866455
1519420805667,0.557373,1.005615,0.627686
1519420805695,0.308350,0.186279,0.645020
1519420805728,0.561768,-0.604248,0.698486
1519420805786,0.372314,0.011230,0.540283
1519420805792,0.638916,0.554688,0.484619
1519420805849,0.586914,-0.138184,0.399170
1519420805882,1.193359,0.000244,1.140625
1519420805915,0.635742,-0.241211,0.201660
1519420805928,0.219482,0.529541,1.115234
1519420805984,0.671631,-0.682129,1.019531
1519420805989,0.878174,-0.701904,-0.704102
1519420806043,1.301270,0.286621,0.395996
1519420806077,1.130371,-0.560303,0.357666
1519420806081,0.946533,0.315674,0.839111
1519420806110,0.867920,0.018311,0.322510
1519420806168,0.930664,-0.325928,0.199463
1519420806239,0.987061,-0.126709,0.782227
1519420806242,0.778564,-0.151611,0.725586
1519420806306,1.073242,-0.199707,0.432373
1519420806369,0.580566,-0.187256,0.823730
1519420806372,1.005371,-0.187744,0.531006
1519420806375,0.888184,-0.257813,0.344238
1519420806379,0.831055,0.328125,0.680176
1519420806409,0.854004,-0.307129,1.015625
1519420806442,0.960938,0.154053,0.541260
1519420806474,0.968994,0.146484,0.507568
1519420806531,0.757568,-0.175781,0.381104
1519420806535,0.368896,0.351318,1.074951
1519420806566,0.473145,-0.186279,0.572021
1519420806624,1.262451,-0.514648,-0.154785
1519420806630,0.838867,0.230957,0.509521
1519420806677,0.610107,-0.215332,0.638184
1519420806709,0.964600,-0.001221,0.447021
1519420806724,0.687256,0.034424,0.502686
1519420806780,0.893066,-0.190918,0.654541
1519420806787,0.766113,-0.165039,0.437012
1519420806844,0.646484,0.182617,0.786133
1519420806878,1.073242,-0.424561,0.501221
1519420806910,0.875000,-0.261719,0.156494
1519420806944,0.622803,0.076416,0.465088
1519420806952,0.617432,-0.469971,0.687012
1519420807001,0.735352,-0.096191,1.066162
1519420807033,0.843018,0.165771,0.677490
1519420807038,0.862793,0.077148,0.119629
1519420807096,0.738037,-0.072266,1.083008
1519420807129,0.944336,-0.119141,0.864258
1519420807144,0.638672,0.114502,0.188965
1519420807177,0.371338,-0.416992,1.043457
1519420807209,0.738525,-0.146973,0.753662
1519420807242,1.007324,-0.056152,0.312256
1519420807274,0.833008,-0.021973,0.490967
1519420807306,0.877197,-0.133545,0.683838
1519420807365,0.894287,-0.016846,0.622070
1519420807396,0.742188,-0.165039,0.565430
1519420807408,0.705566,-0.389404,-0.103760
1519420807460,0.787109,0.040527,0.206787
1519420807492,0.599121,-0.398193,0.595703
1519420807528,0.872314,-0.062744,0.640381
1519420807531,0.667725,0.005127,0.444092
1519420807575,0.864746,-0.312744,0.541504
1519420807608,0.773193,-0.158936,0.450928
1519420807641,0.562500,0.020508,0.524170
1519420807672,0.964111,-0.140625,0.388428
1519420807705,0.918457,0.065918,0.760010
1519420807738,0.568604,0.251221,0.912109
1519420807770,1.117676,-0.046631,0.334473
1519420807802,1.096924,-0.201660,0.276123
1519420807834,0.747070,0.294189,0.516602
1519420807866,0.839355,-0.193359,0.276611
1519420807899,0.757324,-0.149170,0.469482
1519420807933,1.154785,-0.095459,0.750488
1519420807958,0.517822,-0.266113,0.372070
1519420807991,0.980957,0.000000,0.834961
1519420808025,1.101807,0.147217,0.573730
1519420808057,0.538330,-0.152344,0.347412
1519420808089,0.921387,-0.012939,0.550049
1519420808122,0.613770,-0.082275,0.517090
1519420808154,0.950684,0.342773,0.404541
1519420808186,0.958740,-0.094238,0.621094
1519420808218,0.892822,0.114990,0.592285
1519420808251,0.561768,0.033447,0.470459
1519420808284,0.952148,-0.274902,0.219727
1519420808317,0.824463,0.198486,0.803467
1519420808349,0.713867,0.074463,1.079834
1519420808383,0.638428,0.126709,0.464355
1519420808416,0.980957,-0.123535,0.609863
1519420808448,1.109863,-0.171143,0.407959
1519420808486,0.754395,-0.473389,0.318604
1519420808517,0.798096,-0.396240,0.336182
1519420808549,0.791992,0.112549,0.617676
1519420808582,0.536133,-0.013672,0.572021
1519420808615,0.641357,-0.430664,0.217285
1519420808647,1.055176,-0.337402,0.690186
1519420808665,0.549072,-0.297607,0.726563
1519420808698,0.677490,-0.355957,0.960938
1519420808757,1.120117,-0.205078,0.255371
1519420808765,0.853516,0.161621,0.717529
1519420808801,0.405762,-0.236084,0.844482
1519420808835,0.988525,-0.427979,0.710693
1519420808868,1.181396,-0.173340,0.927002
1519420808900,0.538330,-0.271973,1.179932
1519420808932,0.836670,0.126465,0.619629
1519420808965,1.220215,0.159180,0.071533
1519420808998,0.269043,-0.024902,0.367676
1519420809030,0.260254,0.090576,1.000000
1519420809064,0.693115,-0.350830,0.514648
1519420809096,0.955078,-0.156982,0.457520
1519420809127,0.545654,0.085938,-0.062256
1519420809132,0.404541,-0.046143,0.960693
1519420809167,1.210938,-0.486328,0.688232
1519420809236,1.534912,0.100586,-0.634033
1519420809240,0.639648,-0.183350,0.590576
1519420809270,1.224365,-0.038574,0.564209
1519420809302,1.222656,-0.269043,0.224854
1519420809377,0.666260,-0.107666,0.839600
1519420809385,0.769287,0.586914,0.703613
1519420809445,1.210205,0.095215,0.445801
1519420809453,0.991699,0.023438,0.943359
1519420809489,0.471924,-0.000488,0.718750
1519420809497,0.818359,0.077637,0.988037
1519420809554,0.891846,-0.088867,0.571533
1519420809562,0.744629,0.128418,1.305420
1519420809600,0.763184,-0.056885,0.626465
1519420809632,0.936279,0.738770,0.465088
1519420809664,0.797363,-0.144775,0.395264
1519420809697,0.643555,-0.066895,0.386963
1519420809730,0.611572,0.072754,0.479004
1519420809761,0.975342,-0.036865,0.435547
1519420809794,0.704590,0.001221,0.021973
1519420809826,0.649658,-0.155518,0.998291
1519420809860,0.630371,-0.324951,1.242920
1519420809894,0.874268,-0.002930,0.825928
1519420809926,0.555420,0.308105,0.536377
1519420809958,0.604248,-0.101563,1.059570
1519420809998,1.025635,0.080322,0.952393
1519420810031,0.621338,-0.182861,0.467529
1519420810064,0.450195,0.343262,0.320313
1519420810095,0.959473,0.579590,1.135986
1519420810129,0.953613,-0.298340,0.244873
1519420810134,0.493164,-1.020996,-0.875488
1519420810188,1.180176,0.685303,0.919189
1519420810220,1.032227,0.358887,0.924805
1519420810229,0.065430,-1.331787,-0.685303
1519420810283,1.336426,0.512451,1.334961
1519420810314,0.843018,-0.058350,0.666748
1519420810347,0.636963,-0.414307,1.356934
1519420810379,0.934082,-0.550537,-0.035156
1519420810392,0.743408,-0.243652,-0.156006
1519420810426,1.087891,-0.212646,0.974854
1519420810457,0.345215,-0.122559,0.226563
1519420810518,0.101074,-0.256836,0.336670
1519420810551,-0.320313,-0.443115,0.016357
1519420810584,-0.255371,-0.535889,-0.693848
1519420810593,4.876709,0.716064,1.426514
1519420810646,1.124512,-0.352051,1.190918
1519420810679,1.861084,-0.175537,1.845459
1519420810711,1.329590,-0.550781,-0.217285
1519420810717,0.968506,-0.762451,0.039307
1519420810769,0.151367,-0.319824,0.618164
1519420810811,0.524414,0.525635,1.170898
1519420810816,0.874023,-0.365479,0.390625
1519420810869,0.630859,-0.443115,-0.128906
1519420810873,0.790039,-0.258789,1.251221
1519420810932,0.883057,-0.219971,0.648682
1519420810966,0.887451,0.163818,-0.089844
1519420810974,-1.156982,0.666504,3.239502
1519420811030,3.010010,0.341553,-1.625488
1519420811063,2.227783,0.671387,0.368896
1519420811095,0.761963,0.210938,0.870850
1519420811127,-0.017578,-0.887939,1.486084
1519420811159,1.450439,-0.487305,1.170166
1519420811190,0.471191,0.719238,0.592529
1519420811204,-0.281250,-0.411377,0.816895
1519420811261,1.233887,-0.248291,0.789551
1519420811294,1.495605,0.241943,0.437256
1519420811297,0.662109,0.111084,-0.353027
1519420811355,1.046387,0.185791,0.109619
1519420811363,1.392090,-0.029785,-0.019531
1519420811392,1.218750,-0.405029,1.016846
1519420811449,0.250488,0.284424,0.359619
1519420811458,0.274414,0.477295,0.958984
1519420811512,1.493652,-0.114258,0.788818
1519420811545,0.374268,-0.353271,0.235352
1519420811576,0.906250,0.822021,0.446289
1519420811590,1.193359,0.128662,-0.042969
1519420811624,0.853760,0.009521,0.535645
1519420811657,0.230225,0.259277,1.394531
1519420811689,0.940430,-0.157471,-0.222168
1519420811746,1.310059,0.276855,-0.183594
1519420811800,1.034912,-0.427979,0.634521
1519420811806,0.470459,0.529785,0.893799
1519420811833,1.076172,-0.279785,0.343506
1519420811865,1.012695,-0.383789,0.103027
1519420811869,0.749023,-0.334473,-0.445313
1519420811926,0.656982,0.781250,0.934814
1519420811960,1.065918,-0.332275,0.589600
1519420811994,1.279053,-0.148926,0.525635
1519420812007,0.610352,0.378174,0.608398
1519420812038,0.427002,0.375244,0.737793
1519420812073,1.592773,0.093506,0.567139
1519420812106,0.510498,0.050049,0.469727
1519420812147,0.677979,-0.083740,1.089600
1519420812178,0.523193,-0.130127,0.101563
1519420812213,0.783691,0.224121,0.864990
1519420812247,0.743896,0.048340,0.749268
1519420812278,1.439697,-0.218262,0.681641
1519420812310,1.183350,0.090820,0.214844
1519420812319,0.546143,0.546631,0.666016
1519420812378,0.789551,-0.150879,0.172119
1519420812411,0.838867,-0.284912,-0.330322
1519420812424,0.926270,0.319824,0.699951
1519420812497,0.463867,-0.156982,-0.083008
1519420812506,1.253906,-0.030029,0.251221
1519420812564,1.063477,0.442139,-0.034912
1519420812569,0.668945,-0.090820,0.520752
1519420812611,0.945557,-0.707275,0.704834
1519420812628,1.356201,0.195068,0.836914
1519420812660,0.921387,-0.008789,0.991211
1519420812692,0.489258,-0.176758,0.344238
1519420812724,1.302002,0.420654,0.287842
1519420812758,1.347656,0.409668,-0.177246
1519420812789,0.468506,0.020264,1.020996
1519420812822,0.861572,0.596680,0.854004
1519420812855,0.915771,0.054199,0.503906
1519420812894,0.602783,-0.215576,0.502686
1519420812902,0.777588,0.098877,0.667725
1519420812935,0.547363,0.063477,0.257813
1519420812993,0.971924,-0.489990,0.541016
1519420813002,0.705811,-0.087402,0.028564
1519420813078,0.757324,0.321045,0.740967
1519420813086,0.821533,-0.008301,0.573486
1519420813113,1.048584,-0.001465,0.515381
1519420813145,0.764404,-0.115723,0.395264
1519420813178,1.057373,-0.053223,0.915527
1519420813210,0.790527,0.024414,0.532959
1519420813250,0.773926,0.020020,0.702881
1519420813282,0.749268,0.212402,0.615723
1519420813317,0.864258,-0.045410,0.697510
1519420813321,1.029053,-0.152344,0.437988
1519420813378,0.812256,0.065430,0.432373
1519420813411,0.653809,0.085938,0.923828
1519420813420,0.788086,0.090576,0.696533
1519420813469,0.727051,-0.363037,0.334717
1519420813500,0.753662,-0.197510,0.268555
1519420813534,0.692139,0.645020,0.478760
1519420813567,1.253662,0.072021,0.520020
1519420813599,0.715332,-0.112305,0.446289
1519420813632,0.843506,0.311279,0.481445
1519420813647,0.642090,0.138672,0.604248
1519420813703,1.137939,-0.248535,0.984131
1519420813737,0.234131,-0.608398,0.157471
1519420813769,0.792480,0.087891,0.471924
1519420813800,1.451904,0.084473,0.583740
1519420813833,0.966797,-0.202881,0.270020
1519420813867,0.503906,-0.118408,0.248291
1519420813901,1.321289,0.457031,0.862061
1519420813910,1.163330,0.116211,1.497803
1519420813961,0.132568,-0.365234,0.195313
1519420813993,0.520996,0.287598,0.289795
1519420814003,1.215820,0.065186,0.697266
1519420814053,0.830322,-0.105713,0.325439
1519420814084,0.848877,0.189453,0.866211
1519420814116,0.554688,-0.442871,0.282959
1519420814148,1.082031,0.568115,1.232910
1519420814182,1.122314,-0.221191,0.524658
1519420814213,0.803711,-0.184082,-0.278809
1519420814245,0.283447,-0.151123,1.444824
1519420814280,0.896240,-0.332764,0.703613
1519420814313,1.438232,-0.072510,-0.522705
1519420814358,0.657959,-0.224609,0.532715
1519420814367,0.611572,-0.354248,1.088867
1519420814416,0.810547,0.245361,0.291748
1519420814448,1.024658,0.372314,-0.419189
1519420814463,0.866211,-0.471436,0.181885
1519420814495,1.124756,-0.196289,0.870605
1519420814552,0.797363,-0.127930,0.242676
1519420814555,0.881348,-0.214355,0.116943
1519420814587,0.879883,-0.295898,0.420898
1519420814643,0.872314,-0.008789,0.459717
1519420814649,0.942871,-0.347900,0.064697
1519420814677,0.895264,0.013916,0.099609
1519420814736,0.811523,-0.037109,0.291260
1519420814769,0.818604,-0.200439,0.339844
1519420814779,0.978271,-0.265625,0.308838
1519420814831,1.038574,-0.190186,0.918457
1519420814864,1.012939,-0.010010,0.583740
1519420814878,0.883301,-0.201904,0.668457
1519420814909,0.813965,-0.098145,0.669434
1519420814968,0.769531,0.074951,0.459961
1519420814977,1.216553,-0.165527,0.282471
1519420815030,0.697266,0.135498,0.798584
1519420815037,0.712646,0.034668,0.720215
1519420815065,0.843506,-0.107666,0.847412
1519420815097,0.606934,-0.078857,0.860352
1519420815129,0.898438,-0.205078,0.365723
1519420815161,0.701904,-0.178467,0.339355
1519420815193,0.832275,-0.249756,0.742188
1519420815230,1.054688,-0.192383,-0.018799
1519420815261,0.788086,0.228516,0.433350
1519420815302,0.704834,-0.117432,0.901855
1519420815335,0.941650,-0.166016,0.458008
1519420815341,0.893066,0.036865,0.296143
1519420815399,0.771729,-0.025879,0.109375
1519420815432,0.710938,-0.145020,0.726318
1519420815438,0.701904,-0.178467,0.680176
1519420815497,1.099365,-0.144775,0.252197
1519420815529,0.770996,0.122803,0.466797
1519420815603,1.025146,0.037842,0.525635
1519420815612,0.807129,-0.149414,0.317871
1519420815670,0.654785,-0.063721,0.876709
1519420815739,0.918457,-0.045898,0.391357
1519420815754,0.876221,0.124023,0.355957
1519420815763,0.811279,0.005127,0.607666
1519420815771,0.886719,-0.171875,0.738770
1519420815790,0.825684,-0.167480,0.538818
1519420815823,0.771240,0.005615,0.554932
1519420815857,0.857666,0.049561,0.641602
1519420815890,0.686523,-0.296143,0.280762
1519420815921,0.720703,0.195801,0.334961
1519420815924,0.891602,0.062256,0.880371
1519420815980,0.820801,-0.106689,0.575928
1519420816012,0.800537,0.153564,0.624512
1519420816019,0.997559,-0.078125,0.874512
1519420816075,0.790283,0.032959,0.205078
1519420816090,0.759277,-0.000488,0.750244
1519420816121,0.770264,-0.083252,0.490479
1519420816180,0.949219,0.049316,0.333496
1519420816189,0.910400,0.055420,0.047119
1519420816243,0.871094,0.015137,0.529541
1519420816275,1.099854,-0.139404,0.456299
1519420816306,1.020020,0.050293,0.372803
1519420816339,0.896973,-0.045166,0.623535
1519420816372,0.684570,0.100586,0.894043
1519420816404,0.796387,0.012207,0.415527
1519420816442,0.622803,0.120850,0.758545
1519420816475,0.992920,-0.285400,0.501709
1519420816489,0.962891,0.006348,0.072998
1519420816522,0.735596,0.102051,0.381836
1519420816553,0.805176,-0.310791,0.516846
1519420816585,1.053955,-0.233887,0.761230
1519420816620,0.786133,-0.009521,0.349854
1519420816651,0.943604,0.303711,0.523438
1519420816685,0.815430,-0.064209,0.931641
1519420816717,0.913818,0.095947,0.715332
1519420816749,0.763672,0.420410,0.598877
1519420816781,0.874512,-0.134766,0.493652
1519420816815,1.048828,-0.148438,0.771240
1519420816847,0.554443,0.126709,0.700928
1519420816880,1.288574,-0.289307,0.437500
1519420816918,0.390381,-0.259766,0.560547
1519420816951,0.870117,0.109131,0.885742
1519420816984,1.030029,0.088379,0.423828
1519420817016,0.831299,-0.129395,0.184570
1519420817048,0.889648,0.041504,0.411133
1519420817079,0.679688,-0.061768,0.605225
1519420817083,0.660889,0.020752,0.883789
1519420817141,1.019043,-0.046387,0.656494
1519420817176,0.865967,0.029541,0.313721
1519420817180,0.625732,-0.166992,0.857666
1519420817239,0.811035,-0.171143,0.648438
1519420817272,0.981445,0.233154,0.242188
1519420817303,0.619873,-0.250977,0.489746
1519420817317,1.082031,0.146240,0.523926
1519420817350,0.950195,0.163818,0.236084
1519420817382,0.962891,0.057617,0.569824
1519420817414,0.789307,0.003174,0.179932
1519420817473,0.839111,0.278320,0.457275
1519420817504,1.001953,-0.040283,0.624756
1519420817536,0.614746,-0.296875,0.398926
1519420817544,0.606934,-0.463379,0.868652
1519420817602,0.902588,-0.135010,0.563232
1519420817635,0.905762,-0.217773,0.557129
1519420817668,0.892822,-0.109619,0.344971
1519420817676,1.156006,0.169922,0.587402
1519420817700,0.829590,-0.041992,0.967773
1519420817731,0.698975,-0.200439,0.778564
1519420817764,0.646240,0.093994,0.199219
1519420817798,0.745605,0.233154,0.878662
1519420817829,0.912354,0.117432,0.890625
1519420817889,1.041992,0.025391,0.637451
1519420817919,1.220459,0.010254,0.431152
1519420817952,1.293701,0.050781,0.380859
1519420817987,1.279297,0.147461,0.353027
1519420818018,0.966797,0.001221,0.358643
1519420818051,0.837891,0.178467,0.605957
1519420818084,0.788574,0.372559,0.653076
1519420818116,0.487793,0.120117,0.644043
1519420818124,0.564453,0.076660,0.838867
1519420818160,0.347412,0.295410,0.500732
1519420818201,0.413086,0.333008,0.478027
1519420818234,0.568359,0.307129,0.264893
1519420818267,0.864258,0.714600,0.052246
1519420818300,0.632813,0.809082,0.303223
1519420818332,0.768311,1.052490,0.361084
1519420818365,0.693848,1.015869,0.242188
1519420818398,0.821045,0.434082,0.241943
1519420818431,1.133057,1.400879,-0.253418
1519420818464,0.782227,0.796875,-0.486572
1519420818496,0.491943,0.411865,-0.393311
1519420818526,0.730713,1.024902,-0.290771
1519420818530,0.772461,0.855469,-0.182129
1519420818586,0.586182,-0.228516,-0.062012
1519420818618,0.381348,-0.711914,-0.325439
1519420818626,0.694336,0.229736,-0.413330
1519420818722,0.675293,0.917236,-0.444580
1519420818728,0.821533,0.263672,-0.162354
1519420818791,0.781494,0.233887,0.148926
1519420818800,0.842529,0.510498,-0.242920
1519420818850,0.606934,0.387939,-0.307861
1519420818853,0.506592,0.291260,-0.079346
1519420818860,0.620117,0.310059,0.369629
1519420818915,0.933594,0.853760,0.278809
1519420818929,1.358398,1.269775,-0.212646
1519420818963,1.192139,0.764160,-0.055664
1519420818996,1.500244,0.511719,0.124023
1519420819028,1.177002,0.342773,-0.023926
1519420819060,1.025391,0.371094,-0.122070
1519420819097,0.964355,0.425293,-0.129150
1519420819131,0.966309,0.331299,-0.002441
1519420819164,1.107910,0.292725,0.125977
1519420819197,0.992920,0.411377,0.091309
1519420819228,0.822266,0.324463,0.014893
1519420819259,0.913086,0.436523,0.008301
1519420819292,0.955078,0.499756,0.122070
1519420819324,0.899170,0.379639,0.189697
1519420819365,0.936279,0.307373,0.030518
1519420819371,0.905029,0.398438,0.211914
1519420819430,0.943604,0.475098,0.277344
1519420819479,0.891113,0.547119,0.098389
1519420819488,0.875488,0.422363,0.066162
1519420819510,0.937988,0.341064,0.102783
1519420819544,0.947510,0.281006,0.122070
1519420819575,0.788574,0.332275,0.005127
1519420819607,0.843994,0.397217,0.137207
1519420819640,0.907471,0.458008,0.266846
1519420819673,0.890137,0.379639,0.291748
1519420819705,0.879883,0.394775,0.098389
1519420819744,0.870117,0.392578,-0.003418
1519420819776,0.810547,0.200684,0.076904
1519420819811,1.049316,0.684814,0.099854
1519420819842,1.026855,0.538330,0.252930
1519420819875,0.806152,0.234863,0.269287
1519420819909,0.490479,0.276611,-0.052246
1519420819941,0.681641,0.407715,-0.058594
1519420819973,1.012451,0.511475,0.386230
1519420820004,1.037842,0.630859,0.283203
1519420820038,0.834473,0.413818,-0.090576
1519420820075,0.766602,0.230957,0.039063
1519420820107,0.729980,0.248779,0.031250
1519420820139,0.722412,0.631592,-0.077881
1519420820152,0.919189,0.650635,0.028076
1519420820210,1.208740,0.467285,0.207275
1519420820244,0.962891,0.395752,-0.098145
1519420820275,0.831299,0.397705,-0.249512
1519420820282,0.879150,0.540039,-0.043457
1519420820343,1.027344,0.620605,0.213135
1519420820351,0.924316,0.397705,0.054199
1519420820375,0.916992,0.276855,-0.169189
1519420820408,0.710205,0.393066,-0.197266
1519420820442,0.845215,0.463623,-0.076904
1519420820476,1.054199,0.399902,-0.107422
1519420820508,1.071533,0.383789,-0.177002
1519420820540,0.994873,0.452881,0.062012
1519420820572,0.906250,0.268066,0.141113
1519420820605,0.880615,0.394531,0.091064
1519420820636,0.962402,0.502441,0.116943
1519420820693,0.820313,0.548096,0.083740
1519420820726,0.806885,0.444824,-0.086670
1519420820732,1.051025,0.347168,-0.110840
1519420820787,1.058350,0.278320,-0.033691
1519420820820,0.736084,0.250732,0.108398
1519420820828,0.852295,0.327881,0.015381
1519420820854,0.989014,0.416748,-0.197266
1519420820887,1.041504,0.433838,-0.037842
1519420820945,1.000977,0.409912,0.082031
1519420820958,1.000000,0.401367,0.029053
1519420820990,1.108887,0.277100,0.038574
1519420821027,1.064209,0.239746,0.064941
1519420821058,0.908447,0.267822,0.058105
1519420821092,0.762939,0.384521,0.015869
1519420821123,0.838867,0.422852,0.028076
1519420821156,0.997803,0.413574,0.067627
1519420821189,0.918213,0.461670,0.146973
1519420821223,0.790039,0.415771,0.133545
1519420821256,0.975830,0.343262,0.137451
1519420821290,1.079346,0.396973,0.121826
1519420821302,1.029785,0.456787,0.181396
1519420821333,0.974609,0.411133,0.160400
1519420821391,1.119141,0.402588,0.279297
1519420821398,0.977051,0.337891,0.217285
1519420821455,0.838623,0.245361,0.232422
1519420821488,0.744873,0.324707,0.223389
1519420821521,0.704346,0.352295,0.187500
1519420821553,0.706787,0.376709,0.048340
1519420821587,0.867920,0.357910,-0.042480
1519420821619,0.785645,0.401367,-0.051025
1519420821653,0.566650,0.468750,0.155518
1519420821685,0.763428,0.222656,0.256836
1519420821716,0.760010,0.458740,-0.000732
1519420821722,0.864746,0.506592,0.031494
1519420821775,1.120850,0.616943,0.120361
1519420821914,1.046143,0.511963,0.040771
1519420821918,0.805420,0.494385,0.163330
1519420821968,0.979004,0.375977,0.134033
1519420821978,1.221436,0.432861,-0.072021
1519420821989,1.103760,0.429443,-0.106689
1519420821992,0.796875,0.328125,0.075928
1519420821996,1.013916,0.297363,0.093262
1519420822013,0.950195,0.289307,-0.127930
1519420822068,0.845947,0.374268,-0.091553
1519420822100,0.808105,0.325439,0.067871
1519420822132,0.877441,0.250977,-0.042969
1519420822165,0.646973,0.349121,-0.190186
1519420822179,0.626465,0.491455,-0.037109
1519420822211,1.277588,0.481934,0.032471
1519420822269,1.083740,0.256348,-0.303223
1519420822301,0.662109,0.327637,0.010742
1519420822305,1.113281,0.347412,0.333984
1519420822361,1.175049,0.264648,-0.356689
1519420822394,0.910889,0.518311,-0.233887
1519420822403,1.065674,0.291748,0.072754
1519420822453,1.291992,0.093506,-0.197510
1519420822486,0.800781,0.010254,-0.230469
1519420822518,0.655029,0.291748,-0.033691
1519420822549,0.913574,0.455811,0.107422
1519420822582,0.948242,0.426758,0.109619
1519420822595,0.866211,0.303955,0.064941
1519420822629,0.800293,0.431641,-0.031982
1519420822661,0.971924,0.310303,-0.041992
1519420822719,1.002686,0.398682,-0.064209
1519420822724,1.139160,0.511719,0.165283
1519420822782,1.174072,0.333740,0.245850
1519420822815,0.929932,0.064209,-0.006836
1519420822847,0.885742,0.048584,-0.129395
1519420822881,0.818848,0.267090,-0.146484
1519420822889,0.845215,0.365479,-0.160645
1519420822939,1.154541,0.456299,-0.021729
1519420822977,1.240723,0.464844,0.182129
1519420822985,1.124023,0.298340,0.338379
1519420823042,0.863770,0.269775,0.276855
1519420823046,0.688232,0.242920,0.176758
1519420823076,0.669922,0.276367,-0.214844
1519420823137,0.809814,0.604004,-0.265137
1519420823146,1.095947,0.730713,0.065430
1519420823198,1.190918,0.553955,0.195557
1519420823231,1.069336,0.254883,0.273682
1519420823263,1.006104,0.163086,0.339111
1519420823316,0.836670,0.169189,0.150391
1519420823322,0.596191,0.318115,-0.116455
1519420823350,0.889160,0.488770,-0.045898
1519420823382,0.892090,0.524658,-0.078857
1519420823424,0.877441,0.330566,0.105469
1519420823427,0.888184,0.322754,0.249756
1519420823459,0.798584,0.462158,0.207275
1519420823517,1.050537,0.577637,0.127686
1519420823526,1.284180,0.481689,0.134277
1519420823584,1.008301,0.314209,0.035400
1519420823593,0.710693,0.208496,0.043945
1519420823645,0.776855,0.380127,0.165771
1519420823678,0.950195,0.383301,-0.049316
1519420823710,0.955566,0.352539,0.037598
1519420823744,0.850342,0.280273,0.194580
1519420823776,0.893555,0.145996,0.042725
1519420823809,1.034424,0.169434,-0.130371
1519420823822,1.093262,0.292725,-0.009521
1519420823855,1.075195,0.343750,0.012451
1519420823913,0.991699,0.339600,0.109863
1519420823919,0.991943,0.344971,0.205566
1519420823950,0.937988,0.347412,0.167480
1519420824007,0.963867,0.341797,0.178955
1519420824019,1.164063,0.190918,0.158203
1519420824040,1.024658,0.256348,0.072266
1519420824072,0.579590,0.245850,0.001221
1519420824130,0.707275,0.276123,0.063477
1519420824135,0.868408,0.373535,0.007324
1519420824192,0.951416,0.309326,0.058350
1519420824225,1.070068,0.302734,0.192627
1519420824238,1.064209,0.265381,0.195801
1519420824271,0.837402,0.350098,-0.053955
1519420824329,0.829834,0.470703,0.042969
1519420824335,1.108887,0.379639,0.202637
1519420824393,0.902832,0.365967,0.114258
1519420824425,0.771973,0.355225,0.118896
1519420824428,0.910156,0.245605,0.093262
1519420824485,0.693115,0.546387,-0.093750
1519420824487,0.680420,0.572754,0.153320
1519420824518,1.071045,0.290283,0.248291
1519420824596,1.138184,0.240234,-0.177002
1519420824598,1.109863,0.488525,-0.140137
1519420824632,1.079590,0.359131,0.185547
1519420824674,0.956055,0.217529,0.121826
1519420824706,0.888672,0.242676,0.012451
1519420824739,0.970215,0.272949,-0.072021
1519420824771,0.860840,0.294189,-0.106689
1519420824805,0.956055,0.249023,-0.166016
1519420824839,1.053711,0.269531,-0.097412
1519420824872,1.102051,0.248535,0.059082
1519420824907,1.048828,0.145264,-0.030029
1519420824910,0.921875,0.198486,-0.065186
1519420824981,0.978271,0.287354,-0.104004
1519420824983,1.017090,0.296387,-0.122070
1519420825050,0.942627,0.221436,-0.084229
1519420825052,0.873779,0.191406,0.016357
1519420825086,0.874023,0.222900,0.102295
1519420825119,0.933105,0.373779,0.110596
1519420825151,0.946777,0.483643,0.070313
1519420825185,1.097412,0.467529,0.075195
1519420825217,1.056641,0.407471,0.132813
1519420825250,0.987793,0.180176,0.004150
1519420825282,0.969482,0.179443,-0.092041
1519420825315,0.812988,0.178711,0.001953
1519420825347,0.890137,0.345703,-0.039551
1519420825381,1.054932,0.437988,-0.078125
1519420825414,1.045410,0.413574,0.134033
1519420825446,0.802002,0.247314,0.147705
1519420825488,0.718994,0.238770,0.068359
1519420825491,0.792969,0.371094,-0.062988
1519420825548,1.143311,0.486328,-0.020264
1519420825580,1.234375,0.467285,-0.017822
1519420825585,0.997070,0.436523,0.084229
1519420825641,0.844238,0.388428,0.288574
1519420825658,0.895508,0.272461,0.205322
1519420825690,0.855469,0.169922,-0.103760
1519420825747,0.853027,0.307373,-0.024658
1519420825753,1.025635,0.356934,-0.069092
1519420825783,0.967285,0.285400,-0.003174
1519420825840,0.769531,0.449951,0.106934
1519420825854,0.947266,0.448242,0.071777
1519420825908,1.397461,0.234131,0.124268
1519420825911,0.975586,0.234619,-0.114014
1519420825969,0.545654,0.406982,-0.170410
1519420826001,0.801758,0.280029,0.062500
1519420826033,1.086426,0.189697,-0.028076
1519420826066,0.655762,0.310547,-0.213867
1519420826070,0.645752,0.361816,-0.002686
1519420826100,1.005371,0.408691,0.172363
1519420826133,0.961426,0.437012,0.026123
1519420826165,1.008545,0.412109,0.091309
1519420826199,1.099121,0.191406,-0.056152
1519420826233,0.961670,0.341309,-0.262695
1519420826265,1.136719,0.362793,0.059814
1519420826321,1.113525,0.251221,0.034424
1519420826327,0.860596,0.273193,-0.417969
1519420826385,0.893799,0.303711,-0.121094
1519420826419,0.852051,0.084961,0.061279
1519420826451,0.563721,0.206543,-0.222656
1519420826484,0.587646,0.373047,-0.122314
1519420826516,1.221191,0.221680,0.118164
1519420826548,1.196045,0.170654,-0.107178
1519420826554,0.883789,0.321777,-0.053467
1519420826607,1.064697,0.447021,0.137451
1519420826612,1.115234,0.441162,0.026611
1519420826670,1.042236,0.475586,-0.066162
1519420826685,1.054688,0.501465,0.071533
1519420826715,1.004883,0.387939,0.143066
1519420826748,0.922607,0.222168,0.075928
1519420826782,0.851563,0.140869,0.122559
1519420826819,0.794922,0.144287,-0.006348
1519420826850,0.784180,0.231934,-0.168457
1519420826882,0.921387,0.328369,-0.164063
1519420826916,1.006348,0.347168,-0.103271
1519420826947,1.002197,0.268555,-0.074951
1519420826979,1.099609,0.302979,0.082764
1519420827013,1.064697,0.366455,0.146729
1519420827044,1.051758,0.439697,0.157959
1519420827083,1.045166,0.363037,0.091553
1519420827115,0.876465,0.199219,-0.062256
1519420827158,0.590576,0.256348,-0.157715
1519420827192,0.801025,0.335693,0.019775
1519420827200,0.970215,0.209961,-0.045898
1519420827250,0.972168,0.238770,0.035156
1519420827283,0.985840,0.234375,0.015625
1519420827314,1.142578,0.374512,-0.014160
1519420827347,1.157715,0.387939,0.009277
1519420827378,0.922119,0.430908,0.225586
1519420827410,0.880859,0.474609,0.148682
1519420827443,0.923096,0.411377,0.046631
1519420827476,0.968750,0.280029,0.079590
1519420827520,0.925781,0.232422,0.051514
1519420827528,0.845703,0.333740,-0.018066
1519420827583,0.836182,0.439941,0.092285
1519420827616,1.008057,0.372314,0.167480
1519420827624,0.975586,0.228760,0.194580
1519420827672,1.096680,0.207031,0.148438
1519420827678,1.038086,0.146240,-0.001465
1519420827708,0.684082,0.231934,-0.079102
1519420827765,0.539551,0.547363,-0.152100
1519420827773,1.067383,0.675537,0.055176
1519420827831,1.468994,0.247803,-0.027100
1519420827863,0.986572,0.269775,0.088623
1519420827896,0.860352,0.408447,0.147217
1519420827911,0.999268,0.251221,0.203125
1519420827943,0.737549,0.199463,-0.236328
1519420827974,0.694824,0.323730,-0.023438
1519420828008,0.855225,0.498779,0.186523
1519420828080,0.817871,0.406982,-0.082520
1519420828089,0.899658,0.288818,-0.033936
1519420828147,1.047363,0.219971,0.007813
1519420828150,0.879883,0.406250,-0.010498
1519420828204,1.122803,0.434082,-0.163574
1519420828208,1.570557,0.441650,0.052979
1519420828263,1.090332,0.160889,0.193848
1519420828266,0.693848,0.273682,0.084961
1519420828298,0.572754,0.363281,0.069824
1519420828340,0.886963,0.448975,0.165283
1519420828371,0.755615,0.444580,0.094238
1519420828404,0.652588,0.344971,-0.082764
1519420828438,0.916504,0.306152,0.002930
1519420828471,1.064941,0.273682,-0.107666
1519420828502,1.127930,0.521973,-0.050781
1519420828534,1.333008,0.721680,0.230225
1519420828567,1.227783,0.512207,0.147461
1519420828601,1.014404,0.265381,0.086426
1519420828633,0.713379,0.101074,-0.024414
1519420828666,0.638184,0.091064,-0.138672
1519420828674,0.798828,0.129395,-0.227539
1519420828739,0.864014,0.324463,-0.169189
1519420828776,0.842041,0.431641,0.018555
1519420828781,0.967041,0.466797,0.039307
1519420828809,1.116211,0.302002,0.025146
1519420828842,1.065430,0.204590,-0.004395
1519420828874,0.952148,0.234863,-0.006836
1519420828907,1.030273,0.369873,0.094727
1519420828940,0.933350,0.367188,0.057617
1519420828972,0.786133,0.292236,-0.066406
1519420829005,0.806396,0.242432,-0.155029
1519420829038,0.980469,0.168945,-0.228760
1519420829097,1.005859,0.165283,-0.175049
1519420829109,0.912109,0.344727,0.016602
1519420829143,0.933838,0.401611,0.005615
1519420829175,1.054688,0.293457,0.008057
1519420829207,0.979004,0.183350,-0.022461
1519420829239,0.889648,0.276611,0.023682
1519420829271,0.906738,0.358398,0.072998
1519420829304,1.028076,0.355225,-0.056641
1519420829337,0.989014,0.413818,-0.016602
1519420829368,0.936279,0.294434,-0.059082
1519420829401,0.861572,0.300781,-0.118408
1519420829436,0.959229,0.315674,-0.078369
1519420829468,1.061523,0.305664,-0.020508
1519420829500,0.983643,0.394043,0.112305
1519420829516,0.866943,0.413574,0.194580
1519420829570,1.048828,0.315674,0.142090
1519420829602,1.010986,0.245361,-0.093506
1519420829617,0.747559,0.335938,-0.073242
1519420829641,0.875488,0.350342,-0.083984
1519420829718,1.203857,0.279785,-0.027100
1519420829721,1.027588,0.143555,0.004395
1519420829755,0.851074,0.201660,0.075684
1519420829787,0.882080,0.369141,-0.018555
1519420829821,0.942383,0.398926,-0.089844
1519420829854,0.928467,0.427002,0.032227
1519420829885,0.940674,0.333252,0.106689
1519420829898,1.031006,0.242432,0.132080
1519420829931,0.933594,0.266113,0.014160
1519420829989,1.006348,0.313477,-0.067871
1519420830020,1.111816,0.303711,0.002686
1519420830053,1.082031,0.178711,0.058594
1519420830086,0.825439,0.199707,-0.069580
1519420830118,0.708740,0.179199,-0.070557
1519420830151,0.717041,0.309570,-0.013428
1519420830185,0.878174,0.459961,0.159668
1519420830217,1.139893,0.357910,0.172607
1519420830226,0.968994,0.272949,-0.168457
1519420830276,0.857422,0.450195,-0.019043
1519420830308,1.099609,0.565674,0.271240
1519420830322,1.262939,0.573242,0.083740
1519420830378,1.090332,0.376709,0.017578
1519420830381,0.880371,0.342773,0.018066
1519420830436,0.768799,0.330566,0.030518
1519420830470,0.842041,0.179199,0.006348
1519420830503,0.842529,0.203857,-0.000244
1519420830537,0.783936,0.283936,-0.043213
1519420830568,0.875732,0.276123,-0.107666
1519420830601,0.957520,0.293213,-0.150635
1519420830634,1.075928,0.292236,-0.149902
1519420830664,1.183838,0.286621,-0.138428
1519420830700,1.041748,0.264160,-0.033691
1519420830732,0.988525,0.254150,0.049805
1519420830745,0.892090,0.177979,-0.009277
1519420830778,0.767822,0.246094,0.018555
1519420830812,0.906494,0.424072,0.074707
1519420830869,0.992432,0.448975,0.007813
1519420830874,0.887451,0.414551,-0.111816
1519420830902,0.854492,0.407471,-0.012939
1519420830961,0.969482,0.358643,-0.023926
1519420830969,0.932373,0.361572,0.025146
1519420830999,0.958008,0.334961,0.089111
1519420831031,1.069824,0.341309,0.207520
1519420831088,0.904053,0.177979,0.115967
1519420831098,0.885498,0.051270,-0.102051
1519420831149,0.977783,0.257568,-0.221680
1519420831218,0.993652,0.364502,-0.168945
1519420831221,0.888672,0.348633,-0.120850
1519420831285,0.947754,0.341309,0.009033
1519420831294,0.916016,0.336670,-0.007813
1519420831324,0.876221,0.301025,0.039063
1519420831328,1.272949,0.350098,0.164063
1519420831358,1.230225,0.357666,0.082764
1519420831393,0.907715,0.247559,0.019531
1519420831425,0.747803,0.390381,0.034424
1519420831458,0.900146,0.362549,0.039551
1519420831490,0.854980,0.466064,0.051758
1519420831523,0.705566,0.487793,0.105225
1519420831555,1.023193,0.333984,0.086914
1519420831596,1.145752,0.178955,-0.061035
1519420831631,0.709961,0.326172,-0.005859
1519420831667,0.813721,0.520508,0.052002
1519420831700,1.485596,0.363525,0.435303
1519420831708,1.081787,0.183838,0.053223
1519420831761,0.682861,0.208984,-0.274658
1519420831795,0.738281,0.243896,-0.173340
1519420831827,0.860840,0.344238,-0.172852
1519420831830,0.895508,0.483887,0.072510
1519420831860,0.929932,0.391602,0.223389
1519420831920,0.885742,0.305664,0.064453
1519420831929,0.791992,0.353027,-0.055176
1519420831982,1.150391,0.197510,0.212158
1519420831995,1.143799,0.231201,-0.002197
1519420832028,0.676514,0.513916,-0.231445
1519420832060,0.700928,0.502197,0.064697
1519420832093,1.149170,0.201416,0.352295
1519420832124,0.981201,0.323975,0.048828
1519420832155,0.802734,0.238037,-0.116211
1519420832214,0.913818,0.383789,-0.111816
1519420832245,0.878906,0.545410,-0.194580
1519420832248,1.009521,0.416748,0.087402
1519420832304,1.345703,0.112061,0.227783
1519420832338,0.938477,0.327881,-0.221924
1519420832347,0.609375,0.348633,-0.032715
1519420832395,0.979248,0.350342,0.181885
1519420832409,0.981689,0.268555,-0.135498
1519420832443,0.851563,0.426514,-0.110840
1519420832477,0.942139,0.463867,0.164307
1519420832508,1.175781,0.314697,0.063721
1519420832539,1.100830,0.192383,-0.010742
1519420832572,0.824219,0.301514,-0.019775
1519420832608,0.797852,0.421387,0.035889
1519420832640,0.928711,0.343994,-0.075684
1519420832674,1.048828,0.359131,-0.156738
1519420832707,1.049561,0.325195,-0.066162
1519420832739,1.035400,0.295654,-0.042969
1519420832771,0.893555,0.255615,-0.007813
1519420832810,0.985840,0.289307,0.027832
1519420832842,1.052490,0.352783,0.047607
1519420832874,0.939697,0.377686,-0.150635
1519420832907,1.058105,0.382080,-0.096680
1519420832941,0.973389,0.347900,-0.016602
1519420832972,0.657227,0.242188,-0.000244
1519420833005,0.677002,0.283447,0.072021
1519420833038,0.781738,0.267822,0.022461
1519420833072,0.862549,0.234131,-0.129639
1519420833105,0.977783,0.360107,0.040527
1519420833138,1.076172,0.201172,-0.112793
1519420833168,1.041504,0.188232,-0.154541
1519420833202,1.111816,0.285156,-0.070313
1519420833243,1.153320,0.299805,-0.245850
1519420833274,1.104248,0.395752,-0.053223
1519420833308,1.042236,0.229004,0.037109
1519420833339,0.803711,0.147705,-0.150635
1519420833371,0.845947,0.173828,-0.076904
1519420833404,1.124268,0.196533,-0.087158
1519420833408,0.928467,0.234619,-0.145752
1519420833465,0.879883,0.087646,-0.016846
1519420833475,0.942383,0.050537,-0.091797
1519420833502,1.213623,0.496826,-0.408447
1519420833558,1.278564,0.369629,0.170654
1519420833568,1.039063,-0.142822,0.220459
1519420833626,0.639404,-0.265137,-0.035156
1519420833638,0.813477,0.324707,-0.299805
1519420833671,1.020996,0.673584,0.095459
1519420833703,0.781738,0.529297,0.210938
1519420833735,0.614990,0.421143,-0.010010
1519420833768,0.970947,0.261230,-0.084717
1519420833801,1.149902,0.134521,-0.179199
1519420833860,1.112305,0.412354,0.102051
1519420833891,1.355713,0.368164,0.153076
1519420833897,1.116211,0.189209,-0.284180
1519420833957,0.679199,0.252441,-0.109375
1519420833988,0.773438,0.217529,0.095703
1519420833997,0.846680,0.097412,-0.212646
1519420834020,0.913818,0.401367,-0.046143
1519420834053,1.282227,0.505859,0.247803
1519420834086,1.004639,0.134766,0.046631
1519420834118,0.707520,0.090088,-0.236572
1519420834151,1.316406,0.208008,-0.089844
1519420834184,1.305176,0.461426,-0.032471
1519420834218,0.666748,0.620605,-0.005615
1519420834274,1.068848,0.276855,0.552490
1519420834344,1.066406,-0.118652,-0.013184
1519420834352,0.477539,0.468506,-0.603760
1519420834410,0.613525,0.687744,-0.093018
1519420834414,1.255859,0.625244,0.269287
1519420834445,0.834717,0.198975,-0.053955
1519420834458,0.690918,0.502441,-0.141846
1519420834491,1.517578,0.448486,0.127686
1519420834524,1.387939,0.349365,-0.146973
1519420834534,0.840576,0.419678,-0.083252
1519420834587,0.658203,0.291504,0.163818
1519420834621,0.930420,0.093018,-0.050781
1519420834654,0.902100,0.344238,-0.195068
1519420834687,0.758057,0.570313,-0.036133
1519420834719,1.046875,0.505859,0.089600
1519420834751,1.196777,0.409668,0.113281
1519420834782,1.055664,0.192627,0.108154
1519420834837,0.938721,0.138672,-0.013184
1519420834845,0.894287,0.328613,-0.079834
1519420834870,1.033447,0.398926,-0.138672
1519420834912,1.172607,0.207764,-0.180420
1519420834946,1.027588,0.164063,-0.173828
1519420834954,0.831787,0.097656,0.035645
1519420835005,0.842041,0.092285,0.115967
1519420835038,0.823242,0.200928,0.076416
1519420835070,0.820313,0.208496,0.103516
1519420835102,0.759766,0.386230,-0.090332
1519420835134,0.989990,0.546875,-0.120850
1519420835167,1.218018,0.447510,-0.125000
1519420835199,1.112305,0.264893,0.229980
1519420835231,1.125977,0.017090,0.283691
1519420835264,0.944336,-0.019043,0.039551
1519420835278,0.859131,0.221680,0.130127
1519420835310,0.866699,0.162842,0.076172
1519420835367,0.716064,0.155029,-0.226807
1519420835399,1.057373,0.424805,0.020996
1519420835433,1.277832,0.415039,0.100830
1519420835442,1.113281,0.270020,0.074219
1519420835492,0.981689,0.122803,0.499756
1519420835527,0.916748,0.139160,0.322754
1519420835530,0.847412,0.140869,-0.028809
1519420835585,0.851074,0.295166,-0.017822
1519420835593,0.832764,0.259521,0.050781
1519420835650,0.829590,0.115234,-0.076904
1519420835684,1.005859,0.166016,0.248291
1519420835697,1.078125,0.240479,0.165771
1519420835729,1.050781,0.383301,0.193848
1519420835761,0.939453,0.344482,0.226074
1519420835793,0.845947,0.250000,0.049316
1519420835851,0.834473,0.260498,0.007324
1519420835883,0.910889,0.251953,0.179688
1519420835889,1.152344,0.103027,0.350586
1519420835947,0.815186,0.194336,0.050293
1519420835980,0.813721,0.291016,-0.105957
1519420836012,1.271240,0.146484,0.129395
1519420836021,1.237793,0.092529,0.197754
1519420836073,0.738770,0.311768,0.025635
1519420836119,0.781006,0.272949,0.039551
1519420836127,1.084473,0.195557,-0.005371
1519420836175,1.008057,0.145996,-0.086426
1519420836178,0.810547,0.256592,-0.063965
1519420836209,0.780762,0.352783,0.090820
1519420836242,1.078125,0.101318,0.064941
1519420836274,1.075195,0.169434,0.053467
1519420836307,0.913086,0.363281,-0.167969
1519420836339,0.982422,0.421143,-0.090820
1519420836397,1.089111,0.256104,0.173340
1519420836431,1.066406,0.200195,0.109863
1519420836464,0.985352,0.275391,-0.035645
1519420836473,1.011230,0.343262,0.030273
1519420836507,0.981201,0.260010,-0.050049
1519420836539,1.019043,0.141602,-0.078369
1519420836597,0.996338,0.184326,-0.033691
1519420836605,0.938965,0.238037,0.020264
1519420836629,1.089600,0.192627,0.002197
1519420836662,1.218750,0.284180,0.135254
1519420836694,1.005859,0.275635,0.142334
1519420836726,1.045898,0.212402,0.066162
1519420836760,0.973877,0.172363,-0.112549
1519420836792,0.859863,0.129883,-0.128174
1519420836826,0.794678,0.092529,-0.041260
1519420836858,0.880371,0.125000,-0.056152
1519420836890,0.898926,0.274902,-0.067139
1519420836932,1.076660,0.274414,0.018311
1519420836964,1.081299,0.139160,0.096680
1519420836997,1.027344,0.019775,0.046387
1519420837029,0.921875,0.243652,0.045410
1519420837061,0.976318,0.395020,0.138672
1519420837070,0.986328,0.376221,0.070801
1519420837125,0.851074,0.262207,-0.084961
1519420837157,0.870361,0.331055,-0.075195
1519420837189,0.958984,0.327148,0.005615
1519420837222,1.050049,0.389160,0.104980
1519420837257,0.976318,0.236816,0.240479
1519420837289,0.938965,0.169434,0.150391
1519420837302,0.930176,0.405762,0.173828
1519420837360,0.946777,0.504883,0.194580
1519420837431,0.939209,0.343506,0.166504
1519420837436,0.947998,0.228516,0.016113
1519420837498,0.910645,0.271484,-0.041504
1519420837501,0.998291,0.278320,-0.045654
1519420837567,0.951660,0.301758,-0.049072
1519420837576,0.917725,0.191650,0.085938
1519420837584,0.904785,0.050049,-0.000244
1519420837605,1.014893,0.141357,-0.044678
1519420837638,0.969238,0.306152,0.142822
1519420837672,0.878174,0.439209,0.156494
1519420837709,0.921631,0.322998,0.064941
1519420837741,1.055664,0.280273,-0.061035
1519420837773,0.912842,0.317383,-0.040771
1519420837805,0.888916,0.334229,0.152344
1519420837839,1.095947,0.107910,0.239014
1519420837871,1.146729,0.019043,0.068848
1519420837904,0.738525,0.205566,-0.294189
1519420837937,0.614746,0.311768,-0.225342
1519420837970,0.888428,0.291992,-0.142334
1519420838003,1.247314,0.254883,0.045898
1519420838036,1.026855,0.215820,0.018311
1519420838044,0.708984,0.200684,-0.133057
1519420838092,1.142822,0.365723,0.024414
1519420838134,1.042969,0.307861,0.084473
1519420838142,0.925537,0.230225,-0.040039
1519420838192,1.028320,0.230713,-0.041504
1519420838226,0.997559,0.286133,-0.063965
1519420838257,0.901855,0.467041,-0.037842
1519420838290,1.043945,0.332275,0.094482
1519420838302,1.098389,0.208008,-0.048096
1519420838354,0.983398,0.247803,-0.102539
1519420838387,0.862305,0.378906,-0.042480
1519420838422,0.916992,0.463135,-0.007080
1519420838456,0.989502,0.402832,-0.029785
1519420838464,0.998535,0.256348,0.073730
1519420838519,0.947021,0.184082,-0.034424
1519420838533,0.812256,0.216064,-0.211670
1519420838564,0.991455,0.296875,-0.000732
1519420838622,1.040039,0.332031,-0.029541
1519420838625,0.908447,0.316162,-0.034668
1519420838678,1.093750,0.350830,-0.023438
1519420838712,1.237793,0.304688,0.058350
1519420838720,1.009766,0.106689,-0.098389
1519420838768,0.815186,0.249023,-0.043457
1519420838801,0.818848,0.324951,0.045166
1519420838834,0.920898,0.314209,0.040039
1519420838865,0.992188,0.270752,-0.197754
1519420838897,0.995605,0.318604,-0.109375
1519420838930,1.029297,0.248535,0.027100
1519420838945,0.892090,0.075928,-0.073975
1519420839004,0.862305,0.129395,-0.202881
1519420839038,1.022949,0.298096,-0.042480
1519420839070,1.028076,0.210205,-0.015625
1519420839103,0.963379,0.217773,-0.034668
1519420839135,0.968262,0.257080,0.114746
1519420839167,0.970703,0.205566,0.104004
1519420839201,0.983398,0.293457,-0.004395
1519420839209,1.061035,0.335205,0.067383
1519420839232,0.970947,0.268799,0.106445
1519420839290,0.921387,0.205566,0.010010
1519420839295,0.920410,0.170166,-0.084229
1519420839351,0.962158,0.251221,-0.092041
1519420839364,0.866455,0.391602,0.061768
1519420839397,0.777832,0.275146,0.171143
1519420839429,0.999512,0.302734,0.083008
1519420839462,1.054443,0.310303,0.074951
1519420839497,0.975830,0.256836,0.124756
1519420839527,0.939941,0.194580,0.111816
1519420839587,0.991943,0.260986,0.116943
1519420839617,0.917480,0.315918,0.183838
1519420839649,0.854248,0.215332,0.102295
1519420839653,0.825439,0.253174,0.051270
1519420839692,0.880127,0.292969,0.014893
1519420839750,0.962402,0.404785,0.116211
1519420839759,0.974854,0.354492,0.129639
1519420839796,1.025879,0.289063,0.138184
1519420839830,1.096680,0.227783,-0.039551
1519420839863,0.844482,0.334961,-0.070557
1519420839894,0.600830,0.358398,0.043701
1519420839927,0.919678,0.158936,0.266357
1519420839959,0.865723,0.046143,0.050293
1519420839992,0.739746,0.134033,-0.284424
1519420840023,0.716309,0.488770,-0.326904
1519420840055,0.998779,0.740479,-0.117676
1519420840088,1.432861,0.455078,0.279053
1519420840121,1.119385,0.361084,0.033447
1519420840154,0.766357,0.564697,-0.112061
1519420840168,0.905518,0.601563,0.374023
1519420840227,1.161621,0.528564,0.127686
1519420840235,0.979248,0.374268,-0.142334
1519420840260,0.848877,0.370117,-0.138184
1519420840317,0.935059,0.240967,0.096924
1519420840326,0.876709,0.286133,-0.013184
1519420840380,0.690186,0.451660,-0.145508
1519420840413,0.841064,0.455811,0.047607
1519420840446,1.141846,0.348145,0.063232
1519420840479,1.096436,0.270020,-0.012207
1519420840511,0.989014,0.271973,-0.015137
1519420840585,0.911621,0.446289,-0.072754
1519420840593,0.895508,0.425049,0.040283
1519420840652,0.895752,0.273926,0.016113
1519420840661,0.863281,0.187500,-0.056641
1519420840687,0.895508,0.196777,-0.082275
1519420840695,0.937012,0.388184,-0.135742
1519420840744,0.901611,0.376465,-0.030273
1519420840749,1.067139,0.343750,0.147461
1519420840802,1.023438,0.274414,0.016602
1519420840807,0.906738,0.234619,-0.008545
1519420840865,0.950684,0.142578,0.006348
1519420840897,0.993652,0.278564,-0.030273
1519420840905,0.932861,0.371094,0.025635
1519420840962,1.036621,0.480469,0.107666
1519420840995,0.972900,0.282715,0.057617
1519420841008,0.779297,0.167480,0.113525
1519420841066,0.794678,0.277100,0.221680
1519420841080,0.853516,0.308594,0.018311
1519420841128,1.011963,0.413086,-0.101807
1519420841161,0.953125,0.442139,0.011475
1519420841193,0.930664,0.441650,0.206299
1519420841237,1.020508,0.399902,0.189209
1519420841240,0.947266,0.395020,0.172852
1519420841271,0.923340,0.306641,0.150146
1519420841309,1.124756,0.138672,0.040039
1519420841341,0.522461,0.203369,-0.391846
1519420841373,0.851318,0.554443,0.167480
1519420841406,1.946289,0.239258,0.596924
1519420841446,1.464111,0.087646,0.131592
1519420841479,0.543945,0.402344,-0.061035
1519420841488,0.451660,0.461426,-0.005371
1519420841542,0.862549,0.619629,-0.178467
1519420841574,0.896240,0.109375,-0.199463
1519420841608,0.864990,0.056152,-0.060059
1519420841641,0.801270,0.211426,0.070068
1519420841674,0.934814,0.328125,0.177002
1519420841707,0.877686,0.305664,0.005127
1519420841739,0.875000,0.374756,-0.199219
1519420841772,1.202881,0.660400,-0.048584
1519420841802,1.231201,0.485840,0.304688
1519420841808,0.951660,0.038086,0.214111
1519420841860,0.816162,0.346191,-0.329102
1519420841894,0.890625,0.443604,-0.149170
1519420841901,0.846436,0.370850,0.076416
1519420841956,0.713867,0.247314,0.014648
1519420841990,0.827148,0.289063,-0.153076
1519420842023,0.911865,0.315674,-0.251953
1519420842056,1.163086,0.211670,-0.149658
1519420842089,1.241455,0.410645,-0.254639
1519420842122,0.762207,0.519531,-0.180664
1519420842154,1.526611,0.120605,0.643799
1519420842185,1.071777,0.426270,-0.261475
1519420842193,0.286377,0.936279,-0.458984
1519420842244,1.149902,0.357178,0.418457
1519420842281,1.477783,-0.041504,0.103760
1519420842291,1.048584,0.258057,-0.119873
1519420842339,0.784912,0.077637,-0.109375
1519420842371,0.603760,0.322021,-0.153076
1519420842405,0.714844,0.513672,0.074219
1519420842435,1.118164,0.060791,-0.258057
1519420842469,1.136719,0.060059,-0.354492
1519420842518,0.820557,0.174561,-0.010986
1519420842527,0.945068,0.328369,0.235352
1519420842553,0.985107,0.223877,0.002197
1519420842583,0.894287,0.314209,-0.038330
1519420842643,0.847656,0.437500,-0.008057
1519420842656,0.986572,0.408691,-0.185547
1519420842687,1.057861,0.381104,-0.222412
1519420842720,1.123291,0.419434,0.080566
1519420842753,0.963867,0.417236,0.149170
1519420842787,0.862305,0.355713,0.275391
1519420842818,0.900635,0.221436,0.203613
1519420842850,1.064209,0.166260,0.019287
1519420842883,0.866455,0.308350,-0.124512
1519420842915,0.847412,0.281738,-0.001953
1519420842947,1.027832,0.341064,-0.016602
1519420842980,0.975098,0.431396,-0.055420
1519420843012,0.948730,0.445313,0.208252
1519420843044,1.013672,0.281006,0.152588
1519420843061,1.014404,0.104248,-0.124023
1519420843119,0.878662,0.223145,-0.236572
1519420843152,1.006348,0.484863,-0.087646
1519420843184,1.055420,0.632080,0.242432
1519420843217,0.619873,0.365967,0.287354
1519420843254,0.433350,0.273926,0.497314
1519420843286,0.766113,0.303467,0.362793
1519420843318,1.318115,0.508057,0.077393
1519420843349,1.179199,0.604248,0.009521
1519420843353,1.025879,0.476074,-0.026367
1519420843409,1.127441,0.189453,0.247803
1519420843414,0.910156,0.154541,0.081055
1519420843447,0.639893,0.309082,-0.161133
1519420843506,0.809082,0.236084,0.092285
1519420843515,0.940918,0.284668,0.275391
1519420843568,0.802734,0.250000,0.014648
1519420843602,0.843750,0.422852,-0.149170
1519420843636,1.203613,0.478271,0.146729
1519420843704,1.290771,0.376465,0.301514
1519420843711,0.819336,0.287842,-0.128906
1519420843771,0.780273,0.273926,0.043457
1519420843774,0.924561,0.359863,0.238037
1519420843828,0.853516,0.243652,-0.109619
1519420843841,0.721924,0.245117,-0.356445
1519420843845,0.885986,0.306396,0.000977
1519420843875,1.229736,0.296875,0.161865
1519420843934,1.219727,0.338867,0.040771
1519420843940,0.987793,0.296631,0.011719
1519420843993,0.761719,0.232910,0.020264
1519420844002,0.831299,0.374023,0.098877
1519420844053,0.829834,0.484375,0.107666
1519420844083,1.161621,0.253418,0.220703
1519420844116,1.118896,0.228516,0.027100
1519420844148,0.842773,0.287842,-0.119873
1519420844181,0.923096,0.485352,0.148193
1519420844215,1.140869,0.443848,0.144287
1519420844248,1.084961,0.311035,-0.094971
1519420844262,0.773193,0.187500,0.126465
1519420844294,0.679688,0.229736,0.263916
1519420844327,0.707275,0.357178,0.170410
1519420844361,1.041260,0.358643,0.065430
1519420844418,1.089600,0.440186,0.048828
1519420844424,0.936279,0.454834,-0.091797
1519420844475,1.008789,0.616211,0.136230
1519420844478,0.943848,0.509277,0.337646
1519420844510,0.973389,0.323730,0.262451
1519420844541,0.952148,0.186768,0.145996
1519420844599,0.792236,0.184326,0.107666
1519420844631,0.772705,0.237793,0.046387
1519420844639,0.886963,0.392822,-0.004150
1519420844695,0.979736,0.404541,0.004150
1519420844728,1.019775,0.415039,0.016357
1519420844761,0.673340,0.353516,-0.161865
1519420844794,0.811523,0.444092,0.042480
1519420844798,1.032715,0.326172,0.192871
1519420844852,1.214111,0.200928,0.263916
1519420844884,1.088379,0.176270,0.169434
1519420844888,0.881592,0.327881,0.156250
1519420844945,0.924316,0.432373,0.096436
1519420844979,0.941406,0.321289,0.067871
1519420845013,0.859863,0.339844,-0.032471
1519420845046,0.889160,0.547363,0.010254
1519420845080,0.994873,0.488525,0.129395
1519420845093,1.124023,0.315918,0.193848
1519420845126,0.967773,0.167480,0.069824
1519420845164,0.817627,0.175293,0.082031
1519420845197,0.843750,0.180664,0.077148
1519420845227,1.096924,0.286133,0.051025
1519420845260,1.020996,0.366455,0.027100
1519420845292,0.748047,0.327637,0.049805
1519420845325,0.833496,0.382080,0.017090
1519420845358,1.077881,0.325439,0.260742
1519420845390,0.975342,0.304199,0.249756
1519420845448,0.811279,0.350830,-0.017822
1519420845453,0.881104,0.352539,0.010742
1519420845486,1.049805,0.330566,0.216064
1519420845528,0.885986,0.381836,0.085938
1519420845558,0.855713,0.318115,-0.012695
1519420845591,0.952881,0.355957,0.073975
1519420845623,0.868164,0.334717,0.129883
1519420845655,0.898193,0.333008,0.051758
1519420845688,0.927979,0.330566,0.133789
1519420845722,1.044678,0.382568,0.144287
1519420845756,0.932617,0.413330,-0.034912
1519420845787,0.775391,0.459473,0.081543
1519420845819,0.895996,0.399170,0.318115
1519420845851,0.974609,0.455811,0.104004
1519420845885,0.977783,0.411865,0.056641
1519420845925,0.955566,0.345703,0.150391
1519420845957,0.856445,0.324951,0.076660
1519420845963,0.786377,0.379883,-0.028076
1519420846016,0.923340,0.520020,0.067627
1519420846021,0.961426,0.509033,0.156494
1519420846054,0.898438,0.364502,0.005127
1519420846112,0.963623,0.320068,0.142822
1519420846120,0.984131,0.258057,0.234619
1519420846176,0.878174,0.215088,0.093994
1519420846210,0.938721,0.430176,-0.059570
1519420846242,1.095703,0.504150,-0.010742
1519420846251,1.298340,0.417480,0.014404
1519420846306,1.056885,0.601563,0.033447
1519420846319,0.827637,0.410156,0.349609
1519420846357,0.911621,0.136230,0.389648
1519420846390,0.876221,0.039307,-0.104736
1519420846422,0.577393,0.087402,-0.108643
1519420846454,0.701416,0.233887,0.019043
1519420846490,1.095215,0.450439,0.014404
1519420846522,1.052979,0.508301,-0.008789
1519420846554,1.068604,0.383789,0.266357
1519420846587,0.984863,0.171875,0.212158
1519420846618,0.902588,0.064453,0.077881
1519420846652,0.905518,0.256592,0.019287
1519420846682,1.016846,0.465820,0.153564
1519420846714,0.874756,0.320068,0.087646
1519420846796,0.733398,0.328369,0.133789
1519420846801,0.908691,0.301025,0.208740
1519420846865,0.943848,0.281494,0.093750
1519420846872,0.931152,0.236084,0.068604
1519420846927,1.118896,0.317627,0.149658
1519420846933,1.067383,0.334717,0.222656
1519420846938,0.963135,0.298096,0.252686
1519420846990,0.901611,0.375488,0.239258
1519420847023,0.856689,0.348389,0.128174
1519420847032,0.844238,0.388428,0.160156
1519420847081,0.939941,0.375000,0.175049
1519420847084,0.816162,0.337646,0.095703
1519420847122,0.829590,0.305420,0.077393
1519420847156,1.113525,0.348877,0.168701
1519420847190,1.283447,0.318115,0.471680
1519420847223,1.083008,0.230225,0.208008
1519420847255,0.811523,0.257568,0.107178
1519420847288,0.770020,0.342041,0.183594
1519420847320,0.713135,0.426270,0.156250
1519420847353,0.702881,0.349854,0.030029
1519420847386,0.906494,0.273682,0.109375
1519420847416,0.881348,0.310303,-0.013672
1519420847448,0.356201,0.548584,-0.118408
1519420847481,1.434326,0.489502,0.542969
1519420847513,1.623779,0.113037,0.468018
1519420847554,0.408203,0.289063,-0.536865
1519420847588,0.410400,0.547363,-0.276367
1519420847638,1.280518,0.593506,0.413574
1519420847647,1.077148,0.307373,0.133545
1519420847677,0.689453,0.254150,-0.275146
1519420847710,0.792969,0.317139,0.037842
1519420847743,1.074951,0.547852,0.171143
1519420847776,0.581055,0.739746,-0.224365
1519420847807,0.796631,0.676758,0.333008
1519420847838,1.518799,-0.138428,0.274170
1519420847871,1.019287,0.205811,-0.704102
1519420847903,0.572998,0.635742,-0.463867
1519420847935,0.978760,0.293457,0.529541
1519420847969,0.939697,0.130127,0.158691
1519420848003,0.672119,0.489014,-0.239746
1519420848037,1.188477,0.279053,0.249512
1519420848076,1.082031,0.250732,0.098633
1519420848084,0.803955,0.402832,-0.328857
1519420848134,1.098877,0.458252,0.161133
1519420848166,1.249268,0.288330,0.228271
1519420848198,1.038330,0.325439,0.148926
1519420848230,0.812012,0.496582,0.049805
1519420848263,1.102783,0.383301,0.179199
1519420848295,1.072998,0.289307,0.007568
1519420848327,0.748047,0.402588,0.015137
1519420848345,0.703613,0.399658,0.065186
1519420848401,0.949219,0.330811,-0.118164
1519420848434,0.825684,0.419678,0.042236
1519420848443,0.769775,0.416748,0.017334
1519420848495,0.768799,0.315918,-0.166504
1519420848529,1.166992,0.550049,0.133789
1519420848560,1.110352,0.331543,-0.107666
1519420848564,1.043701,0.055908,-0.138428
1519420848619,1.153809,0.192139,0.140381
1519420848651,1.268799,0.448975,0.093506
1519420848659,1.276855,0.507080,-0.024658
1519420848714,1.222168,0.503906,0.199463
1519420848748,1.253174,0.399902,0.051270
1519420848762,1.225586,0.523682,0.062500
1519420848795,0.601074,0.208740,0.372314
1519420848827,0.561768,0.224121,-0.070557
1519420848860,0.082275,0.549561,-0.279053
1519420848893,0.623779,0.808350,-0.509033
1519420848947,0.749023,1.041260,-0.512939
1519420848980,0.599854,0.619629,-0.107422
1519420849014,0.354004,0.033203,-0.048340
1519420849022,0.746826,0.784180,-0.332520
1519420849079,0.777100,0.664795,-0.434082
1519420849112,0.659912,0.267090,-0.210205
1519420849145,0.891113,1.032471,-0.059570
1519420849153,0.907715,1.106689,0.181885
1519420849204,0.600098,0.283936,0.138428
1519420849214,0.611572,0.491455,-0.004150
1519420849241,0.856445,0.828613,0.329102
1519420849274,0.549561,0.589600,0.110107
1519420849308,0.295166,0.786377,-0.267334
1519420849365,0.627197,0.913086,0.154053
1519420849396,0.966553,0.578613,0.272217
1519420849428,1.011230,0.259521,0.245361
1519420849436,1.050537,0.523682,0.292480
1519420849493,0.276855,0.825195,0.292480
1519420849527,0.494873,0.625732,0.210205
1519420849560,0.872559,0.499512,0.107178
1519420849575,0.591064,0.424805,0.374023
1519420849601,0.583740,0.233398,0.551758
1519420849658,0.781494,0.740723,0.577637
1519420849692,0.474854,0.759766,0.914795
1519420849700,0.423340,0.731689,0.983398
1519420849723,0.510498,0.566650,0.622803
1519420849758,0.412842,0.324707,0.661865
1519420849790,0.597656,0.253906,0.769531
1519420849822,0.355225,0.578125,0.371338
1519420849854,0.231201,0.699463,0.524170
1519420849927,0.641602,0.596191,0.870605
1519420849930,0.495605,0.783691,0.674072
1519420850008,0.307373,0.274170,0.578369
1519420850013,0.537109,0.620850,0.712646
1519420850058,0.382324,0.695068,0.941650
1519420850064,0.408691,-0.036865,0.840332
1519420850092,0.002441,0.517822,0.839111
1519420850123,0.525391,0.549316,1.222900
1519420850157,0.598389,0.233887,0.889893
1519420850198,0.231689,0.100098,0.702148
1519420850204,0.362793,0.270996,0.949951
1519420850263,0.709473,0.191650,0.624756
1519420850267,0.492920,0.125977,0.633057
1519420850324,0.500732,0.121094,0.718750
1519420850357,0.913574,0.489990,1.128662
1519420850391,0.676758,0.436768,0.814209
1519420850423,0.527100,0.157471,0.742920
1519420850436,0.557129,-0.356689,1.029541
1519420850468,0.064453,0.401123,1.039795
1519420850501,-0.134277,1.149170,0.761475
1519420850559,0.891357,0.496582,1.704346
1519420850592,0.393555,0.141602,1.101563
1519420850597,-0.190918,0.772217,0.378662
1519420850655,0.607910,-0.011230,0.893311
1519420850688,0.623779,-0.769531,1.024902
1519420850694,0.143799,-0.068604,0.196533
1519420850747,0.762939,0.447754,0.641113
1519420850752,0.859619,0.220459,0.612793
1519420850809,0.604736,-0.389404,0.461426
1519420850841,0.945801,0.479980,1.298096
1519420850849,0.922852,0.234131,0.896973
1519420850905,0.656006,-0.531494,0.579346
1519420850938,0.427979,0.005371,0.780029
1519420850972,0.788818,0.189941,1.685303
1519420851005,0.160645,0.259277,0.598389
1519420851038,0.303711,0.209473,1.117432
1519420851071,0.701172,-0.210449,0.775879
1519420851103,1.027832,0.411377,0.420410
1519420851136,0.920410,-0.220947,-0.668213
