1519649504934,0.256592,0.398926,-0.014404
1519649504966,0.283203,1.010986,0.016357
1519649504999,0.457031,1.139893,0.114014
1519649505031,0.851318,1.044434,0.267090
1519649505064,0.422607,1.486572,0.284912
1519649505096,0.314453,1.118896,-0.175537
1519649505136,0.410400,1.230957,-0.562256
1519649505169,0.332275,0.953613,-0.406982
1519649505185,0.519775,0.869629,-0.495850
1519649505243,1.202881,0.964355,-0.513672
1519649505256,1.032715,0.876953,-0.529785
1519649505289,0.684814,0.683838,-0.229980
1519649505322,0.511475,0.557129,-0.176758
1519649505355,0.374512,0.482422,-0.176758
1519649505389,0.261230,0.510986,0.024414
1519649505422,0.110596,0.609863,0.158691
1519649505454,0.204834,0.774658,0.441162
1519649505486,0.516113,1.021240,0.189209
1519649505518,0.419678,0.816406,-0.240723
1519649505553,0.893799,1.307129,-0.076904
1519649505586,1.021973,1.485352,0.008789
1519649505618,0.862793,1.145020,0.596680
1519649505649,0.636230,0.638428,0.232178
1519649505690,0.285645,1.216064,-0.203613
1519649505723,0.097656,1.011963,-0.347168
1519649505756,0.154785,0.690430,-0.256348
1519649505764,0.548828,0.518066,-0.324219
1519649505818,0.675293,0.144775,-0.203857
1519649505850,0.520020,0.124023,-0.231201
1519649505855,0.444092,0.403076,-0.243652
1519649505910,0.225586,0.781250,-0.424072
1519649505941,0.167725,1.179443,-0.566650
1519649505975,0.315430,1.212402,-0.157715
1519649506008,0.491943,0.697266,-0.445557
1519649506040,0.888672,0.516602,0.036377
1519649506072,0.434326,1.326660,-0.046387
1519649506086,0.070068,1.199951,-0.111816
1519649506118,0.062744,0.922852,-0.044189
1519649506175,0.088623,0.831299,0.006836
1519649506182,0.326172,1.011719,0.032227
1519649506240,0.947998,1.066895,-0.048340
1519649506272,0.734131,1.105225,-0.106689
1519649506305,0.536133,0.786133,-0.369873
1519649506324,0.769531,1.093262,-0.289551
1519649506357,0.799316,1.318359,-0.143066
1519649506389,0.522217,0.719238,-0.248291
1519649506422,0.566162,0.611572,-0.188721
1519649506456,0.741943,0.541016,-0.304932
1519649506494,0.661621,0.673828,-0.510254
1519649506526,0.827148,0.770264,-0.535400
1519649506599,0.918213,0.859619,-0.526123
1519649506607,0.508789,0.916016,-0.575684
1519649506666,0.304688,1.249512,-0.460938
1519649506674,0.532715,1.308350,-0.232422
1519649506720,0.661621,1.091553,0.134277
1519649506728,0.481445,0.718506,0.091797
1519649506754,0.214111,-0.223877,0.055664
1519649506764,0.295166,-0.769531,0.334473
1519649506821,0.446777,0.257080,0.477539
1519649506852,0.531006,0.451904,0.336182
1519649506885,0.756592,0.272705,0.281982
1519649506898,1.018799,0.471436,0.270996
1519649506931,1.339844,0.451416,0.162109
1519649506963,2.453857,1.190918,0.349365
1519649506996,1.884766,0.819580,-0.085205
1519649507031,1.134766,0.293213,0.058838
1519649507070,1.280762,0.664307,0.129150
1519649507103,1.097168,0.946777,-0.025635
1519649507135,1.080322,0.652100,0.048584
1519649507192,0.867188,0.376953,0.145264
1519649507199,0.945557,0.426514,0.168457
1519649507225,1.085449,0.521240,0.211182
1519649507256,0.953125,0.289307,0.068359
1519649507290,0.803467,0.258545,0.143066
1519649507332,0.745850,0.260986,0.221924
1519649507363,0.723389,0.190186,0.198486
1519649507395,0.776611,0.240723,0.153076
1519649507429,0.898682,0.255615,0.205566
1519649507461,0.951416,0.259521,0.155518
1519649507492,0.930420,0.289063,0.109375
1519649507497,0.972656,0.326416,0.218262
1519649507556,1.030029,0.276123,0.140869
1519649507587,1.083252,0.329346,0.212891
1519649507593,1.024170,0.370361,0.358887
1519649507651,1.078125,0.452393,0.562500
1519649507686,1.098877,0.229004,0.437500
1519649507718,1.266357,0.128174,0.397949
1519649507731,1.253662,0.026855,0.429199
1519649507763,1.058350,0.166748,0.361816
1519649507796,0.917480,0.275391,0.179688
1519649507828,0.741943,0.370605,0.188721
1519649507885,0.719971,0.374512,0.088623
1519649507917,0.785400,0.474854,0.108154
1519649507951,0.987305,0.516113,0.102783
1519649507957,0.965576,0.484619,0.055420
1519649507985,0.992432,0.563232,0.042969
1519649508044,1.012207,0.555664,0.045166
1519649508052,1.150635,0.752686,0.079590
1519649508103,1.225342,0.807861,0.120117
1519649508135,1.283447,0.743164,0.117676
1519649508151,1.240967,0.552490,0.061035
1519649508184,1.389404,0.411621,0.087646
1519649508216,1.565186,0.281738,0.058105
1519649508248,1.459229,0.301025,0.185547
1519649508280,1.337402,0.243164,0.215332
1519649508312,0.974121,0.055176,0.041992
1519649508345,0.849609,0.121826,0.121094
1519649508377,0.820313,0.206055,0.163086
1519649508410,0.772461,0.163086,0.090576
1519649508442,0.780762,0.112549,0.048096
1519649508470,0.892334,0.150879,0.052002
1519649508529,1.107666,0.151611,-0.047607
1519649508538,0.875977,0.156006,-0.010742
1519649508577,0.879883,0.280029,0.149170
1519649508609,1.123535,0.411133,0.197754
1519649508642,1.097168,0.256592,0.198486
1519649508674,1.346924,0.153320,0.309082
1519649508712,1.630127,0.379395,0.454346
1519649508744,1.468262,0.215820,0.379883
1519649508774,1.062744,0.116455,0.299316
1519649508807,1.072266,0.121338,0.214844
1519649508839,0.982666,0.244873,0.057373
1519649508872,0.968750,0.447021,0.050537
1519649508907,1.030273,0.560791,-0.040283
1519649508939,1.089600,0.596191,-0.024902
1519649508953,1.079834,0.587402,0.011963
1519649508990,1.114014,0.640381,-0.040283
1519649509023,1.036621,0.677002,-0.060059
1519649509056,1.100342,0.797607,-0.028076
1519649509115,1.037354,0.888672,0.026611
1519649509123,0.991455,0.832275,0.072754
1519649509147,0.971191,0.679199,0.045898
1519649509207,1.257080,0.572021,0.031982
1519649509215,1.566162,0.433594,0.091797
1519649509238,1.455322,0.169678,0.048828
1519649509297,1.182617,0.164063,0.229248
1519649509330,1.082520,0.029053,0.160156
1519649509343,0.942383,0.054443,0.112061
1519649509375,0.861572,0.209229,0.197021
1519649509409,0.918701,0.210205,0.077637
1519649509442,1.111572,0.239258,-0.051025
1519649509473,1.248535,0.247314,-0.061768
1519649509532,1.244141,0.146240,-0.158691
1519649509540,1.206787,0.191650,-0.138916
1519649509590,1.016357,0.406494,0.166992
1519649509622,0.954590,0.362549,0.197510
1519649509625,0.922119,0.242188,0.203857
1519649509728,1.095947,-0.046143,0.222168
1519649509736,1.192871,-0.024414,0.228271
1519649509796,1.067383,0.154297,0.453857
1519649509804,0.918945,0.309814,0.363281
1519649509860,0.857910,0.225098,0.256836
1519649509865,0.835205,0.233154,0.177002
1519649509868,0.935059,0.378906,0.152588
1519649509894,1.009033,0.449219,0.106934
1519649509937,1.113037,0.513428,0.155762
1519649509969,1.229980,0.672363,0.180908
1519649510002,1.132080,0.613281,0.179932
1519649510035,1.173340,0.618896,0.128662
1519649510067,1.046143,0.730225,0.176025
1519649510102,1.022949,0.697510,0.180176
1519649510108,1.006592,0.626221,0.162109
1519649510142,1.131104,0.546387,0.131104
1519649510201,1.449707,0.455811,0.199219
1519649510209,1.670898,0.304443,0.151367
1519649510258,1.341064,0.108398,0.076660
1519649510291,1.125732,0.135986,0.189941
1519649510324,0.987549,0.171387,0.128662
1519649510339,0.820313,0.159668,0.073730
1519649510366,0.816895,0.198975,0.089600
1519649510424,0.782471,0.143066,0.039307
1519649510457,0.756348,0.125000,0.012207
1519649510490,0.914307,0.210693,0.020508
1519649510522,0.970703,0.184570,-0.019043
1519649510556,1.031982,0.233887,-0.009277
1519649510569,1.177002,0.434570,0.155273
1519649510601,1.070313,0.447021,0.250732
1519649510637,1.096680,0.436523,0.371094
1519649510669,1.199951,0.268311,0.246582
1519649510702,1.400635,0.210449,0.167725
1519649510734,1.248535,0.154297,0.250732
1519649510767,1.080566,0.330811,0.265625
1519649510801,0.908447,0.385498,0.231689
1519649510834,0.729980,0.378662,0.229980
1519649510864,0.642822,0.377930,0.127197
1519649510897,0.729004,0.345459,0.065430
1519649510931,0.823730,0.468506,0.063965
1519649510964,0.945801,0.564209,0.101563
1519649511006,1.085938,0.627686,0.178223
1519649511032,1.191406,0.598877,0.202148
1519649511063,1.403076,0.781494,0.279297
1519649511068,1.275146,0.917725,0.250000
1519649511122,0.986816,0.477051,0.156250
1519649511156,1.037842,0.496582,0.185303
1519649511188,1.225830,0.402100,0.191162
1519649511220,1.397949,0.360840,0.194580
1519649511251,1.216797,0.385254,0.257080
1519649511283,1.084229,0.178223,0.151123
1519649511316,0.759521,0.164551,0.066406
1519649511348,0.698242,0.213135,0.129395
1519649511381,0.772705,0.277832,0.113770
1519649511394,0.813477,0.231689,0.061279
1519649511453,0.860352,0.210449,0.026855
1519649511487,0.992432,0.275635,0.012695
1519649511519,1.119385,0.274658,0.015137
1519649511552,1.000732,0.252930,0.023926
1519649511584,1.042725,0.315186,0.066650
1519649511602,1.108643,0.395264,0.169678
1519649511653,0.921387,0.335205,0.255615
1519649511661,0.892578,0.338135,0.288086
1519649511712,1.088135,0.370361,0.283203
1519649511721,1.112793,0.281006,0.288818
1519649511749,0.976807,0.228760,0.304932
1519649511807,0.858154,0.360107,0.316162
1519649511820,0.816162,0.326660,0.295166
1519649511850,0.754639,0.334229,0.175781
1519649511883,0.856934,0.455078,0.194580
1519649511916,0.986328,0.530029,0.229980
1519649511949,1.002197,0.584229,0.256348
1519649511980,1.215820,0.637695,0.308350
1519649512014,1.218262,0.593750,0.288574
1519649512046,1.232178,0.569824,0.338867
1519649512079,1.256592,0.651367,0.371582
1519649512137,1.329346,0.648926,0.366211
1519649512146,1.244873,0.526123,0.303223
1519649512179,1.255371,0.396973,0.250732
1519649512211,1.485352,0.406494,0.270020
1519649512244,1.482178,0.140625,0.163818
1519649512311,1.002197,0.052246,0.121094
1519649512320,0.739258,0.061523,0.117188
1519649512351,0.625488,0.220703,0.089844
1519649512383,0.630615,0.298828,0.041992
1519649512416,0.640381,0.264893,0.007324
1519649512447,0.720215,0.202881,-0.036377
1519649512479,0.935059,0.213135,-0.059326
1519649512512,1.056396,0.316406,-0.064941
1519649512545,0.862793,0.308105,0.026123
1519649512581,1.188232,0.375244,0.132080
1519649512616,1.283936,0.368652,0.096436
1519649512628,1.177246,0.397705,0.336914
1519649512662,1.160400,0.301758,0.370117
1519649512719,1.279541,0.182373,0.201904
1519649512727,1.311279,0.260986,0.338623
1519649512778,1.075928,0.442139,0.409912
1519649512849,0.868896,0.370850,0.303955
1519649512858,0.738525,0.330078,0.192139
1519649512916,0.668945,0.417969,0.134521
1519649512921,0.780518,0.369141,0.145508
1519649512957,0.839600,0.418701,0.135254
1519649512960,0.964600,0.489746,0.138916
1519649512991,1.182861,0.608887,0.186523
1519649513024,1.205811,0.646240,0.229492
1519649513066,1.302734,0.735840,0.273438
1519649513099,1.254395,0.778320,0.321045
1519649513109,1.189209,0.673340,0.279541
1519649513141,1.125977,0.409912,0.175781
1519649513175,1.156006,0.280518,0.212891
1519649513206,1.303711,0.358643,0.249268
1519649513264,1.209229,0.346436,0.205566
1519649513269,1.059082,0.267822,0.183350
1519649513298,0.978516,0.164063,0.120117
1519649513331,0.855469,0.172607,0.067139
1519649513364,0.827393,0.255615,0.080811
1519649513395,0.785645,0.253662,0.079834
1519649513428,0.823975,0.197510,0.000000
1519649513470,0.994629,0.228760,-0.016846
1519649513503,1.146729,0.254395,-0.032227
1519649513540,0.982666,0.301025,0.035645
1519649513591,1.115479,0.365967,0.123779
1519649513599,1.073242,0.415527,0.177002
1519649513624,1.025146,0.395508,0.301514
1519649513656,1.011963,0.326660,0.257568
1519649513688,1.129150,0.243164,0.196533
1519649513746,1.107422,0.290771,0.342773
1519649513755,0.924561,0.345703,0.325195
1519649513786,0.765625,0.298584,0.282959
1519649513844,0.666504,0.261230,0.184814
1519649513852,0.731445,0.324219,0.150146
1519649513888,0.804443,0.441650,0.167725
1519649513921,0.915527,0.487793,0.131104
1519649513956,1.122314,0.578857,0.185059
1519649513987,1.327881,0.643066,0.260498
1519649514020,1.371094,0.572510,0.189453
1519649514052,1.382080,0.730713,0.316895
1519649514084,1.231201,0.824219,0.345459
1519649514118,1.146973,0.689697,0.254639
1519649514150,1.043457,0.545898,0.224121
1519649514183,1.122559,0.419434,0.197266
1519649514214,1.269043,0.212402,0.169678
1519649514247,1.008301,0.171143,0.181396
1519649514261,0.784912,0.145752,0.163574
1519649514319,0.633301,0.151611,0.123291
1519649514322,0.657471,0.216553,0.079102
1519649514353,0.729248,0.281006,0.099365
1519649514410,0.875488,0.259033,0.071533
1519649514418,1.120117,0.192139,0.005127
1519649514475,1.245850,0.215576,-0.023193
1519649514511,1.131104,0.247314,-0.028076
1519649514544,1.112061,0.348633,0.055664
1519649514553,1.124756,0.431396,0.139404
1519649514607,0.971924,0.491211,0.279297
1519649514640,0.862061,0.386230,0.371826
1519649514672,0.900391,0.255615,0.280273
1519649514686,1.065430,0.067627,0.095947
1519649514744,1.093994,0.173340,0.221436
1519649514753,0.900391,0.283691,0.349854
1519649514806,0.740234,0.349121,0.367920
1519649514838,0.697754,0.221680,0.258789
1519649514841,0.743896,0.197266,0.188721
1519649514897,0.843018,0.388672,0.218994
1519649514902,0.891357,0.503662,0.275879
1519649514935,0.966797,0.656738,0.379639
1519649514994,1.177246,0.544678,0.365967
1519649515004,1.287109,0.482666,0.293457
1519649515058,1.367920,0.504883,0.377197
1519649515091,1.261719,0.602783,0.367188
1519649515104,1.203857,0.576660,0.309082
1519649515136,1.172363,0.462891,0.241699
1519649515168,1.232178,0.431396,0.220215
1519649515202,1.449219,0.452637,0.304932
1519649515234,1.437988,0.246094,0.171875
1519649515290,1.005859,0.035645,0.090576
1519649515323,0.799316,0.190430,0.108154
1519649515331,0.750488,0.218018,0.111084
1519649515380,0.796631,0.282959,0.101074
1519649515413,0.790283,0.220459,0.062012
1519649515416,0.798828,0.145508,-0.006348
1519649515449,0.846680,0.220947,-0.006104
1519649515483,0.869629,0.279053,0.008057
1519649515541,0.847168,0.319092,0.079102
1519649515549,0.924805,0.346436,0.166504
1519649515604,0.959961,0.355469,0.210205
1519649515615,1.037842,0.413330,0.306641
1519649515672,1.225342,0.458252,0.446533
1519649515705,1.390869,0.293945,0.260254
1519649515737,1.494385,0.170410,0.253906
1519649515770,1.243896,0.392822,0.453613
1519649515801,0.970703,0.411621,0.426758
1519649515806,0.768066,0.309814,0.232910
1519649515861,0.726807,0.385742,0.119629
1519649515871,0.773682,0.418457,0.150635
1519649515963,0.863281,0.526367,0.214111
1519649515966,0.963623,0.683350,0.269531
1519649516030,1.072510,0.617676,0.253662
1519649516034,1.177490,0.545410,0.243652
1519649516080,1.207275,0.576416,0.299072
1519649516085,1.178467,0.838135,0.416992
1519649516115,1.297119,0.675537,0.360107
1519649516152,1.347168,0.414551,0.249023
1519649516184,1.373779,0.397461,0.262451
1519649516216,1.506836,0.482178,0.221680
1519649516249,1.525879,0.081299,0.161621
1519649516280,1.167236,-0.029541,0.075439
1519649516286,0.862549,-0.076416,-0.001465
1519649516340,0.676270,0.239258,0.150879
1519649516372,0.819580,0.396729,0.145996
1519649516385,0.842773,0.306152,0.045898
1519649516447,1.026123,0.158447,-0.039795
1519649516457,1.139893,0.165771,-0.073730
1519649516479,1.020752,0.209717,-0.048828
1519649516512,0.903809,0.310791,0.065918
1519649516545,1.009277,0.370605,0.068359
1519649516578,0.958740,0.461670,0.131348
1519649516610,0.886719,0.418213,0.311523
1519649516669,0.921387,0.284912,0.209473
1519649516700,1.172852,0.207031,0.127197
1519649516732,1.117676,0.252197,0.326660
1519649516741,0.895996,0.338867,0.407227
1519649516797,0.780518,0.274658,0.375244
1519649516811,0.756836,0.317139,0.283691
1519649516843,0.798096,0.464600,0.269531
1519649516875,1.033447,0.615723,0.180420
1519649516933,1.294189,0.736328,0.249756
1519649516941,1.374756,0.751465,0.318604
1519649516967,1.383789,0.717041,0.263672
1519649517023,1.367676,0.998047,0.325195
1519649517026,1.396973,0.820557,0.203613
1519649517081,1.177490,0.541748,0.197510
1519649517114,1.203369,0.402344,0.183105
1519649517121,1.275146,0.472168,0.228516
1519649517179,1.156250,0.367920,0.212891
1519649517212,0.845215,0.174805,0.072998
1519649517224,0.782471,0.158203,0.084473
1519649517281,0.806641,0.240479,0.185303
1519649517314,0.924561,0.218506,0.103027
1519649517323,1.082031,0.192383,0.013916
1519649517378,1.073486,0.207275,-0.014893
1519649517390,1.078857,0.391602,0.090332
1519649517431,0.987061,0.374268,0.169678
1519649517466,0.821289,0.330811,0.134277
1519649517497,0.836914,0.313965,0.086426
1519649517530,0.763916,0.446533,0.234619
1519649517562,0.788330,0.420410,0.280762
1519649517595,1.074463,0.391602,0.302246
1519649517626,1.281006,0.238770,0.145508
1519649517640,1.213867,0.156250,0.207275
1519649517698,0.910400,0.416016,0.366211
1519649517730,0.774414,0.460449,0.317871
1519649517737,0.759521,0.405762,0.244873
1519649517796,0.797607,0.424805,0.174072
1519649517828,0.955078,0.453369,0.202393
1519649517859,0.998291,0.500977,0.283936
1519649517891,1.154541,0.555664,0.343750
1519649517924,1.239990,0.634277,0.432129
1519649517957,1.406982,0.705322,0.511475
1519649517989,1.336914,0.858887,0.540527
1519649518023,1.093262,0.520996,0.388916
1519649518031,1.062988,0.302002,0.280029
1519649518069,1.137695,0.491699,0.286133
1519649518102,1.323730,0.393555,0.302490
1519649518132,1.295898,0.236084,0.222656
1519649518166,0.931641,0.073242,0.112061
1519649518199,0.771240,0.165039,0.085449
1519649518229,0.708008,0.234619,0.089600
1519649518262,0.811523,0.249756,0.033447
1519649518295,0.850830,0.261963,0.013184
1519649518327,1.072021,0.251953,0.013916
1519649518363,1.132813,0.275879,-0.011719
1519649518395,0.983887,0.303467,0.061768
1519649518403,0.852783,0.318359,0.117676
1519649518468,1.008789,0.354248,0.116211
1519649518477,0.954834,0.321045,0.177490
1519649518526,1.097412,0.368164,0.311523
1519649518558,1.234375,0.214111,0.212891
1519649518591,1.224609,0.250000,0.310059
1519649518624,1.009033,0.302979,0.454346
1519649518657,0.785889,0.269531,0.396973
1519649518712,0.673584,0.232666,0.279785
1519649518720,0.634277,0.300293,0.184082
1519649518745,0.684082,0.525879,0.184326
1519649518776,0.846191,0.591064,0.121338
1519649518808,0.933105,0.666260,0.164551
1519649518841,1.229736,0.634277,0.227295
1519649518882,1.354248,0.698242,0.217773
1519649518887,1.491455,0.616455,0.173096
1519649518944,1.303711,0.632324,0.295410
1519649518976,1.162842,0.678711,0.350586
1519649518982,0.962402,0.552490,0.309326
1519649519085,1.069580,0.472412,0.271729
1519649519093,1.260254,0.435547,0.236816
1519649519152,1.322510,0.383545,0.196289
1519649519160,1.079834,0.175293,0.153320
1519649519199,0.924561,0.092041,0.140869
1519649519203,0.759277,0.130859,0.062012
1519649519232,0.650635,0.235840,0.103760
1519649519266,0.719482,0.305176,0.102539
1519649519299,0.769287,0.244385,0.034424
1519649519335,1.032227,0.256104,-0.007080
1519649519368,1.166016,0.269043,-0.028809
1519649519399,1.042480,0.214844,0.004639
1519649519433,1.062012,0.345947,0.075928
1519649519466,1.125732,0.408936,0.132324
1519649519474,0.978760,0.379883,0.207275
1519649519526,0.981201,0.372803,0.305420
1519649519558,1.041260,0.258057,0.229492
1519649519568,1.168701,0.232666,0.230713
1519649519621,0.995361,0.308838,0.285645
1519649519654,0.799316,0.362793,0.266113
1519649519667,0.700928,0.312256,0.203857
1519649519725,0.671387,0.322021,0.136475
1519649519733,0.793701,0.392578,0.138916
1519649519787,0.984863,0.499023,0.170898
1519649519821,1.017578,0.447021,0.159424
1519649519857,1.284424,0.543213,0.224121
1519649519884,1.348389,0.606445,0.293945
1519649519916,1.369873,0.709473,0.418945
1519649519949,1.274658,0.792236,0.474365
1519649519990,1.170654,0.650879,0.377441
1519649519996,1.123779,0.375244,0.273682
1519649520054,1.105713,0.329834,0.269531
1519649520057,1.166504,0.390869,0.249023
1519649520099,1.048584,0.212402,0.174805
1519649520131,0.856934,0.185303,0.122314
1519649520164,0.701660,0.239258,0.111328
1519649520196,0.706543,0.323486,0.113525
1519649520229,0.830566,0.319092,0.077393
1519649520262,0.941162,0.236328,0.032227
1519649520299,1.204590,0.208252,-0.015625
1519649520332,1.276855,0.214844,-0.037109
1519649520365,1.118408,0.234131,-0.017578
1519649520396,1.137207,0.407959,0.103271
1519649520429,1.115967,0.446777,0.120361
1519649520462,0.936035,0.329834,0.181152
1519649520501,0.927002,0.299316,0.219971
1519649520508,0.981201,0.268066,0.170898
1519649520565,0.925293,0.266846,0.199707
1519649520598,0.779785,0.377686,0.302002
1519649520630,0.685547,0.351074,0.290527
1519649520634,0.604004,0.308105,0.256836
1519649520664,0.655518,0.331543,0.279053
1519649520697,0.710693,0.562256,0.250000
1519649520730,0.949463,0.624268,0.268555
1519649520763,1.130371,0.546875,0.338135
1519649520797,1.335938,0.514648,0.418945
1519649520844,1.334229,0.489258,0.406250
1519649520876,1.575439,0.775879,0.518555
1519649520908,1.524902,0.752930,0.421875
1519649520940,1.240723,0.458496,0.298340
1519649520974,1.130615,0.392578,0.322510
1519649521006,1.214111,0.331299,0.273926
1519649521015,1.184082,0.416260,0.251221
1519649521068,0.933350,0.215088,0.185303
1519649521100,0.801514,0.168945,0.124756
1519649521106,0.690430,0.200195,0.076904
1519649521164,0.650391,0.290283,0.064453
1519649521196,0.709717,0.259277,0.043945
1519649521228,0.694092,0.218018,0.004639
1519649521271,0.847412,0.237549,-0.021729
1519649521285,1.009521,0.268066,0.039307
1519649521316,1.042725,0.346924,0.096680
1519649521350,0.885986,0.244141,0.126709
1519649521383,1.066162,0.371094,0.187256
1519649521414,1.144287,0.546631,0.301758
1519649521446,0.966309,0.539795,0.482910
1519649521479,1.069824,0.527100,0.539795
1519649521513,1.154785,0.446777,0.449951
1519649521545,0.919922,0.205811,0.288574
1519649521576,0.722656,0.282959,0.270996
1519649521609,0.600098,0.301514,0.250732
1519649521641,0.555176,0.269287,0.188965
1519649521673,0.603271,0.291016,0.125244
1519649521706,0.732178,0.365723,0.150146
1519649521740,0.883057,0.414795,0.229736
1519649521773,1.062500,0.388428,0.197021
1519649521803,1.266602,0.519531,0.376221
1519649521827,1.502441,0.456055,0.348633
1519649521882,1.438965,0.624756,0.473145
1519649521914,1.293213,0.637695,0.342041
1519649521920,1.125977,0.642334,0.302002
1519649521978,1.158936,0.591553,0.230713
1519649521988,1.224121,0.549561,0.188232
1519649522046,1.150391,0.359375,0.220459
1519649522079,0.992188,0.102295,0.099609
1519649522088,0.726563,-0.016357,0.037109
1519649522136,0.565430,0.321045,0.139893
1519649522208,0.578613,0.329834,0.123535
1519649522211,0.621826,0.342285,0.073975
1519649522276,0.672363,0.298096,0.038574
1519649522279,0.874023,0.297363,0.046387
1519649522318,1.091309,0.343994,0.075928
1519649522321,1.048340,0.264648,0.029541
1519649522351,1.157959,0.325684,0.084473
1519649522384,1.270508,0.483154,0.230225
1519649522417,1.055176,0.432129,0.325195
1519649522449,1.001953,0.328125,0.263916
1519649522483,1.092773,0.348633,0.243652
1519649522516,1.079102,0.362793,0.287354
1519649522552,0.900879,0.364990,0.276367
1519649522583,0.690674,0.332031,0.280762
1519649522615,0.511963,0.274414,0.269531
1519649522648,0.489502,0.251953,0.167236
1519649522657,0.556641,0.400879,0.203125
1519649522711,0.769043,0.490723,0.161621
1519649522743,0.893555,0.524902,0.245850
1519649522751,1.156738,0.541992,0.352051
1519649522808,1.245361,0.505371,0.246582
1519649522841,1.443359,0.802734,0.461182
1519649522873,1.538330,1.011719,0.473389
1519649522906,1.233643,0.708252,0.203125
1519649522938,1.134521,0.580322,0.152832
1519649522951,1.214355,0.378906,0.152100
1519649523010,1.159912,0.410645,0.210205
1519649523043,0.941406,0.353760,0.219727
1519649523075,0.778564,0.199219,0.085938
1519649523108,0.527100,0.221436,0.103271
1519649523140,0.562500,0.318848,0.131348
1519649523173,0.659180,0.295654,0.125488
1519649523189,0.773193,0.239990,0.052246
1519649523222,1.005859,0.278809,0.076660
1519649523253,1.270020,0.333252,0.097656
1519649523286,1.051270,0.225830,0.092529
1519649523318,0.892578,0.272217,0.209473
1519649523349,1.146240,0.430176,0.246582
1519649523366,1.021484,0.423828,0.298828
1519649523422,0.953125,0.321777,0.386963
1519649523454,0.979248,0.238525,0.327148
1519649523487,1.076904,0.278076,0.296143
1519649523521,0.874023,0.304199,0.310791
1519649523554,0.710693,0.343262,0.288086
1519649523586,0.613770,0.334717,0.281494
1519649523619,0.601318,0.250000,0.125732
1519649523627,0.689209,0.426758,0.133301
1519649523678,0.948486,0.582520,0.207764
1519649523710,1.056396,0.612305,0.259766
1519649523719,1.225342,0.580322,0.262207
1519649523772,1.334961,0.607666,0.277832
1519649523803,1.437256,0.690918,0.379639
1519649523830,1.347412,0.712891,0.412109
1519649523862,1.236084,0.592773,0.346191
1519649523894,1.201416,0.416992,0.269043
1519649523927,1.193115,0.432129,0.283203
1519649523961,1.159668,0.419922,0.241699
1519649523994,1.050537,0.256836,0.135986
1519649524027,0.801758,0.037109,0.064941
1519649524059,0.592041,0.144287,0.164795
1519649524092,0.660889,0.292236,0.156494
1519649524124,0.735596,0.312012,0.129395
1519649524162,1.013916,0.290039,0.037598
1519649524195,1.334717,0.274170,-0.009521
1519649524203,1.267822,0.225830,-0.052734
1519649524253,0.886719,0.300049,0.043701
1519649524287,0.974854,0.385986,0.118652
1519649524294,0.999512,0.518066,0.145508
1519649524350,0.860840,0.379150,0.236328
1519649524382,1.028809,0.358154,0.290771
1519649524414,1.164795,0.275879,0.201904
1519649524448,1.088867,0.150391,0.197510
1519649524480,0.896729,0.222412,0.337646
1519649524513,0.736328,0.273438,0.342773
1519649524547,0.636230,0.215820,0.207275
1519649524563,0.676270,0.370117,0.179443
1519649524618,0.862793,0.488281,0.205566
1519649524651,1.030273,0.647705,0.296875
1519649524682,1.163330,0.654541,0.349854
1519649524685,1.290771,0.656250,0.392334
1519649524744,1.456299,0.555420,0.417236
1519649524782,1.374512,0.635010,0.452881
1519649524789,1.333984,0.534912,0.343262
1519649524838,1.151855,0.433350,0.272217
1519649524847,1.204346,0.388184,0.279541
1519649524902,1.297607,0.328125,0.215820
1519649524934,1.138916,0.309326,0.192627
1519649524942,0.955322,0.212646,0.137207
1519649524998,0.768066,0.167969,0.066895
1519649525032,0.664551,0.271484,0.103027
1519649525065,0.732910,0.263672,0.092285
1519649525112,0.757813,0.206543,0.057129
1519649525120,0.949219,0.200439,0.015137
1519649525148,1.210693,0.249756,-0.011963
1519649525183,1.096436,0.218506,-0.044434
1519649525215,0.895264,0.285645,0.066650
1519649525248,1.095703,0.429199,0.131348
1519649525319,1.043457,0.449219,0.217773
1519649525324,1.014404,0.327637,0.313965
1519649525386,1.119873,0.314941,0.307373
1519649525389,1.163574,0.230957,0.210449
1519649525437,1.020996,0.302734,0.329834
1519649525440,0.792236,0.337158,0.340576
1519649525471,0.746826,0.294189,0.271973
1519649525529,0.727051,0.378174,0.191650
1519649525532,0.940186,0.547363,0.158691
1519649525565,1.080566,0.633301,0.220459
1519649525597,1.158447,0.568359,0.263428
1519649525630,1.387695,0.621582,0.319580
1519649525663,1.317383,0.634277,0.311523
1519649525694,1.239746,0.634766,0.369385
1519649525732,1.238281,0.772461,0.397949
1519649525766,1.128906,0.680664,0.340820
1519649525798,1.131592,0.437744,0.268555
1519649525829,1.216064,0.405029,0.188477
1519649525861,1.342529,0.384033,0.200928
1519649525894,1.250488,0.231201,0.148438
1519649525926,0.967529,0.113525,0.077393
1519649525958,0.737793,0.179443,0.077148
1519649525992,0.691406,0.324951,0.102539
1519649526007,0.755127,0.315186,0.045410
1519649526064,0.801270,0.280273,0.034424
1519649526077,1.106445,0.241455,-0.018799
1519649526107,1.174561,0.196533,-0.073486
1519649526163,1.002930,0.270996,-0.021729
1519649526197,0.924561,0.316650,0.082520
1519649526227,0.984131,0.381836,0.097656
1519649526236,0.962891,0.414307,0.158447
1519649526285,0.873535,0.389404,0.355713
1519649526318,0.890381,0.287109,0.296143
1519649526323,1.079834,0.216553,0.217285
1519649526391,1.087402,0.278320,0.385498
1519649526399,0.827393,0.194336,0.352539
1519649526424,0.698242,0.272949,0.313965
1519649526456,0.683350,0.346191,0.256348
1519649526488,0.784180,0.424316,0.209229
1519649526521,0.889648,0.501465,0.147705
1519649526553,1.228516,0.597900,0.209961
1519649526612,1.453369,0.572510,0.275391
1519649526644,1.397705,0.499512,0.202148
1519649526680,1.279785,0.642334,0.322754
1519649526689,1.325928,0.853516,0.422363
1519649526744,1.245850,0.843994,0.399658
1519649526776,0.979248,0.477051,0.255371
1519649526808,0.965332,0.365234,0.256836
1519649526817,1.141357,0.459961,0.253662
1519649526868,1.231201,0.322754,0.242432
1519649526877,1.014893,0.110596,0.117920
1519649526905,0.770508,0.146973,0.108643
1519649526963,0.671143,0.281006,0.120850
1519649526969,0.735596,0.326172,0.109619
1519649527027,0.833496,0.266357,0.054688
1519649527038,1.143799,0.250977,-0.010010
1519649527096,1.276855,0.307861,0.005371
1519649527104,1.133301,0.305420,0.017334
1519649527159,1.090820,0.334717,0.089844
1519649527189,1.181152,0.434570,0.123291
1519649527222,0.994873,0.400879,0.206055
1519649527254,0.927734,0.334473,0.310791
1519649527288,0.986084,0.287354,0.233643
1519649527321,1.056885,0.182617,0.160645
1519649527352,0.947021,0.262207,0.313721
1519649527385,0.751709,0.321045,0.317871
1519649527392,0.613525,0.271240,0.263672
1519649527446,0.606934,0.327148,0.263184
1519649527478,0.634277,0.400146,0.259277
1519649527487,0.760498,0.457275,0.223389
1519649527540,1.010742,0.579590,0.253906
1519649527572,1.255127,0.656006,0.342773
1519649527603,1.397461,0.643311,0.394287
1519649527636,1.406006,0.596436,0.452881
1519649527669,1.324219,0.633057,0.457520
1519649527702,1.290771,0.634033,0.368896
1519649527735,1.104004,0.357910,0.227295
1519649527768,1.069336,0.323975,0.227051
1519649527802,1.194336,0.379639,0.239990
1519649527835,1.181152,0.307861,0.204346
1519649527864,0.951660,0.242188,0.147705
1519649527868,0.781250,0.250000,0.126465
1519649527924,0.707275,0.241455,0.102295
1519649527957,0.737793,0.232178,0.099365
1519649527990,0.754883,0.205566,0.054932
1519649528026,0.815674,0.214355,0.027588
1519649528034,1.003662,0.266602,0.040283
1519649528088,1.237549,0.281738,0.013428
1519649528096,0.856689,0.216064,0.068115
1519649528152,1.014648,0.358643,0.168457
1519649528184,1.135254,0.465088,0.237305
1519649528218,0.916504,0.379395,0.397217
1519649528250,0.982910,0.350830,0.457275
1519649528284,1.124512,0.167236,0.269287
1519649528315,1.149170,0.110352,0.285889
1519649528348,1.026367,0.281982,0.371826
1519649528381,0.902344,0.389404,0.346191
1519649528453,0.707764,0.363525,0.250488
1519649528461,0.629150,0.409912,0.202148
1519649528519,0.677734,0.455322,0.173584
1519649528522,0.849854,0.560059,0.163086
1519649528557,0.949219,0.533447,0.150146
1519649528559,1.183594,0.514404,0.187744
1519649528591,1.183350,0.568604,0.257568
1519649528624,1.438721,0.742432,0.357910
1519649528658,1.412598,0.929932,0.394287
1519649528690,1.215332,0.555664,0.229980
1519649528723,1.139893,0.378906,0.217773
1519649528756,1.228027,0.426514,0.259033
1519649528788,1.328857,0.320801,0.227051
1519649528820,1.085449,0.249023,0.152588
1519649528853,0.906006,0.146729,0.150391
1519649528885,0.723389,0.186768,0.123047
1519649528918,0.691406,0.264404,0.104248
1519649528950,0.739502,0.303223,0.100830
1519649528987,0.919678,0.222900,0.039551
1519649529020,1.119873,0.168945,-0.011230
1519649529054,1.210205,0.178955,-0.034180
1519649529085,1.003418,0.260254,0.016602
1519649529092,1.049072,0.299316,0.057129
1519649529149,1.052246,0.397461,0.098877
1519649529183,0.931152,0.388916,0.240234
1519649529215,0.873535,0.331055,0.284668
1519649529249,0.988770,0.237305,0.218506
1519649529281,1.178711,0.216553,0.204834
1519649529314,1.054688,0.239258,0.322266
1519649529347,0.835938,0.258789,0.325684
1519649529386,0.744873,0.273682,0.236084
1519649529398,0.730225,0.349609,0.189941
1519649529430,0.832031,0.427246,0.207520
1519649529463,0.970215,0.527100,0.204590
1519649529495,0.992188,0.550049,0.210693
1519649529528,1.210693,0.556152,0.251709
1519649529561,1.225098,0.582031,0.320313
1519649529577,1.255859,0.541504,0.318359
1519649529636,1.188477,0.705566,0.403076
1519649529667,1.235107,0.662354,0.377197
1519649529675,1.150635,0.457520,0.250732
1519649529731,1.088623,0.411865,0.260498
1519649529763,1.290527,0.403564,0.262451
1519649529795,1.260498,0.284180,0.170654
1519649529809,1.031250,0.156250,0.110107
1519649529867,0.786377,0.190430,0.135986
1519649529871,0.680664,0.190186,0.095459
1519649529928,0.697021,0.253906,0.093018
1519649529964,0.755371,0.255859,0.062012
1519649529997,0.847900,0.187744,0.007324
1519649530003,1.053711,0.246094,-0.009521
1519649530055,1.161621,0.298584,0.017578
1519649530061,1.053467,0.311035,0.081787
1519649530094,1.118896,0.395752,0.161133
1519649530151,1.101563,0.459717,0.377686
1519649530157,0.993896,0.325684,0.373779
1519649530231,0.991943,0.177246,0.246826
1519649530236,1.140137,0.063232,0.170654
1519649530276,1.069580,0.216064,0.263916
1519649530309,0.896729,0.266602,0.303467
1519649530342,0.706055,0.280762,0.256592
1519649530373,0.611572,0.259766,0.196777
1519649530405,0.621338,0.309082,0.155762
1519649530438,0.745605,0.441895,0.177734
1519649530472,0.854492,0.501709,0.186279
1519649530504,1.082764,0.561279,0.222412
1519649530538,1.352539,0.650391,0.351318
1519649530570,1.359863,0.608887,0.331055
1519649530576,1.452393,0.711914,0.416260
1519649530630,1.298828,0.722656,0.432861
1519649530663,1.184814,0.603760,0.352783
1519649530676,1.021729,0.412109,0.283447
1519649530708,1.099121,0.373291,0.277832
1519649530741,1.254883,0.376465,0.257813
1519649530773,1.138916,0.269043,0.190918
1519649530805,0.905273,0.178711,0.121094
1519649530863,0.793945,0.222412,0.106934
1519649530869,0.708984,0.220215,0.110107
1519649530904,0.774414,0.235107,0.075684
1519649530936,0.813477,0.207764,0.043457
1519649530994,1.011963,0.246826,0.023682
1519649531027,1.293213,0.261475,-0.005127
1519649531032,1.038330,0.202393,-0.007813
1519649531060,0.984375,0.284668,0.062744
1519649531119,1.061279,0.403076,0.124268
1519649531124,0.947266,0.348389,0.196045
1519649531177,0.864258,0.322266,0.290283
1519649531210,0.968262,0.246338,0.206299
1519649531242,1.116943,0.263672,0.228027
1519649531275,1.075928,0.353516,0.368408
1519649531307,0.801025,0.275146,0.362793
1519649531339,0.708008,0.252197,0.251465
1519649531372,0.686768,0.314453,0.261475
1519649531404,0.749023,0.509033,0.253174
1519649531437,0.882568,0.588623,0.247803
1519649531443,0.965332,0.592773,0.274902
1519649531538,1.225098,0.523438,0.316162
1519649531606,1.384766,0.526367,0.329102
1519649531611,1.563721,0.666016,0.380615
1519649531673,1.406006,0.687744,0.340576
1519649531678,1.213379,0.566162,0.313965
1519649531685,1.125732,0.415527,0.292725
1519649531690,1.278076,0.357666,0.243896
1519649531713,1.252197,0.392090,0.220703
1519649531747,0.991699,0.165039,0.201172
1519649531779,0.792236,0.130859,0.137451
1519649531812,0.645508,0.157227,0.063232
1519649531847,0.606201,0.268799,0.101563
1519649531885,0.722656,0.253418,0.062012
1519649531898,0.911865,0.217529,0.046631
1519649531955,1.233398,0.237061,-0.024414
1519649531987,1.201904,0.200439,-0.073975
1519649532019,0.976318,0.274170,0.025146
1519649532023,0.894043,0.376221,0.180420
1519649532079,1.076172,0.413330,0.128906
1519649532112,0.910156,0.307617,0.095703
1519649532117,0.904297,0.354736,0.250977
1519649532170,1.007080,0.391357,0.332764
1519649532204,1.024658,0.247070,0.236572
1519649532235,0.913086,0.194336,0.245361
1519649532268,0.720459,0.320068,0.271729
1519649532301,0.670410,0.367920,0.301514
1519649532314,0.713135,0.287109,0.244629
1519649532372,0.804688,0.415771,0.247559
1519649532404,0.996338,0.503662,0.300781
1519649532436,1.120361,0.504883,0.291260
1519649532468,1.323730,0.662842,0.531006
1519649532502,1.273193,0.558105,0.550049
1519649532534,1.287842,0.486816,0.536133
1519649532567,1.259033,0.727539,0.536621
1519649532599,1.193604,0.513672,0.344727
1519649532605,1.144287,0.343994,0.238281
1519649532658,1.200684,0.403320,0.239014
1519649532691,1.319580,0.406494,0.250488
1519649532697,1.141357,0.252686,0.178467
1519649532752,0.808105,0.248535,0.100098
1519649532791,0.747314,0.291260,0.088867
1519649532798,0.803711,0.279297,0.075439
1519649532836,0.945068,0.256104,0.019043
1519649532869,1.057617,0.240967,0.002686
1519649532901,1.223633,0.229492,-0.044434
1519649532933,1.103271,0.242920,-0.027100
1519649532965,0.954590,0.324707,0.050781
1519649532998,1.053711,0.374756,0.092773
1519649533030,0.952148,0.437500,0.347168
1519649533063,0.906738,0.306152,0.354248
1519649533095,0.891846,0.115234,0.198486
1519649533129,0.988770,0.107910,0.265625
1519649533186,1.014893,0.374756,0.389648
1519649533191,0.918213,0.408691,0.399902
1519649533244,0.753174,0.340332,0.331787
1519649533250,0.677490,0.201660,0.228271
1519649533279,0.638184,0.367188,0.231689
1519649533311,0.825928,0.487061,0.201416
1519649533368,1.016846,0.557129,0.231689
1519649533401,1.358154,0.705322,0.356934
1519649533434,1.359131,0.602051,0.269775
1519649533449,1.599365,0.650635,0.300293
1519649533482,1.430908,0.867188,0.402588
1519649533515,1.123047,0.728027,0.358887
1519649533564,1.001953,0.561523,0.322754
1519649533596,1.037598,0.447266,0.292236
1519649533629,1.258057,0.360107,0.239990
1519649533632,1.297607,0.396729,0.232422
1519649533688,1.136230,0.257080,0.203125
1519649533721,0.936035,0.061035,0.105469
1519649533727,0.776611,0.084473,0.096191
1519649533783,0.753174,0.232910,0.162109
1519649533795,0.807129,0.231201,0.072998
1519649533851,0.860596,0.220947,0.022705
1519649533857,1.044189,0.249756,0.045654
1519649533914,1.225830,0.262451,0.076416
1519649533928,1.048584,0.186279,0.026611
1519649533960,1.056885,0.245117,0.045410
1519649533993,1.005371,0.506104,0.282227
1519649534070,0.890625,0.367920,0.326172
1519649534076,0.989502,0.230469,0.258057
1519649534103,1.299072,0.174072,0.219482
1519649534136,1.157227,0.241211,0.317627
1519649534141,0.881836,0.306885,0.344971
1519649534199,0.665039,0.288818,0.267090
1519649534232,0.599609,0.306152,0.227051
1519649534266,0.603760,0.341064,0.198730
1519649534297,0.732178,0.395264,0.151611
1519649534329,0.948975,0.480957,0.159912
1519649534343,1.063477,0.501465,0.167725
1519649534377,1.197266,0.551758,0.222412
1519649534411,1.214111,0.665771,0.285645
1519649534443,1.417480,0.801025,0.390869
1519649534475,1.380615,0.804932,0.296631
1519649534508,1.148682,0.407959,0.141113
1519649534540,1.165771,0.333740,0.241699
1519649534573,1.400391,0.324707,0.259521
1519649534671,1.352539,0.300537,0.271729
1519649534677,1.041260,0.221680,0.218506
1519649534738,0.745361,0.180420,0.168457
1519649534799,0.639648,0.239014,0.125488
1519649534804,0.644287,0.230469,0.090576
1519649534809,0.744385,0.299316,0.111084
1519649534815,0.979736,0.258545,0.091309
1519649534836,1.109131,0.192139,0.014893
1519649534869,1.090576,0.156006,-0.042725
1519649534903,0.967529,0.254150,-0.009277
1519649534934,0.939453,0.324951,0.068359
1519649534966,0.937012,0.391602,0.104492
1519649534999,0.936279,0.391357,0.180420
1519649535032,1.086182,0.380859,0.263916
1519649535065,1.218994,0.318359,0.249756
1519649535097,1.140137,0.312500,0.353516
1519649535129,0.859131,0.243652,0.354492
1519649535161,0.662109,0.245117,0.260010
1519649535194,0.592773,0.354492,0.228271
1519649535226,0.574219,0.511475,0.218506
1519649535259,0.910156,0.567871,0.166992
1519649535292,1.190186,0.595215,0.241455
1519649535325,1.310303,0.550049,0.286133
1519649535353,1.299072,0.588867,0.335938
1519649535385,1.210449,0.691406,0.375732
1519649535419,1.255615,0.908203,0.480225
1519649535450,1.356689,0.747314,0.363525
1519649535483,1.244141,0.456299,0.212158
1519649535516,1.167969,0.401123,0.229492
1519649535549,1.220215,0.377686,0.237549
1519649535589,1.050293,0.314697,0.215332
1519649535621,0.820801,0.188477,0.140625
1519649535653,0.580322,0.205078,0.079834
1519649535686,0.555176,0.265869,0.108398
1519649535719,0.678467,0.271484,0.126709
1519649535755,0.968994,0.238281,0.054199
1519649535789,1.449219,0.234375,-0.066162
1519649535794,1.304932,0.139648,-0.123779
1519649535847,1.167969,0.275879,-0.059082
1519649535880,1.242920,0.399170,-0.007568
1519649535885,1.050537,0.594971,0.201904
1519649535941,0.789063,0.491455,0.486084
1519649535973,0.743164,0.269287,0.321533
1519649535987,0.972412,0.088623,0.135498
1519649536019,0.998047,0.196045,0.306641
1519649536052,0.762695,0.331299,0.395020
1519649536086,0.640381,0.308594,0.343994
1519649536117,0.579102,0.317871,0.285889
1519649536174,0.614502,0.400879,0.234863
1519649536206,0.817139,0.505615,0.130127
1519649536239,1.310303,0.695068,0.235596
1519649536244,1.349365,0.663330,0.355225
1519649536298,1.310547,0.570557,0.363525
1519649536331,1.346680,0.656494,0.413086
1519649536337,1.365479,0.805420,0.389404
1519649536389,1.336670,0.760742,0.325684
1519649536403,1.105713,0.458984,0.278076
1519649536436,1.082520,0.319092,0.236816
1519649536468,1.193359,0.379639,0.209961
1519649536500,1.165771,0.286377,0.280273
1519649536534,0.999512,0.093994,0.161865
1519649536566,0.738525,0.155029,0.096436
1519649536629,0.628662,0.282959,0.140869
1519649536633,0.748291,0.275146,0.096436
1519649536664,0.759766,0.220703,0.043213
1519649536700,1.069336,0.219238,0.009033
1519649536733,1.315674,0.275391,-0.004639
1519649536766,1.054199,0.239990,-0.007080
1519649536806,0.996338,0.350342,0.127441
1519649536837,1.061035,0.451416,0.188965
1519649536845,0.858887,0.353027,0.201416
1519649536901,1.027100,0.404053,0.414307
1519649536933,1.190186,0.280029,0.245117
1519649536965,1.344971,0.163330,0.224121
1519649536998,0.924805,0.219971,0.378418
1519649537031,0.695557,0.332275,0.359619
1519649537064,0.638184,0.292480,0.246338
1519649537095,0.623047,0.382080,0.179688
1519649537127,0.761963,0.375732,0.157959
1519649537160,0.901367,0.450684,0.162842
1519649537192,1.139404,0.491211,0.250732
1519649537234,1.270752,0.500000,0.291992
1519649537239,1.322998,0.498047,0.260986
1519649537296,1.307617,0.585205,0.389160
1519649537327,1.334717,0.694092,0.443115
1519649537333,1.299316,0.751221,0.414551
1519649537385,1.011230,0.381836,0.257568
1519649537419,0.967041,0.234863,0.236084
1519649537450,1.073486,0.208252,0.216064
1519649537483,1.132324,0.286133,0.199219
1519649537516,1.043945,0.253906,0.184082
1519649537549,0.900391,0.255127,0.138184
1519649537581,0.805420,0.218994,0.072754
1519649537614,0.805908,0.280518,0.063477
1519649537655,0.896484,0.284668,0.038574
1519649537660,1.127686,0.226318,-0.016113
1519649537717,1.188721,0.199219,-0.050049
1519649537789,1.170654,0.244385,-0.037354
1519649537795,0.935059,0.309326,0.052002
1519649537856,1.110840,0.391357,0.097412
1519649537863,1.036377,0.446777,0.130127
1519649537924,0.831787,0.369629,0.357666
1519649537928,0.802734,0.312988,0.345703
1519649537945,0.885742,0.152588,0.142334
1519649537977,0.972656,0.220459,0.167480
1519649537980,0.902344,0.390381,0.313721
1519649538011,0.810303,0.374023,0.363037
1519649538079,0.760254,0.276367,0.256592
1519649538084,0.807861,0.353027,0.265625
1519649538112,0.912598,0.495605,0.279785
1519649538145,1.104248,0.552734,0.253418
1519649538177,1.162354,0.504150,0.286133
1519649538235,1.290771,0.538574,0.309814
1519649538241,1.267090,0.534180,0.299805
1519649538296,1.291992,0.673340,0.409180
1519649538329,1.224121,0.679932,0.455322
1519649538362,1.129150,0.495117,0.323242
1519649538394,1.134766,0.358887,0.241699
1519649538404,1.207520,0.363525,0.155029
1519649538459,1.208984,0.345215,0.200439
1519649538492,1.116699,0.251221,0.200684
1519649538497,0.877197,0.067383,0.094971
1519649538525,0.626465,0.280518,0.091309
1519649538558,0.657227,0.331787,0.102783
1519649538616,0.784912,0.342773,0.088867
1519649538627,1.065186,0.223633,0.003662
1519649538660,1.208740,0.170898,-0.031982
1519649538694,1.160156,0.170410,-0.052979
1519649538725,1.077881,0.281250,-0.044434
1519649538758,1.202881,0.445557,0.051758
1519649538791,0.978027,0.547363,0.237549
1519649538829,0.830566,0.336182,0.296875
1519649538861,0.927734,0.212402,0.188721
1519649538894,1.040527,0.275146,0.187744
1519649538926,0.835693,0.228516,0.315918
1519649538958,0.646729,0.295898,0.323242
1519649538991,0.594482,0.291992,0.316650
1519649539024,0.581787,0.273926,0.245117
1519649539057,0.690918,0.409912,0.240967
1519649539090,0.960449,0.594482,0.281250
1519649539122,1.187500,0.628418,0.312012
1519649539156,1.414307,0.656494,0.406494
1519649539191,1.323730,0.608643,0.429443
1519649539224,1.420410,0.619629,0.502441
1519649539237,1.352051,0.631592,0.431396
1519649539269,1.205811,0.468750,0.282227
1519649539327,1.151123,0.434814,0.281006
1519649539359,1.251465,0.396240,0.260498
1519649539365,1.196777,0.283447,0.254395
1519649539418,0.877441,0.218750,0.156250
1519649539424,0.659424,0.249756,0.122803
1519649539455,0.540039,0.241211,0.092529
1519649539512,0.613770,0.333496,0.094727
1519649539518,0.710938,0.325195,0.062744
1519649539577,0.768799,0.222656,-0.010010
1519649539588,1.070801,0.291748,-0.053955
1519649539646,1.356201,0.321533,-0.039063
1519649539658,1.187744,0.283447,0.026123
1519649539690,1.092285,0.311035,0.118408
1519649539724,1.175049,0.446045,0.202637
1519649539756,1.030762,0.380615,0.280762
1519649539789,0.968994,0.341064,0.341064
1519649539846,1.011475,0.226807,0.273193
1519649539852,0.984863,0.263672,0.304443
1519649539908,0.754639,0.312500,0.354004
1519649539940,0.595703,0.280029,0.291260
1519649539946,0.556641,0.294922,0.275635
1519649539998,0.586426,0.334961,0.227539
1519649540003,0.728516,0.380127,0.175781
1519649540036,0.983154,0.493164,0.196289
1519649540094,1.198242,0.544189,0.342041
1519649540101,1.307617,0.544922,0.376953
1519649540158,1.314697,0.572021,0.396729
1519649540191,1.394531,0.619873,0.449951
1519649540223,1.412598,0.695557,0.433105
1519649540255,1.229004,0.562988,0.304932
1519649540288,1.182617,0.342773,0.263916
1519649540321,1.225586,0.365723,0.226563
1519649540354,1.155029,0.362793,0.266113
1519649540386,1.012451,0.173096,0.220459
1519649540419,0.782959,0.084717,0.156006
1519649540424,0.630859,0.193115,0.107422
1519649540470,0.607666,0.307617,0.107910
1519649540509,0.709961,0.291992,0.073486
1519649540515,0.804932,0.213867,0.002930
1519649540575,1.025879,0.313232,0.048340
1519649540607,1.087158,0.338867,0.059570
1519649540640,0.945313,0.295898,0.117188
1519649540673,1.015625,0.255615,0.108154
1519649540681,1.108887,0.357422,0.140381
1519649540737,1.112793,0.502686,0.305176
1519649540769,0.931152,0.356445,0.321289
1519649540802,0.988770,0.273193,0.253906
1519649540834,1.163330,0.265869,0.285645
1519649540867,0.987061,0.367432,0.348145
1519649540934,0.704346,0.305908,0.309814
1519649540939,0.586426,0.199951,0.232422
1519649541001,0.571045,0.271973,0.243896
1519649541006,0.646240,0.279297,0.142822
1519649541037,0.831299,0.431152,0.164063
1519649541045,1.097656,0.494141,0.173584
1519649541101,1.221191,0.586670,0.255859
1519649541104,1.271240,0.652344,0.332520
1519649541135,1.204590,0.617920,0.336914
1519649541168,1.363037,0.747803,0.411377
1519649541201,1.409180,0.770996,0.439697
1519649541234,1.153320,0.413574,0.263184
1519649541265,1.066650,0.349121,0.246582
1519649541299,1.130615,0.379395,0.260742
1519649541331,1.073975,0.310059,0.257813
1519649541388,0.894775,0.213867,0.196045
1519649541421,0.738525,0.230225,0.166748
1519649541427,0.619873,0.275635,0.127197
1519649541484,0.647705,0.270020,0.125977
1519649541517,0.734131,0.269775,0.096436
1519649541553,0.790527,0.190674,0.043457
1519649541558,1.082031,0.249268,0.024658
1519649541586,1.340332,0.272949,-0.020996
1519649541619,0.919922,0.210938,0.019287
1519649541651,1.284668,0.404297,0.117188
1519649541684,1.251953,0.543945,0.218750
1519649541716,0.990723,0.399902,0.347168
1519649541751,0.986084,0.270020,0.282471
1519649541784,1.091797,0.232666,0.210938
1519649541816,0.883789,0.348145,0.296631
1519649541849,0.634766,0.388428,0.302002
1519649541881,0.493408,0.357910,0.284912
1519649541914,0.641113,0.031250,0.427490
1519649541945,0.652100,0.782715,0.272705
1519649541978,0.886475,0.456055,0.236572
1519649542037,1.081543,0.390137,0.217773
1519649542045,1.178711,0.573486,0.429443
1519649542074,1.419189,0.535156,0.471680
1519649542115,1.504395,0.601074,0.448486
1519649542148,1.416992,0.759277,0.550781
1519649542181,1.355225,0.681641,0.395752
1519649542214,0.973145,0.387207,0.287598
1519649542246,0.979248,0.445313,0.285645
1519649542279,1.153076,0.463867,0.257813
1519649542311,1.082031,0.277588,0.155762
1519649542343,0.883057,0.175781,0.083496
1519649542375,0.724365,0.243896,0.088867
1519649542408,0.633301,0.256104,0.056885
1519649542441,0.699463,0.279053,0.043457
1519649542473,0.784424,0.262939,0.022949
1519649542491,1.049805,0.274658,0.017822
1519649542549,1.318359,0.236084,-0.053223
1519649542554,1.180664,0.190918,-0.074219
1519649542607,1.127197,0.280518,0.087891
1519649542614,1.222168,0.336914,0.117188
1519649542644,1.078857,0.391113,0.137939
1519649542700,0.875244,0.427490,0.274902
1519649542706,0.941406,0.331543,0.306885
1519649542764,0.941162,0.250244,0.265869
1519649542797,1.019531,0.186523,0.237061
1519649542829,0.922607,0.237793,0.317627
1519649542862,0.792725,0.306152,0.338135
1519649542896,0.662598,0.234619,0.234131
1519649542909,0.648926,0.305664,0.203857
1519649542940,0.739258,0.431885,0.225342
1519649542998,0.872070,0.588867,0.292236
1519649543030,0.990967,0.701416,0.363770
1519649543039,1.089844,0.706787,0.344482
1519649543095,1.297852,0.717529,0.384766
1519649543127,1.369385,0.380859,0.292725
1519649543133,1.425781,0.280762,0.351563
1519649543186,1.380615,0.350342,0.346191
1519649543191,1.092529,0.318115,0.251709
1519649543223,1.048340,0.357178,0.234131
1519649543281,1.182617,0.488037,0.218262
1519649543288,1.208984,0.456055,0.225342
1519649543326,1.059570,0.188232,0.077637
1519649543358,0.813721,0.131592,0.066406
1519649543390,0.761475,0.220215,0.077637
1519649543424,0.771729,0.228271,0.056396
1519649543461,0.808838,0.250488,0.034912
1519649543493,0.834961,0.216064,0.002686
1519649543525,1.014160,0.229980,-0.015381
1519649543559,1.238037,0.217041,-0.059814
1519649543590,0.991699,0.217041,-0.027588
1519649543624,1.177979,0.350342,0.028809
1519649543655,1.069092,0.462646,0.241943
1519649543688,0.957520,0.446533,0.495117
1519649543721,0.919678,0.239014,0.436279
1519649543762,1.218750,-0.016846,0.310547
1519649543793,0.979248,0.265381,0.542969
1519649543826,0.831787,0.332275,0.504395
1519649543834,0.642090,0.378662,0.343018
1519649543890,0.617920,0.367676,0.204590
1519649543924,0.716553,0.458252,0.142578
1519649543955,0.935791,0.510498,0.149414
1519649543988,1.090576,0.561279,0.127686
1519649544055,1.174072,0.607910,0.163086
1519649544061,1.261230,0.742188,0.217285
1519649544124,1.283691,0.695557,0.194336
1519649544159,1.369629,0.713623,0.246826
1519649544165,1.271729,0.660400,0.321289
1519649544175,1.114746,0.432129,0.248047
1519649544193,1.052246,0.404785,0.280273
1519649544251,1.165771,0.495117,0.274170
1519649544254,1.181152,0.433838,0.198486
1519649544285,1.113037,0.298096,0.238525
1519649544340,0.891602,-0.019531,0.123535
1519649544373,0.692383,0.024658,0.088135
1519649544406,0.602539,0.235352,0.157959
1519649544416,0.670166,0.293701,0.113525
1519649544473,0.729248,0.285156,0.052979
1519649544506,0.896484,0.246826,0.000732
1519649544538,0.976807,0.220459,-0.048584
1519649544553,0.972412,0.278564,0.009521
1519649544585,1.045410,0.353516,0.093506
1519649544617,1.286377,0.485840,0.130615
1519649544650,1.070313,0.506836,0.447021
1519649544683,1.072266,0.427002,0.530029
1519649544739,1.187012,0.118164,0.284912
1519649544746,1.233154,0.244385,0.446777
1519649544773,1.038818,0.323486,0.399170
1519649544805,0.734131,0.366455,0.218994
1519649544837,0.602295,0.486084,0.202148
1519649544870,0.506836,0.480225,0.190674
1519649544903,0.646240,0.445801,0.071045
1519649544936,0.841064,0.537598,0.139160
1519649544977,0.960205,0.565186,0.168945
1519649545009,1.201660,0.625000,0.241699
1519649545041,1.180176,0.661133,0.207764
1519649545075,1.032959,0.376709,0.162354
1519649545107,1.393311,0.419678,0.382813
1519649545140,1.287354,0.628174,0.377441
1519649545172,1.175049,0.422119,0.287354
1519649545206,1.162354,0.463867,0.324707
1519649545236,1.291260,0.531250,0.361084
1519649545268,1.166992,0.446777,0.318115
1519649545302,0.975830,0.328613,0.301514
1519649545333,0.893066,0.110352,0.240479
1519649545347,0.733643,-0.002441,0.155029
1519649545382,0.609619,0.048828,0.215088
1519649545415,0.656250,0.280518,0.185303
1519649545449,0.952637,0.360840,0.166260
1519649545480,1.300781,0.209961,0.037354
1519649545513,1.091309,0.146484,0.006348
1519649545591,0.918701,0.211182,0.037354
1519649545597,1.240967,0.432373,0.092041
1519649545624,1.170898,0.580811,0.227295
1519649545657,1.109131,0.365723,0.291992
1519649545690,1.158447,0.314697,0.298828
1519649545722,1.069092,0.285156,0.343018
1519649545729,0.711426,0.099854,0.258301
1519649545794,0.462402,0.161865,0.165039
1519649545800,0.483643,0.255615,0.186523
1519649545830,0.518555,0.285645,0.193848
1519649545889,0.674561,0.377686,0.169922
1519649545894,0.872803,0.486084,0.214600
1519649545952,1.099609,0.548828,0.280273
1519649545984,1.606934,0.584717,0.372314
1519649546017,1.584961,0.674316,0.531982
1519649546049,1.660400,0.740967,0.636230
1519649546082,1.220703,0.620361,0.417236
1519649546115,0.983398,0.371094,0.295166
1519649546148,1.067139,0.252197,0.314209
1519649546163,1.111572,0.134033,0.206299
1519649546220,0.849121,0.317871,0.155273
1519649546226,0.664063,0.351318,0.207764
1519649546282,0.540771,0.298096,0.136230
1519649546316,0.565674,0.457520,0.088867
1519649546321,0.709229,0.354248,0.042725
1519649546353,0.949463,0.256104,0.045898
1519649546386,1.173096,0.246094,0.070801
1519649546418,1.496826,0.166748,0.039063
1519649546451,1.246826,0.136963,0.010498
1519649546483,1.122559,0.308350,0.120361
1519649546515,1.147949,0.390137,0.218018
1519649546556,0.846680,0.279785,0.287109
1519649546587,0.792969,0.259033,0.379395
1519649546620,0.968994,0.259277,0.384033
1519649546652,1.053223,0.162598,0.264404
1519649546685,0.905273,0.125488,0.364258
1519649546717,0.691650,0.194092,0.368408
1519649546750,0.586670,0.297363,0.339355
1519649546781,0.614258,0.321777,0.293457
1519649546814,0.724121,0.411621,0.281250
1519649546847,0.849854,0.483887,0.232666
1519649546870,1.140381,0.543701,0.220215
1519649546903,1.390381,0.615479,0.339355
1519649546936,1.354980,0.559082,0.396240
1519649546977,1.424561,0.551270,0.430664
1519649547009,1.432373,0.734863,0.497314
1519649547042,1.139160,0.619629,0.369385
1519649547074,1.015625,0.354248,0.330811
1519649547107,0.964600,0.225342,0.259521
1519649547178,1.072266,0.377686,0.330078
1519649547183,0.998779,0.295166,0.295898
1519649547244,0.775635,0.273438,0.214600
1519649547250,0.593994,0.336426,0.162598
1519649547278,0.569824,0.313965,0.111084
1519649547283,0.644775,0.291260,0.060547
1519649547340,0.812256,0.272461,0.077393
1519649547343,1.114746,0.266846,0.075195
1519649547386,1.424072,0.215820,0.011963
1519649547446,1.103760,0.132813,0.064453
1519649547451,1.096680,0.219727,0.117188
1519649547479,1.292480,0.367920,0.158447
1519649547511,0.929443,0.549316,0.359619
1519649547543,0.793457,0.352539,0.390869
1519649547576,0.842041,0.224609,0.290527
1519649547609,0.973145,0.167969,0.248047
1519649547641,0.886719,0.234131,0.363525
1519649547674,0.684082,0.164551,0.312988
1519649547706,0.595947,0.225586,0.311279
1519649547750,0.628418,0.206787,0.251221
1519649547756,0.665283,0.274170,0.196289
1519649547813,0.886719,0.587891,0.297119
1519649547846,1.098145,0.737305,0.394287
1519649547853,1.389648,0.816406,0.507568
1519649547909,1.362793,0.612549,0.392822
1519649547936,1.439209,0.504883,0.433350
1519649547969,1.358398,0.604004,0.393066
1519649548001,1.218018,0.586182,0.286621
1519649548034,1.146240,0.443115,0.272217
1519649548066,1.215576,0.439941,0.262695
1519649548099,1.309570,0.426514,0.184570
1519649548150,1.053223,0.357422,0.089600
1519649548164,0.817139,0.333008,0.056152
1519649548198,0.724609,0.292725,0.027832
1519649548230,0.711182,0.224121,0.005615
1519649548263,0.798584,0.238770,0.022705
1519649548300,0.902832,0.208008,0.030518
1519649548332,1.045410,0.195313,0.002686
1519649548338,1.256348,0.278809,-0.012695
1519649548394,1.087402,0.264893,0.015381
1519649548427,0.890869,0.294189,0.116211
1519649548434,0.834229,0.404297,0.273193
1519649548490,0.801270,0.306885,0.249512
1519649548522,0.746826,0.361328,0.421387
1519649548555,0.890625,0.407959,0.536865
1519649548569,1.136963,0.247314,0.394531
1519649548601,1.142578,0.190918,0.363281
1519649548634,0.955811,0.270020,0.329834
1519649548668,0.829834,0.363525,0.276611
1519649548725,0.633545,0.443359,0.234863
1519649548758,0.646729,0.377686,0.139648
1519649548790,0.937988,0.408203,0.025391
1519649548822,1.113525,0.604492,0.133789
1519649548855,1.283936,0.696777,0.299805
1519649548887,1.348633,0.474854,0.145996
1519649548919,1.224365,0.396484,0.163818
1519649548924,1.208984,0.683350,0.408447
1519649548952,1.163330,0.985107,0.332031
1519649548993,1.257813,0.799072,0.294434
1519649549026,0.934570,0.453369,0.384033
1519649549059,1.135254,0.488770,0.343994
1519649549092,1.278809,0.459717,0.224121
1519649549125,1.264893,0.252197,0.072998
1519649549158,0.974121,0.031738,0.110107
1519649549190,0.852051,0.070068,0.063721
1519649549223,0.790771,0.246338,0.122803
1519649549260,0.917480,0.326660,0.145264
1519649549292,1.196289,0.324951,0.063721
1519649549325,1.340088,0.275146,-0.001465
1519649549357,0.991699,0.200195,0.122070
1519649549370,0.929199,0.277100,0.172119
1519649549402,1.022461,0.346191,0.114258
1519649549458,0.867920,0.294922,0.132568
1519649549462,0.985596,0.315674,0.212402
1519649549520,1.024658,0.354004,0.199219
1519649549553,1.036621,0.382324,0.211670
1519649549586,0.899170,0.368896,0.251221
1519649549619,0.780029,0.262207,0.161377
1519649549651,0.822266,0.302979,0.118896
1519649549684,0.851563,0.356445,0.143555
1519649549716,0.852051,0.388672,0.124756
1519649549749,1.067871,0.563477,0.134521
1519649549790,1.296631,0.785400,0.193848
1519649549795,1.403076,0.803711,0.290039
1519649549849,1.214111,0.642334,0.323975
1519649549880,1.106201,0.756836,0.409424
1519649549886,1.033936,0.872803,0.447266
1519649549939,1.131348,0.592529,0.318115
1519649549947,1.181152,0.453369,0.304443
1519649550004,1.315918,0.434082,0.211182
1519649550036,1.227539,0.552246,0.053223
1519649550044,1.107910,0.506836,-0.014404
1519649550100,0.815186,0.412842,0.071777
1519649550134,0.815186,0.346680,0.068115
1519649550166,0.683838,0.420410,0.018555
1519649550179,0.764893,0.559814,-0.042236
1519649550219,0.836182,0.250977,-0.197510
1519649550291,1.033936,0.217041,-0.177246
1519649550297,1.150879,0.354004,-0.188965
1519649550359,0.965820,0.231689,-0.126465
1519649550364,1.005615,0.242676,0.024902
1519649550398,1.122559,0.334473,0.131592
1519649550430,1.054443,0.338623,0.147461
1519649550464,1.099121,0.373535,0.291504
1519649550469,1.013428,0.223877,0.282959
1519649550521,1.005371,0.177734,0.585938
1519649550527,0.675049,-0.076416,0.384033
1519649550585,0.730713,0.075928,0.181396
1519649550626,0.697998,0.749023,0.221191
1519649550630,0.833008,0.529785,0.201660
1519649550660,1.008789,0.647217,0.172607
1519649550710,1.113037,0.721924,0.140137
1519649550743,1.236084,0.758789,0.094971
1519649550776,1.342285,0.740234,0.061279
1519649550809,1.291992,0.754395,0.160156
1519649550841,1.297363,0.859131,0.199463
1519649550874,1.092285,0.791748,0.130127
1519649550906,0.986084,0.578125,0.129883
1519649550938,1.101563,0.478516,0.167969
1519649550944,1.304199,0.372070,0.125488
1519649551000,1.103271,0.251465,0.100830
1519649551041,0.827148,0.132324,0.144775
1519649551046,0.665771,0.109375,0.134521
1519649551100,0.702881,0.262939,0.145264
1519649551108,0.836426,0.320313,0.148682
1519649551163,1.006348,0.318604,0.095703
1519649551199,1.295898,0.210449,0.007080
1519649551205,1.231445,0.196533,-0.031738
1519649551264,1.158936,0.291504,0.036621
1519649551296,1.049805,0.333252,0.180908
1519649551329,1.021729,0.333252,0.155273
1519649551361,0.924561,0.403320,0.340088
1519649551376,0.919922,0.302246,0.253906
1519649551408,1.000732,0.088623,0.103516
1519649551450,1.101074,0.019531,0.191162
1519649551483,0.842285,0.243896,0.289063
1519649551514,0.648438,0.316406,0.295166
1519649551548,0.619385,0.216064,0.276123
1519649551580,0.720215,0.212646,0.187500
1519649551612,0.806885,0.333252,0.140625
1519649551621,1.013916,0.441406,0.141602
1519649551677,1.269775,0.605225,0.199707
1519649551709,1.276611,0.647461,0.340332
1519649551742,1.224365,0.517578,0.294434
1519649551775,1.262451,0.779541,0.368164
1519649551808,1.257324,0.732422,0.418945
1519649551839,1.169189,0.606934,0.294189
1519649551853,1.188232,0.601074,0.285645
1519649551911,1.261230,0.424561,0.247559
1519649551944,1.166016,0.319336,0.193848
1519649551991,0.912354,0.162109,0.182129
1519649551997,0.761719,0.185547,0.195313
1519649552024,0.692139,0.144775,0.154785
1519649552057,0.635742,0.143311,0.125488
1519649552090,0.706787,0.250977,0.174316
1519649552122,0.781738,0.191895,0.101563
1519649552158,1.105469,0.207520,0.037109
1519649552191,1.248535,0.215088,-0.024658
1519649552223,1.069336,0.269775,0.017334
1519649552256,1.056885,0.360596,0.145264
1519649552269,1.125000,0.422607,0.178467
1519649552327,0.991455,0.407959,0.407959
1519649552360,0.961426,0.224609,0.325439
1519649552393,1.189453,0.175537,0.350342
1519649552424,1.125488,0.239014,0.451172
1519649552457,0.812256,0.264648,0.379883
1519649552489,0.660400,0.329346,0.341797
1519649552495,0.538086,0.330078,0.331055
1519649552548,0.548096,0.267334,0.257324
1519649552555,0.657471,0.343506,0.249268
1519649552587,0.805664,0.364014,0.169189
1519649552645,1.143555,0.476807,0.192139
1519649552651,1.306396,0.575439,0.283936
1519649552708,1.268555,0.633057,0.366455
1519649552740,1.250977,0.712891,0.440186
1519649552772,1.416992,0.875244,0.403320
1519649552805,1.131836,0.545410,0.232910
1519649552838,1.150635,0.454346,0.315674
1519649552871,1.244873,0.302246,0.282959
1519649552904,1.180664,0.234131,0.217773
1519649552936,0.822754,0.146973,0.205566
1519649552953,0.640625,0.025635,0.122559
1519649552984,0.575195,0.204346,0.120605
1519649553017,0.625000,0.319336,0.148193
1519649553049,0.671875,0.258789,0.084473
1519649553082,0.717285,0.202393,0.082275
1519649553119,1.094971,0.322021,0.160889
1519649553150,1.101318,0.241943,0.121094
1519649553183,1.118164,0.228271,0.100098
1519649553216,1.492676,0.384277,0.131348
1519649553270,1.156738,0.410645,0.354492
1519649553276,1.172119,0.387939,0.353516
1519649553304,1.273438,0.264893,0.240234
1519649553337,1.070313,0.273926,0.327148
1519649553410,0.745361,0.252930,0.351074
1519649553415,0.534668,0.269775,0.190186
1519649553478,0.513672,0.458252,0.145996
1519649553519,0.565918,0.445801,0.098389
1519649553525,0.685791,0.485352,0.109863
1519649553554,0.846436,0.614258,0.246338
1519649553559,0.935059,0.593994,0.247070
1519649553612,1.401611,0.705566,0.267822
1519649553644,1.632568,0.933594,0.319824
1519649553650,1.490234,0.949951,0.308350
1519649553705,1.280029,0.480225,0.215088
1519649553715,1.170410,0.468262,0.196533
1519649553772,1.292969,0.487793,0.236816
1519649553805,1.326416,0.445068,0.197266
1519649553811,1.202637,0.326172,0.212402
1519649553869,0.886475,0.181396,0.086182
1519649553884,0.632324,0.229492,0.048584
1519649553916,0.581543,0.368896,0.075439
1519649553949,0.606934,0.304443,0.043457
1519649553981,0.670410,0.231445,0.042969
1519649554013,0.799805,0.266357,0.033203
1519649554046,0.912109,0.198975,-0.039551
1519649554082,0.875732,0.192139,-0.044922
1519649554114,0.953125,0.307373,0.034912
1519649554147,1.156006,0.352051,0.035156
1519649554180,1.166504,0.524170,0.266602
1519649554212,1.122314,0.427002,0.402832
1519649554245,1.337646,0.378662,0.379883
1519649554277,1.339600,0.034180,0.087402
1519649554318,1.123779,0.506592,0.288818
1519649554351,0.992920,0.751465,0.366455
1519649554383,0.779297,0.711670,0.291016
1519649554416,0.624268,0.451172,0.179932
1519649554449,0.603027,0.439453,0.071777
1519649554482,0.687500,0.689697,0.259521
1519649554513,0.806885,0.673096,0.253662
1519649554551,1.050537,0.607422,0.147949
1519649554585,1.383057,0.813477,0.286377
1519649554617,1.466553,0.442627,0.153809
1519649554625,1.575684,0.587646,0.330811
1519649554677,1.503906,0.393799,0.224121
1519649554686,1.236084,0.163574,0.077637
1519649554721,1.085693,0.334473,0.123047
1519649554756,1.270752,0.476318,0.154785
1519649554786,1.234619,0.352051,0.186768
1519649554820,0.916260,0.173340,0.148438
1519649554852,0.753418,0.144043,0.111816
1519649554893,0.665771,0.170410,0.118896
1519649554925,0.667480,0.180664,0.063477
1519649554958,0.659424,0.208740,0.024902
1519649554990,0.747070,0.233643,0.050293
1519649555021,0.998779,0.254883,0.076904
1519649555056,1.019287,0.234863,0.052979
1519649555089,0.948486,0.220703,0.087158
1519649555094,1.201904,0.389648,0.180908
1519649555151,1.146729,0.432373,0.289795
1519649555185,1.122559,0.325684,0.316162
1519649555194,1.186279,0.328369,0.353760
1519649555248,1.201660,0.257080,0.396240
1519649555279,0.954102,0.280029,0.339844
1519649555312,0.767822,0.349609,0.310303
1519649555344,0.615479,0.407959,0.244385
1519649555377,0.588379,0.395264,0.186523
1519649555408,0.628418,0.332275,0.191895
1519649555442,0.810059,0.330566,0.208008
1519649555475,0.951172,0.364014,0.199707
1519649555492,1.166748,0.506592,0.317383
1519649555547,1.183350,0.336426,0.221191
1519649555580,1.439453,0.507080,0.478027
1519649555611,1.504150,1.063477,0.615479
1519649555645,1.260254,0.719482,0.389404
1519649555678,1.126953,0.647705,0.338623
1519649555687,1.144531,0.450439,0.260742
1519649555736,1.169678,0.415039,0.228760
1519649555745,1.094482,0.277832,0.235840
1519649555776,0.907227,0.157959,0.025146
1519649555830,0.672852,0.128662,0.042969
1519649555838,0.659912,0.188477,0.112549
1519649555894,0.702881,0.225586,0.053223
1519649555907,0.857910,0.304443,0.033936
1519649555939,1.102051,0.294678,-0.017578
1519649555973,1.208984,0.245361,-0.044189
1519649556009,1.074219,0.276611,0.017578
1519649556041,1.078857,0.308838,0.150635
1519649556073,1.205566,0.401123,0.276855
1519649556106,0.961182,0.368652,0.341553
1519649556138,1.148682,0.264893,0.497070
1519649556171,1.151367,0.090332,0.309326
1519649556205,1.064209,0.427490,0.425781
1519649556243,0.921631,0.294678,0.426270
1519649556268,0.719971,0.456055,0.278564
1519649556307,0.548828,0.408447,0.350098
1519649556341,0.504639,0.316162,0.115234
1519649556373,0.629150,0.554443,0.195068
1519649556406,0.949463,0.732422,0.417969
1519649556438,0.958984,0.587891,0.330811
1519649556510,1.228516,1.570313,0.439453
1519649556517,1.065918,0.631348,0.142334
1519649556578,1.170898,-0.365967,0.469482
1519649556586,1.214600,-0.396240,0.606934
1519649556638,1.186768,0.978760,0.678223
1519649556644,0.976563,0.661865,0.604004
1519649556672,0.780762,0.114746,0.188477
1519649556705,0.734863,0.405273,0.290283
1519649556722,0.718994,0.515137,0.394043
1519649556745,0.620361,0.169678,0.343506
1519649556802,0.534424,0.244629,0.212646
1519649556835,0.548584,0.303955,0.209229
1519649556838,0.562744,0.262939,0.234131
1519649556869,0.705322,0.278809,0.103516
1519649556928,1.145264,0.242920,0.191406
1519649556961,1.406250,0.229492,0.114258
1519649556970,1.259521,0.137939,0.145996
1519649557023,1.438965,0.322266,0.160156
1519649557055,1.352539,0.323242,0.224854
1519649557112,1.117432,0.245605,0.333496
1519649557121,1.037598,0.161377,0.347900
1519649557158,1.098145,0.095947,0.398926
1519649557166,0.916748,0.125244,0.241943
1519649557221,0.695068,0.141846,0.350098
1519649557228,0.580078,0.141846,0.368896
1519649557281,0.400391,0.064453,0.111816
1519649557290,0.518799,0.272217,0.257080
1519649557342,0.623291,0.187500,0.331543
1519649557373,0.983398,0.473145,0.268066
1519649557380,1.247803,0.507568,0.242188
1519649557437,1.319824,0.592529,0.268555
1519649557471,1.265625,0.598633,0.323486
1519649557503,1.422852,0.727539,0.479004
1519649557517,1.406250,0.676025,0.403564
1519649557575,1.317139,0.265625,0.235840
1519649557584,1.328369,0.367676,0.221924
1519649557639,1.552246,0.473633,0.257080
1519649557672,1.273682,0.163818,0.148193
1519649557704,0.932373,0.083252,0.174316
1519649557708,0.721436,0.132080,0.181641
1519649557762,0.527832,0.173340,0.125488
1519649557797,0.575684,0.212402,0.079590
1519649557805,0.611084,0.192383,0.061035
1519649557854,0.708984,0.162598,-0.000488
1519649557885,0.918701,0.199707,0.004395
1519649557918,1.083252,0.225830,-0.023682
1519649557932,0.968262,0.230469,0.042725
1519649557964,1.123535,0.407471,0.206543
1519649557997,1.266357,0.478271,0.253662
1519649558029,1.208984,0.358154,0.291016
1519649558088,1.349854,0.429199,0.396973
1519649558121,1.280029,0.328369,0.401855
1519649558153,0.897461,0.096680,0.326416
1519649558187,0.891357,0.252930,0.297363
1519649558218,0.777832,0.401367,0.279785
1519649558250,0.587646,0.384033,0.209229
1519649558283,0.556641,0.311279,0.135498
1519649558291,0.676514,0.377197,0.134521
1519649558341,0.994141,0.583252,0.220215
1519649558349,1.119141,0.550537,0.251221
1519649558391,1.278076,0.573486,0.273926
1519649558452,1.272949,0.590576,0.274902
1519649558457,1.150391,0.684326,0.362549
1519649558485,1.276123,0.834717,0.395020
1519649558517,1.331543,0.526855,0.176270
1519649558558,1.224121,0.354248,0.174316
1519649558582,1.247314,0.301025,0.200439
1519649558614,1.182373,0.368408,0.274170
1519649558647,1.073242,0.198242,0.208008
1519649558680,0.856445,0.086914,0.089600
1519649558713,0.705322,0.183594,0.098145
1519649558771,0.747314,0.241455,0.120117
1519649558780,0.838623,0.250977,0.102295
1519649558834,1.094238,0.250000,0.062988
1519649558865,1.214355,0.247070,0.036865
1519649558874,1.130615,0.228027,0.037354
1519649558926,0.975586,0.271729,0.128662
1519649558929,1.077148,0.356689,0.180420
1519649558960,1.017578,0.277344,0.106934
1519649559019,0.947998,0.340576,0.252930
1519649559027,1.058350,0.416260,0.363770
1519649559081,1.101074,0.285156,0.254639
1519649559114,0.998779,0.329834,0.335938
1519649559147,0.794189,0.319336,0.329590
1519649559180,0.702393,0.331299,0.265381
1519649559212,0.683838,0.342529,0.184570
1519649559246,0.799805,0.404297,0.136230
1519649559278,0.947510,0.448486,0.177002
1519649559311,1.183838,0.546875,0.228271
1519649559344,1.297119,0.594238,0.281738
1519649559352,1.282715,0.546875,0.253662
1519649559401,1.223145,0.715088,0.379150
1519649559433,1.187012,0.883057,0.439697
1519649559465,1.201660,0.693115,0.261963
1519649559498,1.299072,0.365967,0.179443
1519649559530,1.323975,0.309326,0.230957
1519649559562,1.448975,0.391113,0.296875
1519649559636,1.252930,0.218994,0.145752
1519649559645,0.936523,0.125732,0.134766
1519649559705,0.746094,0.134766,0.112793
1519649559713,0.645264,0.259277,0.083008
1519649559770,0.761719,0.268066,0.087646
1519649559774,0.812500,0.220947,0.047852
1519649559785,0.895264,0.195313,0.000977
1519649559816,0.965820,0.215332,0.012695
1519649559822,0.974365,0.250977,0.027588
1519649559885,1.000977,0.354980,0.166016
1519649559894,1.150391,0.421143,0.191406
1519649559948,1.100342,0.360596,0.225098
1519649559979,1.219971,0.403320,0.375977
1519649560011,1.268799,0.346680,0.288086
1519649560044,1.145020,0.210449,0.289307
1519649560077,0.879883,0.296143,0.297852
1519649560110,0.790771,0.347656,0.291748
1519649560144,0.652100,0.366943,0.255615
1519649560175,0.601074,0.364990,0.178711
1519649560208,0.656494,0.401855,0.155273
1519649560241,0.817139,0.504883,0.140137
1519649560274,1.116455,0.533447,0.223633
1519649560305,1.272217,0.517090,0.248779
1519649560313,1.364502,0.586914,0.273438
1519649560369,1.481934,0.909424,0.409180
1519649560402,1.365234,0.793945,0.350342
1519649560407,1.213867,0.510010,0.222168
1519649560461,1.196289,0.399170,0.191406
1519649560494,1.302734,0.414551,0.207520
1519649560525,1.228516,0.424805,0.224121
1519649560558,1.027832,0.279053,0.221680
1519649560591,0.840088,0.203125,0.129639
1519649560624,0.708984,0.067383,0.068604
1519649560657,0.689697,0.284180,0.136719
1519649560690,0.754395,0.302002,0.142090
1519649560721,0.904785,0.251221,0.067383
1519649560755,1.071289,0.196777,0.025879
1519649560787,1.160645,0.208008,0.027344
1519649560819,1.017578,0.251221,0.058838
1519649560856,0.959961,0.310303,0.110107
1519649560889,1.059082,0.417236,0.114014
1519649560898,0.962891,0.424561,0.220215
1519649560952,0.977295,0.384033,0.330322
1519649560969,1.108154,0.349121,0.265137
1519649561000,1.196533,0.242676,0.176758
1519649561058,1.025146,0.292480,0.247314
1519649561064,0.759766,0.355225,0.257080
1519649561092,0.656738,0.328857,0.214111
1519649561127,0.652588,0.352295,0.153809
1519649561158,0.741943,0.411133,0.153076
1519649561191,0.908936,0.498535,0.185303
1519649561222,1.100342,0.552490,0.212891
1519649561255,1.225830,0.571289,0.251953
1519649561290,1.280518,0.591064,0.279541
1519649561320,1.467041,0.798096,0.417480
1519649561353,1.385498,0.774170,0.340332
1519649561385,1.266602,0.619141,0.293945
1519649561417,1.093750,0.440918,0.307373
1519649561451,1.196533,0.449219,0.306641
1519649561482,1.312012,0.432617,0.285645
1519649561541,1.118652,0.266846,0.163086
1519649561546,0.909912,0.154053,0.155273
1519649561574,0.791748,0.082031,0.146729
1519649561633,0.669434,0.249023,0.109131
1519649561641,0.729980,0.285400,0.089600
1519649561691,0.794189,0.292480,0.041016
1519649561724,1.248047,0.257568,0.005859
1519649561756,1.437988,0.219727,-0.092041
1519649561765,1.010986,0.167725,-0.059082
1519649561803,0.946289,0.342773,0.095947
1519649561835,1.079834,0.419922,0.082275
1519649561868,0.837158,0.426758,0.165039
1519649561924,0.729980,0.372314,0.327881
1519649561957,0.855957,0.359619,0.308838
1519649561963,0.996338,0.277832,0.208740
1519649562020,1.006592,0.245361,0.259033
1519649562025,0.898438,0.373779,0.326660
1519649562053,0.839844,0.408691,0.370605
1519649562087,0.732666,0.301025,0.305664
1519649562120,0.760254,0.367432,0.226318
1519649562153,0.886475,0.534424,0.282715
1519649562184,1.189941,0.625732,0.330566
1519649562231,1.355469,0.604980,0.355225
1519649562264,1.280518,0.564209,0.354736
1519649562297,1.516846,0.783447,0.504150
1519649562328,1.305420,0.680176,0.358398
1519649562333,1.148193,0.458252,0.229004
1519649562391,1.205811,0.407715,0.233887
1519649562423,1.343750,0.418701,0.195557
1519649562429,1.319336,0.416748,0.222168
1519649562487,1.101807,0.163086,0.171631
1519649562501,0.847900,0.134277,0.147949
1519649562533,0.706055,0.163574,0.146240
1519649562590,0.619629,0.281250,0.093262
1519649562598,0.681641,0.305176,0.102783
1519649562654,0.836182,0.257080,0.081787
1519649562686,1.100830,0.171631,0.002686
1519649562759,1.154541,0.173584,-0.007324
1519649562767,0.981689,0.212158,0.027100
1519649562826,1.007568,0.313965,0.074707
1519649562834,1.122314,0.446533,0.104248
1519649562877,0.939697,0.448486,0.254150
1519649562891,0.923828,0.342285,0.305420
1519649562896,1.102539,0.356689,0.295654
1519649562929,1.228760,0.372803,0.335449
1519649562962,0.906250,0.245850,0.322754
1519649562994,0.682129,0.189697,0.296631
1519649563026,0.639893,0.246582,0.251709
1519649563085,0.636963,0.325439,0.142578
1519649563093,0.745605,0.463379,0.135010
1519649563117,1.033203,0.655273,0.261230
1519649563177,1.054688,0.608887,0.344238
1519649563185,1.198730,0.610352,0.385742
1519649563211,1.248535,0.624512,0.376709
1519649563268,1.285156,0.674316,0.390381
1519649563301,1.385010,0.753662,0.394775
1519649563314,1.348145,0.664551,0.268555
1519649563347,1.238281,0.469727,0.220947
1519649563380,1.224121,0.423096,0.238770
1519649563412,1.345215,0.381836,0.228271
1519649563443,1.135742,0.274658,0.156982
1519649563511,0.916016,0.101318,0.095459
1519649563519,0.750000,0.116699,0.081787
1519649563544,0.655518,0.287354,0.116455
1519649563576,0.776855,0.299805,0.079102
1519649563610,0.958984,0.231445,0.036621
1519649563642,1.260010,0.186279,-0.048584
1519649563675,1.228027,0.208984,-0.063721
1519649563708,1.001221,0.300537,0.061279
1519649563729,1.059570,0.376953,0.145020
1519649563755,0.963867,0.400146,0.133301
1519649563814,0.915039,0.389404,0.252686
1519649563847,1.051025,0.374023,0.322998
1519649563880,1.097168,0.224365,0.168213
1519649563912,1.105469,0.169678,0.137451
1519649563944,0.800537,0.324219,0.290283
1519649563977,0.650635,0.323730,0.262695
1519649564007,0.670898,0.324463,0.180908
1519649564040,0.797119,0.474365,0.175537
1519649564072,0.994629,0.573975,0.190674
1519649564075,1.125000,0.645508,0.267090
1519649564135,1.253662,0.605469,0.326904
1519649564168,1.249023,0.582031,0.296143
1519649564176,1.220215,0.590576,0.313232
1519649564229,1.302979,0.814941,0.389404
1519649564262,1.288574,0.745361,0.347656
1519649564297,1.138184,0.463623,0.237305
1519649564326,1.131348,0.361816,0.225586
1519649564359,1.317627,0.415527,0.212158
1519649564393,1.124023,0.394043,0.228760
1519649564425,0.882813,0.244141,0.171143
1519649564457,0.714844,0.193115,0.114014
1519649564490,0.626221,0.225098,0.070801
1519649564523,0.699219,0.281006,0.088379
1519649564531,0.816895,0.293701,0.075928
1519649564592,1.144775,0.318115,0.054199
1519649564625,1.527344,0.313965,0.045898
1519649564628,1.158691,0.140137,0.059326
1519649564660,0.930908,0.051758,0.066650
1519649564699,1.104004,0.345703,0.125244
1519649564731,1.020752,0.379150,0.090088
1519649564764,0.853760,0.267822,0.132568
