1519649273913,0.338623,1.018555,-0.209961
1519649273991,-0.444336,1.503906,-0.025635
1519649273993,0.398193,2.160645,-0.069580
1519649273995,1.229980,0.561523,0.941650
1519649274053,-0.125977,2.370850,0.986084
1519649274087,-0.127930,1.310303,0.219971
1519649274097,-0.638184,0.201660,0.216309
1519649274176,-1.760742,1.236816,-0.347412
1519649274180,-0.563232,1.370605,-1.042480
1519649274238,-0.065186,0.858154,-1.204834
1519649274242,0.161133,1.559814,-0.688232
1519649274311,1.088623,0.519043,-0.409668
1519649274317,0.474121,0.893066,0.257324
1519649274379,0.161377,0.435303,-0.008789
1519649274385,0.373535,0.611816,-0.281982
1519649274435,0.019043,0.858643,-0.078613
1519649274444,0.023682,0.161621,0.079834
1519649274495,-0.146973,0.305908,0.141602
1519649274500,-0.258545,1.287842,-0.485596
1519649274528,-0.494629,1.407715,-0.138672
1519649274570,-0.344971,1.979980,-0.368652
1519649274578,-0.879883,1.615723,0.222656
1519649274637,-0.434814,1.370361,-0.553711
1519649274651,-0.219971,0.696777,-0.342285
1519649274703,0.270020,0.614746,-0.315918
1519649274761,0.280273,0.612549,-0.084229
1519649274767,-0.034424,0.694336,0.163330
1519649274822,-0.198242,0.738525,-0.088379
1519649274831,-0.167236,0.263916,-0.001709
1519649274882,-0.158691,0.762207,-0.132568
1519649274885,-0.134033,1.024170,-0.292236
1519649274949,-0.199219,0.355225,-0.250977
1519649274958,-0.367676,2.054932,-0.182617
1519649275011,-0.305176,1.999023,0.129639
1519649275017,-0.094482,1.165771,0.078613
1519649275071,-0.140137,1.563477,0.303223
1519649275080,-0.000732,1.861816,-0.043945
1519649275132,-0.183105,1.464600,-0.025635
1519649275192,-0.094238,1.082031,-0.060791
1519649275200,0.068848,0.710693,-0.174561
1519649275253,0.240723,0.362549,-0.168945
1519649275258,0.241943,0.712158,-0.417480
1519649275311,0.213379,1.213135,-0.332764
1519649275314,0.381348,0.887451,0.356934
1519649275371,0.447998,0.573486,0.353271
1519649275375,0.255127,0.513916,0.033936
1519649275434,-0.018799,0.849121,-0.320068
1519649275442,0.127930,0.952881,0.034668
1519649275514,0.201172,1.179688,0.154053
1519649275560,-0.161377,2.067627,0.044922
1519649275569,-0.515869,1.231201,0.700439
1519649275578,-0.111328,0.322510,0.232178
1519649275615,0.033447,1.473145,0.024658
1519649275668,0.520264,1.499268,0.023682
1519649275671,0.970947,0.620850,0.400146
1519649275787,-0.033936,0.342529,-0.096680
1519649275791,-0.218750,0.413086,-0.065918
1519649275900,0.149902,1.187500,0.045898
1519649275902,0.834717,1.341553,-0.003174
1519649275954,0.034424,1.224121,0.279053
1519649275963,0.657959,1.171143,-0.030518
1519649275971,0.422363,1.286133,-0.144043
1519649275977,0.910645,0.630371,0.345703
1519649275980,0.995361,1.229004,0.640381
1519649276018,0.406006,1.451660,0.569824
1519649276022,0.534912,0.331299,-0.126221
1519649276080,0.001221,2.406738,-0.266357
1519649276086,0.053955,0.601318,-0.625244
1519649276140,0.993896,0.498291,-0.287354
1519649276149,0.864746,0.886230,-0.204834
1519649276199,0.458984,1.343750,0.160400
1519649276202,0.000977,1.200195,-0.711914
1519649276260,0.380371,-0.491211,-0.458252
1519649276270,0.498779,0.525635,0.146240
1519649276321,0.220703,1.179443,0.319336
1519649276330,0.373779,1.256348,0.887451
1519649276379,0.496826,0.216797,0.657959
1519649276388,0.598389,0.177490,-0.757080
1519649276458,1.487061,2.323486,1.391602
1519649276461,0.501221,0.015625,0.254395
1519649276514,1.181641,2.118408,-1.078369
1519649276524,0.603027,1.579102,-0.295410
1519649276571,1.406494,1.375244,-0.231934
1519649276626,1.095703,0.278320,0.096680
1519649276632,0.394287,1.466553,0.376709
1519649276680,-0.011719,0.717285,0.341309
1519649276684,-0.025635,0.486328,0.311768
1519649276736,-0.082520,0.208496,0.304199
1519649276801,-0.088135,-0.027588,0.212646
1519649276810,-0.189941,-0.261230,0.119141
1519649276818,-0.166992,1.109863,0.309326
1519649276857,0.129639,0.961914,0.368652
1519649276865,0.855469,1.140381,0.105469
1519649276912,1.196777,1.413574,0.152588
1519649276966,0.498535,1.311768,-0.498535
1519649276971,1.090332,1.399902,-0.979248
1519649277020,0.662842,1.109131,-0.843750
1519649277075,0.613281,0.211914,-0.162109
1519649277082,1.144531,1.312256,-0.339600
1519649277129,0.825195,0.809082,-0.214844
1519649277144,0.600342,-0.166260,-0.160400
1519649277188,0.511719,-0.026367,0.037109
1519649277192,0.384766,0.133057,0.101318
1519649277244,0.304443,0.381836,0.140869
1519649277299,0.327393,0.343506,0.168457
1519649277307,0.489258,0.763672,0.156738
1519649277359,0.627197,1.396484,-0.000977
1519649277371,0.998535,1.393066,0.774170
1519649277414,0.204590,1.594971,0.132080
1519649277421,0.602051,1.841797,0.139160
1519649277472,1.083496,0.734619,0.124512
1519649277527,1.436768,0.473389,0.312012
1519649277535,0.994629,0.581543,0.282471
1519649277581,0.650879,0.864746,0.264893
1519649277590,0.289795,0.787598,0.177490
1519649277635,-0.011230,0.499756,0.164307
1519649277691,-0.045654,0.353027,0.113770
1519649277699,-0.086426,0.281250,0.116455
1519649277744,-0.171143,0.331055,0.249512
1519649277750,0.156006,0.379639,0.237305
1519649277806,1.049561,1.084229,0.128174
1519649277862,0.846191,2.383057,0.480713
1519649277865,0.287354,1.440918,-0.164063
1519649277868,1.073486,0.926514,-0.235352
1519649277917,1.025635,0.728516,-0.323730
1519649277972,1.045654,0.884766,-0.330811
1519649277981,1.011230,0.961182,-0.200439
1519649278032,0.693115,0.826416,-0.001465
1519649278040,0.466797,0.635254,0.040283
1519649278086,0.318604,0.394043,0.132568
1519649278140,0.237793,0.246582,0.260742
1519649278146,0.163330,0.049805,0.053955
1519649278196,0.138916,-0.012695,-0.047852
1519649278204,0.349854,0.601074,-0.015137
1519649278251,0.545410,1.169678,-0.086670
1519649278266,0.637207,1.388672,-0.107178
1519649278316,1.192383,2.195068,1.088135
1519649278335,-0.086182,1.621338,0.001709
1519649278378,0.527100,0.912354,-0.112793
1519649278429,1.515869,1.050049,0.205566
1519649278473,1.287354,0.718262,0.208008
1519649278513,1.027344,0.365479,0.194336
1519649278516,0.767334,0.648926,0.339355
1519649278566,0.327881,1.023682,0.286621
1519649278572,-0.034912,0.941650,0.163574
1519649278609,0.052246,0.405518,0.100342
1519649278652,-0.007080,0.238525,0.166992
1519649278704,-0.056885,0.105225,0.204590
1519649278714,-0.010498,0.089600,0.296143
1519649278747,0.776367,1.059082,0.252197
1519649278790,1.193359,2.305176,0.424561
1519649278886,0.141357,1.402588,0.076660
1519649279021,1.554932,0.780029,-0.379395
1519649279026,0.734375,0.927246,-0.387207
1519649279064,1.086426,0.534424,-0.305420
1519649279105,1.062012,0.713867,0.161377
1519649279158,1.086426,1.048584,0.104248
1519649279167,0.387939,1.041992,-0.168945
1519649279175,0.224854,0.806885,-0.036865
1519649279183,0.158691,0.447266,0.176025
1519649279189,0.238525,0.161621,0.115967
1519649279194,0.198486,0.313965,0.028320
1519649279198,0.271973,0.483154,-0.026123
1519649279201,0.505859,0.576660,-0.071045
1519649279204,0.525879,0.616699,0.076416
1519649279230,0.423584,1.273682,0.856445
1519649279296,1.024658,1.315674,-0.208984
1519649279305,0.845947,2.133301,-0.592285
1519649279329,0.850830,1.735107,-0.245605
1519649279358,1.104248,0.583984,0.003418
1519649279434,1.052979,0.255615,0.125977
1519649279439,0.707520,0.691162,0.095459
1519649279468,0.330078,0.965332,0.047363
1519649279473,0.200928,0.829102,0.084717
1519649279531,0.104248,0.522949,0.104248
1519649279563,-0.018311,0.495850,0.086914
1519649279620,0.029053,0.407715,0.045654
1519649279626,0.095215,0.413818,0.148926
1519649279654,0.556885,1.038086,0.165527
1519649279687,0.814697,1.666016,0.117188
1519649279725,0.591797,1.416992,0.304443
1519649279804,0.754395,0.767090,0.152344
1519649279813,1.044922,1.117188,-0.143066
1519649279823,0.913086,0.936035,-0.388672
1519649279855,0.787598,0.547852,-0.326416
1519649279887,0.591553,1.059814,-0.010010
1519649279896,0.524658,1.266357,0.036621
1519649279980,0.445313,0.854492,0.025391
1519649279987,0.407715,0.544922,0.114258
1519649280012,0.379150,0.283936,0.122803
1519649280045,0.291992,0.179688,0.104492
1519649280052,0.269531,0.397217,0.066650
1519649280109,0.377197,0.777344,-0.025879
1519649280164,0.667725,1.061035,-0.114746
1519649280167,0.771484,1.177002,0.022949
1519649280198,0.493652,1.497314,0.596924
1519649280231,0.820068,1.864502,-0.194336
1519649280264,0.866943,1.377441,-0.094482
1519649280297,0.829102,0.852051,0.219727
1519649280353,1.218750,0.269287,0.252441
1519649280361,0.821533,0.479248,0.198242
1519649280386,0.521729,0.743896,0.220459
1519649280442,0.023682,0.704346,0.219482
1519649280444,-0.060303,0.511475,0.135254
1519649280475,-0.092773,0.422607,0.115234
1519649280537,-0.045410,0.450195,0.115479
1519649280539,-0.067627,0.534424,0.316162
1519649280570,0.306396,0.912598,0.406006
1519649280615,0.935059,1.810303,0.338135
1519649280639,0.621338,1.420654,0.327637
1519649280676,0.742432,1.013184,-0.098389
1519649280724,0.867432,1.275879,-0.142090
1519649280738,0.901611,0.899414,-0.085205
1519649280771,0.832764,0.532471,-0.083740
1519649280830,0.736084,0.989990,0.029541
1519649280862,0.610596,0.960938,0.051758
1519649280871,0.479492,0.647949,0.093750
1519649280917,0.312500,0.356201,0.207275
1519649280949,0.235107,0.148682,0.169922
1519649280954,0.249023,0.082764,0.115234
1519649281008,0.373047,0.626953,0.080566
1519649281022,0.551514,1.018311,0.129395
1519649281054,0.724609,1.177979,0.071777
1519649281101,0.730469,1.113770,0.319580
1519649281135,0.522217,1.360596,0.623535
1519649281168,0.694336,1.660400,-0.019775
1519649281200,0.625732,1.001465,0.322998
1519649281234,1.237549,0.301270,0.301514
1519649281284,1.095459,0.612549,0.436768
1519649281292,0.759521,0.505371,0.284912
1519649281316,0.402344,0.652100,0.258057
1519649281375,0.104004,0.685059,0.206543
1519649281407,0.034180,0.427979,0.163330
1519649281470,-0.063477,0.350586,0.195313
1519649281479,-0.160400,0.458496,0.460938
1519649281488,0.060059,0.915771,0.386719
1519649281516,0.749756,1.300293,0.281494
1519649281549,0.951660,1.391602,0.534912
1519649281581,1.045654,1.102051,0.187988
1519649281613,1.121094,1.198975,0.136475
1519649281659,0.986084,0.824463,0.011963
1519649281663,0.857422,0.725342,-0.103760
1519649281722,0.749512,1.042725,-0.098877
1519649281759,0.653320,1.078613,-0.003174
1519649281787,0.449707,0.687012,0.067139
1519649281842,0.385010,0.441162,0.155518
1519649281851,0.279541,0.232666,0.194580
1519649281881,0.228271,0.180664,0.184570
1519649281961,0.245850,0.314209,0.220947
1519649281966,0.371582,0.756592,0.129639
1519649282039,0.697998,0.800049,0.026123
1519649282042,0.959717,1.355957,-0.070801
1519649282045,0.799072,1.305176,-0.020508
1519649282099,0.686279,1.885254,0.956787
1519649282102,0.407715,1.704834,0.061279
1519649282114,0.927246,0.860107,0.105469
1519649282175,0.760254,0.569336,0.225586
1519649282220,1.064453,0.412354,0.143799
1519649282223,0.892334,0.398682,0.235352
1519649282276,0.503418,0.622314,0.195557
1519649282284,0.203857,0.648682,0.174316
1519649282337,0.023682,0.523193,0.133057
1519649282391,0.007324,0.282471,0.240723
1519649282399,-0.126221,0.483643,0.379150
1519649282408,0.164063,0.714844,0.248047
1519649282445,0.694580,1.570313,0.225342
1519649282499,0.913330,1.755371,0.541260
1519649282507,0.675049,1.115234,0.104980
1519649282553,1.077637,1.077148,-0.136963
1519649282608,0.861816,0.931152,-0.190674
1519649282611,0.910400,0.680176,-0.250244
1519649282663,0.746826,0.929199,-0.163818
1519649282667,0.772461,1.169434,-0.053711
1519649282711,0.597168,0.970703,0.000977
1519649282773,0.379639,0.429443,0.124512
1519649282819,0.270020,0.098145,0.153320
1519649282829,0.212402,0.170410,0.168701
1519649282874,0.155273,0.189209,0.021973
1519649282921,0.320557,0.809326,0.092773
1519649282938,0.478027,1.072510,0.065674
1519649282956,0.686279,1.225342,0.012207
1519649282987,1.007568,1.374512,0.703369
1519649282990,0.860840,1.337402,0.472168
1519649283044,0.758301,1.732666,-0.093994
1519649283098,0.906250,1.260010,-0.025879
1519649283103,0.469482,0.706055,0.173340
1519649283134,0.924561,0.197266,0.045166
1519649283153,0.924316,0.325195,0.122314
1519649283206,0.676270,0.588623,0.211182
1519649283211,0.370361,0.663574,0.168945
1519649283266,0.144531,0.772949,0.192627
1519649283314,0.017334,0.607422,0.218506
1519649283323,0.040527,0.635986,0.338623
1519649283363,0.098633,0.504639,0.258301
1519649283406,0.333984,0.664795,0.180176
1519649283451,0.726807,1.378662,0.233887
1519649283460,0.687012,1.721924,0.426758
1519649283500,0.682373,1.209717,0.077881
1519649283542,0.828613,1.190430,0.070801
1519649283586,0.768066,0.829590,-0.039063
1519649283602,0.769043,0.556396,-0.079590
1519649283610,0.714111,0.811768,-0.064453
1519649283637,0.716064,0.954590,-0.027100
1519649283682,0.608398,0.741699,-0.007080
1519649283722,0.468262,0.432373,0.087402
1519649283728,0.361328,0.192871,0.194336
1519649283774,0.290283,0.088379,0.153809
1519649283819,0.194336,0.397217,0.148193
1519649283860,0.311523,0.773193,0.203125
1519649283912,0.486084,1.151367,0.128662
1519649283956,0.739990,1.347656,0.071045
1519649283996,1.043213,1.618408,0.683838
1519649284042,0.774902,1.513428,0.241211
1519649284046,0.860840,1.549561,-0.053223
1519649284049,0.503662,0.799072,-0.083252
1519649284078,0.575439,0.835449,0.191162
1519649284110,0.971680,0.303955,-0.032959
1519649284158,0.935059,0.402100,0.040283
1519649284166,0.605957,0.487061,0.156494
1519649284195,0.332275,0.468018,0.164795
1519649284222,0.144531,0.482178,0.160645
1519649284255,0.093506,0.425537,0.164307
1519649284289,0.046143,0.407227,0.242676
1519649284322,0.009033,0.711426,0.286621
1519649284353,0.451904,1.046387,0.149902
1519649284397,1.067383,2.129395,0.160400
1519649284427,0.979248,1.818848,0.186035
1519649284441,0.811523,0.616211,-0.126465
1519649284474,0.764648,0.947510,-0.072998
1519649284506,1.020020,0.900879,-0.194580
1519649284541,0.827881,0.567627,-0.249512
1519649284574,0.833252,0.833252,-0.183105
1519649284607,0.710938,0.999756,-0.086914
1519649284638,0.567383,0.632080,-0.056396
1519649284687,0.392090,0.342285,0.044189
1519649284696,0.299072,0.108398,0.142334
1519649284721,0.235352,0.096436,0.118164
1519649284779,0.231445,0.651367,0.106689
1519649284792,0.326660,1.113281,0.116455
1519649284825,0.464355,1.027832,0.136963
1519649284874,0.927979,1.536621,0.441650
1519649284906,0.880859,1.180664,0.481934
1519649284939,0.543701,1.208008,0.004639
1519649284971,0.939941,1.304932,-0.033936
1519649285003,0.587158,0.732666,0.024414
1519649285006,1.115967,0.525146,0.121582
1519649285076,0.932861,0.515137,0.334717
1519649285144,0.721680,0.713623,0.222656
1519649285149,0.495117,0.693359,0.172363
1519649285208,0.068848,0.761230,0.189453
1519649285221,0.019043,0.612549,0.105957
1519649285230,-0.037109,0.468506,0.085205
1519649285250,-0.092041,0.570313,0.283936
1519649285284,0.175293,0.605225,0.329834
1519649285315,0.546875,0.907715,0.313965
1519649285347,0.746094,1.774902,0.416016
1519649285381,0.371338,1.374512,0.484863
1519649285408,0.469971,1.185791,0.172363
1519649285442,0.340088,1.291748,-0.030029
1519649285475,0.603271,1.102783,-0.083008
1519649285511,0.704102,0.942627,0.010254
1519649285545,0.527832,0.771729,-0.123291
1519649285595,0.424561,0.870605,-0.102783
1519649285600,0.340332,0.895752,-0.006104
1519649285651,0.276123,0.582764,0.033936
1519649285684,0.244385,0.379639,0.072266
1519649285689,0.249756,0.323242,0.101318
1519649285805,0.302734,0.410889,0.118164
1519649285814,0.458496,0.724365,0.131104
1519649285823,0.618164,1.020264,0.139404
1519649285839,0.899658,1.385986,0.158447
1519649285872,1.006348,1.260498,0.260498
1519649285905,0.909424,0.923828,0.471436
1519649285938,0.712891,1.258301,-0.021729
1519649285990,0.828613,1.300781,-0.050537
1519649285998,0.407715,0.908203,0.122070
1519649286028,0.911865,0.333496,0.089111
1519649286060,1.016113,0.385986,0.202393
1519649286092,0.804199,0.471191,0.176025
1519649286125,0.314941,0.563721,0.126709
1519649286174,0.212158,0.532959,0.173584
1519649286177,0.089600,0.389404,0.185791
1519649286234,0.044189,0.345215,0.244873
1519649286266,0.026855,0.667969,0.386719
1519649286275,0.293701,1.098389,0.320068
1519649286356,0.792236,1.622314,0.240479
1519649286366,0.772461,1.902100,0.651611
1519649286374,0.533691,0.846924,0.043701
1519649286399,0.951172,1.143799,-0.052002
1519649286432,0.842773,1.069092,-0.091309
1519649286470,1.062256,0.764893,-0.194092
1519649286533,0.784424,0.741699,-0.197266
1519649286541,0.662354,1.017090,-0.048828
1519649286565,0.506104,0.743896,0.034424
1519649286623,0.327637,0.403809,0.091309
1519649286628,0.231689,0.199219,0.168701
1519649286685,0.204102,0.068359,0.116943
1519649286717,0.225830,0.313965,0.111084
1519649286753,0.477051,0.903320,0.198486
1519649286757,0.745605,1.283203,0.180908
1519649286814,0.925293,1.170654,0.050781
1519649286819,0.859619,1.149658,0.388916
1519649286847,0.788574,1.238525,0.463379
1519649286906,0.927246,1.342529,-0.114502
1519649286915,0.553955,0.939941,0.181152
1519649286969,0.798340,0.380859,0.057373
1519649287000,1.057129,0.381836,0.123779
1519649287039,0.821777,0.519043,0.185791
1519649287046,0.515381,0.706787,0.202393
1519649287089,0.189209,0.606445,0.201904
1519649287139,0.041504,0.501709,0.219971
1519649287184,-0.007568,0.414307,0.248535
1519649287227,-0.053223,0.489258,0.372559
1519649287241,-0.025879,0.800293,0.235107
1519649287245,0.455322,1.275146,0.076416
1519649287315,0.961914,1.967041,0.474121
1519649287318,1.157959,1.325439,-0.004883
1519649287365,0.879639,0.916260,-0.081787
1519649287367,1.040283,0.891602,-0.119141
1519649287408,0.907227,0.401123,-0.213623
1519649287449,0.773682,0.513428,-0.221680
1519649287457,0.753662,1.037598,-0.118652
1519649287508,0.637207,0.998047,-0.078857
1519649287552,0.489746,0.669922,-0.046387
1519649287594,0.376709,0.421387,0.140869
1519649287643,0.265137,0.225098,0.152588
1519649287699,0.222412,0.157715,0.083740
1519649287705,0.265137,0.476074,0.074951
1519649287711,0.462891,0.887207,0.143311
1519649287757,0.668213,1.090088,0.041260
1519649287764,1.036377,1.000488,0.187500
1519649287791,0.854492,1.343018,0.423340
1519649287834,0.642090,1.549561,-0.208496
1519649287878,0.861084,1.294678,-0.253662
1519649287921,0.640625,0.853760,-0.015869
1519649287927,1.051514,0.282959,0.065186
1519649287970,0.940918,0.358154,0.057861
1519649288014,0.720459,0.786865,0.109375
1519649288059,0.424561,0.841553,0.202393
1519649288073,0.122559,0.669434,0.132324
1519649288078,0.012939,0.604736,0.135254
1519649288107,0.014893,0.654297,0.239746
1519649288206,0.025146,0.576660,0.233154
1519649288209,0.081299,0.402100,0.193115
1519649288276,0.526855,0.805664,0.066406
1519649288280,1.065186,1.561523,0.398682
1519649288350,0.692871,1.230469,0.494141
1519649288356,0.657715,0.732178,-0.079834
1519649288362,0.944336,1.463135,-0.282227
1519649288367,0.968750,1.183838,-0.305908
1519649288400,0.766357,0.704102,-0.108154
1519649288458,0.809570,0.916504,0.099121
1519649288464,0.626221,0.834717,0.010254
1519649288518,0.357666,0.667725,0.031982
1519649288523,0.223633,0.518799,0.121338
1519649288581,0.210938,0.338135,0.124512
1519649288613,0.411377,0.333740,0.074707
1519649288619,0.328369,0.330078,-0.059570
1519649288732,0.219482,0.541016,-0.023193
1519649288738,0.099609,0.887451,0.164063
1519649288743,0.218750,1.718018,0.147949
1519649288766,0.330322,1.818359,0.193359
1519649288772,0.244629,1.150146,-0.035156
1519649288830,0.398193,1.102539,-0.128906
1519649288862,0.862793,0.956543,-0.142090
1519649288906,1.243896,0.764893,-0.005615
1519649288920,1.073975,0.553711,0.242188
1519649288954,0.898682,0.660400,0.072510
1519649288986,0.700439,1.086670,0.189941
1519649289019,0.301758,1.174561,0.137695
1519649289054,0.075195,0.691162,0.051025
1519649289103,-0.076904,0.458984,0.102051
1519649289108,0.026855,0.398193,0.060791
1519649289137,0.026611,0.376953,0.120361
1519649289195,0.273438,0.504395,0.081299
1519649289227,0.488525,1.357666,0.025391
1519649289235,0.379883,1.801270,0.338379
1519649289293,1.135254,0.898682,-0.165771
1519649289326,0.758057,1.240723,-0.269531
1519649289339,1.218750,0.906738,-0.307129
1519649289375,0.822510,0.779541,-0.243164
1519649289408,0.822021,0.966309,-0.058350
1519649289441,0.454590,1.173096,-0.127686
1519649289489,0.233398,0.800537,-0.010010
1519649289521,0.221436,0.569092,0.278320
1519649289530,0.088623,0.326904,0.128418
1519649289555,0.215088,0.260498,0.042969
1519649289599,0.523438,0.466553,0.049316
1519649289647,0.616699,0.503662,-0.004150
1519649289652,0.801514,0.700439,-0.099121
1519649289706,0.666992,1.332520,0.099609
1519649289739,0.186279,1.400879,-0.103760
1519649289752,0.763428,1.440674,-0.302002
1519649289835,1.624268,1.202637,0.164795
1519649289843,1.259277,0.684082,0.246582
1519649289863,0.994873,0.507324,0.030273
1519649289895,0.849121,0.453613,0.060547
1519649289927,0.271484,0.577637,0.065186
1519649289934,-0.218262,0.186279,0.036133
1519649289991,-0.265625,0.416748,-0.032715
1519649290048,-0.618896,0.830566,0.254883
1519649290054,0.022705,1.000732,0.160889
1519649290082,1.215576,1.072998,0.113525
1519649290115,0.915039,1.651855,0.233643
1519649290147,0.870605,1.632568,0.450684
1519649290189,0.273438,1.010254,-0.246338
1519649290235,1.516357,0.753662,-0.198730
1519649290244,0.963867,0.736572,-0.282959
1519649290267,1.112305,0.452393,-0.288574
1519649290301,1.125732,0.581787,-0.238770
1519649290337,0.687744,1.039063,-0.197021
1519649290370,0.448730,0.758057,-0.152588
1519649290422,0.226318,0.556885,0.393066
1519649290437,0.251709,0.047852,0.053223
1519649290487,0.311523,0.352051,0.135254
1519649290520,0.464600,0.570801,0.014160
1519649290529,0.586182,0.743896,-0.020020
1519649290613,1.031982,0.911621,0.236572
1519649290619,1.052246,1.556152,0.928711
1519649290624,0.898682,1.458984,0.274170
1519649290668,0.968750,1.220947,-0.201904
1519649290702,0.660889,0.945557,-0.037598
1519649290735,0.995361,0.386475,-0.158447
1519649290795,1.200928,0.170410,0.212402
1519649290798,0.635742,0.182373,0.215576
1519649290831,0.331055,0.159668,0.083008
1519649290880,-0.166992,0.901367,-0.032715
1519649290888,-0.162842,0.439453,0.161621
1519649290912,-0.169678,0.922363,0.044922
1519649290951,0.384521,1.001465,0.274902
1519649290989,0.770752,1.167236,0.436279
1519649291021,1.564453,0.856445,0.378662
1519649291054,0.782471,1.489990,0.630859
1519649291062,0.824951,0.949707,-0.161133
1519649291119,1.297363,0.839355,-0.141602
1519649291150,1.151123,0.538574,-0.058838
1519649291205,1.100098,0.351563,-0.204834
1519649291216,0.764648,0.632324,-0.104004
1519649291259,0.424316,0.959961,-0.079590
1519649291265,0.162109,0.968018,0.001221
1519649291386,0.539795,0.934082,0.260498
1519649291391,0.302979,-0.004639,0.198486
1519649291497,1.010010,0.164551,-0.117920
1519649291501,0.303711,0.509277,0.080566
1519649291544,-0.076660,0.984131,0.245605
1519649291547,0.524170,0.569580,-0.430908
1519649291550,1.018311,0.515137,-0.530273
1519649291552,0.539307,1.177246,-0.683105
1519649291554,0.973145,1.190430,-0.605225
1519649291609,0.148193,1.203125,-0.586426
1519649291656,0.891846,1.043213,-0.610352
1519649291661,1.420654,0.697266,-0.256592
1519649291711,1.207764,0.350830,-0.245605
1519649291717,0.522217,0.608643,-0.201660
1519649291766,0.331543,0.569580,-0.271240
1519649291819,0.076172,0.662354,-0.149658
1519649291825,-0.058838,0.482422,-0.016846
1519649291878,-0.042969,0.298340,0.048828
1519649291882,-0.167725,0.417969,0.109131
1519649291927,0.709961,1.013916,-0.308350
1519649291981,0.663330,1.919678,-0.341797
1519649291985,1.304443,1.778076,-0.187012
1519649292036,0.987549,0.788574,-0.695068
1519649292040,0.779297,3.149902,-0.670654
1519649292090,0.882324,1.747559,0.041992
1519649292158,0.728516,-0.827637,-1.263916
1519649292162,0.619385,0.193848,-0.972412
1519649292172,1.295654,0.025391,-0.416504
1519649292223,0.580566,0.403320,0.092773
1519649292226,0.467529,0.684082,0.430176
1519649292258,-0.142578,1.046875,0.154053
1519649292304,-0.150635,0.799561,0.504395
1519649292340,-0.160156,0.999512,0.619873
1519649292387,0.518799,0.441406,0.168213
1519649292392,1.475586,0.587158,0.205322
1519649292445,1.090576,0.624268,0.560547
1519649292499,0.294922,0.345947,0.418945
1519649292503,1.660889,1.691895,-0.630615
1519649292552,0.435547,2.006104,-0.496582
1519649292554,-0.384277,1.271484,-0.593018
1519649292613,0.604980,0.707764,0.359131
1519649292627,0.378906,1.161621,0.329590
1519649292670,0.100342,0.845703,0.083496
1519649292727,-0.308350,0.865234,0.235352
1519649292728,0.366211,0.472656,0.223389
1519649292782,0.072998,0.128662,-0.082520
1519649292783,0.121338,0.470703,-0.226563
1519649292836,0.587646,2.104004,-0.327637
1519649292838,1.324463,1.435791,-0.381592
1519649292890,0.922607,0.668457,1.429688
1519649292944,0.910889,0.520508,0.488281
1519649292946,1.111084,1.825195,0.094238
1519649292999,0.334229,1.071045,-0.021729
1519649293000,0.624512,0.616699,-0.206299
1519649293054,0.235596,0.481934,-0.062744
1519649293108,0.587891,0.628906,0.256348
1519649293109,0.394287,0.714355,0.197510
1519649293164,0.438965,0.648438,0.173828
1519649293172,0.359863,0.448242,0.127686
1519649293197,0.245850,0.331055,0.086670
1519649293231,0.198975,0.257813,-0.005615
1519649293264,0.425537,0.524658,-0.077148
1519649293296,0.771973,1.137451,-0.046143
1519649293329,1.102051,1.398438,0.121094
1519649293361,0.965088,2.223389,0.744629
1519649293394,0.282227,1.571289,-0.103760
1519649293438,0.759766,0.899170,-0.161133
1519649293452,0.483643,0.817383,0.009277
1519649293485,1.193359,0.472168,-0.018066
1519649293542,1.325684,0.608643,-0.171143
1519649293574,0.762451,0.418213,0.008545
1519649293577,0.466309,0.455566,0.146729
1519649293633,0.109863,0.555664,0.251709
1519649293665,0.006348,0.338379,0.067871
1519649293674,-0.036865,0.333740,0.117920
1519649293724,-0.016113,0.503662,0.288818
1519649293757,0.012695,0.877441,0.186279
1519649293789,0.426025,1.987305,-0.016113
1519649293822,0.270752,3.255127,0.366211
1519649293854,0.479492,0.219971,-0.568115
1519649293868,1.085693,0.837891,-0.354980
1519649293900,1.071289,1.100098,-0.204834
1519649293958,1.187256,0.358643,-0.114990
1519649293990,0.926514,0.502930,-0.078857
1519649293992,0.808594,1.037598,-0.046875
1519649294070,0.392090,0.755127,0.015625
1519649294075,0.326904,0.540039,0.091064
1519649294081,0.190674,0.195313,0.003906
1519649294133,0.175049,0.385742,-0.403809
1519649294187,0.001465,0.267822,0.400146
1519649294189,0.767578,0.771484,0.128174
1519649294243,0.775146,1.150391,0.386719
1519649294257,0.759277,0.995850,0.414307
1519649294304,0.677490,1.369141,0.098633
1519649294358,0.777588,1.655029,-0.500000
1519649294360,0.715332,1.045654,-0.205811
1519649294432,1.002930,0.407471,0.032227
1519649294434,1.121582,0.708740,0.130371
1519649294544,0.773926,0.616943,0.162354
1519649294546,0.618164,0.565674,0.026367
1519649294655,-0.023682,0.779541,0.222656
1519649294657,0.103271,0.441406,0.163574
1519649294659,0.000244,0.637695,0.289795
1519649294661,0.426758,0.543213,0.221436
1519649294719,0.513916,0.380127,0.183350
1519649294722,0.988281,0.700928,0.201904
1519649294767,0.951660,1.102295,0.594971
1519649294769,0.563965,1.109375,0.287842
1519649294771,0.638672,0.948486,-0.208740
1519649294823,1.236816,1.017334,-0.274902
1519649294828,0.577148,0.987061,-0.233643
1519649294884,0.827637,0.769531,-0.304199
1519649294908,0.772461,0.960938,-0.149170
1519649294941,0.570068,0.851807,-0.081787
1519649294973,0.473145,0.547363,-0.046387
1519649295006,0.289551,0.155518,0.014648
1519649295038,0.069580,0.013428,0.072998
1519649295071,0.164063,0.389160,0.075684
1519649295112,0.457275,0.975098,-0.120117
1519649295144,0.697021,0.866455,0.072510
1519649295147,0.919678,0.849365,0.062012
1519649295204,0.911621,1.051025,0.110840
1519649295238,0.581055,1.426758,0.312988
1519649295244,0.299805,1.484619,-0.175537
1519649295302,0.831299,1.415039,-0.339355
1519649295334,0.649170,0.692383,-0.067383
1519649295367,1.472656,0.499512,0.000000
1519649295400,0.745850,0.687500,-0.028809
1519649295432,0.441406,0.703125,-0.017090
1519649295464,0.302734,0.685791,0.018555
1519649295497,-0.044434,0.614258,0.043945
1519649295510,-0.075928,0.570801,0.111328
1519649295568,-0.018066,0.516846,0.196045
1519649295601,0.107422,0.691650,0.208496
1519649295609,0.690674,0.812500,0.067383
1519649295665,0.672607,1.183105,-0.027100
1519649295697,0.543945,1.954346,0.316650
1519649295729,0.575684,0.961426,-0.176514
1519649295731,0.931885,0.601318,-0.346924
1519649295788,0.746826,1.143311,-0.424561
1519649295821,0.801025,0.619629,-0.487549
1519649295824,0.759033,0.645264,-0.253906
1519649295882,0.662109,1.062500,-0.033203
1519649295914,0.504395,0.781494,-0.141113
1519649295928,0.251953,0.750977,-0.011719
1519649295961,0.234131,0.217041,0.048828
1519649295998,0.186523,0.058594,0.036865
1519649296031,0.197266,0.372070,-0.024902
1519649296063,0.568359,0.894043,0.026123
1519649296099,0.717285,0.907715,-0.009277
1519649296134,0.879150,0.943848,0.108643
1519649296167,0.908936,1.551758,0.444580
1519649296202,0.402588,1.671875,-0.369141
1519649296233,0.783691,1.563232,-0.433350
1519649296266,0.736328,0.696777,-0.000977
1519649296300,1.125244,0.355713,0.044678
1519649296332,0.819824,0.529297,0.060547
1519649296345,0.578857,0.591064,0.016357
1519649296377,0.244141,0.617920,0.020996
1519649296409,0.022461,0.662842,0.070068
1519649296442,-0.047607,0.494873,0.087158
1519649296475,-0.049316,0.541748,0.193848
1519649296532,0.113525,0.906250,0.223877
1519649296563,0.840820,0.912354,0.115723
1519649296596,0.809326,1.437012,0.115967
1519649296628,0.528809,1.807617,0.260010
1519649296661,0.736328,0.810059,-0.274902
1519649296693,0.990479,1.001709,-0.178955
1519649296726,0.821289,0.895020,-0.278076
1519649296760,0.854248,0.649902,-0.356689
1519649296765,0.595215,0.802002,-0.266602
1519649296806,0.482422,0.983643,-0.189941
1519649296838,0.269775,0.776611,-0.070801
1519649296870,0.218506,0.606445,0.038818
1519649296904,0.183594,0.365479,0.104736
1519649296935,0.183105,0.259277,0.100098
1519649296969,0.219971,0.416992,-0.002197
1519649297003,0.533447,0.645996,-0.075684
1519649297033,0.710938,1.067383,-0.095703
1519649297066,1.049072,1.226318,0.021729
1519649297102,1.249512,1.262451,0.495605
1519649297133,0.647217,1.489014,-0.052490
1519649297166,0.871582,1.491699,-0.302734
1519649297180,0.534424,0.916504,-0.101563
1519649297238,0.845703,0.314941,-0.108887
1519649297279,0.867432,0.405029,-0.028076
1519649297282,0.699951,0.684570,0.103760
1519649297337,0.288818,0.695313,0.066650
1519649297340,0.170898,0.605957,0.103027
1519649297397,0.068604,0.535156,0.163818
1519649297430,-0.002686,0.528076,0.274902
1519649297439,0.206055,0.726318,0.235596
1519649297494,0.485840,0.785645,0.062988
1519649297565,0.779053,1.836914,0.188477
1519649297571,0.448242,1.755615,0.179932
1519649297632,0.348877,0.940186,-0.068359
1519649297635,0.864746,1.109375,-0.089844
1519649297686,0.767090,1.075439,-0.151123
1519649297688,0.924805,0.651123,-0.239014
1519649297720,0.731445,0.718262,-0.145508
1519649297752,0.714355,1.040283,-0.140137
1519649297760,0.451416,0.862305,-0.092773
1519649297812,0.320313,0.466064,0.114502
1519649297845,0.225830,0.242920,0.187744
1519649297853,0.229736,0.344971,0.115479
1519649297907,0.234619,0.527344,-0.014160
1519649297940,0.421875,0.687500,0.042969
1519649297974,0.756104,0.919922,0.206299
1519649298013,0.835205,1.192627,0.471436
1519649298016,0.610352,1.205811,0.481689
1519649298050,0.631836,1.508789,-0.098877
1519649298107,0.693115,1.419678,-0.103760
1519649298139,0.727783,0.652100,0.112793
1519649298172,0.979248,0.295166,0.054688
1519649298205,0.930908,0.639893,0.142334
1519649298237,0.549805,0.878418,0.105957
1519649298271,0.282959,0.878662,0.057617
1519649298304,0.041504,0.557861,0.058350
1519649298335,-0.024170,0.430420,0.171143
1519649298337,-0.136230,0.464600,0.354736
1519649298400,0.150879,0.642822,0.222412
1519649298432,0.534424,0.960449,-0.012939
1519649298434,0.821289,1.773193,0.117432
1519649298492,0.610107,1.817871,0.453125
1519649298524,0.472168,0.727539,-0.185791
1519649298559,1.021973,1.100830,-0.248047
1519649298592,0.796631,0.887939,-0.185791
1519649298596,0.965576,0.563965,-0.294678
1519649298654,0.673096,0.662354,-0.102295
1519649298686,0.615234,1.041992,-0.010986
1519649298718,0.425293,0.827881,-0.008789
1519649298751,0.370117,0.519531,0.084229
1519649298784,0.276855,0.324219,0.177734
1519649298818,0.133545,0.099365,0.095947
1519649298850,0.149902,0.195557,0.100342
1519649298883,0.613525,1.002197,0.145996
1519649298915,0.850586,1.262695,-0.039795
1519649298924,0.965332,1.213623,-0.127686
1519649298974,0.944824,0.937744,0.448975
1519649299007,0.825928,1.705811,0.095703
1519649299016,0.815674,1.402832,-0.105957
1519649299070,0.711426,0.684326,0.165283
1519649299102,0.763428,0.248535,0.078857
1519649299134,0.654785,0.528809,0.120117
1519649299167,0.466064,0.623291,0.079590
1519649299181,0.266113,0.527100,0.050537
1519649299215,0.176758,0.356689,0.067871
1519649299247,0.114746,0.595703,0.205322
1519649299306,0.023926,1.074219,0.377686
1519649299338,0.235352,0.898926,0.315674
1519649299370,0.555420,1.160400,0.034424
1519649299379,0.877197,1.708008,0.166504
1519649299434,0.631592,2.021240,0.317383
1519649299466,0.367676,0.664551,-0.220703
1519649299471,1.026611,1.003418,-0.282715
1519649299500,0.881348,0.928955,-0.332275
1519649299534,0.979736,0.649902,-0.314209
1519649299565,0.709961,0.739014,-0.116455
1519649299607,0.619629,0.832275,0.014893
1519649299639,0.444580,0.566895,0.050537
1519649299670,0.291992,0.291748,0.090820
1519649299702,0.240234,0.308350,0.137695
1519649299735,0.106934,0.280273,0.007080
1519649299769,0.333252,0.535156,0.020264
1519649299802,0.612549,0.843018,0.037109
1519649299841,1.020996,1.112061,0.068604
1519649299873,1.009766,1.369385,0.495850
1519649299882,0.639404,1.322510,0.501465
1519649299936,0.815186,1.652832,-0.354004
1519649299969,0.689209,1.322754,-0.166260
1519649299983,0.680176,0.722168,0.066162
1519649300041,0.935059,0.084717,-0.035889
1519649300050,0.722900,0.409424,0.107422
1519649300100,0.511719,0.511719,0.138916
1519649300114,0.235107,0.654541,0.107910
1519649300167,0.167236,0.583984,0.084473
1519649300174,0.085205,0.501709,0.165771
1519649300228,0.076416,0.680908,0.289551
1519649300278,0.393311,0.768799,0.146973
1519649300325,0.813721,0.843994,0.040527
1519649300333,0.902832,1.732910,0.287842
1519649300357,0.805664,1.793945,0.223389
1519649300406,0.753174,0.601074,-0.254883
1519649300419,0.896973,1.010010,-0.175049
1519649300487,1.041504,0.750732,-0.260742
1519649300496,0.959961,0.389648,-0.233643
1519649300522,0.752930,0.804688,-0.005127
1519649300569,0.557129,0.817383,-0.024414
1519649300576,0.391602,0.498047,0.046631
1519649300671,0.242920,0.289307,0.147949
1519649300674,0.208740,0.281006,0.122070
1519649300768,0.192627,0.427246,0.052246
1519649300838,0.511230,0.826172,0.136475
1519649300851,0.765137,0.898193,0.169922
1519649300896,0.948730,1.114746,0.226074
1519649300900,0.812988,1.117432,0.494141
1519649300903,0.771729,1.327393,-0.042480
1519649300907,0.966797,1.604004,-0.250000
1519649300910,0.708740,0.898682,0.130127
1519649300955,1.151367,0.303955,0.121094
1519649300958,0.894287,0.410400,0.102051
1519649301017,0.602051,0.531250,0.161621
1519649301025,0.260498,0.618896,0.141846
1519649301075,0.177490,0.569824,0.085938
1519649301120,0.014404,0.510742,0.113770
1519649301129,-0.047852,0.470947,0.203369
1519649301175,-0.075439,0.782227,0.241455
1519649301207,0.570801,0.889648,0.169189
1519649301213,1.349854,1.334473,0.264404
1519649301248,0.888184,1.841309,0.593506
1519649301279,0.600586,0.770020,-0.271729
1519649301312,0.948486,1.120850,-0.107422
1519649301344,0.938477,0.855957,-0.082275
1519649301377,0.893066,0.515625,-0.208496
1519649301411,0.758301,0.743164,-0.183594
1519649301444,0.586426,0.995605,-0.102539
1519649301476,0.480225,0.590332,-0.042236
1519649301508,0.328369,0.417725,0.102783
1519649301540,0.285400,0.333008,0.186768
1519649301573,0.138672,0.035400,0.023682
1519649301606,0.169678,0.209961,-0.030029
1519649301638,0.692383,1.044922,0.010986
1519649301678,0.803711,0.997314,0.022949
1519649301710,0.911133,1.142822,0.286133
1519649301742,0.650391,1.729736,0.816406
1519649301776,0.932129,1.735840,-0.316162
1519649301808,0.842285,1.141113,-0.056885
1519649301840,1.123779,0.654541,0.225830
1519649301874,0.977051,0.356445,0.078125
1519649301905,0.879150,0.277832,0.041748
1519649301943,0.447266,0.407959,0.124268
1519649301972,0.087158,0.406982,0.112305
1519649302006,0.081543,0.399414,0.079590
1519649302039,0.027344,0.375488,0.105957
1519649302053,0.127197,0.710205,0.220703
1519649302109,0.248535,0.929932,0.380371
1519649302116,0.859375,1.385010,0.291992
1519649302142,1.077148,1.657959,0.611084
1519649302199,0.662842,1.133545,-0.000244
1519649302202,0.920898,1.140869,-0.216064
1519649302234,0.815918,0.893066,-0.119141
1519649302292,1.021484,0.561035,-0.176514
1519649302325,1.010254,0.634521,-0.195801
1519649302358,0.757568,0.949707,-0.143311
1519649302401,0.558105,0.821289,-0.089355
1519649302410,0.378174,0.540527,0.066650
1519649302457,0.242920,0.243896,0.212158
1519649302472,0.183350,0.090088,0.149414
1519649302506,0.047852,-0.002686,0.030762
1519649302540,0.478027,0.845459,0.072266
1519649302573,0.816895,1.343018,0.069336
1519649302607,0.977051,1.218262,-0.042725
1519649302637,0.729736,1.151123,0.564209
1519649302669,0.430908,1.589844,0.454590
1519649302702,1.035156,1.692871,-0.127197
1519649302735,0.755615,0.906494,0.182617
1519649302767,1.136719,0.420166,0.213379
1519649302799,0.957764,0.299561,0.149902
1519649302832,0.654541,0.302002,0.115723
1519649302870,0.342285,0.578369,0.178955
1519649302884,0.196045,0.430908,0.133545
1519649302917,0.270508,0.415527,0.174072
1519649302975,0.210449,0.482422,0.154785
1519649302985,0.154541,0.570801,0.146973
1519649303038,0.251465,1.268555,0.674805
1519649303069,0.768066,1.511963,0.502441
1519649303075,0.799561,1.509521,0.548340
1519649303129,0.557373,0.899902,-0.112305
1519649303138,1.281738,0.887695,-0.092529
1519649303166,1.115479,1.016846,-0.045166
1519649303225,1.012939,0.403809,-0.193604
1519649303230,0.772705,0.566162,-0.095459
1519649303290,0.606445,0.956787,-0.000244
1519649303303,0.402832,0.768799,0.049805
1519649303336,0.323975,0.484863,0.096680
1519649303367,0.227051,0.220215,0.124512
1519649303399,0.195801,0.317383,0.154541
1519649303433,0.347168,0.375244,0.018311
1519649303464,0.598145,0.617920,-0.030273
1519649303498,0.981201,0.869629,-0.011719
1519649303554,1.035889,1.242676,0.285645
1519649303556,0.804932,1.684814,0.484375
1519649303613,1.139648,1.721680,-0.338867
1519649303645,0.679199,1.051758,0.041504
1519649303647,0.844727,0.420166,0.006104
1519649303704,1.060791,0.335938,0.031738
1519649303737,0.848633,0.395020,0.082764
1519649303811,0.536133,0.544189,0.083496
1519649303820,0.204102,0.547607,0.162109
1519649303877,0.070313,0.491699,0.147705
1519649303882,0.060547,0.430908,0.136719
1519649303927,0.049805,0.726563,0.289063
1519649303936,0.252441,0.989014,0.304932
1519649303960,0.698242,1.080811,0.217773
1519649303993,0.958496,1.768555,0.501465
1519649304026,0.638184,1.373047,0.187500
1519649304059,0.614258,0.697754,-0.186279
1519649304091,0.861328,1.039063,-0.128174
1519649304133,0.899170,0.670166,-0.213135
1519649304141,0.965820,0.469238,-0.256836
1519649304190,0.717041,0.857178,-0.125000
1519649304223,0.685303,1.011230,-0.059814
1519649304231,0.510254,0.706299,0.011475
1519649304286,0.397217,0.301514,0.109375
1519649304318,0.289551,0.292236,0.142090
1519649304351,0.239990,0.320557,0.125977
1519649304384,0.443115,0.455322,0.045410
1519649304416,0.491211,0.915771,0.128662
1519649304447,0.747559,1.348877,0.118408
1519649304479,0.868408,1.130859,0.424805
1519649304512,0.865234,0.924561,0.605469
1519649304528,0.667725,1.244141,-0.025146
1519649304557,0.701172,1.523438,-0.090332
1519649304615,0.519043,0.721924,0.031494
1519649304648,0.829102,0.359863,0.078369
1519649304679,0.881348,0.637451,0.155273
1519649304711,0.649658,0.797852,0.158691
1519649304714,0.395508,0.832520,0.114258
1519649304770,0.169678,0.619141,0.110107
1519649304803,0.094971,0.453125,0.114014
1519649304808,0.115234,0.322021,0.170166
1519649304863,0.263184,0.661865,0.318848
1519649304896,0.543457,0.849854,0.188477
1519649304929,0.812256,1.259766,0.056396
1519649304959,0.766113,1.758545,0.456299
1519649304991,0.661377,0.875488,-0.015137
1519649305024,0.927734,0.914795,-0.191650
1519649305057,0.827393,0.795898,-0.223389
1519649305089,0.933838,0.522461,-0.192627
1519649305122,0.729980,0.646484,-0.145020
1519649305155,0.751221,1.129639,-0.176270
1519649305187,0.608154,0.929443,-0.108887
1519649305220,0.467773,0.602539,0.028076
1519649305252,0.263672,0.230469,0.115967
1519649305285,0.230469,0.189697,0.077148
1519649305294,0.211426,0.354492,0.013916
1519649305348,0.424316,0.687256,-0.036621
1519649305352,0.606445,0.796875,-0.013428
1519649305410,0.927979,1.257324,0.232910
1519649305442,0.797363,1.415771,0.353516
1519649305475,0.549316,1.417236,0.096191
1519649305508,0.734619,1.683350,-0.193359
1519649305541,0.573730,1.004883,-0.024658
1519649305574,0.758057,0.442627,0.031006
1519649305607,0.914551,0.299805,0.013428
1519649305639,0.917480,0.570557,0.111816
1519649305670,0.564941,0.762695,0.132813
1519649305674,0.354248,0.762207,0.039551
1519649305730,0.151855,0.739746,0.145752
1519649305745,0.047363,0.474121,0.141357
1519649305782,0.037842,0.291260,0.109131
1519649305839,0.369873,0.628174,0.173340
1519649305848,0.721191,0.841553,0.175781
1519649305873,0.923096,1.101563,0.232910
1519649305930,0.713867,1.546875,0.504639
1519649305961,0.650146,0.989746,-0.181152
1519649305967,1.211670,1.075439,-0.039795
1519649306026,0.903320,0.840332,-0.220459
1519649306059,1.015625,0.519043,-0.286621
1519649306091,0.692383,0.672119,-0.252441
1519649306123,0.677002,0.946045,-0.183594
1519649306157,0.543701,0.861572,-0.047852
1519649306188,0.434082,0.661133,0.061035
1519649306240,0.284912,0.319580,0.133545
1519649306248,0.224365,0.206787,0.062256
1519649306275,0.221436,0.419922,0.058838
1519649306306,0.476074,0.603271,0.040039
1519649306339,0.762939,0.708252,-0.006104
1519649306372,0.959229,0.874268,0.048828
1519649306405,0.934570,1.489990,0.712402
1519649306436,0.889404,1.283691,0.142334
1519649306470,0.721191,1.659912,-0.233887
1519649306502,0.383789,1.264893,-0.104492
1519649306533,0.541016,0.575195,-0.037598
1519649306550,0.829102,0.130615,0.037354
1519649306605,0.890381,0.338379,0.136963
1519649306638,0.478760,0.428467,0.115479
1519649306670,0.241455,0.403809,0.044678
1519649306702,0.120361,1.053467,0.223877
1519649306737,0.049316,0.884766,0.136230
1519649306745,0.177734,0.495850,0.115967
1519649306798,0.633545,0.726074,0.208496
1519649306831,1.016602,1.031006,0.133057
1519649306840,0.788574,1.192139,0.063232
1519649306935,0.593262,1.554932,0.389160
1519649306943,0.716797,0.940918,-0.165527
1519649307000,1.018066,1.208740,-0.153564
1519649307003,1.164307,0.670166,-0.225342
1519649307047,1.100586,0.326904,-0.174316
1519649307052,0.716309,0.587891,-0.076660
1519649307080,0.554199,0.806152,-0.028809
1519649307112,0.458008,0.571533,0.014404
1519649307146,0.329102,0.379883,0.141846
1519649307178,0.313965,0.229004,0.146729
1519649307211,0.262207,0.329590,0.072266
1519649307244,0.397461,0.511963,0.046631
1519649307276,0.744629,0.910645,0.033447
1519649307310,0.965820,1.147705,0.011475
1519649307342,0.861084,1.150146,0.216064
1519649307383,0.853027,1.540771,0.008545
1519649307416,0.943115,1.286621,-0.163086
1519649307425,0.618896,0.697266,0.144775
1519649307473,1.155518,0.187012,0.068115
1519649307520,1.064697,0.352783,0.129395
1519649307525,0.760498,0.570801,0.074463
1519649307578,0.289551,0.696045,0.052246
1519649307581,0.068604,0.567383,0.117432
1519649307636,-0.055176,0.497070,0.166748
1519649307670,-0.049561,0.607666,0.315674
1519649307701,0.129395,0.858398,0.352051
1519649307737,0.450195,0.837158,0.206055
1519649307745,1.078369,1.397949,0.272461
1519649307782,0.822021,1.914551,0.528320
1519649307815,0.529785,0.955322,-0.115234
1519649307847,1.018066,1.004395,-0.054688
1519649307904,0.870361,0.888184,-0.113525
1519649307910,0.934326,0.546631,-0.199951
1519649307964,0.750488,0.790527,-0.098389
1519649307996,0.675537,1.040039,-0.053467
1519649308001,0.500977,0.737305,0.004395
1519649308029,0.274902,0.298340,0.123291
1519649308087,0.192871,0.266602,0.175781
1519649308119,0.198486,0.306152,0.127930
1519649308151,0.393066,0.643799,0.057129
1519649308159,0.512207,0.749268,0.046631
1519649308196,0.723389,0.842773,0.038574
1519649308229,0.959473,1.071289,0.069824
1519649308261,0.864502,1.412109,0.595703
1519649308320,0.718018,1.720703,-0.018799
1519649308354,0.605957,1.192871,-0.129639
1519649308362,0.497314,0.653809,0.113281
1519649308417,0.889893,0.215820,0.040283
1519649308450,0.955566,0.531494,0.086182
1519649308458,0.656006,0.685547,0.055420
1519649308483,0.416260,0.725586,0.075195
1519649308514,0.189697,0.599121,0.141113
1519649308547,0.073486,0.531494,0.154297
1519649308580,0.125732,0.518066,0.181885
1519649308620,0.316650,0.803711,0.293701
1519649308654,0.651367,0.801514,0.159912
1519649308689,1.105225,1.260498,0.129639
1519649308721,0.743896,1.681885,0.176270
1519649308755,0.874512,0.795166,-0.256104
1519649308801,1.104004,1.084473,-0.249268
1519649308834,1.039307,0.679443,-0.287842
1519649308866,0.882813,0.413818,-0.290771
1519649308874,0.699463,0.879150,-0.203125
1519649308924,0.507568,0.982910,-0.110107
1519649308933,0.398682,0.690918,-0.009521
1519649308975,0.313721,0.461670,0.148682
1519649309033,0.256104,0.100342,0.133057
1519649309041,0.260742,0.300781,0.101563
1519649309065,0.366699,0.598389,0.022705
1519649309098,0.505615,0.649902,-0.071533
1519649309130,0.664795,0.927490,-0.094971
1519649309163,0.812012,1.161621,0.104736
1519649309195,0.858154,1.557129,0.809814
1519649309228,0.697998,1.417480,-0.065186
1519649309261,0.876465,1.517578,-0.166016
1519649309295,0.678711,0.510498,-0.120361
1519649309326,0.836914,0.437744,-0.029053
1519649309359,1.156982,0.308350,0.048340
1519649309392,0.689941,0.646240,0.093994
1519649309433,0.351563,0.673340,0.005371
1519649309466,0.135010,0.786865,0.093018
1519649309498,0.031494,0.568604,0.059082
1519649309531,-0.042725,0.474365,-0.028076
1519649309540,0.232178,0.990967,0.379883
1519649309594,0.906494,0.375244,0.126465
1519649309627,0.640137,1.321533,-0.049561
1519649309662,0.912598,1.212646,0.257813
1519649309695,0.935547,1.667480,0.076416
1519649309728,0.718018,0.277588,-0.266357
1519649309761,1.054688,1.119385,-0.117188
1519649309792,1.019043,0.589600,-0.226807
1519649309807,0.796387,0.493652,-0.356445
1519649309840,0.604492,0.666748,-0.272949
1519649309898,0.414307,1.004395,-0.121094
1519649309931,0.385254,0.594482,-0.058350
1519649309939,0.406250,0.405518,0.026855
1519649309990,0.358887,0.285645,0.032471
1519649310062,0.310547,0.361816,0.010742
1519649310070,0.418457,0.548096,-0.004639
1519649310128,0.448730,0.976807,0.097412
1519649310134,0.619629,1.082275,0.045898
1519649310192,0.757813,1.266846,0.115479
1519649310207,0.680664,1.182861,0.144287
1519649310210,0.759766,1.372803,-0.271240
1519649310240,0.717529,1.397461,-0.299072
1519649310274,0.556152,0.719971,0.006104
1519649310307,0.971680,0.408447,0.076416
1519649310338,0.958984,0.633057,0.097412
1519649310371,0.590576,0.695313,-0.011963
1519649310403,0.294922,0.545898,-0.020508
1519649310436,0.156982,0.626221,0.073486
1519649310468,0.184814,0.783936,0.041504
1519649310501,0.232178,0.694092,0.141602
1519649310510,0.518066,0.671143,0.429932
1519649310562,0.708984,0.782959,0.345215
1519649310595,0.454346,1.113525,0.071777
1519649310609,0.409668,1.485840,0.151855
1519649310667,0.635986,1.331299,-0.168457
1519649310677,0.921875,1.376221,-0.352295
1519649310726,0.787109,1.113770,-0.273926
1519649310732,0.729004,0.523193,-0.213623
1519649310790,0.734863,0.677246,-0.139160
1519649310824,0.667236,0.804688,-0.158691
1519649310856,0.303955,0.687744,-0.081055
1519649310889,0.266602,0.588379,0.003662
1519649310923,0.332031,0.439941,0.084473
1519649310957,0.083496,0.524658,0.007324
1519649310990,0.117920,0.597656,-0.057861
1519649311003,0.382080,0.552979,0.038574
1519649311036,1.032715,0.525879,0.052490
1519649311093,1.291016,0.705811,-0.010742
1519649311098,1.047607,0.966797,0.316406
1519649311125,0.788086,1.189941,0.301025
1519649311159,0.585693,1.172607,0.023682
1519649311194,0.631104,1.317383,-0.414063
1519649311227,0.232910,1.313721,-0.251953
1519649311259,0.268066,0.813721,0.000000
1519649311293,1.181152,0.507324,0.118896
1519649311325,0.833008,0.912354,0.105957
1519649311360,0.446045,0.728760,0.000732
1519649311401,0.252197,0.558350,0.077637
1519649311415,0.268311,0.612549,0.125488
1519649311475,0.278320,0.454346,0.059570
1519649311483,0.160156,0.607910,0.135254
1519649311534,0.473877,1.122070,0.199463
1519649311566,0.591064,1.010986,-0.021729
1519649311575,0.453369,1.161377,0.106934
1519649311629,0.724609,0.978760,0.370117
1519649311637,0.645020,1.061523,0.010742
1519649311689,0.733154,0.813477,-0.391846
1519649311721,0.802246,0.959473,-0.177979
1519649311728,0.715820,0.725342,-0.099365
1519649311790,0.540283,0.675293,-0.234619
1519649311822,0.755127,1.435547,-0.158691
1519649311834,0.750488,1.242920,-0.127197
1519649311866,0.438232,0.941406,-0.092285
1519649311899,0.255859,0.670166,0.104980
1519649311931,0.187500,0.461426,0.088379
1519649311966,0.124512,0.301514,0.013184
1519649311999,0.181152,0.429932,-0.029541
1519649312032,0.344727,0.802490,0.181396
1519649312064,0.917480,1.053711,0.208008
1519649312121,0.614990,0.996582,0.222656
1519649312126,0.603027,1.152588,0.266113
1519649312155,0.626953,1.368652,-0.129883
1519649312212,0.687256,0.899414,-0.233398
1519649312218,0.580078,0.440430,0.161621
1519649312247,0.985107,0.336182,0.109619
1519649312305,1.204590,0.834473,0.078369
1519649312336,0.896729,1.118164,-0.053955
1519649312344,0.731689,0.822754,0.002930
1519649312401,0.520264,0.642090,0.078613
1519649312433,0.338867,0.412598,0.134033
1519649312447,0.077637,0.324463,0.117676
1519649312480,0.172119,0.469727,0.292725
1519649312538,0.539307,0.505615,0.182129
1519649312548,0.524902,0.897949,0.114746
1519649312580,0.751465,1.377930,0.217773
1519649312612,0.751953,1.521729,0.304443
1519649312641,0.428711,1.348633,0.400391
1519649312682,0.031250,1.191650,0.130371
1519649312712,0.649414,0.833252,-0.165771
1519649312746,1.555176,1.274658,0.091309
1519649312779,0.628906,0.876953,-0.161133
1519649312810,0.640625,0.402100,-0.145020
1519649312844,0.422363,0.822510,-0.009277
1519649312876,-0.065674,0.827637,-0.274658
1519649312911,0.202148,0.619385,-0.131104
1519649312943,0.245361,0.416016,-0.071777
1519649312976,0.844971,0.375488,-0.036621
1519649313009,0.924561,0.350342,-0.075195
1519649313042,1.109863,0.397461,-0.087402
1519649313084,1.117432,0.573975,0.111572
1519649313114,1.197998,0.605957,0.251465
1519649313119,0.854004,0.705566,0.061035
1519649313185,0.888916,1.222168,-0.242676
1519649313252,0.697998,0.979492,-0.233643
1519649313257,0.599854,0.575684,-0.211670
1519649313288,0.596680,0.404785,-0.151367
1519649313298,0.995605,0.916016,-0.017578
1519649313321,1.132324,0.963867,0.058838
1519649313378,0.753906,1.044678,0.019775
1519649313382,0.517334,0.595947,-0.035400
1519649313411,0.239746,0.409912,-0.012207
1519649313444,-0.037354,0.645264,0.043213
1519649313485,-0.078857,0.581543,0.182129
1519649313520,0.345703,1.196289,0.246826
1519649313553,0.614502,1.091064,0.138916
1519649313585,0.363281,1.356201,0.152100
1519649313618,0.493408,1.260254,0.299561
1519649313651,0.406250,0.998779,-0.121338
1519649313683,0.860107,1.415039,0.296875
1519649313715,0.615479,0.926025,-0.214600
1519649313748,0.943115,0.782227,-0.182861
1519649313781,0.763916,0.587891,-0.251221
1519649313814,0.562012,0.758545,-0.223389
1519649313847,0.771729,1.011719,-0.246338
1519649313879,0.483398,1.045166,-0.260010
1519649313892,0.065430,1.151611,-0.256836
1519649313921,0.183105,0.418213,-0.034668
1519649313978,0.254639,0.048828,-0.084717
1519649314010,0.245605,0.253906,-0.036133
1519649314042,0.542725,0.502686,-0.071289
1519649314076,0.560547,0.888184,0.152832
1519649314108,0.656006,1.157227,0.176025
1519649314141,1.101807,1.125977,0.172119
1519649314174,0.947754,1.066895,0.175537
1519649314206,1.052979,0.971436,-0.063477
1519649314238,0.980469,0.877930,-0.211670
1519649314244,0.747314,0.661865,-0.076416
1519649314298,0.826416,0.408447,-0.119873
1519649314311,0.668945,0.547119,-0.169189
1519649314343,0.520264,1.021973,0.092285
1519649314376,0.531494,1.076172,0.103271
1519649314408,0.338867,0.658447,0.010742
1519649314441,0.037354,0.646240,0.111572
1519649314477,0.054443,0.542236,0.148193
1519649314509,0.071777,0.648682,0.190918
1519649314543,0.140137,1.036621,0.248291
1519649314574,0.573975,0.657715,0.117920
1519649314606,0.554932,1.730225,0.171875
1519649314639,0.347900,1.666992,0.284180
1519649314673,0.489990,1.034668,-0.145020
1519649314711,0.949219,1.001465,-0.253174
1519649314743,0.839355,1.002930,-0.186279
1519649314751,1.054199,0.634277,-0.225342
1519649314809,0.765381,0.741943,-0.099854
1519649314841,0.789795,0.936279,-0.084961
1519649314873,0.509277,0.791992,-0.054199
1519649314906,0.356689,0.535645,0.041748
1519649314938,0.267334,0.268066,0.069336
1519649314969,0.248291,0.404541,0.061768
1519649315001,0.270020,0.525146,0.000244
1519649315034,0.411865,0.642334,-0.036621
1519649315066,0.614258,0.779297,-0.031006
1519649315100,0.887695,1.037598,0.294678
1519649315116,1.155029,1.377441,0.501709
1519649315174,0.894043,1.376465,-0.097168
1519649315201,1.007813,1.510986,-0.315430
1519649315232,0.575195,0.777832,-0.154297
1519649315237,0.527588,0.509521,0.010254
1519649315292,0.932373,0.206543,-0.017578
1519649315324,0.905518,0.530273,-0.009277
1519649315356,0.576172,0.744629,0.067627
1519649315390,0.232666,0.656006,0.120117
1519649315423,0.100342,0.626221,0.125244
1519649315436,-0.006104,0.571289,0.157471
1519649315491,-0.103271,0.900146,0.188721
1519649315524,0.103760,0.962402,0.069092
1519649315536,0.628174,1.142334,0.029297
1519649315571,0.764648,1.607910,0.284912
1519649315604,0.491699,1.510742,0.061768
1519649315636,0.739258,0.808838,-0.229736
1519649315669,0.856445,1.230713,-0.321289
1519649315703,0.944824,0.783203,-0.321045
1519649315734,0.810059,0.410400,-0.345459
1519649315767,0.576904,1.002686,-0.192627
1519649315801,0.549316,0.986572,-0.152588
1519649315833,0.420654,0.739502,-0.038818
1519649315889,0.386963,0.300781,0.067383
1519649315892,0.276611,0.190430,0.113770
1519649315922,0.218994,0.235840,0.111084
1519649315970,0.330078,0.624512,0.056885
1519649316003,0.593018,0.876709,0.008545
1519649316035,0.841553,0.942383,-0.086426
1519649316068,0.960938,1.200928,-0.095703
1519649316100,0.949463,1.568848,0.250244
1519649316132,1.142578,1.756592,0.098877
1519649316165,0.746338,0.955566,-0.061035
1519649316197,0.726074,0.429688,-0.081543
1519649316230,0.949951,0.390381,-0.082764
1519649316304,0.702148,0.355957,-0.015137
1519649316315,0.494873,0.511230,0.047852
1519649316371,0.253662,0.597900,0.076660
1519649316410,0.095215,0.629395,0.118164
1519649316419,-0.008057,0.576904,0.147949
1519649316427,-0.037842,0.827881,0.326172
1519649316481,0.468018,0.921143,0.222656
1519649316490,0.851074,0.943359,0.078369
1519649316514,0.844238,1.564941,0.195557
1519649316545,0.527100,1.611084,0.343018
1519649316578,0.617188,0.677002,-0.124756
1519649316610,0.689453,1.019043,-0.227295
1519649316643,0.790527,0.865234,-0.317383
1519649316676,0.897949,0.533447,-0.278076
1519649316708,0.742432,0.645752,-0.207520
1519649316740,0.635498,0.989014,-0.130615
1519649316773,0.520020,0.764648,-0.013428
1519649316816,0.436035,0.528320,0.102295
1519649316848,0.382568,0.143799,0.133789
1519649316881,0.299072,0.220459,0.107422
1519649316889,0.262207,0.323242,0.081299
1519649316938,0.418945,0.896973,0.066406
1519649316944,0.637695,0.991211,-0.011475
1519649317000,0.784912,1.170898,-0.019287
1519649317034,1.132324,1.442871,0.623047
1519649317067,0.957275,1.260498,0.042480
1519649317098,0.977295,1.408691,-0.220703
1519649317129,0.635742,0.918457,-0.203857
1519649317161,0.533447,0.721924,-0.068115
1519649317194,1.005127,0.268066,-0.034424
1519649317209,0.933594,0.283936,-0.010742
1519649317267,0.618652,0.474854,0.062988
1519649317280,0.384033,0.498291,0.125732
1519649317328,0.217041,0.383301,0.056152
1519649317359,0.165527,0.465820,0.134033
1519649317368,0.041992,0.784668,0.400635
1519649317421,0.383301,1.259033,0.448730
1519649317427,0.641846,1.070801,0.203613
1519649317483,0.863037,1.565918,0.267090
1519649317516,0.713135,1.014160,0.009277
1519649317523,0.960205,0.963623,0.003418
1519649317579,0.786865,1.189453,-0.170166
1519649317614,0.822998,0.822266,-0.312012
1519649317625,0.780029,0.692627,-0.373291
1519649317683,0.677490,0.873779,-0.310059
1519649317716,0.553955,0.878662,-0.236328
1519649317722,0.470947,0.629639,-0.150391
1519649317760,0.405762,0.452148,0.031006
1519649317793,0.318115,0.121826,0.246094
1519649317826,0.334473,-0.103760,0.179199
1519649317858,0.317871,0.237549,0.046875
1519649317915,0.520508,1.085938,0.134033
1519649317924,0.604004,1.161133,-0.038574
1519649317954,0.816406,1.233887,-0.071533
1519649318012,0.922852,1.486572,0.502686
1519649318021,0.646240,1.208984,0.142090
1519649318054,0.849854,1.433105,-0.273193
1519649318087,0.582275,0.883057,-0.116211
1519649318117,0.637451,0.551270,-0.058105
1519649318150,1.042480,0.254883,-0.026855
1519649318183,0.965332,0.541992,0.143799
1519649318215,0.612061,0.632568,0.097168
1519649318247,0.382813,0.659668,0.078613
1519649318280,0.028076,0.583496,0.103027
1519649318312,0.037598,0.450928,0.112549
1519649318347,-0.032227,0.469727,0.198730
1519649318381,0.089355,0.883545,0.342041
1519649318413,0.645020,1.153076,0.133301
1519649318427,0.781006,1.712402,0.118652
1519649318484,0.883545,1.361816,0.079346
1519649318492,0.810547,0.770752,-0.046387
1519649318522,0.840576,0.862305,-0.192383
1519649318581,1.078125,0.791748,-0.319092
1519649318587,0.826172,0.575928,-0.462891
1519649318644,0.719971,0.957275,-0.214844
1519649318676,0.640869,0.983154,-0.047363
1519649318710,0.505127,0.671143,-0.019287
1519649318742,0.414063,0.402344,0.109131
1519649318774,0.380127,0.125000,0.128174
1519649318807,0.339355,0.143066,0.059570
1519649318840,0.399658,0.328613,-0.008301
1519649318855,0.441162,0.703857,0.056152
1519649318913,0.686279,0.911865,-0.037598
1519649318918,0.874023,1.240234,0.020508
1519649318975,0.872070,1.975098,0.367920
1519649319008,0.728516,1.418457,-0.249023
1519649319013,0.790283,1.312256,-0.193848
1519649319066,0.605713,0.539307,-0.101563
1519649319071,0.663818,0.420654,-0.050049
1519649319103,1.144043,0.355225,0.126953
1519649319161,0.753174,0.699463,0.258301
1519649319169,0.505859,0.595459,0.137939
1519649319226,0.218506,0.645508,0.117432
1519649319257,-0.036377,0.553223,0.075439
1519649319271,0.030273,0.507080,0.049072
1519649319307,0.015137,0.824951,0.294678
1519649319340,0.486816,0.742920,0.269775
1519649319413,0.701416,1.162842,0.239990
1519649319418,0.959473,1.566895,0.588867
1519649319480,0.644287,0.707275,-0.058594
1519649319485,1.088623,1.190186,-0.107178
1519649319528,1.043213,1.094971,-0.198486
1519649319544,0.909424,0.820313,-0.228760
1519649319576,0.690918,0.571777,-0.280273
1519649319584,0.522949,0.696045,-0.126709
1519649319640,0.466064,0.853516,-0.144287
1519649319672,0.419678,0.699707,-0.155029
1519649319686,0.384766,0.539551,0.026367
1519649319718,0.333008,0.330322,0.245605
1519649319750,0.423584,0.265381,0.148438
1519649319783,0.220947,0.407471,-0.010498
1519649319841,0.594482,1.110352,0.396973
1519649319874,0.948486,0.826660,0.273682
1519649319907,1.173340,0.784424,-0.025635
1519649319914,0.983887,0.749756,0.045898
1519649319970,0.942383,0.959717,-0.054199
1519649320003,0.886230,1.188477,-0.278320
1519649320035,0.396973,0.971436,-0.169678
1519649320040,0.397217,0.791748,0.029541
1519649320068,0.754395,0.700928,0.124512
1519649320134,0.706787,0.718018,0.067627
1519649320140,0.550537,0.658691,0.137451
1519649320168,0.373779,0.486084,0.162598
1519649320201,0.204590,0.335938,0.107422
1519649320233,0.185791,0.354980,0.049072
1519649320270,0.230713,0.585693,0.106201
1519649320319,0.403320,1.212646,0.314209
1519649320352,0.844238,1.453125,0.155273
1519649320385,1.015381,1.576660,0.389404
1519649320417,1.018311,0.630371,-0.069092
1519649320450,0.974854,1.072266,-0.093262
1519649320456,0.920166,0.865479,-0.269043
1519649320515,0.806641,0.539551,-0.347168
1519649320547,0.576904,0.856689,-0.262451
1519649320553,0.427734,1.220947,-0.269531
1519649320607,0.617920,0.787842,-0.221680
1519649320614,0.570557,0.546875,-0.039795
1519649320670,0.458984,0.307373,0.122559
1519649320702,0.384766,-0.084961,0.187256
1519649320734,0.309326,0.093506,0.119141
1519649320766,0.453125,0.950684,0.104736
1519649320799,0.536865,0.990234,0.028076
1519649320831,0.815430,0.920654,-0.092773
1519649320864,0.713135,1.133545,-0.031982
1519649320896,0.530273,1.455078,0.548340
1519649320929,1.158203,1.254883,-0.257080
1519649320961,0.825439,1.197021,-0.119141
1519649320995,0.820557,0.507324,0.002930
1519649321028,1.217773,0.464844,-0.171143
1519649321034,1.138916,0.371582,-0.140381
1519649321086,0.664551,0.252441,0.156494
1519649321120,0.397705,0.473389,0.058350
1519649321126,0.129150,0.969238,0.078125
1519649321183,-0.280518,0.454346,0.146240
1519649321217,-0.420166,1.065918,0.399170
1519649321229,0.074219,0.478271,0.181641
1519649321286,1.110352,1.626709,0.066162
1519649321300,0.996582,1.374512,0.440674
1519649321333,0.709717,1.146484,0.487061
1519649321364,0.723633,0.884033,-0.184814
1519649321396,1.014893,1.474609,-0.215088
1519649321429,1.205322,0.548584,-0.247070
1519649321461,0.777100,0.482910,-0.172363
1519649321496,0.567139,1.025146,-0.151367
1519649321529,0.470703,1.110840,-0.095947
1519649321561,0.374512,0.474365,0.089355
1519649321601,0.341309,0.151611,0.100098
1519649321634,0.390625,0.135254,0.066650
1519649321666,0.420898,0.408447,-0.019287
1519649321698,0.426758,0.460693,0.041992
1519649321711,0.494141,0.670654,0.025146
1519649321768,0.748779,1.167725,0.102539
1519649321774,0.889893,1.434570,0.380859
1519649321832,0.602295,1.300537,0.078613
1519649321867,0.886230,1.480957,-0.410645
1519649321898,0.657959,1.036377,-0.181396
1519649321930,0.854736,0.749512,0.032227
1519649321963,1.551025,0.574219,0.077393
1519649321994,1.033447,0.743896,0.103516
1519649322028,0.530518,0.669922,0.016357
1519649322061,-0.024658,0.567383,0.219238
1519649322094,0.010010,0.508545,0.003906
1519649322125,0.007568,0.478516,-0.003418
1519649322138,0.026367,0.637451,0.285645
1519649322197,0.032959,0.770264,0.217529
1519649322206,0.342529,0.939453,0.010010
1519649322259,1.322754,1.642822,0.519043
1519649322265,0.790771,1.423096,0.245605
1519649322292,0.775146,0.845703,-0.265869
1519649322349,0.759277,0.815674,-0.225830
1519649322355,0.850830,0.657715,-0.221680
1519649322413,0.904297,0.721436,-0.290771
1519649322445,0.771240,1.109131,-0.256836
1519649322519,0.640381,0.965088,-0.098877
1519649322587,0.502930,0.630615,-0.048340
1519649322595,0.294189,0.122070,0.169434
1519649322646,0.263672,-0.232910,0.054932
1519649322650,0.213379,0.197266,0.114502
1519649322653,0.426514,0.833984,0.262451
1519649322656,0.643555,0.857178,0.080811
1519649322689,0.853027,0.942627,-0.192627
1519649322723,1.183350,1.375488,0.122070
1519649322754,0.714844,1.550049,0.666260
1519649322787,0.871094,1.577881,-0.345215
1519649322820,0.725342,0.873291,0.148682
1519649322852,0.955811,0.470703,0.012695
1519649322879,1.046387,0.308594,0.056152
1519649322912,0.870117,0.397949,0.132080
1519649322946,0.504395,0.518555,0.104248
1519649322980,0.220459,0.532959,0.135498
1519649323022,-0.039795,0.549805,0.165039
1519649323054,-0.033936,0.488037,0.105957
1519649323087,-0.039795,0.685547,0.229980
1519649323120,0.171143,1.185059,0.426514
1519649323151,0.689453,0.935791,0.279785
1519649323157,0.845703,1.784912,0.369629
1519649323215,0.936279,1.180176,0.117676
1519649323221,1.000977,0.533203,-0.062256
1519649323277,0.828369,0.974854,-0.160156
1519649323310,1.031982,0.807373,-0.347168
1519649323317,0.781494,0.556885,-0.359863
1519649323373,0.654297,1.028564,-0.182861
1519649323405,0.503906,0.983643,-0.078613
1519649323419,0.380859,0.629883,0.038330
1519649323477,0.279297,0.360352,0.179932
1519649323481,0.254150,0.113281,0.172119
1519649323539,0.238281,0.244873,0.138184
1519649323572,0.302734,0.500488,0.093018
1519649323605,0.537842,0.662842,0.086670
1519649323637,0.826172,0.879883,-0.006836
1519649323646,1.021240,1.486572,-0.017090
1519649323697,0.925781,1.191895,0.418457
1519649323728,0.924316,1.425049,0.250488
1519649323732,1.062988,1.327148,-0.127197
1519649323791,0.597412,0.766846,0.082031
1519649323822,1.036865,0.400879,-0.176758
1519649323836,1.214111,0.233154,0.008789
1519649323874,0.700439,0.568604,0.124756
1519649323907,0.368164,0.591797,0.062500
1519649323939,-0.013184,0.739746,0.083252
1519649323970,-0.128418,0.490479,0.099609
1519649324004,-0.110352,0.482422,0.155762
1519649324037,0.166016,0.746826,0.230469
1519649324069,0.647949,0.816406,0.192383
1519649324103,0.931396,1.307617,0.151611
1519649324160,1.069824,1.677490,0.300293
1519649324166,1.041016,0.853027,-0.143311
1519649324224,0.727295,0.945557,-0.070557
1519649324229,0.996094,0.855957,-0.277832
1519649324269,0.828125,0.761475,-0.349609
1519649324302,0.725098,0.639893,-0.335449
1519649324335,0.640137,0.923828,-0.226807
1519649324368,0.506592,0.822510,-0.053711
1519649324400,0.496338,0.481445,-0.024658
1519649324434,0.415283,0.225098,0.110352
1519649324466,0.373047,0.148193,0.070068
1519649324505,0.314209,0.310547,0.085449
1519649324516,0.441162,0.512695,0.093262
1519649324573,0.711182,0.842529,0.076416
1519649324581,1.048828,1.076416,-0.127686
1519649324634,1.196533,1.405029,-0.195557
1519649324685,0.939209,0.671143,0.564697
1519649324690,0.754639,1.391846,0.081299
1519649324731,0.834229,1.358887,-0.249268
1519649324766,0.313232,0.782227,0.073242
1519649324813,1.091797,0.333252,-0.049316
1519649324816,0.976318,0.530762,0.072998
1519649324850,0.618652,0.547852,0.177002
1519649324898,0.370605,0.672607,0.210693
1519649324906,0.224854,0.624512,0.201172
1519649324979,0.104492,0.490234,0.125977
1519649324987,0.099365,0.344482,0.034424
1519649325011,0.133789,0.482910,0.137207
1519649325032,0.363525,0.776367,0.417236
1519649325095,0.711426,1.405029,0.305664
1519649325104,0.809326,2.007080,0.424072
1519649325140,0.900391,0.729980,0.078857
1519649325176,0.999268,0.844971,-0.049561
1519649325230,1.149414,0.891357,-0.204834
1519649325234,1.001953,0.561035,-0.111572
1519649325286,0.821533,0.397949,-0.098389
1519649325291,0.601807,0.741943,-0.019287
1519649325341,0.493652,1.041504,-0.057861
1519649325387,0.442383,0.701660,-0.041016
1519649325393,0.398438,0.401123,0.092773
1519649325440,0.308350,0.254883,0.199951
1519649325495,0.314453,0.208008,0.193604
1519649325504,0.455566,0.325928,0.173340
1519649325550,0.696777,0.736328,0.161377
1519649325558,0.932617,0.939209,0.003174
1519649325587,1.110107,1.112793,-0.086182
1519649325658,0.787598,0.951660,0.352783
1519649325662,1.166260,1.267090,0.690918
1519649325725,0.888916,1.531006,-0.228271
1519649325729,0.408936,0.769531,0.149170
1519649325766,0.649170,0.293213,-0.026611
1519649325799,0.902344,0.338623,-0.115479
1519649325838,0.721924,0.602051,0.032471
1519649325846,0.498535,0.391357,0.143555
1519649325879,0.348389,0.441406,0.232178
1519649325911,0.152588,0.634033,0.283447
1519649325945,0.074463,0.525879,0.228027
1519649325978,0.045410,0.641357,0.347900
1519649326009,0.519775,0.764893,0.205078
1519649326043,0.817383,1.228027,0.080811
1519649326080,0.853516,1.706543,0.171387
1519649326112,0.814697,1.394775,0.159424
1519649326146,0.827393,0.700195,-0.043701
1519649326177,1.005127,0.904785,-0.228027
1519649326209,1.040771,0.780273,-0.178223
1519649326244,0.915039,0.455811,-0.210938
1519649326252,0.710938,0.628418,-0.056641
1519649326288,0.585449,0.799561,-0.027344
1519649326346,0.476563,0.543945,-0.059326
1519649326350,0.383301,0.384277,0.023193
1519649326405,0.299072,0.270508,0.096924
1519649326415,0.299316,0.249023,0.067627
1519649326464,0.391113,0.405518,0.051514
1519649326496,0.671875,0.852051,0.122803
1519649326528,1.020020,1.211182,0.177490
1519649326560,1.242920,1.420654,0.277100
1519649326593,0.916992,0.914795,0.467041
1519649326627,0.779053,0.980225,0.090576
1519649326658,0.836426,1.202637,-0.186035
1519649326690,0.446777,0.723877,-0.076660
1519649326719,0.784668,0.487549,-0.065186
1519649326751,1.010742,0.429443,0.062012
1519649326784,0.882080,0.565674,0.200684
1519649326817,0.446777,0.621338,0.204834
1519649326824,0.239502,0.509766,0.193359
1519649326882,0.081299,0.398193,0.121094
1519649326914,0.090820,0.460693,0.163330
1519649326921,0.038818,0.736328,0.371338
1519649326978,0.637207,1.037109,0.229248
1519649327010,1.156006,1.173096,0.324951
1519649327046,0.843750,1.490723,0.552490
1519649327079,0.411621,0.898438,0.187256
1519649327093,0.683594,1.113525,-0.153809
1519649327125,0.933350,1.074707,-0.248779
1519649327157,1.032715,0.863281,-0.229248
1519649327189,0.969727,0.453125,-0.235596
1519649327222,0.760742,0.618408,-0.081055
1519649327280,0.564453,0.895752,-0.027832
1519649327286,0.441162,0.298584,-0.038086
1519649327341,0.416992,0.541260,0.094238
1519649327374,0.256592,0.058105,0.101074
1519649327406,0.280518,0.174072,0.155762
1519649327409,0.443359,0.437744,0.240234
1519649327467,0.713867,0.959717,0.306152
1519649327499,0.923828,1.079590,0.368408
1519649327505,1.034180,1.175781,0.496338
1519649327558,0.899658,0.936523,0.392334
1519649327590,1.214355,1.730957,0.032715
1519649327623,0.710205,1.375000,0.083252
1519649327655,0.571533,0.826416,-0.034912
1519649327687,0.761963,0.573730,-0.018066
1519649327720,0.793701,0.313721,0.199707
1519649327751,0.512939,0.471680,0.328369
1519649327784,0.331055,0.385254,0.287842
1519649327816,0.172852,0.291260,0.230225
1519649327850,0.139648,0.491699,0.214844
1519649327883,0.162842,0.411865,0.303955
1519649327900,0.317871,0.426514,0.389648
1519649327956,0.687988,1.002441,0.435303
1519649327989,0.792725,1.008545,0.410889
1519649327991,0.870361,1.212646,0.585205
1519649328049,0.554688,1.140137,0.472412
1519649328055,0.722168,1.116455,0.187012
1519649328086,1.199463,1.312500,-0.041016
1519649328119,1.204590,0.565918,-0.141602
1519649328151,0.963379,0.385498,-0.107910
1519649328183,0.750977,0.654785,0.005371
1519649328240,0.663818,0.883057,0.079346
1519649328273,0.573730,0.869629,0.118164
1519649328281,0.517578,0.509766,0.149658
1519649328318,0.181641,0.310547,0.149902
1519649328350,0.182861,0.236328,0.203613
1519649328383,0.252686,0.223145,0.200684
1519649328441,0.504883,0.654053,0.155518
1519649328474,0.792236,0.965332,0.112549
1519649328483,0.993408,1.009277,0.005127
1519649328538,0.869873,1.199463,0.131836
1519649328546,0.818604,1.865723,-0.010254
1519649328572,0.821289,1.658447,-0.126221
1519649328605,0.474365,0.772461,0.072510
1519649328637,0.685791,0.318359,0.025635
1519649328668,0.879150,0.596191,-0.032959
1519649328701,0.680176,0.482666,-0.098877
1519649328781,0.491943,0.559326,-0.074463
1519649328784,0.372803,0.494141,0.036133
1519649328850,0.238281,0.439941,0.193848
1519649328859,0.249756,0.494141,0.262695
1519649328890,0.123291,0.693115,0.384033
1519649328907,0.279053,0.922363,0.373291
1519649328939,0.578369,1.170410,0.226074
1519649328948,0.672852,1.774658,0.289795
1519649329006,0.950195,1.121094,0.021973
1519649329038,0.839600,0.933105,-0.153564
1519649329070,0.720215,0.857666,-0.260498
1519649329104,0.805176,0.753174,-0.343018
1519649329117,0.640625,0.645996,-0.312988
1519649329149,0.506836,0.885742,-0.178467
1519649329181,0.539795,0.987305,-0.083252
1519649329239,0.528320,0.635010,-0.021973
1519649329279,0.452393,0.411865,0.094727
1519649329282,0.411377,0.435547,0.155762
1519649329313,0.436035,0.599854,0.025879
1519649329345,0.556641,0.467041,-0.196289
1519649329378,0.567871,0.554688,-0.179688
1519649329436,0.491943,0.763916,0.068604
1519649329445,0.546631,0.951660,0.052246
1519649329496,0.507568,1.601807,-0.018066
1519649329511,0.385254,1.939453,-0.356934
1519649329544,0.708740,1.412109,-0.563232
1519649329600,0.488037,0.842285,-0.431885
1519649329603,0.706787,0.710205,-0.452637
1519649329634,0.977539,0.822510,-0.374268
1519649329693,0.526855,0.784180,-0.058838
1519649329701,0.318848,0.457275,-0.001953
1519649329749,0.088867,0.384277,0.069336
1519649329781,-0.027344,0.512939,0.070801
1519649329815,-0.051758,0.602783,0.011719
1519649329847,0.070068,0.730957,-0.096191
1519649329880,0.379639,0.988525,-0.218750
1519649329913,0.689453,1.233154,-0.330811
1519649329927,0.801025,1.239502,-0.323730
1519649329985,0.551758,1.396240,-0.108154
1519649330018,0.499268,1.375488,-0.087158
1519649330026,0.993652,0.906006,-0.651611
1519649330080,1.136963,0.643555,-0.841064
1519649330109,0.907227,0.084961,-0.707764
1519649330118,0.867676,0.534180,-0.164551
1519649330166,0.594238,0.834229,-0.027100
1519649330199,0.407959,0.686035,-0.141113
1519649330232,0.213867,0.425781,-0.128174
1519649330264,0.206299,0.636230,-0.058594
1519649330296,0.318604,0.506348,-0.032715
1519649330329,0.469971,0.212891,0.030762
1519649330342,0.756104,0.676514,-0.019287
1519649330374,0.823242,1.152100,-0.152344
1519649330432,0.701904,1.098877,-0.061035
1519649330465,0.676514,1.702881,0.515137
1519649330474,1.228760,1.949463,-0.069092
1519649330529,0.779785,1.864014,-0.548340
1519649330562,0.507813,0.295166,-0.106445
1519649330595,0.583008,-0.102295,-0.022217
1519649330598,0.750977,-0.023438,0.150146
1519649330651,0.719971,0.423828,0.256836
1519649330685,0.582520,0.825195,0.430420
1519649330697,0.201660,0.577148,0.344238
1519649330745,0.099854,0.399658,0.143555
1519649330779,0.095459,0.843750,0.296387
1519649330811,0.106201,0.706055,0.539795
1519649330843,0.052490,0.906006,0.181885
1519649330876,0.320313,1.215332,0.083496
1519649330888,0.638916,1.538818,0.385010
1519649330942,0.402344,1.140381,0.461914
1519649330975,0.584229,0.694580,-0.060791
1519649331009,1.291016,1.176270,-0.250977
1519649331043,1.179688,1.106689,-0.154053
1519649331073,1.250000,0.519531,-0.154785
1519649331107,0.970703,0.573242,0.124512
1519649331139,0.744873,0.537598,0.213135
1519649331155,0.518311,0.365479,0.167236
1519649331180,0.243164,0.385498,0.175293
1519649331214,0.003418,0.386475,0.123291
1519649331245,0.099854,0.331787,0.046143
1519649331277,0.250732,0.685059,0.028320
1519649331309,0.560791,1.113770,0.111816
1519649331342,0.770264,1.133301,0.168213
1519649331374,0.916260,1.246582,0.508301
1519649331406,0.940674,1.218506,0.660156
1519649331440,1.016846,1.437500,-0.196289
1519649331473,0.765381,1.088135,-0.100830
1519649331506,0.609375,0.681152,0.093994
1519649331538,1.057129,0.313232,-0.060547
1519649331594,1.034180,0.427979,-0.014893
1519649331626,0.504639,0.540039,0.147949
1519649331629,0.196045,0.467285,0.113037
1519649331660,0.105469,0.493408,0.162842
1519649331719,-0.040039,0.772217,0.311279
1519649331728,0.055176,0.660889,0.277100
1519649331776,0.101563,0.712891,0.236084
1519649331809,0.714600,1.150635,0.176758
1519649331882,1.089111,1.552979,0.216553
1519649331885,0.665039,1.469482,0.611328
1519649331950,0.729736,0.668457,0.055908
1519649332010,0.739014,1.105713,-0.077148
1519649332018,0.880615,1.028809,-0.344971
1519649332028,0.923584,0.695313,-0.261719
1519649332044,0.875488,0.851807,-0.212646
1519649332047,0.744385,0.932129,-0.066162
1519649332103,0.510986,0.608887,0.077393
1519649332136,0.347900,0.354004,0.190186
1519649332145,0.280029,0.143555,0.215576
1519649332194,0.177734,0.239990,0.138672
1519649332227,0.286621,0.477783,0.133789
1519649332260,0.466064,0.718750,0.141602
1519649332291,0.814453,1.127686,0.036865
1519649332324,0.951416,1.328613,0.017334
1519649332356,0.852295,1.447510,0.385986
1519649332369,0.875244,1.162109,0.468750
1519649332403,1.206299,1.325928,-0.082764
1519649332460,0.543701,1.039551,0.124512
1519649332464,0.689941,0.483887,-0.019287
1519649332522,0.989502,0.229736,-0.000244
1519649332556,0.898193,0.228516,0.097168
1519649332589,0.523926,0.465820,0.109863
1519649332621,0.357178,0.607422,0.149658
1519649332630,0.187256,0.676758,0.199463
1519649332680,0.092773,0.605225,0.224609
1519649332712,0.058838,0.564697,0.232910
1519649332721,0.186768,0.654297,0.228760
1519649332776,0.805420,1.077881,0.228516
1519649332806,0.882080,1.727295,0.239258
1519649332817,0.546875,1.626953,0.408936
1519649332873,0.914551,0.650391,0.008789
1519649332879,0.884521,0.975342,-0.099121
1519649332937,1.101563,0.831787,-0.299072
1519649332970,0.983643,0.516113,-0.272217
1519649333004,0.772461,0.594971,-0.158203
1519649333036,0.694092,0.925781,-0.019775
1519649333067,0.514893,0.665771,-0.030029
1519649333121,0.427490,0.393555,-0.019043
1519649333126,0.309326,0.357910,0.111572
1519649333154,0.239258,0.262207,0.103027
1519649333186,0.305176,0.265137,0.089844
1519649333218,0.445068,0.552002,0.124512
1519649333252,0.664551,0.923584,0.088623
1519649333285,0.922607,1.124512,0.071533
1519649333315,1.107666,1.393311,0.209961
1519649333348,0.858154,1.269043,0.399658
1519649333381,1.104980,1.416992,-0.134277
1519649333413,0.650635,1.086670,0.015869
1519649333447,0.648193,0.695068,0.032959
1519649333480,0.957031,0.347412,-0.064209
1519649333513,0.997559,0.349365,-0.017822
