1519647471277,0.276855,0.930908,-0.196777
1519647471309,0.303467,0.875000,-0.110596
1519647471342,0.632080,0.826416,0.140625
1519647471374,1.030518,0.884277,0.283203
1519647471407,1.247803,0.890137,0.238281
1519647471440,1.539795,0.866943,0.261230
1519647471472,1.392578,0.647949,0.241943
1519647471504,1.272705,0.383057,0.282471
1519647471537,1.153320,0.258789,0.318359
1519647471595,1.085449,0.233643,0.322021
1519647471601,0.916016,0.392090,0.250977
1519647471675,0.695313,0.488281,0.127930
1519647471680,0.661621,0.530029,0.122070
1519647471690,0.745605,0.505859,0.132813
1519647471753,0.924805,0.590088,0.219238
1519647471757,0.867920,0.569580,0.239502
1519647471813,0.843506,0.526123,0.269043
1519647471815,0.948730,0.618164,0.331787
1519647471873,1.064697,0.608643,0.335205
1519647471877,1.110352,0.495850,0.316650
1519647471932,1.166748,0.443115,0.389893
1519647471937,1.197021,0.500977,0.420166
1519647471994,1.184326,0.332031,0.304443
1519647472119,0.975342,0.295898,0.239746
1519647472127,0.822266,0.378906,0.180176
1519647472233,1.017334,0.425537,0.100586
1519647472237,1.237793,0.291748,0.051514
1519647472239,1.176758,0.229248,0.047852
1519647472288,1.081787,0.280518,0.078369
1519647472291,1.020264,0.272461,0.071533
1519647472294,0.962646,0.316650,0.057373
1519647472297,0.905762,0.335693,0.046631
1519647472300,0.836182,0.331787,0.063721
1519647472352,0.796387,0.363281,0.100342
1519647472355,0.766602,0.417236,0.176758
1519647472394,0.694824,0.308350,0.175293
1519647472427,0.600342,0.257080,0.219971
1519647472459,0.589111,0.380127,0.293457
1519647472518,0.875488,0.559082,0.203369
1519647472521,0.870361,0.859131,0.244141
1519647472577,0.742188,0.857422,0.318848
1519647472590,0.711670,0.657227,0.202148
1519647472641,0.806885,0.623535,0.159912
1519647472643,0.875244,0.618652,0.232178
1519647472703,0.969238,0.498291,0.238037
1519647472708,0.984375,0.440918,0.287842
1519647472763,0.943359,0.404297,0.274658
1519647472772,0.861084,0.489502,0.244385
1519647472818,0.841064,0.555908,0.277832
1519647472878,0.806885,0.546143,0.268799
1519647472880,0.737793,0.565430,0.291016
1519647472952,0.740234,0.586426,0.301025
1519647472955,0.796387,0.608398,0.317139
1519647472967,0.954590,0.676514,0.380615
1519647473025,1.086670,0.638428,0.391602
1519647473028,1.168457,0.583740,0.388428
1519647473084,1.176758,0.584717,0.385498
1519647473142,1.080322,0.581299,0.315674
1519647473145,1.001953,0.486328,0.268799
1519647473201,0.908691,0.266357,0.204590
1519647473203,0.902832,0.325928,0.186035
1519647473261,0.967529,0.412598,0.174805
1519647473264,1.057129,0.506592,0.142334
1519647473295,0.977295,0.425781,0.113281
1519647473329,0.863281,0.326172,0.085693
1519647473365,0.799805,0.338135,0.100586
1519647473414,0.769775,0.349121,0.073242
1519647473477,0.743408,0.350586,0.074951
1519647473480,0.750488,0.313477,0.087891
1519647473483,0.766113,0.315186,0.113770
1519647473537,0.790771,0.330322,0.135986
1519647473594,0.814453,0.356445,0.171387
1519647473597,0.827393,0.407471,0.244873
1519647473601,0.786133,0.442871,0.338623
1519647473658,0.960449,0.458008,0.388916
1519647473715,1.074219,0.510742,0.443848
1519647473719,0.971436,0.513672,0.503906
1519647473774,0.809814,0.471924,0.573242
1519647473777,0.795898,0.347656,0.436768
1519647473834,0.916260,0.337402,0.345215
1519647473837,1.117676,0.443115,0.338135
1519647473901,0.998291,0.501465,0.349609
1519647473903,0.871338,0.421875,0.346680
1519647473955,0.773682,0.394531,0.299316
1519647473964,0.767822,0.408447,0.259033
1519647474014,0.806396,0.479248,0.236816
1519647474046,0.786621,0.536865,0.225342
1519647474079,0.767090,0.524902,0.257080
1519647474112,0.787598,0.528564,0.282471
1519647474144,0.933350,0.546631,0.298340
1519647474177,1.020020,0.548340,0.312500
1519647474179,1.000977,0.507568,0.325195
1519647474241,0.950928,0.537598,0.348877
1519647474273,1.124512,0.676514,0.405762
1519647474277,1.175293,0.720459,0.381836
1519647474334,0.962646,0.461914,0.300781
1519647474367,0.843018,0.327393,0.278076
1519647474380,0.941650,0.381104,0.270020
1519647474433,1.125000,0.491943,0.260254
1519647474443,1.067139,0.445313,0.251221
1519647474501,0.940674,0.335449,0.217285
1519647474533,0.828857,0.306152,0.193115
1519647474565,0.792969,0.314697,0.179199
1519647474598,0.743896,0.319092,0.136475
1519647474633,0.737305,0.364258,0.141357
1519647474647,0.754639,0.382324,0.161377
1519647474679,0.746582,0.368408,0.157227
1519647474712,0.722168,0.348633,0.164551
1519647474743,0.729248,0.397949,0.184326
1519647474785,0.732910,0.448486,0.211182
1519647474813,0.815674,0.492920,0.242188
1519647474837,0.986816,0.555908,0.268066
1519647474869,1.113037,0.597168,0.307373
1519647474922,1.067871,0.531006,0.321777
1519647474929,0.882080,0.467773,0.304199
1519647474979,0.893311,0.439209,0.292236
1519647474993,1.036621,0.483887,0.305664
1519647475050,1.062500,0.478516,0.306641
1519647475064,0.955566,0.463379,0.296875
1519647475138,0.765625,0.447021,0.288574
1519647475145,0.649170,0.399658,0.220703
1519647475256,0.639893,0.458740,0.215332
1519647475261,0.740234,0.571289,0.229248
1519647475371,0.789307,0.566406,0.244629
1519647475374,0.807373,0.547607,0.278076
1519647475377,0.878174,0.524658,0.313232
1519647475387,1.010498,0.536621,0.341064
1519647475437,1.072266,0.513672,0.353027
1519647475440,1.057373,0.487793,0.361816
1519647475443,1.126709,0.612793,0.425781
1519647475446,1.126709,0.669922,0.435303
1519647475514,0.977051,0.500000,0.370117
1519647475517,0.828613,0.388672,0.322266
1519647475586,0.837158,0.365723,0.300781
1519647475589,1.024902,0.421143,0.280762
1519647475647,1.083984,0.444580,0.261719
1519647475656,0.984863,0.369873,0.237549
1519647475706,0.855225,0.320557,0.206543
1519647475709,0.803467,0.344482,0.176025
1519647475765,0.743408,0.381592,0.175293
1519647475822,0.692383,0.341553,0.141113
1519647475824,0.726563,0.325928,0.152588
1519647475826,0.755127,0.336670,0.183594
1519647475882,0.779297,0.368164,0.194580
1519647475896,0.798096,0.377441,0.206299
1519647475948,0.781250,0.394287,0.257080
1519647475957,0.852539,0.417236,0.264648
1519647476011,1.047607,0.488770,0.286865
1519647476024,1.072266,0.526123,0.337646
1519647476057,0.863037,0.470947,0.333252
1519647476089,0.780762,0.420654,0.292725
1519647476119,0.929443,0.466309,0.283936
1519647476177,1.081787,0.443115,0.271973
1519647476193,1.081055,0.394287,0.260010
1519647476207,0.968262,0.412354,0.250732
1519647476266,0.819580,0.413818,0.200439
1519647476300,0.745117,0.452637,0.204834
1519647476304,0.692139,0.517822,0.249023
1519647476366,0.734375,0.628174,0.251953
1519647476395,0.758057,0.648682,0.283936
1519647476455,0.804688,0.666260,0.310303
1519647476464,0.955566,0.689453,0.341309
1519647476523,1.031250,0.683350,0.345215
1519647476533,1.020264,0.575684,0.335938
1519647476584,1.079590,0.531250,0.368896
1519647476587,1.122314,0.602051,0.380859
1519647476642,1.140381,0.641602,0.365967
1519647476644,0.955322,0.432861,0.302002
1519647476703,0.806885,0.330566,0.242188
1519647476705,0.917480,0.396973,0.253174
1519647476770,1.064697,0.460693,0.259277
1519647476773,1.021240,0.408447,0.230225
1519647476797,0.925293,0.340576,0.213379
1519647476857,0.838135,0.327881,0.193359
1519647476890,0.806396,0.342773,0.167969
1519647476898,0.802490,0.329102,0.157715
1519647476950,0.823975,0.319580,0.163818
1519647476958,0.811523,0.293945,0.192627
1519647477036,0.795898,0.280273,0.169678
1519647477047,0.755371,0.324707,0.168945
1519647477098,0.746826,0.359131,0.186035
1519647477103,0.725586,0.410400,0.209473
1519647477156,0.821045,0.468262,0.245605
1519647477162,0.902344,0.496094,0.239746
1519647477190,0.993408,0.541504,0.273193
1519647477223,1.078125,0.503174,0.260254
1519647477255,0.990723,0.505371,0.252930
1519647477289,0.962402,0.464355,0.207764
1519647477320,1.108887,0.573242,0.243896
1519647477354,1.106445,0.610596,0.287598
1519647477386,0.981689,0.583984,0.309570
1519647477444,0.807861,0.507080,0.254639
1519647477453,0.751465,0.469238,0.228516
1519647477481,0.760254,0.492188,0.227539
1519647477524,0.816406,0.530518,0.254395
1519647477555,0.825195,0.604248,0.324219
1519647477589,0.793213,0.546875,0.366455
1519647477620,0.821045,0.467285,0.374268
1519647477652,0.921387,0.459961,0.387695
1519647477684,1.024170,0.461426,0.397461
1519647477718,1.038818,0.406982,0.344238
1519647477751,1.064453,0.429688,0.335205
1519647477785,1.128418,0.475342,0.323486
1519647477816,1.169922,0.470947,0.317139
1519647477850,1.135254,0.453369,0.290771
1519647477882,0.992188,0.406738,0.242676
1519647477915,0.806885,0.339355,0.193848
1519647477947,0.828613,0.350342,0.185791
1519647477955,0.902344,0.394531,0.187500
1519647478033,0.971436,0.416992,0.177979
1519647478038,0.888428,0.376221,0.148193
1519647478078,0.804688,0.340088,0.133545
1519647478138,0.749756,0.328613,0.146240
1519647478147,0.726074,0.343750,0.145020
1519647478188,0.665771,0.303223,0.149170
1519647478193,0.700928,0.343262,0.191895
1519647478226,0.745117,0.360352,0.211182
1519647478295,0.807129,0.362549,0.202393
1519647478303,0.953369,0.405273,0.238770
1519647478361,0.987305,0.465820,0.260742
1519647478408,1.062256,0.506104,0.261719
1519647478415,1.198486,0.560547,0.292480
1519647478423,1.136719,0.478760,0.278076
1519647478443,0.990967,0.394775,0.227295
1519647478479,0.815430,0.409912,0.202881
1519647478538,0.861084,0.449219,0.180176
1519647478546,0.944336,0.500732,0.174805
1519647478595,1.055908,0.470459,0.193604
1519647478598,0.966064,0.456787,0.184814
1519647478628,0.802734,0.418213,0.159424
1519647478661,0.751465,0.334473,0.128906
1519647478695,0.780029,0.298340,0.189453
1519647478754,0.807617,0.375732,0.178467
1519647478787,0.816162,0.405029,0.224854
1519647478800,0.866943,0.432129,0.349365
1519647478832,0.939697,0.466553,0.427246
1519647478865,1.000732,0.497803,0.483887
1519647478897,0.993164,0.462646,0.518799
1519647478929,1.009277,0.480713,0.578125
1519647478987,1.150146,0.594971,0.613770
1519647479020,0.982178,0.544434,0.536133
1519647479029,0.844238,0.380371,0.472168
1519647479077,0.838379,0.244385,0.380615
1519647479080,0.972412,0.270264,0.290771
1519647479111,1.168701,0.406982,0.262451
1519647479145,1.195557,0.402100,0.276855
1519647479202,1.057373,0.335938,0.265869
1519647479216,0.933594,0.334961,0.259521
1519647479249,0.831055,0.336182,0.206299
1519647479281,0.781738,0.318604,0.169678
1519647479315,0.736816,0.294434,0.163818
1519647479359,0.694580,0.282715,0.193848
1519647479392,0.705322,0.312988,0.208252
1519647479425,0.735107,0.344727,0.230225
1519647479461,0.794678,0.343994,0.237549
1519647479495,0.831299,0.374268,0.230957
1519647479503,0.819580,0.432129,0.262451
1519647479551,0.988037,0.411377,0.330078
1519647479584,1.123047,0.447266,0.299072
1519647479616,1.156738,0.505859,0.293213
1519647479658,1.083252,0.545166,0.333252
1519647479667,1.028564,0.480957,0.259521
1519647479691,0.996338,0.421631,0.240723
1519647479750,1.050537,0.295166,0.215332
1519647479781,1.018066,0.295654,0.165283
1519647479815,0.917969,0.368164,0.144043
1519647479824,0.809570,0.406982,0.152100
1519647479880,0.762207,0.403564,0.187744
1519647479910,0.731445,0.425293,0.169434
1519647479943,0.754639,0.525391,0.208984
1519647479975,0.745850,0.520020,0.238281
1519647479980,0.760742,0.555664,0.304932
1519647480033,0.901123,0.594482,0.363770
1519647480069,0.958008,0.555908,0.366699
1519647480073,0.928223,0.473877,0.354492
1519647480129,1.041992,0.475586,0.433350
1519647480161,1.212158,0.546387,0.449707
1519647480194,1.178955,0.528564,0.423584
1519647480230,0.982178,0.413330,0.403320
1519647480237,0.971924,0.382080,0.398682
1519647480294,1.029053,0.382324,0.371094
1519647480327,1.138672,0.378174,0.336426
1519647480359,1.156006,0.376709,0.343506
1519647480393,1.034424,0.294678,0.328125
1519647480430,0.870117,0.222412,0.278076
1519647480444,0.781982,0.245117,0.253906
1519647480475,0.728027,0.233887,0.241211
1519647480509,0.708496,0.266846,0.230225
1519647480541,0.687500,0.287842,0.213135
1519647480573,0.623535,0.279785,0.189941
1519647480639,0.648193,0.344727,0.170410
1519647480651,0.709229,0.372314,0.139893
1519647480671,0.780762,0.426025,0.173340
1519647480703,0.945313,0.494873,0.252441
1519647480736,1.119385,0.499023,0.212646
1519647480769,1.420166,0.522461,0.200684
1519647480802,1.441162,0.633789,0.298584
1519647480836,1.039795,0.531494,0.252441
1519647480877,0.812988,0.468506,0.271240
1519647480908,0.895752,0.335449,0.244385
1519647480940,0.991455,0.481201,0.170654
1519647480972,0.970215,0.545410,0.120850
1519647481006,0.765381,0.485352,0.211182
1519647481039,0.628174,0.419922,0.230469
1519647481072,0.576660,0.418457,0.219727
1519647481103,0.552490,0.510254,0.213135
1519647481134,0.617920,0.601318,0.257080
1519647481140,0.689209,0.649902,0.295166
1519647481194,0.892578,0.676758,0.401367
1519647481227,1.038818,0.611328,0.375732
1519647481236,1.080322,0.574951,0.382080
1519647481300,1.008057,0.525146,0.381836
1519647481303,1.064697,0.630371,0.407959
1519647481378,1.181885,0.634521,0.432129
1519647481383,1.104492,0.509033,0.351318
1519647481500,0.961914,0.400391,0.336426
1519647481508,0.932129,0.283936,0.298340
1519647481567,1.003418,0.358643,0.247803
1519647481575,1.082275,0.432617,0.221924
1519647481586,1.025879,0.441895,0.228760
1519647481594,0.878662,0.305664,0.185059
1519647481616,0.817383,0.314941,0.178955
1519647481650,0.785889,0.328125,0.162354
1519647481666,0.751953,0.328857,0.142578
1519647481722,0.735107,0.316162,0.146729
1519647481727,0.756104,0.297363,0.200928
1519647481781,0.679932,0.219482,0.074219
1519647481789,0.694580,0.329102,0.095215
1519647481819,0.809082,0.547852,0.188965
1519647481876,0.845703,0.661865,0.217529
1519647481884,0.978271,0.681885,0.228271
1519647481918,1.157959,0.695557,0.293457
1519647481950,1.050781,0.576416,0.308838
1519647482007,0.795654,0.456055,0.287354
1519647482012,0.767334,0.457764,0.273682
1519647482071,0.909180,0.469727,0.229004
1519647482084,0.979980,0.524902,0.250488
1519647482117,0.895508,0.490723,0.254883
1519647482149,0.765869,0.483154,0.236816
1519647482207,0.703369,0.472656,0.232666
1519647482210,0.685547,0.460449,0.196045
1519647482267,0.729004,0.528076,0.218994
1519647482299,0.773193,0.541504,0.239502
1519647482304,0.796631,0.547607,0.281250
1519647482362,0.870117,0.628174,0.379883
1519647482371,0.930176,0.597900,0.406006
1519647482422,0.976563,0.479248,0.370605
1519647482455,1.063232,0.433350,0.415039
1519647482462,1.094971,0.566162,0.457275
1519647482520,1.052246,0.585693,0.430908
1519647482552,0.996582,0.561523,0.399414
1519647482585,0.930908,0.468994,0.385010
1519647482619,0.830322,0.375977,0.326660
1519647482651,0.849121,0.418213,0.279297
1519647482683,0.944580,0.446533,0.279785
1519647482715,1.013428,0.437256,0.255615
1519647482749,0.924072,0.348389,0.213135
1519647482780,0.839355,0.309814,0.188477
1519647482785,0.778320,0.320801,0.158447
1519647482840,0.742432,0.346191,0.149170
1519647482848,0.736084,0.363525,0.156494
1519647482903,0.735107,0.352539,0.166504
1519647482916,0.732666,0.347412,0.177002
1519647482948,0.765137,0.353516,0.184570
1519647482980,0.786621,0.363770,0.200195
1519647483013,0.824219,0.413574,0.261719
1519647483045,0.907471,0.427979,0.260742
1519647483077,1.070313,0.511963,0.274170
1519647483135,1.077637,0.560791,0.385498
1519647483169,0.885010,0.489258,0.402588
1519647483177,0.725586,0.419678,0.369873
1519647483227,0.854492,0.531982,0.389648
1519647483264,0.973633,0.515381,0.378662
1519647483272,1.016357,0.436279,0.366211
1519647483327,0.884277,0.443604,0.339111
1519647483335,0.772217,0.469482,0.323730
1519647483386,0.692139,0.515869,0.313965
1519647483418,0.674316,0.550049,0.300293
1519647483449,0.708740,0.580566,0.294189
1519647483483,0.724365,0.585938,0.301025
1519647483515,0.835449,0.556885,0.322021
1519647483547,0.962646,0.531738,0.335693
1519647483579,1.052002,0.507324,0.343750
1519647483611,1.057129,0.436768,0.339844
1519647483643,1.042480,0.485596,0.360352
1519647483676,1.056641,0.519043,0.377197
1519647483708,1.033447,0.543213,0.362793
1519647483750,1.023926,0.490967,0.339355
1519647483753,0.979248,0.453613,0.337646
1519647483812,0.867676,0.386963,0.287354
1519647483845,0.861816,0.410400,0.259766
1519647483853,0.907715,0.416016,0.240967
1519647483904,0.976563,0.394287,0.227295
1519647483913,0.917969,0.321777,0.190674
1519647483967,0.829834,0.259521,0.165771
1519647484000,0.754395,0.303467,0.135986
1519647484009,0.728516,0.327881,0.142334
1519647484040,0.689697,0.357178,0.145752
1519647484097,0.746094,0.358643,0.149902
1519647484131,0.828857,0.364258,0.161377
1519647484145,0.862305,0.330811,0.170410
1519647484179,0.857422,0.398926,0.231934
1519647484209,0.844238,0.421143,0.280762
1519647484241,0.843994,0.428711,0.320313
1519647484277,0.919189,0.436279,0.349854
1519647484308,0.989746,0.446533,0.397705
1519647484342,0.985596,0.504395,0.425293
1519647484401,0.842285,0.511475,0.466797
1519647484410,0.824463,0.432617,0.442139
1519647484436,0.880859,0.409912,0.413330
1519647484508,0.928467,0.494141,0.428711
1519647484517,0.937500,0.509521,0.436279
1519647484576,0.949219,0.513428,0.453613
1519647484644,0.835449,0.470947,0.406250
1519647484655,0.798340,0.462891,0.340820
1519647484661,0.812744,0.566406,0.290771
1519647484664,0.763916,0.428223,0.275635
1519647484711,0.763672,0.325439,0.308594
1519647484743,0.770752,0.327393,0.284424
1519647484776,0.791260,0.441406,0.289063
1519647484810,0.856445,0.504639,0.299316
1519647484844,0.943848,0.446777,0.306396
1519647484876,0.969482,0.476318,0.306641
1519647484910,0.972656,0.591797,0.283936
1519647484918,0.921631,0.600098,0.287354
1519647484966,0.932861,0.683105,0.306641
1519647484972,1.028076,0.599854,0.336670
1519647485016,1.009277,0.363281,0.303955
1519647485078,0.836914,0.421631,0.225830
1519647485083,0.812744,0.385498,0.158936
1519647485108,0.891357,0.522705,0.158936
1519647485141,1.066650,0.538574,0.164307
1519647485175,1.059326,0.440674,0.150879
1519647485205,0.945313,0.325684,0.126709
1519647485243,0.774658,0.337891,0.108398
1519647485276,0.715576,0.411133,0.090820
1519647485308,0.669922,0.401611,0.080566
1519647485340,0.763428,0.393799,0.154053
1519647485372,0.888428,0.376709,0.173096
1519647485404,0.908936,0.327393,0.132568
1519647485437,0.908203,0.299561,0.189697
1519647485468,0.887695,0.322266,0.223633
1519647485501,0.904541,0.374268,0.240234
1519647485559,1.041504,0.523682,0.319336
1519647485562,1.012695,0.506836,0.377197
1519647485593,0.868652,0.407959,0.413086
1519647485651,0.746094,0.265869,0.366211
1519647485660,0.844238,0.315186,0.309814
1519647485683,0.981445,0.374512,0.314209
1519647485759,0.932861,0.425537,0.358887
1519647485767,0.835205,0.431152,0.379150
1519647485793,0.782471,0.361084,0.363770
1519647485836,0.719482,0.272705,0.322266
1519647485868,0.720459,0.364502,0.289063
1519647485901,0.761963,0.457520,0.304688
1519647485933,0.773438,0.488037,0.327393
1519647485986,0.815918,0.469238,0.326904
1519647485994,0.900146,0.589600,0.359375
1519647486041,0.941162,0.585693,0.403809
1519647486071,1.013184,0.540771,0.408447
1519647486077,1.047119,0.479248,0.432861
1519647486105,1.310547,0.532471,0.501709
1519647486137,1.202881,0.464844,0.430908
1519647486170,1.040283,0.390137,0.397949
1519647486205,0.831055,0.338379,0.352295
1519647486237,0.825439,0.305176,0.305176
1519647486271,0.953857,0.321289,0.238037
1519647486307,1.073486,0.407715,0.219238
1519647486339,0.941895,0.343018,0.216064
1519647486373,0.827148,0.282471,0.207764
1519647486406,0.757080,0.328613,0.185303
1519647486438,0.765137,0.340820,0.187012
1519647486470,0.773926,0.329346,0.208496
1519647486502,0.775879,0.301758,0.211182
1519647486535,0.799805,0.322998,0.220947
1519647486566,0.834717,0.347168,0.220215
1519647486602,0.857666,0.398193,0.239258
1519647486631,0.896240,0.411133,0.201416
1519647486664,1.097412,0.514404,0.271484
1519647486696,0.987305,0.459229,0.275146
1519647486728,0.912598,0.476318,0.276367
1519647486761,0.814697,0.472168,0.234619
1519647486795,0.734863,0.565430,0.172852
1519647486828,0.895020,0.737061,0.327881
1519647486861,0.956055,0.540771,0.303955
1519647486914,0.867676,0.467529,0.306396
1519647486923,0.792480,0.388184,0.308350
1519647486963,0.757080,0.461426,0.310791
1519647486996,0.766846,0.503662,0.338623
1519647487040,0.765137,0.547852,0.348145
1519647487048,0.804443,0.581055,0.380127
1519647487096,0.882568,0.553223,0.410156
1519647487099,0.901123,0.531738,0.413574
1519647487135,0.887939,0.556885,0.448486
1519647487171,0.849854,0.574463,0.456543
1519647487202,1.182617,0.761475,0.559326
1519647487235,1.196289,0.587646,0.584229
1519647487269,1.022461,0.410156,0.469238
1519647487302,0.856689,0.352783,0.368164
1519647487334,0.870361,0.312988,0.317383
1519647487365,1.008545,0.407715,0.275146
1519647487398,0.973877,0.383301,0.223633
1519647487430,0.896729,0.342285,0.197021
1519647487462,0.770996,0.316406,0.173340
1519647487495,0.687988,0.323242,0.154297
1519647487529,0.635986,0.328857,0.122803
1519647487586,0.625000,0.351807,0.111328
1519647487595,0.652588,0.364746,0.129395
1519647487660,0.725830,0.354980,0.160156
1519647487669,0.884033,0.357422,0.148926
1519647487726,0.985840,0.375977,0.184082
1519647487729,1.012207,0.417480,0.245850
1519647487764,1.111084,0.406006,0.256836
1519647487797,1.159668,0.511475,0.330322
1519647487830,1.002930,0.531982,0.365234
1519647487864,0.737305,0.452393,0.341797
1519647487897,0.772461,0.398193,0.334229
1519647487930,0.924316,0.376953,0.305420
1519647487961,1.033203,0.443359,0.284912
1519647487994,0.942871,0.432861,0.269775
1519647488027,0.822998,0.421387,0.246338
1519647488057,0.685059,0.421143,0.188477
1519647488090,0.673584,0.468262,0.181885
1519647488093,0.717773,0.527832,0.199219
1519647488152,0.743896,0.575195,0.242920
1519647488185,0.784668,0.553467,0.294189
1519647488193,0.918213,0.610840,0.366943
1519647488250,1.027588,0.577637,0.418945
1519647488256,1.058350,0.511230,0.443848
1519647488317,1.239746,0.570068,0.543701
1519647488325,1.079346,0.520264,0.491699
1519647488382,0.956055,0.400391,0.425049
1519647488391,0.877686,0.377441,0.404541
1519647488447,0.933838,0.348633,0.326904
1519647488481,1.046631,0.390625,0.291748
1519647488511,1.140625,0.432861,0.275635
1519647488545,0.975830,0.319336,0.255615
1519647488576,0.860352,0.261963,0.229736
1519647488585,0.799072,0.283447,0.207275
1519647488636,0.768311,0.290283,0.187012
1519647488679,0.748535,0.283203,0.186035
1519647488687,0.732178,0.273438,0.186279
1519647488735,0.735107,0.274414,0.181396
1519647488741,0.801270,0.318359,0.176514
1519647488799,0.855225,0.356201,0.188477
1519647488832,0.848389,0.366699,0.199219
1519647488841,0.930420,0.404541,0.179443
1519647488894,1.039795,0.460205,0.192627
1519647488926,1.022461,0.467041,0.240234
1519647488959,1.019287,0.479492,0.270996
1519647488991,0.961670,0.441406,0.237061
1519647489023,0.936523,0.416504,0.183838
1519647489055,1.035889,0.508545,0.212891
1519647489088,1.108887,0.566406,0.257324
1519647489123,0.963623,0.524414,0.252686
1519647489156,0.809570,0.485107,0.226074
1519647489158,0.754639,0.480713,0.240479
1519647489215,0.776123,0.523682,0.264404
1519647489248,0.837158,0.563477,0.292480
1519647489253,0.826172,0.538086,0.332764
1519647489311,0.813477,0.538818,0.395996
1519647489342,0.885254,0.512939,0.421143
1519647489374,0.935303,0.420654,0.432373
1519647489408,0.914795,0.338867,0.421387
1519647489440,0.937988,0.351074,0.442871
1519647489473,1.018799,0.390869,0.448486
1519647489505,1.170166,0.370605,0.391113
1519647489538,1.013428,0.172119,0.307373
1519647489571,0.832031,0.118652,0.283447
1519647489606,0.859375,0.132324,0.247070
1519647489631,0.885498,0.068359,0.177979
1519647489668,0.846191,0.120605,0.155273
1519647489696,0.982910,0.190918,0.135986
1519647489728,1.112793,0.167236,0.130127
1519647489760,0.992188,0.147461,0.165527
1519647489792,0.855469,0.177734,0.220459
1519647489829,0.795410,0.310547,0.254395
1519647489835,0.842773,0.352539,0.244629
1519647489891,0.862305,0.357910,0.240234
1519647489923,0.862793,0.368652,0.274902
1519647489958,0.835205,0.393311,0.286377
1519647489990,0.882813,0.439209,0.283203
1519647490023,0.954590,0.473389,0.263672
1519647490056,1.009521,0.504883,0.282959
1519647490073,0.962402,0.462402,0.284668
1519647490124,0.905762,0.455811,0.261230
1519647490157,1.061279,0.542725,0.265625
1519647490190,0.984375,0.535156,0.331299
1519647490221,0.849609,0.441895,0.306885
1519647490254,0.646484,0.394043,0.316895
1519647490286,0.569824,0.438477,0.249268
1519647490289,0.831543,0.528076,0.258789
1519647490320,1.039063,0.476074,0.277588
1519647490352,1.023438,0.403320,0.319580
1519647490386,0.897217,0.329834,0.308594
1519647490420,0.829834,0.364746,0.267578
1519647490452,0.822021,0.350586,0.228760
1519647490485,0.800537,0.324219,0.218018
1519647490541,0.818848,0.356201,0.269775
1519647490557,0.726074,0.378906,0.294434
1519647490590,0.678223,0.467529,0.295898
1519647490622,0.812500,0.638184,0.390381
1519647490654,0.909424,0.638428,0.451660
1519647490688,0.953857,0.606201,0.493896
1519647490759,0.994385,0.600586,0.500977
1519647490765,1.139160,0.738037,0.527832
1519647490830,0.989258,0.660889,0.381348
1519647490833,0.858398,0.365723,0.325928
1519647490894,0.770996,0.148682,0.307861
1519647490897,0.851074,0.304932,0.277100
1519647490911,0.993164,0.498047,0.276855
1519647490944,0.914795,0.506592,0.234131
1519647490985,0.856689,0.344482,0.188477
1519647491017,0.836670,0.311768,0.160889
1519647491028,0.781494,0.345215,0.129883
1519647491086,0.752930,0.333984,0.127197
1519647491118,0.768311,0.332520,0.133789
1519647491152,0.768066,0.331299,0.178223
1519647491184,0.765869,0.353516,0.196045
1519647491216,0.791748,0.358398,0.221924
1519647491249,0.787842,0.369385,0.278320
1519647491282,0.769043,0.379883,0.305908
1519647491291,0.843506,0.400391,0.303223
1519647491342,1.033203,0.487793,0.333984
1519647491355,1.080566,0.528564,0.369629
1519647491389,1.071777,0.512939,0.389404
1519647491446,0.877197,0.411621,0.302979
1519647491454,0.779297,0.357910,0.230957
1519647491503,0.934814,0.396484,0.213379
1519647491536,1.093262,0.478027,0.231934
1519647491569,1.006104,0.460938,0.209961
1519647491578,0.881104,0.429443,0.177246
1519647491633,0.777832,0.416260,0.143311
1519647491664,0.765381,0.416992,0.150146
1519647491704,0.782715,0.400635,0.141846
1519647491731,0.819092,0.423828,0.171387
1519647491791,0.802246,0.442627,0.215820
1519647491800,0.885010,0.485840,0.298584
1519647491855,1.104736,0.497803,0.361572
1519647491860,0.980713,0.657227,0.465820
1519647491865,0.876953,0.677979,0.530273
1519647491917,0.944092,0.669922,0.542236
1519647491975,1.005859,0.680176,0.493164
1519647491980,0.997803,0.652832,0.436523
1519647492037,0.827881,0.482178,0.356934
1519647492040,0.822266,0.380127,0.306641
1519647492099,0.977295,0.351807,0.303711
1519647492102,1.256348,0.403320,0.300049
1519647492157,1.237061,0.366699,0.280762
1519647492161,1.066650,0.293945,0.250977
1519647492216,0.898682,0.309326,0.214111
1519647492230,0.791016,0.321533,0.183350
1519647492281,0.741211,0.311768,0.164795
1519647492342,0.741943,0.306396,0.173584
1519647492351,0.727539,0.265381,0.177246
1519647492359,0.720703,0.281006,0.185547
1519647492400,0.746338,0.343994,0.192627
1519647492437,0.779053,0.386719,0.206055
1519647492445,0.852539,0.418213,0.297363
1519647492498,0.917725,0.362549,0.308594
1519647492531,1.013916,0.364502,0.291016
1519647492564,1.109619,0.444092,0.343994
1519647492597,1.044189,0.494385,0.438477
1519647492635,0.874023,0.409180,0.359863
1519647492643,0.891602,0.372559,0.272705
1519647492674,1.034912,0.481445,0.252197
1519647492731,1.083984,0.437988,0.217529
1519647492765,1.028809,0.429443,0.189697
1519647492774,0.891846,0.409424,0.145996
1519647492828,0.781250,0.452881,0.114502
1519647492861,0.666748,0.561035,0.188232
1519647492894,0.700439,0.595947,0.254150
1519647492927,0.721924,0.542236,0.296875
1519647492935,0.733643,0.523438,0.346680
1519647492988,0.789795,0.564209,0.392822
1519647493022,0.892578,0.625488,0.428467
1519647493030,0.966797,0.621582,0.419434
1519647493080,0.990967,0.545410,0.387451
1519647493112,1.082520,0.554443,0.405029
1519647493145,1.119629,0.614990,0.421387
1519647493177,0.991943,0.569824,0.377197
1519647493210,0.841064,0.451416,0.328613
1519647493242,0.827393,0.371582,0.293701
1519647493276,0.980225,0.431152,0.279785
1519647493310,1.039063,0.454834,0.262939
1519647493344,1.024414,0.409668,0.230469
1519647493376,0.998535,0.352539,0.186523
1519647493409,0.954590,0.354736,0.163086
1519647493440,0.889648,0.334229,0.116699
1519647493454,0.865479,0.331543,0.107178
1519647493512,0.819580,0.369141,0.136963
1519647493521,0.811523,0.388428,0.152344
1519647493546,0.796387,0.398438,0.204346
1519647493603,0.685791,0.333740,0.200928
1519647493611,0.645996,0.337402,0.196533
1519647493660,0.674561,0.447510,0.267334
1519647493694,0.675293,0.471191,0.254883
1519647493724,0.784424,0.524658,0.243408
1519647493757,0.897705,0.592285,0.260986
1519647493791,1.000488,0.582764,0.294189
1519647493824,0.934082,0.495117,0.272705
1519647493896,0.879150,0.508301,0.271973
1519647493904,0.967285,0.576172,0.297363
1519647493964,1.042725,0.600098,0.326904
1519647493973,1.043701,0.576904,0.351807
1519647494005,0.927490,0.548584,0.336670
1519647494008,0.794434,0.511230,0.311035
1519647494039,0.703857,0.514404,0.305908
1519647494078,0.713623,0.568115,0.311035
1519647494105,0.741943,0.604980,0.310303
1519647494137,0.752197,0.622803,0.306396
1519647494169,0.756348,0.629395,0.300049
1519647494202,0.883057,0.961914,0.298096
1519647494234,1.080566,0.560791,0.319824
1519647494267,1.145508,0.274414,0.350342
1519647494299,1.159180,0.218994,0.350586
1519647494340,1.129150,0.365967,0.330811
1519647494373,1.097412,0.445801,0.267090
1519647494406,0.990967,0.468506,0.207275
1519647494438,0.848389,0.392090,0.120850
1519647494471,0.897949,0.439941,0.126953
1519647494481,0.981689,0.496094,0.131348
1519647494529,1.040039,0.485840,0.133789
1519647494535,0.977783,0.401123,0.126953
1519647494568,0.874756,0.298096,0.084473
1519647494627,0.796387,0.289795,0.117432
1519647494635,0.797119,0.346680,0.116943
1519647494690,0.819824,0.359131,0.134033
1519647494718,0.810547,0.317627,0.154785
1519647494734,0.796875,0.348389,0.202881
1519647494762,0.808838,0.384521,0.264648
1519647494822,0.845703,0.372803,0.327881
1519647494852,0.809082,0.347168,0.396729
1519647494885,0.896240,0.330078,0.390137
1519647494920,1.024414,0.422119,0.446533
1519647494952,0.897705,0.433105,0.484863
1519647494955,0.680420,0.346436,0.422607
1519647495011,0.780273,0.384766,0.322266
1519647495045,0.922363,0.445313,0.295898
1519647495050,0.988525,0.478516,0.296875
1519647495105,0.937256,0.468262,0.327881
1519647495136,0.837891,0.435303,0.297363
1519647495151,0.789551,0.403076,0.235840
1519647495208,0.825439,0.441650,0.221924
1519647495214,0.844238,0.500000,0.234619
1519647495271,0.868408,0.536621,0.266113
1519647495304,0.842041,0.510742,0.265381
1519647495337,0.864014,0.568115,0.292725
1519647495368,0.938232,0.627441,0.345703
1519647495401,1.022461,0.599854,0.352783
1519647495434,0.974121,0.541260,0.359131
1519647495466,1.000244,0.551270,0.415771
1519647495498,1.114990,0.716553,0.473389
1519647495531,1.095459,0.659424,0.437988
1519647495537,0.969727,0.541504,0.368652
1519647495578,0.807617,0.380127,0.285156
1519647495635,0.932373,0.409424,0.294922
1519647495641,1.094238,0.437744,0.255615
1519647495694,1.122559,0.461182,0.222412
1519647495700,1.047607,0.363281,0.184570
1519647495754,0.981445,0.337402,0.170410
1519647495797,0.916992,0.359375,0.141602
1519647495803,0.857178,0.348389,0.124023
1519647495831,0.792969,0.328857,0.101074
1519647495867,0.743164,0.311035,0.124023
1519647495920,0.759033,0.320557,0.128418
1519647495973,0.790039,0.299805,0.128418
1519647495997,0.754883,0.323242,0.155029
1519647496011,0.728027,0.365234,0.199219
1519647496043,0.746826,0.401855,0.273193
1519647496075,0.879883,0.396240,0.228516
1519647496108,1.025391,0.434814,0.257324
1519647496113,1.113525,0.519531,0.340332
1519647496167,0.952148,0.469238,0.355713
1519647496201,0.835205,0.461182,0.316162
1519647496233,0.965576,0.537109,0.324463
1519647496266,1.112061,0.510498,0.316406
1519647496299,1.112549,0.450684,0.328369
1519647496331,1.000488,0.408203,0.291992
1519647496364,0.829346,0.444336,0.256836
1519647496398,0.747070,0.488281,0.229492
1519647496410,0.748535,0.506104,0.221191
1519647496442,0.772705,0.550537,0.224365
1519647496501,0.837891,0.572998,0.250732
1519647496534,0.848389,0.531494,0.285400
1519647496567,0.870117,0.493896,0.315186
1519647496575,0.925537,0.470703,0.371094
1519647496631,1.030518,0.385010,0.369385
1519647496665,1.081299,0.383301,0.361328
1519647496696,1.118652,0.447266,0.397217
1519647496705,1.099854,0.494873,0.415527
1519647496754,1.020264,0.459717,0.381836
1519647496787,0.948242,0.426270,0.348633
1519647496792,0.911865,0.325684,0.301514
1519647496856,0.992432,0.391602,0.298340
1519647496859,1.107422,0.415283,0.281982
1519647496917,1.145752,0.368652,0.258545
1519647496989,1.015625,0.285400,0.202148
1519647496994,0.904053,0.261719,0.164063
1519647497055,0.823730,0.275635,0.120605
1519647497058,0.760986,0.333740,0.147461
1519647497122,0.730957,0.337402,0.128174
1519647497125,0.732422,0.316895,0.120850
1519647497128,0.735107,0.294189,0.120605
1519647497160,0.736816,0.295898,0.118408
1519647497193,0.783691,0.358643,0.141113
1519647497234,0.833984,0.421631,0.198242
1519647497278,0.899170,0.435547,0.219727
1519647497286,1.040283,0.477783,0.250000
1519647497311,1.096191,0.525146,0.274902
1519647497343,1.118896,0.580811,0.344238
1519647497376,1.047119,0.534180,0.346680
1519647497409,0.989258,0.400391,0.239990
1519647497441,1.025879,0.388916,0.218506
1519647497473,1.083496,0.430176,0.225586
1519647497506,1.035645,0.522705,0.246338
1519647497563,0.879150,0.506592,0.240723
1519647497569,0.747559,0.431885,0.200684
1519647497602,0.675537,0.425293,0.197998
1519647497661,0.721436,0.470703,0.219971
1519647497666,0.804443,0.545166,0.270752
1519647497719,0.861572,0.541016,0.347656
1519647497725,0.882324,0.546143,0.411133
1519647497755,0.916504,0.496826,0.452148
1519647497815,0.951660,0.469482,0.472168
1519647497821,0.950195,0.475342,0.431152
1519647497877,1.022461,0.587891,0.448975
1519647497909,1.036621,0.562744,0.398193
1519647497943,0.984375,0.419922,0.288330
1519647497951,0.946777,0.265625,0.223145
1519647498033,1.027832,0.290527,0.190186
1519647498039,1.125977,0.388672,0.226563
1519647498100,1.114502,0.421875,0.213623
1519647498105,0.950195,0.361816,0.165283
1519647498159,0.868896,0.362305,0.155273
1519647498165,0.845947,0.367920,0.151855
1519647498188,0.805664,0.326416,0.145508
1519647498219,0.775635,0.319580,0.140137
1519647498252,0.776367,0.307373,0.140137
1519647498310,0.822998,0.312012,0.155029
1519647498315,0.851074,0.317139,0.153809
1519647498344,0.875000,0.358887,0.181885
1519647498400,0.862305,0.366699,0.237061
1519647498403,0.888428,0.350342,0.228271
1519647498434,0.945313,0.457275,0.296875
1519647498491,0.925293,0.420654,0.368896
1519647498524,0.791504,0.394775,0.333496
1519647498558,0.774170,0.546631,0.420166
1519647498566,0.947021,0.474121,0.352295
1519647498623,1.135498,0.494629,0.313232
1519647498655,1.172119,0.538574,0.317139
1519647498689,1.040283,0.491943,0.329102
1519647498720,0.895020,0.434814,0.279541
1519647498725,0.786133,0.410400,0.230713
1519647498782,0.720215,0.410645,0.183105
1519647498815,0.734375,0.460449,0.182129
1519647498821,0.737793,0.482178,0.180176
1519647498879,0.746094,0.499756,0.207275
1519647498885,0.810791,0.495361,0.310547
1519647498944,0.909668,0.508301,0.346436
1519647498982,0.984131,0.572266,0.413086
1519647498985,0.877197,0.575928,0.500000
1519647499038,1.033447,0.740234,0.628662
1519647499097,1.128174,0.655762,0.484619
1519647499100,1.067627,0.452881,0.359619
1519647499156,0.905762,0.427979,0.330322
1519647499161,0.846436,0.452637,0.272949
1519647499198,0.830566,0.403320,0.201904
1519647499229,0.836182,0.401855,0.159912
1519647499262,0.955322,0.464844,0.159180
1519647499295,1.040039,0.404541,0.193115
1519647499304,0.970703,0.199951,0.075439
1519647499358,0.870605,0.222412,0.081543
1519647499390,0.853760,0.364014,0.135254
1519647499400,0.826904,0.365967,0.127197
1519647499453,0.849609,0.393799,0.183594
1519647499486,0.845703,0.373779,0.209229
1519647499518,0.826904,0.359375,0.251465
1519647499551,0.813965,0.359619,0.319580
1519647499586,0.846436,0.368164,0.382080
1519647499619,0.812744,0.363770,0.435303
1519647499652,0.890137,0.385498,0.470947
1519647499665,0.949707,0.476074,0.503418
1519647499723,0.914063,0.512207,0.552490
1519647499733,0.993652,0.462158,0.499756
1519647499763,0.979736,0.364258,0.323242
1519647499797,0.954346,0.295898,0.236572
1519647499839,1.020508,0.387695,0.151123
1519647499871,1.069336,0.416016,0.141602
1519647499902,1.095215,0.472656,0.131836
1519647499936,0.969971,0.480713,0.089844
1519647499971,0.883301,0.439209,0.073486
1519647500012,0.812500,0.421631,0.069092
1519647500076,0.754395,0.441406,0.123291
1519647500085,0.732666,0.402100,0.143799
1519647500195,0.729492,0.446777,0.172363
1519647500204,0.738525,0.482422,0.260254
1519647500210,0.809570,0.504150,0.310547
1519647500262,0.887207,0.584473,0.397705
1519647500268,0.912354,0.554199,0.463867
1519647500298,0.877930,0.477539,0.461914
1519647500307,0.892578,0.499512,0.491211
1519647500334,1.071777,0.584229,0.512207
1519647500366,1.148193,0.588867,0.479980
1519647500398,1.030029,0.500000,0.434814
1519647500429,0.886475,0.396240,0.388184
1519647500461,0.946777,0.387207,0.313232
1519647500464,1.105469,0.353516,0.276123
1519647500495,1.206787,0.333984,0.256348
1519647500553,1.145996,0.326416,0.266357
1519647500557,1.095947,0.314209,0.269287
1519647500616,1.012207,0.316162,0.233887
1519647500650,0.925781,0.306396,0.211914
1519647500683,0.838867,0.306885,0.216064
1519647500696,0.770020,0.285400,0.205566
1519647500753,0.709473,0.302246,0.201416
1519647500761,0.669434,0.311523,0.198975
1519647500814,0.664063,0.301270,0.165039
1519647500848,0.681152,0.344238,0.170654
1519647500880,0.722900,0.404053,0.194580
1519647500894,0.812500,0.465332,0.238770
1519647500927,1.044922,0.513916,0.282471
1519647500959,1.302734,0.572510,0.378174
1519647501036,1.350342,0.537109,0.449707
1519647501040,1.144531,0.354492,0.389160
1519647501043,0.871094,0.282227,0.330078
1519647501111,0.803711,0.381104,0.271240
1519647501114,0.881592,0.487305,0.248291
1519647501183,0.912109,0.467773,0.216064
1519647501189,0.979248,0.387207,0.185303
1519647501219,0.879150,0.410156,0.168457
1519647501250,0.759277,0.381104,0.153564
1519647501282,0.673584,0.397705,0.131104
1519647501349,0.671875,0.431396,0.134766
1519647501354,0.681152,0.485352,0.146484
1519647501410,0.695313,0.517090,0.227783
1519647501418,0.693848,0.504883,0.252441
1519647501467,0.755859,0.534424,0.300537
1519647501474,0.926025,0.591064,0.368408
1519647501532,0.987061,0.611816,0.397217
1519647501536,0.952637,0.616211,0.400391
1519647501594,1.013428,0.701172,0.437988
1519647501602,1.094238,0.757080,0.474121
1519647501653,1.068115,0.640137,0.439941
1519647501659,1.039551,0.544678,0.457275
1519647501715,0.771973,-0.396973,0.160156
1519647501728,0.871582,-0.002441,0.455078
1519647501761,1.142822,0.373779,0.364014
1519647501794,1.153809,0.323242,0.227295
1519647501828,1.062256,0.450928,0.216309
1519647501861,0.875244,0.239014,0.178467
1519647501893,0.791016,0.286377,0.176025
1519647501929,0.774658,0.298828,0.171875
1519647501960,0.778564,0.352295,0.165283
1519647501994,0.754150,0.352539,0.165527
1519647502026,0.735840,0.363770,0.182373
1519647502058,0.726807,0.351807,0.203613
1519647502089,0.731689,0.362549,0.213623
1519647502123,0.729980,0.412109,0.242676
1519647502165,0.820068,0.401367,0.275391
1519647502173,1.000488,0.454590,0.257324
1519647502225,1.089844,0.567139,0.331543
1519647502257,1.076172,0.576172,0.398193
1519647502291,0.901367,0.498779,0.375732
1519647502325,0.720703,0.376465,0.301758
1519647502356,0.943359,0.257813,0.280273
1519647502398,1.087158,0.323730,0.218506
1519647502403,1.147461,0.391846,0.213623
1519647502458,0.985840,0.471680,0.212891
1519647502490,0.809814,0.447510,0.183350
1519647502498,0.680420,0.434814,0.179443
1519647502547,0.618408,0.406982,0.134033
1519647502581,0.636475,0.448975,0.144043
1519647502590,0.671875,0.502686,0.160156
1519647502644,0.690918,0.571045,0.199951
1519647502652,0.781006,0.585693,0.250488
1519647502711,0.937988,0.656250,0.333252
1519647502741,1.016113,0.713867,0.411865
1519647502773,0.985840,0.682373,0.385010
1519647502806,1.261475,0.765137,0.428955
1519647502838,1.275635,0.818848,0.400879
1519647502871,1.024902,0.399414,0.323242
1519647502905,0.758789,0.201660,0.303223
1519647502938,0.811523,0.331299,0.293701
1519647502951,1.004150,0.501221,0.269043
1519647502985,1.127930,0.580811,0.283447
1519647503040,1.111572,0.396484,0.299561
1519647503074,0.994629,0.253906,0.226807
1519647503082,0.896729,0.245361,0.183594
1519647503134,0.820068,0.290039,0.144043
1519647503168,0.794434,0.287842,0.140137
1519647503172,0.771240,0.254150,0.128906
1519647503242,0.755127,0.296875,0.162842
1519647503251,0.731934,0.308350,0.170898
1519647503310,0.714111,0.219971,0.145996
1519647503317,0.761475,0.383789,0.205078
1519647503367,0.853027,0.499512,0.177979
1519647503380,1.071533,0.522461,0.098877
1519647503411,1.136963,0.772217,0.241699
1519647503445,1.010986,0.775146,0.245605
1519647503479,0.777588,0.689941,0.202393
1519647503512,0.863037,0.530029,0.282471
1519647503542,0.961426,0.453369,0.259766
1519647503576,1.031006,0.471191,0.254395
1519647503614,0.946045,0.447021,0.212158
1519647503646,0.839111,0.410400,0.172363
1519647503655,0.791992,0.378418,0.147217
1519647503707,0.768066,0.301025,0.132813
1519647503738,0.694336,0.404541,0.089600
1519647503747,0.715332,0.523682,0.173340
1519647503810,0.703369,0.611084,0.153564
1519647503812,0.787598,0.760010,0.280762
1519647503869,0.973633,0.733398,0.334229
1519647503902,1.062988,0.736084,0.313477
1519647503935,0.991455,0.794189,0.384033
1519647503968,1.121338,0.697266,0.414063
1519647504001,1.166748,0.581055,0.471680
1519647504034,1.032471,0.337158,0.395020
1519647504065,0.865967,0.321777,0.308838
1519647504099,0.887207,0.425293,0.254395
1519647504130,1.028809,0.463623,0.198730
1519647504164,1.110596,0.435059,0.161377
1519647504197,0.948242,0.371826,0.107910
1519647504202,0.843506,0.349609,0.088623
1519647504244,0.794434,0.352295,0.082275
1519647504276,0.818359,0.376953,0.096680
1519647504308,0.841309,0.346680,0.119629
1519647504341,0.828613,0.296143,0.099365
1519647504374,0.789307,0.277832,0.132080
1519647504407,0.800537,0.275879,0.135010
1519647504439,0.843506,0.337891,0.162598
1519647504475,0.836426,0.406006,0.221924
1519647504502,0.934570,0.447754,0.243652
1519647504535,1.060547,0.549805,0.383301
1519647504570,0.940918,0.444580,0.449463
1519647504603,0.758545,0.311768,0.413574
1519647504618,0.748535,0.374756,0.411621
1519647504677,0.915527,0.514160,0.430176
1519647504686,1.017822,0.507080,0.411865
1519647504734,1.000244,0.482910,0.375244
1519647504766,0.846680,0.448975,0.298096
1519647504799,0.760986,0.446289,0.230713
1519647504832,0.721191,0.438232,0.119141
1519647504865,0.671143,0.519775,0.067627
1519647504898,0.695313,0.574707,0.080078
1519647504930,0.771484,0.619873,0.148193
1519647504959,0.826660,0.649658,0.248535
1519647504992,0.888672,0.710693,0.351563
1519647505023,1.007080,0.689697,0.444580
1519647505056,1.020752,0.622803,0.419922
1519647505088,1.144043,0.637939,0.470703
1519647505094,1.168945,0.774170,0.501953
1519647505152,0.951416,0.491211,0.386963
1519647505184,0.824951,0.270264,0.324951
1519647505190,0.871094,0.283447,0.314453
1519647505247,1.132813,0.390869,0.262207
1519647505280,1.334717,0.453369,0.236816
1519647505312,1.068848,0.323730,0.158936
1519647505346,0.827393,0.219971,0.146240
1519647505379,0.770508,0.247070,0.105469
1519647505410,0.733398,0.330566,0.101318
1519647505424,0.731689,0.341797,0.143555
1519647505485,0.728516,0.267578,0.163086
1519647505515,0.721680,0.289063,0.224854
1519647505525,0.768799,0.309082,0.275391
1519647505580,0.829834,0.323730,0.283447
1519647505611,0.854736,0.337158,0.317627
1519647505643,0.916992,0.396973,0.345459
1519647505676,1.032471,0.464844,0.364990
1519647505681,1.156250,0.536865,0.428711
1519647505735,0.965576,0.509521,0.435303
1519647505766,0.804443,0.434082,0.283691
1519647505771,0.904053,0.550049,0.258301
1519647505830,1.043213,0.614746,0.288818
1519647505862,1.078369,0.515625,0.293945
1519647505895,1.006592,0.425293,0.263672
1519647505926,0.829590,0.439453,0.211914
1519647505960,0.741211,0.508545,0.187500
1519647505993,0.693604,0.564209,0.200195
1519647506024,0.691650,0.630859,0.223877
1519647506058,0.699463,0.647461,0.238525
1519647506091,0.760986,0.672119,0.305176
1519647506124,0.960693,0.674561,0.332520
1519647506155,1.051025,0.637451,0.329590
1519647506186,1.093750,0.550293,0.330322
1519647506237,1.190430,0.531982,0.370605
1519647506241,1.278564,0.633789,0.399170
1519647506271,1.196289,0.587646,0.367676
1519647506373,0.952881,0.353027,0.258057
1519647506381,0.939453,0.297607,0.223389
1519647506440,1.048340,0.388672,0.226563
1519647506450,1.165039,0.420166,0.211914
1519647506485,1.106689,0.339111,0.155762
1519647506489,0.990234,0.296631,0.123291
1519647506495,0.847412,0.264160,0.078125
1519647506521,0.801514,0.307861,0.079102
1519647506555,0.779297,0.335693,0.087646
1519647506588,0.772461,0.322754,0.091553
1519647506624,0.719727,0.290527,0.105225
1519647506654,0.674805,0.284912,0.112305
1519647506687,0.691162,0.322021,0.133057
1519647506720,0.705322,0.370850,0.187744
1519647506753,0.759521,0.419434,0.211426
1519647506784,0.870605,0.518799,0.285400
1519647506842,0.974609,0.607666,0.373291
1519647506845,1.125732,0.686035,0.495117
1519647506901,1.032715,0.684326,0.599854
1519647506904,0.915527,0.439697,0.501465
1519647506934,1.028809,0.246826,0.454834
1519647506993,1.123779,0.278320,0.402344
1519647507007,1.020020,0.395752,0.342529
1519647507038,0.874512,0.477295,0.344727
1519647507071,0.734375,0.472900,0.327393
1519647507105,0.690918,0.483887,0.299072
1519647507137,0.693848,0.544922,0.276611
1519647507170,0.669922,0.636963,0.261475
1519647507201,0.705811,0.618652,0.270020
1519647507259,0.867432,0.614990,0.291260
1519647507291,1.043213,0.559570,0.331543
1519647507323,1.042480,0.453125,0.281006
1519647507331,1.066895,0.475830,0.318604
1519647507387,1.210449,0.592041,0.364746
1519647507401,1.244141,0.638916,0.407227
1519647507433,1.110107,0.530029,0.385742
1519647507469,0.906250,0.346680,0.317139
1519647507517,0.903564,0.324951,0.296387
1519647507520,0.978516,0.367432,0.271729
1519647507552,1.053955,0.422852,0.251709
1519647507584,1.010986,0.375244,0.253418
1519647507621,0.939453,0.296875,0.215576
1519647507650,0.843018,0.255859,0.168457
1519647507708,0.788086,0.272217,0.149902
1519647507717,0.750977,0.264893,0.137939
1519647507770,0.717041,0.227051,0.103271
1519647507801,0.651611,0.220703,0.104004
1519647507815,0.601563,0.295410,0.169189
1519647507860,0.656982,0.330322,0.224121
1519647507869,0.823486,0.396973,0.174316
1519647507924,0.994873,0.539307,0.218262
1519647507964,1.228760,0.520020,0.269775
1519647507969,1.382324,0.660889,0.431396
1519647507997,1.340332,0.690918,0.555176
1519647508029,0.986572,0.521729,0.467041
1519647508087,0.762695,0.361816,0.357666
1519647508120,0.852295,0.254639,0.265137
1519647508129,0.945313,0.423584,0.183350
1519647508183,0.998535,0.507324,0.188721
1519647508216,0.931885,0.524414,0.212646
1519647508230,0.695068,0.452881,0.178711
1519647508288,0.712158,0.432129,0.148926
1519647508294,0.711182,0.470947,0.122314
1519647508348,0.766113,0.558350,0.140869
1519647508379,0.747314,0.534912,0.212402
1519647508384,0.719238,0.501221,0.204346
1519647508441,0.810059,0.561523,0.325195
1519647508451,0.921875,0.544434,0.369873
1519647508504,0.979248,0.491699,0.401855
1519647508536,1.005615,0.384033,0.393555
1519647508544,1.106934,0.502930,0.411865
1519647508600,1.156250,0.661377,0.450195
1519647508633,0.940918,0.521484,0.379395
1519647508648,0.831543,0.360352,0.304443
1519647508679,0.871094,0.292969,0.280029
1519647508713,0.937012,0.320068,0.282471
1519647508746,0.970703,0.337158,0.287842
1519647508797,0.909668,0.369385,0.282227
1519647508830,0.823975,0.256592,0.228760
1519647508864,0.804199,0.261963,0.206787
1519647508872,0.829834,0.291260,0.203857
1519647508924,0.849121,0.277344,0.189697
1519647508956,0.855469,0.287354,0.175537
1519647508965,0.855713,0.303711,0.184082
1519647509017,0.873535,0.271240,0.175781
1519647509050,0.912842,0.333008,0.175781
1519647509064,0.918701,0.416260,0.219238
1519647509096,0.925293,0.490967,0.287598
1519647509129,1.034912,0.482666,0.298828
1519647509160,0.997070,0.528809,0.365723
1519647509193,0.921387,0.514160,0.440186
1519647509225,0.754639,0.445801,0.419922
1519647509284,0.600342,0.354004,0.339111
1519647509316,0.828857,0.429688,0.306641
1519647509324,0.987061,0.427002,0.282959
1519647509380,1.104980,0.393799,0.312744
1519647509392,0.989502,0.324707,0.285889
1519647509492,0.843506,0.346436,0.268311
1519647509500,0.686768,0.358643,0.196533
1519647509558,0.663574,0.431152,0.182861
1519647509561,0.723633,0.500244,0.206299
1519647509605,0.767822,0.531982,0.244385
1519647509609,0.740723,0.550537,0.302979
1519647509612,0.802734,0.569824,0.359131
1519647509666,0.959717,0.645508,0.419678
1519647509698,1.047119,0.617920,0.467529
1519647509704,1.130859,0.555420,0.497314
1519647509762,1.186523,0.545654,0.523682
1519647509797,1.030029,0.516113,0.382080
1519647509827,0.870605,0.442627,0.303223
1519647509861,0.787598,0.313965,0.238525
1519647509895,0.899902,0.310791,0.233887
1519647509908,0.993408,0.394287,0.271729
1519647509956,0.964355,0.399902,0.263184
1519647510003,0.853516,0.299072,0.175537
1519647510012,0.805908,0.319824,0.146484
1519647510025,0.804443,0.357666,0.143311
1519647510080,0.798828,0.360107,0.126221
1519647510112,0.809326,0.317139,0.103760
1519647510122,0.843018,0.309814,0.102295
1519647510178,0.852295,0.344482,0.089844
1519647510208,0.862793,0.349854,0.139648
1519647510241,0.881836,0.355225,0.122559
1519647510275,0.901855,0.537109,0.228516
1519647510305,0.909424,0.587402,0.287842
1519647510338,0.926270,0.523926,0.322021
1519647510374,0.891357,0.383301,0.411865
1519647510407,0.765381,0.348389,0.447266
1519647510440,0.798828,0.405762,0.490479
1519647510471,0.771240,0.431885,0.480225
1519647510505,0.799316,0.414551,0.455078
1519647510539,0.884521,0.426025,0.437744
1519647510572,0.960693,0.456299,0.459229
1519647510605,0.929932,0.422363,0.457764
1519647510613,0.891357,0.405518,0.412598
1519647510664,0.823486,0.411133,0.366455
1519647510696,0.779785,0.397217,0.318359
1519647510709,0.788330,0.415771,0.287109
1519647510742,0.859619,0.447266,0.284668
1519647510780,0.843750,0.372803,0.257324
1519647510805,0.817383,0.370361,0.231445
1519647510837,0.881592,0.408936,0.214600
1519647510871,0.948242,0.425293,0.209717
1519647510903,0.967529,0.427246,0.210449
1519647510935,0.952637,0.433838,0.237305
1519647510968,1.006836,0.491699,0.274414
1519647511025,1.068604,0.547363,0.293457
1519647511058,1.031494,0.488281,0.261230
1519647511091,0.883301,0.375244,0.230469
1519647511096,0.816406,0.346680,0.235107
1519647511138,0.958984,0.437744,0.271240
1519647511170,1.012207,0.349609,0.250977
1519647511203,0.948242,0.279541,0.225342
1519647511235,0.893311,0.268311,0.218018
1519647511267,0.868164,0.293457,0.194092
1519647511300,0.823242,0.335938,0.187744
1519647511358,0.803467,0.340576,0.179199
1519647511364,0.779053,0.338135,0.191650
1519647511393,0.731934,0.346924,0.216064
1519647511425,0.738525,0.366943,0.222656
1519647511456,0.829346,0.405518,0.267090
1519647511492,0.894043,0.425781,0.305420
1519647511549,0.965332,0.448486,0.351563
1519647511551,1.052979,0.476807,0.396240
1519647511609,1.019287,0.487549,0.456055
1519647511669,0.841553,0.356445,0.373291
1519647511678,0.833008,0.371826,0.385986
1519647511686,0.909668,0.378174,0.335693
1519647511734,0.947510,0.502441,0.312256
1519647511743,0.945557,0.476318,0.302734
1519647511766,0.835938,0.397461,0.294922
1519647511799,0.689941,0.403809,0.289063
1519647511858,0.647461,0.428467,0.278809
1519647511890,0.664795,0.455078,0.264648
1519647511899,0.787354,0.475830,0.300537
1519647511936,0.814209,0.476318,0.338135
1519647511970,0.797363,0.434082,0.355957
1519647512004,0.819824,0.403320,0.354736
1519647512035,0.912354,0.484131,0.360352
1519647512068,0.929932,0.501709,0.363037
1519647512099,0.983887,0.524414,0.378662
1519647512131,1.128418,0.625488,0.420166
1519647512165,1.156250,0.601807,0.446289
1519647512196,0.922852,0.388184,0.347900
1519647512229,0.780029,0.281494,0.303223
1519647512262,0.875732,0.359863,0.300293
1519647512298,1.068359,0.423096,0.285889
1519647512312,1.133545,0.434082,0.291260
1519647512370,1.029785,0.334961,0.291260
1519647512403,0.879395,0.279541,0.277832
1519647512436,0.800537,0.294922,0.212646
1519647512468,0.761230,0.306396,0.192871
1519647512500,0.738525,0.318115,0.199951
1519647512533,0.726074,0.289551,0.190918
1519647512606,0.707031,0.285645,0.193848
1519647512614,0.712158,0.320313,0.203125
1519647512673,0.770264,0.362549,0.224854
1519647512681,0.795166,0.415527,0.270508
1519647512739,0.911621,0.420654,0.283691
1519647512754,1.097168,0.506348,0.311523
1519647512762,1.133789,0.538574,0.372559
1519647512787,0.991211,0.468506,0.364014
1519647512819,0.921387,0.436035,0.305664
1519647512852,0.995117,0.539551,0.330811
1519647512885,1.043701,0.463379,0.289551
1519647512894,1.011475,0.364014,0.254395
1519647512950,0.904785,0.350830,0.221924
1519647512980,0.774902,0.398926,0.176270
1519647513014,0.711670,0.453857,0.164795
1519647513047,0.675537,0.491211,0.157715
1519647513081,0.672852,0.549316,0.209473
1519647513112,0.682617,0.534668,0.234375
1519647513145,0.755127,0.526611,0.255859
1519647513161,0.906982,0.531494,0.318848
1519647513216,0.968506,0.523193,0.363525
1519647513222,0.983398,0.500000,0.378418
1519647513278,1.222168,0.527588,0.423828
1519647513281,1.173096,0.527344,0.401123
1519647513311,1.022217,0.472412,0.362793
1519647513369,0.835693,0.467529,0.340576
1519647513375,0.912109,0.461670,0.331055
1519647513432,1.018311,0.430420,0.310791
1519647513465,1.059570,0.344971,0.278076
1519647513501,1.002930,0.332520,0.249756
1519647513530,0.924316,0.354248,0.233887
1519647513562,0.865234,0.313965,0.219971
1519647513576,0.819580,0.279053,0.178223
1519647513611,0.776611,0.290771,0.158203
1519647513644,0.747803,0.314453,0.163574
1519647513676,0.757080,0.338135,0.166992
1519647513709,0.752686,0.351074,0.179932
1519647513742,0.699951,0.303223,0.180664
1519647513774,0.691650,0.316406,0.177979
1519647513806,0.733887,0.375732,0.204346
1519647513864,0.918945,0.474854,0.248535
1519647513867,1.126465,0.529297,0.293213
1519647513919,1.199707,0.589600,0.359863
1519647513952,1.239502,0.623291,0.476807
1519647513961,0.983887,0.518066,0.378906
1519647513989,0.766846,0.467041,0.240723
1519647514048,0.922852,0.423096,0.222656
1519647514081,1.069824,0.304688,0.247070
1519647514090,1.063232,0.364502,0.237549
1519647514144,0.888672,0.484131,0.228760
1519647514178,0.741699,0.533691,0.235352
1519647514209,0.627930,0.544678,0.193848
1519647514246,0.626953,0.554932,0.199219
1519647514279,0.693115,0.537109,0.208252
1519647514287,0.762451,0.544922,0.224609
1519647514337,0.851318,0.611816,0.321045
1519647514370,0.921143,0.639160,0.343506
1519647514379,0.960205,0.653076,0.361328
1519647514429,1.009033,0.554932,0.350098
1519647514461,1.081787,0.505127,0.358887
1519647514495,1.114258,0.511963,0.341553
1519647514507,1.099854,0.505859,0.292480
1519647514539,1.072021,0.472412,0.279053
1519647514572,1.007324,0.405762,0.244141
1519647514630,0.955811,0.371826,0.168213
1519647514664,0.999023,0.414795,0.135986
1519647514696,1.031738,0.464844,0.102783
1519647514703,0.946777,0.464355,0.054932
1519647514760,0.908447,0.395752,0.062988
1519647514773,0.879150,0.311523,0.033203
1519647514814,0.847900,0.253418,0.027588
1519647514823,0.848877,0.291748,0.052002
1519647514876,0.834961,0.332520,0.073486
1519647514910,0.788818,0.372803,0.087646
1519647514944,0.806885,0.386475,0.103516
1519647514975,0.856201,0.403809,0.136719
1519647515008,0.875732,0.399902,0.168213
1519647515039,0.860107,0.413086,0.240967
1519647515071,0.818115,0.415771,0.280518
1519647515103,0.870117,0.444580,0.340088
1519647515136,0.931152,0.438965,0.409424
1519647515169,0.934570,0.444824,0.445557
1519647515197,0.748047,0.524414,0.577393
1519647515230,0.710693,0.520508,0.524902
1519647515236,0.864990,0.503418,0.439453
1519647515294,1.029541,0.499512,0.450684
1519647515327,1.044434,0.475342,0.468506
1519647515335,0.984131,0.441650,0.462646
1519647515391,0.875732,0.428955,0.391846
1519647515424,0.858887,0.460449,0.333252
1519647515457,0.826416,0.506836,0.295898
1519647515496,0.806396,0.473145,0.288086
1519647515521,0.784180,0.416504,0.263184
1519647515553,0.781006,0.420410,0.233398
1519647515585,0.806152,0.440430,0.202881
1519647515600,0.884277,0.431885,0.191895
1519647515658,0.989258,0.445313,0.186523
1519647515732,1.026367,0.450684,0.176514
1519647515799,0.943848,0.423340,0.167236
1519647515808,0.882080,0.421143,0.162598
1519647515844,1.050049,0.502197,0.197021
1519647515850,1.139893,0.630859,0.257568
1519647515855,0.968750,0.526367,0.200195
1519647515880,0.750732,0.385010,0.149902
1519647515913,0.708496,0.364258,0.151855
1519647515922,0.870605,0.474854,0.185059
1519647515972,1.050293,0.448486,0.193359
1519647516002,1.115234,0.400879,0.166016
1519647516016,1.088867,0.385254,0.166504
1519647516075,0.919922,0.359863,0.150635
1519647516085,0.830078,0.369873,0.142334
1519647516137,0.814453,0.388428,0.134766
1519647516152,0.835205,0.386719,0.137451
1519647516205,0.828857,0.347168,0.132568
1519647516238,0.811523,0.311279,0.127930
1519647516270,0.834717,0.338135,0.125000
1519647516278,0.885010,0.361572,0.139648
1519647516335,0.914795,0.367188,0.147949
1519647516367,0.980957,0.421875,0.204834
1519647516400,0.966309,0.419189,0.256348
1519647516409,0.888184,0.417236,0.278076
1519647516477,0.968750,0.529297,0.375977
1519647516484,0.884521,0.562744,0.435059
1519647516514,0.848389,0.563965,0.463867
1519647516568,0.690674,0.492920,0.446533
1519647516573,0.679688,0.433105,0.414795
1519647516606,0.813721,0.447021,0.413818
1519647516634,0.945068,0.477051,0.405273
1519647516667,0.924072,0.446045,0.403564
1519647516699,0.860840,0.438477,0.368408
1519647516732,0.780518,0.442383,0.302979
1519647516764,0.739258,0.445313,0.258545
1519647516797,0.748779,0.454346,0.241943
1519647516840,0.778076,0.463867,0.236572
1519647516873,0.780029,0.461182,0.221924
1519647516906,0.786133,0.459473,0.217529
1519647516938,0.800781,0.441406,0.210205
1519647516970,0.864502,0.444824,0.204590
1519647516979,0.955322,0.495117,0.221436
1519647517035,0.998779,0.498535,0.233643
1519647517068,0.951416,0.510498,0.252441
1519647517100,0.875244,0.557373,0.247803
1519647517139,1.069580,0.686523,0.280029
1519647517149,1.097168,0.666260,0.256348
1519647517182,0.969727,0.464844,0.168945
1519647517215,0.952393,0.370117,0.172363
1519647517247,1.052979,0.449219,0.192383
1519647517281,1.145752,0.487305,0.206299
1519647517314,1.059570,0.388916,0.192383
1519647517345,0.959229,0.276123,0.162842
1519647517378,0.880127,0.241211,0.161377
1519647517435,0.857422,0.313965,0.145264
1519647517469,0.850830,0.327393,0.131348
1519647517477,0.869141,0.340332,0.134766
1519647517527,0.891357,0.263184,0.152832
1519647517562,0.874756,0.247070,0.201416
1519647517568,0.842529,0.209229,0.185547
1519647517617,0.801270,0.291992,0.146240
1519647517650,0.591553,0.521729,0.161865
1519647517665,0.534180,0.737793,0.237793
1519647517695,0.609863,0.741943,0.301514
1519647517730,0.758545,0.777100,0.391846
1519647517758,0.838135,0.715820,0.381836
1519647517817,0.909180,0.639404,0.443115
1519647517848,0.895020,0.503906,0.422363
1519647517881,0.823975,0.352051,0.237793
1519647517936,0.927002,0.495117,0.251221
1519647517944,1.024170,0.514160,0.245850
1519647517990,1.069092,0.435303,0.262939
1519647517999,0.967285,0.427979,0.271240
1519647518025,0.862549,0.433350,0.235352
1519647518057,0.779053,0.475586,0.201172
1519647518102,0.694824,0.463135,0.184814
1519647518110,0.661377,0.461914,0.186523
1519647518163,0.650635,0.498047,0.231934
1519647518195,0.658203,0.470703,0.227051
1519647518228,0.720947,0.552002,0.257324
1519647518261,0.860840,0.612793,0.330566
1519647518294,1.011719,0.614746,0.390869
1519647518326,1.037598,0.581055,0.382324
1519647518358,1.192871,0.631348,0.422607
1519647518392,1.252441,0.625488,0.395264
1519647518427,1.108643,0.573730,0.326172
1519647518435,0.923096,0.490967,0.286621
1519647518485,0.830566,0.305420,0.234131
1519647518517,0.915039,0.253174,0.225098
1519647518524,1.005859,0.341553,0.232666
1519647518579,0.945068,0.395020,0.230957
1519647518612,0.835938,0.318604,0.172119
1519647518645,0.771484,0.274902,0.126221
1519647518678,0.752930,0.315674,0.113037
1519647518710,0.753906,0.327148,0.121582
1519647518743,0.770752,0.311768,0.127441
1519647518775,0.827637,0.326904,0.160156
1519647518845,0.846436,0.337158,0.161621
1519647518849,0.857422,0.343750,0.168457
1519647518914,0.853516,0.416016,0.285400
1519647518966,0.888672,0.420898,0.336182
1519647518969,1.005859,0.441406,0.319824
1519647518974,0.973877,0.533203,0.397461
1519647519000,0.845947,0.587158,0.470703
1519647519005,0.761719,0.518311,0.510254
1519647519063,0.877930,0.410645,0.375000
1519647519096,1.001709,0.471924,0.364258
1519647519101,1.083008,0.490479,0.328369
1519647519160,0.983643,0.459229,0.297852
1519647519193,0.866211,0.402588,0.272949
1519647519225,0.760742,0.389160,0.225098
1519647519257,0.707275,0.442871,0.187256
1519647519290,0.705322,0.507080,0.185791
1519647519324,0.688965,0.543945,0.182129
1519647519337,0.708496,0.552734,0.245605
1519647519394,0.821045,0.556641,0.260498
1519647519426,0.976563,0.675781,0.337402
1519647519458,1.024414,0.650391,0.342529
1519647519468,1.035645,0.590332,0.360596
1519647519521,1.214600,0.597900,0.441650
1519647519554,1.184814,0.592529,0.411865
1519647519586,0.999512,0.508789,0.360107
1519647519589,0.823975,0.360352,0.319580
1519647519646,0.841797,0.292725,0.270508
1519647519654,0.945557,0.351074,0.258545
1519647519681,0.977295,0.446777,0.265381
1519647519742,0.873779,0.452393,0.255859
1519647519775,0.804443,0.340576,0.199951
1519647519808,0.766602,0.302979,0.161865
1519647519839,0.759277,0.281738,0.150146
1519647519870,0.768799,0.277100,0.155029
1519647519903,0.799072,0.289795,0.165771
1519647519937,0.809570,0.303955,0.166748
1519647519969,0.818115,0.306885,0.164307
1519647520001,0.845703,0.339600,0.176025
1519647520018,0.842041,0.416992,0.236084
1519647520078,0.891113,0.466064,0.260742
1519647520085,1.008789,0.480957,0.272949
1519647520143,1.020508,0.635254,0.398682
1519647520156,0.955566,0.661621,0.405029
1519647520211,0.828125,0.531738,0.319336
1519647520243,0.861084,0.427490,0.263672
1519647520251,0.990234,0.458984,0.278809
1519647520275,1.029053,0.474609,0.288086
1519647520318,0.921387,0.490723,0.286621
1519647520349,0.799561,0.465820,0.229492
1519647520381,0.705811,0.440186,0.190186
1519647520414,0.718994,0.449951,0.171143
1519647520448,0.778320,0.511230,0.191895
1519647520480,0.813965,0.562744,0.217041
1519647520516,0.800049,0.597412,0.233154
1519647520543,0.822754,0.670898,0.281738
1519647520585,0.938232,0.711426,0.324219
1519647520617,1.005615,0.680176,0.351807
1519647520650,1.003418,0.607422,0.364258
1519647520653,1.075195,0.525879,0.384277
1519647520709,1.168213,0.554199,0.412598
1519647520741,1.102295,0.511475,0.326660
1519647520750,1.000732,0.452148,0.270752
1519647520808,1.072754,0.448975,0.302979
1519647520814,1.105469,0.408203,0.271973
1519647520871,0.951660,0.357910,0.249512
1519647520905,0.832520,0.332520,0.218506
1519647520913,0.809570,0.285889,0.182373
1519647520968,0.766846,0.265869,0.141602
1519647520983,0.760498,0.311768,0.168701
1519647521068,0.752686,0.310059,0.158691
1519647521073,0.737305,0.293213,0.152100
1519647521123,0.738281,0.324219,0.161865
1519647521126,0.776123,0.328613,0.154053
1519647521184,0.830322,0.324707,0.173096
1519647521187,0.883789,0.350830,0.161865
1519647521244,1.134766,0.460693,0.263428
1519647521247,1.310059,0.410889,0.218018
1519647521281,1.156982,0.551758,0.234863
1519647521314,1.067383,0.704834,0.310059
1519647521350,1.019287,0.723877,0.283203
1519647521403,1.063965,0.653564,0.317139
1519647521407,1.044922,0.537109,0.285645
1519647521475,0.954102,0.499023,0.278564
1519647521484,0.750488,0.513916,0.226563
1519647521535,0.661133,0.485840,0.164063
1519647521544,0.642822,0.514404,0.141602
1519647521567,0.666992,0.529785,0.169678
1519647521597,0.723877,0.522217,0.200195
1519647521630,0.768066,0.549561,0.214355
1519647521664,0.881592,0.546875,0.243652
1519647521696,1.006348,0.579834,0.264648
1519647521729,1.088135,0.591553,0.295654
1519647521761,1.086670,0.490479,0.276611
1519647521791,1.112305,0.474365,0.307617
1519647521833,1.200928,0.537109,0.355713
1519647521865,1.198975,0.573242,0.357422
1519647521873,1.097168,0.506592,0.308594
1519647521970,0.969727,0.430908,0.289063
1519647521979,1.007568,0.283691,0.266602
1519647522091,1.039795,0.282959,0.253174
1519647522097,1.006592,0.340088,0.237793
1519647522102,0.880859,0.322998,0.197266
1519647522147,0.828857,0.274902,0.155518
1519647522150,0.783691,0.259033,0.110840
1519647522153,0.703125,0.250488,0.072998
1519647522208,0.675293,0.286133,0.100098
1519647522213,0.702148,0.329834,0.127441
1519647522242,0.722900,0.348389,0.135254
1519647522275,0.747070,0.357178,0.186035
1519647522308,0.778076,0.381592,0.229248
1519647522364,0.831299,0.378662,0.249756
1519647522367,1.081787,0.446289,0.283936
1519647522399,1.240967,0.593750,0.394531
1519647522430,1.219482,0.652588,0.518555
1519647522463,0.909180,0.549805,0.485596
1519647522496,0.818359,0.479980,0.407227
1519647522529,0.935547,0.364014,0.302490
1519647522563,0.999268,0.322266,0.271729
1519647522597,1.011475,0.247070,0.265625
1519647522628,0.835205,0.390137,0.217041
1519647522662,0.702881,0.487549,0.225098
1519647522694,0.644287,0.531494,0.204590
1519647522726,0.705566,0.624268,0.272949
1519647522758,0.715576,0.557861,0.279053
1519647522791,0.730225,0.540771,0.321777
1519647522848,0.886719,0.563721,0.386719
1519647522851,0.971924,0.584717,0.416504
1519647522876,0.972412,0.503418,0.387207
1519647522938,0.978516,0.466309,0.395752
1519647522950,1.104980,0.610596,0.439209
1519647522997,1.096680,0.676514,0.426025
1519647523030,0.962402,0.484375,0.334229
1519647523043,0.867676,0.321045,0.269287
1519647523074,0.936768,0.344727,0.253906
1519647523108,1.072510,0.438965,0.247070
1519647523141,1.032715,0.421387,0.233398
1519647523174,0.932617,0.293945,0.203125
1519647523206,0.795166,0.277344,0.143799
1519647523264,0.782959,0.342529,0.126465
1519647523271,0.791016,0.375732,0.146240
1519647523327,0.822266,0.333496,0.172119
1519647523359,0.867920,0.301270,0.145020
1519647523368,0.885010,0.306396,0.150146
1519647523418,0.860107,0.317383,0.134033
1519647523430,0.825439,0.355469,0.148682
1519647523463,0.790039,0.444092,0.192627
1519647523522,0.907227,0.481934,0.244629
1519647523527,0.891846,0.460693,0.283936
1519647523554,0.851074,0.489258,0.341553
1519647523587,0.751221,0.448730,0.384277
1519647523645,0.741699,0.407959,0.360352
1519647523654,0.899414,0.475586,0.373779
1519647523708,1.071289,0.469482,0.403320
1519647523740,1.049805,0.454590,0.427246
1519647523774,0.943115,0.432861,0.395752
1519647523806,0.797119,0.407715,0.369873
1519647523839,0.745117,0.332031,0.284912
1519647523848,0.743408,0.426025,0.227539
1519647523899,0.771729,0.521729,0.234619
1519647523935,0.795898,0.519775,0.243164
1519647523938,0.836670,0.496582,0.274658
1519647523995,0.909180,0.459961,0.304688
1519647524003,1.006592,0.511963,0.340332
1519647524058,1.015625,0.504395,0.334961
1519647524091,0.959961,0.485352,0.351807
1519647524125,1.053955,0.582520,0.417725
1519647524158,1.109131,0.644287,0.455322
1519647524191,0.920166,0.551514,0.364990
1519647524221,0.735840,0.409180,0.314209
1519647524236,0.763184,0.405029,0.306152
1519647524268,0.998047,0.483643,0.303467
1519647524305,1.089111,0.455322,0.314209
1519647524338,1.029053,0.360840,0.277100
1519647524370,0.869629,0.261230,0.232422
1519647524402,0.773926,0.285645,0.194824
1519647524435,0.742676,0.310547,0.171631
1519647524468,0.743652,0.361328,0.156494
1519647524507,0.744873,0.375488,0.175049
1519647524533,0.736572,0.366943,0.187744
1519647524566,0.784912,0.345703,0.188232
1519647524600,0.879150,0.362305,0.205078
1519647524634,0.884766,0.367432,0.216553
1519647524666,1.018555,0.386719,0.208008
1519647524697,1.150635,0.532959,0.299072
1519647524730,1.031738,0.521240,0.386475
1519647524761,0.771973,0.448730,0.396973
1519647524795,0.683350,0.387207,0.383057
1519647524828,0.832031,0.373779,0.367188
1519647524953,0.950684,0.350342,0.302246
1519647524955,1.011475,0.380127,0.295654
1519647524955,0.965576,0.420410,0.287109
1519647524960,0.819580,0.437256,0.281494
1519647524964,0.741211,0.427979,0.246094
1519647525022,0.723633,0.441406,0.230469
1519647525037,0.782715,0.495605,0.231934
1519647525104,0.788574,0.524170,0.243652
1519647525112,0.797852,0.541992,0.241455
1519647525169,0.935547,0.618652,0.286377
1519647525204,0.980957,0.638916,0.318848
1519647525207,0.927734,0.561523,0.326172
1519647525238,0.972900,0.574463,0.373535
1519647525270,1.126221,0.720703,0.422852
1519647525303,1.149902,0.679443,0.389160
1519647525336,1.034912,0.508545,0.346924
1519647525368,0.900146,0.402832,0.321289
1519647525401,0.906982,0.327148,0.284912
1519647525441,0.991699,0.387695,0.245850
1519647525474,1.017822,0.419678,0.231445
1519647525482,0.969482,0.416992,0.214355
1519647525535,0.841553,0.388428,0.186279
1519647525567,0.794922,0.364502,0.157715
1519647525600,0.767090,0.363037,0.149658
1519647525633,0.837402,0.320801,0.140625
1519647525667,0.864258,0.298828,0.164551
1519647525699,0.797119,0.284912,0.178223
1519647525730,0.802246,0.316895,0.157471
1519647525763,0.806396,0.340088,0.195313
1519647525800,0.775635,0.390137,0.243896
1519647525837,0.748535,0.439453,0.360840
1519647525850,0.868164,0.376221,0.320801
1519647525890,0.990723,0.401855,0.314453
1519647525914,0.863037,0.456299,0.414063
1519647525946,0.698486,0.450439,0.413574
1519647526019,0.720947,0.550537,0.425537
1519647526027,0.925781,0.588135,0.447754
1519647526074,1.036865,0.505859,0.459961
1519647526081,0.998047,0.395020,0.423096
1519647526132,0.875977,0.411133,0.365723
1519647526138,0.796875,0.479248,0.346924
1519647526193,0.752686,0.503906,0.313721
1519647526198,0.750244,0.521240,0.308594
1519647526252,0.759033,0.526123,0.318848
1519647526265,0.759033,0.512207,0.309814
1519647526295,0.855713,0.560547,0.311523
1519647526328,0.978271,0.582275,0.339355
1519647526361,1.021484,0.569824,0.346680
1519647526417,0.940918,0.497803,0.358398
1519647526449,0.961670,0.499268,0.371826
1519647526455,1.146240,0.619141,0.436768
1519647526514,1.075684,0.551025,0.383301
1519647526546,0.871826,0.430664,0.326172
1519647526549,0.761475,0.378174,0.271240
1519647526606,0.948486,0.445313,0.251953
1519647526615,1.124023,0.491699,0.245361
1519647526642,1.099365,0.423828,0.248535
1519647526719,0.932861,0.280518,0.199219
1519647526727,0.854736,0.273438,0.161133
1519647526750,0.841797,0.306152,0.122070
1519647526786,0.829590,0.317627,0.093018
1519647526838,0.805176,0.324219,0.106689
1519647526843,0.813965,0.329590,0.147705
1519647526893,0.712402,0.345215,0.208984
1519647526926,0.666504,0.350342,0.242188
1519647526958,0.682617,0.402344,0.308594
1519647526992,0.694580,0.433838,0.345703
1519647527024,0.847168,0.418701,0.324219
1519647527029,1.060791,0.498291,0.409180
1519647527083,1.059570,0.503174,0.504395
1519647527115,0.871826,0.428711,0.495361
1519647527123,0.721436,0.398438,0.420410
1519647527179,0.932373,0.464111,0.348145
1519647527213,1.039551,0.445068,0.312256
1519647527245,1.062988,0.440918,0.325928
1519647527276,0.925537,0.445801,0.308350
1519647527309,0.806641,0.468750,0.290283
1519647527342,0.723633,0.469238,0.242188
1519647527373,0.690186,0.505615,0.228516
1519647527406,0.705078,0.513428,0.235107
1519647527439,0.701416,0.500488,0.241699
1519647527472,0.744629,0.543457,0.275879
1519647527484,0.892090,0.587646,0.336914
1519647527542,1.018799,0.612549,0.383057
1519647527575,1.052979,0.523926,0.381348
1519647527608,1.061035,0.495117,0.390625
1519647527616,1.267822,0.543701,0.450195
1519647527665,1.099365,0.461670,0.381836
1519647527698,0.914795,0.388428,0.323975
1519647527702,0.816162,0.352051,0.252686
1519647527736,0.951416,0.408936,0.172607
1519647527795,1.056641,0.492920,0.166016
1519647527829,0.990234,0.496826,0.173584
1519647527837,0.889648,0.346680,0.157471
1519647527890,0.813232,0.298584,0.123535
1519647527904,0.766357,0.344727,0.099365
1519647527938,0.785889,0.347168,0.096191
1519647527971,0.851074,0.340332,0.106689
1519647528067,0.863037,0.338379,0.123291
1519647528075,0.859863,0.316895,0.112549
1519647528083,0.870605,0.330078,0.121338
1519647528124,0.839844,0.329346,0.135742
1519647528156,0.843018,0.374023,0.176514
1519647528164,0.848877,0.419189,0.230713
1519647528221,0.834961,0.433838,0.322266
1519647528224,1.010010,0.454834,0.336914
1519647528289,1.079834,0.494873,0.398438
1519647528292,0.957275,0.481689,0.488037
1519647528325,0.648438,0.371826,0.429443
1519647528370,0.701172,0.484131,0.426758
1519647528402,0.889893,0.601318,0.450928
1519647528439,1.039063,0.534912,0.452148
1519647528472,0.990234,0.405273,0.455811
1519647528505,0.876709,0.368408,0.438232
1519647528541,0.772461,0.441406,0.371338
1519647528576,0.769775,0.468018,0.327637
1519647528584,0.799316,0.502197,0.302979
1519647528633,0.785889,0.522217,0.310059
1519647528668,0.758789,0.523193,0.302979
1519647528676,0.756592,0.501953,0.280029
1519647528730,0.886475,0.524414,0.275146
1519647528733,0.971191,0.519287,0.268555
1519647528775,0.998535,0.490723,0.257324
1519647528808,1.070801,0.469238,0.278809
1519647528840,1.124512,0.513428,0.301514
1519647528872,1.092285,0.516846,0.288330
1519647528910,0.979492,0.448975,0.258301
1519647528938,0.879150,0.404297,0.240234
1519647528993,0.793701,0.381348,0.216064
1519647529002,0.876953,0.417725,0.204102
1519647529049,0.957275,0.461670,0.206055
1519647529081,0.987305,0.445557,0.189941
1519647529111,0.871582,0.333252,0.156982
1519647529145,0.807129,0.284424,0.131592
1519647529154,0.767334,0.334229,0.127197
1519647529218,0.738525,0.349609,0.127930
1519647529225,0.752197,0.383545,0.148926
1519647529251,0.760254,0.370117,0.156982
1519647529306,0.778564,0.338135,0.145996
1519647529314,0.838379,0.381104,0.179199
1519647529371,0.918457,0.416748,0.229492
1519647529402,0.923828,0.410156,0.272705
1519647529434,0.953857,0.427979,0.329346
1519647529467,1.075195,0.465332,0.400146
1519647529499,1.018066,0.462891,0.485107
1519647529533,0.882813,0.430176,0.503418
1519647529565,0.724609,0.405029,0.487061
1519647529582,0.652344,0.340820,0.378174
1519647529637,0.815918,0.415527,0.345947
1519647529644,1.001953,0.505127,0.378174
1519647529681,1.045410,0.464111,0.445801
1519647529715,0.919189,0.423828,0.443359
1519647529747,0.795654,0.407715,0.373291
1519647529805,0.705322,0.389648,0.284668
1519647529813,0.736084,0.392334,0.266846
1519647529838,0.764404,0.405029,0.258301
1519647529895,0.808350,0.460449,0.274170
1519647529902,0.822510,0.481445,0.292725
1519647529928,0.814453,0.454834,0.320557
1519647529988,0.844727,0.479980,0.320313
1519647530001,0.881592,0.512695,0.344971
1519647530032,0.896484,0.505127,0.371094
1519647530064,0.990234,0.506348,0.403564
1519647530097,1.076416,0.535889,0.422119
1519647530129,1.126221,0.542480,0.420410
1519647530163,1.017090,0.468506,0.383545
1519647530195,0.876709,0.367188,0.340576
1519647530228,0.821045,0.311523,0.279541
1519647530259,0.917236,0.369873,0.229492
1519647530292,1.000488,0.494141,0.189453
1519647530325,1.045410,0.595459,0.158936
1519647530384,0.929443,0.459229,0.119141
1519647530392,0.821777,0.471191,0.109131
1519647530428,0.738281,0.469971,0.081787
1519647530462,0.661865,0.519531,0.067627
1519647530494,0.628906,0.506592,0.060059
1519647530526,0.602539,0.455322,0.067383
1519647530558,0.577637,0.416992,0.104980
1519647530590,0.575195,0.422119,0.124512
