1519494769244,-0.352295,0.365234,0.851807
1519494769305,-0.360596,0.377686,0.860107
1519494769337,-0.370605,0.374023,0.871338
1519494769370,-0.378418,0.399658,0.861328
1519494769401,-0.379883,0.420654,0.871338
1519494769434,-0.376709,0.416992,0.879883
1519494769467,-0.377197,0.411621,0.875977
1519494769499,-0.364990,0.399414,0.876221
1519494769507,-0.366211,0.396240,0.862061
1519494769558,-0.363770,0.393799,0.871826
1519494769568,-0.368408,0.397705,0.891846
1519494769596,-0.378906,0.388184,0.861084
1519494769655,-0.388672,0.421631,0.883301
1519494769688,-0.397461,0.408203,0.863525
1519494769721,-0.322510,0.412354,0.920410
1519494769752,-0.364746,0.410645,0.904785
1519494769766,-0.347168,0.383789,0.833008
1519494769798,-0.365479,0.325439,0.819580
1519494769831,-0.377686,0.413086,0.858887
1519494769864,-0.380127,0.414795,0.875977
1519494769897,-0.387939,0.384521,0.836426
1519494769954,-0.391846,0.379150,0.802734
1519494769986,-0.383545,0.434082,0.907715
1519494769992,-0.341064,0.506104,0.945313
1519494770048,-0.407959,0.420898,0.914551
1519494770081,-0.380615,0.334717,0.864746
1519494770086,-0.358154,0.341064,0.838379
1519494770141,-0.382813,0.420410,0.857666
1519494770149,-0.390381,0.425781,0.908936
1519494770203,-0.396484,0.397461,0.867676
1519494770234,-0.394043,0.399414,0.831787
1519494770245,-0.380859,0.374268,0.816406
1519494770304,-0.382324,0.392090,0.862793
1519494770335,-0.373779,0.413574,0.838135
1519494770368,-0.388184,0.410400,0.848877
1519494770401,-0.398193,0.427246,0.861572
1519494770433,-0.393066,0.412109,0.872314
1519494770466,-0.388916,0.394043,0.858887
1519494770498,-0.393311,0.371338,0.851074
1519494770531,-0.406006,0.410645,0.887695
1519494770562,-0.401367,0.402100,0.882813
1519494770567,-0.401123,0.399170,0.872314
1519494770633,-0.382568,0.391357,0.850586
1519494770638,-0.374023,0.403076,0.842041
1519494770668,-0.383789,0.410889,0.850830
1519494770727,-0.394287,0.399658,0.842041
1519494770735,-0.393555,0.391602,0.858398
1519494770761,-0.398193,0.416992,0.855713
1519494770793,-0.397705,0.392822,0.866943
1519494770851,-0.389648,0.400146,0.858154
1519494770885,-0.385010,0.398193,0.877686
1519494770915,-0.397949,0.397217,0.850342
1519494770947,-0.418457,0.398438,0.848389
1519494770965,-0.437256,0.401123,0.833496
1519494771005,-0.457031,0.435791,0.829590
1519494771037,-0.440918,0.469727,0.821533
1519494771043,-0.409180,0.467529,0.875977
1519494771100,-0.389160,0.381592,0.859375
1519494771132,-0.336426,0.387451,0.878418
1519494771165,-0.324707,0.454834,0.907227
1519494771198,-0.341553,0.319824,0.862305
1519494771209,-0.341553,0.304443,0.855225
1519494771241,-0.362549,0.338379,0.901367
1519494771299,-0.384521,0.402588,0.901855
1519494771329,-0.388672,0.362305,0.889160
1519494771362,-0.392334,0.355469,0.862305
1519494771393,-0.385742,0.368896,0.853516
1519494771406,-0.348633,0.379639,0.922607
1519494771439,-0.297119,0.362305,0.940918
1519494771498,-0.325439,0.321289,0.918945
1519494771529,-0.317383,0.308105,0.874023
1519494771562,-0.320557,0.299561,0.878662
1519494771595,-0.350098,0.363525,0.895508
1519494771627,-0.366211,0.357178,0.919189
1519494771632,-0.378906,0.312500,0.882813
1519494771687,-0.386475,0.350830,0.864502
1519494771696,-0.379395,0.387695,0.888672
1519494771745,-0.385742,0.355225,0.882568
1519494771778,-0.399902,0.364014,0.858887
1519494771809,-0.394775,0.376465,0.849365
1519494771824,-0.423584,0.407471,0.907471
1519494771857,-0.355225,0.409912,0.935791
1519494771889,-0.353271,0.278076,0.851807
1519494771946,-0.329102,0.289063,0.804688
1519494771978,-0.336182,0.437256,0.878906
1519494772011,-0.347168,0.367676,1.022949
1519494772044,-0.275146,0.237305,1.133545
1519494772077,-0.308594,0.399658,1.034912
1519494772109,-0.215332,0.360596,0.922119
1519494772115,-0.263428,0.211670,0.879639
1519494772167,-0.365967,0.293701,0.832275
1519494772204,-0.440186,0.250732,0.834717
1519494772211,-0.484863,0.296387,0.810059
1519494772260,-0.489746,0.374512,0.766357
1519494772294,-0.471191,0.387451,0.763916
1519494772327,-0.459229,0.434814,0.812744
1519494772360,-0.468262,0.461670,0.830078
1519494772392,-0.471191,0.449463,0.827393
1519494772425,-0.450195,0.485840,0.916992
1519494772457,-0.421387,0.425293,0.913818
1519494772489,-0.388184,0.324951,0.803467
1519494772522,-0.354492,0.318359,0.813232
1519494772553,-0.406738,0.407959,0.903564
1519494772608,-0.423340,0.392334,0.880859
1519494772615,-0.441406,0.336914,0.818604
1519494772641,-0.427002,0.348145,0.839111
1519494772676,-0.404297,0.371826,0.835205
1519494772706,-0.388184,0.412598,0.881836
1519494772739,-0.386475,0.429443,0.889160
1519494772773,-0.405518,0.417480,0.899170
1519494772807,-0.416748,0.361816,0.873779
1519494772839,-0.423340,0.377441,0.849121
1519494772872,-0.413574,0.367676,0.865723
1519494772904,-0.402832,0.365234,0.855713
1519494772937,-0.404541,0.414063,0.854248
1519494772969,-0.406494,0.375732,0.857422
1519494773002,-0.421143,0.371582,0.851563
1519494773034,-0.415527,0.367676,0.816162
1519494773050,-0.423340,0.377197,0.877686
1519494773107,-0.403809,0.368164,0.875488
1519494773138,-0.385986,0.463135,0.968262
1519494773152,-0.416260,0.401123,0.849121
1519494773175,-0.401367,0.312012,0.750732
1519494773233,-0.413086,0.383789,0.821045
1519494773266,-0.427490,0.430908,0.896240
1519494773274,-0.434082,0.420898,0.889160
1519494773324,-0.443604,0.376221,0.818604
1519494773357,-0.415039,0.372559,0.803955
1519494773388,-0.414307,0.378662,0.843994
1519494773420,-0.393311,0.403320,0.894775
1519494773454,-0.405029,0.405273,0.863770
1519494773487,-0.419678,0.388184,0.853271
1519494773519,-0.433105,0.395020,0.868652
1519494773552,-0.423340,0.377441,0.854248
1519494773583,-0.413574,0.423584,0.820801
1519494773615,-0.402100,0.423584,0.833984
1519494773648,-0.399170,0.369873,0.828369
1519494773682,-0.406250,0.356689,0.854980
1519494773714,-0.406494,0.376465,0.864502
1519494773747,-0.384766,0.363770,0.879395
1519494773755,-0.392822,0.381104,0.884277
1519494773804,-0.404541,0.396973,0.871582
1519494773838,-0.404541,0.382324,0.867188
1519494773889,-0.393799,0.394043,0.872070
1519494773921,-0.397949,0.375488,0.858887
1519494773926,-0.386475,0.398926,0.868896
1519494773954,-0.392578,0.391113,0.865234
1519494774028,-0.381348,0.376221,0.858887
1519494774036,-0.392090,0.376465,0.862305
1519494774096,-0.400635,0.382324,0.853516
1519494774104,-0.398193,0.392822,0.868164
1519494774162,-0.388672,0.421631,0.857910
1519494774171,-0.385986,0.406006,0.884033
1519494774230,-0.394531,0.383057,0.887207
1519494774239,-0.394775,0.359375,0.898682
1519494774247,-0.387939,0.373535,0.885254
1519494774278,-0.373291,0.368896,0.845459
1519494774337,-0.383057,0.375977,0.851807
1519494774345,-0.379883,0.379639,0.866943
1519494774396,-0.382080,0.394531,0.861572
1519494774404,-0.393555,0.395264,0.849854
1519494774430,-0.390869,0.385986,0.852783
1519494774487,-0.390137,0.382080,0.864502
1519494774519,-0.389404,0.370850,0.859131
1519494774553,-0.383789,0.379883,0.858887
1519494774583,-0.381348,0.359131,0.855469
1519494774595,-0.374512,0.362061,0.862305
1519494774651,-0.373047,0.379395,0.887207
1519494774684,-0.373291,0.396484,0.898926
1519494774717,-0.370361,0.398193,0.906494
1519494774749,-0.382324,0.433838,0.898682
1519494774782,-0.385254,0.413086,0.889404
1519494774815,-0.376465,0.425781,0.852051
1519494774823,-0.403564,0.412109,0.793457
1519494774873,-0.418701,0.360107,0.789795
1519494774882,-0.372070,0.345215,0.910156
1519494774909,-0.406738,0.327881,0.961182
1519494774968,-0.333496,0.384766,0.939209
1519494775001,-0.298096,0.327881,0.811768
1519494775032,-0.324951,0.326416,0.921875
1519494775066,-0.274658,0.367432,1.007813
1519494775077,-0.396729,0.355713,0.952881
1519494775132,-0.338867,0.264160,0.813721
1519494775169,-0.276855,0.314453,0.777100
1519494775179,-0.328369,0.353027,0.888916
1519494775233,-0.376953,0.376465,0.990234
1519494775265,-0.389648,0.399902,0.948730
1519494775298,-0.401367,0.381836,0.848145
1519494775307,-0.415039,0.379150,0.825684
1519494775356,-0.421875,0.402344,0.830078
1519494775389,-0.422119,0.365234,0.830811
1519494775398,-0.411865,0.386719,0.834717
1519494775447,-0.390625,0.412109,0.840820
1519494775480,-0.386475,0.354004,0.886230
1519494775512,-0.367432,0.344971,0.902100
1519494775546,-0.348389,0.378662,0.881104
1519494775578,-0.322021,0.340576,1.012695
1519494775611,-0.337646,0.313965,0.970215
1519494775642,-0.308594,0.344971,0.968018
1519494775675,-0.248535,0.370605,0.893555
1519494775708,-0.304932,0.204102,0.864258
1519494775740,-0.426514,0.338379,1.013672
1519494775774,-0.433594,0.416016,0.983398
1519494775806,-0.450684,0.275146,0.744873
1519494775838,-0.429199,0.471436,0.788086
1519494775870,-0.435791,0.469482,0.866455
1519494775875,-0.377930,0.358887,0.770508
1519494775929,-0.349854,0.387207,0.745605
1519494775962,-0.386719,0.380127,0.840332
1519494775993,-0.426514,0.416748,0.944336
1519494776026,-0.471680,0.388672,0.885742
1519494776063,-0.482422,0.361816,0.809814
1519494776096,-0.483887,0.467773,0.817139
1519494776128,-0.485107,0.509277,0.907715
1519494776161,-0.459717,0.447510,0.870605
1519494776194,-0.385498,0.384277,0.868896
1519494776228,-0.311035,0.314209,0.842773
1519494776260,-0.268066,0.255127,0.853516
1519494776268,-0.285400,0.258545,0.920410
1519494776318,-0.377441,0.348877,0.937256
1519494776351,-0.358887,0.359131,0.948975
1519494776359,-0.348145,0.367188,0.931885
1519494776413,-0.373291,0.433105,0.877197
1519494776449,-0.432617,0.361084,0.793213
1519494776482,-0.481689,0.316406,0.744385
1519494776514,-0.485352,0.351318,0.764648
1519494776523,-0.447266,0.442627,0.822754
1519494776578,-0.418457,0.456299,0.920654
1519494776611,-0.298828,0.483398,1.010986
1519494776642,-0.432373,0.446777,0.889648
1519494776675,-0.369629,0.365234,0.834229
1519494776708,-0.399658,0.379883,0.808594
1519494776741,-0.420898,0.384521,0.813232
1519494776773,-0.431641,0.348877,0.820313
1519494776804,-0.441162,0.380127,0.790771
1519494776838,-0.413574,0.426270,0.815918
1519494776846,-0.403809,0.423340,0.876953
1519494776898,-0.388184,0.413330,0.881104
1519494776930,-0.388428,0.430664,0.900635
1519494776939,-0.420898,0.398682,0.883057
1519494777002,-0.429932,0.394531,0.865234
1519494777011,-0.421631,0.402100,0.852051
1519494777062,-0.413330,0.406006,0.845703
1519494777096,-0.415283,0.403809,0.842285
1519494777105,-0.421143,0.420898,0.837402
1519494777159,-0.425537,0.418945,0.840332
1519494777192,-0.453125,0.391602,0.807129
1519494777223,-0.469238,0.407959,0.801025
1519494777257,-0.464600,0.418701,0.799805
1519494777290,-0.457275,0.388428,0.806152
1519494777321,-0.460938,0.393555,0.809814
1519494777354,-0.462158,0.415039,0.808838
1519494777387,-0.450195,0.413086,0.810547
1519494777419,-0.449951,0.405273,0.806152
1519494777428,-0.448975,0.426270,0.810791
1519494777478,-0.421875,0.432861,0.818359
1519494777510,-0.414307,0.431641,0.836426
1519494777518,-0.414063,0.421875,0.847168
1519494777574,-0.432129,0.456299,0.859863
1519494777607,-0.428467,0.437012,0.844971
1519494777638,-0.418945,0.437744,0.845459
1519494777670,-0.428711,0.446289,0.839355
1519494777684,-0.428711,0.437744,0.836670
1519494777729,-0.438721,0.423584,0.821777
1519494777760,-0.438965,0.427246,0.809326
1519494777795,-0.431885,0.434082,0.817871
1519494777827,-0.439697,0.449219,0.835938
1519494777859,-0.470703,0.445801,0.811768
1519494777892,-0.476074,0.477783,0.792236
1519494777924,-0.473389,0.466553,0.778809
1519494777960,-0.442139,0.463379,0.797363
1519494777992,-0.426758,0.417480,0.830566
1519494778024,-0.423096,0.427002,0.835205
1519494778057,-0.412354,0.351807,0.776367
1519494778090,-0.386475,0.368896,0.877686
1519494778104,-0.293213,0.403564,1.101318
1519494778136,-0.333496,0.312500,0.959961
1519494778168,-0.343750,0.341309,0.824219
1519494778202,-0.301758,0.286377,0.817871
1519494778246,-0.380371,0.400391,0.853271
1519494778278,-0.396484,0.401855,0.879150
1519494778311,-0.397461,0.327881,0.875732
1519494778343,-0.426514,0.357666,0.866943
1519494778376,-0.419922,0.404785,0.862305
1519494778407,-0.427002,0.383789,0.828613
1519494778439,-0.401855,0.400879,0.825684
1519494778472,-0.400146,0.444092,0.856689
1519494778507,-0.411621,0.423096,0.850342
1519494778538,-0.430908,0.442871,0.836426
1519494778571,-0.441162,0.445313,0.804443
1519494778604,-0.446289,0.457275,0.818848
1519494778635,-0.428955,0.413818,0.813477
1519494778668,-0.400391,0.417969,0.823242
1519494778701,-0.369873,0.432861,0.856934
1519494778734,-0.383057,0.430176,0.853027
1519494778767,-0.407227,0.406250,0.874268
1519494778800,-0.423828,0.426270,0.844482
1519494778832,-0.409912,0.416016,0.842529
1519494778865,-0.410889,0.430664,0.847900
1519494778873,-0.409668,0.431641,0.839600
1519494778926,-0.403809,0.420166,0.844482
1519494778959,-0.401611,0.420898,0.843262
1519494778968,-0.402344,0.420898,0.836914
1519494779031,-0.403564,0.423340,0.844238
1519494779036,-0.403076,0.420654,0.844482
1519494779099,-0.399902,0.418945,0.851074
1519494779166,-0.407715,0.424805,0.842773
1519494779172,-0.408936,0.433838,0.848633
1519494779235,-0.402588,0.435059,0.837646
1519494779243,-0.401367,0.429443,0.826172
1519494779300,-0.397949,0.425049,0.830811
1519494779371,-0.395996,0.432373,0.846436
1519494779437,-0.404053,0.410156,0.845215
1519494779446,-0.404785,0.416016,0.848877
1519494779503,-0.411377,0.426758,0.835205
1519494779506,-0.416016,0.441650,0.845459
1519494779516,-0.409668,0.432617,0.855225
1519494779522,-0.396484,0.417236,0.848877
1519494779527,-0.399170,0.407715,0.836426
1519494779532,-0.405029,0.425293,0.854004
1519494779550,-0.416016,0.425049,0.847168
1519494779609,-0.426514,0.440674,0.826416
1519494779617,-0.426514,0.441162,0.793945
1519494779667,-0.429932,0.411865,0.802734
1519494779699,-0.399414,0.478516,0.875732
1519494779713,-0.411133,0.458252,0.918945
1519494779747,-0.417725,0.435303,0.860107
1519494779780,-0.427979,0.375000,0.799805
1519494779812,-0.427734,0.341309,0.806885
1519494779868,-0.400879,0.320068,0.862305
1519494779873,-0.422119,0.409424,0.977783
1519494779932,-0.414795,0.375000,0.866211
1519494779965,-0.394531,0.350342,0.747559
1519494779997,-0.406250,0.310059,0.779053
1519494780029,-0.426758,0.426025,0.813721
1519494780035,-0.433350,0.461182,0.883301
1519494780087,-0.423584,0.391357,0.797119
1519494780119,-0.419922,0.400146,0.817383
1519494780124,-0.351807,0.380615,0.998291
1519494780181,-0.415771,0.330811,0.958984
1519494780214,-0.364990,0.326416,0.817139
1519494780246,-0.362549,0.370850,0.794678
1519494780289,-0.416992,0.403076,0.933838
1519494780298,-0.449951,0.364502,0.903809
1519494780347,-0.443359,0.339111,0.811523
1519494780381,-0.460693,0.376709,0.789307
1519494780413,-0.457031,0.381592,0.827881
1519494780454,-0.427734,0.390869,0.822021
1519494780476,-0.412598,0.404541,0.819824
1519494780509,-0.430664,0.410889,0.824951
1519494780523,-0.437744,0.411377,0.836914
1519494780556,-0.443848,0.399658,0.853271
1519494780614,-0.448975,0.397461,0.840088
1519494780619,-0.431885,0.370850,0.852295
1519494780672,-0.419922,0.401123,0.865479
1519494780705,-0.417480,0.404297,0.847656
1519494780714,-0.406494,0.381104,0.840820
1519494780764,-0.432861,0.407471,0.865234
1519494780797,-0.430664,0.403809,0.886230
1519494780829,-0.421631,0.391357,0.852295
1519494780866,-0.410400,0.383545,0.838135
1519494780875,-0.417969,0.376953,0.848145
1519494780928,-0.416504,0.402832,0.843750
1519494780942,-0.413574,0.376465,0.843750
1519494780974,-0.418457,0.386230,0.847900
1519494781007,-0.427002,0.387207,0.853027
1519494781064,-0.416504,0.377930,0.843994
1519494781070,-0.422119,0.386719,0.841553
1519494781127,-0.431641,0.391113,0.861328
1519494781159,-0.427002,0.399414,0.857666
1519494781191,-0.450928,0.383545,0.831299
1519494781197,-0.483643,0.406738,0.844727
1519494781251,-0.517334,0.386230,0.803467
1519494781259,-0.506836,0.343018,0.759766
1519494781289,-0.454590,0.415039,0.891846
1519494781354,-0.334717,0.377686,0.851074
1519494781363,-0.307617,0.351563,0.820557
1519494781389,-0.174072,0.392578,1.036377
1519494781446,-0.281250,0.371094,0.957031
1519494781479,-0.305176,0.357910,0.762451
1519494781488,-0.301025,0.330078,0.853760
1519494781542,-0.385498,0.404297,0.936768
1519494781570,-0.378418,0.364990,0.882324
1519494781602,-0.395752,0.429932,0.876221
1519494781634,-0.255371,0.419189,0.985596
1519494781666,-0.227783,0.344727,0.922607
1519494781699,-0.303711,0.425537,0.966309
1519494781732,-0.494385,0.353271,0.803223
1519494781774,-0.545898,0.382080,0.724365
1519494781777,-0.587158,0.352051,0.671387
1519494781810,-0.504395,0.503174,0.844482
1519494781843,-0.504639,0.440918,0.927002
1519494781876,-0.461914,0.289307,0.862549
1519494781908,-0.440674,0.391846,0.703125
1519494781941,-0.459961,0.490479,0.843994
1519494781973,-0.465576,0.386719,0.925781
1519494782006,-0.284912,0.303467,0.770020
1519494782039,-0.280029,0.430908,1.128906
1519494782070,-0.409424,0.413574,0.942871
1519494782102,-0.408203,0.287598,0.740967
1519494782136,-0.423096,0.378662,0.833496
1519494782176,-0.411621,0.361572,0.893799
1519494782209,-0.404785,0.352539,0.847900
1519494782242,-0.437012,0.348633,0.797607
1519494782274,-0.445068,0.360107,0.809326
1519494782306,-0.412598,0.436523,0.847656
1519494782339,-0.425537,0.427246,0.840576
1519494782372,-0.418701,0.472412,0.871094
1519494782405,-0.447510,0.436523,0.874023
1519494782437,-0.438477,0.389648,0.848877
1519494782468,-0.417480,0.377686,0.824463
1519494782500,-0.427002,0.375732,0.868164
1519494782534,-0.427002,0.364014,0.837402
1519494782547,-0.417236,0.375000,0.837891
1519494782606,-0.420654,0.397949,0.862305
1519494782638,-0.415771,0.375977,0.846191
1519494782641,-0.427002,0.399902,0.842773
1519494782698,-0.429688,0.395996,0.824463
1519494782731,-0.443359,0.396729,0.821533
1519494782739,-0.456787,0.432861,0.836670
1519494782792,-0.438232,0.438477,0.828613
1519494782798,-0.430176,0.416992,0.819092
1519494782849,-0.426270,0.434814,0.860352
1519494782882,-0.421387,0.406738,0.841797
1519494782915,-0.421143,0.400146,0.842773
1519494782947,-0.429688,0.371094,0.826416
1519494782980,-0.440430,0.358154,0.832031
1519494783013,-0.445801,0.376221,0.834717
1519494783044,-0.438477,0.389893,0.809326
1519494783076,-0.408936,0.499512,0.925049
1519494783109,-0.460938,0.398438,0.828857
1519494783141,-0.430908,0.299072,0.778564
1519494783174,-0.427734,0.451904,0.845215
1519494783206,-0.436279,0.434326,0.905518
1519494783240,-0.375732,0.343262,0.749268
1519494783272,-0.413086,0.393311,0.982666
1519494783305,-0.440918,0.287842,0.834717
1519494783314,-0.459961,0.370605,0.847412
1519494783377,-0.424561,0.423828,0.896240
1519494783388,-0.429443,0.399902,0.902588
1519494783438,-0.473145,0.393555,0.829346
1519494783471,-0.471924,0.387939,0.775635
1519494783479,-0.463623,0.403809,0.800537
1519494783533,-0.448242,0.420410,0.854736
1519494783567,-0.440674,0.403564,0.828857
1519494783599,-0.407715,0.343018,0.849121
1519494783631,-0.398193,0.383789,0.861816
1519494783670,-0.421631,0.439697,0.769531
1519494783676,-0.397217,0.333252,0.797607
1519494783712,-0.397705,0.257324,0.861084
1519494783746,-0.355957,0.367432,0.928955
1519494783801,-0.369629,0.386230,1.029785
1519494783804,-0.428711,0.416748,0.976074
1519494783861,-0.350342,0.322510,0.840576
1519494783893,-0.329590,0.315918,0.811523
1519494783896,-0.365967,0.270264,0.895020
1519494783953,-0.430664,0.412598,0.973145
1519494783961,-0.443848,0.382568,0.842529
1519494784028,-0.441650,0.353027,0.733398
1519494784036,-0.476807,0.440430,0.796387
1519494784096,-0.451660,0.447754,0.872314
1519494784104,-0.439697,0.447754,0.926514
1519494784162,-0.408203,0.361084,0.852051
1519494784232,-0.372803,0.343018,0.767822
1519494784298,-0.371338,0.369141,0.835938
1519494784307,-0.431641,0.421387,0.957031
1519494784366,-0.456299,0.384766,0.917236
1519494784374,-0.477539,0.304199,0.772217
1519494784433,-0.438721,0.372559,0.788086
1519494784442,-0.446777,0.387451,0.845947
1519494784501,-0.468506,0.384521,0.845215
1519494784509,-0.483887,0.388428,0.788574
1519494784519,-0.480713,0.388184,0.801758
1519494784522,-0.482422,0.394775,0.834229
1519494784525,-0.471924,0.377930,0.803467
1519494784554,-0.477051,0.385254,0.812012
1519494784588,-0.469971,0.406250,0.819092
1519494784620,-0.439209,0.421875,0.818604
1519494784653,-0.431885,0.397461,0.829102
1519494784689,-0.439941,0.408691,0.841309
1519494784722,-0.450684,0.399658,0.847168
1519494784754,-0.444824,0.396729,0.846436
1519494784787,-0.427979,0.379639,0.849854
1519494784820,-0.447021,0.382568,0.841553
1519494784852,-0.460693,0.394775,0.830078
1519494784885,-0.449951,0.418213,0.831543
1519494784917,-0.433838,0.423828,0.836182
1519494784949,-0.442871,0.416748,0.827881
1519494784956,-0.445557,0.403320,0.824219
1519494784994,-0.442627,0.405029,0.837646
1519494785027,-0.438721,0.401367,0.839600
1519494785058,-0.428711,0.424072,0.845459
1519494785091,-0.436035,0.393799,0.829590
1519494785125,-0.434082,0.390381,0.875732
1519494785159,-0.435059,0.373535,0.863770
1519494785214,-0.448486,0.386230,0.839111
1519494785247,-0.450928,0.367432,0.830566
1519494785257,-0.451172,0.391846,0.840576
1519494785311,-0.432617,0.398193,0.821533
1519494785344,-0.446533,0.402832,0.818848
1519494785376,-0.446533,0.387451,0.823730
1519494785411,-0.436035,0.405029,0.825684
1519494785418,-0.444092,0.380615,0.812012
1519494785443,-0.459473,0.387939,0.827881
1519494785490,-0.446533,0.428711,0.918213
1519494785523,-0.462158,0.395020,0.897705
1519494785555,-0.427490,0.375732,0.800781
1519494785587,-0.365479,0.387451,0.760742
1519494785619,-0.419678,0.395020,0.851563
1519494785654,-0.472412,0.434814,0.903076
1519494785687,-0.505127,0.422119,0.837646
1519494785719,-0.517090,0.433350,0.753174
1519494785753,-0.493408,0.474121,0.741211
1519494785786,-0.470215,0.395508,0.774170
1519494785818,-0.441406,0.326660,0.776123
1519494785827,-0.370117,0.416016,0.929932
1519494785879,-0.266846,0.367676,1.114502
1519494785912,-0.403809,0.343506,0.954590
1519494785920,-0.326904,0.297119,0.842041
1519494785976,-0.372803,0.317383,0.806152
1519494786008,-0.427246,0.364502,0.853027
1519494786040,-0.471436,0.350098,0.875488
1519494786072,-0.482422,0.382324,0.814209
1519494786106,-0.493652,0.425049,0.775635
1519494786137,-0.493652,0.455322,0.762939
1519494786170,-0.463379,0.472168,0.760010
1519494786187,-0.434082,0.400146,0.792725
1519494786243,-0.441650,0.402100,0.797119
1519494786252,-0.292725,0.304199,1.048828
1519494786307,-0.380371,0.353516,1.045898
1519494786340,-0.387939,0.421387,0.855713
1519494786372,-0.362305,0.207764,0.814941
1519494786405,-0.443604,0.346680,0.933594
1519494786413,-0.445313,0.399170,0.952881
1519494786463,-0.491211,0.395508,0.804199
1519494786496,-0.470947,0.336426,0.688232
1519494786505,-0.436035,0.458252,0.772949
1519494786555,-0.448730,0.452881,0.921143
1519494786589,-0.407227,0.403809,0.795166
1519494786603,-0.406006,0.316650,0.810547
1519494786635,-0.468506,0.399170,0.855957
1519494786688,-0.470459,0.399902,0.853027
1519494786720,-0.475098,0.371582,0.808838
1519494786754,-0.422119,0.399902,0.769287
1519494786787,-0.416260,0.431641,0.819580
1519494786818,-0.439697,0.446777,0.887695
1519494786850,-0.481689,0.331787,0.856201
1519494786884,-0.493652,0.360596,0.817139
1519494786918,-0.514404,0.359863,0.802246
1519494786950,-0.494873,0.446289,0.736084
1519494786982,-0.451172,0.612305,0.860352
1519494786990,-0.418945,0.383545,1.114502
1519494787041,-0.407959,0.408936,0.775879
1519494787072,-0.392822,0.236816,0.694092
1519494787080,-0.429688,0.311768,0.936523
1519494787137,-0.573242,0.381348,0.760498
1519494787168,-0.542480,0.352051,0.569580
1519494787201,-0.413574,0.513672,0.860596
1519494787234,-0.468994,0.487793,0.958008
1519494787267,-0.456055,0.328369,0.778809
1519494787300,-0.482422,0.317627,0.823486
1519494787332,-0.541504,0.349854,0.788330
1519494787365,-0.574463,0.274658,0.677002
1519494787398,-0.584229,0.318115,0.643311
1519494787419,-0.495850,0.435791,0.839355
1519494787451,-0.323730,0.470215,0.956543
1519494787483,-0.480469,0.457520,0.970459
1519494787516,-0.481445,0.332031,0.768799
1519494787548,-0.500732,0.310303,0.757080
1519494787586,-0.519775,0.392090,0.798340
1519494787618,-0.504150,0.354248,0.778564
1519494787650,-0.496826,0.364746,0.734375
1519494787682,-0.498779,0.437988,0.772217
1519494787715,-0.485107,0.419189,0.813232
1519494787749,-0.488037,0.394531,0.827881
1519494787781,-0.500244,0.425293,0.813477
1519494787813,-0.492676,0.410889,0.853516
1519494787846,-0.485107,0.408936,0.845703
1519494787877,-0.482910,0.412109,0.848877
1519494787910,-0.474609,0.412598,0.772461
1519494787943,-0.480713,0.413086,0.795654
1519494787970,-0.489502,0.422119,0.806641
1519494788002,-0.500244,0.375732,0.758545
1519494788033,-0.461426,0.314453,0.785156
1519494788065,-0.460205,0.406494,0.874512
1519494788099,-0.491211,0.420654,0.846436
1519494788132,-0.475342,0.372314,0.773438
1519494788164,-0.469238,0.382813,0.821533
1519494788196,-0.517578,0.512939,0.918701
1519494788213,-0.421143,0.353271,0.720947
1519494788242,-0.460205,0.371582,0.897705
1519494788300,-0.468994,0.359131,0.753418
1519494788332,-0.461914,0.299316,0.738525
1519494788365,-0.473389,0.361328,0.818359
1519494788397,-0.471680,0.444580,0.850098
1519494788430,-0.472168,0.412354,0.819580
1519494788462,-0.463379,0.357178,0.776367
1519494788493,-0.510742,0.382813,0.793945
1519494788526,-0.485596,0.407715,0.820068
1519494788563,-0.472656,0.405762,0.846436
1519494788596,-0.465088,0.397705,0.781006
1519494788604,-0.434082,0.404785,0.824951
1519494788640,-0.429199,0.438477,0.877686
1519494788673,-0.444824,0.414307,0.817383
1519494788705,-0.433838,0.386719,0.820557
1519494788740,-0.407227,0.415283,0.981689
1519494788772,-0.379150,0.416260,0.917236
1519494788805,-0.309814,0.457031,0.868652
1519494788837,-0.343750,0.427490,0.831543
1519494788870,-0.467529,0.403809,0.894287
1519494788902,-0.516846,0.360596,0.716797
1519494788935,-0.521973,0.276123,0.649170
1519494789016,-0.572998,0.396973,0.726563
1519494789025,-0.506348,0.416504,1.004395
1519494789082,-0.547852,0.370605,0.921631
1519494789088,-0.554443,0.415039,0.716309
1519494789151,-0.496582,0.386230,0.690918
1519494789159,-0.496582,0.326172,0.664307
1519494789219,-0.458496,0.475342,0.823730
1519494789227,-0.381836,0.508789,0.936035
1519494789286,-0.370361,0.315430,0.930420
1519494789294,-0.228516,0.309570,1.052490
1519494789352,-0.424316,0.426270,0.945313
1519494789355,-0.390869,0.342285,0.807861
1519494789422,-0.466553,0.293213,0.908447
1519494789430,-0.495605,0.420166,0.908447
1519494789489,-0.486572,0.359131,0.781006
1519494789497,-0.481934,0.312988,0.733643
1519494789520,-0.427979,0.413818,0.744141
1519494789523,-0.369141,0.466309,1.004395
1519494789539,-0.452393,0.418945,0.884521
1519494789597,-0.404297,0.376953,0.834717
1519494789605,-0.407227,0.333740,0.848145
1519494789654,-0.415039,0.361816,0.879150
1519494789687,-0.406494,0.398926,0.836670
1519494789690,-0.498047,0.307373,0.782227
1519494789748,-0.541748,0.253418,0.693359
1519494789779,-0.522949,0.372070,0.746826
1519494789813,-0.500488,0.547852,0.918213
1519494789845,-0.481689,0.457275,0.838379
1519494789854,-0.454834,0.461182,0.775146
1519494789909,-0.471191,0.453369,0.858643
1519494789922,-0.470459,0.391602,0.802002
1519494789954,-0.468994,0.373535,0.791260
1519494790013,-0.466309,0.424561,0.832031
1519494790045,-0.430908,0.425293,0.930176
1519494790054,-0.404053,0.418213,0.846680
1519494790108,-0.368164,0.413330,0.755859
1519494790141,-0.399658,0.421387,0.768066
1519494790172,-0.428955,0.419434,0.833496
1519494790175,-0.445801,0.377441,0.886719
1519494790230,-0.486084,0.306396,0.839600
1519494790263,-0.481445,0.274414,0.847412
1519494790267,-0.468262,0.304688,0.870117
1519494790327,-0.453369,0.367676,0.861084
1519494790335,-0.438721,0.454346,0.871094
1519494790391,-0.445557,0.437500,0.833252
1519494790424,-0.468994,0.389404,0.770264
1519494790457,-0.471924,0.395020,0.767090
1519494790467,-0.478516,0.337402,0.751709
1519494790529,-0.444092,0.412109,0.851318
1519494790538,-0.297852,0.583740,1.051758
1519494790593,-0.399170,0.339600,0.845459
1519494790626,-0.380127,0.448730,0.819824
1519494790634,-0.386230,0.398438,0.826172
1519494790689,-0.434326,0.419189,0.833984
1519494790721,-0.463623,0.412598,0.880371
1519494790736,-0.455566,0.354248,0.832031
1519494790767,-0.443359,0.395508,0.869385
1519494790826,-0.411133,0.367676,0.837891
1519494790835,-0.390625,0.363770,0.806396
1519494790858,-0.447510,0.334961,0.793701
1519494790917,-0.535645,0.322266,0.809326
1519494790926,-0.539307,0.326416,0.792236
1519494790951,-0.510742,0.343018,0.825439
1519494791007,-0.446777,0.421875,0.870605
1519494791041,-0.443848,0.451416,0.843262
1519494791049,-0.450195,0.453369,0.835938
1519494791103,-0.473633,0.431396,0.816895
1519494791137,-0.481201,0.395752,0.794189
1519494791151,-0.458496,0.365234,0.788086
1519494791208,-0.470459,0.384033,0.811523
1519494791241,-0.478271,0.388184,0.806641
1519494791249,-0.413330,0.455078,0.882568
1519494791304,-0.417969,0.436523,0.954346
1519494791338,-0.434326,0.357422,0.803467
1519494791346,-0.433838,0.353271,0.817627
1519494791397,-0.477295,0.356445,0.822998
1519494791405,-0.515625,0.365723,0.771729
1519494791440,-0.499023,0.359375,0.746826
1519494791470,-0.453369,0.370117,0.764404
1519494791503,-0.442871,0.436035,0.836182
1519494791537,-0.479980,0.438721,0.861328
1519494791570,-0.446533,0.462891,0.862305
1519494791603,-0.478271,0.488281,0.963135
1519494791635,-0.493652,0.403320,0.822998
1519494791667,-0.492920,0.374268,0.721924
1519494791698,-0.505127,0.452881,0.800293
1519494791730,-0.491699,0.475830,0.818604
1519494791764,-0.480225,0.416748,0.783203
1519494791810,-0.452148,0.399658,0.750977
1519494791818,-0.469971,0.391846,0.778076
1519494791873,-0.474365,0.441406,0.820801
1519494791882,-0.462891,0.422607,0.796387
1519494791937,-0.482910,0.419434,0.797607
1519494791970,-0.506104,0.437744,0.842529
1519494791983,-0.491455,0.423340,0.838623
1519494792016,-0.487793,0.440186,0.811035
1519494792049,-0.486328,0.442139,0.807861
1519494792082,-0.493164,0.426514,0.810059
1519494792113,-0.519775,0.403076,0.787842
1519494792145,-0.552734,0.396240,0.800049
1519494792203,-0.568604,0.458740,0.830078
1519494792209,-0.604492,0.477783,0.789307
1519494792261,-0.572998,0.458740,0.714844
1519494792294,-0.486816,0.363037,0.669678
1519494792303,-0.430908,0.337402,0.780762
1519494792352,-0.373291,0.353516,0.867188
1519494792386,-0.387207,0.249023,0.823975
1519494792400,-0.411621,0.240234,0.770020
1519494792458,-0.340820,0.418701,0.967773
1519494792466,-0.301758,0.378418,1.075195
1519494792516,-0.406250,0.307129,0.907715
1519494792549,-0.375977,0.351807,0.844482
1519494792582,-0.383057,0.271484,0.862793
1519494792613,-0.424072,0.320068,0.945801
1519494792647,-0.468994,0.386475,0.889893
1519494792678,-0.500732,0.392822,0.801270
1519494792709,-0.484863,0.313965,0.774902
1519494792742,-0.418457,0.469482,0.818359
1519494792775,-0.463623,0.437744,0.835449
1519494792780,-0.433105,0.360840,0.802002
1519494792834,-0.495117,0.382568,0.821777
1519494792868,-0.545410,0.395752,0.856934
1519494792877,-0.543457,0.428467,0.800049
1519494792931,-0.539307,0.521973,0.748047
1519494792963,-0.407227,0.497314,0.989990
1519494792996,-0.263184,0.303223,0.964844
1519494793029,-0.401123,0.234375,0.854980
1519494793061,-0.438965,0.176025,0.937744
1519494793090,-0.489502,0.354004,0.906982
1519494793108,-0.404785,0.459229,0.811279
1519494793166,-0.384521,0.543213,0.858398
1519494793198,-0.354004,0.417236,0.834961
1519494793212,-0.457275,0.362061,0.807861
1519494793244,-0.523193,0.396973,0.751221
1519494793277,-0.528076,0.272461,0.661621
1519494793309,-0.637695,0.333496,0.734375
1519494793341,-0.622559,0.385254,0.994141
1519494793375,-0.530273,0.333740,0.999023
1519494793408,-0.516846,0.325195,0.665039
1519494793441,-0.490723,0.335205,0.689941
1519494793474,-0.510498,0.325439,0.824219
1519494793507,-0.523926,0.408936,0.719238
1519494793540,-0.438721,0.489990,0.899414
1519494793572,-0.286377,0.397705,0.858154
1519494793605,-0.253174,0.582520,1.185791
1519494793622,-0.392578,0.483887,0.971680
1519494793677,-0.456055,0.224365,0.912842
1519494793709,-0.592529,0.334229,0.661621
1519494793741,-0.584961,0.299316,0.647217
1519494793774,-0.549072,0.367188,0.797607
1519494793807,-0.452881,0.450439,0.823730
1519494793840,-0.456543,0.304932,0.774902
1519494793872,-0.436768,0.266602,0.706055
1519494793905,-0.492920,0.508301,0.803223
1519494793937,-0.488281,0.436035,0.853027
1519494793946,-0.481445,0.364258,0.920410
1519494794011,-0.367188,0.236572,0.969482
1519494794019,-0.367432,0.289795,1.007324
1519494794078,-0.426270,0.408447,0.863770
1519494794145,-0.364014,0.272217,0.843994
1519494794151,-0.402100,0.282715,0.864990
1519494794213,-0.472168,0.314209,0.927246
1519494794218,-0.515869,0.409424,0.858154
1519494794280,-0.506592,0.392090,0.787109
1519494794349,-0.499756,0.350342,0.687256
1519494794417,-0.489746,0.431641,0.762939
1519494794426,-0.515381,0.452393,0.798828
1519494794484,-0.518555,0.387451,0.737793
1519494794493,-0.510498,0.432129,0.756104
1519494794529,-0.515381,0.410889,0.815430
1519494794532,-0.503418,0.393799,0.855225
1519494794536,-0.464355,0.417236,0.801270
1519494794539,-0.479980,0.447510,0.851807
1519494794542,-0.484863,0.378662,0.855469
1519494794594,-0.491943,0.421143,0.902100
1519494794605,-0.520508,0.438477,0.886719
1519494794628,-0.536377,0.410400,0.798340
1519494794684,-0.478271,0.409912,0.713623
1519494794688,-0.404541,0.391846,0.725342
1519494794718,-0.406250,0.340576,0.755371
1519494794776,-0.454834,0.362061,0.851074
1519494794809,-0.471924,0.391846,0.890381
1519494794818,-0.472412,0.352539,0.864990
1519494794874,-0.481201,0.347412,0.842041
1519494794907,-0.455322,0.413330,0.846191
1519494794939,-0.460693,0.452637,0.846924
1519494794954,-0.429199,0.382324,0.848389
1519494795009,-0.450195,0.371338,0.828857
1519494795012,-0.464355,0.366699,0.825439
1519494795068,-0.454834,0.375977,0.839844
1519494795100,-0.469482,0.383057,0.809814
1519494795105,-0.486572,0.383057,0.811035
1519494795134,-0.462158,0.465820,0.815918
1519494795190,-0.408203,0.396484,0.994629
1519494795224,-0.450439,0.390381,0.889404
1519494795230,-0.419922,0.313965,0.661133
1519494795288,-0.410889,0.354736,0.756104
1519494795299,-0.404297,0.459717,0.925781
1519494795356,-0.233154,0.300293,1.151855
1519494795370,-0.493652,0.363281,0.850830
1519494795402,-0.444336,0.336182,0.732422
1519494795435,-0.457764,0.364990,0.762207
1519494795467,-0.453857,0.483398,0.869141
1519494795500,-0.437012,0.437500,0.897705
1519494795557,-0.443848,0.333984,0.807617
1519494795566,-0.444336,0.354492,0.858643
1519494795591,-0.298340,0.315186,1.123535
1519494795650,-0.368164,0.329102,0.906494
1519494795658,-0.276123,0.337402,0.961182
1519494795683,-0.316895,0.349365,0.972168
1519494795714,-0.423340,0.363281,0.847900
1519494795772,-0.489258,0.314209,0.776611
1519494795787,-0.467041,0.376953,0.741211
1519494795820,-0.499512,0.307861,0.713623
1519494795852,-0.578369,0.343994,0.669434
1519494795885,-0.589844,0.396973,0.654297
1519494795917,-0.606445,0.390381,0.687256
1519494795950,-0.546387,0.509277,0.864258
1519494795982,-0.616943,0.536621,0.930664
1519494796015,-0.537598,0.328613,0.750244
1519494796047,-0.504150,0.279297,0.729492
1519494796079,-0.506348,0.416748,0.793945
1519494796136,-0.509521,0.438232,0.890381
1519494796142,-0.507324,0.335205,0.808105
1519494796170,-0.524170,0.318604,0.742676
1519494796211,-0.548340,0.350830,0.763672
1519494796244,-0.555420,0.370605,0.763184
1519494796280,-0.524902,0.398682,0.749756
1519494796313,-0.457520,0.431396,0.846191
1519494796347,-0.382813,0.520020,0.868896
1519494796379,-0.299561,0.467529,1.049561
1519494796412,-0.384277,0.285645,0.826660
1519494796443,-0.403809,0.348389,0.707764
1519494796477,-0.475342,0.455078,0.853516
1519494796509,-0.415039,0.298096,0.794922
1519494796542,-0.327637,0.364990,1.061768
1519494796550,-0.448486,0.482422,0.899170
1519494796605,-0.369629,0.351074,0.831543
1519494796638,-0.429199,0.386963,0.881836
1519494796647,-0.482666,0.411133,0.873779
1519494796700,-0.475098,0.377686,0.869385
1519494796715,-0.485596,0.308350,0.800049
1519494796747,-0.466797,0.333008,0.762939
1519494796781,-0.482666,0.319580,0.728760
1519494796813,-0.484131,0.324219,0.698242
1519494796845,-0.503174,0.373535,0.697021
1519494796877,-0.477051,0.482178,0.824219
1519494796931,-0.604248,0.701660,1.121338
1519494796963,-0.484131,0.511963,0.898438
1519494796979,-0.477539,0.437500,0.812256
1519494797008,-0.495117,0.509277,0.936523
1519494797065,-0.495117,0.471924,0.882568
1519494797097,-0.485596,0.330811,0.729492
1519494797129,-0.504639,0.361572,0.755615
1519494797134,-0.521973,0.380371,0.789795
1519494797189,-0.524658,0.349365,0.732178
1519494797199,-0.515381,0.353271,0.704346
1519494797231,-0.506104,0.374023,0.732666
1519494797289,-0.518799,0.421143,0.768555
1519494797299,-0.523926,0.381104,0.761719
1519494797349,-0.523682,0.380615,0.759766
1519494797381,-0.510498,0.410156,0.785156
1519494797395,-0.502686,0.382813,0.760986
1519494797428,-0.469482,0.399902,0.834717
1519494797460,-0.445557,0.481934,0.859863
1519494797493,-0.455566,0.463379,0.858398
1519494797524,-0.462646,0.428223,0.837646
1519494797583,-0.473877,0.436279,0.844482
1519494797614,-0.481689,0.422119,0.817139
1519494797623,-0.479004,0.416260,0.799316
1519494797678,-0.454590,0.413086,0.786865
1519494797711,-0.463623,0.437988,0.806885
1519494797715,-0.465332,0.415771,0.779053
1519494797768,-0.479492,0.417480,0.783936
1519494797775,-0.485840,0.438232,0.800049
1519494797808,-0.480713,0.441162,0.812256
1519494797866,-0.459717,0.447510,0.843018
1519494797874,-0.463379,0.444092,0.834229
1519494797929,-0.455811,0.405029,0.831299
1519494797962,-0.450684,0.405762,0.802979
1519494797995,-0.468994,0.397217,0.819092
1519494798027,-0.470703,0.418213,0.817383
1519494798060,-0.464844,0.424561,0.823242
1519494798092,-0.464111,0.440674,0.808105
1519494798124,-0.462891,0.424561,0.806152
1519494798156,-0.458252,0.419922,0.787354
1519494798209,-0.461914,0.446289,0.806396
1519494798218,-0.486328,0.431396,0.811768
1519494798255,-0.480225,0.456299,0.809570
1519494798288,-0.466797,0.435303,0.802002
1519494798298,-0.473389,0.432373,0.797852
1519494798347,-0.479492,0.430420,0.791504
1519494798380,-0.471924,0.433838,0.797852
1519494798413,-0.458740,0.424316,0.814941
1519494798422,-0.448730,0.412354,0.838867
1519494798476,-0.461670,0.385986,0.830078
1519494798509,-0.460449,0.414063,0.828125
1519494798542,-0.479736,0.409912,0.797363
1519494798574,-0.480225,0.434082,0.802734
1519494798607,-0.472656,0.421631,0.803711
1519494798620,-0.480713,0.430176,0.818604
1519494798653,-0.475342,0.418945,0.799561
1519494798709,-0.470215,0.414307,0.803711
1519494798741,-0.458984,0.419922,0.811279
1519494798746,-0.454102,0.401123,0.802002
1519494798775,-0.433350,0.441162,0.824219
1519494798834,-0.451172,0.467041,0.841553
1519494798839,-0.492920,0.504883,0.803467
1519494798868,-0.510742,0.501465,0.831055
1519494798926,-0.513672,0.378418,0.822510
1519494798958,-0.533447,0.384033,0.786621
1519494799031,-0.531982,0.359619,0.781250
1519494799040,-0.513428,0.310547,0.752441
1519494799099,-0.490967,0.336182,0.747803
1519494799107,-0.490723,0.403809,0.789795
1519494799166,-0.490967,0.422363,0.806641
1519494799174,-0.499512,0.416748,0.817139
1519494799232,-0.511475,0.399658,0.787109
1519494799235,-0.517090,0.284668,0.786133
1519494799302,-0.517090,0.306885,0.818115
1519494799309,-0.497314,0.415527,0.829590
1519494799369,-0.505371,0.467285,0.800049
1519494799377,-0.500977,0.451904,0.759277
1519494799437,-0.486084,0.428955,0.755371
1519494799445,-0.510986,0.401611,0.809326
1519494799503,-0.472900,0.448975,0.761963
1519494799522,-0.423340,0.420898,0.988037
1519494799530,-0.478027,0.378906,0.857178
1519494799539,-0.441650,0.374023,0.739014
1519494799555,-0.425293,0.370117,0.751221
1519494799589,-0.476807,0.440674,0.877686
1519494799622,-0.501465,0.429199,0.861572
1519494799655,-0.509766,0.377197,0.814453
1519494799688,-0.496338,0.375732,0.768311
1519494799720,-0.468750,0.375488,0.794678
1519494799751,-0.461670,0.402832,0.800537
1519494799784,-0.460449,0.432373,0.811279
1519494799816,-0.479736,0.422852,0.816162
1519494799848,-0.495117,0.420654,0.798828
1519494799891,-0.484131,0.398193,0.781738
1519494799899,-0.471436,0.413086,0.831543
1519494799955,-0.459717,0.432861,0.854736
1519494799988,-0.458984,0.386719,0.823975
1519494799997,-0.477783,0.404785,0.850586
1519494800051,-0.481201,0.390869,0.878662
1519494800083,-0.478271,0.378662,0.842773
1519494800116,-0.496094,0.387695,0.820313
1519494800152,-0.507568,0.393799,0.817383
1519494800185,-0.489502,0.419189,0.800293
1519494800216,-0.462891,0.420654,0.779297
1519494800249,-0.436279,0.406494,0.781982
1519494800263,-0.458984,0.416504,0.804688
1519494800297,-0.477539,0.427246,0.810791
1519494800329,-0.488281,0.437744,0.804688
1519494800370,-0.472900,0.428955,0.830811
1519494800403,-0.440186,0.399658,0.834961
1519494800412,-0.439209,0.358154,0.812012
1519494800467,-0.447510,0.359619,0.840820
1519494800500,-0.435059,0.339111,0.832520
1519494800532,-0.451416,0.376953,0.893799
1519494800565,-0.430420,0.391846,0.925049
1519494800598,-0.423828,0.384033,0.875488
1519494800631,-0.432373,0.388916,0.829346
1519494800663,-0.458496,0.456787,0.782227
1519494800679,-0.482666,0.466553,0.755615
1519494800734,-0.499268,0.493408,0.726074
1519494800745,-0.525635,0.534668,0.680420
1519494800800,-0.563477,0.593262,0.620605
1519494800832,-0.595947,0.595947,0.575195
1519494800865,-0.504639,0.638184,0.685303
1519494800898,-0.491211,0.466553,0.813477
1519494800907,-0.470459,0.418701,0.861084
1519494800957,-0.384277,0.225098,1.003174
1519494800966,-0.335693,0.188965,1.099121
1519494800994,-0.332764,0.271729,1.097656
1519494801053,-0.348877,0.310791,0.948242
1519494801061,-0.372314,0.281494,0.857422
1519494801105,-0.385010,0.324707,0.791504
1519494801136,-0.408936,0.389648,0.743896
1519494801169,-0.446777,0.490479,0.714355
1519494801202,-0.454346,0.573242,0.681152
1519494801235,-0.517822,0.500244,0.728027
1519494801266,-0.534912,0.493652,0.817383
1519494801300,-0.532227,0.535156,0.807129
1519494801332,-0.492188,0.514893,0.803711
1519494801364,-0.479004,0.460938,0.838623
1519494801396,-0.483398,0.397217,0.850342
1519494801430,-0.492920,0.312988,0.834961
1519494801461,-0.482910,0.254150,0.804932
1519494801475,-0.470947,0.263184,0.797607
1519494801533,-0.365479,0.371338,0.844727
1519494801566,-0.285889,0.517334,0.875244
1519494801599,-0.264893,0.513672,0.950684
1519494801632,-0.361572,0.434082,0.988281
1519494801665,-0.419434,0.350098,0.923584
1519494801696,-0.437500,0.343750,0.918213
1519494801727,-0.416016,0.360840,0.882813
1519494801760,-0.393799,0.356934,0.832520
1519494801793,-0.354980,0.353516,0.833984
1519494801826,-0.355225,0.395752,0.860107
1519494801858,-0.354736,0.392334,0.869141
1519494801874,-0.358887,0.347412,0.837158
1519494801929,-0.410645,0.345215,0.850586
1519494801962,-0.440186,0.388184,0.887207
1519494801965,-0.489502,0.418457,0.878418
1519494802004,-0.473389,0.294434,0.923340
1519494802051,-0.397461,0.348389,0.907715
1519494802059,-0.346191,0.399658,0.925293
1519494802113,-0.338623,0.386230,0.858887
1519494802145,-0.364990,0.390137,0.822754
1519494802179,-0.380127,0.382324,0.818848
1519494802210,-0.417236,0.365234,0.820557
1519494802242,-0.426514,0.403809,0.842529
1519494802275,-0.411377,0.427246,0.802490
1519494802289,-0.385498,0.385986,0.845947
1519494802347,-0.393066,0.354248,0.860352
1519494802380,-0.428955,0.339844,0.867188
1519494802388,-0.298584,0.351563,0.935547
1519494802442,-0.297119,0.405273,0.974854
1519494802476,-0.396729,0.454346,0.920898
1519494802509,-0.324951,0.359131,0.877930
1519494802515,-0.379639,0.332275,0.802490
1519494802540,-0.422852,0.372803,0.792480
1519494802573,-0.438965,0.383789,0.807129
1519494802606,-0.441406,0.418945,0.796631
1519494802638,-0.421875,0.425293,0.788330
1519494802671,-0.428467,0.473633,0.862305
1519494802712,-0.422119,0.474365,0.915771
1519494802744,-0.415771,0.442871,0.876465
1519494802777,-0.425049,0.410156,0.821289
1519494802809,-0.427490,0.392822,0.824219
1519494802842,-0.388916,0.392578,0.846191
1519494802875,-0.351074,0.380615,0.780273
1519494802908,-0.342041,0.394043,0.804688
1519494802941,-0.340576,0.413330,0.810303
1519494802975,-0.361572,0.445801,0.841309
1519494803007,-0.374268,0.484131,0.911377
1519494803019,-0.372559,0.493408,0.945313
1519494803075,-0.431885,0.407227,0.880859
1519494803088,-0.458740,0.384277,0.885986
1519494803120,-0.490479,0.391846,0.901367
1519494803178,-0.476563,0.408203,0.865479
1519494803187,-0.428223,0.404053,0.810303
1519494803240,-0.388916,0.418213,0.821045
1519494803273,-0.384277,0.397705,0.800049
1519494803305,-0.371338,0.283691,0.752686
1519494803331,-0.328369,0.293945,0.748779
1519494803362,-0.396484,0.806152,0.843750
1519494803393,-0.429443,0.566162,0.832031
1519494803427,-0.464355,0.375000,0.828857
1519494803458,-0.427246,0.497803,0.935303
1519494803491,-0.416748,0.419678,0.795166
1519494803504,-0.394287,0.390869,0.753174
1519494803563,-0.385498,0.472412,0.821533
1519494803572,-0.397949,0.447998,0.856689
1519494803602,-0.351074,0.372559,0.843018
1519494803660,-0.357178,0.363525,0.916748
1519494803668,-0.370850,0.444092,0.899658
1519494803723,-0.259521,0.172852,0.961914
1519494803755,-0.352539,0.411133,1.015381
1519494803788,-0.330566,0.376709,0.965088
1519494803821,-0.389893,0.261230,0.993652
1519494803852,-0.412842,0.354736,0.845459
1519494803885,-0.415039,0.368408,0.767822
1519494803898,-0.419189,0.392090,0.692383
1519494803957,-0.434082,0.431885,0.758789
1519494804032,-0.451172,0.414551,0.784424
1519494804041,-0.447754,0.325439,0.781494
1519494804099,-0.435547,0.384277,0.832275
1519494804108,-0.426514,0.391357,0.879639
1519494804166,-0.424316,0.408936,0.917969
1519494804172,-0.307129,0.304932,1.048340
1519494804235,-0.409912,0.433105,0.988525
1519494804243,-0.399414,0.351074,0.880127
1519494804301,-0.402832,0.340332,0.836426
1519494804306,-0.412354,0.340332,0.849609
1519494804370,-0.399414,0.357422,0.805908
1519494804378,-0.401367,0.327637,0.786377
1519494804437,-0.400635,0.398926,0.813477
1519494804490,-0.423828,0.429443,0.827148
1519494804495,-0.444580,0.368652,0.812744
1519494804500,-0.451660,0.457031,0.882324
1519494804504,-0.467773,0.456543,0.873535
1519494804526,-0.435791,0.409912,0.865234
1519494804561,-0.404053,0.413330,0.829590
1519494804568,-0.416992,0.463135,0.838135
1519494804635,-0.406250,0.432861,0.869873
1519494804667,-0.410400,0.428223,0.823486
1519494804676,-0.403809,0.402588,0.804688
1519494804726,-0.372803,0.334229,0.823242
1519494804734,-0.373291,0.389160,0.885986
1519494804787,-0.400391,0.395020,0.884277
1519494804821,-0.357178,0.411865,0.839355
1519494804829,-0.352539,0.508789,0.916504
1519494804883,-0.388184,0.452881,0.923096
1519494804916,-0.417480,0.422852,0.863525
1519494804948,-0.395752,0.397461,0.834961
1519494804985,-0.394775,0.366943,0.791504
1519494805016,-0.379150,0.408936,0.783447
1519494805048,-0.359375,0.523682,0.901367
1519494805083,-0.378174,0.465576,0.903076
1519494805115,-0.286377,0.328125,0.908691
1519494805129,-0.357422,0.397949,0.930908
1519494805160,-0.322510,0.384766,0.844727
1519494805193,-0.410645,0.486084,0.911133
1519494805225,-0.450439,0.527344,0.886963
1519494805258,-0.461182,0.398438,0.789307
1519494805315,-0.427979,0.333252,0.899658
1519494805321,-0.369385,0.398438,0.866699
1519494805349,-0.346680,0.443848,0.803223
1519494805382,-0.405762,0.369629,0.882080
1519494805415,-0.433350,0.356201,0.914063
1519494805449,-0.438232,0.387939,0.873047
1519494805482,-0.444336,0.359863,0.744629
1519494805513,-0.437500,0.325195,0.735596
1519494805556,-0.431885,0.477539,0.821045
1519494805588,-0.376465,0.540283,1.018066
1519494805620,-0.494141,0.418213,0.915527
1519494805653,-0.452148,0.330078,0.740723
1519494805685,-0.428223,0.363770,0.761230
1519494805732,-0.423828,0.416992,0.787354
1519494805738,-0.424072,0.395020,0.819092
1519494805764,-0.422607,0.363037,0.844482
1519494805797,-0.303711,0.366455,0.971680
1519494805831,-0.388916,0.454102,1.117920
1519494805865,-0.419922,0.357666,0.803955
1519494805893,-0.372803,0.378906,0.767334
1519494805929,-0.379883,0.403809,0.847656
1519494805962,-0.386475,0.421143,0.888916
1519494805995,-0.421387,0.365234,0.839600
1519494806027,-0.434326,0.353027,0.796631
1519494806060,-0.422119,0.388428,0.805176
1519494806092,-0.408447,0.449463,0.846680
1519494806149,-0.401367,0.437256,0.836426
1519494806182,-0.422852,0.403320,0.854736
1519494806188,-0.427734,0.436768,0.870605
1519494806221,-0.423340,0.399170,0.866699
1519494806278,-0.416260,0.376953,0.840332
1519494806283,-0.419189,0.382568,0.852051
1519494806312,-0.418945,0.405273,0.851318
1519494806353,-0.395996,0.397949,0.786865
1519494806386,-0.392334,0.404785,0.826416
1519494806419,-0.429443,0.430908,0.867920
1519494806450,-0.429688,0.417480,0.850586
1519494806484,-0.416748,0.411865,0.833740
1519494806516,-0.412354,0.427979,0.845459
1519494806549,-0.417480,0.412598,0.848877
1519494806581,-0.403564,0.420654,0.839844
1519494806614,-0.377686,0.422607,0.865967
1519494806646,-0.399170,0.406738,0.850098
1519494806677,-0.421143,0.399658,0.831543
1519494806711,-0.421875,0.407959,0.841553
1519494806753,-0.395996,0.427246,0.843750
1519494806761,-0.403564,0.433105,0.845459
1519494806788,-0.423096,0.419434,0.842529
1519494806850,-0.413818,0.422119,0.833252
1519494806856,-0.404053,0.432861,0.848633
1519494806889,-0.400146,0.421143,0.852295
1519494806922,-0.397461,0.419922,0.851563
1519494806954,-0.392578,0.414307,0.852783
1519494806988,-0.406982,0.393799,0.838135
1519494807021,-0.417725,0.406982,0.843018
1519494807054,-0.421387,0.410645,0.852051
1519494807110,-0.422363,0.431885,0.853760
1519494807125,-0.414063,0.437500,0.833496
1519494807169,-0.404541,0.420898,0.818604
1519494807202,-0.401123,0.417725,0.822510
1519494807235,-0.400635,0.412109,0.857666
1519494807267,-0.404297,0.408203,0.869385
1519494807272,-0.408203,0.403809,0.852539
1519494807326,-0.403076,0.415771,0.843506
1519494807358,-0.410156,0.417969,0.839355
1519494807366,-0.419922,0.425537,0.835449
1519494807422,-0.421387,0.425781,0.847900
1519494807455,-0.412842,0.417725,0.850586
1519494807488,-0.410889,0.410889,0.841064
1519494807521,-0.417480,0.412842,0.822754
1519494807561,-0.417725,0.422363,0.833984
1519494807570,-0.414551,0.420410,0.849121
1519494807622,-0.412109,0.405518,0.854980
1519494807654,-0.412842,0.408203,0.849854
1519494807688,-0.400391,0.399902,0.847168
1519494807721,-0.413818,0.399902,0.831543
1519494807753,-0.434570,0.413574,0.826172
1519494807762,-0.429688,0.439941,0.846436
1519494807810,-0.423584,0.425049,0.840820
1519494807844,-0.412354,0.412109,0.840332
1519494807853,-0.398438,0.400146,0.848389
1519494807907,-0.409668,0.388428,0.842285
1519494807939,-0.421143,0.414551,0.846924
1519494807952,-0.421387,0.424805,0.848633
1519494808011,-0.413818,0.405762,0.827881
1519494808020,-0.415039,0.404541,0.833984
1519494808072,-0.424072,0.411133,0.839844
1519494808106,-0.427490,0.426758,0.846680
1519494808139,-0.427734,0.416992,0.843018
1519494808170,-0.421875,0.413330,0.843018
1519494808203,-0.417725,0.414063,0.845459
1519494808236,-0.409424,0.394043,0.850098
1519494808269,-0.405029,0.398438,0.837646
1519494808300,-0.420410,0.412842,0.835938
1519494808333,-0.435303,0.428955,0.837646
1519494808342,-0.430176,0.427979,0.841064
1519494808379,-0.414551,0.398193,0.830811
1519494808451,-0.415771,0.402832,0.842285
1519494808459,-0.427002,0.411377,0.837891
1519494808482,-0.421631,0.416504,0.847412
1519494808516,-0.425293,0.410645,0.842529
1519494808549,-0.426025,0.397461,0.831787
1519494808582,-0.422607,0.418701,0.849365
1519494808612,-0.437012,0.398682,0.803223
1519494808644,-0.389893,0.427734,0.778564
1519494808677,-0.435303,0.467285,0.857178
1519494808711,-0.431885,0.419922,0.838867
1519494808744,-0.416748,0.385498,0.804443
1519494808784,-0.416504,0.433594,0.868164
1519494808816,-0.432617,0.423584,0.891846
1519494808854,-0.417236,0.416748,0.882568
1519494808886,-0.434570,0.407959,0.835205
1519494808918,-0.427734,0.416748,0.805908
1519494808927,-0.447510,0.449707,0.814453
1519494809019,-0.440674,0.421631,0.823242
1519494809025,-0.413330,0.375000,0.747803
1519494809086,-0.421387,0.443115,0.793457
1519494809092,-0.431885,0.418945,0.841797
1519494809154,-0.430908,0.422607,0.845947
1519494809161,-0.438721,0.431152,0.859619
1519494809223,-0.434814,0.422607,0.853516
1519494809232,-0.417236,0.412598,0.855713
1519494809288,-0.410889,0.399902,0.840332
1519494809292,-0.417969,0.404785,0.836182
1519494809357,-0.427002,0.405518,0.819092
1519494809365,-0.423340,0.413086,0.810547
1519494809425,-0.418213,0.461914,0.842041
1519494809433,-0.404053,0.427246,0.830566
1519494809491,-0.400635,0.436035,0.850586
1519494809499,-0.386475,0.430176,0.860840
1519494809505,-0.387695,0.417480,0.875244
1519494809508,-0.395020,0.395020,0.873535
1519494809553,-0.404541,0.408447,0.878418
1519494809568,-0.425049,0.402588,0.859131
1519494809609,-0.441650,0.391602,0.836426
1519494809642,-0.459961,0.442139,0.827148
1519494809673,-0.451416,0.500732,0.754150
1519494809704,-0.448730,0.546875,0.660645
1519494809729,-0.459473,0.410889,0.781006
1519494809764,-0.472900,0.398438,0.794678
1519494809800,-0.484131,0.402588,0.796387
1519494809833,-0.429443,0.336182,1.056885
1519494809866,-0.437256,0.369873,0.973877
1519494809899,-0.416260,0.378906,0.775146
1519494809931,-0.400391,0.222900,0.941406
1519494809963,-0.442871,0.481689,0.836426
1519494809982,-0.435059,0.539307,0.748535
1519494810033,-0.425781,0.420898,0.742432
1519494810041,-0.407715,0.377197,0.832520
1519494810099,-0.417725,0.492432,0.952637
1519494810131,-0.511230,0.465332,0.997314
1519494810162,-0.485596,0.268555,0.798828
1519494810195,-0.434326,0.310059,0.755127
1519494810227,-0.460693,0.295654,0.841797
1519494810261,-0.465332,0.363770,0.840088
1519494810293,-0.456299,0.341309,0.776855
1519494810327,-0.447266,0.339844,0.783936
1519494810359,-0.456543,0.361084,0.850586
1519494810392,-0.474121,0.357422,0.831543
1519494810405,-0.462158,0.387695,0.832520
1519494810464,-0.451172,0.405273,0.843750
1519494810472,-0.460693,0.403809,0.839355
1519494810523,-0.468262,0.402100,0.814941
1519494810529,-0.468018,0.381592,0.815430
1519494810554,-0.457275,0.406982,0.835449
1519494810613,-0.461914,0.426270,0.855469
1519494810646,-0.460938,0.392334,0.833252
1519494810679,-0.440430,0.351318,0.824219
1519494810711,-0.437744,0.438965,0.832520
1519494810743,-0.438477,0.395020,0.835938
1519494810753,-0.441895,0.396729,0.824951
1519494810809,-0.444336,0.427490,0.852051
1519494810824,-0.451904,0.422363,0.855713
1519494810857,-0.450439,0.405762,0.835449
1519494810890,-0.432861,0.397461,0.835693
1519494810947,-0.425293,0.391846,0.826660
1519494810956,-0.432617,0.394043,0.831055
1519494811009,-0.442383,0.415527,0.819336
1519494811041,-0.441406,0.420654,0.847656
1519494811047,-0.449707,0.401367,0.867432
1519494811102,-0.443848,0.380615,0.846680
1519494811110,-0.426025,0.355225,0.798340
1519494811163,-0.419922,0.386963,0.834961
1519494811195,-0.437256,0.404053,0.836670
1519494811202,-0.450928,0.401855,0.840332
1519494811260,-0.436035,0.409180,0.843506
1519494811291,-0.428711,0.393555,0.840332
1519494811324,-0.430176,0.395752,0.836914
1519494811341,-0.434570,0.386963,0.844727
1519494811374,-0.458496,0.388184,0.820801
1519494811406,-0.452637,0.416016,0.819092
1519494811438,-0.458496,0.422363,0.827637
1519494811471,-0.469971,0.428711,0.841064
1519494811528,-0.476074,0.442139,0.844238
1519494811533,-0.415527,0.455322,0.794678
1519494811587,-0.515381,0.395508,0.906006
1519494811621,-0.508057,0.377686,0.750977
1519494811635,-0.492188,0.391602,0.730469
1519494811693,-0.510010,0.470703,0.743164
1519494811701,-0.465088,0.350342,0.757568
1519494811731,-0.397705,0.420166,0.828125
1519494811787,-0.343262,0.485107,0.770020
1519494811793,-0.342773,0.372803,0.948730
1519494811826,-0.367920,0.344238,0.970947
1519494811860,-0.329102,0.270020,1.134521
1519494811893,-0.407227,0.359863,0.967773
1519494811925,-0.335205,0.349609,0.803223
1519494811957,-0.328369,0.250732,0.835449
1519494811990,-0.407227,0.373779,0.879883
1519494812023,-0.438965,0.371338,0.873291
1519494812064,-0.455811,0.367188,0.841064
1519494812096,-0.458008,0.332031,0.788330
1519494812104,-0.443848,0.383545,0.831055
1519494812159,-0.404053,0.361084,0.790039
1519494812191,-0.415283,0.392090,0.819580
1519494812198,-0.425293,0.433350,0.852539
1519494812254,-0.430664,0.384521,0.854492
1519494812288,-0.479980,0.403076,0.898926
1519494812321,-0.479248,0.392578,0.874512
1519494812355,-0.470947,0.374756,0.821777
1519494812388,-0.459717,0.406738,0.823486
1519494812419,-0.455566,0.422119,0.816895
1519494812451,-0.453857,0.378418,0.756348
1519494812466,-0.433105,0.374756,0.766357
1519494812524,-0.440430,0.472168,0.864258
1519494812556,-0.441162,0.413330,0.848633
1519494812565,-0.442627,0.402344,0.862061
1519494812618,-0.444336,0.404297,0.867432
1519494812652,-0.421875,0.393555,0.840332
1519494812686,-0.409424,0.402832,0.835205
1519494812695,-0.402100,0.386963,0.859375
1519494812724,-0.386963,0.361084,0.853027
1519494812756,-0.381104,0.364990,0.844238
1519494812787,-0.360352,0.369629,0.878662
1519494812819,-0.304199,0.372803,0.944580
1519494812852,-0.273682,0.306641,0.908936
1519494812895,-0.392090,0.318359,0.836914
1519494812927,-0.548340,0.511719,0.814697
1519494812960,-0.557129,0.525635,0.776855
1519494812991,-0.518555,0.524414,0.751953
1519494813025,-0.495605,0.540527,0.776611
1519494813057,-0.479736,0.515137,0.779541
1519494813081,-0.464844,0.461670,0.761963
1519494813139,-0.440674,0.425293,0.769531
1519494813147,-0.465088,0.416016,0.812500
1519494813171,-0.462891,0.404541,0.836426
1519494813230,-0.470947,0.374268,0.858887
1519494813246,-0.473145,0.359375,0.878174
1519494813270,-0.472412,0.343994,0.848145
1519494813303,-0.436279,0.335693,0.831299
1519494813335,-0.430664,0.369141,0.865234
1519494813369,-0.421631,0.376953,0.861816
1519494813402,-0.395508,0.383057,0.835205
1519494813434,-0.398682,0.385986,0.839600
1519494813467,-0.400879,0.404785,0.846436
1519494813499,-0.429688,0.380127,0.863525
1519494813532,-0.438965,0.353027,0.844482
1519494813570,-0.454346,0.386475,0.845947
1519494813602,-0.459961,0.375244,0.817627
1519494813635,-0.478760,0.426758,0.847412
1519494813645,-0.472900,0.444092,0.849609
1519494813711,-0.465820,0.439453,0.840820
1519494813719,-0.471924,0.414795,0.831055
1519494813745,-0.457275,0.417480,0.768799
1519494813803,-0.434326,0.407471,0.804688
1519494813809,-0.422363,0.400879,0.856934
1519494813866,-0.422607,0.374268,0.854248
1519494813899,-0.394775,0.361572,0.846191
1519494813931,-0.406006,0.367920,0.867188
1519494813964,-0.408203,0.328125,0.861816
1519494814034,-0.427490,0.332275,0.858398
1519494814042,-0.419678,0.334961,0.851563
1519494814099,-0.412109,0.371338,0.858643
1519494814171,-0.409668,0.361084,0.849365
1519494814236,-0.397461,0.374756,0.836914
1519494814245,-0.403320,0.364502,0.854248
1519494814303,-0.425049,0.421875,0.863525
1519494814308,-0.430420,0.435059,0.880615
1519494814371,-0.456543,0.454590,0.853760
1519494814380,-0.427979,0.465332,0.848389
1519494814439,-0.375488,0.440430,0.844971
1519494814447,-0.348145,0.378662,0.856934
1519494814493,-0.367432,0.389648,0.838379
1519494814498,-0.409424,0.404053,0.810303
1519494814504,-0.426514,0.411133,0.811523
1519494814509,-0.404785,0.456055,0.898682
1519494814514,-0.399414,0.454834,0.866943
1519494814530,-0.413818,0.453613,0.842285
1519494814562,-0.422607,0.413818,0.853516
1519494814595,-0.415039,0.419678,0.852783
1519494814632,-0.382568,0.407471,0.846191
1519494814665,-0.378174,0.373291,0.830322
1519494814697,-0.373535,0.374023,0.825684
1519494814731,-0.365234,0.366211,0.835938
1519494814762,-0.404053,0.468018,0.978760
1519494814795,-0.373535,0.415283,0.893311
1519494814849,-0.394287,0.400879,0.868164
1519494814857,-0.387939,0.429199,0.854004
1519494814882,-0.393799,0.420898,0.841797
1519494814915,-0.397705,0.434082,0.828125
1519494814957,-0.403076,0.428955,0.868652
1519494814988,-0.416504,0.434814,0.867188
1519494815021,-0.406738,0.422607,0.845215
1519494815053,-0.368408,0.430420,0.868896
1519494815086,-0.385742,0.488037,0.877930
1519494815120,-0.379639,0.426758,0.844238
1519494815153,-0.385742,0.421631,0.873047
1519494815185,-0.382813,0.409668,0.880859
1519494815218,-0.392578,0.385010,0.839355
1519494815251,-0.417236,0.382568,0.822998
1519494815285,-0.394043,0.401855,0.833496
1519494815294,-0.387207,0.414307,0.823486
1519494815347,-0.380859,0.430420,0.843994
1519494815378,-0.367920,0.437012,0.869629
1519494815385,-0.386230,0.437256,0.845703
1519494815443,-0.391357,0.443115,0.868896
1519494815476,-0.384277,0.414551,0.872070
1519494815508,-0.366943,0.409668,0.887207
1519494815540,-0.320557,0.394043,0.861816
1519494815572,-0.356445,0.385498,0.856445
1519494815609,-0.406250,0.399414,0.850586
1519494815642,-0.455322,0.435791,0.800781
1519494815675,-0.452148,0.488281,0.826172
1519494815708,-0.423584,0.475098,0.873047
1519494815721,-0.366943,0.431396,0.847412
1519494815755,-0.355469,0.400879,0.825684
1519494815785,-0.379883,0.422119,0.843994
1519494815818,-0.384521,0.418701,0.851807
1519494815875,-0.407471,0.426758,0.806641
1519494815884,-0.413574,0.427490,0.808105
1519494815936,-0.436279,0.475830,0.829834
1519494815968,-0.447021,0.432129,0.848389
1519494815976,-0.414307,0.451416,0.857422
1519494816002,-0.386719,0.440918,0.836426
1519494816059,-0.402100,0.445068,0.821533
1519494816091,-0.396973,0.444336,0.821777
1519494816129,-0.373291,0.451416,0.843506
1519494816134,-0.389160,0.417725,0.827393
1519494816176,-0.380615,0.430420,0.834717
1519494816207,-0.366943,0.407959,0.807373
1519494816241,-0.390381,0.373047,0.790771
1519494816274,-0.407227,0.375732,0.764404
1519494816305,-0.404785,0.432861,0.746094
1519494816338,-0.398682,0.526367,0.826660
1519494816371,-0.523682,0.532471,1.000732
1519494816404,-0.386963,0.532471,0.868408
1519494816436,-0.387451,0.775146,1.161621
1519494816467,-0.335449,0.630371,1.077393
1519494816501,-0.520996,0.297363,0.698975
1519494816533,-0.548096,0.134521,0.546631
1519494816547,-0.515869,0.148438,0.566895
1519494816605,-0.524414,0.213135,0.562012
1519494816636,-0.515381,0.271240,0.652344
1519494816669,-0.517578,0.406006,0.779053
1519494816704,-0.532715,0.360596,0.734863
1519494816734,-0.555908,0.278076,0.626221
1519494816767,-0.554688,0.261230,0.696045
1519494816798,-0.522705,0.595703,1.035400
1519494816830,-0.484619,0.785889,1.022461
1519494816834,-0.450439,0.679443,0.942627
1519494816889,-0.419434,0.440186,0.889648
1519494816922,-0.407227,0.359863,0.804199
1519494816927,-0.379150,0.328369,0.730469
1519494816986,-0.404053,0.291748,0.709717
1519494817019,-0.401123,0.323242,0.763916
1519494817052,-0.467529,0.339355,0.804443
1519494817084,-0.552490,0.333252,0.830811
1519494817116,-0.537354,0.528809,0.916260
1519494817149,-0.508789,0.537109,0.925781
1519494817181,-0.407715,0.535645,0.846924
1519494817213,-0.348389,0.473877,0.791016
1519494817247,-0.313721,0.459717,0.848145
1519494817279,-0.365479,0.403320,0.886475
1519494817310,-0.408203,0.330322,0.885010
1519494817316,-0.436768,0.258545,0.831299
1519494817374,-0.419434,0.328369,0.846680
1519494817410,-0.412354,0.406006,0.874756
1519494817418,-0.425049,0.424561,0.867676
1519494817469,-0.445313,0.405518,0.815918
1519494817501,-0.453613,0.403564,0.825928
1519494817539,-0.455566,0.381836,0.802979
1519494817571,-0.437012,0.467041,0.834961
1519494817580,-0.447754,0.445801,0.825195
1519494817635,-0.458496,0.379883,0.810059
1519494817666,-0.468506,0.449463,0.863281
1519494817699,-0.468994,0.462158,0.878418
1519494817732,-0.451416,0.401123,0.851074
1519494817746,-0.407227,0.391846,0.867432
1519494817778,-0.416016,0.436523,0.901123
1519494817810,-0.416992,0.398682,0.894775
1519494817868,-0.451660,0.376953,0.868896
1519494817901,-0.468506,0.358398,0.919678
1519494817909,-0.471436,0.376709,0.893799
1519494817961,-0.408203,0.329346,0.660156
1519494817993,-0.441162,0.375732,0.712646
1519494818001,-0.498779,0.383789,0.816406
1519494818052,-0.520752,0.408447,0.813477
1519494818082,-0.515625,0.387451,0.764648
1519494818116,-0.530762,0.380859,0.754395
1519494818149,-0.532959,0.468018,0.840820
1519494818182,-0.508545,0.440674,0.839355
1519494818214,-0.471436,0.397217,0.797119
1519494818248,-0.430664,0.400391,0.823242
1519494818281,-0.385010,0.384033,0.807617
1519494818311,-0.400635,0.334473,0.820801
1519494818344,-0.441162,0.340576,0.736572
1519494818378,-0.427490,0.418457,0.747314
1519494818408,-0.435303,0.458984,0.841797
1519494818442,-0.475098,0.467773,0.893066
1519494818475,-0.451172,0.468750,0.848877
1519494818484,-0.440674,0.433350,0.873291
1519494818537,-0.463135,0.366699,0.834229
1519494818580,-0.479248,0.420410,0.850830
1519494818588,-0.461914,0.442139,0.865479
1519494818638,-0.392090,0.426270,0.850586
1519494818647,-0.401123,0.490967,0.837402
1519494818690,-0.427490,0.322510,0.716553
1519494818723,-0.461670,0.368652,0.816406
1519494818756,-0.471924,0.419922,0.845215
1519494818787,-0.471436,0.395508,0.855225
1519494818818,-0.418457,0.511719,0.800293
1519494818851,-0.435791,0.502197,0.927490
1519494818885,-0.495605,0.428467,0.882813
1519494818918,-0.474121,0.416504,0.753418
1519494818949,-0.447266,0.364502,0.760254
1519494819032,-0.439697,0.341309,0.826416
1519494819041,-0.419678,0.448975,0.836426
1519494819098,-0.414307,0.424805,0.827637
1519494819102,-0.401855,0.395508,0.837158
1519494819167,-0.383545,0.461182,0.883057
1519494819176,-0.395264,0.436523,0.843018
1519494819234,-0.393066,0.417480,0.844238
1519494819239,-0.361816,0.383057,0.883301
1519494819303,-0.363281,0.375244,0.876465
1519494819310,-0.342041,0.382080,0.855225
1519494819369,-0.363525,0.349609,0.843994
1519494819374,-0.491699,0.391113,0.933350
1519494819438,-0.508545,0.491455,0.928223
1519494819446,-0.490723,0.480469,0.802490
1519494819495,-0.470703,0.504150,0.747803
1519494819499,-0.425537,0.502441,0.751709
1519494819502,-0.395996,0.444092,0.805420
1519494819531,-0.405273,0.376465,0.787842
1519494819564,-0.399170,0.377441,0.768311
1519494819598,-0.370850,0.386963,0.875732
1519494819608,-0.363037,0.363037,0.892578
1519494819660,-0.336182,0.357422,0.911865
1519494819693,-0.327393,0.347656,0.934326
1519494819726,-0.314697,0.394531,0.930664
1519494819759,-0.338623,0.373779,0.924072
1519494819790,-0.407227,0.418213,0.913818
1519494819804,-0.463379,0.444580,0.857178
1519494819836,-0.485596,0.478271,0.780762
1519494819895,-0.466309,0.474609,0.758789
1519494819927,-0.447266,0.441162,0.762695
1519494819937,-0.463135,0.442871,0.784180
1519494819971,-0.471191,0.423584,0.775879
1519494820003,-0.461426,0.405518,0.782959
1519494820036,-0.443848,0.428711,0.804688
1519494820093,-0.435059,0.436768,0.813965
1519494820101,-0.437500,0.451416,0.839844
1519494820126,-0.420898,0.460693,0.872803
1519494820183,-0.417969,0.426025,0.868164
1519494820191,-0.427490,0.422852,0.833008
1519494820225,-0.407471,0.412109,0.838867
1519494820258,-0.387451,0.391113,0.865234
1519494820289,-0.393311,0.378662,0.866455
1519494820322,-0.373047,0.365723,0.870117
1519494820355,-0.371094,0.334473,0.876221
1519494820388,-0.356201,0.379150,0.904785
1519494820425,-0.376221,0.363525,0.886719
1519494820458,-0.424072,0.309082,0.855713
1519494820491,-0.467773,0.370117,0.805664
1519494820525,-0.483643,0.437012,0.812988
1519494820557,-0.439941,0.494873,0.888428
1519494820588,-0.409424,0.455322,0.848633
1519494820601,-0.471680,0.393311,0.833496
1519494820660,-0.526123,0.269287,0.780029
1519494820693,-0.459229,0.290527,0.811523
1519494820702,-0.396729,0.399414,0.823730
1519494820759,-0.410156,0.468262,0.808105
1519494820765,-0.426025,0.447021,0.829834
1519494820821,-0.469971,0.427979,0.813232
1519494820854,-0.459961,0.405518,0.776367
1519494820887,-0.448242,0.452393,0.759766
1519494820920,-0.416992,0.427734,0.823242
1519494820952,-0.271973,0.416504,1.189941
1519494820985,-0.406982,0.368896,1.025391
1519494821018,-0.371338,0.347412,0.841309
1519494821032,-0.370605,0.218750,0.828125
1519494821089,-0.425537,0.275391,0.838135
1519494821098,-0.445068,0.362061,0.857422
1519494821148,-0.413330,0.347412,0.731689
1519494821180,-0.412354,0.625488,0.903564
1519494821188,-0.445313,0.602539,0.956055
1519494821248,-0.392578,0.396484,0.710693
1519494821254,-0.407715,0.420654,0.758057
1519494821283,-0.468018,0.439697,0.927734
1519494821341,-0.465088,0.368896,0.725342
1519494821349,-0.476807,0.425781,0.690186
1519494821382,-0.460205,0.592285,0.789307
1519494821415,-0.451416,0.401855,0.845703
1519494821457,-0.364746,0.297852,1.046631
1519494821490,-0.464355,0.447021,0.939697
1519494821523,-0.385498,0.302490,0.776123
1519494821555,-0.403320,0.349365,0.812744
1519494821588,-0.434326,0.444580,0.874268
1519494821621,-0.428223,0.405762,0.872803
1519494821653,-0.450684,0.379150,0.809570
1519494821686,-0.441162,0.366211,0.713379
1519494821716,-0.467529,0.430420,0.796875
1519494821749,-0.464600,0.468018,0.839844
1519494821783,-0.437500,0.419678,0.780273
1519494821815,-0.456787,0.468262,0.858398
1519494821847,-0.465576,0.432617,0.805420
1519494821879,-0.445801,0.450928,0.820557
1519494821912,-0.482910,0.484619,0.850586
1519494821945,-0.476563,0.452393,0.806885
1519494821978,-0.490479,0.416504,0.797363
1519494822009,-0.494873,0.384033,0.737549
1519494822042,-0.464600,0.296631,0.697266
1519494822075,-0.299805,0.345459,0.776611
1519494822107,-0.467285,0.604248,1.058838
1519494822141,-0.455078,0.419434,0.765869
1519494822173,-0.427002,0.374756,0.743652
1519494822205,-0.493896,0.516602,0.791504
1519494822237,-0.505615,0.483643,0.752686
1519494822244,-0.476563,0.411133,0.743896
1519494822301,-0.413574,0.383057,0.779785
1519494822333,-0.427002,0.408203,0.849854
1519494822342,-0.431641,0.350342,0.833008
1519494822400,-0.372070,0.363281,0.878662
1519494822434,-0.277344,0.418457,0.967529
1519494822466,-0.283203,0.314697,1.189941
1519494822498,-0.403320,0.384277,0.902588
1519494822531,-0.256104,0.339355,0.847412
1519494822562,-0.301758,0.306152,0.917725
1519494822594,-0.400146,0.385254,0.880615
1519494822628,-0.444824,0.340332,0.816650
1519494822645,-0.444336,0.361084,0.757324
1519494822700,-0.474609,0.340820,0.788818
1519494822708,-0.495605,0.357178,0.732910
1519494822764,-0.466797,0.390869,0.721436
1519494822796,-0.470459,0.432373,0.838867
1519494822828,-0.494629,0.447510,0.818604
1519494822834,-0.497314,0.422119,0.748779
1519494822872,-0.489990,0.474609,0.779053
1519494822905,-0.480713,0.468018,0.841309
1519494822937,-0.473145,0.427002,0.795898
1519494822971,-0.469238,0.442627,0.824463
1519494823003,-0.458252,0.437744,0.822998
1519494823035,-0.449951,0.409668,0.790527
1519494823076,-0.431396,0.427246,0.827881
1519494823109,-0.426514,0.442871,0.848389
1519494823142,-0.429688,0.445557,0.818115
1519494823173,-0.405518,0.427979,0.823242
1519494823205,-0.425781,0.464600,0.864014
1519494823238,-0.435303,0.438232,0.853760
1519494823271,-0.443604,0.439209,0.822266
1519494823286,-0.445313,0.442871,0.811279
1519494823311,-0.452393,0.440186,0.833984
1519494823369,-0.460693,0.470703,0.809814
1519494823374,-0.468994,0.450928,0.794189
1519494823426,-0.451172,0.453857,0.807617
1519494823459,-0.466309,0.433838,0.779785
1519494823474,-0.440186,0.454102,0.827148
1519494823506,-0.432617,0.455078,0.858643
1519494823539,-0.408203,0.456543,0.798096
1519494823572,-0.426514,0.443115,0.822998
1519494823604,-0.442383,0.409912,0.842041
1519494823662,-0.440186,0.419678,0.808838
1519494823695,-0.436279,0.383789,0.812744
1519494823704,-0.414551,0.394043,0.846924
1519494823755,-0.462158,0.405029,0.821533
1519494823787,-0.489502,0.391113,0.770264
1519494823810,-0.477295,0.365479,0.711426
1519494823842,-0.354248,0.559326,0.955078
1519494823874,-0.275391,0.531982,1.096924
1519494823889,-0.329346,0.497559,0.908203
1519494823947,-0.297607,0.427490,0.786621
1519494823952,-0.479492,0.396484,0.991211
1519494824026,-0.524658,0.449707,0.796387
1519494824034,-0.555420,0.370850,0.598877
1519494824093,-0.499023,0.193604,0.627441
1519494824102,-0.459473,0.472412,0.919189
1519494824161,-0.441650,0.508301,0.886475
1519494824169,-0.471436,0.398438,0.781738
1519494824227,-0.495605,0.396484,0.792725
1519494824232,-0.481689,0.374512,0.801270
1519494824295,-0.454834,0.365234,0.796875
1519494824364,-0.447021,0.332520,0.775146
1519494824370,-0.448486,0.464600,0.854248
1519494824432,-0.465576,0.455078,0.845459
1519494824437,-0.469971,0.416260,0.806641
1519494824497,-0.464355,0.444580,0.807129
1519494824502,-0.477295,0.435303,0.805664
1519494824508,-0.458984,0.381592,0.766602
1519494824532,-0.436035,0.414795,0.817871
1519494824535,-0.420166,0.432861,0.854980
1519494824592,-0.427246,0.390381,0.832520
1519494824624,-0.449219,0.462158,0.883301
1519494824657,-0.470459,0.446289,0.839111
1519494824688,-0.441650,0.402100,0.795654
1519494824721,-0.434814,0.424072,0.820557
1519494824735,-0.426025,0.402832,0.826660
1519494824767,-0.443115,0.458740,0.823975
1519494824825,-0.460938,0.475830,0.806641
1519494824857,-0.471680,0.434326,0.816406
1519494824862,-0.456299,0.412109,0.800293
1519494824916,-0.459717,0.418213,0.781494
1519494824949,-0.410156,0.415039,0.828125
1519494824958,-0.437744,0.397461,0.936035
1519494825007,-0.442871,0.381592,0.923584
1519494825040,-0.408203,0.409668,0.804932
1519494825091,-0.394287,0.414551,0.740479
1519494825099,-0.413574,0.275146,0.843506
1519494825124,-0.430176,0.363281,0.815430
1519494825166,-0.345703,0.329102,0.921143
1519494825197,-0.377441,0.584473,1.027832
1519494825231,-0.382324,0.368164,0.796143
1519494825267,-0.390381,0.276611,0.781250
1519494825300,-0.444336,0.404297,0.906982
1519494825333,-0.446777,0.388428,0.860840
1519494825364,-0.440674,0.357910,0.824219
1519494825397,-0.434326,0.370850,0.781982
1519494825431,-0.431885,0.437256,0.761475
1519494825439,-0.436279,0.452637,0.790527
1519494825489,-0.423340,0.480957,0.765137
1519494825522,-0.425537,0.479004,0.774902
1519494825534,-0.438477,0.447510,0.809814
1519494825592,-0.432373,0.420166,0.884521
1519494825601,-0.436035,0.434570,0.942871
1519494825655,-0.444824,0.397461,0.914063
1519494825688,-0.432861,0.424316,0.854736
1519494825697,-0.411865,0.404053,0.830322
1519494825752,-0.409180,0.422363,0.843262
1519494825784,-0.437500,0.409180,0.835693
1519494825816,-0.439697,0.427002,0.802490
1519494825848,-0.430176,0.418457,0.801514
1519494825879,-0.437256,0.416260,0.770264
1519494825913,-0.442627,0.467285,0.802490
1519494825927,-0.435791,0.471436,0.851318
1519494825985,-0.442627,0.444824,0.841797
1519494826018,-0.439941,0.392578,0.827881
1519494826026,-0.425537,0.387451,0.823975
1519494826076,-0.412109,0.368896,0.868408
1519494826079,-0.392090,0.352783,0.871338
1519494826114,-0.394043,0.399902,0.897705
1519494826172,-0.403076,0.391357,0.858887
1519494826182,-0.415283,0.403320,0.856201
1519494826216,-0.404785,0.379395,0.860352
1519494826249,-0.406250,0.366455,0.824951
1519494826282,-0.422607,0.413086,0.831787
1519494826315,-0.412842,0.439941,0.854248
1519494826369,-0.407959,0.437988,0.866943
1519494826377,-0.416992,0.398438,0.833740
1519494826434,-0.427246,0.366699,0.825928
1519494826466,-0.443604,0.391357,0.824951
1519494826499,-0.442139,0.422607,0.839844
1519494826532,-0.438232,0.420410,0.824951
1519494826564,-0.424805,0.426758,0.842773
1519494826597,-0.415771,0.416016,0.847900
1519494826605,-0.431885,0.396729,0.834717
1519494826630,-0.417480,0.409180,0.865479
1519494826662,-0.414307,0.405518,0.858887
1519494826694,-0.414795,0.399902,0.822510
1519494826726,-0.434326,0.413086,0.841553
1519494826758,-0.431885,0.413574,0.842041
1519494826790,-0.440918,0.406982,0.836670
1519494826848,-0.424561,0.404297,0.836670
1519494826881,-0.434326,0.403320,0.824707
1519494826888,-0.421387,0.405029,0.843262
1519494826923,-0.426758,0.402100,0.846191
1519494826956,-0.417480,0.386963,0.847656
1519494826998,-0.410645,0.387451,0.844238
1519494827032,-0.437500,0.395752,0.833496
1519494827044,-0.434814,0.405029,0.845215
1519494827079,-0.417236,0.386963,0.825928
1519494827143,-0.380859,0.431152,0.805420
1519494827152,-0.346191,0.429199,0.861084
1519494827179,-0.423828,0.400879,0.978271
1519494827212,-0.451172,0.419922,0.936279
1519494827246,-0.447998,0.418701,0.819092
1519494827277,-0.428955,0.357910,0.808350
1519494827309,-0.449951,0.437744,0.798096
1519494827342,-0.459473,0.416016,0.767334
1519494827375,-0.448975,0.376221,0.781738
1519494827408,-0.456299,0.421875,0.819336
1519494827465,-0.458740,0.421387,0.837402
1519494827473,-0.435547,0.392090,0.815918
1519494827523,-0.447510,0.407227,0.831299
1519494827538,-0.442139,0.399414,0.807617
1519494827570,-0.445801,0.383057,0.865234
1519494827650,-0.437500,0.385254,0.865723
1519494827658,-0.423584,0.406982,0.841553
1519494827667,-0.414307,0.406250,0.865479
1519494827713,-0.432617,0.403564,0.843750
1519494827720,-0.430176,0.380127,0.809326
1519494827778,-0.443359,0.440186,0.825195
1519494827810,-0.299561,0.306885,1.069824
1519494827842,-0.396484,0.394043,0.942139
1519494827874,-0.348633,0.352539,0.822021
1519494827909,-0.410156,0.314697,0.825439
1519494827941,-0.424561,0.394775,0.827393
1519494827955,-0.423584,0.413818,0.831543
1519494827988,-0.420654,0.353027,0.830322
1519494828045,-0.431641,0.418701,0.819092
1519494828053,-0.418213,0.385498,0.814209
1519494828102,-0.453125,0.406250,0.852783
1519494828135,-0.438965,0.363037,0.781494
1519494828144,-0.446045,0.407471,0.826904
1519494828198,-0.445801,0.451416,0.906738
1519494828204,-0.440430,0.429443,0.885498
1519494828262,-0.419434,0.370605,0.829346
1519494828294,-0.425537,0.395996,0.868652
1519494828300,-0.421387,0.403076,0.860840
1519494828358,-0.421387,0.383545,0.814941
1519494828372,-0.411621,0.406250,0.843506
1519494828405,-0.422852,0.416748,0.875732
1519494828438,-0.420410,0.406250,0.855957
1519494828494,-0.432617,0.385498,0.839111
1519494828499,-0.439209,0.402100,0.855469
