1519424202956,-0.015381,1.020996,0.534424
1519424202988,0.139404,1.085449,0.639893
1519424203023,0.195313,1.103027,0.459229
1519424203056,0.160400,0.954102,0.334717
1519424203088,0.047363,0.979980,0.569824
1519424203090,0.236572,0.246826,0.321777
1519424203147,0.133057,-0.054443,0.027100
1519424203188,0.245605,-0.025635,0.058105
1519424203190,0.156738,0.633545,0.049805
1519424203247,0.379639,1.671875,0.003662
1519424203255,0.504150,2.280273,-0.303223
1519424203292,0.392822,2.398438,0.063232
1519424203325,-0.679688,1.750977,0.548828
1519424203357,0.153809,2.049072,0.131592
1519424203412,-0.610352,1.518311,-0.073242
1519424203445,-0.486084,0.496826,0.039307
1519424203476,-0.399658,0.064941,-0.021484
1519424203509,-0.363770,-0.179688,-0.119873
1519424203541,-0.445068,-0.187012,-0.018066
1519424203574,-0.312500,-0.121094,0.062500
1519424203607,-0.441162,-0.077148,-0.024170
1519424203639,-1.015137,1.120117,-0.342041
1519424203671,-1.429443,3.207275,-0.831055
1519424203674,-0.426025,3.255371,-0.851563
1519424203730,0.891113,2.407227,-0.560791
1519424203762,0.394531,1.547119,-0.306641
1519424203769,0.232422,0.992920,-0.125000
1519424203825,0.485107,0.119141,-0.065918
1519424203857,0.304443,-0.229736,-0.014404
1519424203891,0.264648,-0.361572,-0.024170
1519424203922,0.359863,-0.427002,0.034912
1519424203955,0.278320,-0.590088,0.170898
1519424203967,0.285645,0.192871,0.084229
1519424204023,0.399170,3.097900,-0.692871
1519424204055,0.382813,3.321777,0.016602
1519424204088,0.104736,2.470459,-0.087402
1519424204120,-0.109863,1.818848,-0.339600
1519424204152,-0.456787,1.187500,-0.273682
1519424204186,-0.491211,0.780029,-0.193848
1519424204218,-0.398193,0.212646,0.040283
1519424204250,-0.174316,0.187988,0.357910
1519424204256,-0.535400,0.004150,0.112793
1519424204310,-0.401855,-0.203125,-0.139893
1519424204342,-0.272949,-0.180908,-0.003418
1519424204348,-0.301025,-0.124268,-0.143066
1519424204406,-0.830566,1.614502,-0.302734
1519424204437,-0.848145,4.085205,-0.202148
1519424204470,0.746338,3.212891,-0.104004
1519424204502,0.755615,2.362305,-0.025879
1519424204535,0.753418,1.646240,-0.115723
1519424204568,0.669434,1.038086,-0.050049
1519424204601,0.364258,0.504395,0.066895
1519424204634,-0.249268,-0.207520,0.662842
1519424204665,0.071289,0.172852,0.270508
1519424204691,0.505615,-0.302246,-0.120850
1519424204723,-0.201660,-0.341553,0.020508
1519424204756,-0.327148,-0.453369,-0.013184
1519424204788,0.289551,0.503418,0.210693
1519424204815,-0.267578,1.884277,0.077881
1519424204871,-0.029053,3.051270,-0.062988
1519424204873,-0.027344,2.705322,0.246826
1519424204927,-0.387207,2.264404,0.134277
1519424204941,-1.547852,2.096191,0.529297
1519424204985,-0.113525,0.659180,0.141113
1519424205041,-0.650391,0.281006,-0.228760
1519424205044,-1.126709,-0.150146,-0.174072
1519424205096,-0.519531,-0.521240,-0.394043
1519424205098,-0.732666,-0.260254,-0.303955
1519424205147,-0.746094,0.141113,-0.334473
1519424205194,-0.739502,1.243652,-0.710205
1519424205196,-0.701416,3.118652,-0.807617
1519424205275,0.073730,3.486084,-1.162354
1519424205278,1.187500,2.435303,-0.964111
1519424205282,-0.029297,2.405518,-0.587158
1519424205335,0.241943,1.593750,-0.361084
1519424205393,0.147461,0.677002,-0.027832
1519424205399,-0.042969,0.188477,0.005371
1519424205440,-0.188477,-0.079834,0.012695
1519424205446,-0.201172,-0.261230,-0.070557
1519424205499,-0.265625,-0.164551,-0.041748
1519424205553,-0.265137,-0.225342,-0.033936
1519424205555,-0.273193,-0.056885,-0.187500
1519424205603,-0.663086,1.054443,-0.253418
1519424205611,-1.142822,2.468506,-0.067139
1519424205688,-0.473389,3.535400,-0.431152
1519424205690,0.443115,3.088135,-0.117188
1519424205697,-0.279785,2.313965,0.107422
1519424205757,-0.056641,1.425537,0.023926
1519424205789,0.069092,0.768311,-0.021240
1519424205793,0.194824,0.197021,-0.120605
1519424205850,0.215576,-0.117188,-0.177002
1519424205923,0.151611,-0.320313,-0.269775
1519424205925,0.037354,-0.358154,-0.274902
1519424205992,0.087402,-0.195801,-0.312256
1519424205994,0.149658,-0.206299,-0.016113
1519424206060,0.102783,1.696777,0.001221
1519424206062,0.565430,2.823242,0.160645
1519424206127,0.957520,2.586182,0.738770
1519424206129,-0.213379,2.451172,0.755371
1519424206194,-0.030029,2.104492,0.214355
1519424206197,-0.509521,1.405029,0.214355
1519424206262,-0.302734,1.075684,-0.094727
1519424206264,-0.952148,0.470703,0.020508
1519424206329,-0.759033,0.403076,0.152100
1519424206331,-0.445313,0.289307,0.208740
1519424206366,-0.492676,-0.153809,-0.172119
1519424206368,-0.446289,-0.223389,-0.393066
1519424206375,-0.231689,-0.084473,-0.083740
1519424206431,-1.385254,1.645752,-0.096680
1519424206463,-0.404297,2.940186,-0.314209
1519424206496,0.557129,3.735840,-1.133789
1519424206528,1.005615,2.852783,-0.263184
1519424206542,0.442383,1.400879,-0.921387
1519424206575,0.573975,0.567627,-0.567139
1519424206608,0.092529,0.353027,-0.062256
1519424206665,0.036865,0.081787,-0.027100
1519424206698,0.183838,-0.388428,-0.103760
1519424206731,0.051514,-0.817627,0.501709
1519424206763,0.172363,0.019531,0.366455
1519424206796,0.498291,1.637939,-0.262207
1519424206827,0.603760,2.822266,-0.686279
1519424206859,0.719971,2.498779,0.440918
1519424206862,0.720215,2.436523,0.105957
1519424206920,-0.468994,1.839111,0.152588
1519424206926,-0.461182,1.520020,0.216309
1519424206967,-0.307129,0.796143,0.084473
1519424207025,-0.114258,0.149414,-0.324219
1519424207028,-0.687988,0.117432,-0.028809
1519424207059,-0.546875,-0.231445,-0.083740
1519424207092,-0.439453,-0.246582,-0.051270
1519424207149,-0.571289,-0.212646,0.032471
1519424207155,-0.483887,-0.019043,0.070557
1519424207211,-0.739502,0.670898,-0.133545
1519424207251,-1.428467,2.977295,-0.153809
1519424207256,-0.709961,4.422119,0.057129
1519424207313,0.693848,3.397705,-0.217285
1519424207346,0.403320,2.335449,0.151611
1519424207361,0.453857,1.366211,0.202148
1519424207393,0.551270,0.215576,-0.026367
1519424207426,0.485840,-0.223389,-0.124023
1519424207458,0.276611,-0.574463,-0.282715
1519424207491,0.063965,-0.435059,-0.302002
1519424207523,0.103760,-0.202637,-0.196777
1519424207556,0.127197,-0.206787,-0.005615
1519424207588,0.181885,-0.162842,0.101807
1519424207621,0.108398,1.158203,0.071777
1519424207652,-0.060303,3.008301,0.032715
1519424207685,0.192871,3.232422,0.615723
1519424207717,-0.132324,3.648926,1.042480
1519424207750,-0.634766,2.223389,0.627441
1519424207792,-0.402588,1.046631,0.277832
1519424207824,-0.524902,0.408203,-0.212402
1519424207861,-1.069580,0.260254,0.092285
1519424207893,-0.704590,-0.010742,-0.016357
1519424207925,-0.465820,-0.399902,-0.086426
1519424207931,-0.548340,-0.420654,-0.087646
1519424207990,-0.461182,-0.395264,-0.133545
1519424208023,-0.742920,-0.341309,-0.253662
1519424208026,-0.916748,-0.138184,-0.300049
1519424208056,-1.462158,3.683350,-0.090576
1519424208088,-1.366455,4.008057,-0.481201
1519424208121,0.884033,3.500244,-0.440918
1519424208153,0.262939,3.128662,0.302979
1519424208186,0.265869,1.652832,0.124268
1519424208219,0.530518,0.686279,0.007324
1519424208276,0.301758,0.214111,0.111084
1519424208309,0.362061,0.021240,0.067139
1519424208342,0.415039,-0.095459,-0.004150
1519424208375,0.338623,-0.183838,0.004395
1519424208406,0.304199,-0.001709,0.153564
1519424208439,0.264404,0.584229,0.333008
1519424208472,0.322998,1.568115,0.092529
1519424208477,0.118408,2.104492,0.121826
1519424208505,-0.152832,3.156494,0.343506
1519424208560,-0.390137,2.828125,0.417969
1519424208574,-0.398682,1.684570,0.747559
1519424208606,-1.471191,1.310547,0.602051
1519424208639,-0.225098,0.281250,-0.381348
1519424208672,-1.075195,-0.018799,0.133789
1519424208704,-0.838623,-0.243896,0.010254
1519424208737,-0.248047,-0.118408,0.026611
1519424208769,-0.469238,-0.251953,0.054688
1519424208805,-0.393066,-0.508301,-0.060547
1519424208838,-0.813232,-0.404053,-0.262695
1519424208871,-1.033203,-0.056396,-0.305176
1519424208902,-1.519043,2.019775,-0.274170
1519424208935,-1.197266,4.073486,-0.647705
1519424208967,0.567139,4.348877,-0.437500
1519424208981,0.968994,3.943848,-0.024170
1519424209038,0.995850,1.739990,-0.176514
1519424209071,0.794189,0.943604,-0.123047
1519424209103,0.551758,0.491455,-0.093506
1519424209136,0.277344,0.193359,0.086426
1519424209168,0.164307,-0.061523,0.108154
1519424209201,0.251953,-0.190186,0.095215
1519424209233,-0.177490,-0.648438,1.176025
1519424209266,0.346680,0.133301,0.523193
1519424209299,0.389160,0.074951,0.065186
1519424209332,-0.202637,1.231934,0.452881
1519424209364,-0.168457,1.665771,0.286865
1519424209380,-0.194092,3.222168,0.477783
1519424209437,-1.095703,3.070313,0.954834
1519424209468,-0.728516,1.781738,0.817383
1519424209472,-0.036377,0.807129,0.421631
1519424209527,-0.713867,0.060791,-0.040527
1519424209560,-1.000732,-0.200195,-0.034424
1519424209563,-0.866211,-0.171631,-0.176270
1519424209619,-0.094971,-0.531982,-0.435303
1519424209652,-0.667969,-0.491211,-0.522949
1519424209683,-0.841064,-0.319336,-0.447754
1519424209716,-1.248779,2.717773,-0.425049
1519424209748,-1.460449,3.562012,-0.743652
1519424209766,0.101074,3.903076,-0.498291
1519424209811,0.408203,2.996582,-0.012695
1519424209843,0.268555,1.662598,-0.044189
1519424209877,0.580078,0.971680,0.024658
1519424209908,0.388184,0.371094,0.227295
1519424209942,0.255615,-0.018311,0.153320
1519424209974,0.218262,-0.305664,0.046875
1519424210006,0.293701,-0.277100,-0.017334
1519424210038,0.239502,-0.177002,0.020996
1519424210046,0.190918,0.107178,0.195801
1519424210102,0.242676,1.298096,0.198975
1519424210135,0.509033,2.500000,-0.109619
1519424210157,0.891602,2.320313,0.227051
1519424210194,0.010498,2.505127,0.211670
1519424210226,-0.117676,2.247314,0.159668
1519424210259,-0.196777,1.486572,0.106934
1519424210291,-1.335205,1.400635,0.812744
1519424210324,-0.988281,0.581055,0.431396
1519424210357,-0.645508,0.256592,-0.072510
1519424210390,-0.709473,-0.176758,-0.166504
1519424210423,-0.493652,-0.395508,-0.042480
1519424210455,-0.396729,0.241455,-0.006836
1519424210488,-0.553955,0.104248,-0.486084
1519424210520,-0.967529,1.113525,-0.473145
1519424210551,-1.296875,3.199951,-0.618652
1519424210584,-0.298584,3.400879,-0.669922
1519424210625,-0.031494,3.437256,-0.270752
1519424210628,0.429688,2.653564,-0.433838
1519424210684,0.562500,1.548340,-0.409912
1519424210716,0.414551,1.140137,-0.585938
1519424210723,0.769287,0.763428,-0.496338
1519424210781,0.339111,0.316650,-0.324707
1519424210854,0.150879,0.145020,-0.123291
1519424210861,0.148682,-0.016846,-0.038574
1519424210920,0.228271,-0.228516,0.022949
1519424210923,0.083252,-0.237061,0.153564
1519424210987,-0.864502,0.920410,1.416016
1519424211056,0.503662,0.156738,-0.779785
1519424211123,-0.725586,2.936768,-0.756836
1519424211127,0.519043,4.128906,0.501953
1519424211191,0.343994,1.751709,0.219238
1519424211197,-0.263672,2.563721,0.495361
1519424211258,-0.462158,1.841553,0.337158
1519424211264,-0.206299,0.956787,-0.093262
1519424211327,-0.268311,0.372559,-0.075684
1519424211333,-0.352783,-0.097412,-0.145264
1519424211357,-0.341309,-0.230713,-0.011230
1519424211362,-0.383057,-0.143311,0.182129
1519424211365,-0.294189,-0.228271,0.228271
1519424211368,-0.359863,-0.355469,0.129150
1519424211393,-0.620117,-0.194092,-0.012207
1519424211407,-1.104248,1.337646,-0.074951
1519424211440,-1.595459,3.253418,0.010498
1519424211497,0.050537,2.667236,-0.126221
1519424211530,0.431641,1.962891,-0.094482
1519424211538,0.711670,1.275146,0.260498
1519424211594,0.671143,0.738525,0.177490
1519424211627,0.465576,0.050781,-0.119873
1519424211659,0.055176,0.054199,-0.208496
1519424211665,-0.074951,-0.082031,0.144775
1519424211697,-0.309814,0.026367,0.281982
1519424211754,0.098389,0.070068,0.243164
1519424211760,-0.369873,-0.060059,0.111328
1519424211788,0.024170,1.686768,0.479492
1519424211845,0.204834,2.975830,-0.120361
1519424211877,1.162354,2.936523,0.161865
1519424211910,0.924805,2.689209,0.256592
1519424211942,-0.298584,2.471680,1.371826
1519424211975,-0.246582,1.446777,0.794922
1519424212008,0.455566,0.808105,0.312256
1519424212040,-0.388428,0.612305,0.433105
1519424212072,-0.429688,-0.177002,-0.036865
1519424212075,-0.262451,-0.266113,-0.187988
1519424212131,-0.648438,-0.175049,-0.044678
1519424212164,-0.468262,-0.614990,-0.138184
1519424212170,-0.555176,-0.438965,0.028320
1519424212226,-0.861816,0.153564,0.068359
1519424212258,-1.136719,1.020264,-0.010986
1519424212291,-1.854248,2.842285,-0.228271
1519424212324,-0.004883,3.536865,-0.571045
1519424212372,1.128174,3.079590,-0.149902
1519424212377,0.017578,2.594238,0.015137
1519424212405,0.312744,0.784668,-0.249268
1519424212438,0.489502,0.058350,-0.266602
1519424212471,0.456299,-0.279541,-0.197754
1519424212528,0.424805,-0.364502,-0.118164
1519424212537,0.427979,-0.392822,-0.109863
1519424212590,0.405762,-0.388916,-0.073730
1519424212624,-0.258057,0.476074,-0.174805
1519424212637,0.860352,1.843994,-0.045410
1519424212675,0.603027,2.484131,0.432129
1519424212707,0.725586,3.009277,0.378662
1519424212740,0.313965,2.536621,0.733887
1519424212772,0.054199,1.875732,0.494873
1519424212805,-0.007324,1.582031,0.325928
1519424212837,-0.272705,0.965820,0.075684
1519424212870,-0.520264,0.447510,0.021484
1519424212903,-0.457520,0.222412,0.102295
1519424212936,-0.297363,0.124268,0.079590
1519424212968,-0.290039,0.052002,0.146973
1519424213001,-0.276611,-0.287598,-0.042236
1519424213033,-0.357422,-0.157959,0.161865
1519424213074,-0.474609,0.242676,0.176758
1519424213106,-1.047119,1.381592,0.021240
1519424213114,-1.057861,3.310547,0.065674
1519424213170,-0.241699,4.165771,0.019775
1519424213203,0.015137,3.357422,-0.175781
1519424213236,0.077637,2.220215,-0.311279
1519424213243,0.199707,1.290771,-0.445313
1519424213294,0.058594,0.316406,-0.410400
1519424213302,-0.002686,-0.024170,-0.428223
1519424213330,-0.064453,-0.327637,-0.330566
1519424213388,0.080566,-0.244385,-0.125977
1519424213421,0.318359,-0.204346,-0.064697
1519424213453,0.350586,-0.396240,-0.089600
1519424213467,-0.056396,0.128906,0.392090
1519424213525,0.641602,0.835693,-0.497070
1519424213533,1.297852,3.684326,-0.294434
1519424213586,1.065186,4.002197,0.084473
1519424213619,0.960205,2.321533,0.071533
1519424213651,0.642334,1.586914,0.243652
1519424213667,-0.408691,1.405518,0.121338
1519424213700,0.016113,0.957520,-0.175293
1519424213733,-0.487305,0.619873,-0.069580
1519424213765,-0.450195,0.202637,0.071289
1519424213799,-0.418457,-0.173584,0.071045
1519424213830,-0.473633,-0.299072,0.068848
1519424213869,-0.376465,-0.409668,0.169434
1519424213902,-0.417725,-0.446045,0.148926
1519424213934,-0.687500,-0.434326,-0.000244
1519424213966,-1.117432,0.778809,-0.030029
1519424213999,-2.027832,3.948975,0.228760
1519424214031,-0.633301,4.358887,-0.388184
1519424214064,2.541748,2.884277,0.094238
1519424214096,0.597900,2.470947,0.351807
1519424214129,0.262695,1.357178,-0.008789
1519424214162,0.365479,0.204102,-0.094482
1519424214194,0.237061,-0.153320,-0.160400
1519424214227,0.171631,-0.404541,-0.187012
1519424214260,0.145020,-0.360352,-0.066406
1519424214301,0.136719,-0.162109,-0.049805
1519424214307,0.213867,0.011963,0.071045
1519424214359,-0.343262,1.991699,-0.085693
1519424214392,-0.031250,2.351074,-0.227783
1519424214397,0.626221,2.239502,0.871826
1519424214450,0.070557,2.255127,0.450684
1519424214482,-0.189453,1.557373,-0.085449
1519424214516,-0.913086,0.625000,-0.095215
1519424214548,-0.763184,0.334473,0.068604
1519424214581,-0.116943,0.142822,-0.032959
1519424214617,-0.496826,-0.050049,-0.010498
1519424214649,-0.372803,-0.137695,0.011475
1519424214663,-0.636963,-0.223145,0.021240
1519424214721,-0.867432,-0.011230,0.061768
1519424214728,-0.895752,0.617432,-0.118896
1519424214783,-1.478027,2.285889,-0.258789
1519424214789,-1.804688,3.534180,-0.683838
1519424214842,-0.088867,3.461426,-0.710938
1519424214846,0.164795,3.135986,-0.293701
1519424214900,-0.000977,2.222656,-0.293945
1519424214933,0.800537,1.093750,-0.253418
1519424214965,0.730469,0.469482,-0.285645
1519424214998,0.277832,0.117676,-0.238525
1519424215030,0.126465,-0.282959,-0.329102
1519424215062,0.302979,-0.069580,-0.327637
1519424215076,0.416504,0.404297,-0.175537
1519424215108,0.379883,0.255127,-0.194824
1519424215141,0.528564,0.908691,-0.006592
1519424215174,0.558594,1.080811,0.047607
1519424215233,0.086914,1.700928,-0.116943
1519424215264,-0.156250,2.726318,0.045898
1519424215267,-0.143311,3.159180,-0.042480
1519424215323,-0.718018,2.431152,0.688477
1519424215355,-1.047607,1.450684,0.456055
1519424215362,0.020264,0.455566,-0.194824
1519424215415,-0.689941,0.039307,-0.230469
1519424215447,-0.790283,-0.124268,-0.369141
1519424215480,-1.075684,-0.074463,-0.272949
1519424215492,-0.709717,0.129150,-0.070801
1519424215525,-0.693604,0.197021,-0.190918
1519424215560,-0.488770,0.293213,-0.320801
1519424215592,-1.200439,2.107178,-0.580566
1519424215624,-0.748047,2.900391,-1.037109
1519424215657,-0.373535,4.170898,-1.756592
1519424215715,0.857666,3.600342,-0.584717
1519424215724,0.039307,2.243896,-0.794922
1519424215777,-0.060303,1.380615,-0.724854
1519424215850,0.750000,0.621826,-0.643799
1519424215852,0.468506,0.466309,-0.487305
1519424215918,0.240234,0.208252,-0.273193
1519424215922,0.426758,-0.041504,-0.345459
1519424215985,0.546387,-0.231689,-0.420166
1519424215988,0.706787,-0.396729,-0.377686
1519424216052,0.323975,-0.183350,0.005859
1519424216056,0.142090,-0.085693,0.318604
1519424216120,-1.555176,0.311768,0.516113
1519424216122,1.217285,0.625488,-1.676270
1519424216187,-0.250488,6.714844,-0.492676
1519424216191,0.354980,2.748779,-0.755615
1519424216256,-0.108887,2.818359,-0.595215
1519424216261,-0.517334,2.427490,-0.046875
1519424216324,-0.337402,1.495117,-0.066162
1519424216334,-0.189209,0.541748,-0.194824
1519424216358,-0.303223,-0.038330,-0.187256
1519424216365,-0.566406,-0.134521,-0.049805
1519424216391,-0.413330,-0.206543,0.051025
1519424216424,-0.274414,0.030518,0.218262
1519424216427,-0.347412,0.148193,0.169678
1519424216482,-0.289307,0.351318,-0.027832
1519424216488,-0.757080,1.160156,-0.345703
1519424216523,-1.987305,2.228516,-0.745361
1519424216581,-0.785400,2.836670,-0.999756
1519424216586,-0.126465,2.603516,-0.795654
1519424216643,0.113770,2.143799,-0.353027
1519424216676,0.071533,1.253174,-0.066406
1519424216708,0.347412,0.585938,-0.082764
1519424216716,0.441650,0.060547,-0.120117
1519424216772,0.195801,-0.236084,-0.052490
1519424216804,0.151123,-0.223877,-0.043701
1519424216837,0.146240,-0.172119,-0.013428
1519424216870,0.170166,-0.134277,0.010742
1519424216902,0.349609,0.612549,0.156982
1519424216935,0.627441,1.513184,0.108643
1519424216967,1.066650,2.764404,-0.077393
1519424216999,0.796875,3.066406,0.309814
1519424217003,-0.005859,2.673584,0.915527
1519424217058,0.788574,1.810059,0.340088
1519424217091,-0.116455,0.890869,-0.035156
1519424217097,-0.556885,0.350830,-0.034180
1519424217155,-0.385010,-0.007080,-0.144775
1519424217188,-0.461182,-0.014648,0.032959
1519424217221,-0.771240,0.100830,0.302002
1519424217253,-0.480469,-0.142822,-0.026123
1519424217286,-0.638916,-0.180908,-0.273193
1519424217318,-0.798828,0.243896,-0.073975
1519424217351,-1.372559,2.354248,-0.245850
1519424217383,-1.743652,3.466064,-1.364990
1519424217416,0.226807,4.124268,-0.857178
1519424217448,1.265625,2.832275,-0.875488
1519424217491,0.718750,1.487061,-0.673096
1519424217493,0.764160,0.700928,-0.548340
1519424217553,0.345459,0.352295,-0.364502
1519424217562,0.394775,0.115234,-0.240967
1519424217586,0.550049,0.155518,-0.261719
1519424217619,0.338623,-0.210449,-0.273193
1519424217652,0.259277,-0.478760,-0.084961
1519424217709,0.226807,-1.615479,1.820801
1519424217717,0.075439,0.256836,-0.495850
1519424217771,-0.148926,2.461914,0.340088
1519424217802,1.513672,3.562256,0.460205
1519424217835,1.023682,2.391357,0.646973
1519424217867,0.472656,1.944824,0.756592
1519424217900,0.365967,1.476074,0.436523
1519424217933,-0.126709,0.175293,0.102295
1519424217965,-0.020508,-0.319092,-0.450684
1519424217968,-0.264160,-0.005859,-0.141846
1519424218024,-0.647705,0.154541,0.009277
1519424218031,-0.002441,-0.495117,-0.087158
1519424218087,-0.079346,-0.592041,-0.072021
1519424218120,-0.287109,-0.154297,-0.022705
1519424218152,-0.496338,0.619873,-0.236816
1519424218185,-1.568604,2.590576,-0.136230
1519424218218,-0.213135,2.332275,-0.021484
1519424218250,0.296631,2.557617,-0.116211
1519424218283,-0.061768,2.105957,0.186768
1519424218317,0.227783,1.329346,0.495361
1519424218348,0.321045,0.531494,0.771729
1519424218381,0.150146,0.082275,0.177246
1519424218414,-0.000488,-0.460205,0.248291
1519424218446,0.127686,0.758789,0.463867
1519424218455,-0.343506,-0.006348,-0.056396
1519424218506,0.258057,0.510742,-0.181152
1519424218540,0.567871,0.185791,0.044434
1519424218550,0.467529,0.250000,-0.495361
1519424218601,0.510010,1.645996,-0.766846
1519424218636,1.737305,3.262695,-1.277344
1519424218667,1.952637,3.735596,1.641602
1519424218699,0.403564,3.418701,-1.069092
1519424218732,0.523193,1.411865,-0.441895
1519424218771,0.412109,0.484131,-0.786621
1519424218777,0.082520,0.751221,-0.578613
1519424218836,-0.305664,0.224365,-0.503174
1519424218867,-0.604980,-0.166992,-0.375244
1519424218900,-0.521240,-0.160156,-0.227295
1519424218908,-0.322266,-0.153076,-0.196289
1519424218964,-0.217285,-0.258545,-0.166260
1519424218997,-0.127930,-0.341797,-0.089111
1519424219028,-0.547363,-0.272949,-0.046875
1519424219032,-1.376709,2.539551,0.052490
1519424219087,-0.591064,2.098389,0.059082
1519424219120,0.286133,3.503174,0.418213
1519424219125,-0.015381,2.424805,0.172363
1519424219183,0.881592,1.281738,0.092041
1519424219215,1.005127,0.781738,-0.061279
1519424219258,0.467041,0.488525,-0.138916
1519424219280,0.192627,0.154053,-0.315674
1519424219312,-0.247314,-0.082520,-0.425537
1519424219345,-0.407471,0.096436,-0.358398
1519424219378,0.100342,0.801758,-0.307617
1519424219411,0.461426,-0.049316,0.332520
1519424219448,0.410889,0.712402,0.004150
1519424219478,0.076660,3.417725,-1.164551
1519424219511,1.754150,2.093018,0.085449
1519424219544,1.913818,2.508789,-0.253174
1519424219576,-0.342529,2.612549,-0.143555
1519424219609,0.150391,1.271240,-0.023193
1519424219616,-0.291016,0.566650,-0.052979
1519424219667,-0.635986,0.283203,-0.086914
1519424219702,-1.326416,0.415039,0.174072
1519424219711,-0.415771,0.310303,0.246094
1519424219764,0.205566,0.070801,0.198486
1519424219796,-0.071777,0.177002,0.166016
1519424219828,-0.043701,-0.163330,-0.137939
1519424219860,-0.874268,1.197754,-0.193604
1519424219893,-2.144287,3.129395,-0.335205
1519424219906,-0.342285,2.082275,-0.485596
1519424219939,0.249268,1.785400,-0.343994
1519424219997,0.033936,0.902344,-0.193848
1519424220051,0.386230,0.371338,-0.181885
1519424220054,0.444580,-0.035156,-0.251465
1519424220085,0.334473,-0.189941,-0.177490
1519424220117,0.186035,-0.538330,-0.035889
1519424220150,0.430176,-0.226563,0.158691
1519424220182,0.465576,-0.449707,0.663086
1519424220188,0.612549,0.901367,0.260986
1519424220247,0.477295,3.307617,-0.942871
1519424220278,1.384766,3.359375,-0.413330
1519424220285,1.470703,1.944092,0.034180
1519424220351,1.519775,2.525879,0.529053
1519424220354,0.023682,1.201904,0.554932
1519424220387,-0.187744,0.983154,0.286133
1519424220445,0.006592,0.487549,0.298340
1519424220477,0.016113,0.108154,-0.101563
1519424220485,-0.503174,0.424805,0.150146
1519424220541,-0.389404,-0.001953,0.210938
1519424220574,-0.309326,-0.262207,0.045898
1519424220606,-0.324951,-0.250732,0.053223
1519424220638,-0.179932,0.731201,0.131836
1519424220656,-1.003906,2.761719,0.121826
1519424220688,-0.039551,2.536133,-0.316895
1519424220730,1.003906,1.911621,-0.137451
1519424220735,0.125000,1.387695,0.088379
1519424220792,0.260742,1.023682,0.153076
1519424220864,0.523926,0.404785,0.113525
1519424220867,0.476318,0.239014,-0.057617
1519424220932,0.336914,0.107422,-0.142822
1519424220935,0.092285,-0.011475,-0.161377
1519424221000,-0.032959,-0.033203,-0.122314
1519424221002,0.042725,-0.010498,0.020996
1519424221067,0.319336,0.912598,-0.201660
1519424221070,0.499023,1.648193,-0.163574
1519424221135,0.835449,2.941162,0.287109
1519424221204,2.470703,3.459717,1.102051
1519424221270,1.315918,2.326904,0.733887
1519424221274,0.917969,1.740723,0.548584
1519424221337,-0.158203,0.876221,0.336670
1519424221340,-0.237305,0.619141,-0.156982
1519424221357,0.000977,0.748291,0.138672
1519424221359,-0.494141,0.040771,0.125488
1519424221363,-0.093750,-0.213379,-0.444336
1519424221366,0.010742,-0.136963,-0.055908
1519424221395,-0.269775,-0.508789,-0.142334
1519424221427,-0.305908,-0.316650,-0.025391
1519424221460,-0.629639,0.290527,-0.017578
1519424221492,-1.778809,2.427246,-0.517822
1519424221525,-0.591553,2.207031,-0.068359
1519424221557,0.088379,1.907959,0.353271
1519424221589,-0.018311,1.386963,0.501221
1519424221622,0.593506,0.829346,0.462646
1519424221654,1.050537,0.360107,0.356445
1519424221687,1.094238,-0.013184,0.159424
1519424221720,0.851563,0.266113,0.181396
1519424221752,0.708008,0.841064,0.316650
1519424221784,0.728271,0.344482,0.226074
1519424221817,0.670898,0.549805,0.206299
1519424221850,0.587402,0.625732,0.340820
1519424221882,1.434570,1.093506,0.147949
1519424221915,3.303711,1.416992,-0.368896
1519424221947,2.618164,1.783447,-0.149170
1519424221988,1.792725,1.650391,-0.093262
1519424222021,1.098145,1.138916,-0.343018
1519424222053,0.278076,0.928467,-0.181152
1519424222086,-0.725830,0.779297,0.156494
1519424222118,-0.671143,0.500244,0.158447
1519424222151,-0.785156,0.198975,0.079834
1519424222183,-0.864990,0.228027,0.156006
1519424222216,-0.987305,0.267090,0.206543
1519424222218,-0.497070,0.253174,0.219482
1519424222274,-0.339844,0.732422,0.022217
1519424222307,0.201172,3.043701,-0.001465
1519424222311,1.773193,3.162598,-0.173828
1519424222368,1.843018,1.911865,0.124023
1519424222401,0.540771,2.291992,0.119629
1519424222433,1.518555,1.665039,-0.103760
1519424222466,0.943848,0.750244,-0.033691
1519424222498,0.578857,0.507324,-0.004395
1519424222531,0.340820,0.265137,-0.014404
1519424222563,0.247559,0.138672,-0.071289
1519424222611,0.200195,-0.050049,-0.115234
1519424222613,0.130127,-0.191162,-0.145752
1519424222670,0.169678,-0.135986,-0.113525
1519424222676,0.249756,-0.130859,-0.059814
1519424222733,0.165283,-0.085938,-0.015137
1519424222766,0.092529,0.250488,-0.066406
1519424222780,0.157715,2.145508,-0.171387
1519424222812,0.593750,2.017822,-0.064697
1519424222869,0.476074,2.546875,0.019775
1519424222873,0.127197,2.914551,0.040771
1519424222903,-0.101318,2.007324,-0.132813
1519424222961,-0.348877,1.730957,-0.104248
1519424222963,-0.916504,1.346191,0.063232
1519424222995,-0.573486,0.936523,0.175537
1519424223052,-0.455566,0.581787,0.225342
1519424223085,-0.483643,0.487061,0.294922
1519424223091,-0.362305,0.475342,0.385986
1519424223148,-0.226807,0.624268,0.156494
1519424223181,-0.334961,0.751953,-0.104980
1519424223195,-0.172363,1.278564,-0.370850
1519424223227,0.284424,1.946777,-0.830322
1519424223284,1.561523,2.005859,-0.420654
1519424223291,1.090332,1.876221,-0.303711
1519424223348,1.055908,1.312500,-0.278564
1519424223381,0.781494,0.731934,-0.202637
1519424223383,0.443115,0.412109,-0.168457
1519424223440,0.236084,0.279541,-0.023438
1519424223445,0.361328,0.287109,0.027100
1519424223477,0.550049,0.198486,-0.072266
1519424223510,0.455322,0.216064,-0.024902
1519424223542,0.433594,0.281494,0.049805
1519424223583,0.567383,0.193604,0.042969
1519424223615,0.980713,0.196777,-0.033447
1519424223646,1.822510,0.784668,-0.007324
1519424223679,2.386719,0.916260,-0.135010
1519424223711,2.262939,1.634033,0.248291
1519424223744,1.698975,2.074463,0.206299
1519424223776,1.165039,2.080322,-0.072266
1519424223808,0.804688,1.556641,0.025146
1519424223866,0.259277,1.478027,0.431641
1519424223868,-0.317139,0.860596,0.437500
1519424223923,-0.083984,0.109131,-0.127930
1519424223932,-0.414307,-0.187256,0.104980
1519424223956,-0.829834,0.152100,0.375977
1519424224015,-0.250488,-0.113770,0.242188
1519424224048,-0.342285,-0.085449,0.152344
1519424224078,-0.329102,-0.052246,0.103760
1519424224111,-0.230957,0.970215,-0.040283
1519424224143,-0.041748,2.813232,-0.214111
1519424224158,1.756348,3.034180,-0.072021
1519424224191,2.099854,2.000244,0.090576
1519424224225,1.652588,1.256104,-0.200439
1519424224261,1.218750,0.510498,-0.275391
1519424224293,0.329346,0.261230,0.213379
1519424224326,-0.172607,0.163818,0.264160
1519424224358,-0.107666,-0.006348,0.000732
1519424224390,-0.022949,0.022705,-0.067871
1519424224423,0.079346,-0.038574,0.024902
1519424224457,0.282227,0.300293,0.188477
1519424224489,1.405029,0.984863,-0.271973
1519424224521,1.583740,1.487061,-0.471436
1519424224553,1.238770,1.968750,-0.256348
1519424224575,0.634277,1.844238,0.044922
1519424224627,0.760742,1.208984,-0.308105
1519424224681,0.381592,1.125977,-0.281250
1519424224684,-0.199951,0.865967,-0.088379
1519424224736,-0.500977,0.939209,-0.079102
1519424224739,-0.079834,0.833252,-0.162598
1519424224784,-0.297852,0.342041,-0.268555
1519424224820,-0.262695,0.295654,-0.209229
1519424224871,0.055176,0.433838,-0.340332
1519424224873,0.728271,0.672607,-1.156982
1519424224901,1.686768,0.562744,-2.049316
1519424224951,1.716309,0.808105,-1.322754
1519424224984,0.941895,0.485840,-0.570313
1519424225030,1.668945,1.410889,-0.643066
1519424225033,0.392334,0.523193,-0.306152
1519424225067,0.237061,0.374023,-0.222656
1519424225113,0.089844,0.367676,-0.391846
1519424225117,-0.269531,0.311279,-0.433105
1519424225173,0.243408,0.355469,-0.434082
1519424225226,0.545654,0.280518,-0.430664
1519424225236,0.470459,0.932617,-0.344727
1519424225275,0.169434,0.848633,-0.722168
1519424225283,0.596680,0.847168,-0.681885
1519424225359,0.812500,0.815674,-0.594727
1519424225362,0.486816,0.572266,-0.894287
1519424225395,1.202148,0.956055,-0.806641
1519424225441,0.784912,0.829102,-0.578613
1519424225479,0.867432,0.616211,-0.718506
1519424225497,0.717529,0.674316,-0.610840
1519424225504,0.583008,0.658936,-0.555664
1519424225554,0.337646,0.547119,-0.548584
1519424225608,0.188477,0.503174,-0.594238
1519424225616,0.161865,0.583008,-0.366211
1519424225645,0.242188,0.693359,-0.480713
1519424225677,0.355225,0.590088,-0.423584
1519424225709,0.281006,0.568604,-0.545166
1519424225742,0.340088,0.667480,-0.632080
1519424225774,0.517578,0.675781,-0.692139
1519424225806,0.539551,0.714111,-0.696045
1519424225875,0.642578,0.632813,-0.652100
1519424225878,0.578857,0.725098,-0.793457
1519424225943,0.500488,0.772217,-0.665283
1519424225946,0.616699,0.607910,-0.786621
1519424226011,0.772949,0.563477,-0.860840
1519424226020,0.827881,0.758301,-0.794434
1519424226078,0.603760,0.737549,-0.588623
1519424226148,0.313232,0.633057,-0.420410
1519424226214,0.235352,0.655273,-0.155273
1519424226222,0.127686,0.538818,-0.108398
1519424226284,0.331299,0.472900,-0.138672
1519424226290,0.387939,0.618164,-0.075928
1519424226331,0.186768,1.024414,-0.085449
1519424226334,0.194092,1.156982,-0.219971
1519424226336,0.153320,1.031494,0.016357
1519424226342,0.643066,0.986328,0.176758
1519424226367,0.459961,1.004639,0.473633
1519424226400,0.231201,0.885254,0.408691
1519424226452,0.286133,0.984863,0.192627
1519424226454,0.494629,1.205078,0.173828
1519424226485,0.447266,0.880615,-0.103760
1519424226526,0.648438,0.757080,-0.338623
1519424226558,0.922607,0.641357,-0.240723
1519424226563,0.941895,0.483398,-0.273682
1519424226621,1.022461,0.529297,-0.069092
1519424226653,0.980713,0.529053,-0.098145
1519424226660,0.898682,0.557861,0.042725
1519424226717,0.856201,0.797119,-0.130371
1519424226750,0.482910,0.841309,0.292725
1519424226783,0.744873,1.237305,0.226807
1519424226816,0.728760,0.999756,-0.020020
1519424226848,0.433350,0.814941,0.109863
1519424226882,0.538574,0.950195,-0.070557
1519424226912,0.554443,0.745605,0.070557
1519424226927,0.347168,0.967773,0.135742
1519424226985,0.438965,1.136475,0.148438
1519424227018,0.588379,0.813965,0.173340
1519424227022,0.507080,0.815674,0.061523
1519424227052,0.353516,1.010010,-0.065430
1519424227109,0.121582,0.847168,0.038818
1519424227116,0.294678,1.021729,0.320801
1519424227145,0.427490,0.967773,0.134277
1519424227204,0.420654,0.956787,-0.099609
1519424227237,0.442139,0.810059,-0.310303
1519424227269,0.579590,0.856445,0.203857
1519424227276,0.568848,0.935791,0.353760
1519424227333,0.543213,1.319824,0.235840
1519424227347,0.726318,0.661133,-0.099854
1519424227378,0.165527,1.563721,-0.457764
1519424227436,0.391846,1.187988,0.004150
1519424227444,0.349854,0.363525,0.840332
1519424227494,0.607178,0.643311,0.881836
1519424227528,0.609619,0.689209,0.477051
1519424227537,0.433838,0.593750,0.122559
1519424227586,-0.095215,1.548340,-0.420166
1519424227619,0.214844,0.664795,-0.122803
1519424227652,0.369385,1.082031,-0.401367
1519424227686,0.513672,0.884766,0.227783
1519424227692,0.520752,1.215576,0.710938
1519424227732,0.463623,1.065918,0.308594
1519424227766,0.625488,1.293213,-0.240723
1519424227798,0.088135,0.793213,-0.342773
1519424227830,0.302490,0.757568,-0.079346
1519424227863,0.736572,0.849854,0.170898
1519424227895,0.386230,0.962646,0.258301
1519424227927,0.164551,1.073242,0.101563
1519424227961,0.374268,1.045410,0.150635
1519424228015,0.601318,0.994141,-0.149414
1519424228018,0.678711,0.824219,0.079102
1519424228074,0.500000,1.136719,0.155762
1519424228108,0.301270,0.966064,-0.083496
1519424228116,0.419434,0.961914,-0.003906
1519424228169,0.342285,1.086182,0.001953
1519424228178,0.267090,0.991943,-0.062500
1519424228233,0.274170,0.898193,0.043213
1519424228265,0.369141,1.026367,-0.030029
1519424228274,0.474365,0.948242,-0.220459
1519424228328,0.328369,0.898193,0.034912
1519424228365,0.364014,0.888184,-0.072266
1519424228392,0.407959,0.968750,-0.076416
1519424228425,0.450928,1.012695,0.154297
1519424228459,0.503174,0.993164,0.257080
1519424228490,0.412842,1.109619,0.111328
1519424228523,0.498535,0.931641,0.115234
1519424228556,0.226563,0.984863,0.186279
1519424228597,0.043945,1.052002,0.283691
1519424228606,-0.202881,1.170166,0.405518
1519424228657,-0.483154,1.234131,0.556641
1519424228689,-0.530029,1.033203,0.464600
1519424228695,-0.083740,0.601563,0.124512
1519424228747,-0.121338,0.879883,0.369873
1519424228780,0.425049,0.901611,0.425049
1519424228813,0.331543,0.997314,0.698975
1519424228845,0.139160,0.782227,0.074463
1519424228854,0.450439,0.090576,0.771729
1519424228908,0.055420,0.843018,0.751953
1519424228942,0.329346,0.456543,0.218018
1519424228973,0.484375,0.557373,0.646973
1519424228987,0.342285,0.434814,0.988037
1519424229042,0.212646,-0.019775,0.643311
1519424229075,0.390869,0.746582,0.944092
1519424229085,0.319824,0.506836,1.198730
1519424229141,0.127686,0.554443,1.121338
1519424229174,0.152588,0.406982,0.878662
1519424229178,0.276855,0.451660,0.695801
1519424229232,0.372559,0.459229,0.677734
1519424229239,0.439453,0.711914,0.613770
1519424229271,0.419678,0.496094,0.893555
1519424229330,0.428467,0.702393,0.807861
1519424229336,0.284912,0.444092,0.843018
1519424229393,0.275879,0.327393,0.789063
1519424229407,0.246826,0.436035,0.615234
1519424229440,0.424072,0.586670,0.625244
1519424229473,0.374023,0.430420,0.544189
1519424229504,0.490723,0.478027,0.707764
1519424229536,0.533936,0.578857,0.841064
1519424229569,0.511963,0.545410,0.764893
1519424229628,0.378418,0.537109,0.770752
1519424229660,0.329346,0.888672,0.584229
1519424229668,0.270264,1.255859,0.614258
1519424229723,0.372070,1.184814,0.611572
1519424229757,0.426758,0.919189,0.419922
1519424229767,0.375000,0.862549,0.251465
1519424229790,0.610840,0.797119,0.223633
1519424229822,0.716309,0.596436,0.063721
1519424229855,0.812256,0.581299,-0.103271
1519424229886,0.952148,0.756836,-0.087891
1519424229919,0.883301,0.797607,-0.094482
1519424229954,0.729248,0.681152,-0.099121
1519424229984,0.505615,0.437256,-0.142334
1519424230043,0.612549,0.592529,-0.066650
1519424230052,0.737305,0.679199,-0.005615
1519424230106,1.131836,1.359863,-0.136719
1519424230138,1.322998,1.801514,-0.135498
1519424230171,1.000732,1.676514,-0.102051
1519424230204,0.348633,1.485352,-0.277588
1519424230212,-0.300049,1.271484,-0.166748
1519424230249,-0.634766,0.928711,-0.056885
1519424230293,-0.769775,0.291260,0.016113
1519424230307,-0.588867,0.075928,0.187988
1519424230340,-0.430176,-0.046143,0.134277
1519424230373,-0.284912,0.208252,0.138916
1519424230404,0.089844,1.231201,0.225098
1519424230437,0.633545,2.599365,-0.148438
1519424230471,1.480469,3.112549,-0.066406
1519424230501,1.201172,2.414551,-0.292236
1519424230535,1.387695,1.654297,-0.682861
1519424230568,0.855713,0.968262,-0.457764
1519424230600,0.403076,0.349609,-0.363037
1519424230642,0.004639,-0.204590,-0.230469
1519424230674,-0.101563,-0.435303,-0.120850
1519424230706,-0.029541,-0.352783,-0.061279
1519424230713,0.194336,-0.107666,0.009277
1519424230770,0.781250,0.777832,-0.121582
1519424230802,1.124512,2.005615,-0.265381
1519424230874,0.985596,2.387695,0.276123
1519424230877,1.242676,2.109131,0.145508
1519424230942,0.271240,1.592041,0.207031
1519424230945,0.101318,1.107910,0.144531
1519424231009,-0.674072,0.639404,-0.009766
1519424231077,-0.709229,0.177246,-0.002686
1519424231145,-0.532959,-0.053955,0.027832
1519424231154,-0.450928,0.007568,0.058594
1519424231211,-0.401855,-0.041992,0.082520
1519424231215,-0.346436,0.587158,-0.114014
1519424231279,-0.722168,1.841797,-0.364258
1519424231282,-0.731201,2.546387,-0.459473
1519424231332,0.345459,3.052246,-0.837402
1519424231341,0.807129,1.796875,-0.691895
1519424231350,0.417480,1.096680,-0.333252
1519424231355,0.574463,0.444824,-0.166748
1519424231368,0.466553,-0.011230,-0.037598
1519424231371,0.463379,-0.256348,-0.057129
1519424231401,0.433105,-0.133301,0.033203
1519424231443,0.392090,-0.075439,0.150146
1519424231477,0.506592,1.079102,0.151855
1519424231507,0.352783,1.429932,0.358887
1519424231540,0.160156,1.581299,0.317627
1519424231572,-0.175049,1.945313,0.507568
1519424231605,0.039063,1.700195,0.299805
1519424231638,-0.114990,0.892578,0.079834
1519424231670,-0.310303,0.393555,0.049316
1519424231703,-0.651855,-0.033936,-0.091309
1519424231735,-0.824219,-0.201904,-0.146240
1519424231768,-0.840088,-0.151367,0.065918
1519424231801,-0.968262,-0.173340,0.104736
1519424231843,-1.027100,0.337158,-0.288330
1519424231875,-1.381104,2.061523,0.053223
1519424231881,-1.318115,4.541260,-0.662598
1519424231933,0.920410,4.070313,-0.416504
1519424231967,0.562744,2.551514,-0.193848
1519424231977,0.257324,1.241455,-0.223145
1519424232036,0.419189,0.480713,-0.186523
1519424232045,0.671143,0.120850,-0.074463
1519424232096,0.832031,-0.290527,-0.071777
1519424232130,0.568604,-0.394287,-0.159668
1519424232162,0.158447,-0.328125,0.258301
1519424232195,-0.036377,-0.024902,0.091064
1519424232212,0.262939,0.011475,-0.169434
1519424232239,-0.514893,2.770020,-0.265869
1519424232297,-0.066406,2.906006,0.091309
1519424232330,-0.431152,3.270264,0.406006
1519424232363,-0.532959,2.473389,0.383545
1519424232372,-0.369629,1.307861,-0.135010
1519424232421,-0.774414,-0.034912,-0.291016
1519424232427,-0.945801,0.008789,-0.203125
1519424232460,-0.588135,-0.114502,0.105225
1519424232493,-0.393311,-0.266846,0.231689
1519424232525,-0.963135,-0.172363,0.020508
1519424232583,-0.693115,0.234863,-0.207275
1519424232614,-1.877930,3.714844,-0.361572
1519424232627,-1.153809,3.581299,-0.669434
1519424232660,-0.065430,3.084229,-0.406494
1519424232693,-0.248779,1.626709,-0.250732
1519424232726,0.318848,0.729004,-0.220947
1519424232759,0.914795,0.151611,-0.105469
1519424232791,0.982178,-0.886719,-0.261719
1519424232824,0.740479,-0.910156,-0.474854
1519424232854,0.728760,-0.221191,-0.243408
1519424232910,0.525635,-0.455566,0.310303
1519424232913,0.715332,0.491455,-0.033936
1519424232946,0.867676,2.082520,-0.293213
1519424232979,0.916748,3.365479,0.006348
1519424233013,0.534424,3.348633,0.193848
1519424233053,0.003174,2.441895,0.170166
1519424233085,-0.263916,1.200195,0.144531
1519424233119,-0.448730,0.633057,-0.175293
1519424233152,-0.676025,0.344971,-0.256104
1519424233184,-0.739014,0.085938,0.102051
1519424233217,-0.508301,0.104492,0.276855
1519424233226,-0.917236,-0.129639,0.162354
1519424233280,-0.826660,0.621826,-0.024902
1519424233312,-1.302979,2.497314,-0.487061
1519424233346,-0.671387,3.225098,-0.536621
1519424233378,0.710449,2.974854,-0.360352
1519424233409,0.321289,2.329102,-0.494141
1519424233423,0.741211,1.074951,-0.331055
1519424233481,1.089844,0.221680,-0.056152
1519424233490,0.900146,0.062012,0.066162
1519424233543,0.847412,-0.102051,0.040283
1519424233577,0.642334,-0.282959,-0.190186
1519424233609,0.511719,-0.385254,-0.251709
1519424233641,0.426758,-0.192871,-0.051025
1519424233674,0.231934,0.275146,-0.207764
1519424233706,-0.459229,1.921143,-0.120850
1519424233739,-0.681152,2.715332,0.370605
1519424233772,0.028564,3.541504,0.193115
1519424233804,-0.681396,2.533203,0.147949
1519424233814,-0.634766,1.152100,0.254883
1519424233862,-0.929688,0.361816,0.038330
1519424233894,-0.813232,0.020264,-0.186768
1519424233902,-0.878906,-0.060303,-0.113770
1519424233958,-0.575195,0.314209,-0.033447
1519424233992,-0.374512,0.340820,0.077637
1519424234024,-0.269531,0.531006,0.032959
1519424234057,-0.968018,3.459961,-0.511719
1519424234087,-0.042236,3.501709,-0.453125
1519424234132,0.839600,3.097900,-0.363525
1519424234135,0.044678,2.043213,-0.234375
1519424234190,0.625732,0.878174,-0.193115
1519424234223,0.643066,0.311279,0.039551
1519424234237,0.624268,-0.298340,0.059326
1519424234269,0.539795,-0.766846,-0.046875
1519424234302,0.401367,-0.640381,0.009766
1519424234335,0.468750,-0.283447,-0.035400
1519424234393,0.620361,0.437988,0.020752
1519424234399,0.103271,2.454590,-0.353760
1519424234450,-0.023682,2.732910,0.276611
1519424234482,-0.125732,3.017822,0.077148
1519424234487,-0.250977,2.259033,-0.385010
1519424234541,-0.415283,1.062744,-0.365967
1519424234550,-0.595459,0.362549,-0.272461
1519424234605,-0.898193,0.174316,-0.225342
1519424234639,-0.527344,0.222412,0.024658
1519424234653,-0.739258,0.356201,0.144287
1519424234685,-0.637207,0.160645,0.146973
1519424234717,-0.515869,0.617432,0.007568
1519424234750,-0.657715,0.652344,-0.208496
1519424234783,-0.937500,3.141113,-0.596680
1519424234840,0.421387,3.712646,-0.471191
1519424234847,1.228516,2.412354,-0.603516
1519424234880,0.573730,1.392578,-0.244873
1519424234937,0.274658,0.601807,-0.099854
1519424234970,0.489746,0.101807,-0.092041
1519424234973,0.490723,-0.474365,-0.094482
1519424235029,0.569580,-0.307861,-0.104492
1519424235061,0.713623,-0.045898,-0.110107
1519424235064,0.481201,0.782959,-0.137451
1519424235120,0.161377,2.156738,-0.359131
1519424235152,0.142822,2.596436,-0.159668
1519424235185,-0.451416,2.129639,0.526123
1519424235217,-0.163086,1.651611,0.103271
1519424235250,-0.448486,0.544678,-0.328857
1519424235283,-0.950195,0.132080,-0.010742
1519424235316,-0.876221,-0.134766,-0.098145
1519424235349,-0.910645,-0.093994,-0.079102
1519424235381,-0.476563,-0.075684,-0.041016
1519424235414,-0.600830,0.477051,-0.251709
1519424235445,-0.638672,2.998291,-0.566895
1519424235459,0.007324,3.059326,-0.632080
1519424235516,1.036133,1.927246,-0.579102
1519424235549,0.514893,1.721436,-0.278076
1519424235553,0.058594,1.577637,-0.114258
1519424235583,0.459473,0.977051,-0.101563
1519424235615,0.134277,0.583740,0.005615
1519424235649,0.148926,0.322510,0.018311
1519424235681,0.197754,-0.032471,0.361572
1519424235714,0.312012,-0.091309,-0.035156
1519424235746,0.405518,-0.131592,-0.260986
1519424235804,0.429443,0.586670,-0.061035
1519424235876,0.255371,2.352051,-0.621338
1519424235887,0.650146,2.442139,-0.436279
1519424235943,-0.424561,2.930420,0.346436
1519424235946,-0.335449,2.134277,-0.272217
1519424236010,-0.642822,1.663086,-0.039063
1519424236013,-0.698242,0.904541,-0.230225
1519424236079,-0.410645,0.748291,-0.041992
1519424236087,-0.429932,0.257324,0.001953
1519424236146,-0.242188,-0.242920,-0.045166
1519424236151,-0.223633,-0.413086,-0.252441
1519424236214,-0.315674,-0.310059,-0.090576
1519424236222,-0.536865,2.295410,-0.045898
1519424236281,0.179443,3.234619,-0.398682
1519424236284,0.818604,2.235352,-0.090332
1519424236333,0.566162,1.638428,-0.052734
1519424236336,0.177246,1.669189,0.125977
1519424236339,0.404297,1.218750,0.245605
1519424236367,-0.144287,0.865967,0.232178
1519424236400,0.831055,0.524414,-0.219482
1519424236433,0.229736,0.315918,-0.282715
1519424236466,-0.014404,0.194092,-0.072266
1519424236499,0.182129,-0.012451,-0.021973
1519424236532,0.198242,0.067627,-0.236572
1519424236564,0.240967,0.535889,-0.429688
1519424236596,0.217285,0.906982,-0.456787
1519424236629,0.406982,1.628662,-0.560791
1519424236660,0.603516,2.889404,-0.362305
1519424236693,0.104248,2.914063,0.671143
1519424236706,-0.196777,2.540527,-0.237793
1519424236764,-0.440186,1.107910,-0.114746
1519424236796,-0.772461,0.961670,0.033447
1519424236832,-0.507813,0.841309,0.174316
1519424236838,-0.390137,0.114258,-0.093262
1519424236895,-0.324219,-0.192383,-0.104248
1519424236927,-0.297852,-0.362305,-0.084229
1519424236961,-0.136230,-0.253662,0.054932
1519424236993,-0.570068,-0.103516,-0.049316
1519424236998,-0.665039,1.260498,-0.345459
1519424237053,-1.367432,3.536865,-0.827148
1519424237084,0.086914,3.187500,-0.315186
1519424237087,0.882813,2.431885,-0.298828
1519424237146,0.145996,0.978516,-0.291016
1519424237178,0.323486,0.593750,0.017578
1519424237210,0.128662,0.417236,0.094238
1519424237243,0.161377,-0.169434,-0.045410
1519424237276,0.131592,-0.367676,0.131348
1519424237308,-0.272949,-0.240234,0.372803
1519424237341,0.847412,0.835449,-0.175049
1519424237373,0.890381,1.842041,-0.764893
1519424237405,0.881592,2.500244,-0.612061
1519424237438,0.310791,2.551025,-0.546387
1519424237470,-0.168701,2.337402,-0.581299
1519424237502,-0.723877,1.720459,-0.189941
1519424237544,-0.566162,0.771240,-0.153564
1519424237577,-0.922852,0.378662,0.001709
1519424237582,-0.826904,0.092041,0.080811
1519424237637,-0.587891,-0.293945,0.072266
1519424237669,-0.485840,-0.118896,0.072754
1519424237676,-0.578613,-0.213135,-0.001953
1519424237728,-0.441162,1.352295,-0.175293
1519424237760,-0.626465,2.202393,-0.302246
1519424237771,-0.963379,3.829590,-0.476074
1519424237826,1.143066,2.218506,-0.830322
1519424237834,0.909180,1.423584,-0.472900
1519424237890,0.030762,0.718018,-0.304688
1519424237923,0.391846,0.116455,-0.366699
1519424237936,0.348633,-0.397461,-0.165527
1519424237971,0.136230,-0.464600,-0.193604
1519424238004,0.186035,-0.193604,0.060059
1519424238037,0.377686,-0.575684,0.261963
1519424238069,0.692383,1.997803,-0.664795
1519424238101,0.430176,3.297607,-0.496826
1519424238159,1.975586,3.236328,0.577637
1519424238164,0.984619,2.566406,0.290771
1519424238193,-0.343262,0.866455,-0.135010
1519424238252,-0.249023,0.882568,-0.167480
1519424238260,-0.722412,0.385010,0.136963
1519424238284,-0.702148,0.081787,-0.138916
1519424238328,-0.693115,-0.236816,0.040771
1519424238361,-0.441895,-0.177246,0.044678
1519424238394,-0.356201,-0.070313,0.087646
1519424238426,-0.511719,0.254395,-0.166504
1519424238458,-0.939453,1.879883,-0.327881
1519424238490,-0.298096,3.593506,-0.237061
1519424238523,0.975586,3.313477,-0.382813
1519424238555,0.662109,2.317871,-0.583984
1519424238587,0.656982,0.901367,-0.379883
1519424238622,0.506836,0.361084,-0.115723
1519424238653,0.199463,0.063232,0.077148
1519424238686,0.201172,-0.583252,-0.003418
1519424238718,0.132813,-0.703857,0.195801
1519424238733,-0.131836,-0.483154,0.490479
1519424238791,1.237793,0.753174,-0.369873
1519424238823,0.395508,1.651367,-0.072021
1519424238831,-0.453125,2.014160,-0.269531
1519424238887,0.772217,3.788818,-0.227051
1519424238919,0.187256,2.296875,0.055908
1519424238952,-1.167480,2.024902,0.286621
1519424238984,-0.494385,0.952881,0.090576
1519424239018,-0.435791,0.611084,-0.104248
1519424239050,-0.740723,0.246826,-0.049805
1519424239082,-0.943115,-0.218506,-0.030029
1519424239115,-0.526855,-0.083252,0.103760
1519424239125,-0.483887,-0.052002,0.146973
1519424239186,-0.433350,0.849854,-0.138428
1519424239195,-0.862061,2.827881,-0.542236
1519424239219,-0.575439,2.599854,-0.652588
1519424239276,0.568848,2.592773,-0.391846
1519424239280,0.150879,1.710205,-0.355713
1519424239335,0.355713,1.091553,-0.396240
1519424239368,0.346191,0.276611,-0.246826
1519424239400,0.247803,-0.087402,-0.173584
1519424239434,0.197754,-0.360352,-0.043457
1519424239466,0.277588,-0.133057,-0.106689
1519424239498,0.226807,-0.244385,0.202148
1519424239530,-0.240479,-0.259277,0.396729
1519424239547,0.888428,0.634766,-0.294678
1519424239603,0.079102,2.406982,-0.843018
1519424239606,0.052979,2.858398,-0.726074
1519424239661,0.090088,3.406738,0.062744
1519424239694,0.312012,2.006348,-0.369141
1519424239697,-0.622314,1.228516,-0.260010
1519424239754,-0.529541,0.582520,-0.155029
1519424239788,-0.620850,0.508789,0.052734
1519424239820,-0.477539,0.306396,0.122314
1519424239853,-0.400391,0.169922,0.093018
1519424239885,-0.278809,-0.084473,0.105957
1519424239918,-0.276123,-0.117188,0.000977
1519424239949,-0.395020,0.410645,-0.295410
1519424239963,-0.870850,1.635742,-0.203369
1519424240020,-0.837402,3.114746,-0.626465
1519424240026,1.870850,2.670410,-0.795166
1519424240083,1.113037,1.404053,-0.286865
1519424240117,0.378662,1.166016,-0.030762
1519424240149,0.368408,0.388916,-0.127930
1519424240182,0.123047,0.121826,-0.176025
1519424240190,0.243652,0.289063,-0.126465
1519424240239,0.219238,0.008301,-0.069824
1519424240273,0.394043,0.059326,-0.127686
1519424240282,0.857910,1.182129,0.075195
1519424240333,1.173584,1.730469,-0.243896
1519424240366,1.420898,2.255127,-0.230957
1519424240379,0.754150,2.584229,-0.062012
1519424240436,-0.454346,1.605225,0.533936
1519424240442,0.087402,1.251465,0.085449
1519424240498,-0.777100,0.437988,0.158447
1519424240533,-0.481201,0.041992,-0.181641
1519424240564,-0.527344,-0.045410,0.050537
1519424240598,-0.551025,-0.047119,0.067627
1519424240630,-0.542725,-0.018555,-0.032471
1519424240662,-0.546143,0.167480,-0.210449
1519424240698,-0.529541,0.124268,-0.244629
1519424240730,-1.097900,4.513184,-0.837891
1519424240763,-0.031982,3.601074,-0.860107
1519424240766,1.475342,3.439209,-0.649902
1519424240848,0.457764,1.671143,-0.313965
1519424240853,0.750244,0.646240,-0.140137
1519424240917,0.426270,0.217285,0.073486
1519424240927,0.156250,-0.252197,0.158936
1519424240983,0.147705,-0.453857,-0.024170
1519424240988,0.140869,-0.226807,0.024414
1519424241050,-0.470459,0.042969,0.507080
1519424241054,1.951660,1.658447,-0.521484
1519424241119,0.030518,0.981689,-0.846680
1519424241125,-0.387695,2.377686,-0.534912
1519424241187,0.087646,3.078125,-0.090332
1519424241254,0.431152,2.409668,-0.164063
1519424241322,-0.382568,1.575928,-0.018799
1519424241329,-0.556396,1.382080,0.201904
1519424241340,-0.434326,0.620605,-0.008301
1519424241345,-0.374268,0.003174,-0.015869
1519424241348,-0.634033,-0.355957,0.242432
1519424241352,-0.477051,-0.220459,0.179199
1519424241396,-0.365723,-0.165283,0.032715
1519424241403,-0.476074,-0.194092,-0.063965
1519424241461,-0.532959,-0.102783,-0.183838
1519424241492,-0.716553,1.638428,-0.478516
1519424241525,-1.523193,3.004639,-0.902588
1519424241558,-0.351807,3.453125,-0.901367
1519424241590,0.968018,2.825439,-0.566895
1519424241604,0.401855,1.803955,-0.193604
1519424241640,0.377441,0.812988,-0.081299
1519424241672,0.371338,0.088867,0.039795
1519424241705,0.360596,-0.336670,0.144531
1519424241738,0.358154,-0.562012,0.114014
1519424241813,0.445557,0.084961,0.071045
1519424241822,0.775879,1.069824,-0.192383
1519424241830,0.713867,1.042236,-0.198242
1519424241875,0.282715,1.824951,-0.465820
1519424241908,0.159424,2.761230,-0.321777
1519424241940,-0.085938,2.660889,-0.279785
1519424241972,-0.309814,1.821533,0.425537
1519424242005,-1.182861,1.732178,0.273438
1519424242019,-0.179932,1.016113,-0.159912
1519424242051,-1.106689,0.029297,0.078369
1519424242109,-0.626709,0.009277,0.040771
1519424242142,-0.514893,-0.221924,0.104736
1519424242175,-0.572021,0.069336,-0.171875
1519424242207,-0.582520,0.093506,-0.302979
1519424242240,-0.804443,0.040039,-0.290283
1519424242272,-1.139160,2.996826,-0.770020
1519424242304,-0.232910,3.551025,-1.658447
1519424242307,2.156494,4.481445,-0.976318
1519424242363,0.583740,1.509277,-0.530273
1519424242371,0.110352,0.905029,-0.164063
1519424242398,0.281006,0.278809,-0.047852
1519424242456,0.409668,-0.417236,0.037842
1519424242488,0.473633,-0.615479,0.026855
1519424242521,0.335938,-0.437988,-0.000244
1519424242554,0.217285,-0.421143,0.019043
1519424242586,0.221436,-0.189697,0.146484
1519424242622,0.107178,1.926270,-0.292236
1519424242655,0.541260,2.352051,-0.401611
1519424242686,0.559814,3.576904,-0.204834
1519424242719,0.107910,3.231445,-0.052979
1519424242752,0.000488,1.194580,0.906494
1519424242784,-1.147949,1.245361,0.624756
1519424242787,-0.976318,0.820313,0.197266
1519424242843,-0.700195,0.396484,0.175781
1519424242875,-0.438721,0.098145,0.092529
1519424242883,-0.428711,-0.203613,0.091553
1519424242939,-0.353027,-0.037598,-0.032959
1519424242972,-0.548584,-0.130127,-0.202881
1519424243004,-0.839355,-0.104492,-0.249512
1519424243037,-1.202393,1.922852,-0.442871
1519424243092,-0.554443,2.298828,-0.989502
1519424243095,0.328369,3.565674,-1.019775
1519424243125,0.844971,3.308350,-0.798828
1519424243158,0.514404,2.155029,-0.620850
1519424243191,0.450195,1.185059,-0.404541
1519424243223,0.668457,0.608398,-0.281982
1519424243265,0.474854,0.335449,-0.187256
1519424243297,0.448730,0.246826,-0.005127
1519424243330,0.449219,-0.192871,-0.017090
1519424243362,0.518311,-0.026123,0.044922
1519424243369,0.528320,0.010986,0.158447
1519424243425,0.355469,0.537598,0.146240
1519424243457,0.362793,1.117188,-0.388672
1519424243464,0.162354,2.042969,-0.726074
1519424243520,0.142822,3.540771,-0.469238
1519424243553,-0.152832,2.489014,-0.499268
1519424243588,-0.445313,1.202393,-0.382813
1519424243620,-1.307617,1.099121,0.626709
1519424243634,-1.694092,0.338379,0.278320
1519424243667,-0.493652,0.183594,0.270508
1519424243700,-0.622559,-0.219482,-0.186768
1519424243732,-0.485352,-0.279785,-0.317383
1519424243765,-0.624023,0.144287,-0.201660
1519424243797,-0.650635,0.564941,-0.361328
1519424243830,-1.075684,2.509277,-1.352295
1519424243861,-0.179443,4.085205,-1.410156
1519424243919,2.626221,3.250488,-1.343018
1519424243951,0.868652,1.817871,-0.860352
1519424243954,0.240723,1.293457,-0.467529
1519424243985,0.409180,0.298340,-0.159668
1519424244018,0.192627,-0.154541,-0.018311
1519424244051,0.072510,-0.316895,0.033203
1519424244083,0.004639,-0.789063,1.066162
1519424244116,0.741699,0.981445,0.785156
1519424244149,0.842773,0.627930,0.064697
1519424244181,-0.299316,1.335693,0.481934
1519424244214,-0.230957,2.277100,0.663818
1519424244246,-0.220703,2.065430,0.684326
1519424244278,-0.195557,0.768311,0.355713
1519424244310,-0.154785,0.220947,0.285400
1519424244343,-0.281494,-0.012695,-0.179688
1519424244401,-0.337158,-0.105225,0.121338
1519424244408,-0.327637,-0.094727,0.093018
1519424244434,-0.419434,-0.182861,-0.025391
1519424244478,-0.416992,-0.136719,-0.079590
1519424244511,-0.240723,2.003662,-0.161377
1519424244547,-0.355225,1.836426,0.007568
1519424244579,-0.208008,3.313965,-0.224121
1519424244612,0.271729,2.947510,-0.200195
1519424244645,0.355713,2.220703,0.102783
1519424244677,0.137939,0.824463,0.416748
1519424244709,0.123047,0.436035,0.153564
1519424244742,0.113037,-0.301270,-0.174805
1519424244775,0.218994,-0.325684,-0.307617
1519424244807,0.347412,-0.364990,-0.285889
1519424244839,0.408203,-0.282959,-0.412842
1519424244881,0.489502,-0.371826,-0.691406
1519424244913,0.450928,-0.354248,-0.727051
1519424244916,0.368652,-0.009033,-0.395264
1519424244972,0.015137,3.185791,-0.160645
1519424244977,0.447998,5.335693,-0.050293
1519424245009,0.730957,4.313721,1.271240
1519424245067,-0.751709,1.941162,0.241455
1519424245075,-0.858887,0.913086,-0.229980
1519424245130,-0.958496,0.697754,-0.797852
1519424245164,-0.887207,-0.079590,-0.242432
1519424245196,-0.591064,-0.143555,-0.101074
1519424245229,-0.133545,-0.788086,1.078369
1519424245242,-0.491211,0.229492,0.254395
1519424245274,-0.332275,-0.215576,-0.494629
1519424245307,-0.831787,0.911865,-0.141846
1519424245364,-0.565186,4.020752,-0.801758
1519424245397,0.190430,3.438965,-0.463135
1519424245404,0.844727,1.687500,-0.529541
1519424245460,0.100098,1.138916,-0.062988
1519424245493,0.089355,0.538330,-0.017822
1519424245496,0.678223,-0.056152,0.062256
1519424245554,0.655273,-1.170654,-0.298096
1519424245560,0.260254,-0.841309,-0.183838
1519424245591,0.536133,-0.235596,0.065674
1519424245652,0.565674,1.238770,-0.557861
1519424245660,0.413086,3.757568,-0.794922
1519424245710,1.768311,4.273926,0.769531
1519424245743,0.429688,1.721436,-0.365967
1519424245775,-0.538330,1.145508,-0.213867
1519424245785,-0.593994,0.731201,-0.317871
1519424245858,-0.580566,0.009521,-0.139648
1519424245864,-1.160889,-0.173828,-0.136475
1519424245925,-0.927734,-0.219727,0.138184
1519424245929,-0.680664,0.673340,0.239258
1519424245993,-0.668457,-0.060547,-0.053223
1519424245996,-0.524170,0.119141,-0.120117
1519424246061,-0.728516,1.606201,-0.410645
1519424246129,0.017822,3.579590,-0.828857
1519424246195,1.270752,4.200928,-0.605957
1519424246199,1.276611,2.034424,-0.402100
1519424246264,-0.082275,1.686523,-0.088379
1519424246273,0.608398,0.714355,-0.176270
1519424246330,0.875732,0.376465,-0.110352
1519424246334,0.417725,0.083252,-0.140381
1519424246339,-0.070801,-0.159180,-0.401611
1519424246342,-0.438721,-0.369629,-0.436035
1519424246345,-0.429199,-0.731201,0.626953
1519424246395,-1.027100,1.207520,-0.178955
1519424246402,-0.123047,2.110596,-0.393555
1519424246449,2.075195,3.405273,0.381836
1519424246468,1.891113,3.249756,-0.962646
1519424246514,0.753906,1.370117,-0.292969
1519424246568,0.329590,1.429688,-0.336914
1519424246573,-0.161865,1.289063,-0.435303
1519424246616,-0.153320,0.791504,-0.357666
1519424246663,-0.426025,0.576172,0.125732
1519424246666,-0.469482,0.185059,0.365234
1519424246699,-0.539551,-0.212646,0.189453
1519424246746,-0.875977,0.289063,0.526855
1519424246754,-0.889160,0.844727,0.480713
1519424246782,-0.739502,-0.003662,-0.089355
1519424246828,-0.867920,0.446289,-0.246338
1519424246864,-1.267578,2.934814,-0.411865
1519424246930,-0.281738,3.911865,-1.347412
1519424246945,0.917236,3.241699,-1.571533
1519424246992,0.558350,2.749512,-0.859863
1519424246995,0.221924,1.083252,-1.128418
1519424247028,0.323242,0.627197,-0.598633
1519424247075,-0.066650,0.595459,-0.287842
1519424247110,0.465332,0.411133,0.001221
1519424247157,0.267334,0.229248,0.041016
1519424247163,0.366211,0.047119,-0.222656
1519424247192,0.991455,0.519043,0.117676
1519424247238,0.705811,0.079102,-0.057373
1519424247244,0.784424,1.092285,-0.394531
1519424247273,0.513428,2.638672,-0.232178
1519424247320,0.467529,2.505127,-0.429932
1519424247356,-0.002686,2.683838,-0.123535
1519424247371,-0.198486,1.499268,-0.548828
1519424247403,-0.199707,0.793213,-0.360352
1519424247438,-0.812744,0.637939,-0.021973
1519424247471,-1.196777,0.350830,0.040039
1519424247503,-0.641602,0.312988,0.175781
1519424247536,-0.597168,0.234863,0.170654
1519424247568,-0.393799,0.107666,0.069336
1519424247601,-0.527588,0.216064,0.052979
1519424247634,-0.635986,0.140625,-0.083008
1519424247666,-0.832031,2.063721,-0.625244
1519424247699,-0.743652,3.498535,-0.943115
1519424247732,0.059082,3.690918,-0.856934
1519424247764,0.716064,2.918945,-0.648682
1519424247778,0.605713,1.434814,-0.357422
1519424247836,0.691650,0.628906,-0.234131
1519424247868,0.465088,-0.036377,-0.083740
1519424247901,0.504395,-0.484375,0.024170
1519424247933,0.530273,-0.704346,-0.060547
1519424247965,0.440674,-0.476074,-0.147949
1519424247998,0.378906,0.094238,0.048096
1519424248032,0.488281,0.730957,-0.053955
1519424248064,0.665039,1.805420,-0.349121
1519424248095,0.159180,2.748535,-0.325684
1519424248099,-0.852295,3.351563,0.456055
1519424248155,0.500000,2.763428,0.052002
1519424248186,-0.467529,1.332031,-0.286621
1519424248212,-0.579102,0.387695,-0.236084
1519424248245,-0.744141,-0.027344,-0.018799
1519424248277,-0.864014,-0.099854,-0.021240
1519424248309,-0.418213,-0.317139,-0.030762
1519424248342,-0.288086,-0.204590,0.009521
1519424248375,-0.248779,0.317139,0.025635
1519424248411,-0.428955,1.232910,-0.081055
1519424248447,-0.009521,3.240234,-0.396973
1519424248475,0.460938,2.579102,-0.327393
1519424248508,0.445557,1.713135,-0.276855
1519424248540,0.216553,1.335449,-0.161133
1519424248573,0.250732,0.756348,-0.093018
1519424248606,0.203369,0.144043,-0.005859
1519424248638,-0.235107,-0.617676,0.278320
1519424248672,0.475830,-0.369629,-0.107910
1519424248676,0.512695,-0.365723,-0.057129
1519424248735,0.652588,0.827637,-0.222656
1519424248767,0.565186,1.716553,-0.444092
1519424248773,1.168701,3.349854,0.102539
1519424248831,0.399414,2.766846,-0.284424
1519424248863,-0.073486,2.036377,-0.335449
1519424248895,-0.739014,1.592041,-0.225098
1519424248928,-0.595703,0.831299,0.114990
1519424248961,-0.545654,0.195313,0.083984
1519424248993,-0.460938,-0.359375,-0.033936
1519424249007,-0.543213,-0.721191,0.090820
1519424249065,-0.802734,-0.253174,-0.019775
1519424249097,-0.321533,0.034424,-0.077637
1519424249130,-0.520508,0.857666,-0.290283
1519424249161,-0.531250,3.089355,-0.948486
1519424249165,-0.026367,3.017578,-0.479736
1519424249220,1.292236,2.134521,-0.610840
1519424249253,0.344482,1.674072,-0.259277
1519424249258,0.282715,0.893799,-0.038086
1519424249316,0.242676,0.254395,0.013184
1519424249348,0.179199,0.011475,0.022217
1519424249360,0.293701,0.169922,0.089111
1519424249388,0.483398,-0.037109,0.204590
1519424249423,0.571289,0.203125,-0.022461
1519424249492,0.531738,0.733643,-0.319336
1519424249498,0.497314,2.332275,-0.868408
1519424249525,0.312500,2.702637,0.227295
1519424249583,0.083740,2.660156,-0.322510
1519424249589,-0.431152,1.727539,-0.208252
1519424249648,-0.481445,0.990479,-0.113525
1519424249660,-0.380127,0.350830,-0.237061
1519424249692,-0.716064,-0.071533,-0.142334
1519424249724,-0.539307,-0.239258,0.100830
1519424249757,-0.395020,-0.462891,0.083984
1519424249790,-0.328613,-0.370117,-0.129883
1519424249824,-0.375000,0.281738,-0.032715
1519424249840,-0.638428,3.252686,-0.508301
1519424249895,0.783936,3.405518,-0.571045
1519424249926,1.394531,2.139160,-0.445557
1519424249959,0.532715,2.020996,-0.257080
1519424249991,-0.137207,1.347412,-0.061035
1519424250024,0.104736,0.884766,-0.013672
1519424250057,-0.089844,0.447754,0.122803
1519424250089,0.285889,0.539795,0.026611
1519424250122,0.334717,-0.168457,-0.339355
1519424250125,0.057617,-0.145264,-0.084961
1519424250182,0.071533,-0.156738,-0.042236
1519424250215,0.130371,0.113525,-0.172363
1519424250223,0.181152,1.344482,-0.428711
1519424250277,0.180420,2.258057,-0.445313
1519424250310,0.114502,2.703125,-0.447998
1519424250345,0.069336,2.981201,-0.619873
1519424250378,-1.940430,2.352783,0.717529
1519424250384,1.667969,1.497314,-0.442139
1519424250442,-0.734863,0.864258,-0.557617
1519424250475,-0.572754,0.333984,-0.320557
1519424250507,-0.328857,0.031982,-0.440918
1519424250539,-0.360840,-0.191895,-0.344971
1519424250572,-0.241699,-0.317627,-0.243164
1519424250605,-0.303955,-0.365723,-0.159424
1519424250638,-0.370605,-0.344971,-0.110840
1519424250652,-0.625244,0.388672,-0.229492
1519424250708,-0.805908,3.068115,-0.601807
1519424250715,-0.766846,2.590820,0.285156
1519424250772,-0.216797,2.136475,0.326172
1519424250804,-0.346436,2.318604,0.386230
1519424250807,0.139404,1.832275,0.262451
1519424250875,0.328125,1.265625,0.046143
1519424250880,0.103516,0.718994,-0.031738
1519424250942,0.096924,0.253906,-0.136475
1519424250948,-0.002686,-0.133301,-0.268311
1519424251009,-0.053467,-0.333252,-0.425537
1519424251012,0.035645,-0.323242,-0.426270
1519424251077,0.214111,0.066895,-0.010010
1519424251145,0.343506,1.072266,-0.170410
1519424251212,0.180420,2.053223,-0.329834
1519424251217,-0.529541,3.463135,0.085938
1519424251279,0.100098,2.470215,-0.133545
1519424251282,-0.342285,1.545654,-0.279785
1519424251332,-0.662598,0.978027,-0.344238
1519424251338,-1.124023,0.369629,-0.195068
1519424251343,-0.282715,0.008545,-0.184082
1519424251348,-0.445068,-0.047607,-0.003662
1519424251369,-0.283691,-0.174561,0.295410
1519424251402,-0.105957,0.286865,0.132568
1519424251434,-0.775391,0.862549,-0.213135
1519424251466,-0.783447,1.493408,-0.372070
1519424251499,-0.649414,3.258789,-0.510254
1519424251532,0.116211,2.787842,-0.786621
1519424251564,0.761719,2.012451,-0.656006
1519424251597,0.805664,1.510742,-0.425293
1519424251631,0.137695,0.600342,-0.262451
1519424251662,0.310791,-0.147705,-0.202393
1519424251694,0.244141,-0.824219,-0.121338
1519424251728,0.105225,-0.613037,-0.164551
1519424251760,0.402588,-0.031006,-0.021240
1519424251793,0.688477,0.642822,-0.303711
1519424251825,0.581055,1.785156,-0.237305
1519424251857,0.406494,2.416260,-0.395508
1519424251865,0.386963,3.082520,0.138672
1519424251920,-0.095459,2.047363,-0.111572
1519424251953,-0.543457,1.595947,-0.121094
1519424251960,-0.532715,1.015869,-0.092529
1519424252017,-0.509766,0.029785,0.015625
1519424252052,-0.916992,-0.359131,0.083496
1519424252084,-0.639160,-0.556396,0.032471
1519424252117,-0.627686,-0.024902,-0.102295
1519424252150,-0.544922,0.444824,0.117432
1519424252182,-0.545898,0.884277,-0.012451
1519424252215,-0.802490,3.708740,-0.849854
1519424252247,0.153809,3.343994,-0.583496
1519424252281,0.863770,2.592285,-0.608398
1519424252314,0.189697,1.513184,-0.428223
1519424252346,0.368408,0.491943,-0.125244
1519424252351,0.260254,-0.024170,-0.060791
1519424252405,0.256836,-0.820557,-0.237305
1519424252410,0.080322,-0.760010,-0.194336
1519424252468,0.233398,-0.187256,-0.286865
1519424252500,0.615967,-0.135010,0.083740
1519424252533,0.656006,1.075439,-0.282227
1519424252565,0.694092,2.882813,-0.555176
1519424252598,0.285400,3.518555,0.716797
1519424252630,0.481201,2.713867,-0.177734
1519424252663,-0.250732,2.203125,-0.192871
1519424252695,-0.304932,0.847412,-0.533447
1519424252728,-0.356201,0.377441,-0.453613
1519424252761,-1.061279,0.079590,-0.177979
1519424252794,-0.858643,-0.239990,0.157959
1519424252826,-0.919189,0.097656,0.097168
1519424252832,-0.513184,0.199219,-0.024414
1519424252884,-0.958008,0.371826,-0.092773
1519424252918,-1.235840,0.974121,-0.533691
1519424252949,-1.763916,3.125244,-1.126709
1519424252982,0.213135,2.675537,-1.037598
1519424253014,1.282715,2.701660,-0.862305
1519424253047,1.291992,1.236816,-0.609375
1519424253079,0.128662,0.327881,-0.329346
1519424253113,0.133057,-0.042725,-0.024658
1519424253145,-0.136475,-0.186279,0.159424
1519424253178,-0.200195,-0.524170,-0.206543
1519424253210,-0.268799,-0.466797,-0.281494
1519424253247,-0.040771,-0.093506,-0.373535
1519424253279,0.352539,0.369141,0.052002
1519424253331,1.139648,2.227051,-0.448975
1519424253335,1.312012,4.164063,0.189697
1519424253365,0.599854,3.383545,0.127686
1519424253397,-0.381836,2.654541,0.946289
1519424253430,-0.222900,1.342285,0.242188
1519424253463,-0.755615,0.582520,0.281982
1519424253496,-0.687256,0.301758,0.211426
1519424253530,-0.481445,0.356201,0.214111
1519424253563,-0.430420,-0.031982,0.138672
1519424253595,-0.308350,-0.346924,0.066650
1519424253629,-0.207764,-0.187012,-0.008057
1519424253661,-0.410156,-0.003174,-0.089844
1519424253693,-1.188721,1.351074,-0.161621
1519424253726,-1.150146,1.943115,-0.311035
1519424253757,-0.087158,1.676025,-0.332031
1519424253790,0.323975,1.635742,-0.555176
1519424253824,1.176270,1.597900,-0.552490
1519424253855,0.981689,0.601807,-0.161133
1519424253888,0.263184,0.618896,0.006836
1519424253891,0.150391,0.445801,-0.000977
1519424253948,0.018311,0.048828,-0.027832
1519424253979,0.133057,0.875244,0.229736
1519424254012,0.482178,0.844971,1.110352
1519424254044,0.808350,1.659912,0.706543
1519424254076,1.132568,2.504395,0.410889
1519424254109,0.728516,2.740234,-0.161865
1519424254141,0.022949,1.933350,0.081787
1519424254174,-0.266357,0.998779,0.118896
1519424254210,-0.432129,0.200195,0.269287
1519424254243,-0.561279,-0.409668,0.129883
1519424254275,-0.505615,-0.267578,0.161621
1519424254308,-0.509277,-0.015137,0.075684
1519424254340,-0.278320,0.205566,0.130127
1519424254373,-0.183594,0.343262,0.114014
1519424254405,-0.375977,0.493896,0.132568
1519424254436,-0.793213,1.859131,0.234619
1519424254469,-0.411133,2.435791,0.062012
1519424254472,0.315918,2.040283,-0.029785
1519424254528,0.988770,1.417969,-0.196289
1519424254560,0.658691,0.919922,-0.017334
1519424254568,0.667969,0.460938,0.066406
1519424254644,0.213135,0.261230,-0.153564
1519424254653,0.032227,0.084717,-0.304443
1519424254677,-0.048828,0.027832,-0.284180
1519424254711,0.176514,0.138672,0.323486
1519424254743,0.186035,1.008545,0.352539
1519424254775,0.693604,2.788574,0.526123
1519424254808,1.931641,2.745850,1.092773
1519424254839,1.202393,2.245117,1.020752
1519424254872,0.669189,1.616943,1.219971
1519424254904,0.060791,0.407227,0.752930
1519424254962,-0.477051,-0.179199,0.197510
1519424254966,-0.811035,-0.181885,0.165039
1519424255024,-0.736084,0.135254,-0.027100
1519424255058,-0.500488,0.338623,-0.193604
1519424255067,-0.495117,0.907227,-0.062744
1519424255091,-1.132080,1.519043,-0.192871
1519424255123,-0.373047,1.779297,0.116699
1519424255160,-0.162354,1.733887,0.173828
1519424255192,0.391602,0.891357,-0.176758
1519424255225,1.056885,0.576172,-0.222656
1519424255258,0.565430,0.474854,0.033936
1519424255290,0.129639,-0.144531,-0.170654
1519424255322,0.318115,-0.128662,-0.198242
1519424255356,0.456055,-0.102783,-0.044922
1519424255388,0.787109,2.081055,0.272217
1519424255420,1.527100,3.018555,0.447510
1519424255453,1.707031,3.306152,0.763916
1519424255484,0.545410,1.545410,0.744873
1519424255517,0.152344,1.215820,1.071045
1519424255558,0.267090,1.149414,0.439209
1519424255590,-0.253418,1.062988,0.303711
1519424255598,-0.350586,0.572998,0.152100
1519424255654,-0.388916,0.301270,0.072510
1519424255688,-0.377686,-0.011475,0.096924
1519424255721,-0.318115,-0.039795,0.117920
1519424255752,-0.478027,-0.005615,0.043213
1519424255785,-0.556885,0.077393,-0.045654
1519424255858,-0.936768,-0.000977,-0.173096
1519424255869,-1.175293,2.726807,-0.318359
1519424255924,-0.606201,2.934326,-0.421631
1519424255994,0.806885,1.958252,-0.407959
1519424256061,0.546631,1.750244,-0.052734
1519424256069,0.721436,0.704834,-0.149170
1519424256127,0.594238,0.270020,-0.161621
1519424256130,0.362549,0.150879,0.007568
1519424256194,0.320557,0.420898,0.087158
1519424256198,0.194336,0.220703,0.117432
1519424256262,0.217773,0.090088,0.116699
1519424256266,0.444092,0.554688,0.344727
1519424256329,0.600586,0.657959,0.441162
1519424256332,0.973145,1.979248,0.066162
1519424256358,0.916748,2.576660,0.776367
1519424256363,0.469238,2.214600,0.543701
1519424256367,0.201172,1.942139,0.628418
1519424256374,0.051514,0.779297,1.124268
1519424256378,-0.499023,0.734131,0.791260
1519424256437,-0.322266,0.178711,0.481201
1519424256468,-0.636963,-0.121094,-0.006836
1519424256500,-0.467529,0.232910,-0.020752
1519424256504,-0.481934,0.202637,-0.175049
1519424256559,-0.865234,-0.663086,-0.473389
1519424256592,-1.267578,0.324707,-0.443115
1519424256595,-1.909668,3.514648,-0.348633
1519424256651,-0.009277,2.575439,-0.498779
1519424256684,0.453857,2.549805,-0.121582
1519424256717,0.504150,2.544434,0.222168
1519424256749,0.578125,0.965332,-0.050537
1519424256763,0.388916,0.671143,0.024414
1519424256795,0.264893,0.400146,-0.028320
1519424256852,0.254150,0.219727,-0.007813
1519424256884,0.154785,0.085938,0.057617
1519424256918,0.104492,0.086914,0.083008
1519424256950,0.505127,0.706787,0.394287
1519424256981,0.714111,0.890869,0.495605
1519424257014,1.105713,1.596924,0.445068
1519424257047,1.044922,2.379883,1.096436
1519424257079,0.364502,1.963379,0.940430
1519424257083,0.019287,1.560303,0.757568
1519424257139,-0.475342,0.617920,0.942139
1519424257171,-0.614258,0.845215,0.774170
1519424257174,-0.546387,0.545654,0.350342
1519424257231,-0.715820,0.147461,0.103760
1519424257263,-0.495361,0.107178,0.113770
1519424257296,-0.410889,0.069580,-0.101074
1519424257341,-0.639404,-0.417969,-0.352295
1519424257361,-0.992432,-0.325195,-0.498535
1519424257393,-1.597168,0.772461,-0.421143
1519424257407,-0.442139,1.401855,-0.838135
1519424257466,0.515625,3.533447,-0.779053
1519424257498,2.076172,3.368164,-0.418213
1519424257531,1.239014,2.243408,-0.338867
1519424257564,1.248047,1.798828,0.150635
1519424257578,0.709717,1.175537,0.273193
1519424257610,0.071533,0.502686,0.229492
1519424257642,-0.093750,0.348877,0.207031
1519424257676,0.020996,-0.096924,0.231934
1519424257733,-0.022217,-0.483154,0.437256
1519424257742,0.279785,-0.448486,0.592773
1519424257765,0.702637,0.168945,0.596191
1519424257798,1.347656,1.197754,0.115234
1519424257831,2.110107,2.319092,0.029541
1519424257863,1.458984,3.695068,0.257080
1519424257895,-0.022949,2.926514,-0.027100
1519424257929,-0.503174,1.549561,-0.222900
1519424257960,-1.144043,0.957031,0.056396
1519424257993,-0.646973,0.220947,0.270996
1519424258026,-0.467285,-0.327637,0.431885
1519424258063,-0.554688,-0.680420,0.010010
1519424258096,-0.126221,-0.607666,-0.126953
1519424258128,0.009033,-0.455322,0.241699
1519424258159,-0.137451,0.197021,0.048096
1519424258192,-0.648193,1.332031,-0.383789
1519424258225,-0.616455,2.044922,-0.297852
1519424258260,0.021240,2.349854,-0.396973
1519424258289,0.890869,1.310791,-0.221191
1519424258322,0.915527,0.833740,0.188232
1519424258355,0.583984,0.983887,0.051758
1519424258388,0.272461,0.157715,-0.146240
1519424258429,0.116943,0.033447,-0.096680
1519424258452,-0.050049,0.212646,0.072266
1519424258485,0.633789,1.353027,0.983154
1519424258517,1.212158,1.976318,0.568115
1519424258525,2.032227,2.355225,0.441895
1519424258580,1.318115,2.123047,0.466553
1519424258613,0.454590,1.903809,0.407471
1519424258621,0.072021,1.046875,0.331787
1519424258677,-0.646484,0.032471,0.185059
1519424258709,-0.924316,-0.362305,0.479492
1519424258743,-0.477539,-0.247070,0.342041
1519424258776,-0.517090,-0.071289,0.053223
1519424258809,-0.356445,0.049805,0.164063
1519424258821,-0.238525,0.305420,0.250977
1519424258878,-0.601318,0.719482,0.032959
1519424258910,-0.076904,2.590088,0.193848
1519424258943,0.510742,2.808838,0.565674
1519424258951,0.620850,1.086426,0.313232
1519424259008,0.869385,0.525391,0.391846
1519424259044,0.862305,0.421875,0.307373
1519424259077,0.828369,0.707764,0.480469
1519424259108,0.582764,0.890625,0.172852
1519424259118,0.333496,0.091553,-0.042725
1519424259167,0.147705,0.162354,0.110596
1519424259201,0.160645,0.225098,-0.102539
1519424259210,0.172363,-0.353271,-0.367676
1519424259258,0.364502,0.002930,-0.473633
1519424259290,0.632080,0.860840,0.206787
1519424259323,2.020508,3.486816,0.716064
1519424259356,1.541016,2.408936,1.464844
1519424259388,0.089844,2.051514,1.013672
1519424259421,-0.587891,1.735596,0.982910
1519424259455,-1.364746,0.208008,0.635742
1519424259486,-1.148438,0.870361,0.741211
1519424259519,-1.132324,0.557129,0.402588
1519424259552,-0.710449,0.234863,0.186768
1519424259583,-0.190918,0.647949,0.235840
1519424259617,-0.526611,0.920410,0.045410
1519424259658,-0.734131,3.409912,0.250977
1519424259689,0.742676,1.593018,-0.419189
1519424259692,1.510742,1.762207,-0.375732
1519424259732,1.227295,0.972656,-0.231934
1519424259765,1.262695,0.477539,-0.432129
1519424259796,0.772705,0.303955,-0.195313
1519424259856,0.128418,0.005371,-0.362549
1519424259868,0.117432,0.007813,-0.397461
1519424259888,0.287354,0.327881,-0.217285
1519424259920,0.231934,0.284180,0.060791
1519424259954,0.404541,0.416992,0.106445
1519424259990,0.730469,1.343262,0.327881
1519424260023,1.787842,3.173340,0.336914
1519424260064,2.168701,3.142090,0.698486
1519424260097,0.694580,2.810059,0.675781
1519424260129,0.592285,1.415039,0.643066
1519424260162,0.145264,0.639893,0.415039
1519424260194,-0.131836,0.056152,0.265137
1519424260227,-0.463379,-0.339355,0.192627
1519424260261,0.003418,-0.423096,0.236084
1519424260270,-0.402588,-0.311279,-0.140869
1519424260323,-0.187744,-0.173828,0.049072
1519424260357,-0.301514,0.090576,0.077148
1519424260366,-0.487549,0.370605,0.164063
1519424260419,-0.476807,1.368164,0.223877
1519424260433,0.049072,1.837158,0.062988
1519424260465,0.808350,1.516357,-0.030029
1519424260523,1.023926,1.182861,0.116455
1519424260529,0.818604,0.692871,0.079590
1519424260584,0.533936,0.242920,-0.252930
1519424260617,0.270752,1.059570,-0.035400
1519424260649,0.479492,1.125000,0.164551
1519424260682,0.656982,0.639160,-0.011475
1519424260716,1.085205,0.704590,0.140625
1519424260749,1.540283,1.095703,0.462158
1519424260781,2.852539,1.844238,0.257324
1519424260853,2.123779,2.250977,0.592529
1519424260856,1.362549,1.575684,0.625488
1519424260919,0.331543,0.967529,0.648438
1519424260924,-0.239258,-0.090820,0.436523
1519424260988,-0.338867,-0.512939,0.365479
1519424260998,-0.284180,-0.457031,-0.023682
1519424261055,-0.287109,-0.270752,-0.035645
1519424261059,-0.319580,-0.039307,0.046387
1519424261121,-0.400146,0.201416,0.104736
1519424261125,-0.406494,0.143066,0.190918
1519424261191,-0.725342,0.777344,0.106201
1519424261203,-0.248535,2.001465,-0.057617
1519424261257,1.354492,1.642334,0.071533
1519424261261,1.508545,2.230225,0.749268
1519424261324,1.492432,1.387207,0.336426
1519424261327,1.934082,1.405762,0.036865
1519424261360,0.905762,0.752686,0.207764
1519424261365,0.334473,0.556152,0.310303
1519424261377,0.152100,0.383057,0.400879
1519424261408,0.262207,0.000000,1.022705
1519424261441,0.066162,-0.839600,0.766357
1519424261474,1.127930,1.199463,-0.418945
1519424261506,2.137451,1.946289,-0.598145
1519424261538,1.796875,2.303467,0.339600
1519424261570,1.624023,2.418213,-0.166992
1519424261603,0.667969,1.766357,0.019531
1519424261635,-0.125244,0.999268,-0.082520
1519424261668,-0.978760,0.373291,0.159180
1519424261701,-0.167969,0.317871,1.227783
1519424261734,-1.107910,-0.879150,0.233887
1519424261767,-0.604004,-0.337646,0.190918
1519424261800,-0.429443,-0.120850,0.061279
1519424261832,-0.383545,0.376709,0.054199
1519424261863,-0.314697,0.966797,0.027832
1519424261896,-0.767822,1.663330,0.173828
1519424261930,-0.240479,2.151611,-0.032227
1519424261963,0.816895,1.398682,-0.104492
1519424261995,1.672852,1.450195,0.469727
1519424262028,1.252441,1.411621,0.327881
1519424262061,1.016113,0.758057,-0.101318
1519424262074,0.713379,0.657471,0.048828
1519424262133,0.381836,0.171631,0.074951
1519424262142,0.254883,0.428955,0.145996
1519424262197,0.303467,0.473389,0.253418
1519424262229,0.360107,0.253906,0.448486
1519424262261,0.818604,0.592041,0.645264
1519424262293,1.528076,1.886963,0.908203
1519424262296,1.750488,2.370605,1.018311
1519424262352,0.688721,1.653809,0.524170
1519424262384,0.197510,1.492676,0.526123
1519424262389,-0.101318,0.955322,0.415527
1519424262447,-0.750000,0.381104,0.284912
1519424262479,-0.953857,0.148682,0.287109
1519424262493,-0.690674,0.127686,0.352051
1519424262552,-0.641602,-0.006836,0.192627
1519424262560,-0.570068,-0.096191,0.117188
1519424262609,-0.494385,0.342529,0.010742
1519424262644,-0.861328,2.078369,-0.085938
1519424262674,0.021484,3.959229,0.038330
1519424262706,1.288574,2.560791,0.138672
1519424262739,0.460205,1.802246,0.236084
1519424262772,0.628662,1.882813,0.292969
