1519426279811,0.705566,-0.311768,-0.363281
1519426279814,0.566162,0.165039,-0.177002
1519426279818,0.511475,-0.271973,-0.118408
1519426279820,0.421631,-0.571289,-0.047607
1519426279822,-0.327148,-1.006836,-0.174316
1519426279824,-0.872314,-1.680176,-0.224121
1519426279826,-2.041504,-2.602295,0.118408
1519426279862,-1.875000,-2.133545,-0.257813
1519426279910,-1.338135,-1.105225,-0.217773
1519426279914,-1.033936,-0.573486,-0.284424
1519426279960,-0.653564,0.024658,-0.165771
1519426279986,-0.392822,0.194336,-0.056396
1519426280026,-0.113525,0.259277,0.004883
1519426280076,-0.054688,0.266846,-0.068604
1519426280100,-0.211914,0.468750,-0.244141
1519426280127,-0.341553,0.512207,-0.326172
1519426280157,-0.931641,0.015869,-0.635010
1519426280186,-2.130615,-1.297363,-1.132568
1519426280214,-1.485107,-3.352539,-0.654053
1519426280255,-1.643066,-2.128906,-0.708496
1519426280279,-1.128662,-1.365234,-0.388428
1519426280305,-0.730225,-0.801758,-0.121338
1519426280350,-0.557129,-0.584473,-0.275146
1519426280373,-0.268066,-0.421875,-0.395508
1519426280416,0.489990,0.241943,-0.367188
1519426280437,0.869873,-0.114990,-0.192871
1519426280480,0.707031,-0.418945,-0.089355
1519426280508,0.704834,-0.725098,-0.151367
1519426280561,-0.030762,-0.729248,-0.296143
1519426280591,-0.853271,-1.878174,-0.390381
1519426280597,-2.441650,-3.055908,-0.666016
1519426280644,-2.161133,-1.578613,-0.536133
1519426280672,-1.575439,-1.508301,-0.477539
1519426280693,-1.228516,-0.943115,-0.230225
1519426280749,-0.538818,-0.325684,-0.236572
1519426280755,-0.214355,0.188232,-0.170898
1519426280805,-0.190186,0.478516,-0.084229
1519426280843,-0.041016,0.713867,-0.036865
1519426280873,-0.068359,0.916504,-0.316895
1519426280896,-0.265869,0.581543,-0.338379
1519426280921,-0.730713,0.218506,-0.748779
1519426280965,-1.828369,-0.733398,-1.070557
1519426280993,-1.469238,-3.033203,-0.645020
1519426281043,-2.203613,-2.460449,-1.985352
1519426281070,-1.107910,-1.853271,-0.408936
1519426281097,-0.742188,-0.366943,-0.298584
1519426281121,-0.680176,-1.001953,-0.288330
1519426281173,-0.058105,-0.433594,-0.392578
1519426281195,0.328857,-0.190674,-0.344971
1519426281222,0.605713,0.030029,-0.156494
1519426281261,0.683594,-0.174072,-0.066650
1519426281290,0.691406,-0.320313,-0.095947
1519426281331,0.061768,-0.585938,-0.232666
1519426281352,-0.591553,-1.152588,-0.493652
1519426281373,-1.899902,-3.575928,0.538086
1519426281419,-1.914551,-1.708984,-0.873291
1519426281462,-1.738037,-1.230713,-0.502197
1519426281465,-1.353027,-0.888184,-0.340332
1519426281535,-0.993408,-0.637939,-0.230957
1519426281536,-0.715088,-0.144043,-0.218018
1519426281573,-0.461426,0.299805,-0.111084
1519426281619,-0.205811,0.389648,-0.143066
1519426281639,0.168945,0.502930,-0.038330
1519426281665,-0.295898,0.411865,-0.204590
1519426281714,-0.349365,0.016113,-0.591064
1519426281743,-0.782959,0.207764,-0.337402
1519426281767,-1.429199,-0.694580,-0.720459
1519426281796,-1.763184,-3.041016,-0.607666
1519426281835,-1.485840,-2.903564,-0.543701
1519426281869,-1.164551,-1.767578,0.056641
1519426281903,-0.424561,-0.644775,0.085693
1519426281933,-0.105469,-0.531738,0.039063
1519426281979,0.283447,-0.242676,-0.108643
1519426282001,0.720947,0.276611,-0.061279
1519426282051,0.623779,0.212402,-0.056641
1519426282081,0.940186,-0.368164,-0.269287
1519426282103,-0.064941,-0.862305,-0.413330
1519426282152,-0.693604,-1.167969,-0.578125
1519426282192,-1.273926,-2.228027,-0.265869
1519426282219,-1.609619,-2.440918,-0.093506
1519426282244,-1.930664,-2.172119,-0.441895
1519426282271,-1.234375,-0.797852,-0.348633
1519426282431,-0.768066,-0.152344,-0.161133
1519426282457,-0.605713,0.021729,-0.005615
1519426282491,-0.461670,0.076904,0.075439
1519426282525,-0.127197,0.071533,0.011475
1519426282553,0.098633,0.332031,-0.133301
1519426282582,-0.125244,0.669922,-0.238770
1519426282606,-0.410156,0.483398,-0.239014
1519426282616,-1.248535,0.318115,-0.759277
1519426282618,-1.919922,-1.399902,-1.585693
1519426282633,-0.932129,-3.488281,-1.030762
1519426282638,-1.294434,-2.364258,-0.698486
1519426282661,-1.415039,-1.763428,-0.007080
1519426282688,-0.638916,-0.402100,0.067627
1519426282731,-0.276123,-0.225830,-0.058594
1519426282747,0.171387,-0.236572,-0.317383
1519426282797,0.915527,0.214600,-0.374268
1519426282826,0.274414,-0.018799,-0.359619
1519426282856,0.416504,-0.202148,-0.255127
1519426282879,0.252686,-0.567139,-0.086670
1519426282913,-0.488281,-0.673584,-0.402344
1519426282936,-1.011719,-1.817627,-0.446533
1519426282985,-0.948975,-2.131836,-0.696289
1519426283012,-2.051758,-2.250732,-0.563477
1519426283025,-1.418457,-1.370605,-0.422363
1519426283092,-0.882568,-0.809326,-0.128174
1519426283100,-0.537354,-0.314209,-0.151123
1519426283154,-0.307861,0.139893,-0.190186
1519426283179,-0.329834,0.517578,-0.208008
1519426283202,-0.343750,0.632568,-0.228271
1519426283226,-0.259277,0.458496,-0.169189
1519426283276,-0.478271,0.223389,-0.204102
1519426283310,-0.938721,0.102051,-0.505371
1519426283339,-1.911133,-1.054443,-1.468994
1519426283366,-0.782227,-2.354248,-0.682129
1519426283391,-1.128906,-1.954834,-1.210205
1519426283443,-1.093506,-2.215576,-0.639160
1519426283464,-0.703857,-0.755127,-0.100586
1519426283494,-0.494141,-0.491943,-0.044189
1519426283550,-0.129395,-0.492188,-0.255127
1519426283572,0.989502,0.116211,-0.313477
1519426283593,0.405518,0.283691,-0.197266
1519426283642,0.345703,-0.109619,-0.353760
1519426283670,0.454590,-0.739990,-0.259033
1519426283697,0.206055,-0.782227,0.242676
1519426283729,-0.605469,-0.752197,-0.428711
1519426283786,-2.000244,-4.049072,0.200195
1519426283791,-1.914307,-2.356934,-1.095947
1519426283816,-1.703369,-1.192139,-0.573242
1519426283868,-0.876709,-0.303711,-0.144775
1519426283891,-0.661377,-0.016113,-0.139160
1519426283913,-0.502930,0.258057,-0.115723
1519426283956,-0.435791,0.428955,-0.232178
1519426284001,-0.596191,0.473877,-0.272949
1519426284031,-0.418213,0.391846,-0.183594
1519426284040,-0.350586,0.447754,-0.118408
1519426284077,-1.214600,0.577637,-0.408203
1519426284127,-2.271973,-1.267822,-3.366455
1519426284157,-0.886475,-2.215820,-2.059082
1519426284186,-0.899170,-1.241943,-1.493896
1519426284216,-0.830322,-1.630859,-1.034912
1519426284239,-0.510254,-1.599365,0.105225
1519426284290,-0.404053,-0.981201,-0.174072
1519426284298,-0.043945,-0.635254,-0.229248
1519426284344,0.597656,-0.068848,-0.207275
1519426284368,0.905273,0.408447,-0.254883
1519426284396,0.656494,-0.132568,-0.156738
1519426284443,0.363770,-0.576904,-0.064453
1519426284469,-0.096436,-1.095947,-0.609863
1519426284501,-0.546631,-1.590088,-0.699463
1519426284528,-0.329102,-2.394531,-0.789307
1519426284580,-0.255859,-3.082031,-0.729736
1519426284602,-0.344482,-2.696289,-0.346436
1519426284652,-0.504883,-1.083740,-0.114502
1519426284655,-0.494629,-0.314453,-0.046387
1519426284700,-0.618652,-0.168945,-0.100830
1519426284733,-0.774902,-0.063965,-0.119873
1519426284758,-1.069092,0.584473,-0.243896
1519426284795,-0.987549,0.316162,-0.508057
1519426284822,-1.029297,-0.502686,-0.557617
1519426284863,-0.998779,-1.031738,-0.530762
1519426284910,0.467773,-4.724121,-0.020264
1519426284941,1.455322,-3.427246,0.957031
1519426284970,1.517822,-2.781494,1.106201
1519426284977,1.135498,-1.295166,0.743408
1519426285027,0.759521,-0.678955,0.419434
1519426285064,0.578369,-0.390381,0.319580
1519426285090,0.464355,-0.104492,0.319092
1519426285140,0.344971,-0.052979,0.269287
1519426285147,0.543213,-0.128906,0.191406
1519426285194,0.865723,-0.036865,0.255615
1519426285226,0.668213,0.165039,0.391357
1519426285235,0.561523,-0.048828,0.556396
1519426285289,0.199219,-0.624756,0.413818
1519426285307,0.265625,-2.996338,-0.537842
1519426285354,-0.276611,-3.307617,-0.682129
1519426285380,-0.680908,-2.461670,-0.573242
1519426285405,-1.149902,-2.085205,-0.778320
1519426285435,-0.551025,-1.334229,-0.317383
1519426285480,-0.422607,-0.498047,-0.085938
1519426285508,-0.333008,0.284424,-0.206787
1519426285556,-0.407959,0.508545,-0.194824
1519426285573,-0.751221,0.404541,-0.145752
1519426285602,-0.732666,0.373291,-0.391357
1519426285633,-1.142578,0.199463,-0.461670
1519426285692,-1.590576,-1.093506,-1.237061
1519426285711,-0.958008,-2.972412,-1.435303
1519426285735,-0.543457,-1.355957,-0.625000
1519426285759,-0.579590,-1.520264,-0.405762
1519426285804,-0.586670,-1.373047,-0.092529
1519426285851,-0.510498,-0.780029,0.009277
1519426285859,-0.218750,-0.432861,-0.267334
1519426285923,0.888672,-0.036865,-0.335693
1519426285928,0.805420,0.036621,-0.208008
1519426285977,0.610107,-0.218994,-0.115234
1519426286004,0.384766,-0.575195,-0.091064
1519426286038,-0.292969,-1.049805,-0.434326
1519426286068,-1.166260,-2.665039,0.121338
1519426286101,-1.721924,-2.287842,-0.366943
1519426286126,-1.642090,-1.320557,0.020020
1519426286157,-0.972412,-0.921875,0.093994
1519426286203,-0.663330,-0.549805,-0.162842
1519426286225,-0.317627,0.052979,-0.179688
1519426286255,-0.187012,0.060791,-0.057373
1519426286305,0.104492,0.099121,-0.056885
1519426286342,-0.137695,0.148926,-0.091064
1519426286365,-0.447266,-0.052002,-0.146240
1519426286393,-0.730713,0.114258,-0.535889
1519426286419,-1.458740,-0.523193,-0.879150
1519426286447,-2.878174,-2.626221,-0.468018
1519426286493,-1.145508,-1.646240,-0.408936
1519426286522,-1.534912,-2.158203,0.070313
1519426286543,-0.590088,-1.189453,0.508301
1519426286590,0.078369,-0.209229,0.754639
1519426286620,0.464355,-0.001709,0.423096
1519426286648,0.810547,-0.257568,-0.139648
1519426286687,0.775146,-0.069336,-0.317383
1519426286709,0.516602,-0.164307,-0.345703
1519426286740,0.088867,-0.857910,-0.231934
1519426286784,-1.542725,-1.617920,-0.052002
1519426286806,-1.335938,-1.918701,-0.035400
1519426286836,-1.818848,-1.549072,-0.072998
1519426286884,-2.136475,-0.869629,-0.252930
1519426286915,-1.495361,-1.096680,-0.204590
1519426286938,-0.988037,-0.201660,0.000977
1519426286979,-0.486328,0.167969,0.040527
1519426287016,-0.039307,0.164307,0.153076
1519426287041,0.240479,0.344482,0.385742
1519426287067,0.196045,-0.038086,0.093018
1519426287110,-0.578613,0.356689,-0.490723
1519426287139,-0.897949,0.657227,-0.617188
1519426287180,-2.560547,-1.697754,-0.998535
1519426287210,-1.552979,-1.168213,-0.426514
1519426287237,-2.394043,-1.411377,-0.541016
1519426287267,-1.412598,-1.049316,0.050537
1519426287296,-0.766113,-0.463379,-0.026123
1519426287322,-0.074219,-0.556152,-0.152344
1519426287364,0.936279,-0.482666,-0.318115
1519426287413,0.944580,-0.270264,-0.536621
1519426287417,0.363281,-0.630859,-0.031006
1519426287470,0.321289,-1.030273,-0.116699
1519426287495,-0.361816,-0.868652,-0.050293
1519426287523,-1.685059,-0.892578,0.026367
1519426287546,-1.900391,-2.243652,0.835938
1519426287599,-1.724365,-1.722412,-0.040039
1519426287631,-1.670410,-1.192871,0.052246
1519426287657,-1.054932,-0.267578,0.204590
1519426287683,-0.618164,-0.023682,0.076172
1519426287708,-0.204590,0.163330,-0.324219
1519426287761,-0.139160,0.487305,0.000977
1519426287811,0.003662,0.315918,-0.116455
1519426287837,-0.276611,0.152100,-0.160400
1519426287884,-0.862549,-0.046631,-0.276123
1519426287909,-1.977539,-0.154053,-0.245605
1519426287936,-2.016846,-1.488525,-1.008301
1519426287944,-1.697021,-1.400635,-0.326172
1519426287969,-1.853027,-0.965332,-0.121094
1519426288027,-1.155518,-1.441406,-0.191162
1519426288050,-0.827881,-0.526367,-0.040527
1519426288075,-0.222656,-0.402100,-0.171143
1519426288097,0.423828,-0.541016,-0.163818
1519426288158,0.784668,-0.222900,-0.140137
1519426288163,0.669922,-0.535645,-0.285889
1519426288191,0.463135,-0.725098,-0.381104
1519426288255,-0.081299,-0.170166,-0.103516
1519426288258,-1.245117,-0.764893,0.237549
1519426288309,-3.229980,-3.343506,-0.520752
1519426288329,-1.833984,-1.260010,0.059570
1519426288359,-1.639160,-0.788818,-0.184814
1519426288400,-1.250977,-0.331055,-0.249756
1519426288428,-0.603027,-0.336426,-0.048340
1519426288458,-0.256348,-0.079346,-0.015137
1519426288496,0.119629,0.289551,-0.088379
1519426288539,0.174805,0.488037,-0.153809
1519426288571,0.083740,0.810303,-0.261230
1519426288595,-0.459229,0.357422,-0.409180
1519426288636,-1.562500,-0.533691,-0.513184
1519426288661,-2.972900,-2.109131,-0.860107
1519426288687,-2.224609,-1.405029,-1.219238
1519426288739,-1.688477,-1.191895,-0.428467
1519426288742,-1.381592,-1.021729,-0.361816
1519426288782,-0.858398,-0.745361,-0.177490
1519426288825,-0.142822,-0.116211,-0.315918
1519426288856,0.669434,0.333984,-0.504883
1519426288891,0.784668,0.251709,-0.421875
1519426288907,0.560059,-0.200684,-0.260254
1519426288952,0.579590,-0.953857,-0.309570
1519426288972,0.334717,-1.046143,-0.235352
1519426289044,-0.898438,-1.660645,-0.186523
1519426289049,-2.531250,-3.472412,-1.065186
1519426289072,-2.683594,-1.268066,-0.833984
1519426289117,-1.538330,-0.773682,-0.206299
1519426289140,-1.257813,-0.339111,-0.217041
1519426289169,-0.648926,-0.030762,-0.142090
1519426289221,-0.245117,-0.101807,-0.026855
1519426289250,0.151611,0.020020,-0.052246
1519426289276,0.358154,0.419922,-0.024414
1519426289310,-0.067139,0.696045,-0.267334
1519426289353,-0.514404,0.464844,-0.572266
1519426289357,-0.850098,0.094727,-0.922119
1519426289404,-4.315430,-1.848877,-0.625244
1519426289444,-1.211426,-2.777344,-1.516846
1519426289468,-1.302246,-1.612061,-0.783936
1519426289514,-1.070557,-0.773682,-0.065918
1519426289525,-0.804199,-0.592529,-0.077393
1519426289558,-0.491699,-0.685791,-0.284180
1519426289622,0.044189,-0.177490,-0.230957
1519426289628,0.900146,0.067383,-0.397949
1519426289671,0.520020,-0.349121,-0.552490
1519426289694,1.037354,-0.259033,-0.187012
1519426289723,0.438477,-0.396729,0.017822
1519426289767,-0.645264,-1.179688,-0.062256
1519426289788,-2.014404,-3.288086,-0.864258
1519426289831,-2.669434,-1.563232,-0.439209
1519426289856,-1.758057,-0.831543,-0.163086
1519426289885,-1.519775,-0.560547,-0.139160
1519426289923,-0.844482,-0.389648,-0.112793
1519426289964,-0.338623,-0.163574,-0.069336
1519426289993,0.236816,0.662109,-0.219727
1519426290021,0.461426,1.050537,-0.330811
1519426290064,-0.203125,0.625732,-0.347412
1519426290087,-0.390137,0.235596,-0.279053
1519426290133,-0.502686,-0.006348,-0.722900
1519426290136,-5.126953,-0.575195,-0.443604
1519426290182,-1.386963,-1.752441,-2.391846
1519426290238,-2.009033,-2.696777,-1.514404
1519426290249,-0.647217,-2.059326,-0.284180
1519426290286,-0.200439,-0.475098,-0.003662
1519426290310,0.225342,-0.001709,-0.000732
1519426290335,0.753662,-0.450195,-0.121582
1519426290403,0.735107,-0.534912,-0.090332
1519426290407,0.141846,-0.275391,-0.278320
1519426290434,0.113037,-0.477051,-0.281006
1519426290482,0.051758,-0.497070,-0.101563
1519426290509,-0.605957,-0.472656,-0.540771
1519426290539,-2.162598,-2.654541,0.480469
1519426290580,-2.024902,-1.668701,-0.766846
1519426290609,-2.288574,-0.965332,-0.167725
1519426290634,-1.401367,-1.062744,-0.188477
1519426290678,-0.948975,0.136230,-0.452637
1519426290708,-0.169922,0.443604,-0.250977
1519426290737,0.319092,0.762451,-0.047119
1519426290763,0.758301,0.781494,-0.108887
1519426290821,0.060059,0.234863,-0.327637
1519426290843,-0.518066,0.175537,-0.364502
1519426290875,-1.062988,0.002197,-1.046387
1519426290907,-5.488037,-1.471680,-0.964111
1519426290930,-1.571045,-1.932861,-1.422852
1519426290974,-1.374268,-2.453125,-0.601563
1519426291006,-0.815918,-0.979736,-0.159912
1519426291025,-0.488770,-0.478516,-0.187988
1519426291072,0.047852,-0.478760,-0.131836
1519426291099,0.271973,-0.289551,-0.296143
1519426291125,0.687744,0.049316,-0.312012
1519426291153,0.822998,0.094482,-0.420898
1519426291180,0.616455,-0.584717,-0.446289
1519426291240,0.506104,-0.862549,-0.177246
1519426291265,-0.953857,-3.310303,0.129395
1519426291299,-2.279541,-3.184814,-0.698975
1519426291322,-2.734131,-1.721436,-1.104736
1519426291364,-1.753662,-0.589844,-0.285400
1519426291389,-1.009033,-0.187744,-0.233154
1519426291413,-0.533936,0.004639,-0.225586
1519426291461,-0.157715,-0.075684,-0.006348
1519426291492,0.017090,0.206543,-0.053711
1519426291520,0.037842,0.642334,-0.156250
1519426291562,-0.614258,0.924561,-0.545166
1519426291587,-0.798828,0.663086,-0.770264
1519426291615,-1.133545,0.201660,-0.746582
1519426291662,-2.551270,-3.395996,-0.629883
1519426291691,-0.929688,-2.813721,-0.586182
1519426291714,-1.598145,-1.664063,-0.287354
1519426291754,-0.745117,-1.209229,0.085693
1519426291782,-0.408447,-0.802490,0.110596
1519426291812,-0.141357,-0.594482,0.068359
1519426291852,0.392334,-0.211914,-0.290527
1519426291878,1.130859,0.417725,-0.332275
1519426291909,0.456055,0.193848,-0.382813
1519426291948,0.570557,-0.547363,-0.445801
1519426291973,0.062012,-0.755127,-0.233643
1519426291999,-1.107666,-1.938477,-0.591797
1519426292027,-1.146240,-2.171143,-0.843262
1519426292081,-1.785156,-1.603027,-0.389648
1519426292104,-1.909180,-1.450684,-0.273926
1519426292129,-0.989990,0.089355,-0.596436
1519426292180,-0.455078,0.651611,-0.396973
1519426292209,-0.115723,0.343262,-0.106445
1519426292250,-0.207520,0.127930,0.014160
1519426292280,-0.279297,0.233154,-0.094482
1519426292304,-0.426758,0.478271,-0.244141
1519426292329,-0.559082,0.438721,-0.458252
1519426292354,-0.838623,0.328613,-0.784424
1519426292383,-2.037842,-0.989258,-1.498047
1519426292451,-1.246826,-4.304688,-1.740967
1519426292478,-1.270996,-2.147705,-0.803711
1519426292507,-0.475586,-1.556152,-0.084961
1519426292533,-0.276367,-0.723633,-0.215820
1519426292558,-0.017090,-0.253174,-0.325439
1519426292595,0.549072,-0.002441,-0.223633
1519426292642,0.482910,0.371582,-0.146240
1519426292667,0.384521,0.034912,-0.185791
1519426292694,0.608643,-0.125244,-0.181885
1519426292733,0.538086,-1.132324,-0.327881
1519426292743,0.127686,-1.485840,-0.312500
1519426292776,-1.743164,-4.005859,-1.082275
1519426292820,-1.033936,-1.430176,-0.544922
1519426292848,-2.420166,-1.760498,-0.475342
1519426292876,-1.801270,-1.071289,-0.365479
1519426292924,-0.804688,-0.280029,-0.100586
1519426292954,-0.396973,0.030029,-0.017090
1519426292980,0.142090,0.385254,0.056152
1519426293009,-0.054199,0.351563,-0.034180
1519426293039,-0.034668,0.502686,-0.070801
1519426293061,-0.149902,0.572754,-0.063477
1519426293116,-0.605225,0.428955,-0.383301
1519426293140,-1.714355,-0.148193,-1.240234
1519426293167,-2.315674,-2.725830,-1.195068
1519426293221,-2.189697,-2.664063,-1.159180
1519426293225,-0.855469,-2.048096,-1.030518
1519426293272,-0.552002,-1.031250,-0.754639
1519426293295,0.214111,-0.473389,-0.199707
1519426293340,0.799561,-0.013428,0.106445
1519426293360,0.918457,-0.035645,-0.049561
1519426293388,0.466797,-0.403809,-0.401855
1519426293431,0.673340,-0.590576,-0.695313
1519426293457,0.347412,-0.564697,-0.511719
1519426293508,-0.577393,-1.121094,-0.580078
1519426293536,-2.325439,-4.131104,0.381104
1519426293562,-1.535645,-1.034180,-0.584961
1519426293588,-1.755127,-1.577148,-0.363281
1519426293619,-0.919189,-0.641113,-0.335938
1519426293671,-0.543945,-0.196289,-0.445313
1519426293696,-0.211914,0.436035,-0.201904
1519426293740,-0.030029,0.566895,0.003906
1519426293749,-0.073242,0.479736,-0.032471
1519426293787,-0.255859,0.486084,-0.218994
1519426293829,-0.357910,0.329834,-0.314941
1519426293849,-0.640381,0.121338,-0.396484
1519426293896,-2.183838,-0.625488,-1.317871
1519426293923,-1.957275,-3.173340,-0.872559
1519426293946,-1.359131,-1.798096,-1.577637
1519426293994,-0.586182,-1.530029,-0.351563
1519426294021,-0.441895,-0.948975,0.070313
1519426294040,-0.490234,-0.680664,-0.076172
1519426294083,0.065918,-0.279053,-0.328857
1519426294105,0.705078,0.042236,-0.391602
1519426294158,1.066895,0.246094,-0.280518
1519426294170,0.841553,-0.572998,-0.635254
1519426294202,0.734863,-1.557373,-0.499756
1519426294257,-0.384033,-1.322998,-0.240723
1519426294278,-2.864258,-2.518066,1.340088
1519426294315,-2.753906,-2.585938,-0.034180
1519426294342,-1.496094,-1.210938,0.181396
1519426294363,-0.984863,-0.768799,-0.065430
1519426294413,-0.552002,-0.012695,-0.270508
1519426294442,-0.377686,0.218018,-0.025635
1519426294473,-0.138916,0.434570,-0.125244
1519426294503,-0.231934,0.899170,-0.729980
1519426294525,-0.464844,1.221191,-0.642090
1519426294564,-0.702637,0.357910,-0.387939
1519426294617,-1.701172,-0.889893,-0.497070
1519426294623,-2.432373,-3.253174,0.381348
1519426294681,-1.091797,-1.784668,-0.548828
1519426294683,-1.038330,-1.488037,0.017090
1519426294728,-0.863037,-1.721924,0.438232
1519426294774,-0.839600,-0.996338,0.272217
1519426294801,-0.372314,-0.578613,0.016113
1519426294829,0.244385,-0.321533,-0.269531
1519426294857,1.158203,0.235840,-0.291992
1519426294901,0.691650,-0.003174,-0.424805
1519426294931,1.031494,-0.356445,-0.419189
1519426294958,0.250244,-0.565674,-0.128418
1519426294978,-1.401855,-2.077393,-0.825439
1519426295029,-1.910889,-4.431885,0.418457
1519426295060,-2.367432,-1.170654,0.223389
1519426295087,-1.597900,-0.870361,0.048096
1519426295116,-1.005371,-0.303467,-0.138428
1519426295168,-0.381348,0.292725,-0.100586
1519426295197,-0.134277,0.560547,-0.115723
1519426295221,-0.105225,0.589355,-0.040283
1519426295246,-0.317139,0.499512,-0.184814
1519426295303,-0.529297,0.391357,-0.336426
1519426295307,-0.888184,0.215576,-0.472168
1519426295345,-2.324707,-1.055908,-1.344971
1519426295397,-1.718506,-3.094238,-1.146240
1519426295401,-1.248535,-2.768555,-1.510498
1519426295446,-0.735352,-1.259277,-0.461670
1519426295471,-0.427002,-0.984863,-0.237305
1519426295499,-0.209229,-0.665039,-0.228516
1519426295539,0.427490,-0.242920,-0.225830
1519426295564,1.451172,0.367676,-0.242676
1519426295606,0.495117,0.281494,-0.203125
1519426295636,0.766357,-0.381348,-0.468506
1519426295665,0.352539,-0.987305,-0.277344
1519426295711,-0.747314,-1.021240,-0.350830
1519426295741,-3.082031,-3.876465,1.195313
1519426295770,-2.064941,-2.983154,0.049805
1519426295794,-1.827637,-0.358887,-0.683105
1519426295836,-1.082764,-0.093506,-0.173340
1519426295863,-0.669678,-0.006592,-0.102783
1519426295887,-0.385498,0.048828,0.074463
1519426295934,-0.055908,0.185059,0.105225
1519426295959,-0.024902,0.578613,-0.156494
1519426296001,-0.283203,0.724365,-0.338379
1519426296030,-0.559570,0.423340,-0.473145
1519426296075,-1.292725,-0.023682,-0.849609
1519426296080,-2.722656,-2.181885,-1.278320
1519426296142,-0.718994,-2.473633,-1.127930
1519426296165,-1.305420,-2.452637,-0.657959
1519426296189,-0.838135,-1.279053,-0.178467
1519426296245,-0.335449,-0.366943,-0.207031
1519426296252,0.180420,-0.248291,-0.234619
1519426296288,0.943604,-0.112793,-0.175293
1519426296313,0.589844,0.028320,-0.204102
1519426296352,0.661865,-0.311768,-0.239746
1519426296379,0.628174,-0.637207,-0.170410
1519426296418,-0.473633,-0.983154,-0.822510
1519426296445,-3.070313,-3.812256,0.663818
1519426296496,-0.877441,-2.205322,-0.207764
1519426296521,-1.822754,-1.623291,-0.828613
1519426296556,-0.917969,-0.261719,-0.473633
1519426296581,-0.510986,0.078857,-0.228760
1519426296605,-0.418701,-0.020996,-0.056885
1519426296655,-0.218262,0.057129,-0.007568
1519426296660,-0.100098,0.542725,-0.016113
1519426296728,-0.394531,0.759521,-0.307617
1519426296732,-0.499512,0.635010,-0.382568
1519426296757,-0.889404,-0.053467,-0.579590
1519426296809,-3.179443,-3.156006,-0.783447
1519426296833,-0.218750,-1.894775,-0.755615
1519426296857,-1.079346,-2.368408,-0.531250
1519426296912,-0.631836,-1.282227,-0.130127
1519426296945,-0.309570,-0.422363,-0.102295
1519426296971,0.122314,-0.266113,-0.122803
1519426297013,1.140137,-0.109619,-0.215820
1519426297045,0.905518,0.310791,-0.257324
1519426297064,0.697021,-0.617432,-0.372559
1519426297110,0.427002,-1.486816,-0.113037
1519426297137,-1.104248,-1.731201,0.009033
1519426297167,-2.248047,-2.598145,0.769043
1519426297191,-1.911133,-1.790771,-0.713623
1519426297240,-2.137695,-0.520264,-0.526855
1519426297267,-0.936035,-0.148926,-0.081787
1519426297309,-0.552734,-0.092285,0.072021
1519426297333,-0.358887,-0.018311,0.182861
1519426297361,-0.200928,0.039307,0.145264
1519426297385,-0.150391,0.173096,-0.291748
1519426297437,-0.215820,0.352539,-0.616211
1519426297441,-0.999512,0.631348,-0.605713
1519426297489,-2.018311,-0.518555,-2.052002
1519426297516,-0.566650,-3.297363,-1.365723
1519426297551,-0.528564,-3.107666,-0.609131
1519426297603,-0.909912,-1.724121,-0.107178
1519426297630,-0.508789,-0.757568,-0.200684
1519426297655,-0.332031,-0.403076,-0.113770
1519426297682,0.694092,-0.094727,-0.105225
1519426297711,0.630127,-0.108398,-0.345947
1519426297737,0.735596,-0.460449,-0.498535
1519426297789,0.539551,-0.369385,-0.069336
1519426297815,-0.240723,-0.531250,0.114014
1519426297850,-1.538330,-1.607178,-0.449463
1519426297893,-1.617676,-2.369141,-0.051270
1519426297948,-1.540283,-1.485352,-0.083008
1519426297949,-1.286133,-0.732666,-0.284912
1519426297983,-0.883545,-0.160889,-0.208008
1519426298009,-0.668213,0.005859,-0.056641
1519426298040,-0.466309,0.171143,0.020020
1519426298083,-0.203857,-0.016357,0.010742
1519426298110,-0.313477,0.387939,-0.241211
1519426298149,-0.322754,0.685303,-0.451416
1519426298472,-0.673096,0.325684,-0.539307
1519426298716,-1.967285,-0.491943,-1.304932
1519426298907,-1.458740,-2.531250,-1.177246
1519426299058,-1.184814,-2.145752,-1.030762
1519426299106,-0.990234,-2.109131,-0.734863
1519426299425,-0.309570,-1.649414,0.074951
1519426299501,-0.282471,-0.649170,0.136475
1519426299520,0.133789,-0.149414,-0.095215
1519426299546,0.814453,-0.090332,-0.340332
1519426299551,0.730469,0.034424,-0.299561
1519426299554,0.804443,-0.186279,-0.377686
1519426299558,0.504639,-0.724609,-0.201172
1519426299560,-0.915771,-1.627441,-0.562012
1519426299563,-2.520020,-4.227295,0.688965
1519426299565,-0.880127,-2.668945,-0.390381
1519426299567,-1.089355,-1.019043,-0.611816
1519426299570,-0.686279,-0.973389,-0.840088
1519426299572,-0.772461,-0.566406,-0.772949
1519426299574,-0.467773,0.650146,-0.763428
1519426299576,-0.441895,0.501465,-0.502686
1519426299578,-0.492432,0.356445,-0.262695
1519426299580,-0.583252,-0.041748,0.322998
1519426299582,-0.784424,-0.048584,-0.188477
1519426299583,-0.645996,0.186523,-0.381348
1519426299585,-1.851807,-1.468262,-1.546387
1519426299586,-0.385986,-3.744629,-1.061035
1519426299587,-0.166748,-1.569336,-0.802979
1519426299589,-0.387939,-1.937500,0.050537
1519426299592,-0.501709,-1.093750,-0.026367
1519426299593,-0.306396,-0.734619,-0.124512
1519426299595,0.046143,-0.011963,-0.409180
1519426299596,0.559570,0.125000,-0.437988
1519426299598,0.879639,0.198242,-0.351807
1519426299683,0.917725,-0.070557,-0.364990
1519426299685,0.839844,-0.656250,-0.224365
1519426299687,0.039063,-0.978516,-0.418457
1519426299688,-0.349609,-3.819092,0.336182
1519426299690,-1.486328,-2.592285,-0.133545
1519426299691,-0.869873,-1.785645,-0.123535
1519426299693,-0.962646,-1.231934,-0.119141
1519426299694,-0.739502,-0.623779,-0.028076
1519426299695,-0.492676,-0.269775,0.016846
1519426299697,-0.155029,-0.330811,0.274658
1519426299699,0.035889,-0.368164,0.242676
1519426299700,-0.188232,0.542236,-0.252686
1519426299701,-0.957764,0.906738,-0.470703
1519426299716,-1.149414,0.307373,-0.639404
1519426299722,-1.116943,-0.840820,-0.810547
1519426299733,-1.749268,-4.479492,-1.135010
1519426299762,-0.882813,-1.623779,-0.546631
1519426299791,-1.399170,-1.505615,0.381104
1519426299835,-0.665771,-1.453369,0.505371
1519426299864,-0.472900,-0.647705,0.223633
1519426299887,0.015869,-0.460449,-0.274414
1519426299916,0.756104,-0.387939,-0.501221
1519426299963,0.901123,-0.055664,-0.477539
1519426299977,0.640625,-0.239258,-0.447998
1519426300013,0.396484,-0.484375,-0.057373
1519426300060,0.010254,-1.263672,-0.146729
1519426300086,-0.991455,-1.127441,-0.325195
1519426300113,-1.581787,-1.855469,-0.309570
1519426300154,-1.781250,-2.135010,-0.401855
1519426300190,-1.698486,-2.089844,-0.356934
1519426300220,-1.267334,-0.887939,-0.295166
1519426300268,-1.182373,-0.491699,-0.071777
1519426300272,-0.492432,-0.102051,-0.142090
1519426300314,-0.083008,0.305664,-0.056152
1519426300364,-0.030273,0.216797,-0.204834
1519426300397,-0.114014,0.462646,-0.221680
1519426300421,-0.361084,0.698975,-0.618896
1519426300444,-0.905762,0.510010,-0.524902
1519426300471,-2.179199,0.119629,-0.639893
1519426300515,-1.571533,-1.167725,-0.185791
1519426300542,-2.633057,-1.916260,-0.754883
1519426300575,-1.933594,-1.374512,-0.155518
1519426300619,-1.227051,-0.806885,0.078125
1519426300643,-0.727295,-0.252930,-0.140625
1519426300664,-0.081299,-0.203857,-0.276611
1519426300711,0.757813,-0.160889,-0.301514
1519426300743,1.054199,-0.042236,-0.310547
1519426300767,0.468018,-0.517334,-0.512939
1519426300794,0.096924,-0.834229,-0.774902
1519426300838,-0.711182,-0.478027,-0.452637
1519426300864,-3.047852,-1.774902,1.022949
1519426300915,-2.393555,-1.592529,-0.875244
1519426300942,-2.264893,-1.469482,-0.059082
1519426300971,-1.121338,-0.827637,-0.030518
1519426300996,-0.756348,0.041260,-0.182861
1519426301042,-0.461670,-0.107666,-0.051270
1519426301045,-0.150879,-0.008789,0.019043
1519426301106,0.208740,0.264404,-0.090576
1519426301126,0.283447,0.314209,-0.099121
1519426301155,-0.040527,0.345215,-0.340088
1519426301197,-1.062012,0.755859,-0.639893
1519426301210,-2.365967,-0.184326,-1.183838
1519426301245,-1.841797,-2.644287,0.969727
1519426301298,-2.088623,-1.624023,-0.443115
1519426301324,-1.771729,-1.139648,-0.229736
1519426301348,-1.166016,-1.119385,-0.055420
1519426301390,-0.533447,-0.765869,0.038330
1519426301411,-0.039307,-0.293457,-0.161133
1519426301451,0.604980,0.124023,-0.353760
1519426301482,1.332764,0.063721,-0.447998
1519426301513,0.537109,-0.420654,-0.478271
1519426301543,0.457031,-0.638672,-0.364014
1519426301585,-0.595947,-1.246094,-0.937012
1519426301615,-3.386475,-4.113770,0.318604
1519426301642,-2.082275,-2.334473,-1.191895
1519426301705,-1.559570,-0.374512,-0.329834
1519426301716,-1.104980,-0.318604,-0.380127
1519426301745,-0.808838,-0.217529,-0.283447
1519426301784,-0.382324,-0.035645,0.006836
1519426301811,-0.182373,0.221191,0.175781
1519426301841,0.044922,0.451416,0.000488
1519426301899,0.010498,0.510498,-0.333984
1519426301929,-0.323975,0.390869,-0.438965
1519426301956,-0.520020,0.132813,-0.576172
1519426301992,-3.607422,-1.276123,-0.685303
1519426302021,-1.008301,-2.841797,-0.800537
1519426302046,-2.501709,-0.981201,-0.824707
1519426302070,-1.282471,-1.128174,-0.146240
1519426302096,-1.071289,-0.721680,-0.131348
1519426302140,-0.721436,-0.677979,-0.261963
1519426302177,0.340820,-0.251953,-0.125488
1519426302206,1.001221,-0.127197,-0.252686
1519426302231,0.743408,0.089600,-0.389648
1519426302257,0.632080,-0.477783,-0.506104
1519426302294,0.388916,-0.645020,-0.309326
1519426302322,-0.471436,-1.192139,-0.432861
1519426302366,-2.137939,-3.698730,0.492676
1519426302391,-2.137695,-0.411377,-0.679932
1519426302435,-1.845703,-1.937012,-0.021729
1519426302452,-1.076660,-0.648438,-0.144287
1519426302510,-0.825928,-0.192627,-0.218018
1519426302516,-0.510254,0.152588,-0.099121
1519426302549,-0.221680,0.284912,-0.012695
1519426302596,-0.208496,0.362793,-0.104492
1519426302601,-0.077393,0.480469,-0.355957
1519426302669,-0.393066,0.646729,-0.434570
1519426302671,-0.604248,0.333496,-0.675781
1519426302719,-2.360596,-0.505127,-1.243896
1519426302748,-0.663330,-2.956543,-0.590576
1519426302773,-2.125732,-1.668701,-0.815186
1519426302816,-1.074707,-1.341309,-0.098633
1519426302845,-0.885986,-0.727539,0.042236
1519426302872,-0.681396,-0.590332,-0.176025
1519426302902,-0.255371,-0.447754,-0.296875
1519426302949,0.624023,-0.105469,-0.330811
1519426302983,1.083740,0.014648,-0.324463
1519426303013,0.780273,-0.322510,-0.374512
1519426303042,0.467773,-0.560303,-0.208252
1519426303084,-0.210938,-0.987061,-0.527100
1519426303116,-3.180908,-3.460693,0.841553
1519426303143,-1.616455,-1.161621,-0.414551
1519426303173,-2.441895,-1.189697,-0.136963
1519426303200,-1.252930,-0.629150,-0.009766
1519426303243,-0.775635,0.087646,-0.049561
1519426303269,-0.364990,0.289063,-0.002441
1519426303294,-0.192871,0.260498,-0.088379
1519426303341,0.078613,0.411621,-0.094238
1519426303368,0.093994,0.394287,-0.233887
1519426303393,-0.237549,0.264404,-0.312744
1519426303443,-0.307617,-0.004883,-0.344482
1519426303464,-1.289307,-0.155273,-0.544678
1519426303493,-3.186523,-1.872803,-1.160889
1519426303538,-0.900635,-2.248779,-0.870605
1519426303560,-2.147949,-2.092773,-0.091064
1519426303589,-1.127686,-1.436035,-0.011719
1519426303616,-0.770508,-0.646729,-0.084961
1519426303664,-0.269287,-0.384766,-0.199219
1519426303691,0.314453,-0.027832,-0.453613
1519426303716,0.778564,0.260742,-0.394531
1519426303761,0.569092,0.030273,-0.279297
1519426303790,0.530518,-0.504150,-0.275879
1519426303815,0.262939,-0.495850,-0.042725
1519426303865,-0.477295,-1.404297,-0.481445
1519426303889,-3.013672,-4.897461,0.382813
1519426303914,-2.176758,-2.067627,-0.169678
1519426303956,-1.471191,-0.990967,-0.092773
1519426303983,-1.083496,-0.499268,-0.226074
1519426304029,-0.619873,0.153564,-0.111084
1519426304062,-0.283203,0.276123,-0.014160
1519426304073,-0.137939,0.385254,-0.018066
1519426304120,0.063232,0.286377,-0.087158
1519426304147,-0.083740,0.255371,-0.310547
1519426304170,-0.448486,0.321289,-0.469482
1519426304215,-0.911621,0.108398,-0.768311
1519426304263,-3.265381,-1.317139,-1.203613
1519426304267,-0.725098,-3.395752,-0.361816
1519426304311,-1.767822,-2.249268,-0.324463
1519426304340,-1.114746,-1.295898,0.074463
1519426304364,-0.928955,-0.347412,-0.002197
1519426304412,-0.524658,-0.433350,-0.290771
1519426304436,-0.016357,-0.360596,-0.352783
1519426304471,0.538086,-0.177246,-0.273438
1519426304500,0.769531,-0.128418,-0.137451
1519426304547,0.405273,-0.670898,-0.183594
1519426304572,0.545166,-0.854492,-0.021484
1519426304595,-0.125732,-0.856934,-0.252441
1519426304642,-1.083008,-1.348389,-0.598633
1519426304646,-2.335205,-2.827148,-0.204102
1519426304713,-1.900391,-2.460693,-0.540527
1519426304740,-1.501465,-1.066895,-0.446533
1519426304762,-0.961426,-0.471436,-0.335938
1519426304803,-0.607178,0.082275,-0.305420
1519426304830,-0.456787,0.236816,-0.152344
1519426304855,-0.223145,0.360352,-0.078125
1519426304904,-0.115479,0.550537,-0.101074
1519426304931,-0.368652,0.685303,-0.281006
1519426304952,-0.619629,0.802246,-0.332764
1519426305009,-1.163086,0.631104,-0.643799
1519426305014,-2.397705,-1.726563,-2.516357
1519426305055,-1.076172,-2.987061,-1.868652
1519426305085,-0.940430,-1.855957,-1.674316
1519426305108,-0.746582,-1.970703,-0.885742
1519426305157,-0.570313,-1.006348,-0.217285
1519426305181,-0.338623,-0.541992,-0.018799
1519426305212,0.147217,-0.171387,-0.232910
1519426305247,0.839600,0.170898,-0.477783
1519426305285,1.197998,0.318359,-0.362061
1519426305311,0.429199,-0.235352,-0.179443
1519426305355,0.428955,-0.481689,0.024170
1519426305386,-0.699219,-1.843018,-1.020020
1519426305406,-3.125000,-4.656738,0.272949
1519426305430,-0.991943,-1.264648,-0.551758
1519426305479,-1.994385,-1.363770,-0.861816
1519426305507,-0.850098,-0.006836,-0.431885
1519426305542,-0.680420,0.093994,-0.228760
1519426305585,-0.493652,0.069580,-0.051025
1519426305589,-0.379395,0.078369,-0.031738
1519426305645,-0.217041,0.212891,-0.008057
1519426305670,-0.083740,0.491455,-0.261475
1519426305692,-0.496094,0.583984,-0.507568
1519426305723,-0.936768,0.328369,-0.685059
1519426305791,-1.769287,-2.186279,-1.667725
1519426305796,-0.794922,-2.833008,-0.693848
1519426305848,-1.564941,-2.236816,-0.950684
1519426305857,-0.265625,-2.342773,-0.259766
1519426305898,0.123291,-1.157959,0.008789
1519426305920,-0.201172,-0.635010,-0.138428
1519426305967,0.044678,0.183594,-0.320313
1519426306000,0.578369,0.139648,-0.323730
1519426306029,0.809570,0.106689,-0.233154
1519426306061,0.368164,-0.178223,-0.294922
1519426306112,0.462402,-0.687744,-0.233398
1519426306137,-0.208984,-1.186279,-0.423584
1519426306164,-1.446777,-2.090088,0.323975
1519426306189,-0.858398,-2.035156,-0.165039
1519426306218,-1.634521,-2.395264,-1.240234
1519426306261,-1.613525,-0.495361,-1.198486
1519426306283,-0.901611,0.040527,-0.597900
1519426306313,-0.685791,0.479004,-0.197754
1519426306364,-0.370361,0.677734,0.037354
1519426306383,-0.105957,0.528564,0.181396
1519426306406,0.016846,0.278076,0.230957
1519426306448,-0.265869,-0.107910,-0.042725
1519426306477,-0.560059,-0.396973,-0.645264
1519426306500,-1.180420,-0.148926,-0.778564
1519426306534,-1.849609,-2.412842,-1.989990
1519426306582,0.231934,-1.594238,-1.518066
1519426306618,-0.543945,-1.912354,-1.130615
1519426306647,-0.338623,-2.917725,0.482178
1519426306679,-0.441162,-0.582764,-0.180664
1519426306706,-0.085205,-0.298096,-0.426270
1519426306751,0.479248,0.329346,-0.379639
1519426306775,0.757080,0.465088,-0.195313
1519426306812,0.666748,-0.000732,-0.131836
1519426306850,0.629883,-0.598389,-0.190186
1519426306889,-0.055664,-0.828857,-0.336670
1519426306895,-1.600830,-2.799561,-0.718506
1519426306950,-0.436279,-2.845703,-0.227539
1519426306973,-1.575928,-2.816162,-0.171143
1519426307003,-0.677002,-1.135254,-0.125000
1519426307051,-0.544678,-0.265625,-0.100830
1519426307056,-0.293457,0.069580,-0.109619
1519426307099,-0.185791,0.258789,-0.023193
1519426307149,-0.196045,0.416992,0.142578
1519426307160,-0.170654,0.394287,0.093262
1519426307192,-0.315430,0.320801,-0.066406
1519426307219,-0.697754,-0.106445,-0.431152
1519426307276,-1.528320,-0.519287,-0.531494
1519426307302,-2.278320,-2.360840,-2.010742
1519426307327,-0.708984,-1.783447,-1.061768
1519426307355,-1.242188,-1.734619,-0.813477
1519426307408,-0.572754,-2.077148,-0.129395
1519426307435,-0.762939,-0.634766,0.180908
1519426307462,-0.530273,-0.553711,-0.101807
1519426307489,-0.150391,-0.892578,-0.188477
1519426307543,0.643799,0.015137,-0.697266
1519426307568,1.256836,0.177246,-1.239258
1519426307596,1.205078,-0.522949,-1.225098
1519426307620,0.083008,-0.721680,0.860596
1519426307676,-1.876709,0.511719,0.542236
1519426307682,-2.369873,-3.357666,1.137695
1519426307719,-2.755615,-1.307373,0.082764
1519426307764,-1.690918,-0.616455,0.377197
1519426307770,-0.917969,-0.209229,0.348145
1519426307817,-0.599365,0.006592,0.011475
1519426307847,-0.187744,-0.059082,0.156982
1519426307876,-0.092529,0.092041,0.130371
1519426307924,0.087402,0.337402,-0.101563
1519426307944,-0.208740,0.463135,-0.321777
1519426307971,-0.643311,0.604248,-0.749268
1519426308002,-0.921143,0.130615,-0.732910
1519426308050,-2.817871,-1.426025,-1.874268
1519426308071,-0.581543,-1.816895,-0.395264
1519426308105,-1.999756,-2.610596,-1.006348
1519426308132,-1.338379,-1.708252,-0.122559
1519426308181,-0.981201,-0.252930,-0.087646
1519426308201,-0.532715,-0.277588,-0.281982
1519426308246,0.071533,-0.388916,-0.321777
1519426308264,0.528076,-0.370361,-0.158447
1519426308295,0.689453,-0.229736,-0.212646
1519426308340,0.761963,-0.790527,-0.376465
1519426308388,0.572510,-1.277588,-0.183838
1519426308415,-1.197021,-1.425293,-0.665771
1519426308444,-2.691162,-1.658936,-0.555420
1519426308446,-1.228271,-2.245361,-0.757568
1519426308515,-1.572510,-1.049805,-0.252441
1519426308540,-0.954834,-0.160645,-0.177979
1519426308545,-0.671875,-0.244873,-0.159668
1519426308608,-0.333740,0.108398,-0.068359
1519426308630,-0.107178,0.231445,-0.008789
1519426308657,-0.008789,0.219971,0.058105
1519426308680,0.029053,0.099365,-0.106201
1519426308711,-0.460693,0.323730,-0.584473
1519426308760,-1.057617,0.560547,-0.972900
1519426308788,-2.249023,-0.936035,-1.854980
1519426308814,0.218018,-2.991455,-0.106934
1519426308865,-2.221191,-1.882568,-1.425781
1519426308891,-1.216553,-0.967041,-0.795166
1519426308920,-0.951416,-1.055664,-0.162598
1519426308957,-0.534424,-0.732910,-0.112305
1519426308995,0.130615,-0.331543,-0.107910
1519426309024,0.511719,-0.135010,-0.259766
1519426309030,0.812988,-0.006836,-0.398193
1519426309099,1.088379,-0.345947,-0.300049
1519426309122,0.541260,-0.598389,-0.074707
1519426309149,-0.381836,-0.722656,-0.246826
1519426309180,-3.701416,-2.626465,0.482910
1519426309201,-1.659668,-1.872559,-1.021729
1519426309225,-2.202881,-1.881348,-0.639160
1519426309266,-0.990479,-0.593262,-0.247314
1519426309310,-0.652100,0.003418,-0.115234
1519426309342,-0.355225,0.127441,-0.028809
1519426309383,-0.267822,0.283691,0.025635
1519426309408,-0.174316,0.371338,-0.085205
1519426309434,-0.241943,0.384766,-0.315186
1519426309477,-0.617920,0.290283,-0.567871
1519426309505,-0.883057,0.308838,-0.618164
1519426309521,-2.008789,-0.746338,-1.450928
1519426309578,-0.700195,-1.705322,-0.691650
1519426309600,-1.629883,-2.067383,-1.078613
1519426309630,-1.156494,-2.013672,-0.291260
1519426309677,-0.831543,-0.704102,0.049805
1519426309706,-0.554932,-0.424805,-0.135742
1519426309730,-0.039551,-0.310303,-0.268555
1519426309757,0.414307,-0.178223,-0.392090
1519426309805,0.462646,-0.131836,-0.383789
1519426309809,0.356689,-0.274170,-0.292969
1519426309860,0.196045,-0.758057,-0.078369
1519426309880,-0.565918,-0.968994,-0.234863
1519426309909,-1.446777,-1.390625,-0.216064
1519426309965,-1.402588,-1.437256,-0.624023
1519426309987,-2.550537,-1.807373,-0.621094
1519426310016,-1.622559,-0.879395,-0.290771
1519426310060,-0.980713,-0.384766,-0.137207
1519426310087,-0.581543,-0.154785,-0.110352
1519426310114,-0.386963,0.005859,-0.071533
1519426310141,-0.147461,0.204346,0.026611
1519426310188,-0.060059,0.243896,0.039795
1519426310205,-0.122803,0.311523,-0.087402
1519426310264,-0.708008,0.689941,-0.531982
1519426310283,-1.697266,0.995850,-1.056885
1519426310310,-1.441895,-0.649658,-2.045654
1519426310347,-1.251709,-2.701416,-2.110840
1519426310375,-1.014160,-2.538086,-1.566650
1519426310405,-0.397705,-2.182373,-0.450684
1519426310454,-0.270264,-0.684570,0.035889
1519426310482,-0.131104,-0.334229,-0.210449
1519426310512,0.194336,-0.249023,-0.358398
1519426310538,0.688477,0.323242,-0.226074
1519426310589,0.855957,0.594727,0.063232
1519426310594,0.654053,0.287842,-0.233887
1519426310651,-0.317383,-1.161133,-1.254883
1519426310663,-1.741455,-2.910400,-0.991455
1519426310686,-1.370117,-2.252441,-0.973389
1519426310755,-2.057617,-1.936523,-0.995361
1519426310759,-1.343018,-0.841553,-0.833008
1519426310795,-1.088135,-0.605469,-0.481201
1519426310822,-0.611084,-0.071777,-0.160400
1519426310877,-0.398193,0.110840,-0.012207
1519426310884,-0.255859,0.285400,-0.016113
1519426310932,-0.200195,0.507568,-0.048584
1519426310956,-0.361572,0.500732,-0.159668
1519426310996,-0.672363,0.500000,-0.525146
1519426311021,-1.794922,0.072754,-1.402100
1519426311072,-1.676758,-0.959961,-1.706299
1519426311099,-1.266113,-1.045898,-1.606445
1519426311121,-0.792480,-1.985107,-2.346680
1519426311164,-0.100342,-2.184326,-0.768066
1519426311190,-0.216553,-0.848633,-0.078857
1519426311232,-0.126709,-0.521973,-0.015137
1519426311263,0.216064,-0.240723,-0.105225
1519426311291,0.599609,-0.205811,-0.267578
1519426311316,0.697021,-0.029053,-0.412109
1519426311369,0.392822,-0.638916,-0.423584
1519426311374,0.065186,-0.885010,-0.634766
1519426311429,-1.357422,-0.994873,-0.948486
1519426311435,-1.991211,-3.572266,-0.372070
1519426311482,-1.665039,-1.884033,-1.086914
1519426311539,-1.210693,-0.825684,-0.508789
1519426311543,-0.938721,-0.424805,-0.222412
1519426311586,-0.575439,-0.089600,-0.137939
1519426311608,-0.147705,0.135010,-0.012939
1519426311648,0.063232,0.178223,-0.007813
1519426311673,0.085205,0.474854,-0.087402
1519426311699,-0.471191,0.563477,-0.479004
1519426311745,-0.907715,0.270508,-0.870605
1519426311773,-2.754639,-1.439697,-2.027588
1519426311805,-0.477783,-1.923340,-0.425537
1519426311833,-1.419678,-1.816895,-0.620605
1519426311868,-1.166992,-1.394043,-0.325684
1519426311898,-0.887939,-0.485840,-0.146240
1519426311955,-0.326172,-0.373291,-0.055420
1519426311989,0.088135,-0.363525,-0.146240
1519426311997,0.644531,0.076416,-0.497070
1519426312066,0.614014,0.196045,-0.446533
1519426312068,0.316162,-0.545654,-0.449951
1519426312103,0.207275,-1.042236,-0.022217
1519426312133,-0.425049,-1.227295,-0.370361
1519426312159,-1.620605,-2.330811,0.315674
1519426312203,-1.365234,-2.588867,-0.847168
1519426312229,-1.898438,-1.298828,-0.788818
1519426312247,-1.194580,-0.492432,-0.491699
1519426312325,-0.709229,-0.008301,-0.189209
1519426312327,-0.382568,0.144287,-0.032715
1519426312358,-0.209229,0.164551,0.017578
1519426312424,-0.135742,0.208740,-0.031006
1519426312426,-0.139893,0.117676,-0.367188
1519426312459,-0.341309,0.146729,-0.693115
1519426312487,-0.984131,0.130127,-0.750977
1519426312521,-2.742676,-0.580811,-1.037354
1519426312556,-1.353760,-1.950195,0.228516
1519426312620,-2.293945,-2.482666,-0.965820
1519426312624,-0.606201,-1.493896,-0.037354
1519426312653,-0.307617,-0.519775,0.109375
1519426312764,-0.187256,-0.532471,0.093506
1519426312768,0.123779,-0.283203,-0.226563
1519426312771,0.489502,-0.009277,-0.392578
1519426312799,0.298096,-0.092041,-0.413818
1519426312829,-0.047852,-0.248047,-0.520752
1519426312863,0.189941,-0.447266,-0.414795
1519426312902,-0.422852,-0.885010,0.003906
1519426312936,-1.816162,-4.085938,1.615723
1519426312941,-0.772705,-1.039551,-1.025879
1519426312999,-1.728027,-1.902344,-0.214600
1519426313006,-1.226807,-1.448730,-0.098633
1519426313060,-1.099365,-0.771973,-0.279541
1519426313062,-0.580566,-0.210938,-0.158936
1519426313092,-0.401611,-0.171143,-0.121094
1519426313125,-0.231445,0.002441,-0.350830
1519426313165,-0.000244,0.527832,-0.281250
1519426313226,0.030029,0.736328,-0.400391
1519426313227,-0.133545,0.803467,-0.461670
1519426313269,-0.895996,0.153564,-0.742188
1519426313300,-3.135986,-2.566406,-1.346436
1519426313364,-0.732666,-3.009521,0.216553
1519426313366,-2.014893,-2.650879,-0.999023
1519426313423,-1.078857,-1.548096,-0.408936
1519426313427,-0.652832,-0.589600,0.047852
1519426313469,-0.016113,-0.500977,0.047119
1519426313538,0.355713,-0.300781,-0.249512
1519426313541,0.789307,-0.064453,-0.384521
1519426313591,0.750244,0.143799,-0.466309
1519426313595,0.642578,-0.353516,-0.451416
1519426313626,0.506592,-0.848145,-0.100098
1519426313693,-0.451172,-1.148193,-0.389160
1519426313700,-2.561523,-3.009766,0.941650
1519426313724,-1.318115,-2.908936,-0.700439
1519426313765,-1.751709,-0.957031,-0.331299
1519426313831,-1.109375,-0.499023,-0.145020
1519426313839,-0.771240,-0.278564,0.031982
1519426313862,-0.331055,0.140869,0.071777
1519426313939,-0.118896,0.243652,-0.012451
1519426313942,-0.060791,0.245361,-0.043945
1519426313965,-0.046143,0.163330,-0.145996
1519426314030,-0.289307,0.258545,-0.429199
1519426314033,-0.501221,0.229492,-0.540527
1519426314069,-2.025635,-0.539307,-0.956787
1519426314073,-1.552979,-2.199707,-0.937988
1519426314134,-1.276855,-2.910400,-0.474854
1519426314139,-1.634521,-1.488037,-0.728516
1519426314223,-0.801270,-1.117188,-0.283447
1519426314227,-0.629150,-0.685547,0.051514
1519426314321,-0.125488,-0.700439,0.031494
1519426314322,0.272705,-0.346436,-0.168457
1519426314324,0.606934,0.000732,-0.254150
1519426314357,0.687500,-0.074951,-0.255615
1519426314435,0.565186,-0.482178,-0.265869
1519426314439,0.240967,-0.861084,-0.167969
1519426314441,-1.233398,-2.175293,-0.138428
1519426314468,-2.703857,-1.357910,0.950684
1519426314536,-1.157227,-1.964844,0.758545
1519426314540,-1.634766,-1.235840,0.271484
1519426314582,-1.143311,-0.575195,-0.076172
1519426314611,-0.756104,-0.156738,-0.080078
1519426314674,-0.281982,0.337402,-0.080566
1519426314675,-0.161865,0.383545,-0.062256
1519426314708,-0.062500,0.411133,-0.141113
1519426314765,-0.358154,0.358643,-0.282715
1519426314773,-0.410156,0.267578,-0.595215
1519426314793,-0.731934,0.303711,-0.810059
1519426314826,-1.825195,-1.835693,-1.253418
1519426314859,-1.508301,-2.548340,-0.333252
1519426314990,-1.325684,-2.639404,0.101318
1519426314995,-1.196045,-1.677002,0.439453
1519426314998,-0.582520,-0.645752,0.080078
1519426315000,-0.587158,-0.506104,-0.060791
1519426315091,0.061279,-0.187988,-0.238770
1519426315123,0.463379,0.130615,-0.339844
1519426315127,0.706299,0.218262,-0.386963
1519426315129,0.499023,-0.308594,-0.242432
1519426315174,0.509277,-0.634033,-0.122803
1519426315177,-0.319824,-1.387451,-0.435547
1519426315272,-2.243164,-2.279541,1.236084
1519426315273,-0.850098,-2.286133,1.001465
1519426315274,-2.145996,-2.166260,-0.048584
1519426315303,-1.191406,-0.497803,-0.418701
1519426315336,-0.767090,-0.087646,-0.253906
1519426315372,-0.418457,0.157959,0.004395
1519426315445,-0.113037,-0.004150,-0.037842
1519426315447,-0.167236,0.015625,-0.093750
1519426315479,-0.019775,0.562500,-0.152100
1519426315515,-0.270508,0.477783,-0.316650
1519426315550,-0.581787,0.400146,-0.319580
1519426315582,-1.618408,0.227783,-0.607178
1519426315635,-2.196289,-2.729004,-1.004150
1519426315639,-1.142090,-2.098877,-0.943848
1519426315714,-1.343506,-3.747803,-0.708496
1519426315720,-0.533203,-1.100586,0.566895
1519426315821,-0.560059,0.066650,0.230957
1519426315826,-0.242920,-0.779541,-0.004395
1519426315831,0.484375,-0.252441,-0.289551
1519426315899,0.591797,0.109863,-0.335449
1519426315902,0.418457,0.072021,-0.274170
1519426315935,0.474854,-0.451904,-0.080322
1519426315938,-0.002197,-0.571045,-0.018555
1519426315963,-0.981445,-0.728271,-0.396484
1519426315997,-2.217285,-2.909180,1.514160
1519426316030,-1.172363,-2.506592,0.500000
1519426316070,-1.689209,-1.982910,-0.171143
1519426316104,-1.119873,-0.720703,-0.209229
1519426316150,-0.655518,-0.334717,-0.193848
1519426316153,-0.436279,-0.131104,-0.078613
1519426316197,-0.190430,0.114258,-0.022949
1519426316260,0.009277,0.469482,-0.104980
1519426316266,-0.093994,0.656982,-0.209961
1519426316299,-0.413818,0.630371,-0.596924
1519426316334,-0.794922,0.495605,-0.680420
1519426316364,-1.444580,-0.243652,-0.864746
1519426316395,-2.213379,-3.215576,-0.556396
1519426316431,-0.859619,-2.594971,-0.595459
1519426316435,-1.537842,-1.884277,-0.485352
1519426316491,-0.833984,-0.269531,-0.275879
1519426316527,-0.719482,-0.288574,-0.215332
1519426316531,-0.175293,-0.560303,-0.100586
1519426316590,0.888916,-0.129395,-0.246826
1519426316641,1.503418,0.226318,-0.220459
1519426316648,0.565918,-0.325684,-0.100098
1519426316681,0.525879,-0.715820,-0.061768
1519426316746,-0.116455,-0.769043,-0.090576
1519426316751,-1.746094,-1.776855,-0.660889
1519426316782,-1.404785,-3.682373,-0.546387
1519426316846,-1.754150,-1.838379,-0.803223
1519426316850,-1.997559,-1.172363,-0.901367
1519426316910,-0.854980,-0.006592,-0.509521
1519426316981,-0.500732,0.282715,-0.192871
1519426316983,-0.294678,0.255127,-0.055176
1519426316984,-0.120850,0.124268,0.007813
1519426317019,-0.081787,0.101807,-0.110596
1519426317020,-0.277588,0.405029,-0.272705
1519426317062,-0.593018,0.343750,-0.511963
1519426317098,-1.570557,-0.012207,-1.106201
1519426317146,-1.864502,-1.273682,-1.240967
1519426317210,-0.672852,-2.464355,-1.459473
1519426317214,-1.677490,-2.801025,-0.636475
1519426317218,-1.000488,-0.851318,-0.011719
1519426317253,-0.551514,-0.477783,-0.120605
1519426317323,0.016846,-0.587646,-0.287842
1519426317330,0.572998,-0.280762,-0.275635
1519426317360,0.610352,-0.001465,-0.242188
1519426317407,0.611816,-0.689697,-0.288818
1519426317411,0.559326,-1.157715,0.081299
1519426317470,-0.203613,-0.790283,-0.252930
1519426317502,-1.013916,-1.147705,-0.306152
1519426317510,-2.687256,-3.381836,0.779785
1519426317545,-2.168457,-2.193359,-0.435547
1519426317594,-1.222168,-0.340576,-0.495361
1519426317625,-0.722656,-0.213623,-0.152832
1519426317659,-0.355225,0.073242,0.105225
1519426317714,-0.120361,0.002930,0.124023
1519426317721,-0.030029,0.011230,-0.004883
1519426317748,0.137207,0.422119,-0.159424
1519426317779,-0.283691,0.845459,-0.349854
1519426317812,-0.626221,0.712158,-0.593506
1519426317857,-2.564453,-1.200928,-1.471436
1519426317913,-0.894775,-3.324463,-0.367432
1519426317920,-1.497314,-2.246826,-0.761230
1519426317945,-0.922363,-1.802246,-0.658203
1519426317976,-0.686523,-1.125488,-0.249268
1519426318021,-0.519531,-0.744629,-0.093018
1519426318057,-0.183838,-0.535645,-0.433594
1519426318062,0.428223,-0.136719,-0.412842
1519426318113,1.636963,0.194580,-0.199463
1519426318150,0.329346,-0.440918,-0.202393
1519426318177,0.376465,-0.776611,-0.134033
1519426318213,-0.869141,-0.986816,0.113037
1519426318246,-1.349365,-1.188965,1.390137
1519426318284,-2.132813,-2.756104,0.802002
1519426318287,-1.713135,-1.884033,0.484863
1519426318380,-1.177734,-0.498535,0.289063
1519426318406,-0.807129,-0.306641,-0.018311
1519426318500,-0.444092,-0.009277,-0.130859
1519426318527,-0.117920,0.341309,-0.291260
1519426318553,-0.029785,0.407959,-0.285889
1519426318620,-0.289551,0.374756,-0.458008
1519426318647,-0.635254,0.115234,-0.446045
1519426318800,-1.631592,-0.317627,-0.390625
1519426318806,-1.850586,-1.330566,0.289795
1519426318811,-1.675537,-2.432129,0.842285
1519426318814,-1.658203,-1.772461,0.857910
1519426318817,-1.180664,-1.236572,1.112061
1519426318819,-0.390137,-0.604248,0.633789
1519426318820,-0.048096,-0.358887,0.259277
1519426318827,0.341553,-0.200684,-0.043701
1519426318829,0.544678,-0.162842,-0.337158
1519426318861,0.550781,-0.263916,-0.320801
1519426318919,0.386963,-0.409912,-0.198730
1519426318923,-0.500732,-0.750000,0.646973
1519426318942,-0.942383,-1.502197,1.307373
1519426318972,-1.436768,-0.802002,2.107178
1519426319032,-1.894287,-1.479736,1.426514
1519426319081,-1.392822,-1.032959,1.331055
1519426319089,-0.958252,-0.618652,1.013184
1519426319112,-0.626465,-0.192383,-0.082031
1519426319138,-0.410645,0.005615,-0.416748
1519426319187,-0.271240,0.211914,-0.393311
1519426319213,-0.369385,0.332031,-0.314941
1519426319240,-0.621338,0.146973,-0.189453
1519426319300,-0.724121,-0.318359,-0.226318
1519426319304,-1.455322,-1.575928,0.146729
1519426319353,-1.158447,-1.506348,0.425293
1519426319357,-3.105957,0.715576,1.979004
1519426319405,-1.569580,-1.598389,0.823975
1519426319444,-1.102295,-1.345703,0.431396
1519426319451,-0.738770,-0.908447,0.732666
1519426319500,-0.157715,-0.390625,-0.050781
1519426319571,0.301514,-0.116699,-0.460449
1519426319575,0.516357,0.044434,-0.453369
1519426319610,0.500732,-0.320557,-0.111816
1519426319622,0.350830,-0.557129,0.117188
1519426319656,-0.094482,-0.780518,0.330566
1519426319718,-1.684814,-1.385986,1.202148
1519426319721,-1.858643,-1.994629,1.449219
1519426319770,-1.673828,-1.277588,0.966064
1519426319799,-1.253418,-0.795410,0.891602
1519426319828,-0.894043,-0.383057,0.251221
1519426319850,-0.494385,-0.037598,0.036377
1519426319882,-0.144287,0.136963,-0.161865
1519426319917,-0.014893,0.450439,-0.431396
1519426319970,-0.087158,0.487793,-0.566406
1519426320023,-0.601074,0.192139,-0.431152
1519426320025,-1.066650,-0.199463,-0.604248
1519426320036,-2.738770,-1.671387,0.660889
1519426320087,-2.159668,-2.059326,0.746338
1519426320118,-1.593506,-1.774902,0.994629
1519426320177,-1.402344,-1.163330,1.039795
1519426320210,-0.877686,-0.713379,0.627930
1519426320213,-0.276855,-0.398193,0.166992
1519426320264,0.310791,-0.277344,-0.294678
1519426320314,0.580322,-0.022217,-0.376465
1519426320316,0.471924,-0.270752,-0.403076
1519426320362,0.427246,-0.608398,-0.160645
1519426320364,-0.275146,-1.022461,0.311279
1519426320413,-0.976563,-1.780029,1.875244
1519426320466,-1.852295,-2.497070,1.110840
1519426320468,-1.550537,-1.090820,1.186279
1519426320514,-1.176270,-0.958740,0.657471
1519426320545,-0.934814,-0.250244,0.148682
1519426320569,-0.593994,0.043701,-0.104004
1519426320619,-0.374512,0.222412,-0.129883
1519426320623,-0.100586,0.409424,-0.145752
1519426320694,-0.197510,0.359375,-0.432617
1519426320697,-0.376953,0.187988,-0.388428
1519426320729,-0.464111,-0.099854,-0.357666
1519426320780,-2.006592,-1.088135,0.014404
1519426320786,-2.439453,-1.242432,1.305176
1519426320841,-1.687012,-2.409424,0.688477
1519426320890,-0.848389,-1.431885,1.091064
1519426320929,-0.856201,-0.997559,0.804199
1519426320935,-0.536621,-0.682373,0.413086
1519426320976,0.110596,-0.302246,0.053223
1519426320980,0.408447,0.067139,-0.223145
1519426321029,0.260010,0.032715,-0.377197
1519426321079,0.322754,-0.280273,-0.280029
1519426321086,0.328125,-0.293945,-0.155518
1519426321130,-0.129883,-0.603027,0.039795
1519426321164,-0.937012,-1.856934,2.323242
1519426321190,-1.281982,-2.404785,1.182861
1519426321217,-1.840820,-2.183594,1.012939
1519426321241,-1.496338,-0.882080,0.728760
1519426321293,-1.060303,-0.558105,0.326172
1519426321315,-0.545410,-0.292725,-0.100586
1519426321376,-0.269043,0.114258,-0.363525
1519426321381,-0.024414,0.320313,-0.379639
1519426321422,-0.002441,0.268311,-0.233887
1519426321482,-0.226807,0.105957,-0.286377
1519426321487,-0.466797,0.215820,-0.424316
1519426321542,-0.933105,0.017334,-0.668457
1519426321546,-2.569092,-1.451904,0.060303
1519426321569,-2.001465,-3.046387,0.422852
1519426321649,-1.598633,-2.732422,0.998047
1519426321650,-0.924072,-0.748535,0.947021
1519426321727,-0.611084,-0.355469,0.434082
1519426321728,0.035889,-0.380859,0.152588
1519426321729,0.632080,-0.288818,-0.128906
1519426321822,0.655762,-0.010986,-0.246582
1519426321823,0.607422,-0.236816,-0.168213
1519426321826,0.479004,-0.505371,0.061279
1519426321907,-0.179443,-0.795166,0.220947
1519426321910,-0.974609,-1.622559,0.807617
1519426321977,-1.705322,-2.683838,1.182129
1519426321978,-1.932129,-1.468994,0.962891
1519426322067,-1.174072,-0.713379,0.918213
1519426322069,-0.792725,-0.544678,0.108643
1519426322098,-0.428467,-0.170898,-0.056152
1519426322100,-0.218994,0.106689,-0.151123
1519426322150,-0.041748,0.324951,-0.326904
1519426322238,-0.074951,0.322021,-0.412354
1519426322240,-0.322266,0.158936,-0.469727
1519426322242,-0.771729,-0.067871,-0.648193
1519426322260,-1.544678,-0.596191,-0.574951
1519426322320,-1.714111,-2.142334,0.489258
1519426322324,-1.190186,-2.617676,1.268555
1519426322351,-1.334229,-1.272217,1.175293
1519426322376,-1.115967,-0.945313,0.978760
1519426322408,-0.670166,-0.929688,0.706787
1519426322460,-0.296387,-0.622803,0.404541
1519426322473,0.127197,-0.423340,-0.000488
1519426322512,0.727295,-0.087158,-0.535400
1519426322554,0.571045,0.094727,-0.580566
1519426322584,0.680664,-0.289551,-0.382324
1519426322633,0.058838,-0.861572,0.319092
1519426322635,-0.666260,-1.380615,1.416748
1519426322744,-1.406006,-1.657959,2.961182
1519426322745,-2.036621,-1.648193,1.281494
1519426322747,-1.505615,-0.895264,1.019043
1519426322827,-1.200195,-0.688965,0.442871
1519426322829,-0.709717,-0.077148,-0.046875
1519426322914,-0.374023,0.223633,-0.115723
1519426322915,-0.107422,0.339111,-0.275635
1519426323004,-0.035400,0.190430,-0.389893
1519426323006,-0.224365,-0.014404,-0.383301
1519426323027,-0.405029,-0.136230,-0.508789
1519426323029,-1.338867,-0.487061,-0.499756
1519426323031,-2.398926,-1.847900,-0.090332
1519426323119,-0.686768,-2.115967,2.277832
1519426323121,-1.184814,-1.899902,1.417236
1519426323123,-0.836914,-0.808105,1.016113
1519426323188,-0.496826,-0.499756,0.645508
1519426323190,-0.120117,-0.398193,0.345703
1519426323273,0.323730,-0.485596,-0.072998
1519426323274,0.551025,-0.176025,-0.455322
1519426323298,0.469482,-0.053467,-0.416016
1519426323420,0.514160,-0.217773,-0.056396
1519426323475,0.144531,-0.577148,0.172607
1519426323792,-0.552246,-1.334229,1.195557
1519426323830,-1.535889,-2.525391,2.437744
1519426323835,-1.634766,-2.290527,1.200928
1519426323840,-1.198730,-0.863281,1.057129
1519426323908,-0.948730,-0.808594,0.471191
1519426323912,-0.598145,-0.492432,-0.005859
1519426323915,-0.425781,-0.054932,-0.244385
1519426323917,-0.331787,0.091064,-0.349609
1519426323982,-0.238037,0.183105,-0.409180
1519426323985,-0.482422,0.119141,-0.705322
1519426323991,-0.562012,0.113281,-0.618896
1519426324008,-1.025879,-0.481445,-0.477295
1519426324010,-1.491699,-2.291016,0.851074
1519426324012,-0.982422,-2.029785,1.829102
1519426324013,-1.460449,-1.822021,1.104248
1519426324014,-0.811768,-1.093994,1.077393
1519426324015,-0.505371,-0.416992,0.560791
1519426324017,-0.157715,-0.401611,0.039307
1519426324018,0.571533,-0.229004,-0.255371
1519426324020,0.649414,0.016602,-0.238525
1519426324201,0.611816,-0.382080,0.043701
1519426324204,0.505859,-0.723633,0.137207
1519426324207,-0.060791,-0.862061,0.307861
1519426324210,-0.749268,-1.796143,0.900146
1519426324213,-1.593506,-2.320068,1.320068
1519426324216,-1.703125,-1.434570,0.873779
1519426324235,-1.342285,-0.903076,0.756592
1519426324266,-0.762939,-0.608887,0.277100
1519426324300,-0.443359,-0.231689,-0.058350
1519426324407,-0.258789,0.048340,-0.217529
1519426324410,0.010986,0.273193,-0.218994
1519426324413,-0.028809,0.268311,-0.426025
1519426324433,-0.309082,0.136230,-0.654053
1519426324463,-0.758545,-0.119873,-0.582764
1519426324568,-1.565186,-1.123291,-0.468262
1519426324572,-2.294434,-2.237305,1.241943
1519426324575,-1.639648,-2.470703,1.196289
1519426324604,-0.993896,-1.688232,0.960449
1519426324679,-0.855469,-0.732910,0.672852
1519426324683,-0.389893,-0.490967,0.183594
1519426324686,0.257324,-0.381104,0.035400
1519426324777,0.722412,-0.052490,-0.111816
1519426324796,0.666748,-0.269775,-0.104736
1519426324801,0.726074,-0.517334,0.019043
1519426324817,0.465820,-0.746094,0.348389
1519426324887,-0.668701,-1.556885,0.760254
1519426324891,-1.659912,-1.266846,2.314209
1519426324917,-2.003662,-2.458984,1.104492
1519426325125,-1.755127,-1.180420,0.770996
1519426325132,-1.014648,-0.680908,0.425049
1519426325139,-0.699707,-0.439209,0.222900
1519426325141,-0.154541,-0.075684,0.150635
1519426325142,0.121338,0.323242,-0.204102
1519426325143,0.149658,0.554443,-0.468506
1519426325217,-0.119385,0.423584,-1.021973
1519426325221,-0.543945,0.308594,-1.171631
1519426325222,-0.731934,0.355469,-0.642578
1519426325291,-3.337158,-1.597412,0.353027
1519426325294,0.723633,-2.732178,1.513184
1519426325296,-2.353516,-2.032227,0.600830
1519426325345,-1.256348,-1.421875,1.118896
1519426325374,-1.021484,-0.808105,1.186768
1519426325402,-0.493408,-0.802246,0.873535
1519426325461,0.329834,-0.356201,0.074951
1519426325465,1.033691,0.188721,-0.272949
1519426325502,0.825684,-0.284424,-0.055664
1519426325532,0.626465,-0.747803,0.284180
1519426325574,-0.302979,-1.045654,0.723389
1519426325652,-1.408936,-1.517090,1.480469
1519426325656,-1.854736,-1.929688,0.959229
1519426325679,-1.835693,-1.148682,0.857422
1519426325702,-1.219482,-0.833252,0.599365
1519426325731,-0.624268,-0.379395,0.372559
1519426325835,-0.242676,-0.145996,0.147705
1519426325840,0.206543,-0.048584,-0.123291
1519426325845,0.325928,0.419189,-0.523926
1519426325863,-0.009521,0.453857,-0.639648
1519426325885,-0.295898,0.322510,-0.733154
1519426325928,-1.192871,-0.280762,-0.729736
1519426326012,-3.675537,-2.068604,0.940430
1519426326023,-1.060791,-3.464111,1.208252
1519426326026,-1.157471,-2.295654,1.353760
1519426326047,-0.660645,-0.712158,0.982910
1519426326095,-0.085693,-0.093994,0.686523
1519426326129,0.520264,-0.084717,0.242432
1519426326173,0.630371,-0.001953,-0.165771
1519426326176,0.388916,-0.200439,-0.157227
1519426326223,0.491455,-0.380859,0.095215
1519426326245,0.337158,-0.460449,0.483643
1519426326287,-0.576172,-0.594238,1.110840
1519426326307,-1.379395,-0.410400,1.611572
1519426326358,-1.258057,-0.690674,2.851318
1519426326382,-1.553467,-1.083984,1.407959
1519426326430,-1.165527,-0.532227,0.423584
1519426326461,-0.947754,-0.113037,0.160400
1519426326489,-0.732422,0.139893,0.047363
1519426326516,-0.417236,0.280029,-0.018555
1519426326558,-0.323486,0.257324,-0.279541
1519426326564,-0.247803,0.141113,-0.617676
1519426326624,-0.300781,-0.309814,-0.543945
1519426326686,-0.539307,-0.595215,-0.670166
1519426326691,-2.278809,-1.990479,0.339355
1519426326705,-0.335449,-1.783936,2.045898
1519426326740,-1.439941,-2.153076,1.127441
1519426326767,-1.075684,-1.461670,1.155029
1519426326795,-0.670410,-0.884521,0.647217
1519426326876,-0.043457,-0.552979,0.376221
1519426326880,0.491943,-0.114502,0.224365
1519426326902,0.656494,0.255615,-0.135742
1519426326931,0.582031,0.106689,-0.269775
1519426326956,0.664795,-0.244629,-0.100586
1519426327022,0.452393,-0.739502,0.489746
1519426327044,-0.455078,-1.437744,0.851563
1519426327065,-1.226074,-1.207275,2.323975
1519426327097,-1.875732,-2.120117,1.317383
1519426327121,-1.786865,-1.196289,1.298340
1519426327228,-1.247070,-0.891846,0.849854
1519426327231,-0.717041,-0.277832,0.165527
1519426327234,-0.668701,-0.007813,-0.110840
1519426327255,-0.624512,0.167725,-0.308594
1519426327291,-0.156494,0.162598,-0.406250
1519426327406,-0.142578,0.214355,-0.571533
1519426327411,-0.189941,0.220703,-0.679688
1519426327414,-1.055176,-0.578369,-0.469238
1519426327417,-1.591309,-2.368164,0.684814
1519426327447,-1.469971,-1.123047,3.342041
1519426327493,-1.501465,-1.760498,1.130371
1519426327583,-0.938965,-0.950439,0.903564
1519426327588,-0.613281,-0.528809,0.576904
1519426327590,0.212158,-0.319092,0.144775
1519426327627,0.663574,-0.010498,-0.211914
1519426327648,0.766602,0.084717,-0.280518
1519426327757,0.796387,-0.476318,0.145752
1519426327762,0.214355,-0.608887,0.364746
1519426327765,-0.518555,-1.302490,0.956055
1519426327786,-1.174805,-2.161133,2.562256
1519426327813,-1.567383,-2.782227,0.726318
1519426327840,-1.765625,-1.494629,0.724609
1519426327892,-1.012939,-0.650635,0.327637
1519426327948,-0.595947,-0.289795,-0.048828
1519426327999,-0.394775,0.057373,-0.169922
1519426328007,-0.278320,0.288086,-0.185059
1519426328011,-0.097900,0.377441,-0.372559
1519426328058,-0.221191,0.223633,-0.449951
1519426328087,-0.421875,0.024170,-0.728516
1519426328115,-1.075684,-0.364746,-0.892334
1519426328122,-3.086426,-2.103271,-0.217773
1519426328233,-0.865723,-3.660645,1.357178
1519426328237,-1.138672,-2.187256,1.177246
1519426328241,-0.877197,-0.839355,0.983887
1519426328266,-0.337158,-0.561279,0.537354
1519426328303,-0.013916,-0.390137,0.232422
1519426328327,0.489502,-0.174805,-0.125488
1519426328355,0.664795,0.203613,-0.447754
1519426328390,0.619629,-0.162598,-0.241455
1519426328419,0.610840,-0.384033,0.000732
1519426328478,-0.208740,-0.838135,0.492920
1519426328508,-0.981934,-1.526855,1.169922
1519426328536,-0.859619,-2.162598,3.132324
1519426328557,-1.711426,-1.589355,0.933350
1519426328587,-1.231934,-1.133545,0.683350
1519426328612,-0.960938,-0.637207,0.444824
1519426328723,-0.539063,-0.292480,0.001953
1519426328727,-0.289795,-0.018799,-0.176025
1519426328736,-0.191650,0.192383,-0.322021
1519426328781,-0.022217,0.296875,-0.660400
1519426328785,-0.026367,0.347412,-0.726807
1519426328802,-0.423096,0.448486,-0.854492
1519426328885,-1.391602,-0.531738,-0.642090
1519426329024,-3.054688,-3.608398,0.651367
1519426329077,-1.683594,-2.431152,2.544189
1519426329292,-1.172852,-1.186768,1.520264
1519426329317,-0.899414,-0.754150,1.173584
1519426329335,-0.682373,-0.817139,0.726563
1519426329339,0.096436,-0.499023,0.190430
1519426329341,0.644775,-0.099854,-0.217773
1519426329344,1.021240,0.228027,-0.506348
1519426329347,0.833252,-0.354492,-0.270996
1519426329354,0.458740,-0.354736,0.163818
1519426329357,-0.638916,-0.463623,0.622070
1519426329359,-1.058105,-1.697510,1.631104
1519426329361,-1.539795,-1.765381,1.959961
1519426329363,-1.546143,-1.254395,1.755371
1519426329364,-1.100098,-1.008789,0.835693
1519426329379,-0.752197,-0.475830,0.294434
1519426329382,-0.477051,-0.173584,0.074707
1519426329454,-0.176270,0.121338,-0.160889
1519426329481,-0.108887,0.231934,-0.302490
1519426329484,-0.124512,0.231934,-0.491943
1519426329536,-0.336182,0.123535,-0.615234
1519426329557,-0.511475,-0.169922,-0.625488
1519426329581,-1.455322,-0.918457,-0.418457
1519426329644,-1.582275,-2.794922,0.973389
1519426329649,-1.121094,-3.516113,1.167236
1519426329699,-0.600098,-2.037109,1.041504
1519426329720,-0.253662,-0.666992,0.751465
1519426329749,-0.188721,-0.528809,0.561768
1519426329805,-0.030518,-0.403564,0.374756
1519426329810,0.391357,-0.218262,-0.232910
1519426329868,0.504883,0.067383,-0.432373
1519426329891,0.458740,-0.053467,-0.378662
1519426329911,0.498535,-0.354736,-0.067871
1519426329963,-0.006348,-1.236328,0.628418
1519426329994,-0.833252,-1.529785,1.364014
1519426330007,-0.015137,-2.748535,2.332764
1519426330055,-1.597656,-2.539795,0.993408
1519426330080,-1.216797,-1.195801,0.597656
1519426330108,-0.942627,-0.553223,-0.053955
1519426330159,-0.665283,-0.126709,-0.362549
1519426330164,-0.447510,0.257568,-0.455811
1519426330223,-0.206543,0.281494,-0.339111
1519426330248,-0.112061,0.203125,-0.339600
1519426330279,-0.121094,0.088623,-0.433105
1519426330309,-0.405762,-0.097656,-0.583496
1519426330335,-1.193604,-1.003662,-0.665039
1519426330420,-3.090820,-2.786133,0.682129
1519426330425,-0.816162,-3.011475,1.493652
1519426330431,-0.602295,-1.577148,1.148682
1519426330472,-0.455078,-0.695801,0.728027
1519426330521,-0.219727,-0.395508,0.354736
1519426330535,0.099854,-0.387939,0.055420
1519426330567,0.450684,-0.243896,-0.180664
1519426330606,0.466064,0.027832,-0.404541
1519426330657,0.688721,-0.255127,-0.196289
1519426330663,0.677490,-0.524658,0.164063
1519426330708,-0.179443,-1.224609,0.800293
1519426330739,-0.878174,-1.906006,1.921631
1519426330765,-0.877686,-3.533691,2.357422
1519426330794,-1.617432,-1.440430,0.545410
1519426330820,-1.105225,-0.618164,0.264648
1519426330893,-0.871826,-0.242188,-0.134277
1519426330897,-0.479492,0.065430,-0.275635
1519426330944,-0.377197,0.162109,-0.156982
1519426330949,-0.231445,0.235107,-0.093262
1519426331014,-0.218994,0.175049,-0.380615
1519426331040,-0.392578,0.049316,-0.548584
1519426331046,-0.564453,-0.082031,-0.588135
1519426331143,-2.286865,-2.137695,0.216309
1519426331171,-1.012939,-3.328125,2.191162
1519426331175,-0.944580,-2.142334,1.259277
1519426331179,-0.742188,-0.842285,0.931396
1519426331240,-0.655518,-0.721436,0.902832
1519426331267,-0.430908,-0.656982,0.579346
1519426331287,0.077881,-0.367676,-0.168701
1519426331304,0.231934,0.101807,-0.643555
1519426331344,0.375244,0.173096,-0.725342
1519426331374,0.989014,-0.195557,0.029297
1519426331403,0.870361,-0.305664,0.528320
1519426331446,-0.015625,-0.898438,0.860596
1519426331532,-1.260742,-3.440918,2.781982
1519426331535,-1.807129,-3.176514,1.223633
1519426331538,-1.509521,-1.197998,0.688232
1519426331593,-0.946289,-0.515625,0.020996
1519426331596,-0.609863,-0.172852,-0.186768
1519426331673,-0.383789,0.095703,-0.273193
1519426331676,-0.083984,0.296143,-0.381592
1519426331715,0.053223,0.103760,-0.345459
1519426331730,-0.285645,0.228271,-0.571289
1519426331779,-0.649170,0.282959,-0.880859
1519426331801,-1.337402,-0.716064,-0.653809
1519426331833,-2.363525,-2.865723,0.693848
1519426331875,-1.459473,-1.973145,1.388428
1519426331936,-0.882568,-1.742676,1.416992
1519426331940,-0.822754,-1.069092,1.127686
1519426332005,-0.662842,-0.735840,0.563477
1519426332008,-0.262451,-0.463623,0.041260
1519426332036,0.374023,-0.245117,-0.290283
1519426332056,0.623779,0.312012,-0.392090
1519426332122,0.666016,-0.081787,-0.162598
1519426332125,0.840332,-0.762939,0.047852
1519426332154,0.368896,-1.074707,0.229248
1519426332205,-0.585205,-2.275391,0.624023
1519426332264,-1.330811,-1.687012,2.360107
1519426332271,-1.943848,-2.767334,1.156982
1519426332286,-1.559570,-0.947754,0.632813
1519426332317,-1.021484,-0.708252,0.231445
1519426332365,-0.675537,-0.226074,-0.261963
1519426332393,-0.418213,0.116943,-0.235596
1519426332421,-0.205322,0.287598,-0.363525
1519426332463,-0.201660,0.349365,-0.304688
1519426332472,-0.349854,0.119873,-0.758301
1519426332517,-0.474121,-0.047119,-0.699707
1519426332546,-1.212646,-0.711426,-0.203369
1519426332569,-1.791016,-2.112305,0.026855
1519426332617,-1.024170,-3.545898,1.030273
1519426332657,-1.205078,-1.909424,0.037109
1519426332679,-0.814209,-1.445068,0.458252
1519426332707,-0.620850,-0.515137,0.647705
1519426332735,-0.322998,-0.502197,0.110352
1519426332781,0.027100,-0.381836,-0.413330
1519426332807,0.504639,0.086426,-0.524658
1519426332835,0.630859,-0.026611,-0.368896
1519426332888,0.753662,-0.374268,-0.255615
1519426332909,0.586914,-0.740479,-0.140625
1519426332992,-0.503174,-1.455078,-0.141357
1519426332994,-1.674072,-2.883545,1.477051
1519426333004,-2.108398,-3.177490,-0.538330
1519426333040,-1.645752,-1.401123,0.188965
1519426333080,-1.287842,-0.991211,-0.046143
1519426333082,-0.839844,-0.141357,-0.364014
1519426333145,-0.452148,0.470703,-0.112549
1519426333150,-0.218506,0.482422,-0.048096
1519426333188,-0.123047,0.489990,-0.193604
1519426333246,-0.348389,0.619385,-0.613281
1519426333250,-0.338379,0.358154,-0.563232
1519426333290,-0.879150,0.223633,-0.485596
1519426333315,-1.896484,-1.177490,-0.988770
1519426333359,-1.834229,-4.166992,0.055664
1519426333397,-1.318115,-3.338135,-0.668701
1519426333412,-0.520020,-1.495605,0.254150
1519426333448,-0.522705,-0.795410,0.286865
1519426333499,-0.251221,-0.447998,0.054199
1519426333527,0.470215,-0.363525,-0.215332
1519426333555,0.832275,0.002197,-0.294922
1519426333586,0.565430,0.218750,-0.299316
1519426333611,0.861816,-0.224121,-0.315674
1519426333650,0.687500,-0.572754,-0.103271
1519426333678,-0.142090,-1.357178,-0.592285
1519426333736,-2.419434,-3.696289,0.865967
1519426333761,-2.222656,-2.937744,-0.331543
1519426333789,-1.538086,-1.608398,0.205322
1519426333814,-0.948486,-0.505615,-0.258789
1519426333860,-0.487793,-0.035889,-0.196533
1519426333886,-0.177734,0.209717,-0.249512
1519426334004,0.003906,0.465088,-0.157715
1519426334026,-0.088135,0.570557,-0.010742
1519426334071,-0.211182,0.496338,-0.305908
1519426334115,-0.333008,0.313965,-0.225586
1519426334129,-0.562500,-0.037109,-0.394043
1519426334135,-2.360840,-1.155029,-1.211914
1519426334139,-0.379150,-2.562500,-0.360352
1519426334140,-1.706543,-1.845703,-0.157715
1519426334181,-0.749268,-1.652588,0.224365
1519426334334,-0.487305,-0.898438,0.230713
1519426334341,-0.082031,-0.430420,0.029053
1519426334343,0.550781,-0.017822,-0.412354
1519426334346,0.546875,0.461426,-0.501709
1519426334349,0.589355,0.273926,-0.468018
1519426334362,0.770264,-0.307373,-0.452637
1519426334405,0.021729,-1.316895,-0.381592
1519426334433,-1.634766,-4.056641,1.764160
1519426334473,-0.957275,-3.463379,-0.739258
1519426334493,-1.321777,-1.497070,0.427979
1519426334532,-0.969727,-1.399414,-0.012207
1519426334557,-0.702637,-0.629883,-0.287354
1519426334605,-0.410156,0.037109,-0.310059
1519426334630,-0.290771,0.229248,-0.300049
1519426334661,-0.207520,0.337402,-0.168701
1519426334701,-0.130127,0.358643,-0.108887
1519426334713,-0.243652,0.370850,-0.300781
1519426334751,-0.734131,0.472900,-0.240479
1519426334795,-0.937744,-0.200439,-0.838867
1519426334825,-3.208008,-3.670654,-0.432617
1519426334860,-0.488525,-2.088379,-0.077881
1519426334892,-0.961182,-1.294678,0.081787
1519426334917,-0.856445,-1.390869,0.254883
1519426334943,-0.761963,-1.067383,0.205322
1519426334981,-0.113037,-0.514160,-0.144287
1519426335006,0.299316,-0.031738,-0.449951
1519426335049,0.739990,0.116455,-0.318359
1519426335075,0.299561,-0.419434,-0.507568
1519426335122,0.672852,-0.623779,-0.438721
1519426335142,0.373779,-0.347656,-0.117676
1519426335185,-0.308350,-2.022949,0.053955
1519426335215,-0.835205,-4.042969,1.356934
1519426335241,-1.403320,-2.378662,0.179688
1519426335284,-1.168457,-1.238281,-0.061523
1519426335311,-1.116211,-0.543457,-0.263916
1519426335343,-0.714111,-0.071777,-0.131836
1519426335387,-0.306152,0.183350,-0.010986
1519426335408,-0.127930,0.374512,0.003418
1519426335440,-0.152588,0.495361,-0.400146
1519426335487,-0.428955,0.454102,-0.415283
1519426335491,-0.383301,0.128174,-0.153809
1519426335523,-0.912842,-0.362549,-0.350098
1519426335560,-2.297852,-4.065186,1.143555
1519426335589,-1.585449,-2.150146,-0.031494
1519426335620,-1.325439,-1.381592,0.305664
1519426335672,-0.875732,-1.500244,0.466553
1519426335692,-0.676514,-0.832031,0.262939
1519426335737,-0.140625,-0.406982,-0.045166
1519426335761,0.613770,0.032959,-0.536133
1519426335789,0.559814,-0.068604,-0.520996
1519426335823,0.826660,-0.155762,-0.195801
1519426335856,0.377197,-0.230469,-0.161621
1519426335901,-0.193359,-1.282715,0.293701
1519426335904,-0.836914,-3.241455,1.001221
1519426335973,-1.380859,-2.043701,0.600098
1519426335977,-1.455566,-2.075928,0.320068
1519426336002,-1.284180,-1.288574,0.034912
1519426336054,-0.678955,-0.458740,-0.166748
1519426336079,-0.445068,-0.333252,-0.007324
1519426336118,-0.055420,-0.059326,0.106689
1519426336149,-0.021973,0.549805,-0.126221
1519426336174,-0.315674,0.712158,-0.485107
1519426336215,-0.471191,0.584717,-0.667725
1519426336275,-0.750488,0.197021,-0.464844
1519426336280,-1.171143,-0.655518,-0.891602
1519426336306,-2.265137,-3.520996,-0.254150
1519426336345,-1.308838,-3.026855,-0.270264
1519426336375,-0.566650,-2.030518,0.002197
1519426336411,-0.559570,-1.060303,0.302979
1519426336433,-0.415283,-0.787598,0.255859
1519426336481,-0.075928,-0.491943,0.172363
1519426336502,0.201660,-0.238037,-0.174316
1519426336545,0.530273,0.179443,-0.418701
1519426336594,0.694336,0.087646,-0.402832
1519426336599,0.805176,-0.359863,-0.229004
1519426336646,0.487793,-0.808838,-0.062988
1519426336685,-0.354004,-2.356201,0.092041
1519426336690,-1.343506,-4.090088,1.412842
1519426336738,-2.115234,-2.040283,0.104004
1519426336755,-1.308105,-1.142334,0.173340
1519426336787,-1.146484,-0.745605,-0.021484
1519426336834,-0.687500,-0.181641,-0.332031
1519426336862,-0.480225,0.005615,-0.189453
1519426336892,-0.281006,0.228516,-0.067139
1519426336939,-0.175293,0.531250,-0.304199
1519426336966,-0.345703,0.643799,-0.514404
1519426336993,-0.423828,0.361572,-0.411133
1519426337023,-0.994629,-0.242676,-0.776855
1519426337051,-2.875977,-3.387939,-0.100342
1519426337088,-0.408447,-1.995117,-0.155518
1519426337130,-1.428467,-1.830322,0.158936
1519426337151,-0.819580,-1.078369,0.407959
1519426337185,-0.610596,-1.118408,0.361328
1519426337231,-0.288574,-0.529053,0.024658
1519426337255,0.187988,-0.103516,-0.234375
1519426337285,0.614014,0.069092,-0.351807
1519426337325,0.486328,-0.182617,-0.302246
1519426337366,0.591309,-0.533936,-0.135498
1519426337377,0.496826,-0.707764,-0.031738
1519426337420,-0.661377,-2.503418,0.025391
1519426337449,-0.896729,-3.471924,1.558350
1519426337477,-1.869385,-1.764160,0.033936
1519426337530,-1.358398,-0.951660,0.506104
1519426337542,-1.088623,-1.166992,0.206787
1519426337592,-0.832275,-0.322998,-0.055176
1519426337621,-0.457031,0.280029,-0.180664
1519426337655,-0.275635,0.390869,-0.187744
1519426337682,-0.189209,0.441162,-0.279053
1519426337708,-0.230469,0.368408,-0.487793
1519426337755,-0.353271,0.419189,-0.502441
1519426337782,-0.517578,0.334717,-0.871094
1519426337806,-1.987061,-2.214844,-0.430420
1519426337828,-1.366943,-3.551025,-1.744141
1519426337879,-0.963379,-1.664551,-0.572021
1519426337900,-0.796387,-1.901611,-0.025635
1519426337943,-0.515869,-1.468018,-0.134521
1519426337966,-0.560059,-0.652100,-0.117188
1519426337996,0.126953,-0.079590,-0.423828
1519426338046,0.723877,0.361328,-0.551270
1519426338070,0.916016,0.419922,-0.502930
1519426338117,0.812988,-0.154541,-0.332031
1519426338147,0.582275,-0.451904,-0.197021
1519426338152,-0.109131,-1.529785,-0.163818
1519426338195,-0.756836,-3.333252,-0.410645
1519426338241,-1.642334,-2.398682,0.087158
1519426338248,-1.006104,-1.460693,0.097900
1519426338295,-0.899658,-0.937988,-0.330811
1519426338320,-0.566895,-0.171875,-0.413574
1519426338353,-0.419922,0.255859,-0.338623
1519426338394,-0.297607,0.526611,-0.084717
1519426338416,-0.156738,0.581299,-0.050537
1519426338444,-0.373535,0.505371,-0.257080
1519426338488,-0.597412,0.259277,-0.567871
1519426338512,-0.814941,-0.277588,-0.887939
1519426338566,-3.275391,-4.560059,-0.450195
1519426338593,-0.665283,-2.090820,-0.604248
1519426338616,-0.927246,-1.688477,0.121826
1519426338662,-0.678955,-1.290283,0.125977
1519426338683,-0.419678,-1.059082,-0.029053
1519426338739,-0.081055,-0.674316,-0.248291
1519426338767,0.538086,-0.187256,-0.410400
1519426338786,1.051758,0.153076,-0.289063
1519426338822,0.735107,-0.438232,-0.177979
1519426338850,1.069580,-0.804199,-0.283447
1519426338893,-0.026855,-0.371826,-0.227783
1519426338921,-1.167969,-1.261475,0.064941
1519426338950,-1.252930,-2.962646,1.389893
1519426338976,-1.953125,-2.453125,0.590332
1519426339027,-1.414063,-1.430908,0.374512
1519426339034,-0.952393,-0.689697,0.113525
1519426339076,-0.658203,-0.043457,-0.148438
1519426339106,-0.499268,0.121582,-0.016113
1519426339127,-0.264893,0.260986,0.072998
1519426339164,-0.116455,0.483643,-0.241455
1519426339211,-0.402344,0.499268,-0.329102
1519426339237,-0.497559,0.208984,-0.495850
1519426339273,-0.662354,-0.302002,-0.788330
