1519240518546,-0.643311,-0.768311,0.048340
1519240518597,-0.639648,-0.766113,0.049805
1519240518627,-0.644287,-0.767334,0.049072
1519240518645,-0.637939,-0.771973,0.045410
1519240518695,-0.644531,-0.768555,0.046631
1519240518713,-0.638672,-0.770752,0.046631
1519240518745,-0.641113,-0.770264,0.044678
1519240518792,-0.640625,-0.771973,0.046387
1519240518810,-0.642334,-0.769287,0.048584
1519240518844,-0.642578,-0.764648,0.044434
1519240518877,-0.640625,-0.767822,0.039063
1519240518911,-0.645996,-0.761719,0.043457
1519240518948,-0.638184,-0.769043,0.046875
1519240518973,-0.638184,-0.771484,0.045166
1519240519010,-0.643066,-0.775635,0.048340
1519240519044,-0.635010,-0.772949,0.048828
1519240519077,-0.639893,-0.770020,0.042725
1519240519112,-0.636719,-0.773682,0.049805
1519240519128,-0.639893,-0.771484,0.045898
1519240519174,-0.637695,-0.767578,0.038086
1519240519212,-0.632813,-0.772461,0.040527
1519240519225,-0.650635,-0.769043,0.038086
1519240519276,-0.645020,-0.773682,0.040283
1519240519294,-0.630859,-0.777100,0.040771
1519240519329,-0.647217,-0.769531,0.045410
1519240519375,-0.639160,-0.770264,0.044434
1519240519390,-0.640625,-0.764160,0.044434
1519240519423,-0.641357,-0.767090,0.044434
1519240519465,-0.637207,-0.771973,0.044189
1519240519494,-0.642090,-0.771240,0.044678
1519240519527,-0.637939,-0.771729,0.038330
1519240519554,-0.638672,-0.769775,0.041992
1519240519588,-0.636475,-0.770264,0.041016
1519240519624,-0.637939,-0.770264,0.040527
1519240519664,-0.640625,-0.771240,0.043213
1519240519694,-0.637451,-0.772461,0.043701
1519240519709,-0.638672,-0.770020,0.039307
1519240519756,-0.638428,-0.770996,0.042725
1519240519788,-0.638184,-0.768555,0.042969
1519240519806,-0.638428,-0.773193,0.039307
1519240519842,-0.637939,-0.772217,0.038818
1519240519874,-0.637207,-0.767090,0.046875
1519240519918,-0.639160,-0.765869,0.041992
1519240519944,-0.640381,-0.766846,0.039551
1519240519972,-0.639648,-0.770264,0.039063
1519240520005,-0.637451,-0.771484,0.039795
1519240520038,-0.636230,-0.783203,0.036133
1519240520072,-0.637451,-0.773193,0.043213
1519240520109,-0.637451,-0.767822,0.040771
1519240520148,-0.633301,-0.774902,0.038818
1519240520168,-0.642090,-0.776611,0.035889
1519240520205,-0.636230,-0.776367,0.033691
1519240520238,-0.634766,-0.777344,0.037598
1519240520256,-0.625244,-0.773193,0.041016
1519240520290,-0.633789,-0.778809,0.039795
1519240520325,-0.630615,-0.785645,0.040283
1519240520352,-0.632813,-0.769287,0.036621
1519240520388,-0.630127,-0.785889,0.049316
1519240520419,-0.635254,-0.770752,0.038086
1519240520455,-0.633301,-0.773682,0.041504
1519240520489,-0.633301,-0.773193,0.038330
1519240520524,-0.634766,-0.766846,0.040039
1519240520550,-0.630371,-0.765137,0.041748
1519240520584,-0.632324,-0.770020,0.041016
1519240520619,-0.625732,-0.787598,0.040771
1519240520654,-0.628174,-0.785645,0.040771
1519240520689,-0.631104,-0.781250,0.040283
1519240520721,-0.629639,-0.769287,0.044678
1519240520738,-0.636475,-0.773438,0.038574
1519240520767,-0.630371,-0.776855,0.035156
1519240520818,-0.629150,-0.778320,0.040283
1519240520836,-0.633057,-0.776123,0.042480
1519240520869,-0.635254,-0.777588,0.044189
1519240520903,-0.627197,-0.778320,0.043213
1519240520939,-0.634277,-0.772949,0.044189
1519240520975,-0.626465,-0.786133,0.041992
1519240521002,-0.633545,-0.777344,0.040039
1519240521038,-0.628906,-0.775635,0.040771
1519240521071,-0.630859,-0.774902,0.047363
1519240521105,-0.630127,-0.775635,0.046387
1519240521137,-0.631348,-0.777832,0.044922
1519240521167,-0.630859,-0.776855,0.049805
1519240521200,-0.628662,-0.783203,0.039795
1519240521233,-0.628418,-0.779541,0.041992
1519240521251,-0.635498,-0.774170,0.044922
1519240521303,-0.625488,-0.776855,0.041504
1519240521321,-0.635010,-0.771729,0.046143
1519240521349,-0.627930,-0.783203,0.043213
1519240521400,-0.630615,-0.777832,0.049805
1519240521417,-0.624023,-0.781006,0.047363
1519240521452,-0.631348,-0.775146,0.041748
1519240521486,-0.625977,-0.778076,0.042236
1519240521519,-0.633301,-0.775146,0.043701
1519240521546,-0.626953,-0.785156,0.044678
1519240521582,-0.629395,-0.776855,0.043457
1519240521617,-0.633057,-0.776855,0.046631
1519240521650,-0.628418,-0.778320,0.046387
1519240521683,-0.628418,-0.777832,0.044922
1519240521716,-0.631592,-0.781006,0.044678
1519240521734,-0.626221,-0.778320,0.049072
1519240521780,-0.624756,-0.781006,0.047852
1519240521831,-0.628662,-0.769043,0.043945
1519240521845,-0.625488,-0.786377,0.045166
1519240521883,-0.638428,-0.789307,0.033936
1519240521911,-0.634521,-0.774414,0.046875
1519240521935,-0.634277,-0.766357,0.054932
1519240521979,-0.635742,-0.776855,0.051758
1519240521997,-0.635498,-0.765625,0.056396
1519240522032,-0.637695,-0.765137,0.055176
1519240522070,-0.639160,-0.772461,0.043213
1519240522099,-0.639648,-0.773926,0.043945
1519240522133,-0.632080,-0.773682,0.041260
1519240522161,-0.636475,-0.777100,0.050537
1519240522197,-0.638672,-0.780762,0.051758
1519240522261,-0.634766,-0.766357,0.050293
1519240522267,-0.637451,-0.772949,0.041748
1519240522299,-0.638428,-0.762451,0.051758
1519240522325,-0.639160,-0.777344,0.047607
1519240522368,-0.634521,-0.774414,0.043701
1519240522402,-0.642578,-0.774658,0.039795
1519240522413,-0.639404,-0.770752,0.049072
1519240522465,-0.641113,-0.759521,0.048584
1519240522482,-0.641113,-0.764160,0.056152
1519240522516,-0.640625,-0.759277,0.048584
1519240522562,-0.639404,-0.767822,0.049316
1519240522579,-0.638672,-0.774658,0.046387
1519240522612,-0.642578,-0.779785,0.040527
1519240522688,-0.638428,-0.774414,0.042969
1519240522696,-0.645020,-0.768066,0.043457
1519240522754,-0.637207,-0.769287,0.047119
1519240523025,-0.640869,-0.769531,0.047852
1519240523094,-0.640381,-0.766602,0.053467
1519240523103,-0.642822,-0.769531,0.045654
1519240523199,-0.639893,-0.771729,0.040283
1519240523202,-0.639160,-0.768066,0.044678
1519240523205,-0.639404,-0.772949,0.042236
1519240523210,-0.640625,-0.770508,0.046143
1519240523218,-0.642578,-0.767334,0.046143
1519240523226,-0.638916,-0.760254,0.049316
1519240523231,-0.635986,-0.770996,0.047852
1519240523235,-0.640381,-0.772949,0.042725
1519240523238,-0.638428,-0.768799,0.042725
1519240523241,-0.639160,-0.779053,0.040527
1519240523244,-0.638184,-0.777344,0.039063
1519240523247,-0.635986,-0.766113,0.048828
1519240523250,-0.637695,-0.775879,0.043457
1519240523259,-0.637939,-0.765869,0.043457
1519240523294,-0.633301,-0.771973,0.048340
1519240523329,-0.638428,-0.783203,0.038330
1519240523357,-0.637207,-0.767578,0.039307
1519240523392,-0.638428,-0.770752,0.044678
1519240523427,-0.638916,-0.774902,0.051758
1519240523461,-0.638916,-0.767334,0.048096
1519240523478,-0.638916,-0.764160,0.045410
1519240523529,-0.637207,-0.774414,0.049072
1519240523557,-0.635498,-0.778320,0.041016
1519240523609,-0.638184,-0.768311,0.039307
1519240523625,-0.635498,-0.770752,0.051758
1519240523681,-0.637939,-0.758057,0.052979
1519240523686,-0.635010,-0.769287,0.042969
1519240523713,-0.635010,-0.782715,0.043945
1519240523759,-0.638916,-0.786133,0.044678
1519240523772,-0.625977,-0.788330,0.037842
1519240523807,-0.634766,-0.773193,0.046387
1519240523841,-0.632568,-0.776123,0.050537
1519240523876,-0.634521,-0.763184,0.048584
1519240523912,-0.636230,-0.766846,0.041992
1519240523938,-0.635010,-0.767578,0.052002
1519240523999,-0.633545,-0.770996,0.050049
1519240524005,-0.631104,-0.783203,0.030273
1519240524040,-0.630371,-0.784668,0.046631
1519240524058,-0.626465,-0.787842,0.046875
1519240524178,-0.629150,-0.787109,0.037842
1519240524179,-0.630371,-0.779053,0.045410
1519240524180,-0.629639,-0.771729,0.055176
1519240524206,-0.632324,-0.766846,0.045898
1519240524222,-0.628174,-0.777344,0.043945
1519240524256,-0.631592,-0.770996,0.049805
1519240524291,-0.627930,-0.782715,0.038818
1519240524325,-0.627930,-0.784668,0.046875
1519240524352,-0.627930,-0.783691,0.049561
1519240524394,-0.627686,-0.777588,0.044678
1519240524423,-0.629883,-0.771729,0.048584
1519240524457,-0.627441,-0.778564,0.049561
1519240524491,-0.628418,-0.777588,0.047607
1519240524530,-0.629639,-0.778564,0.045654
1519240524551,-0.628174,-0.777100,0.050537
1519240524585,-0.626465,-0.771973,0.054932
1519240524623,-0.627930,-0.772705,0.051514
1519240524639,-0.628662,-0.773682,0.042725
1519240524692,-0.623779,-0.783447,0.039307
1519240524707,-0.626709,-0.798828,0.043213
1519240524733,-0.614746,-0.790283,0.037598
1519240524794,-0.629639,-0.790527,0.043457
1519240524803,-0.621094,-0.774902,0.044922
1519240524836,-0.626953,-0.781006,0.047852
1519240524871,-0.623779,-0.779785,0.048584
1519240524905,-0.624023,-0.777100,0.041992
1519240524933,-0.622559,-0.782471,0.048096
1519240524968,-0.625977,-0.779785,0.044189
1519240525002,-0.623779,-0.785889,0.043457
1519240525038,-0.621826,-0.779785,0.048828
1519240525072,-0.621826,-0.784180,0.042969
1519240525106,-0.626953,-0.781494,0.041992
1519240525123,-0.625000,-0.786377,0.047607
1519240525167,-0.624512,-0.780273,0.046387
1519240525202,-0.624023,-0.780273,0.045166
1519240525219,-0.626953,-0.779785,0.044678
1519240525252,-0.622803,-0.786621,0.046631
1519240525287,-0.623535,-0.782471,0.044922
1519240525321,-0.623291,-0.782715,0.045654
1519240525350,-0.625244,-0.783203,0.050049
1519240525383,-0.622314,-0.785645,0.047119
1519240525418,-0.625000,-0.778809,0.046631
1519240525454,-0.624756,-0.783691,0.044189
1519240525489,-0.626709,-0.775146,0.044922
1519240525521,-0.628662,-0.777832,0.044434
1519240525547,-0.618652,-0.787109,0.046387
1519240525582,-0.625488,-0.782715,0.047852
1519240525618,-0.620117,-0.791748,0.046143
1519240525670,-0.626953,-0.779541,0.050537
1519240525673,-0.620117,-0.783447,0.045166
1519240525703,-0.626465,-0.774170,0.041992
1519240525749,-0.619385,-0.789307,0.044434
1519240525764,-0.626221,-0.782715,0.040283
1519240525799,-0.625244,-0.789795,0.044434
1519240525833,-0.624268,-0.781738,0.050293
1519240525868,-0.624268,-0.780273,0.048340
1519240525903,-0.624268,-0.780762,0.049805
1519240525930,-0.623779,-0.776367,0.046875
1519240525963,-0.625244,-0.780029,0.045654
1519240525999,-0.626221,-0.795410,0.038330
1519240526033,-0.632568,-0.779785,0.037842
1519240526066,-0.625488,-0.761963,0.039795
1519240526101,-0.631348,-0.783203,0.048584
1519240526129,-0.631348,-0.774658,0.045898
1519240526163,-0.631348,-0.768555,0.045654
1519240526181,-0.630615,-0.770752,0.053711
1519240526234,-0.631836,-0.786133,0.044434
1519240526252,-0.628174,-0.777100,0.045898
1519240526283,-0.634521,-0.778320,0.039795
1519240526317,-0.635254,-0.772949,0.042725
1519240526356,-0.630127,-0.771484,0.047852
1519240526380,-0.634521,-0.769531,0.051270
1519240526415,-0.633301,-0.769531,0.046875
1519240526448,-0.628174,-0.780029,0.049805
1519240526482,-0.629395,-0.780518,0.050781
1519240526516,-0.628662,-0.773193,0.045410
1519240526545,-0.629150,-0.777344,0.032227
1519240526578,-0.636963,-0.769043,0.041992
1519240526614,-0.628662,-0.781006,0.032471
1519240526648,-0.636475,-0.778564,0.026611
1519240526666,-0.633301,-0.780029,0.030762
1519240526716,-0.628174,-0.777832,0.036377
1519240526742,-0.631592,-0.781738,0.042969
1519240526760,-0.627930,-0.778076,0.052734
1519240526810,-0.628174,-0.768799,0.047607
1519240526829,-0.627686,-0.774658,0.046631
1519240526865,-0.625488,-0.781250,0.041016
1519240526899,-0.631104,-0.782959,0.034180
1519240526928,-0.623535,-0.797607,0.028564
1519240526961,-0.629395,-0.773682,0.038086
1519240526995,-0.629639,-0.776367,0.038086
1519240527030,-0.633789,-0.764404,0.042236
1519240527063,-0.630859,-0.770020,0.043213
1519240527098,-0.625732,-0.781250,0.040039
1519240527126,-0.627197,-0.785889,0.040771
1519240527158,-0.627930,-0.785645,0.045166
1519240527193,-0.629639,-0.778076,0.040039
1519240527228,-0.629639,-0.769531,0.050781
1519240527246,-0.628174,-0.779053,0.042236
1519240527296,-0.631104,-0.767578,0.041016
1519240527314,-0.633057,-0.772461,0.040039
1519240527340,-0.632080,-0.783691,0.035156
1519240527392,-0.627686,-0.782471,0.029541
1519240527410,-0.632568,-0.787109,0.036133
1519240527443,-0.629639,-0.775635,0.036377
1519240527479,-0.628174,-0.774658,0.040771
1519240527514,-0.633545,-0.779297,0.037598
1519240527545,-0.627441,-0.783936,0.034180
1519240527577,-0.633057,-0.777832,0.041748
1519240527612,-0.627441,-0.785645,0.026367
1519240527675,-0.632080,-0.786377,0.021729
1519240527684,-0.623047,-0.784424,0.041748
1519240527744,-0.626709,-0.777344,0.039795
1519240527749,-0.624512,-0.792969,0.033691
1519240527811,-0.627686,-0.786621,0.051514
1519240527815,-0.625000,-0.769043,0.052979
1519240527882,-0.628174,-0.795654,0.030762
1519240527891,-0.630615,-0.768799,0.040771
1519240527951,-0.625732,-0.774658,0.041260
1519240528017,-0.621826,-0.778076,0.034180
1519240528024,-0.624512,-0.772461,0.057373
1519240528084,-0.618896,-0.797607,0.043945
1519240528151,-0.617188,-0.760498,0.049805
1519240528156,-0.615479,-0.797607,0.039795
1519240528166,-0.610107,-0.791016,0.044434
1519240528172,-0.620605,-0.776367,0.044922
1519240528177,-0.629883,-0.790283,0.031494
1519240528189,-0.620850,-0.787354,0.039307
1519240528231,-0.614258,-0.787842,0.045898
1519240528258,-0.623779,-0.787598,0.036133
1519240528292,-0.614990,-0.786621,0.039795
1519240528309,-0.619629,-0.797363,0.037598
1519240528366,-0.619873,-0.791992,0.039551
1519240528389,-0.619385,-0.800293,0.037354
1519240528407,-0.617920,-0.762939,0.051025
1519240528457,-0.638184,-0.809570,0.044434
1519240528474,-0.635254,-0.739990,0.065186
1519240528508,-0.645264,-0.753906,0.065430
1519240528557,-0.633789,-0.754883,0.051025
1519240528574,-0.636230,-0.770264,0.049561
1519240528604,-0.631836,-0.781006,0.046387
1519240528640,-0.630127,-0.790771,0.038574
1519240528677,-0.630371,-0.784424,0.041260
1519240528708,-0.626465,-0.790283,0.049316
1519240528737,-0.624756,-0.776611,0.056152
1519240528769,-0.640381,-0.750488,0.046387
1519240528805,-0.629395,-0.776855,0.032715
1519240528839,-0.634521,-0.774902,0.048584
1519240528874,-0.630859,-0.780518,0.032959
1519240528891,-0.633057,-0.789307,0.028564
1519240528936,-0.629150,-0.785156,0.040527
1519240528970,-0.633545,-0.784180,0.034668
1519240528988,-0.630371,-0.766602,0.048096
1519240529038,-0.632813,-0.773438,0.050781
1519240529055,-0.629395,-0.772705,0.050293
1519240529087,-0.632813,-0.771729,0.053711
1519240529134,-0.630371,-0.778564,0.056396
1519240529153,-0.626465,-0.788086,0.051514
1519240529186,-0.638428,-0.764404,0.054199
1519240529220,-0.628662,-0.769287,0.041992
1519240529254,-0.634521,-0.774902,0.042725
1519240529288,-0.635742,-0.773926,0.046631
1519240529317,-0.629639,-0.778076,0.033936
1519240529352,-0.631104,-0.767822,0.038330
1519240529385,-0.637939,-0.775879,0.044922
1519240529421,-0.631104,-0.779053,0.036621
1519240529454,-0.637451,-0.770508,0.035156
1519240529469,-0.631836,-0.778076,0.036621
1519240529516,-0.627197,-0.777100,0.037598
1519240529550,-0.631348,-0.779541,0.040039
1519240529568,-0.621582,-0.783447,0.033447
1519240529618,-0.625000,-0.788330,0.044678
1519240529636,-0.619629,-0.792969,0.047607
1519240529670,-0.627686,-0.781250,0.041504
1519240529703,-0.622070,-0.779785,0.040527
1519240529730,-0.625977,-0.774170,0.041260
1519240529765,-0.617920,-0.786133,0.037842
1519240529800,-0.629883,-0.789551,0.036133
1519240529840,-0.620361,-0.779297,0.043457
1519240529867,-0.624023,-0.783936,0.039063
1519240529903,-0.617676,-0.780273,0.039795
1519240529932,-0.627930,-0.781250,0.043213
1519240529967,-0.613281,-0.791260,0.040771
1519240530003,-0.623535,-0.784912,0.041748
1519240530074,-0.623047,-0.784668,0.044189
1519240530124,-0.606445,-0.796875,0.049072
1519240530127,-0.613281,-0.774658,0.045410
1519240530131,-0.617676,-0.799072,0.038574
1519240530211,-0.605713,-0.790527,0.041504
1519240530220,-0.619141,-0.793213,0.034180
1519240530262,-0.619385,-0.782227,0.030029
1519240530269,-0.612793,-0.786377,0.036133
1519240530403,-0.609619,-0.806885,0.039063
1519240530411,-0.608643,-0.789063,0.049316
1519240530419,-0.610352,-0.798096,0.057373
1519240530449,-0.612793,-0.785889,0.050537
1519240530487,-0.613525,-0.784912,0.042725
1519240530539,-0.613525,-0.787598,0.046143
1519240530548,-0.601074,-0.783447,0.051025
1519240530564,-0.634277,-0.809814,0.029785
1519240530570,-0.621094,-0.767822,0.047119
1519240530579,-0.624023,-0.775635,0.045654
1519240530611,-0.629150,-0.767334,0.052490
1519240530629,-0.619873,-0.794434,0.044922
1519240530664,-0.627441,-0.766602,0.053467
1519240530698,-0.621094,-0.792969,0.036865
1519240530726,-0.620117,-0.779785,0.040527
1519240530761,-0.630127,-0.774902,0.029785
1519240530803,-0.624268,-0.780762,0.036377
1519240530830,-0.624756,-0.787598,0.036377
1519240530864,-0.626953,-0.784424,0.035889
1519240530898,-0.622559,-0.791748,0.035889
1519240530926,-0.623779,-0.783936,0.037354
1519240530960,-0.622314,-0.787842,0.042480
1519240530995,-0.620361,-0.778809,0.046387
1519240531013,-0.626221,-0.787598,0.041992
1519240531063,-0.623047,-0.789795,0.035645
1519240531081,-0.625732,-0.776611,0.031738
1519240531108,-0.622803,-0.780273,0.041748
1519240531161,-0.622314,-0.779541,0.040039
1519240531178,-0.625244,-0.781982,0.038574
1519240531215,-0.619873,-0.777344,0.045166
1519240531245,-0.622070,-0.786133,0.051270
1519240531281,-0.622070,-0.783691,0.044678
1519240531308,-0.617920,-0.781982,0.040527
1519240531343,-0.624023,-0.779297,0.042969
1519240531377,-0.625244,-0.783936,0.038086
1519240531411,-0.621826,-0.784912,0.032471
1519240531445,-0.627686,-0.784424,0.031250
1519240531480,-0.623047,-0.782471,0.029785
1519240531496,-0.627686,-0.776855,0.036865
1519240531542,-0.625000,-0.773193,0.041748
1519240531576,-0.623535,-0.781250,0.028809
1519240531600,-0.625000,-0.784668,0.031006
1519240531645,-0.620117,-0.792480,0.033447
1519240531662,-0.622070,-0.800049,0.030762
1519240531696,-0.620117,-0.793213,0.040527
1519240531740,-0.620605,-0.768311,0.045898
1519240531758,-0.624756,-0.770996,0.045898
1519240531792,-0.621338,-0.767334,0.043457
1519240531827,-0.628662,-0.777832,0.028809
1519240531861,-0.626465,-0.786377,0.029541
1519240531894,-0.621826,-0.789063,0.033447
1519240531924,-0.622803,-0.782471,0.032959
1519240531956,-0.618164,-0.784912,0.037598
1519240531992,-0.622314,-0.781982,0.049316
1519240532025,-0.622314,-0.773926,0.044189
1519240532071,-0.617920,-0.785645,0.033203
1519240532077,-0.620850,-0.787354,0.035156
1519240532123,-0.621094,-0.788574,0.030029
1519240532158,-0.613770,-0.797363,0.025879
1519240532173,-0.622803,-0.776855,0.035400
1519240532225,-0.618896,-0.782227,0.031982
1519240532243,-0.621826,-0.782715,0.038818
1519240532276,-0.619141,-0.794678,0.036133
1519240532322,-0.625000,-0.797852,0.020508
1519240532340,-0.619873,-0.799561,0.023682
1519240532373,-0.610107,-0.782227,0.028076
1519240532407,-0.617676,-0.760254,0.052734
1519240532442,-0.604492,-0.822266,0.043457
1519240532476,-0.603760,-0.778320,0.048828
1519240532503,-0.607910,-0.808105,0.042480
1519240532539,-0.597168,-0.806641,0.036377
1519240532577,-0.616455,-0.790527,0.037109
1519240532606,-0.604248,-0.794434,0.035645
1519240532674,-0.608398,-0.793213,0.035645
1519240532739,-0.609863,-0.789795,0.036377
1519240532807,-0.602783,-0.786377,0.040527
1519240532875,-0.602295,-0.782227,0.052002
1519240532883,-0.608154,-0.810547,0.042725
1519240532944,-0.614990,-0.786377,0.050781
1519240532952,-0.611328,-0.793213,0.045166
1519240533012,-0.612793,-0.789795,0.040527
1519240533020,-0.618896,-0.784668,0.036621
1519240533081,-0.613281,-0.799072,0.031494
1519240533089,-0.617920,-0.786621,0.040283
1519240533150,-0.611816,-0.793701,0.036865
1519240533158,-0.618896,-0.795654,0.032471
1519240533165,-0.614990,-0.783691,0.034180
1519240533172,-0.616699,-0.790771,0.036865
1519240533177,-0.610840,-0.796143,0.039307
1519240533183,-0.611084,-0.795898,0.042480
1519240533189,-0.616455,-0.782715,0.049072
1519240533220,-0.611572,-0.789063,0.039795
1519240533240,-0.618652,-0.784424,0.042969
1519240533290,-0.622803,-0.791992,0.036133
1519240533317,-0.615234,-0.788818,0.033691
1519240533353,-0.618164,-0.785889,0.033203
1519240533387,-0.617188,-0.789795,0.033936
1519240533403,-0.618896,-0.783203,0.041260
1519240533438,-0.612793,-0.782227,0.045166
1519240533482,-0.616943,-0.784912,0.043213
1519240533501,-0.614502,-0.788330,0.040039
1519240533536,-0.616455,-0.789795,0.040039
1519240533569,-0.617188,-0.788574,0.034180
1519240533606,-0.616455,-0.787109,0.040283
1519240533636,-0.616943,-0.791748,0.036133
1519240533682,-0.618408,-0.786865,0.037109
1519240533701,-0.618652,-0.785889,0.036377
1519240533734,-0.617920,-0.774414,0.040771
1519240533768,-0.621094,-0.790283,0.033936
1519240533802,-0.623535,-0.776367,0.032715
1519240533819,-0.619385,-0.794189,0.025635
1519240533852,-0.615479,-0.791748,0.033691
1519240533887,-0.616943,-0.805420,0.033936
1519240533917,-0.615479,-0.779297,0.035889
1519240533950,-0.620850,-0.774170,0.039551
1519240533985,-0.615234,-0.778809,0.041260
1519240534021,-0.622559,-0.781250,0.033447
1519240534054,-0.618896,-0.788086,0.037842
1519240534087,-0.616699,-0.791016,0.032959
1519240534115,-0.612793,-0.794434,0.033447
1519240534150,-0.617676,-0.779541,0.034912
1519240534183,-0.617920,-0.785400,0.032715
1519240534217,-0.622314,-0.787354,0.030273
1519240534251,-0.619141,-0.780762,0.033936
1519240534269,-0.618164,-0.787842,0.034424
1519240534296,-0.619629,-0.795410,0.030518
1519240534348,-0.615479,-0.784668,0.032471
1519240534368,-0.618652,-0.791748,0.029053
1519240534409,-0.621338,-0.787842,0.027344
1519240534436,-0.619141,-0.786865,0.025146
1519240534477,-0.621826,-0.777100,0.025391
1519240534497,-0.619629,-0.790283,0.024414
1519240534532,-0.614746,-0.789795,0.024902
1519240534575,-0.616699,-0.801270,0.032959
1519240534598,-0.614014,-0.777344,0.035889
1519240534634,-0.609375,-0.787842,0.035156
1519240534668,-0.610840,-0.782227,0.045166
1519240534684,-0.610596,-0.795654,0.032471
1519240534730,-0.610840,-0.794189,0.028076
1519240534763,-0.608887,-0.790527,0.034912
1519240534780,-0.607910,-0.798584,0.032959
1519240534832,-0.608398,-0.793213,0.030518
1519240534850,-0.607422,-0.796143,0.035889
1519240534883,-0.605713,-0.799561,0.043213
1519240534929,-0.609375,-0.793945,0.038574
1519240534947,-0.605469,-0.789063,0.038818
1519240534980,-0.610352,-0.792236,0.039795
1519240535015,-0.603027,-0.797363,0.033203
1519240535049,-0.608887,-0.786865,0.039795
1519240535083,-0.606445,-0.792480,0.037354
1519240535111,-0.606445,-0.787598,0.031006
1519240535144,-0.607178,-0.793701,0.033447
1519240535187,-0.607178,-0.816406,0.030762
1519240535213,-0.618164,-0.800293,0.026123
1519240535248,-0.614990,-0.783691,0.037109
1519240535266,-0.614990,-0.776123,0.041992
1519240535309,-0.618652,-0.778809,0.046387
1519240535345,-0.612061,-0.770752,0.048828
1519240535363,-0.616699,-0.787354,0.041992
1519240535412,-0.610596,-0.800781,0.032471
1519240535430,-0.617676,-0.807373,0.023926
1519240535465,-0.611816,-0.794922,0.033447
1519240535510,-0.619141,-0.792725,0.034668
1519240535527,-0.621582,-0.769531,0.043457
1519240535561,-0.615234,-0.785400,0.036621
1519240535597,-0.620117,-0.785400,0.034668
1519240535630,-0.614990,-0.791016,0.030518
1519240535663,-0.611572,-0.788330,0.042969
1519240535691,-0.610596,-0.798096,0.042480
1519240535727,-0.617676,-0.788818,0.043945
1519240535759,-0.614746,-0.795166,0.035156
1519240535793,-0.621094,-0.785645,0.037109
1519240535827,-0.613037,-0.786621,0.041260
1519240535846,-0.618164,-0.793701,0.037109
1519240535911,-0.619873,-0.789795,0.035156
1519240535925,-0.614990,-0.782959,0.034912
1519240535943,-0.619873,-0.787354,0.030273
1519240535999,-0.618164,-0.783203,0.028076
1519240536010,-0.614502,-0.779541,0.037354
1519240536045,-0.616699,-0.777832,0.044434
1519240536079,-0.618408,-0.776611,0.050537
1519240536106,-0.624756,-0.776367,0.045410
1519240536141,-0.610596,-0.805420,0.029541
1519240536176,-0.617676,-0.800781,0.030029
1519240536209,-0.612549,-0.829346,0.014404
1519240536244,-0.608643,-0.799316,0.014893
1519240536278,-0.608398,-0.769531,0.031738
1519240536306,-0.603760,-0.770996,0.051514
1519240536342,-0.612549,-0.781738,0.051758
1519240536376,-0.602295,-0.793457,0.048584
1519240536409,-0.596191,-0.807373,0.047852
1519240536427,-0.601318,-0.810303,0.043701
1519240536477,-0.608398,-0.802002,0.037842
1519240536505,-0.596924,-0.811523,0.038330
1519240536522,-0.603760,-0.793213,0.033447
1519240536573,-0.605957,-0.802490,0.039063
1519240536590,-0.602539,-0.800293,0.032959
1519240536628,-0.602295,-0.795166,0.035156
1519240536659,-0.597412,-0.811523,0.034424
1519240536688,-0.611572,-0.818115,0.035400
1519240536723,-0.611816,-0.775635,0.053223
1519240536756,-0.615234,-0.763184,0.057861
1519240536790,-0.611084,-0.780762,0.047119
1519240536824,-0.613281,-0.784912,0.043213
1519240536858,-0.609131,-0.798340,0.037109
1519240536887,-0.612793,-0.800781,0.034424
1519240536922,-0.616211,-0.795410,0.029541
1519240536956,-0.621338,-0.792725,0.022949
1519240536990,-0.611572,-0.799805,0.028076
1519240537007,-0.617676,-0.788086,0.030518
1519240537059,-0.614746,-0.780029,0.036133
1519240537076,-0.614258,-0.782959,0.038574
1519240537103,-0.614990,-0.783691,0.044189
1519240537138,-0.616943,-0.793213,0.038330
1519240537191,-0.611084,-0.786865,0.041748
1519240537206,-0.615479,-0.795654,0.037109
1519240537240,-0.614990,-0.793213,0.030518
1519240537274,-0.621582,-0.783447,0.031006
1519240537302,-0.619141,-0.793945,0.028320
1519240537337,-0.619141,-0.778320,0.031250
1519240537372,-0.621094,-0.793457,0.030273
1519240537406,-0.614990,-0.794678,0.031006
1519240537438,-0.619873,-0.780273,0.034668
1519240537474,-0.617188,-0.779785,0.038086
1519240537502,-0.616699,-0.781494,0.041260
1519240537538,-0.616943,-0.784668,0.038818
1519240537553,-0.616211,-0.790283,0.035889
1519240537593,-0.617920,-0.788086,0.038574
1519240537622,-0.612549,-0.786621,0.034180
1519240537689,-0.624023,-0.785645,0.026611
1519240537697,-0.618408,-0.787598,0.031006
1519240537754,-0.614502,-0.779297,0.028809
1519240537758,-0.623535,-0.793457,0.030518
1519240537823,-0.609375,-0.783936,0.039551
1519240537889,-0.607178,-0.790283,0.040039
1519240537891,-0.614502,-0.788818,0.032471
1519240537959,-0.609375,-0.796143,0.038086
1519240537964,-0.614014,-0.787354,0.035645
1519240538028,-0.610596,-0.794434,0.033691
1519240538095,-0.609863,-0.793213,0.043945
1519240538103,-0.613037,-0.791504,0.037354
1519240538157,-0.610352,-0.792725,0.031494
1519240538166,-0.606201,-0.792480,0.041992
1519240538174,-0.607910,-0.797852,0.030273
1519240538182,-0.611572,-0.793945,0.031250
1519240538187,-0.612793,-0.792725,0.039795
1519240538202,-0.607666,-0.798584,0.030029
1519240538236,-0.607422,-0.789795,0.040527
1519240538270,-0.609131,-0.791992,0.045166
1519240538298,-0.602051,-0.797607,0.040527
1519240538333,-0.610840,-0.781250,0.044189
1519240538368,-0.607666,-0.793213,0.040039
1519240538401,-0.611572,-0.807617,0.030273
1519240538435,-0.614014,-0.776855,0.041016
1519240538470,-0.614502,-0.782959,0.042480
1519240538498,-0.614990,-0.790771,0.032227
1519240538531,-0.613037,-0.783936,0.040771
1519240538550,-0.610840,-0.801514,0.034424
1519240538602,-0.612305,-0.796631,0.039307
1519240538618,-0.611084,-0.797119,0.038086
1519240538651,-0.611084,-0.798340,0.035645
1519240538699,-0.613770,-0.786865,0.039063
1519240538716,-0.614014,-0.792725,0.035889
1519240538750,-0.611084,-0.788574,0.040039
1519240538783,-0.611572,-0.795898,0.035156
1519240538815,-0.613525,-0.794678,0.029053
1519240538850,-0.613525,-0.784912,0.040283
1519240538878,-0.611084,-0.787842,0.035400
1519240538912,-0.615479,-0.792725,0.035156
1519240538948,-0.609375,-0.796875,0.038574
1519240538982,-0.610596,-0.793945,0.039551
1519240539016,-0.610596,-0.791748,0.034668
1519240539033,-0.613770,-0.786133,0.039063
1519240539079,-0.610107,-0.798584,0.037354
1519240539112,-0.607178,-0.795166,0.033447
1519240539129,-0.616455,-0.789063,0.035156
1519240539181,-0.608643,-0.791992,0.033691
1519240539201,-0.613037,-0.791748,0.035156
1519240539240,-0.612305,-0.789551,0.042725
1519240539267,-0.611572,-0.793457,0.038818
1519240539294,-0.611572,-0.794678,0.033936
1519240539328,-0.612305,-0.789795,0.039795
1519240539363,-0.610352,-0.798584,0.032959
1519240539398,-0.615479,-0.788086,0.035156
1519240539432,-0.614746,-0.788330,0.036621
1519240539466,-0.613770,-0.788330,0.036865
1519240539494,-0.613281,-0.796387,0.041016
1519240539529,-0.611816,-0.792480,0.037842
1519240539564,-0.612549,-0.788330,0.038818
1519240539599,-0.616211,-0.786377,0.039551
1519240539614,-0.614990,-0.787842,0.034668
1519240539664,-0.616943,-0.789551,0.036133
1519240539692,-0.614746,-0.792480,0.035400
1519240539710,-0.612061,-0.789551,0.040283
1519240539762,-0.616455,-0.790527,0.034668
1519240539779,-0.613770,-0.787109,0.040283
1519240539812,-0.617920,-0.785156,0.041016
1519240539846,-0.613770,-0.787598,0.036377
1519240539874,-0.622070,-0.781982,0.032959
1519240539911,-0.616211,-0.785645,0.040283
1519240539945,-0.620605,-0.787842,0.038574
1519240539979,-0.617188,-0.787842,0.038330
1519240540014,-0.620361,-0.784424,0.040283
1519240540047,-0.617188,-0.785156,0.035889
1519240540075,-0.621338,-0.786865,0.037109
1519240540111,-0.622314,-0.788574,0.035889
1519240540144,-0.622559,-0.783203,0.036621
1519240540179,-0.619629,-0.784180,0.037842
1519240540194,-0.620361,-0.787842,0.040527
1519240540244,-0.620117,-0.787842,0.035645
1519240540262,-0.621094,-0.783447,0.037598
1519240540289,-0.623779,-0.784424,0.035400
1519240540342,-0.621826,-0.779053,0.035889
1519240540358,-0.625488,-0.778809,0.037598
1519240540395,-0.623779,-0.787354,0.037354
1519240540429,-0.624268,-0.785889,0.037598
1519240540461,-0.618896,-0.789063,0.039307
1519240540491,-0.623047,-0.781982,0.035889
1519240540526,-0.620605,-0.785889,0.039551
1519240540561,-0.623779,-0.777588,0.038818
1519240540593,-0.628174,-0.784180,0.033691
1519240540627,-0.622070,-0.784180,0.034424
1519240540662,-0.624512,-0.780273,0.035889
1519240540690,-0.623291,-0.780029,0.036377
1519240540725,-0.623535,-0.781250,0.039307
1519240540758,-0.622314,-0.775879,0.041260
1519240540776,-0.620850,-0.781982,0.031982
1519240540809,-0.624268,-0.775635,0.032959
1519240540844,-0.623291,-0.781738,0.030518
1519240540870,-0.621582,-0.782471,0.037598
1519240540906,-0.624268,-0.784912,0.039063
1519240540941,-0.620361,-0.782715,0.038818
1519240540975,-0.623047,-0.784668,0.032959
1519240541032,-0.621338,-0.790771,0.033203
1519240541043,-0.622803,-0.787598,0.031250
1519240541072,-0.620850,-0.781006,0.034180
1519240541106,-0.621094,-0.776123,0.044922
1519240541141,-0.620117,-0.780273,0.039795
1519240541175,-0.620117,-0.793945,0.031738
1519240541207,-0.621338,-0.791016,0.029541
1519240541225,-0.621582,-0.784912,0.037109
1519240541259,-0.616943,-0.779297,0.039551
1519240541305,-0.616211,-0.792236,0.032715
1519240541321,-0.620605,-0.779541,0.041260
1519240541356,-0.623047,-0.783447,0.028809
1519240541390,-0.613281,-0.789063,0.032471
1519240541424,-0.621094,-0.794922,0.040527
1519240541458,-0.617920,-0.793945,0.030762
1519240541485,-0.612549,-0.787354,0.039307
1519240541521,-0.608398,-0.788330,0.043701
1519240541556,-0.611816,-0.805420,0.032471
1519240541588,-0.610840,-0.791016,0.042725
1519240541623,-0.603760,-0.794434,0.039307
1519240541649,-0.604004,-0.804199,0.038330
1519240541687,-0.613770,-0.787109,0.037598
1519240541721,-0.603027,-0.802734,0.040283
1519240541737,-0.611328,-0.795654,0.042969
1519240541787,-0.601563,-0.786133,0.043945
1519240541804,-0.605957,-0.792725,0.036621
1519240541837,-0.601807,-0.804199,0.045898
1519240541883,-0.599854,-0.796143,0.041260
1519240541902,-0.605713,-0.794434,0.039307
1519240541939,-0.604492,-0.802734,0.035156
1519240541970,-0.603760,-0.791016,0.040771
1519240542019,-0.605225,-0.786377,0.042969
1519240542040,-0.604736,-0.801025,0.035400
1519240542078,-0.608887,-0.791504,0.034668
1519240542101,-0.612061,-0.793213,0.044434
1519240542145,-0.613037,-0.800049,0.037109
1519240542168,-0.611328,-0.780273,0.041992
1519240542215,-0.616455,-0.796631,0.036621
1519240542222,-0.614258,-0.793701,0.031250
1519240542266,-0.611084,-0.794922,0.032715
1519240542312,-0.613525,-0.789551,0.036133
1519240542321,-0.611084,-0.791992,0.040283
1519240542368,-0.611572,-0.788574,0.043213
1519240542387,-0.611572,-0.791748,0.038086
1519240542420,-0.613770,-0.796875,0.035889
1519240542454,-0.615967,-0.795166,0.036133
1519240542482,-0.617676,-0.788818,0.032959
1519240542517,-0.612793,-0.787354,0.037598
1519240542552,-0.616211,-0.793457,0.036621
1519240542583,-0.612061,-0.791992,0.033691
1519240542619,-0.614014,-0.785889,0.039063
1519240542826,-0.617920,-0.781738,0.042725
1519240542958,-0.615967,-0.786377,0.037842
1519240543024,-0.611816,-0.792236,0.034424
1519240543093,-0.612793,-0.793213,0.039795
1519240543214,-0.614014,-0.791016,0.031982
1519240543222,-0.619385,-0.783936,0.037109
1519240543229,-0.617920,-0.788330,0.037109
1519240543234,-0.614014,-0.788086,0.039551
1519240543240,-0.618896,-0.788330,0.030273
1519240543243,-0.613037,-0.798584,0.032227
1519240543246,-0.617432,-0.787842,0.033203
1519240543249,-0.618408,-0.780273,0.038574
1519240543252,-0.615234,-0.786621,0.034424
1519240543255,-0.612793,-0.790283,0.034424
1519240543260,-0.618652,-0.786377,0.036865
1519240543262,-0.612305,-0.785889,0.033691
1519240543264,-0.619873,-0.784668,0.033447
1519240543269,-0.617676,-0.789795,0.030762
1519240543272,-0.614990,-0.790771,0.031250
1519240543274,-0.618896,-0.794434,0.033447
1519240543294,-0.613525,-0.791016,0.033447
1519240543329,-0.616943,-0.784180,0.036133
1519240543364,-0.618164,-0.783936,0.037109
1519240543381,-0.617188,-0.783447,0.031494
1519240543433,-0.618408,-0.785156,0.032959
1519240543450,-0.617676,-0.783936,0.031738
1519240543478,-0.620605,-0.795654,0.028564
1519240543530,-0.617676,-0.790283,0.033203
1519240543547,-0.617188,-0.788086,0.035156
1519240543593,-0.618652,-0.784668,0.031738
1519240543618,-0.617920,-0.780762,0.034180
1519240543651,-0.620850,-0.781250,0.032959
1519240543677,-0.619629,-0.789551,0.026123
1519240543713,-0.618164,-0.786133,0.030518
1519240543747,-0.617676,-0.791016,0.030518
1519240543780,-0.621338,-0.791260,0.028320
1519240543813,-0.618164,-0.784180,0.035889
1519240543858,-0.615723,-0.790039,0.032959
1519240543877,-0.618408,-0.790283,0.029541
1519240543913,-0.614746,-0.785400,0.032959
1519240543947,-0.618408,-0.787842,0.031006
1519240543963,-0.614258,-0.790771,0.025879
1519240544012,-0.618164,-0.794434,0.034668
1519240544031,-0.614990,-0.785400,0.035400
1519240544059,-0.614502,-0.790039,0.030762
1519240544099,-0.614258,-0.790527,0.033447
1519240544129,-0.616943,-0.789551,0.035400
1519240544179,-0.615234,-0.786133,0.031738
1519240544197,-0.616943,-0.784180,0.030029
1519240544229,-0.613281,-0.794189,0.031494
1519240544258,-0.613770,-0.794189,0.036133
1519240544293,-0.613525,-0.792480,0.030762
1519240544328,-0.609619,-0.790771,0.035400
1519240544361,-0.614014,-0.789551,0.036377
1519240544396,-0.614014,-0.790039,0.031250
1519240544429,-0.612793,-0.790771,0.028076
1519240544459,-0.615234,-0.789307,0.025146
1519240544492,-0.609131,-0.794189,0.029785
1519240544545,-0.616211,-0.796875,0.031494
1519240544553,-0.606689,-0.789551,0.033447
1519240544577,-0.610352,-0.793701,0.034668
1519240544612,-0.610107,-0.793701,0.030518
1519240544646,-0.610107,-0.792969,0.029541
1519240544679,-0.612061,-0.797852,0.031006
1519240544711,-0.612061,-0.788574,0.033447
1519240544744,-0.612061,-0.791260,0.023193
1519240544777,-0.604248,-0.795654,0.032715
1519240544811,-0.606445,-0.788330,0.028076
1519240544844,-0.605957,-0.802002,0.035889
1519240544872,-0.597656,-0.804443,0.046143
1519240544907,-0.598145,-0.809570,0.035645
1519240544953,-0.599854,-0.797607,0.032471
1519240544975,-0.603760,-0.795898,0.038086
1519240545012,-0.598633,-0.800537,0.031250
1519240545027,-0.609131,-0.798584,0.027100
1519240545074,-0.596436,-0.812988,0.032715
1519240545091,-0.597656,-0.810303,0.030518
1519240545124,-0.595215,-0.795898,0.037354
1519240545157,-0.602539,-0.800537,0.044434
1519240545194,-0.593262,-0.784668,0.049805
1519240545225,-0.604980,-0.785400,0.038574
1519240545253,-0.607178,-0.782227,0.033936
1519240545288,-0.609131,-0.812988,0.023926
1519240545323,-0.602295,-0.804443,0.030029
1519240545369,-0.607910,-0.795410,0.030273
1519240545397,-0.608398,-0.801025,0.027588
1519240545427,-0.604004,-0.787109,0.032227
1519240545453,-0.607422,-0.791992,0.037354
1519240545501,-0.609863,-0.795410,0.034180
1519240545510,-0.608398,-0.791748,0.031494
1519240545556,-0.602295,-0.800293,0.031738
1519240545576,-0.608887,-0.793213,0.034912
1519240545607,-0.603271,-0.793457,0.034668
1519240545651,-0.611328,-0.795654,0.033691
1519240545670,-0.613770,-0.798340,0.031250
1519240545703,-0.602051,-0.798340,0.033936
1519240545738,-0.610352,-0.795410,0.027832
1519240545772,-0.612305,-0.787109,0.022949
1519240545807,-0.621582,-0.805664,0.008301
1519240545840,-0.614502,-0.803223,0.010742
1519240545868,-0.624023,-0.809082,0.012207
1519240545903,-0.617920,-0.811523,0.014893
1519240545939,-0.624512,-0.740234,0.044434
1519240545971,-0.619873,-0.729492,0.063721
1519240545995,-0.616211,-0.746094,0.050537
1519240546040,-0.614258,-0.795898,0.027100
1519240546067,-0.615967,-0.812012,0.014404
1519240546085,-0.616455,-0.818604,0.011230
1519240546150,-0.612549,-0.806641,0.015625
1519240546153,-0.615723,-0.781006,0.032471
1519240546187,-0.625244,-0.764404,0.031494
1519240546221,-0.619629,-0.764893,0.023438
1519240546249,-0.632568,-0.775879,0.012451
1519240546284,-0.619629,-0.790283,0.010010
1519240546318,-0.622070,-0.794922,0.015869
1519240546351,-0.624023,-0.792236,0.017334
1519240546386,-0.617188,-0.787598,0.026855
1519240546420,-0.619873,-0.781494,0.029297
1519240546449,-0.618896,-0.784424,0.020996
1519240546482,-0.621338,-0.775879,0.020020
1519240546516,-0.625488,-0.783447,0.014160
1519240546561,-0.619873,-0.790039,0.016846
1519240546567,-0.623535,-0.791748,0.019043
1519240546618,-0.617920,-0.787598,0.028809
1519240546650,-0.617188,-0.783936,0.027832
1519240546666,-0.620605,-0.781494,0.024902
1519240546716,-0.626221,-0.773926,0.017090
1519240546736,-0.629395,-0.799316,0.006104
1519240546770,-0.605225,-0.797852,0.018799
1519240546805,-0.617920,-0.802734,0.027832
1519240546836,-0.612549,-0.780518,0.033203
1519240546881,-0.609131,-0.774414,0.033447
1519240546900,-0.615234,-0.786377,0.027344
1519240546934,-0.618164,-0.792725,0.021240
1519240546968,-0.620361,-0.796387,0.017822
1519240547001,-0.618896,-0.790771,0.014160
1519240547037,-0.618652,-0.790527,0.011230
1519240547065,-0.620605,-0.785156,0.010986
1519240547101,-0.615479,-0.782715,0.015137
1519240547133,-0.617676,-0.782715,0.025391
1519240547151,-0.613770,-0.784180,0.025879
1519240547199,-0.609375,-0.797363,0.023193
1519240547218,-0.614746,-0.791748,0.027344
1519240547245,-0.612305,-0.793457,0.027344
1519240547297,-0.606445,-0.794922,0.016602
1519240547315,-0.622803,-0.801758,0.022217
1519240547347,-0.612061,-0.803223,0.020020
1519240547383,-0.612793,-0.788086,0.015625
1519240547432,-0.612793,-0.775879,0.019531
1519240547447,-0.616699,-0.772461,0.020508
1519240547480,-0.614258,-0.795654,0.011475
1519240547515,-0.609619,-0.798584,0.020996
1519240547548,-0.605225,-0.809814,0.026611
1519240547589,-0.604004,-0.807373,0.021973
1519240547616,-0.605713,-0.802734,0.023682
1519240547681,-0.616211,-0.792969,0.027832
1519240547686,-0.620361,-0.783936,0.019531
1519240547750,-0.603516,-0.782471,0.025879
1519240547815,-0.596191,-0.766113,0.006348
1519240547877,-0.629883,-0.798340,0.005859
1519240547947,-0.584229,-0.814209,0.019775
1519240548013,-0.624023,-0.798828,0.015137
1519240548080,-0.611816,-0.810547,0.016846
1519240548149,-0.597656,-0.779785,0.034424
1519240548156,-0.602539,-0.774414,0.031738
1519240548166,-0.611328,-0.796631,0.010742
1519240548174,-0.607178,-0.805176,0.014648
1519240548181,-0.609131,-0.812988,0.017822
1519240548184,-0.611816,-0.796631,0.021240
1519240548187,-0.606689,-0.783447,0.020996
1519240548190,-0.614746,-0.778320,0.024170
1519240548193,-0.612305,-0.781738,0.008789
1519240548196,-0.613525,-0.790771,0.005859
1519240548215,-0.608398,-0.801025,0.013184
1519240548261,-0.604736,-0.811279,0.023438
1519240548276,-0.599609,-0.804932,0.031982
1519240548311,-0.614502,-0.795410,0.027344
1519240548344,-0.607178,-0.786377,0.016357
1519240548378,-0.617676,-0.793213,0.005615
1519240548412,-0.616699,-0.781738,0.008789
1519240548443,-0.609375,-0.794434,0.006104
1519240548499,-0.610107,-0.784180,0.017578
1519240548509,-0.610840,-0.795898,0.028076
1519240548544,-0.604492,-0.802734,0.023926
1519240548579,-0.606689,-0.800049,0.020020
1519240548596,-0.609863,-0.798584,0.019531
1519240548642,-0.612061,-0.791016,0.012695
1519240548674,-0.613770,-0.787354,0.012451
1519240548711,-0.610107,-0.792480,0.009766
1519240548743,-0.611572,-0.786865,0.017090
1519240548760,-0.611572,-0.791016,0.017334
1519240548795,-0.611084,-0.800049,0.011719
1519240548829,-0.610107,-0.795410,0.021484
1519240548857,-0.608398,-0.798828,0.017090
1519240548890,-0.613037,-0.790527,0.020508
1519240548925,-0.610596,-0.789063,0.019043
1519240548960,-0.614746,-0.789063,0.013672
1519240548995,-0.611328,-0.788330,0.014404
1519240549026,-0.618408,-0.794189,0.009277
1519240549074,-0.613281,-0.794189,0.012207
1519240549092,-0.609619,-0.796143,0.009277
1519240549126,-0.615723,-0.786133,0.024902
1519240549161,-0.613037,-0.786133,0.019043
1519240549177,-0.615234,-0.785156,0.020020
1519240549229,-0.612305,-0.786865,0.017334
1519240549255,-0.615479,-0.792480,0.013428
1519240549272,-0.613770,-0.787354,0.012451
1519240549328,-0.614502,-0.790283,0.013672
1519240549344,-0.611084,-0.791992,0.017822
1519240549372,-0.618164,-0.789307,0.017822
1519240549410,-0.612549,-0.788574,0.016357
1519240549439,-0.611328,-0.795410,0.015381
1519240549472,-0.613525,-0.796143,0.013428
1519240549505,-0.612305,-0.789063,0.017090
1519240549540,-0.613037,-0.788818,0.018799
1519240549574,-0.613770,-0.787842,0.016113
1519240549609,-0.609375,-0.790283,0.015625
1519240549635,-0.611572,-0.799561,0.013916
1519240549671,-0.613037,-0.792236,0.013184
1519240549706,-0.613525,-0.784180,0.021484
1519240549739,-0.613037,-0.786377,0.014404
1519240549754,-0.608643,-0.790527,0.016357
1519240549807,-0.615479,-0.793701,0.012939
1519240549823,-0.610596,-0.792969,0.011963
1519240549851,-0.605713,-0.801758,0.012695
1519240549903,-0.615723,-0.788818,0.023438
1519240549921,-0.604004,-0.791260,0.016357
1519240549961,-0.611816,-0.794189,0.015381
1519240549989,-0.606934,-0.790771,0.018311
1519240550022,-0.608154,-0.796143,0.011230
1519240550051,-0.606689,-0.798096,0.008545
1519240550086,-0.609375,-0.793945,0.011230
1519240550120,-0.604980,-0.795898,0.014160
1519240550156,-0.608643,-0.794434,0.015381
1519240550197,-0.605713,-0.798340,0.014893
1519240550231,-0.605713,-0.798584,0.011719
1519240550252,-0.605469,-0.801514,0.015381
1519240550306,-0.607178,-0.801758,0.013672
1519240550320,-0.608398,-0.792725,0.007080
1519240550337,-0.603271,-0.794678,0.010010
1519240550388,-0.610352,-0.786865,0.016113
1519240550405,-0.601318,-0.798340,0.011230
1519240550454,-0.605713,-0.798096,0.014160
1519240550485,-0.605957,-0.800781,0.011719
1519240550504,-0.610840,-0.797852,0.005615
1519240550537,-0.601807,-0.802246,0.011719
1519240550572,-0.598633,-0.792480,0.024902
1519240550603,-0.607422,-0.793945,0.020752
1519240550633,-0.607422,-0.785156,0.020508
1519240550668,-0.606201,-0.794678,0.023193
1519240550700,-0.605469,-0.793457,0.010986
1519240550734,-0.615967,-0.819092,0.004883
1519240550768,-0.597412,-0.790283,0.012451
1519240550802,-0.609863,-0.797607,0.017822
1519240550819,-0.605713,-0.780518,0.017578
1519240550865,-0.609619,-0.776855,0.021484
1519240550900,-0.607422,-0.800537,0.015869
1519240550917,-0.609375,-0.805664,0.010498
1519240550969,-0.601318,-0.808105,0.010498
1519240550987,-0.611572,-0.797852,0.017822
1519240551019,-0.599609,-0.782715,0.020996
1519240551048,-0.604004,-0.795410,0.013916
1519240551082,-0.600586,-0.807373,0.013672
1519240551117,-0.604736,-0.792969,0.016357
1519240551151,-0.595703,-0.803467,0.017822
1519240551184,-0.605469,-0.792969,0.021484
1519240551219,-0.605225,-0.797119,0.017822
1519240551246,-0.601563,-0.809814,0.015137
1519240551282,-0.599121,-0.804688,0.014404
1519240551316,-0.605713,-0.796387,0.021240
1519240551350,-0.597656,-0.799072,0.012207
1519240551384,-0.604980,-0.793457,0.015137
1519240551402,-0.600342,-0.801514,0.022217
1519240551449,-0.604004,-0.795410,0.018311
1519240551465,-0.599365,-0.806885,0.013672
1519240551498,-0.600098,-0.794434,0.018799
1519240551532,-0.597900,-0.799561,0.021484
1519240551566,-0.599609,-0.799072,0.012207
1519240551602,-0.600830,-0.800781,0.011230
1519240551629,-0.609619,-0.799805,0.011230
1519240551664,-0.609619,-0.786133,0.021729
1519240551699,-0.608887,-0.791748,0.017334
1519240551736,-0.614746,-0.793213,0.016357
1519240551767,-0.607666,-0.787842,0.017822
1519240551799,-0.613281,-0.798828,0.010986
1519240551827,-0.611816,-0.796143,0.016357
1519240551861,-0.611816,-0.791504,0.018066
1519240551879,-0.610596,-0.799805,0.016357
1519240551931,-0.611328,-0.791260,0.009033
1519240551950,-0.614990,-0.776123,0.021729
1519240551982,-0.614502,-0.799072,0.004883
1519240552015,-0.618652,-0.783447,0.013428
1519240552044,-0.610107,-0.794922,0.011475
1519240552080,-0.617188,-0.800293,0.009033
1519240552115,-0.606445,-0.769775,0.021973
1519240552148,-0.604736,-0.798584,0.038574
1519240552182,-0.607666,-0.794922,0.023193
1519240552214,-0.606201,-0.800293,0.009277
1519240552244,-0.604980,-0.808594,0.009277
1519240552278,-0.607910,-0.788818,0.015381
1519240552313,-0.606201,-0.801270,0.014893
1519240552347,-0.602783,-0.789307,0.023193
1519240552363,-0.604248,-0.801270,0.021973
1519240552413,-0.601563,-0.797852,0.020020
1519240552442,-0.603516,-0.795166,0.020264
1519240552478,-0.597656,-0.797607,0.015137
1519240552509,-0.607910,-0.803711,0.014404
1519240552551,-0.603271,-0.804932,0.012695
1519240552561,-0.609375,-0.796631,0.023193
1519240552596,-0.607910,-0.790527,0.021484
1519240552624,-0.612061,-0.790771,0.016357
1519240552755,-0.607422,-0.790283,0.017334
1519240552764,-0.609619,-0.795410,0.013672
1519240552823,-0.609375,-0.797363,0.012207
1519240552887,-0.612305,-0.794189,0.013184
1519240552955,-0.607178,-0.793213,0.020020
1519240552964,-0.608154,-0.801025,0.020020
1519240553023,-0.603271,-0.789795,0.017578
1519240553031,-0.604980,-0.788818,0.020020
1519240553090,-0.607422,-0.795410,0.016846
1519240553099,-0.610596,-0.787842,0.013184
1519240553153,-0.610596,-0.793457,0.010010
1519240553161,-0.608643,-0.797852,0.012451
1519240553170,-0.606201,-0.797607,0.012207
1519240553175,-0.613281,-0.800049,0.015625
1519240553180,-0.604004,-0.798096,0.011475
1519240553185,-0.609863,-0.791748,0.021484
1519240553190,-0.608887,-0.793213,0.014648
1519240553210,-0.606201,-0.798340,0.012207
1519240553238,-0.618164,-0.780518,0.010742
1519240553274,-0.612305,-0.797607,0.014160
1519240553314,-0.614258,-0.804199,0.006104
1519240553341,-0.612061,-0.790283,0.005127
1519240553376,-0.593262,-0.781006,0.030762
1519240553411,-0.596680,-0.812744,0.021973
1519240553439,-0.607666,-0.787842,0.034912
1519240553473,-0.588867,-0.807861,0.015625
1519240553507,-0.595947,-0.790527,0.022949
1519240553524,-0.596680,-0.805420,0.012451
1519240553575,-0.603760,-0.798340,0.010010
1519240553594,-0.605225,-0.801758,0.023193
1519240553620,-0.599609,-0.809326,0.012207
1519240553673,-0.609863,-0.784180,0.026611
1519240553690,-0.604004,-0.783203,0.018555
1519240553724,-0.609131,-0.799561,0.017822
1519240553759,-0.607666,-0.801270,0.012207
1519240553794,-0.604736,-0.809082,0.011475
1519240553832,-0.598145,-0.810547,0.008789
1519240553859,-0.609863,-0.777100,0.025879
1519240553886,-0.603271,-0.788330,0.019531
1519240553923,-0.613037,-0.782471,0.022217
1519240553958,-0.604004,-0.797852,0.016602
1519240553992,-0.604004,-0.808838,0.009766
1519240554009,-0.604248,-0.806885,0.006836
1519240554054,-0.610840,-0.792236,0.014404
1519240554090,-0.606445,-0.782959,0.018555
1519240554106,-0.608643,-0.776855,0.023438
1519240554157,-0.609863,-0.793213,0.018311
1519240554174,-0.608398,-0.798828,0.016846
1519240554206,-0.608398,-0.808594,0.008057
1519240554256,-0.609375,-0.810303,0.013672
1519240554269,-0.609863,-0.793701,0.014160
1519240554310,-0.612305,-0.776611,0.021973
1519240554339,-0.611572,-0.778320,0.019287
1519240554372,-0.611084,-0.800781,0.016846
1519240554407,-0.613281,-0.798828,0.015137
1519240554435,-0.610596,-0.804443,0.008789
1519240554471,-0.607422,-0.804688,0.009766
1519240554504,-0.615234,-0.793213,0.014893
1519240554539,-0.611816,-0.777588,0.027588
1519240554571,-0.617920,-0.775635,0.020752
1519240554589,-0.609863,-0.791992,0.013672
1519240554634,-0.610596,-0.798340,0.016357
1519240554669,-0.613281,-0.801758,0.012695
1519240554687,-0.612061,-0.797607,0.012695
1519240554719,-0.611572,-0.783203,0.016602
1519240554754,-0.614746,-0.780518,0.020508
1519240554787,-0.608643,-0.783203,0.017090
1519240554815,-0.617432,-0.798340,0.011230
1519240554850,-0.605713,-0.807129,0.007813
1519240554883,-0.605713,-0.778564,0.022461
1519240554917,-0.606689,-0.806885,0.016602
1519240554954,-0.609619,-0.781982,0.026123
1519240554989,-0.601563,-0.791504,0.015381
1519240555016,-0.602295,-0.812500,0.017822
1519240555050,-0.599121,-0.807861,0.020996
1519240555086,-0.604736,-0.798584,0.015381
1519240555121,-0.601807,-0.792236,0.021973
1519240555137,-0.601074,-0.802490,0.021973
1519240555170,-0.602783,-0.798340,0.014404
1519240555205,-0.600342,-0.813477,0.019775
1519240555231,-0.596924,-0.796143,0.023682
1519240555266,-0.600830,-0.798584,0.021484
1519240555301,-0.598633,-0.798340,0.016846
1519240555336,-0.604980,-0.798096,0.021240
1519240555367,-0.593506,-0.805420,0.021973
1519240555402,-0.601807,-0.793701,0.012695
1519240555431,-0.597656,-0.807129,0.013184
1519240555466,-0.605225,-0.811279,0.009521
1519240555500,-0.606201,-0.785889,0.020508
1519240555535,-0.602295,-0.787842,0.025146
1519240555552,-0.603271,-0.795898,0.020996
1519240555602,-0.607178,-0.798340,0.013672
1519240555630,-0.602539,-0.802002,0.014404
1519240555648,-0.604248,-0.800537,0.011719
1519240555699,-0.606201,-0.799072,0.013672
1519240555716,-0.600342,-0.794678,0.017822
1519240555749,-0.606689,-0.790039,0.013428
1519240555784,-0.601074,-0.804199,0.019287
1519240555813,-0.602539,-0.794922,0.017822
1519240555848,-0.610596,-0.794678,0.014160
1519240555880,-0.605225,-0.818359,0.005127
1519240555914,-0.606934,-0.806152,0.008545
1519240555950,-0.607178,-0.798584,0.010986
1519240555983,-0.609863,-0.795410,0.024170
1519240556011,-0.612305,-0.763916,0.039795
1519240556045,-0.615723,-0.773926,0.028076
1519240556079,-0.613037,-0.793945,0.011230
1519240556114,-0.607666,-0.808350,0.014648
1519240556131,-0.607178,-0.815674,0.007813
1519240556183,-0.604980,-0.799805,0.011475
1519240556198,-0.595459,-0.817139,0.024658
1519240556231,-0.600830,-0.782471,0.042236
1519240556279,-0.600830,-0.775879,0.024170
1519240556297,-0.602539,-0.804688,0.024658
1519240556333,-0.591797,-0.805908,0.010742
1519240556364,-0.604736,-0.794678,0.017578
1519240556398,-0.591797,-0.813477,0.019775
1519240556426,-0.596436,-0.805176,0.020752
1519240556462,-0.599121,-0.800537,0.020508
1519240556497,-0.599854,-0.793701,0.030762
1519240556531,-0.593506,-0.795410,0.025391
1519240556565,-0.600098,-0.800781,0.021973
1519240556598,-0.595459,-0.797363,0.025146
1519240556626,-0.605713,-0.810791,0.005859
1519240556662,-0.614014,-0.793213,0.022217
1519240556695,-0.607178,-0.792969,0.022949
1519240556714,-0.612305,-0.785645,0.024170
1519240556762,-0.606445,-0.786865,0.027832
1519240556780,-0.612793,-0.793945,0.022217
1519240556808,-0.606934,-0.802246,0.015625
1519240556860,-0.617920,-0.794922,0.010498
1519240556878,-0.605469,-0.796143,0.020996
1519240556911,-0.609619,-0.797852,0.018311
1519240556946,-0.613037,-0.783203,0.025635
1519240556981,-0.609375,-0.789307,0.020752
1519240557015,-0.612793,-0.788330,0.021729
1519240557044,-0.612793,-0.796143,0.016846
1519240557077,-0.613281,-0.790283,0.014404
1519240557109,-0.612549,-0.794434,0.014893
1519240557145,-0.615234,-0.794922,0.016602
1519240557179,-0.612793,-0.784424,0.016602
1519240557197,-0.618408,-0.789795,0.020508
1519240557242,-0.617188,-0.783936,0.015381
1519240557276,-0.611572,-0.794678,0.017822
1519240557292,-0.613770,-0.791504,0.017334
1519240557344,-0.615234,-0.784668,0.018799
1519240557361,-0.617432,-0.786133,0.014404
1519240557394,-0.617188,-0.782959,0.018066
1519240557441,-0.615479,-0.788574,0.020752
1519240557458,-0.617920,-0.796875,0.015869
1519240557491,-0.612305,-0.789795,0.013672
1519240557527,-0.614502,-0.777832,0.026123
1519240557561,-0.612793,-0.793701,0.022705
1519240557595,-0.617432,-0.783447,0.015137
1519240557624,-0.617676,-0.785889,0.018066
1519240557691,-0.614258,-0.788086,0.015625
1519240557700,-0.621338,-0.793213,0.013916
1519240557759,-0.613281,-0.789551,0.017578
1519240557762,-0.616943,-0.788330,0.020020
1519240557829,-0.614014,-0.790039,0.018311
1519240557894,-0.616455,-0.785645,0.018555
1519240557900,-0.611572,-0.789063,0.017090
1519240557963,-0.618896,-0.787842,0.020020
1519240557969,-0.613037,-0.791260,0.018311
1519240558033,-0.614258,-0.791016,0.016357
1519240558041,-0.616211,-0.786133,0.018799
1519240558102,-0.613525,-0.786377,0.017090
1519240558111,-0.610596,-0.792236,0.021973
1519240558170,-0.620117,-0.786377,0.023193
1519240558179,-0.613037,-0.785400,0.017090
1519240558189,-0.615723,-0.785889,0.018555
1519240558197,-0.613037,-0.790771,0.014404
1519240558208,-0.617676,-0.796631,0.013672
1519240558236,-0.614014,-0.792725,0.017578
1519240558271,-0.612305,-0.794189,0.019043
1519240558305,-0.613770,-0.782715,0.018799
1519240558342,-0.614014,-0.779297,0.025879
1519240558358,-0.615479,-0.792480,0.017822
1519240558391,-0.612549,-0.790039,0.018555
1519240558438,-0.618408,-0.793457,0.013916
1519240558455,-0.614990,-0.783936,0.018555
1519240558488,-0.617432,-0.791260,0.015137
1519240558522,-0.611572,-0.787598,0.017822
1519240558556,-0.614014,-0.790283,0.013428
1519240558590,-0.613770,-0.786133,0.020996
1519240558618,-0.612305,-0.792480,0.017090
1519240558652,-0.614014,-0.786865,0.020752
1519240558687,-0.611084,-0.794678,0.017334
1519240558721,-0.613281,-0.797119,0.013184
1519240558754,-0.614014,-0.785645,0.019531
1519240558790,-0.611084,-0.791260,0.016602
1519240558818,-0.615234,-0.792725,0.017578
1519240558835,-0.612061,-0.793701,0.019775
1519240558886,-0.614990,-0.781006,0.016113
1519240558903,-0.614990,-0.790039,0.019531
1519240558951,-0.612793,-0.792969,0.016113
1519240558974,-0.612549,-0.794678,0.014893
1519240558999,-0.614258,-0.797363,0.007568
1519240559035,-0.612793,-0.779541,0.024170
1519240559069,-0.612305,-0.788574,0.019531
1519240559103,-0.614990,-0.791992,0.016602
1519240559135,-0.612549,-0.793213,0.012939
1519240559170,-0.617676,-0.796875,0.015137
1519240559199,-0.613770,-0.794678,0.014893
1519240559233,-0.614746,-0.786133,0.015137
1519240559267,-0.611328,-0.787354,0.017822
1519240559302,-0.613770,-0.782959,0.014893
1519240559318,-0.612305,-0.792969,0.017578
1519240559369,-0.617676,-0.785156,0.013672
1519240559386,-0.612793,-0.800537,0.016357
1519240559413,-0.610352,-0.792480,0.010986
1519240559466,-0.614502,-0.788818,0.016113
1519240559485,-0.615234,-0.792725,0.014404
1519240559525,-0.613281,-0.789307,0.009766
1519240559552,-0.613037,-0.793457,0.016846
1519240559596,-0.614014,-0.788818,0.016357
1519240559615,-0.613525,-0.793457,0.011719
1519240559650,-0.616455,-0.790039,0.010498
1519240559682,-0.613037,-0.792725,0.012207
1519240559719,-0.614990,-0.785400,0.016357
1519240559750,-0.614014,-0.789063,0.014404
1519240559789,-0.614502,-0.785645,0.016602
1519240559816,-0.613770,-0.792480,0.011963
1519240559848,-0.619141,-0.789795,0.009521
1519240559882,-0.612549,-0.790283,0.011719
1519240559899,-0.615723,-0.787598,0.011719
1519240559950,-0.615723,-0.788330,0.016357
1519240559969,-0.615967,-0.788086,0.010254
1519240559997,-0.611084,-0.789307,0.011230
1519240560046,-0.617676,-0.785156,0.011963
1519240560064,-0.613770,-0.789063,0.007080
1519240560099,-0.618652,-0.786865,0.010498
1519240560132,-0.614990,-0.791748,0.012451
1519240560166,-0.613037,-0.789795,0.010498
1519240560193,-0.614990,-0.791260,0.012207
1519240560231,-0.614502,-0.789063,0.012451
1519240560263,-0.612061,-0.789307,0.010498
1519240560302,-0.611816,-0.794922,0.009766
1519240560335,-0.615723,-0.783691,0.010010
1519240560377,-0.611572,-0.793213,0.010010
1519240560384,-0.611816,-0.798340,0.010498
1519240560429,-0.610840,-0.799561,0.009277
1519240560464,-0.607666,-0.793457,0.012207
1519240560479,-0.610840,-0.793213,0.014404
1519240560532,-0.611572,-0.790771,0.012939
1519240560549,-0.613525,-0.787354,0.014893
1519240560582,-0.611084,-0.795898,0.010498
1519240560628,-0.607666,-0.796631,0.008301
1519240560645,-0.610107,-0.798828,0.012207
1519240560679,-0.613770,-0.791748,0.017090
1519240560712,-0.606934,-0.790283,0.017578
1519240560746,-0.608887,-0.791992,0.014648
1519240560782,-0.608398,-0.794434,0.014160
1519240560811,-0.605957,-0.791260,0.011719
1519240560844,-0.607178,-0.796143,0.009521
1519240560879,-0.609863,-0.796387,0.012207
1519240560911,-0.608643,-0.792969,0.013184
1519240560946,-0.608887,-0.793945,0.011963
1519240560963,-0.605713,-0.792969,0.016846
1519240561010,-0.607666,-0.795654,0.015625
1519240561045,-0.604492,-0.802979,0.011475
1519240561061,-0.609619,-0.790527,0.015869
1519240561113,-0.607178,-0.793945,0.012695
1519240561130,-0.607910,-0.794922,0.011963
1519240561163,-0.604248,-0.798584,0.015869
1519240561209,-0.605225,-0.800781,0.012207
1519240561225,-0.603760,-0.801025,0.010742
1519240561258,-0.605957,-0.795410,0.017334
1519240561293,-0.607910,-0.792236,0.011963
1519240561329,-0.607422,-0.794922,0.012939
1519240561363,-0.605713,-0.798584,0.012207
1519240561389,-0.607910,-0.793457,0.013672
1519240561432,-0.606201,-0.795654,0.012451
1519240561459,-0.605713,-0.788574,0.014893
1519240561512,-0.604248,-0.798340,0.013916
1519240561528,-0.606934,-0.798828,0.008301
1519240561545,-0.603027,-0.795166,0.012939
1519240561590,-0.607422,-0.800293,0.012695
1519240561626,-0.605713,-0.797363,0.011719
1519240561641,-0.605713,-0.796631,0.012695
1519240561693,-0.607178,-0.794434,0.015625
1519240561710,-0.605957,-0.797119,0.011719
1519240561742,-0.609131,-0.796875,0.013672
1519240561778,-0.604248,-0.798828,0.012207
1519240561806,-0.607422,-0.795166,0.013672
1519240561840,-0.603760,-0.799316,0.012207
1519240561875,-0.607422,-0.790283,0.012939
1519240561908,-0.607422,-0.798340,0.013428
1519240561942,-0.602295,-0.800049,0.011475
1519240561978,-0.606445,-0.796387,0.014648
1519240562006,-0.604004,-0.794922,0.015381
1519240562039,-0.609131,-0.797119,0.014893
1519240562075,-0.606201,-0.791748,0.013916
1519240562109,-0.608887,-0.794434,0.012451
1519240562126,-0.604248,-0.796875,0.014893
1519240562159,-0.608154,-0.807861,0.006348
1519240562187,-0.610596,-0.791260,0.014893
1519240562222,-0.604004,-0.798828,0.009521
1519240562255,-0.606445,-0.796143,0.014404
1519240562289,-0.606201,-0.790771,0.011475
1519240562326,-0.606689,-0.789307,0.010986
1519240562359,-0.604248,-0.801758,0.005859
1519240562387,-0.610840,-0.808350,0.006592
1519240562421,-0.603516,-0.794922,0.016357
1519240562455,-0.610107,-0.790039,0.015869
1519240562490,-0.607910,-0.780518,0.019043
1519240562525,-0.605713,-0.797607,0.015625
1519240562556,-0.607666,-0.796143,0.014648
1519240562574,-0.603271,-0.801025,0.008545
1519240562603,-0.603271,-0.801025,0.012207
1519240562669,-0.609375,-0.789063,0.012451
1519240562675,-0.601563,-0.793945,0.018311
1519240562739,-0.599854,-0.803223,0.016846
1519240562741,-0.604004,-0.808594,0.007813
1519240562808,-0.602539,-0.792236,0.014648
1519240562817,-0.604492,-0.801758,0.015625
1519240562876,-0.605469,-0.788574,0.021484
1519240562882,-0.604980,-0.794189,0.016602
1519240562945,-0.602539,-0.800049,0.019775
1519240562952,-0.603760,-0.798096,0.015869
1519240563014,-0.605713,-0.795166,0.020264
1519240563022,-0.604980,-0.797119,0.014160
1519240563082,-0.605225,-0.792236,0.017090
1519240563091,-0.604492,-0.791748,0.014404
1519240563151,-0.600586,-0.797607,0.017090
1519240563158,-0.606689,-0.792725,0.015625
1519240563190,-0.599854,-0.804932,0.019775
1519240563198,-0.601563,-0.805176,0.022217
1519240563234,-0.599365,-0.799316,0.016602
1519240563251,-0.602539,-0.798584,0.018311
1519240563286,-0.600830,-0.798584,0.022217
1519240563327,-0.602051,-0.800049,0.015381
1519240563354,-0.605713,-0.795410,0.013428
1519240563382,-0.602783,-0.797119,0.016113
1519240563417,-0.600342,-0.796875,0.014160
1519240563451,-0.602051,-0.803711,0.018311
1519240563486,-0.598877,-0.803955,0.022705
1519240563521,-0.598633,-0.799316,0.023682
1519240563555,-0.597412,-0.802246,0.017334
1519240563572,-0.597900,-0.798828,0.022705
1519240563615,-0.607422,-0.798584,0.012451
1519240563650,-0.598877,-0.802002,0.015869
1519240563667,-0.592529,-0.802002,0.017578
1519240563719,-0.600830,-0.803467,0.019043
1519240563736,-0.592285,-0.809570,0.018066
1519240563768,-0.602051,-0.795166,0.018311
1519240563816,-0.595947,-0.796387,0.020508
1519240563864,-0.600830,-0.805664,0.020996
1519240563867,-0.593018,-0.800293,0.015869
1519240563900,-0.599609,-0.803223,0.015869
1519240563940,-0.598877,-0.800049,0.022461
1519240563969,-0.595703,-0.809814,0.014648
1519240564014,-0.600830,-0.804199,0.018555
1519240564032,-0.593506,-0.810059,0.016113
1519240564071,-0.594971,-0.803711,0.017334
1519240564100,-0.596436,-0.803223,0.017822
1519240564135,-0.596436,-0.797607,0.024170
1519240564151,-0.598145,-0.795654,0.019043
1519240564198,-0.594238,-0.797363,0.022217
1519240564230,-0.592285,-0.804443,0.017334
1519240564252,-0.598145,-0.814453,0.017090
1519240564299,-0.598877,-0.808350,0.011475
1519240564315,-0.605225,-0.786377,0.027832
1519240564352,-0.603760,-0.794922,0.017334
1519240564395,-0.608643,-0.790039,0.016357
1519240564413,-0.609375,-0.795410,0.012207
1519240564448,-0.603516,-0.794189,0.010742
1519240564483,-0.607422,-0.809326,0.011963
1519240564515,-0.608398,-0.791504,0.012695
1519240564550,-0.605957,-0.798828,0.011230
1519240564578,-0.610352,-0.789307,0.014160
1519240564611,-0.605469,-0.790039,0.014160
1519240564653,-0.606689,-0.797852,0.012207
1519240564681,-0.609863,-0.791504,0.016846
1519240564715,-0.603760,-0.801758,0.012451
1519240564732,-0.609131,-0.796631,0.010010
1519240564784,-0.609863,-0.786621,0.015381
1519240564810,-0.608887,-0.792480,0.012939
1519240564839,-0.607910,-0.797119,0.012939
1519240564880,-0.609863,-0.800781,0.013184
1519240564921,-0.605225,-0.799316,0.009277
1519240564930,-0.612061,-0.791992,0.012207
1519240564966,-0.609375,-0.793213,0.013916
1519240565001,-0.611816,-0.793701,0.011719
1519240565028,-0.607910,-0.795410,0.008057
1519240565063,-0.611084,-0.792480,0.014648
1519240565097,-0.608887,-0.791260,0.011719
1519240565130,-0.610596,-0.790039,0.012695
1519240565166,-0.609619,-0.791260,0.009033
1519240565193,-0.610352,-0.798584,0.010010
1519240565226,-0.606445,-0.793945,0.010010
1519240565261,-0.615479,-0.788330,0.013184
1519240565296,-0.611572,-0.796143,0.012451
1519240565312,-0.609375,-0.790527,0.011230
1519240565364,-0.608154,-0.792236,0.008057
1519240565391,-0.612793,-0.797119,0.007324
1519240565410,-0.612549,-0.787109,0.013184
1519240565443,-0.610352,-0.791016,0.007813
1519240565478,-0.611816,-0.792480,0.011230
1519240565514,-0.613037,-0.795166,0.012939
1519240565547,-0.612305,-0.794678,0.010254
1519240565574,-0.612061,-0.790283,0.009766
1519240565610,-0.611572,-0.793213,0.008301
1519240565645,-0.612793,-0.790771,0.008301
1519240565678,-0.615479,-0.787842,0.006348
1519240565710,-0.611572,-0.787354,0.009521
1519240565744,-0.610352,-0.793945,0.009521
1519240565761,-0.611816,-0.793213,0.008057
1519240565806,-0.610840,-0.792725,0.010010
1519240565848,-0.615723,-0.784424,0.012939
1519240565859,-0.613525,-0.788818,0.011719
1519240565892,-0.609863,-0.789551,0.012451
1519240565925,-0.616455,-0.795898,0.005127
1519240565960,-0.606201,-0.793701,0.009277
1519240565998,-0.613037,-0.791504,0.009521
1519240566025,-0.612061,-0.795654,0.009033
1519240566059,-0.606689,-0.794922,0.008789
1519240566092,-0.609131,-0.795654,0.011963
1519240566126,-0.611816,-0.790039,0.010254
1519240566161,-0.606201,-0.789551,0.009766
1519240566190,-0.612305,-0.786621,0.010986
1519240566225,-0.607666,-0.793945,0.007080
1519240566259,-0.609131,-0.791748,0.008789
1519240566276,-0.607910,-0.794922,0.007324
1519240566328,-0.606445,-0.802490,0.004883
1519240566341,-0.606201,-0.801514,0.005615
1519240566370,-0.603271,-0.798096,0.006836
1519240566422,-0.600830,-0.804932,0.000244
1519240566440,-0.611084,-0.792725,0.006836
1519240566480,-0.606201,-0.786133,0.007568
1519240566508,-0.608398,-0.802246,0.007813
1519240566542,-0.601318,-0.801270,0.011475
1519240566571,-0.606445,-0.798828,0.011963
1519240566606,-0.606689,-0.798584,0.005371
1519240566644,-0.604736,-0.795654,0.008057
1519240566672,-0.607178,-0.796875,0.009033
1519240566708,-0.599854,-0.802246,0.008789
1519240566742,-0.600098,-0.797119,0.011230
1519240566760,-0.589600,-0.803223,0.015381
1519240566803,-0.601807,-0.796143,0.012695
1519240566839,-0.590088,-0.799316,0.018799
1519240566855,-0.594482,-0.811035,0.018066
1519240566905,-0.590820,-0.803467,0.017090
1519240566922,-0.595459,-0.800293,0.010986
1519240566956,-0.595215,-0.809082,0.012207
1519240567004,-0.594971,-0.805176,0.016113
1519240567020,-0.596436,-0.804932,0.013428
1519240567079,-0.596191,-0.803955,0.013184
1519240567089,-0.589600,-0.808105,0.019775
1519240567123,-0.592529,-0.803223,0.016357
1519240567159,-0.594238,-0.805420,0.014648
1519240567186,-0.594727,-0.798584,0.013672
1519240567220,-0.593506,-0.806885,0.019287
1519240567255,-0.592529,-0.804443,0.020264
1519240567287,-0.592773,-0.805664,0.019043
1519240567322,-0.590088,-0.811279,0.017578
1519240567338,-0.594727,-0.802979,0.020752
1519240567386,-0.594238,-0.805176,0.020508
1519240567418,-0.595947,-0.805176,0.019531
1519240567436,-0.590332,-0.803223,0.019287
1519240567488,-0.591064,-0.800781,0.016846
1519240567504,-0.595947,-0.800537,0.022705
1519240567539,-0.589111,-0.809326,0.014893
1519240567584,-0.603760,-0.787109,0.025146
1519240567601,-0.602783,-0.796631,0.026855
1519240567695,-0.601318,-0.777344,0.028809
1519240567703,-0.609131,-0.794434,0.012939
1519240567764,-0.607178,-0.797607,0.011963
1519240567772,-0.604980,-0.811279,0.011719
1519240567831,-0.604736,-0.805908,0.009766
1519240567962,-0.603516,-0.796387,0.017578
1519240568029,-0.601807,-0.799561,0.016602
1519240568097,-0.606445,-0.789795,0.025391
1519240568105,-0.606934,-0.798584,0.012695
1519240568113,-0.606201,-0.795410,0.010986
1519240568165,-0.610107,-0.798828,0.017822
1519240568174,-0.606934,-0.797607,0.009766
1519240568192,-0.607422,-0.792725,0.016602
1519240568200,-0.609619,-0.796143,0.019043
1519240568209,-0.606689,-0.793457,0.020264
1519240568217,-0.606201,-0.795166,0.018066
1519240568222,-0.613037,-0.788086,0.016113
1519240568225,-0.607666,-0.802002,0.012939
1519240568228,-0.610840,-0.792480,0.010986
1519240568249,-0.609863,-0.796631,0.015869
1519240568282,-0.613281,-0.791016,0.018311
1519240568316,-0.609375,-0.792969,0.015381
1519240568351,-0.610840,-0.791504,0.017822
1519240568381,-0.613281,-0.791016,0.020264
1519240568415,-0.612549,-0.791260,0.013672
1519240568448,-0.616455,-0.790771,0.013428
1519240568484,-0.614014,-0.793945,0.013916
1519240568500,-0.617432,-0.788330,0.013428
1519240568551,-0.611328,-0.792236,0.016113
1519240568579,-0.617920,-0.781982,0.018799
1519240568598,-0.611328,-0.788574,0.014648
1519240568648,-0.616455,-0.791504,0.014404
1519240568665,-0.615234,-0.785156,0.017578
1519240568704,-0.614014,-0.791260,0.010254
1519240568732,-0.614014,-0.788818,0.015869
1519240568760,-0.614502,-0.790039,0.017334
1519240568796,-0.615723,-0.791504,0.013916
1519240568829,-0.616699,-0.781738,0.018311
1519240568864,-0.612305,-0.787842,0.018799
1519240568899,-0.619385,-0.789063,0.010498
1519240568932,-0.609619,-0.796875,0.010986
1519240568958,-0.612061,-0.798340,0.009766
1519240568994,-0.615479,-0.787598,0.016357
1519240569030,-0.613037,-0.789795,0.016357
1519240569064,-0.612061,-0.790527,0.020264
1519240569089,-0.612549,-0.790039,0.014893
1519240569114,-0.609863,-0.790527,0.013916
1519240569148,-0.614502,-0.795166,0.015137
1519240569190,-0.610107,-0.795654,0.014893
1519240569211,-0.613037,-0.789551,0.016846
1519240569244,-0.613525,-0.789795,0.016846
1519240569279,-0.612061,-0.794189,0.013184
1519240569313,-0.615479,-0.791992,0.013672
1519240569348,-0.609131,-0.791992,0.014160
1519240569376,-0.613770,-0.787842,0.015137
1519240569412,-0.608154,-0.789307,0.017090
1519240569444,-0.614746,-0.787598,0.018066
1519240569483,-0.606689,-0.793701,0.016357
1519240569515,-0.608887,-0.790527,0.017822
1519240569529,-0.608887,-0.793945,0.014160
1519240569558,-0.607178,-0.798340,0.010742
1519240569610,-0.610107,-0.799316,0.008301
1519240569628,-0.603027,-0.803223,0.009033
1519240569660,-0.610596,-0.794189,0.010498
1519240569695,-0.606445,-0.787109,0.016357
1519240569730,-0.608154,-0.792725,0.009766
1519240569757,-0.608643,-0.789795,0.015625
1519240569791,-0.605713,-0.786621,0.018555
1519240569825,-0.609131,-0.780029,0.022705
1519240569860,-0.605469,-0.789551,0.012939
1519240569893,-0.602295,-0.812988,0.002441
1519240569927,-0.602783,-0.814697,0.000977
1519240569945,-0.604248,-0.812256,-0.003906
1519240569992,-0.602295,-0.798340,0.009277
1519240570025,-0.604248,-0.790771,0.012939
1519240570041,-0.602051,-0.794678,0.013428
1519240570094,-0.604736,-0.796875,0.011230
1519240570112,-0.603760,-0.793213,0.011230
1519240570144,-0.605469,-0.806396,0.005127
1519240570191,-0.604736,-0.801758,0.009033
1519240570208,-0.603027,-0.795410,0.010010
1519240570243,-0.602539,-0.793701,0.013916
1519240570275,-0.606934,-0.800293,0.013428
1519240570309,-0.603516,-0.799072,0.006836
1519240570343,-0.609619,-0.796387,0.007080
1519240570373,-0.602295,-0.805420,0.005127
1519240570408,-0.610596,-0.794678,0.010010
1519240570441,-0.603271,-0.793457,0.011475
1519240570475,-0.607422,-0.796875,0.011230
1519240570510,-0.602783,-0.798340,0.016357
1519240570527,-0.605957,-0.797119,0.010254
1519240570573,-0.605225,-0.797119,0.012207
1519240570607,-0.604980,-0.793945,0.008545
1519240570624,-0.605957,-0.795898,0.010010
1519240570676,-0.607178,-0.792725,0.010254
1519240570691,-0.606445,-0.791992,0.013428
1519240570724,-0.607422,-0.790283,0.010742
1519240570769,-0.605225,-0.803711,0.008301
1519240570787,-0.604248,-0.801270,0.010986
1519240570821,-0.609863,-0.788330,0.012207
1519240570854,-0.605225,-0.796875,0.006592
1519240570891,-0.608643,-0.790771,0.010010
1519240570924,-0.607422,-0.797607,0.010010
1519240570951,-0.608154,-0.795654,0.011963
1519240570996,-0.607910,-0.790283,0.014404
1519240571024,-0.610107,-0.792725,0.010254
1519240571062,-0.610596,-0.794922,0.010742
1519240571091,-0.611572,-0.797119,0.006348
1519240571108,-0.608398,-0.793945,0.005615
1519240571153,-0.611572,-0.792725,0.012207
1519240571188,-0.607422,-0.796143,0.009033
1519240571203,-0.611572,-0.793701,0.010742
1519240571255,-0.604248,-0.788574,0.010010
1519240571273,-0.612549,-0.794189,0.009521
1519240571306,-0.608398,-0.790527,0.007813
1519240571339,-0.613281,-0.791260,0.005371
1519240571369,-0.607422,-0.797363,0.006348
1519240571403,-0.615479,-0.789551,0.010498
1519240571437,-0.608398,-0.789551,0.006348
1519240571472,-0.611328,-0.791992,0.008301
1519240571505,-0.606201,-0.795898,0.007568
1519240571541,-0.613037,-0.789307,0.007080
1519240571569,-0.606201,-0.788574,0.010254
1519240571601,-0.610840,-0.798096,0.005615
1519240571637,-0.609863,-0.795898,0.008057
1519240571672,-0.603760,-0.798340,0.007080
1519240571688,-0.605713,-0.800049,0.006348
1519240571751,-0.609863,-0.794189,0.007813
1519240571770,-0.606201,-0.793213,0.005127
1519240571785,-0.610107,-0.795410,0.004150
1519240571846,-0.607422,-0.801758,0.005859
1519240571851,-0.605225,-0.804443,0.003662
1519240571886,-0.605469,-0.797119,0.007813
1519240571921,-0.604004,-0.791260,0.006836
1519240571947,-0.603760,-0.795654,0.009277
1519240571982,-0.602539,-0.799805,0.004883
1519240572018,-0.604980,-0.792725,0.007324
1519240572052,-0.605225,-0.798340,0.003662
1519240572087,-0.603516,-0.797119,0.006348
1519240572120,-0.602295,-0.802246,0.005615
1519240572148,-0.603271,-0.803467,0.005127
1519240572183,-0.603027,-0.799561,0.003418
1519240572218,-0.600586,-0.803223,0.003174
1519240572252,-0.601074,-0.797119,0.007080
1519240572269,-0.603027,-0.794678,0.005371
1519240572320,-0.601563,-0.795898,0.001953
1519240572336,-0.602051,-0.796387,0.010742
1519240572363,-0.608398,-0.799561,0.006836
1519240572414,-0.603760,-0.792480,0.005371
1519240572432,-0.598877,-0.798584,0.003906
1519240572466,-0.598633,-0.798828,-0.002686
1519240572500,-0.603760,-0.803955,0.005859
1519240572535,-0.596191,-0.813477,0.002441
1519240572563,-0.598633,-0.808594,0.005127
1519240572598,-0.602783,-0.799561,0.004639
1519240572693,-0.604004,-0.796387,0.004395
1519240572696,-0.602295,-0.797363,0.004883
1519240572760,-0.602051,-0.795166,0.003174
1519240572764,-0.602295,-0.793457,0.003174
1519240572830,-0.598145,-0.803955,0.003662
1519240572838,-0.600098,-0.805664,0.006348
1519240572900,-0.598877,-0.807129,0.007813
1519240572909,-0.597900,-0.804932,0.007324
1519240572966,-0.602783,-0.797363,0.004395
1519240572971,-0.599854,-0.797607,0.006592
1519240573035,-0.598145,-0.798828,0.007080
1519240573102,-0.598877,-0.805664,0.000244
1519240573111,-0.602295,-0.803711,0.003418
1519240573172,-0.596680,-0.799072,0.006104
1519240573181,-0.599854,-0.798828,0.009033
1519240573189,-0.596680,-0.806885,0.009277
1519240573197,-0.603271,-0.804443,0.006592
1519240573202,-0.600342,-0.801025,0.006104
1519240573212,-0.602051,-0.798828,0.002686
1519240573247,-0.599854,-0.794189,0.008789
1519240573281,-0.601074,-0.800537,0.003662
1519240573299,-0.602051,-0.803467,0.006348
1519240573330,-0.598877,-0.804199,0.005371
1519240573379,-0.604004,-0.796631,0.008545
1519240573395,-0.599609,-0.800049,0.006592
1519240573436,-0.600586,-0.801025,0.008545
1519240573463,-0.602051,-0.799072,0.005127
1519240573499,-0.603027,-0.798828,0.002686
1519240573531,-0.603027,-0.792236,0.004639
1519240573559,-0.602539,-0.799072,0.004639
1519240573594,-0.598633,-0.805420,0.002930
1519240573628,-0.605713,-0.802002,0.005615
1519240573664,-0.600342,-0.804199,0.005371
1519240573698,-0.604248,-0.795166,0.006836
1519240573713,-0.600586,-0.799316,0.006348
1519240573759,-0.605713,-0.801758,0.005127
1519240573792,-0.602539,-0.796875,0.005127
1519240573846,-0.608643,-0.800537,0.003418
1519240573862,-0.607910,-0.801025,0.005371
1519240573915,-0.603027,-0.794678,0.005127
1519240573921,-0.591064,-0.792480,0.013428
1519240573957,-0.595215,-0.795410,0.014160
1519240574000,-0.594727,-0.817139,0.005615
1519240574009,-0.588867,-0.797119,0.022461
1519240574042,-0.597900,-0.811768,0.006348
1519240574077,-0.591553,-0.812012,-0.002197
1519240574115,-0.601563,-0.802490,0.005127
1519240574142,-0.594238,-0.803955,0.010498
1519240574176,-0.593750,-0.798096,0.010498
1519240574211,-0.594727,-0.793701,0.013916
1519240574248,-0.594238,-0.809326,0.006836
1519240574278,-0.593750,-0.799316,0.006836
1519240574311,-0.596924,-0.810791,0.005615
1519240574339,-0.596680,-0.809326,0.007813
1519240574374,-0.595947,-0.802979,0.013428
1519240574391,-0.591309,-0.800781,0.013672
1519240574443,-0.593506,-0.811523,0.005127
1519240574459,-0.594482,-0.806152,0.011719
1519240574493,-0.592529,-0.807373,0.008789
1519240574528,-0.596924,-0.804199,0.005615
1519240574557,-0.595703,-0.801025,0.008301
1519240574590,-0.593750,-0.799316,0.013428
1519240574636,-0.586914,-0.816162,0.008545
1519240574660,-0.592285,-0.805908,0.009277
1519240574693,-0.588135,-0.806152,0.015381
1519240574728,-0.592285,-0.807617,0.006348
1519240574756,-0.591553,-0.802490,0.010986
1519240574790,-0.593750,-0.806396,0.010742
1519240574823,-0.588623,-0.808838,0.006104
1519240574858,-0.591309,-0.808105,0.009766
1519240574875,-0.591797,-0.804932,0.013672
1519240574926,-0.590820,-0.807129,0.007568
1519240574953,-0.588867,-0.808350,0.011475
1519240574972,-0.587158,-0.807373,0.010498
1519240575024,-0.588135,-0.810303,0.012451
1519240575039,-0.588623,-0.806641,0.008057
1519240575074,-0.590576,-0.810059,0.014893
1519240575110,-0.588135,-0.808350,0.006836
1519240575137,-0.591064,-0.806152,0.008545
1519240575172,-0.586426,-0.807617,0.014160
1519240575206,-0.584961,-0.807373,0.010986
1519240575240,-0.588867,-0.811768,0.011230
1519240575275,-0.586670,-0.808594,0.011963
1519240575308,-0.593994,-0.808594,0.009766
1519240575335,-0.587402,-0.801758,0.012939
1519240575369,-0.592285,-0.804443,0.016602
1519240575405,-0.586670,-0.812988,0.009277
1519240575439,-0.589111,-0.804688,0.013672
1519240575455,-0.591797,-0.808350,0.010254
1519240575507,-0.590576,-0.808594,0.009277
1519240575522,-0.592773,-0.805664,0.010254
1519240575552,-0.589600,-0.807861,0.008057
1519240575604,-0.592041,-0.810303,0.006592
1519240575622,-0.593750,-0.802490,0.009521
1519240575656,-0.587646,-0.802734,0.009766
1519240575690,-0.593506,-0.809082,0.007324
1519240575724,-0.595947,-0.802246,0.014160
1519240575752,-0.592529,-0.799805,0.010254
1519240575787,-0.592529,-0.803223,0.007568
1519240575825,-0.595215,-0.811035,0.007324
1519240575853,-0.591797,-0.805420,0.009277
1519240575889,-0.594727,-0.801270,0.007813
1519240575921,-0.593262,-0.806152,0.009766
1519240575948,-0.593994,-0.801514,0.008789
1519240575984,-0.592285,-0.809082,0.012207
1519240576017,-0.592773,-0.803955,0.010498
1519240576035,-0.594482,-0.804199,0.006592
1519240576088,-0.598389,-0.795166,0.012939
1519240576105,-0.593018,-0.807129,0.007324
1519240576133,-0.596680,-0.804688,0.006104
1519240576168,-0.597168,-0.804199,0.011963
1519240576201,-0.592773,-0.801514,0.010498
1519240576235,-0.595215,-0.802979,0.010010
1519240576268,-0.594971,-0.803467,0.007568
1519240576302,-0.599121,-0.811523,0.006104
1519240576331,-0.592529,-0.803711,0.010010
1519240576366,-0.597900,-0.806885,0.003662
1519240576400,-0.600342,-0.795410,0.011719
1519240576436,-0.594971,-0.804688,0.009766
1519240576468,-0.595947,-0.798096,0.010742
1519240576502,-0.598389,-0.797119,0.008545
1519240576520,-0.596436,-0.805420,0.007568
1519240576565,-0.597168,-0.807373,0.002686
1519240576582,-0.598877,-0.802734,0.008057
1519240576623,-0.596680,-0.803467,0.009521
1519240576651,-0.599365,-0.799561,0.005615
1519240576685,-0.599854,-0.795898,0.010498
1519240576721,-0.597900,-0.811523,0.006592
1519240576748,-0.601563,-0.800537,0.005371
1519240576783,-0.600830,-0.795654,0.005371
1519240576817,-0.603271,-0.789063,0.005127
1519240576871,-0.599121,-0.799561,0.003906
1519240576884,-0.603271,-0.795654,0.011719
1519240576901,-0.601563,-0.801514,0.002686
1519240576946,-0.595215,-0.803955,0.002441
1519240576980,-0.602295,-0.802734,0.003418
1519240577006,-0.598877,-0.800537,-0.000732
1519240577049,-0.601807,-0.805908,-0.002441
1519240577066,-0.597168,-0.804199,0.001709
1519240577101,-0.602051,-0.804932,0.002930
1519240577147,-0.600098,-0.809326,-0.000732
1519240577163,-0.598877,-0.795410,0.004639
1519240577197,-0.598877,-0.798584,0.005371
1519240577231,-0.601074,-0.808838,0.004150
1519240577267,-0.597656,-0.801758,0.005371
1519240577300,-0.601074,-0.799561,0.003906
1519240577328,-0.593262,-0.814453,0.004883
1519240577362,-0.588135,-0.801514,0.006104
1519240577396,-0.590576,-0.801025,0.004883
1519240577431,-0.592041,-0.808105,0.006104
1519240577464,-0.588867,-0.810303,0.012451
1519240577482,-0.586182,-0.810791,0.008301
1519240577527,-0.594238,-0.804199,0.003906
1519240577562,-0.586426,-0.806396,0.004639
1519240577579,-0.595215,-0.803467,0.008545
