1519650341462,-0.666260,0.602539,-0.413818
1519650341518,-0.663574,0.624512,-0.408447
1519650341551,-0.678711,0.647949,-0.429688
1519650341583,-0.675537,0.608887,-0.437988
1519650341617,-0.677002,0.641602,-0.423340
1519650341678,-0.683838,0.648193,-0.428467
1519650341684,-0.683594,0.647461,-0.446777
1519650341738,-0.661377,0.658691,-0.436279
1519650341744,-0.653076,0.625732,-0.425049
1519650341749,-0.644287,0.611572,-0.417725
1519650341799,-0.658447,0.634277,-0.445801
1519650341841,-0.649170,0.619629,-0.447021
1519650341846,-0.650635,0.637207,-0.442383
1519650341899,-0.651123,0.633789,-0.446777
1519650341934,-0.651611,0.645996,-0.465332
1519650341967,-0.654053,0.644287,-0.466309
1519650342000,-0.640625,0.607666,-0.441650
1519650342032,-0.640137,0.660645,-0.476318
1519650342066,-0.629150,0.671387,-0.494385
1519650342097,-0.694092,0.606934,-0.468994
1519650342130,-0.602539,0.663818,-0.466064
1519650342135,-0.663330,0.606445,-0.428711
1519650342187,-0.622559,0.639893,-0.391846
1519650342222,-0.603516,0.760010,-0.493408
1519650342235,-0.704102,0.578125,-0.459717
1519650342292,-0.622070,0.741455,-0.420898
1519650342298,-0.637939,0.626221,-0.470703
1519650342351,-0.674805,0.663330,-0.435303
1519650342384,-0.626465,0.634277,-0.394531
1519650342417,-0.653320,0.680908,-0.419434
1519650342450,-0.638916,0.677490,-0.435059
1519650342481,-0.641846,0.644287,-0.416504
1519650342514,-0.648193,0.666748,-0.420654
1519650342546,-0.643555,0.656982,-0.431641
1519650342578,-0.635254,0.667480,-0.410400
1519650342610,-0.638916,0.664795,-0.413330
1519650342612,-0.635498,0.654297,-0.444336
1519650342662,-0.634766,0.675537,-0.429443
1519650342720,-0.644287,0.680908,-0.434814
1519650342722,-0.641357,0.664795,-0.421387
1519650342781,-0.644043,0.673828,-0.396973
1519650342782,-0.620605,0.677002,-0.360107
1519650342854,-0.636963,0.548096,-0.349854
1519650342855,-0.603027,0.589600,-0.321533
1519650342922,-0.661133,0.594238,-0.391113
1519650342923,-0.553711,0.517090,-0.287109
1519650342967,-0.621826,0.468506,-0.653320
1519650342979,-0.559570,0.472900,-0.646729
1519650343012,-0.612793,0.407959,-0.647217
1519650343044,-0.544189,0.389893,-0.718750
1519650343077,-0.312012,0.570068,-0.546387
1519650343119,-0.719482,-0.009521,-0.994873
1519650343151,-0.513672,0.507080,-0.684326
1519650343184,-0.349365,0.678223,-0.927246
1519650343220,-0.632324,0.629395,-0.812500
1519650343249,-0.499756,0.456055,-0.681152
1519650343281,-0.497314,0.420410,-0.794922
1519650343289,-0.447754,0.463623,-0.673096
1519650343347,-0.445801,0.452881,-0.702393
1519650343380,-0.457275,0.557861,-0.621094
1519650343412,-0.443848,0.585449,-0.598145
1519650343444,-0.518799,0.677490,-0.742920
1519650343457,-0.484863,0.773438,-0.657715
1519650343490,-0.520264,0.567627,-0.638672
1519650343522,-0.500732,0.736084,-0.404785
1519650343581,-0.562256,0.774170,-0.546143
1519650343613,-0.434326,0.822998,-0.342773
1519650343620,-0.444824,0.981689,-0.377197
1519650343676,-0.181885,0.742188,-0.153809
1519650343708,-0.174316,0.948242,0.127686
1519650343741,-0.119873,1.075195,0.108154
1519650343773,-0.018555,1.042725,0.298584
1519650343774,0.007324,0.972412,0.443848
1519650343807,0.014893,1.011719,0.389893
1519650343842,-0.024170,1.006104,0.457031
1519650343883,-0.043945,0.974609,0.466553
1519650343916,-0.048096,0.951172,0.412354
1519650343948,-0.056885,0.950928,0.469971
1519650343981,-0.122314,0.917480,0.429199
1519650344013,-0.116211,0.892090,0.443848
1519650344046,-0.095459,0.910645,0.450928
1519650344078,-0.097900,0.902588,0.445801
1519650344111,-0.082520,0.883545,0.431396
1519650344145,-0.088623,0.889160,0.437256
1519650344177,-0.089844,0.885010,0.442871
1519650344209,-0.076904,0.906982,0.470459
1519650344242,-0.080811,0.899414,0.477539
1519650344256,-0.079102,0.900146,0.469971
1519650344313,-0.042969,0.901123,0.484131
1519650344319,-0.046875,0.880615,0.468262
1519650344399,-0.052979,0.913086,0.475586
1519650344400,-0.063721,0.915771,0.492432
1519650344433,-0.072021,0.910156,0.491455
1519650344465,-0.077881,0.905273,0.499268
1519650344498,-0.081543,0.907227,0.496094
1519650344530,-0.082764,0.906494,0.485352
1519650344563,-0.078369,0.917236,0.478027
1519650344622,-0.079346,0.902832,0.476807
1519650344623,-0.083008,0.917480,0.476318
1519650344682,-0.092529,0.903320,0.463867
1519650344683,-0.090576,0.891357,0.474854
1519650344747,-0.085938,0.891357,0.427979
1519650344749,-0.079102,0.911865,0.421387
1519650344807,-0.078369,0.900146,0.456787
1519650344808,-0.092285,0.901611,0.473877
1519650344865,-0.101563,0.883057,0.483154
1519650344923,-0.096191,0.877686,0.498291
1519650344924,-0.096191,0.882813,0.492676
1519650344982,-0.103760,0.877686,0.495850
1519650344983,-0.091064,0.892090,0.494141
1519650345046,-0.093994,0.892090,0.483398
1519650345048,-0.081787,0.898682,0.449707
1519650345107,-0.089844,0.903809,0.429932
1519650345108,-0.096191,0.906982,0.446289
1519650345172,-0.092285,0.916504,0.465576
1519650345173,-0.103516,0.905762,0.488525
1519650345230,-0.113525,0.902588,0.484863
1519650345232,-0.090088,0.913330,0.484375
1519650345289,-0.095215,0.920166,0.477783
1519650345357,-0.109619,0.913086,0.479980
1519650345358,-0.103760,0.912109,0.483154
1519650345366,-0.079834,0.916260,0.483398
1519650345417,-0.082275,0.891846,0.475342
1519650345418,-0.099121,0.909180,0.468750
1519650345478,-0.092773,0.897461,0.482910
1519650345479,-0.095703,0.883789,0.476563
1519650345518,-0.102783,0.902344,0.466064
1519650345550,-0.100098,0.902588,0.470215
1519650345583,-0.088623,0.882080,0.468018
1519650345616,-0.063232,0.907227,0.470703
1519650345648,0.117432,0.977295,0.667969
1519650345680,0.165039,0.802002,0.450684
1519650345737,0.150635,0.918701,0.052979
1519650345794,0.005127,0.735596,0.050049
1519650345796,-0.106445,0.307373,-0.482178
1519650345798,-0.142090,0.686768,-1.074707
1519650345862,-0.261475,1.065918,-1.006104
1519650345896,-0.305664,0.838379,-1.017334
1519650345901,-0.367188,0.684570,-0.959473
1519650345969,-0.395752,0.535156,-0.786377
1519650345971,-0.476074,0.530273,-0.795898
1519650346037,-0.485840,0.451416,-0.458008
1519650346038,-0.412109,0.148682,-0.620117
1519650346087,-0.683105,0.717529,-0.608154
1519650346095,-0.587891,0.467041,-0.760254
1519650346151,-0.651855,0.481201,-0.733154
1519650346183,-0.573730,0.617188,-0.656250
1519650346216,-0.569092,0.596924,-0.702881
1519650346248,-0.561279,0.493896,-0.683838
1519650346281,-0.544434,0.527832,-0.488037
1519650346313,-0.553467,0.538818,-0.467529
1519650346327,-0.559326,0.543945,-0.445068
1519650346360,-0.570801,0.576416,-0.416016
1519650346392,-0.618408,0.651855,-0.531006
1519650346425,-0.673828,0.581787,-0.494873
1519650346457,-0.632813,0.480225,-0.488525
1519650346496,-0.635498,0.418701,-0.488525
1519650346528,-0.709961,0.417725,-0.503418
1519650346561,-0.730225,0.625977,-0.450684
1519650346593,-0.669189,0.659424,-0.450439
1519650346626,-0.675781,0.662109,-0.386963
1519650346658,-0.688477,0.672607,-0.374268
1519650346691,-0.617920,0.691650,-0.333252
1519650346723,-0.613525,0.669678,-0.301025
1519650346744,-0.606689,0.721191,-0.330322
1519650346768,-0.676025,0.736572,-0.433594
1519650346826,-0.637939,0.819824,-0.330078
1519650346859,-0.603271,0.687500,-0.313721
1519650346872,-0.664551,0.679443,-0.386963
1519650346919,-0.643066,0.731445,-0.314209
1519650346960,-0.655029,0.724609,-0.268799
1519650346963,-0.649414,0.679688,-0.307861
1519650347021,-0.625000,0.705811,-0.315674
1519650347030,-0.623291,0.732666,-0.282715
1519650347081,-0.644531,0.787109,-0.313477
1519650347115,-0.645020,0.711426,-0.289307
1519650347128,-0.645020,0.729248,-0.266846
1519650347160,-0.674561,0.764893,-0.305664
1519650347217,-0.642822,0.745605,-0.297852
1519650347226,-0.639404,0.717041,-0.311279
1519650347280,-0.654785,0.728516,-0.309570
1519650347314,-0.639893,0.731934,-0.320557
1519650347346,-0.639404,0.705566,-0.325439
1519650347354,-0.638428,0.694580,-0.319824
1519650347404,-0.624268,0.733887,-0.271484
1519650347436,-0.635986,0.697021,-0.309570
1519650347440,-0.615967,0.706299,-0.311279
1519650347497,-0.633301,0.720215,-0.340332
1519650347530,-0.625977,0.701660,-0.352295
1519650347544,-0.596680,0.729980,-0.336670
1519650347576,-0.610596,0.752441,-0.343506
1519650347607,-0.620361,0.739014,-0.386230
1519650347640,-0.615479,0.742188,-0.377930
1519650347673,-0.614502,0.715088,-0.346924
1519650347710,-0.604492,0.722412,-0.359863
1519650347743,-0.603271,0.744385,-0.359131
1519650347800,-0.585449,0.718750,-0.393555
1519650347805,-0.589355,0.742920,-0.386230
1519650347863,-0.582764,0.738525,-0.356201
1519650347894,-0.612549,0.750732,-0.332764
1519650347928,-0.586182,0.739258,-0.341064
1519650347935,-0.589111,0.709473,-0.370361
1519650347995,-0.603760,0.765381,-0.356445
1519650348004,-0.609863,0.708984,-0.382080
1519650348029,-0.627686,0.689697,-0.378906
1519650348062,-0.648682,0.693115,-0.376953
1519650348094,-0.622314,0.745361,-0.375488
1519650348126,-0.629150,0.680176,-0.373535
1519650348159,-0.631348,0.699707,-0.314453
1519650348193,-0.598877,0.713379,-0.318359
1519650348242,-0.632080,0.819824,-0.283936
1519650348273,-0.622559,0.745117,-0.301514
1519650348305,-0.612793,0.734375,-0.322021
1519650348337,-0.612305,0.741699,-0.350342
1519650348380,-0.608643,0.759521,-0.328857
1519650348388,-0.611084,0.762451,-0.339111
1519650348437,-0.608154,0.730957,-0.364014
1519650348516,-0.653809,0.743652,-0.322998
1519650348518,-0.589111,0.745605,-0.318359
1519650348520,-0.638672,0.723389,-0.371582
1519650348561,-0.614746,0.750244,-0.344727
1519650348594,-0.616943,0.751709,-0.330322
1519650348600,-0.599121,0.748535,-0.332031
1519650348658,-0.597168,0.732910,-0.347900
1519650348670,-0.602783,0.735352,-0.338135
1519650348725,-0.599365,0.744629,-0.335938
1519650348758,-0.618408,0.728516,-0.348389
1519650348773,-0.615234,0.744141,-0.325195
1519650348806,-0.607422,0.751465,-0.298096
1519650348837,-0.619873,0.775146,-0.302979
1519650348870,-0.624268,0.859375,-0.196289
1519650348903,-0.621826,0.716309,-0.352295
1519650348960,-0.696289,0.804932,-0.385254
1519650348965,-0.664795,0.861572,-0.224121
1519650348994,-0.583984,0.691406,-0.238281
1519650349094,-0.639893,0.737061,-0.267334
1519650349103,-0.639893,0.813965,-0.223877
1519650349161,-0.626465,0.780518,-0.208008
1519650349166,-0.646240,0.727295,-0.270752
1519650349209,-0.572510,0.625977,-0.276367
1519650349217,-0.673828,0.869873,-0.134033
1519650349225,-0.578125,0.808838,-0.198730
1519650349273,-0.645752,0.759521,-0.126221
1519650349305,-0.612549,0.807129,-0.078369
1519650349387,-0.623779,0.868652,-0.006348
1519650349393,-0.591309,0.855225,-0.043457
1519650349398,-0.649658,0.774902,-0.127686
1519650349449,-0.628174,0.783691,-0.136475
1519650349452,-0.662598,0.765137,-0.180420
1519650349521,-0.665771,0.763916,-0.203613
1519650349524,-0.649902,0.737061,-0.148193
1519650349579,-0.660156,0.828369,-0.135986
1519650349583,-0.654541,0.708008,-0.132324
1519650349643,-0.664795,0.762695,-0.116211
1519650349646,-0.666260,0.752441,-0.137207
1519650349703,-0.690674,0.756104,-0.179199
1519650349705,-0.660400,0.800537,-0.148438
1519650349765,-0.631836,0.775635,-0.120605
1519650349766,-0.560791,0.780273,-0.069580
1519650349824,-0.591553,0.846680,-0.048340
1519650349828,-0.677490,0.806152,-0.202637
1519650349889,-0.672119,0.759277,-0.194336
1519650349945,-0.630371,0.770752,-0.079102
1519650349948,-0.633057,0.769775,-0.086426
1519650349950,-0.648438,0.770752,-0.146729
1519650350006,-0.640137,0.764160,-0.162842
1519650350063,-0.635010,0.785400,-0.152100
1519650350067,-0.645020,0.758789,-0.184326
1519650350122,-0.668945,0.792480,-0.181396
1519650350125,-0.651123,0.785645,-0.201172
1519650350156,-0.666504,0.791992,-0.185059
1519650350188,-0.619873,0.783691,-0.063721
1519650350221,-0.630615,0.741699,-0.034668
1519650350253,-0.632324,0.796875,-0.044922
1519650350286,-0.635986,0.775879,-0.127441
1519650350318,-0.670410,0.760986,-0.158691
1519650350350,-0.649902,0.784180,-0.127930
1519650350383,-0.658936,0.781982,-0.149414
1519650350425,-0.639404,0.782959,-0.143799
1519650350457,-0.654541,0.768311,-0.151367
1519650350490,-0.652588,0.797363,-0.133057
1519650350494,-0.648438,0.794434,-0.135498
1519650350552,-0.631592,0.764160,-0.114014
1519650350585,-0.645996,0.779297,-0.150635
1519650350592,-0.669678,0.816650,-0.232422
1519650350650,-0.629883,0.757080,-0.160645
1519650350682,-0.648926,0.817871,-0.170898
1519650350736,-0.622559,0.773193,-0.051758
1519650350739,-0.611328,0.770996,-0.161377
1519650350800,-0.642578,0.813477,-0.209961
1519650350803,-0.651855,0.791992,-0.205078
1519650350862,-0.636230,0.762207,-0.165771
1519650350864,-0.633545,0.740234,-0.173828
1519650350922,-0.650146,0.714844,-0.207275
1519650350924,-0.640137,0.755859,-0.210205
1519650350981,-0.630371,0.797607,-0.129150
1519650350983,-0.615967,0.871094,-0.111084
1519650351015,-0.609863,0.850586,-0.123535
1519650351073,-0.674072,0.814453,-0.256836
1519650351077,-0.654053,0.774658,-0.158447
1519650351110,-0.606445,0.819092,-0.082520
1519650351167,-0.633789,0.771484,-0.142578
1519650351200,-0.633545,0.781250,-0.207031
1519650351213,-0.632080,0.776123,-0.215088
1519650351246,-0.620361,0.768799,-0.205322
1519650351278,-0.619873,0.802002,-0.159912
1519650351311,-0.607666,0.729248,-0.150391
1519650351344,-0.619141,0.804199,-0.195557
1519650351401,-0.638184,0.800293,-0.184326
1519650351406,-0.622803,0.771973,-0.170410
1519650351463,-0.615967,0.827393,-0.157471
1519650351496,-0.623535,0.804932,-0.163086
1519650351498,-0.627441,0.803223,-0.186035
1519650351555,-0.624023,0.798584,-0.183838
1519650351560,-0.606689,0.792725,-0.158691
1519650351593,-0.614502,0.809326,-0.137939
1519650351660,-0.637939,0.788574,-0.191406
1519650351662,-0.630859,0.771484,-0.173340
1519650351696,-0.636230,0.776855,-0.164063
1519650351729,-0.635010,0.772705,-0.176270
1519650351761,-0.644287,0.797852,-0.180664
1519650351794,-0.622803,0.793457,-0.182373
1519650351826,-0.630615,0.786865,-0.178223
1519650351859,-0.635010,0.768311,-0.164063
1519650351891,-0.625244,0.786377,-0.144043
1519650351925,-0.641113,0.787598,-0.137451
1519650351957,-0.602539,0.786133,-0.149414
1519650351990,-0.661133,0.766846,-0.197510
1519650352032,-0.636230,0.769043,-0.184082
1519650352081,-0.646484,0.785156,-0.185547
1519650352086,-0.646484,0.813232,-0.182129
1519650352139,-0.629150,0.766602,-0.178467
1519650352145,-0.631592,0.781250,-0.179688
1519650352217,-0.629150,0.765869,-0.167725
1519650352280,-0.614258,0.767090,-0.149414
1519650352283,-0.642090,0.805664,-0.218994
1519650352329,-0.638672,0.776123,-0.197021
1519650352337,-0.636230,0.755615,-0.208496
1519650352362,-0.630371,0.772949,-0.164795
1519650352394,-0.627686,0.792725,-0.149902
1519650352408,-0.632568,0.790283,-0.163330
1519650352441,-0.607666,0.756836,-0.165527
1519650352474,-0.634033,0.901367,-0.150391
1519650352506,-0.646484,0.775391,-0.119873
1519650352543,-0.621582,0.787109,-0.064453
1519650352575,-0.614014,0.841064,-0.114990
1519650352607,-0.611572,0.775879,-0.140869
1519650352640,-0.606689,0.769775,-0.115967
1519650352673,-0.593262,0.799316,-0.116699
1519650352704,-0.635986,0.802490,-0.176270
1519650352736,-0.624268,0.792725,-0.177734
1519650352768,-0.633545,0.800049,-0.184570
1519650352826,-0.639404,0.804688,-0.151367
1519650352840,-0.642822,0.807129,-0.143555
1519650352890,-0.659180,0.789795,-0.182861
1519650352892,-0.663086,0.778076,-0.172119
1519650352951,-0.658691,0.800049,-0.187256
1519650352954,-0.653320,0.746826,-0.184326
1519650353011,-0.595703,0.677002,-0.153564
1519650353016,-0.621094,0.770996,-0.157471
1519650353075,-0.623047,0.837158,-0.134033
1519650353133,-0.633545,0.774414,-0.160645
1519650353136,-0.611084,0.809326,-0.117676
1519650353138,-0.600830,0.812744,-0.125977
1519650353193,-0.616699,0.806152,-0.159180
1519650353198,-0.619141,0.794189,-0.140381
1519650353256,-0.604736,0.832275,-0.122559
1519650353269,-0.636963,0.800537,-0.135986
1519650353321,-0.635986,0.765869,-0.196533
1519650353360,-0.643799,0.770508,-0.176025
1519650353418,-0.648193,0.779785,-0.175293
1519650353421,-0.659424,0.782715,-0.193848
1519650353484,-0.650146,0.772705,-0.190186
1519650353486,-0.623047,0.778809,-0.148682
1519650353546,-0.610840,0.809326,-0.142090
1519650353547,-0.607666,0.792480,-0.162842
1519650353606,-0.625488,0.793213,-0.197510
1519650353607,-0.602783,0.769531,-0.193604
1519650353615,-0.628662,0.845459,-0.200195
1519650353665,-0.607666,0.772217,-0.182617
1519650353729,-0.611816,0.792969,-0.143555
1519650353731,-0.628418,0.817139,-0.165527
1519650353788,-0.619141,0.792725,-0.198730
1519650353790,-0.630615,0.801514,-0.195801
1519650353850,-0.616455,0.804199,-0.183594
1519650353852,-0.613281,0.791260,-0.200195
1519650353912,-0.609131,0.786865,-0.203369
1519650353915,-0.601563,0.807129,-0.185303
1519650353973,-0.604980,0.805664,-0.185303
1519650353978,-0.612793,0.797119,-0.187500
1519650354036,-0.606689,0.782471,-0.184326
1519650354068,-0.607910,0.799072,-0.188477
1519650354082,-0.608154,0.792480,-0.157471
1519650354114,-0.602051,0.794434,-0.129883
1519650354172,-0.625000,0.754395,-0.236572
1519650354174,-0.628662,0.739502,-0.195801
1519650354206,-0.636230,0.821045,-0.185547
1519650354263,-0.625732,0.833740,-0.172363
1519650354265,-0.644531,0.764893,-0.208740
1519650354297,-0.635742,0.786621,-0.201172
1519650354357,-0.624512,0.775879,-0.187988
1519650354365,-0.627930,0.760986,-0.201416
1519650354393,-0.650879,0.787598,-0.244385
1519650354451,-0.621094,0.782715,-0.177490
1519650354486,-0.632813,0.738281,-0.188477
1519650354500,-0.616211,0.746338,-0.197266
1519650354532,-0.622314,0.770264,-0.169189
1519650354565,-0.617920,0.782715,-0.176270
1519650354597,-0.629395,0.776123,-0.200928
1519650354640,-0.637939,0.789795,-0.207520
1519650354672,-0.639160,0.777100,-0.196289
1519650354678,-0.645264,0.782471,-0.205811
1519650354762,-0.638184,0.779541,-0.203857
1519650354763,-0.638916,0.775391,-0.204834
1519650354822,-0.631836,0.781982,-0.199707
1519650354823,-0.635254,0.766602,-0.205322
1519650354882,-0.631836,0.761230,-0.211182
1519650354884,-0.637939,0.755127,-0.206055
1519650354942,-0.647949,0.755127,-0.207764
1519650354946,-0.646240,0.770020,-0.218994
1519650354978,-0.642822,0.760742,-0.219727
1519650355011,-0.618896,0.777832,-0.197998
1519650355043,-0.630859,0.809570,-0.213867
1519650355077,-0.650146,0.803223,-0.221924
1519650355135,-0.639893,0.742188,-0.196045
1519650355137,-0.647461,0.764404,-0.205078
1519650355168,-0.635742,0.782471,-0.192383
1519650355226,-0.630615,0.759521,-0.191406
1519650355227,-0.618408,0.769775,-0.202148
1519650355259,-0.607422,0.732422,-0.255127
1519650355332,-0.625977,0.874268,-0.236084
1519650355333,-0.667236,0.779053,-0.221191
1519650355400,-0.594238,0.728516,-0.170898
1519650355402,-0.624268,0.781250,-0.212891
1519650355447,-0.614014,0.779297,-0.225342
1519650355481,-0.623291,0.799561,-0.210938
1519650355513,-0.614746,0.788330,-0.217529
1519650355546,-0.613525,0.776123,-0.215088
1519650355548,-0.618652,0.766357,-0.219727
1519650355605,-0.630859,0.777100,-0.205322
1519650355637,-0.637939,0.790771,-0.170898
1519650355639,-0.663818,0.799561,-0.202881
1519650355696,-0.660400,0.781250,-0.214111
1519650355728,-0.664551,0.721191,-0.215576
1519650355742,-0.639160,0.713135,-0.158203
1519650355801,-0.631104,0.785645,-0.201904
1519650355807,-0.622314,0.802979,-0.240234
1519650355866,-0.625244,0.763428,-0.238525
1519650355896,-0.640625,0.766357,-0.221924
1519650355926,-0.649170,0.768311,-0.199463
1519650355952,-0.656738,0.770996,-0.198730
1519650355986,-0.664551,0.762207,-0.200684
1519650356019,-0.664551,0.755371,-0.195313
1519650356051,-0.668213,0.750244,-0.185059
1519650356082,-0.668213,0.760742,-0.174805
1519650356115,-0.655762,0.779297,-0.187012
1519650356128,-0.651367,0.765625,-0.187256
1519650356186,-0.654053,0.760986,-0.189697
1519650356218,-0.642578,0.763672,-0.186523
1519650356220,-0.639893,0.764160,-0.181885
1519650356278,-0.628906,0.772705,-0.176270
1519650356311,-0.622314,0.765625,-0.178955
1519650356342,-0.623047,0.762207,-0.172852
1519650356374,-0.618652,0.749268,-0.189209
1519650356410,-0.619141,0.745850,-0.194092
1519650356442,-0.659180,0.778809,-0.226563
1519650356475,-0.561035,0.742432,-0.101807
1519650356507,-0.656250,0.858887,-0.138916
1519650356540,-0.605713,0.816650,-0.155273
1519650356581,-0.657471,0.802002,-0.197266
1519650356584,-0.646240,0.772705,-0.174072
1519650356642,-0.633301,0.767090,-0.152832
1519650356675,-0.637939,0.754395,-0.181641
1519650356708,-0.629883,0.770508,-0.175781
1519650356716,-0.621582,0.776367,-0.163086
1519650356767,-0.627686,0.789551,-0.165039
1519650356798,-0.642578,0.801758,-0.151123
1519650356801,-0.634277,0.789795,-0.154053
1519650356857,-0.635986,0.791016,-0.142578
1519650356890,-0.645020,0.787842,-0.154785
1519650356922,-0.643066,0.782715,-0.163574
1519650356955,-0.625977,0.757324,-0.197510
1519650356987,-0.623779,0.760010,-0.174316
1519650357020,-0.627197,0.789307,-0.190674
1519650357052,-0.625732,0.802734,-0.168213
1519650357085,-0.622803,0.771240,-0.168213
1519650357117,-0.625732,0.796875,-0.157959
1519650357153,-0.618896,0.792480,-0.163818
1519650357155,-0.628174,0.778320,-0.165771
1519650357200,-0.630859,0.796875,-0.166504
1519650357257,-0.627197,0.782471,-0.176758
1519650357259,-0.631592,0.783203,-0.186523
1519650357291,-0.627441,0.778564,-0.186279
1519650357324,-0.624268,0.766846,-0.197021
1519650357358,-0.635254,0.757080,-0.223145
1519650357391,-0.645020,0.826904,-0.092285
1519650357423,-0.607422,0.850342,-0.162842
1519650357459,-0.625732,0.820068,-0.178955
1519650357491,-0.600830,0.792480,-0.179443
1519650357523,-0.618652,0.806641,-0.196777
1519650357556,-0.598877,0.776855,-0.157959
1519650357588,-0.601807,0.784668,-0.171387
1519650357622,-0.613037,0.787842,-0.211670
1519650357654,-0.602539,0.773193,-0.207520
1519650357686,-0.589355,0.747070,-0.170654
1519650357718,-0.612061,0.811768,-0.164307
1519650357751,-0.612061,0.805664,-0.176025
1519650357765,-0.618652,0.783203,-0.167725
1519650357823,-0.584961,0.790771,-0.129150
1519650357854,-0.642822,0.850342,-0.185303
1519650357887,-0.617920,0.854980,-0.174805
1519650357921,-0.606445,0.782227,-0.175537
1519650357952,-0.591797,0.816406,-0.164307
1519650357985,-0.602783,0.836182,-0.160889
1519650358017,-0.593750,0.815430,-0.167725
1519650358050,-0.592773,0.820068,-0.174805
1519650358082,-0.588623,0.811523,-0.149902
1519650358115,-0.595459,0.784424,-0.170410
1519650358147,-0.590088,0.805664,-0.184814
1519650358149,-0.584229,0.802979,-0.173096
1519650358219,-0.591064,0.782471,-0.179688
1519650358251,-0.576416,0.797607,-0.135986
1519650358253,-0.583008,0.853516,-0.176270
1519650358310,-0.583740,0.831055,-0.196777
1519650358316,-0.574951,0.795654,-0.173340
1519650358352,-0.573486,0.826172,-0.169434
1519650358455,-0.620605,0.824951,-0.230469
1519650358457,-0.613770,0.823730,-0.234619
1519650358459,-0.613281,0.816650,-0.227295
1519650358572,-0.601807,0.802734,-0.191895
1519650358574,-0.596191,0.787354,-0.183838
1519650358676,-0.588379,0.769043,-0.170166
1519650358678,-0.585205,0.780273,-0.182617
1519650358690,-0.596680,0.803955,-0.196533
1519650358692,-0.596680,0.797607,-0.204102
1519650358693,-0.606201,0.851807,-0.175293
1519650358725,-0.603760,0.792236,-0.172363
1519650358731,-0.604248,0.794922,-0.164551
1519650358789,-0.601563,0.778809,-0.182373
1519650358822,-0.592529,0.776611,-0.204346
1519650358829,-0.599365,0.777100,-0.225098
1519650358885,-0.596436,0.806641,-0.181152
1519650358921,-0.581543,0.832764,-0.181152
1519650358950,-0.604980,0.855225,-0.175537
1519650358982,-0.594727,0.821533,-0.149658
1519650358996,-0.606201,0.830811,-0.200928
1519650359028,-0.594482,0.802734,-0.166992
1519650359062,-0.608887,0.799805,-0.174805
1519650359118,-0.614990,0.804932,-0.193359
1519650359120,-0.619873,0.789795,-0.231445
1519650359177,-0.601807,0.766602,-0.199463
1519650359211,-0.600098,0.769287,-0.182617
1519650359216,-0.596436,0.793213,-0.161133
1519650359270,-0.570068,0.732666,-0.158691
1519650359278,-0.622559,0.857910,-0.193848
1519650359334,-0.589111,0.830078,-0.182373
1519650359367,-0.599365,0.848877,-0.135010
1519650359375,-0.584717,0.826172,-0.100586
1519650359432,-0.590576,0.866699,-0.186035
1519650359465,-0.602783,0.804443,-0.198730
1519650359498,-0.584717,0.818604,-0.166260
1519650359530,-0.607910,0.800537,-0.196289
1519650359562,-0.606934,0.800781,-0.214600
1519650359594,-0.597656,0.787842,-0.195313
1519650359627,-0.592773,0.786621,-0.208008
1519650359660,-0.584717,0.790527,-0.186768
1519650359693,-0.578125,0.819824,-0.176514
1519650359699,-0.584229,0.800293,-0.197510
1519650359764,-0.600342,0.836182,-0.176270
1519650359792,-0.603027,0.810547,-0.178955
1519650359794,-0.610352,0.811523,-0.191162
1519650359851,-0.605469,0.805176,-0.173340
1519650359859,-0.597900,0.809082,-0.176758
1519650359916,-0.599365,0.804443,-0.193115
1519650359949,-0.594971,0.778076,-0.209473
1519650359956,-0.592285,0.766357,-0.216553
1519650360012,-0.609863,0.808350,-0.195801
1519650360045,-0.573975,0.806152,-0.176025
1519650360077,-0.553467,0.823975,-0.098389
1519650360109,-0.588135,0.870361,-0.171631
1519650360143,-0.599365,0.822510,-0.191650
1519650360175,-0.607178,0.811768,-0.177002
1519650360209,-0.590332,0.828857,-0.163818
1519650360224,-0.605469,0.782227,-0.200195
1519650360259,-0.598877,0.787842,-0.183838
1519650360292,-0.592041,0.802490,-0.194092
1519650360350,-0.590332,0.795654,-0.174805
1519650360356,-0.588867,0.797363,-0.192139
1519650360383,-0.594482,0.856445,-0.192871
1519650360441,-0.584961,0.806641,-0.159912
1519650360447,-0.590576,0.812744,-0.165283
1519650360475,-0.593750,0.830811,-0.155029
1519650360533,-0.594238,0.816162,-0.169189
1519650360563,-0.595703,0.824707,-0.177246
1519650360570,-0.594727,0.815674,-0.176514
1519650360627,-0.591309,0.822266,-0.170410
1519650360641,-0.598145,0.824463,-0.175293
1519650360674,-0.596924,0.798096,-0.181396
1519650360706,-0.592285,0.797852,-0.182861
1519650360760,-0.586670,0.811035,-0.183350
1519650360819,-0.593262,0.800781,-0.183105
1519650360825,-0.576416,0.833008,-0.145020
1519650360831,-0.586914,0.830078,-0.166992
1519650360882,-0.594238,0.820313,-0.180664
1519650360890,-0.579346,0.849365,-0.166016
1519650360926,-0.580811,0.840820,-0.194092
1519650360954,-0.604492,0.845947,-0.136963
1519650360987,-0.600342,0.800781,-0.086426
1519650361040,-0.599609,0.794922,-0.109375
1519650361053,-0.598877,0.767334,-0.129150
1519650361111,-0.594238,0.816406,-0.115967
1519650361144,-0.601318,0.806885,-0.124512
1519650361145,-0.587402,0.790039,-0.161133
1519650361203,-0.612793,0.841064,-0.193604
1519650361238,-0.585449,0.801025,-0.176758
1519650361240,-0.575684,0.852539,-0.122314
1519650361297,-0.582275,0.852539,-0.084229
1519650361303,-0.586670,0.857422,-0.091309
1519650361362,-0.583984,0.826416,-0.097900
1519650361393,-0.582275,0.856689,-0.059814
1519650361401,-0.562012,0.807129,-0.037842
1519650361457,-0.545166,0.806396,-0.114258
1519650361471,-0.578125,0.837158,-0.145996
1519650361503,-0.595459,0.844727,-0.140137
1519650361576,-0.587891,0.837891,-0.112793
1519650361577,-0.605469,0.821533,-0.178711
1519650361645,-0.593750,0.806396,-0.164307
1519650361650,-0.586914,0.810791,-0.145020
1519650361687,-0.572266,0.793701,-0.191162
1519650361720,-0.568848,0.828613,-0.149902
1519650361722,-0.590576,0.788330,-0.166504
1519650361778,-0.579590,0.849609,-0.130127
1519650361812,-0.573730,0.843018,-0.105225
1519650361818,-0.574463,0.841064,-0.088135
1519650361874,-0.528320,0.806396,-0.046387
1519650361906,-0.578857,0.843018,-0.184326
1519650361938,-0.585205,0.858154,-0.188477
1519650361971,-0.591797,0.826416,-0.167236
1519650362004,-0.603027,0.820313,-0.149902
1519650362037,-0.620361,0.740967,-0.231934
1519650362070,-0.632324,0.759521,-0.239258
1519650362103,-0.740967,0.909424,-0.139893
1519650362135,-0.627930,0.645020,-0.125977
1519650362167,-0.524414,0.364014,-0.316895
1519650362202,-0.370117,1.413086,0.191406
1519650362235,-0.380859,0.705566,0.103516
1519650362272,-0.599365,0.943359,-0.153320
1519650362286,-0.522705,0.936279,-0.092529
1519650362320,-0.526123,0.842041,-0.023193
1519650362352,-0.534180,0.847412,-0.072510
1519650362385,-0.543457,0.873535,-0.097412
1519650362417,-0.541992,0.870117,-0.081055
1519650362451,-0.502686,0.932617,-0.077637
1519650362482,-0.539307,0.883057,-0.097900
1519650362514,-0.520020,0.903320,-0.141357
1519650362548,-0.497314,0.789551,-0.096191
1519650362581,-0.525391,0.912842,-0.104736
1519650362615,-0.496338,0.877441,-0.103760
1519650362672,-0.523682,0.855957,-0.168945
1519650362674,-0.509521,0.854980,-0.188232
1519650362737,-0.505127,0.895020,-0.173340
1519650362739,-0.529053,0.833740,-0.189941
1519650362796,-0.544922,0.816406,-0.211182
1519650362798,-0.519531,0.821045,-0.146729
1519650362830,-0.541016,0.848145,-0.089844
1519650362862,-0.541504,0.812988,-0.137451
1519650362895,-0.529053,0.888672,-0.192383
1519650362927,-0.496338,0.914795,-0.166260
1519650362960,-0.426514,0.992432,-0.190918
1519650362992,-0.437012,1.007568,-0.266602
1519650363025,-0.330322,1.063721,-0.335693
1519650363058,-0.353760,0.987793,-0.305420
1519650363092,-0.336914,0.973633,-0.341309
1519650363134,-0.318115,0.947998,-0.338135
1519650363144,-0.314453,0.886230,-0.396484
1519650363201,-0.298584,0.802979,-0.492676
1519650363235,-0.216309,0.860596,-0.364502
1519650363268,-0.171875,0.761475,-0.177734
1519650363277,-0.187500,0.837646,-0.085205
1519650363325,-0.304443,0.748291,-0.147461
1519650363333,-0.372314,0.938477,-0.111328
1519650363366,-0.431396,1.095215,-0.049561
1519650363422,-0.494385,1.121826,-0.051270
1519650363427,-0.448730,0.984619,-0.121094
1519650363485,-0.423584,1.071777,-0.131592
1519650363517,-0.457764,1.004150,-0.218018
1519650363531,-0.373047,0.830811,-0.175293
1519650363563,-0.431396,0.825439,-0.174072
1519650363600,-0.407715,0.789551,-0.162598
1519650363682,-0.508057,0.883789,-0.120605
1519650363684,-0.354492,0.978027,-0.041992
1519650363746,-0.406250,1.011963,0.027100
1519650363748,-0.443848,0.881836,0.017578
1519650363806,-0.469238,0.817627,0.095703
1519650363807,-0.432861,0.979492,0.241943
1519650363866,-0.440186,0.949219,0.304443
1519650363867,-0.476074,0.850342,0.117676
1519650363900,-0.497803,0.928223,0.085693
1519650363935,-0.527588,0.852051,0.057373
1519650363947,-0.491455,0.858398,0.074951
1519650364004,-0.496582,0.891113,0.035156
1519650364010,-0.473389,0.859863,0.021484
1519650364065,-0.481934,0.827148,0.004883
1519650364097,-0.558838,0.819092,-0.076904
1519650364133,-0.588135,0.823242,-0.081543
1519650364139,-0.567627,0.919678,-0.072266
1519650364196,-0.494385,0.906982,-0.103027
1519650364228,-0.444092,0.884277,-0.059570
1519650364261,-0.435059,0.951660,-0.186768
1519650364293,-0.420166,0.869141,-0.194824
1519650364295,-0.419678,0.914551,-0.185059
1519650364327,-0.459229,0.886475,-0.122559
1519650364397,-0.505859,0.922607,-0.094971
1519650364401,-0.494629,0.933350,-0.075684
1519650364431,-0.493652,0.937500,-0.042725
1519650364463,-0.512451,0.858154,-0.132324
1519650364497,-0.567139,0.938965,-0.187500
1519650364529,-0.514404,0.875977,-0.144531
1519650364561,-0.492432,0.910400,-0.065186
1519650364595,-0.464111,0.944092,-0.047607
1519650364627,-0.476318,0.912598,-0.137451
1519650364697,-0.504639,0.916748,-0.208496
1519650364705,-0.500488,0.861084,-0.197998
1519650364812,-0.496582,0.758057,-0.205811
1519650364817,-0.462646,0.844238,-0.156006
1519650364881,-0.458252,0.835938,-0.116943
1519650364883,-0.461914,0.874756,-0.139160
1519650364885,-0.492920,0.895752,-0.237061
1519650364886,-0.500488,0.905029,-0.212646
1519650364941,-0.482666,0.910156,-0.170166
1519650365000,-0.477539,0.901855,-0.150879
1519650365004,-0.491455,0.905029,-0.175293
1519650365007,-0.486572,0.914795,-0.176270
1519650365061,-0.483154,0.889404,-0.188232
1519650365071,-0.488770,0.871094,-0.194336
1519650365116,-0.485352,0.890137,-0.157715
1519650365149,-0.433594,0.860840,-0.117432
1519650365231,-0.480713,0.902588,-0.174072
1519650365232,-0.503174,0.875000,-0.216309
1519650365296,-0.508057,0.880127,-0.193848
1519650365302,-0.498291,0.858887,-0.188477
1519650365305,-0.490234,0.806152,-0.174561
1519650365354,-0.454590,0.913818,-0.155273
1519650365412,-0.489502,0.901611,-0.196533
1519650365414,-0.487305,0.908691,-0.172119
1519650365473,-0.484863,0.937012,-0.124023
1519650365478,-0.427490,0.895996,-0.102051
1519650365532,-0.466797,0.913330,-0.154785
1519650365534,-0.492188,0.900879,-0.225830
1519650365592,-0.496094,0.874268,-0.190918
1519650365594,-0.485107,0.854736,-0.184814
1519650365652,-0.475830,0.833252,-0.188477
1519650365654,-0.467285,0.852783,-0.198486
1519650365716,-0.472900,0.853027,-0.210205
1519650365721,-0.477295,0.890381,-0.198730
1519650365782,-0.475830,0.881348,-0.161621
1519650365795,-0.475098,0.895752,-0.177979
1519650365842,-0.481201,0.891602,-0.197021
1519650365898,-0.466553,0.894043,-0.168457
1519650365905,-0.470947,0.875244,-0.166260
1519650365909,-0.457520,0.902344,-0.168213
1519650365964,-0.506104,0.878906,-0.218994
1519650365970,-0.467773,0.866211,-0.180420
1519650366023,-0.499512,0.843262,-0.239258
1519650366059,-0.495605,0.842285,-0.224609
1519650366073,-0.463867,0.893066,-0.184082
1519650366106,-0.477539,0.938721,-0.131836
1519650366136,-0.478760,0.868164,-0.130859
1519650366164,-0.468506,0.967773,-0.068604
1519650366222,-0.497803,0.882324,-0.124756
1519650366256,-0.490479,0.876953,-0.108154
1519650366261,-0.480713,0.926514,-0.126221
1519650366315,-0.478027,0.845459,-0.177734
1519650366320,-0.480469,0.888672,-0.207520
1519650366352,-0.454590,0.935303,-0.169189
1519650366410,-0.451416,0.899658,-0.166016
1519650366420,-0.442139,0.881836,-0.172119
1519650366473,-0.452393,0.894531,-0.174072
1519650366487,-0.472412,0.869141,-0.206787
1519650366519,-0.476563,0.923584,-0.200684
1519650366551,-0.483398,0.906250,-0.172607
1519650366585,-0.463379,0.858643,-0.175293
1519650366616,-0.473145,0.873047,-0.193604
1519650366649,-0.474365,0.888916,-0.179932
1519650366709,-0.473145,0.910889,-0.166504
1519650366740,-0.479248,0.916748,-0.163086
1519650366746,-0.487305,0.878662,-0.173584
1519650366803,-0.500244,0.837158,-0.179932
1519650366835,-0.461182,0.850830,-0.134277
1519650366839,-0.459961,0.862061,-0.125244
1519650366900,-0.473389,0.840576,-0.164063
1519650366901,-0.469238,0.886963,-0.183838
1519650366934,-0.481934,0.911377,-0.198730
1519650366991,-0.485107,0.883057,-0.239258
1519650366996,-0.477539,0.881836,-0.264160
1519650367055,-0.475098,0.844971,-0.298096
1519650367090,-0.482178,0.823975,-0.338867
1519650367120,-0.480469,0.844971,-0.332275
1519650367152,-0.481934,0.896240,-0.328369
1519650367185,-0.476807,0.804199,-0.356445
1519650367216,-0.466797,0.783936,-0.364258
1519650367249,-0.468506,0.833252,-0.362061
1519650367281,-0.475830,0.838867,-0.376465
1519650367298,-0.483398,0.809814,-0.380127
1519650367323,-0.476318,0.811035,-0.360840
1519650367381,-0.476807,0.818848,-0.354736
1519650367414,-0.471436,0.801758,-0.364990
1519650367422,-0.467773,0.800293,-0.371094
1519650367468,-0.465088,0.824463,-0.386475
1519650367501,-0.476807,0.841309,-0.421875
1519650367535,-0.472412,0.793701,-0.440186
1519650367568,-0.463867,0.834473,-0.455322
1519650367625,-0.444824,0.801758,-0.390137
1519650367626,-0.461426,0.793945,-0.336914
1519650367685,-0.447998,0.800537,-0.324707
1519650367686,-0.459717,0.834961,-0.295654
1519650367751,-0.453125,0.789307,-0.350586
1519650367755,-0.498047,0.886230,-0.342041
1519650367823,-0.489990,0.977295,-0.400879
1519650367825,-0.459229,0.867676,-0.381348
1519650367891,-0.435059,0.843750,-0.271729
1519650367895,-0.367432,1.036133,-0.135742
1519650367927,-0.370850,0.932373,-0.069824
1519650367961,-0.428955,0.990479,-0.028076
1519650367966,-0.461426,1.012939,-0.084961
1519650367997,-0.396729,0.851074,-0.030518
1519650368029,-0.386475,0.771973,0.033447
1519650368062,-0.372314,0.776611,-0.040283
1519650368095,-0.419678,0.987549,-0.047119
1519650368137,-0.401367,0.980957,-0.074707
1519650368169,-0.467773,0.920166,-0.286865
1519650368202,-0.495850,0.890625,-0.386475
1519650368234,-0.477539,0.827393,-0.373291
1519650368265,-0.465576,0.842041,-0.280762
1519650368298,-0.457520,0.873047,-0.256836
1519650368330,-0.458984,0.877930,-0.274902
1519650368362,-0.454590,0.798584,-0.298584
1519650368395,-0.465576,0.819092,-0.316162
1519650368428,-0.464600,0.861084,-0.296143
1519650368481,-0.460205,0.864014,-0.277832
1519650368485,-0.456299,0.845459,-0.280518
1519650368545,-0.463623,0.860840,-0.276611
1519650368548,-0.446289,0.877930,-0.263916
1519650368603,-0.447510,0.885254,-0.244873
1519650368605,-0.446533,0.888184,-0.231689
1519650368664,-0.454102,0.892334,-0.245605
1519650368721,-0.451904,0.879395,-0.231445
1519650368731,-0.456787,0.890869,-0.220947
1519650368780,-0.454834,0.903809,-0.222412
1519650368785,-0.467529,0.876709,-0.219971
1519650368833,-0.456055,0.879883,-0.226563
1519650368840,-0.432861,0.864990,-0.183594
1519650368872,-0.439453,0.912354,-0.176025
1519650368934,-0.458252,0.918457,-0.199707
1519650368939,-0.464111,0.875244,-0.207764
1519650368970,-0.451904,0.875000,-0.192871
1519650369027,-0.439209,0.917236,-0.183838
1519650369029,-0.424805,0.884766,-0.190674
1519650369061,-0.438721,0.923340,-0.195068
1519650369094,-0.459229,0.899170,-0.198975
1519650369127,-0.459961,0.888916,-0.212646
1519650369159,-0.471680,0.885986,-0.217529
1519650369202,-0.473633,0.912598,-0.234619
1519650369235,-0.472412,0.875244,-0.230469
1519650369267,-0.478271,0.852295,-0.225098
1519650369300,-0.458252,0.870117,-0.242676
1519650369332,-0.458008,0.854492,-0.201416
1519650369365,-0.424072,0.869873,-0.133789
1519650369397,-0.405029,0.937012,-0.160645
1519650369430,-0.423096,0.915527,-0.146729
1519650369488,-0.457031,0.833496,-0.108643
1519650369496,-0.426758,0.917480,-0.048828
1519650369547,-0.437744,0.901855,-0.074707
1519650369550,-0.467773,0.965576,-0.142578
1519650369608,-0.490234,1.008301,-0.231934
1519650369611,-0.484619,0.859375,-0.225342
1519650369641,-0.471924,0.852295,-0.196777
1519650369674,-0.448486,0.944336,-0.158936
1519650369717,-0.430420,0.843262,-0.177246
1519650369749,-0.429443,0.864990,-0.218262
1519650369782,-0.452393,0.833740,-0.220947
1519650369815,-0.415771,0.863525,-0.163818
1519650369848,-0.446289,0.869141,-0.221680
1519650369883,-0.451660,0.894287,-0.248535
1519650369887,-0.450195,0.887939,-0.245117
1519650369922,-0.457031,0.868408,-0.255127
1519650370000,-0.459961,0.919434,-0.270752
1519650370003,-0.464111,0.911133,-0.323242
1519650370034,-0.453857,0.849121,-0.354248
1519650370066,-0.462158,0.802002,-0.388672
1519650370100,-0.458496,0.849121,-0.363770
1519650370132,-0.446045,0.850830,-0.317627
1519650370168,-0.446289,0.842041,-0.289551
1519650370198,-0.451416,0.849854,-0.246094
1519650370230,-0.433350,0.881592,-0.241699
1519650370262,-0.460205,0.858398,-0.226563
1519650370295,-0.442627,0.892578,-0.139893
1519650370327,-0.449463,0.892334,-0.142578
1519650370359,-0.453369,0.907471,-0.174072
1519650370392,-0.472168,0.910889,-0.231201
1519650370424,-0.470459,0.891602,-0.255371
1519650370456,-0.455322,0.873779,-0.225830
1519650370489,-0.431152,0.872070,-0.216553
1519650370503,-0.416504,0.867188,-0.261230
1519650370586,-0.401611,0.879883,-0.216309
1519650370590,-0.397949,0.863281,-0.196045
1519650370645,-0.406738,0.830322,-0.269775
1519650370647,-0.443359,0.897461,-0.327393
1519650370704,-0.400635,0.805908,-0.320801
1519650370707,-0.406738,0.802490,-0.400391
1519650370765,-0.406738,0.819824,-0.441650
1519650370767,-0.440918,0.911865,-0.440430
1519650370825,-0.380859,0.730957,-0.511719
1519650370833,-0.386963,0.722900,-0.558105
1519650370874,-0.385498,0.763428,-0.594971
1519650370945,-0.364258,0.713867,-0.626465
1519650370948,-0.308838,0.773682,-0.530029
1519650371013,-0.185059,0.598145,-0.626465
1519650371017,-0.460449,0.821289,-0.758301
1519650371047,-0.207031,0.585205,-0.666504
1519650371051,-0.300781,0.704102,-0.721924
1519650371106,-0.248291,0.640625,-0.753174
1519650371140,-0.277344,0.667480,-0.754883
1519650371145,-0.278809,0.660645,-0.736084
1519650371182,-0.283936,0.664063,-0.724609
1519650371214,-0.284668,0.678711,-0.700928
1519650371280,-0.286377,0.685791,-0.682373
1519650371284,-0.277588,0.697754,-0.651123
1519650371314,-0.235596,0.725830,-0.665283
1519650371347,-0.210693,0.718262,-0.723877
1519650371388,-0.208496,0.709717,-0.713867
1519650371420,-0.217041,0.703369,-0.670898
1519650371453,-0.232910,0.690674,-0.670654
1519650371485,-0.249023,0.668457,-0.666260
1519650371544,-0.268799,0.684082,-0.660156
1519650371554,-0.272217,0.690430,-0.653564
1519650371604,-0.279785,0.689697,-0.668945
1519650371605,-0.285156,0.692139,-0.680420
1519650371670,-0.282471,0.704834,-0.667236
1519650371672,-0.285889,0.718750,-0.672363
1519650371728,-0.239014,0.708984,-0.679199
1519650371732,-0.239990,0.767090,-0.702393
1519650371790,-0.145752,0.817139,-0.661133
1519650371802,-0.104004,0.779541,-0.608398
1519650371855,-0.137939,0.772949,-0.599854
1519650371856,-0.158691,0.778076,-0.617188
1519650371915,-0.159180,0.769287,-0.641846
1519650371975,-0.182373,0.771240,-0.673828
1519650371980,-0.221191,0.759033,-0.701904
1519650372034,-0.203613,0.729492,-0.613525
1519650372037,-0.208496,0.718750,-0.627441
1519650372092,-0.208984,0.710693,-0.713623
1519650372098,-0.214600,0.719727,-0.708252
1519650372151,-0.199707,0.725342,-0.726807
1519650372154,-0.196289,0.729736,-0.723145
1519650372219,-0.181152,0.673828,-0.711182
1519650372226,-0.193604,0.757080,-0.723633
1519650372287,-0.164063,0.750488,-0.694824
1519650372295,-0.143799,0.742432,-0.696533
1519650372346,-0.164795,0.764648,-0.710205
1519650372351,-0.152832,0.746338,-0.706055
1519650372382,-0.173584,0.747070,-0.682373
1519650372415,-0.178223,0.737061,-0.653320
1519650372448,-0.200195,0.734619,-0.642578
1519650372479,-0.201416,0.719727,-0.615479
1519650372510,-0.206055,0.695313,-0.615723
1519650372560,-0.215576,0.681396,-0.598877
1519650372574,-0.246338,0.659180,-0.604980
1519650372606,-0.273926,0.664063,-0.606201
1519650372638,-0.301025,0.662109,-0.641357
1519650372671,-0.316406,0.669434,-0.655029
1519650372703,-0.310547,0.675781,-0.682861
1519650372736,-0.296631,0.706299,-0.715332
1519650372768,-0.277100,0.872803,-0.695068
1519650372803,-0.256104,0.747559,-0.723145
1519650372836,-0.349854,0.782471,-0.749756
1519650372868,-0.357422,0.830078,-0.703613
1519650372901,-0.368652,0.746826,-0.657715
1519650372933,-0.361328,0.660400,-0.610107
1519650372971,-0.379639,0.677979,-0.571777
1519650373007,-0.359619,0.645508,-0.532959
1519650373011,-0.338623,0.603271,-0.473633
1519650373066,-0.347168,0.583496,-0.455566
1519650373098,-0.392090,0.619385,-0.477783
1519650373103,-0.406494,0.646484,-0.502441
1519650373160,-0.394043,0.744629,-0.540283
1519650373193,-0.360107,0.512695,-0.466309
1519650373226,-0.391113,0.708252,-0.496826
1519650373258,-0.353027,0.866211,-0.547119
1519650373291,-0.386230,1.049805,-0.468750
1519650373323,-0.362549,0.880127,-0.380127
1519650373356,-0.304688,0.760986,-0.396484
1519650373369,-0.255859,0.791260,-0.390381
1519650373428,-0.157959,0.659424,-0.289307
1519650373461,0.044189,0.797363,-0.226807
1519650373462,0.077393,0.961426,-0.330811
1519650373494,0.110352,0.880615,-0.330078
1519650373552,0.205078,0.805908,-0.273193
1519650373553,0.221191,0.936768,-0.244141
1519650373611,0.359619,0.961914,-0.281494
1519650373643,0.450928,1.068848,-0.295410
1519650373676,0.539307,1.015381,-0.259033
1519650373711,0.556641,0.933838,-0.242188
1519650373719,0.540527,0.968750,-0.216064
1519650373753,0.498779,0.970215,-0.260498
1519650373786,0.539307,0.918701,-0.255859
1519650373839,0.652588,1.011230,-0.386963
1519650373872,0.658936,0.877441,-0.473633
1519650373873,0.603760,0.862549,-0.440186
1519650373931,0.561035,0.846924,-0.410645
1519650373963,0.552979,0.803711,-0.394775
1519650373968,0.562744,0.805420,-0.361572
1519650374041,0.572266,0.808105,-0.398438
1519650374042,0.625977,0.768555,-0.411133
1519650374108,0.613037,0.713135,-0.435059
1519650374167,0.601807,0.685303,-0.492188
1519650374168,0.583252,0.701172,-0.536621
1519650374169,0.594482,0.711914,-0.540283
1519650374214,0.606445,0.718262,-0.564453
1519650374247,0.596191,0.726807,-0.532471
1519650374279,0.606201,0.777344,-0.519775
1519650374312,0.566162,0.885986,-0.520996
1519650374346,0.529785,0.872559,-0.416748
1519650374378,0.546387,0.865967,-0.372314
1519650374411,0.445801,0.904785,-0.396973
1519650374453,0.395996,0.937256,-0.348633
1519650374459,0.384277,0.932617,-0.312500
1519650374513,0.281982,0.872559,-0.407227
1519650374545,0.258057,0.868652,-0.396240
1519650374550,0.188965,0.872803,-0.342285
1519650374607,0.004883,1.020996,-0.341064
1519650374641,0.046631,0.908691,-0.464844
1519650374674,0.045166,0.942871,-0.553955
1519650374705,0.080566,1.140381,-0.493896
1519650374714,0.098145,0.943848,-0.404785
1519650374771,0.049805,0.894531,-0.407227
1519650374803,-0.003174,1.009521,-0.348877
1519650374837,-0.036133,1.050293,-0.289063
1519650374870,-0.089844,0.968018,-0.330078
1519650374903,-0.174316,0.933594,-0.279297
1519650374936,-0.209229,0.754883,-0.259033
1519650374978,-0.282959,0.772705,-0.222412
1519650374985,-0.364746,0.809570,-0.165283
1519650375038,-0.396973,0.713135,-0.156494
1519650375042,-0.463623,0.698242,-0.167969
1519650375073,-0.481689,0.784424,-0.155518
1519650375121,-0.498291,0.742920,-0.145508
1519650375154,-0.518799,0.729980,-0.122070
1519650375187,-0.586182,0.733398,-0.157715
1519650375219,-0.598633,0.747559,-0.117188
1519650375253,-0.631592,0.745361,-0.089111
1519650375283,-0.643799,0.852051,-0.131836
1519650375315,-0.639648,0.872070,-0.143799
1519650375351,-0.633057,0.848633,-0.183105
1519650375384,-0.649170,0.802246,-0.212402
1519650375398,-0.603271,0.866211,-0.186279
1519650375431,-0.603760,0.845703,-0.214600
1519650375489,-0.549805,0.802979,-0.063232
1519650375497,-0.515381,0.877441,-0.153320
1519650375523,-0.542969,0.912354,-0.180176
1519650375580,-0.505859,0.896729,-0.029297
1519650375585,-0.532715,0.932373,-0.032715
1519650375638,-0.571533,0.733154,-0.060059
1519650375649,-0.575684,0.801025,-0.035889
1519650375689,-0.555176,0.887207,-0.014404
1519650375723,-0.554688,0.907471,-0.028320
1519650375754,-0.515869,0.778320,-0.005615
1519650375787,-0.423340,0.955322,0.169434
1519650375827,-0.449463,0.782471,0.205078
1519650375862,-0.436768,0.940186,0.081299
1519650375894,-0.467041,0.912109,-0.009033
1519650375927,-0.464600,0.949707,-0.015625
1519650375959,-0.510010,0.826904,-0.123535
1519650375992,-0.534424,0.904785,-0.181152
1519650375995,-0.516602,0.853760,-0.204590
1519650376053,-0.557617,0.877686,-0.230469
1519650376086,-0.550049,0.871094,-0.246094
1519650376092,-0.544922,0.870117,-0.194336
1519650376150,-0.540039,0.847412,-0.157471
1519650376182,-0.550781,0.865234,-0.137939
1519650376215,-0.522461,0.862793,-0.095703
1519650376229,-0.548828,0.831787,-0.102295
1519650376286,-0.543945,0.791016,-0.129883
1519650376292,-0.600098,0.879639,-0.130127
1519650376351,-0.582520,0.842285,-0.165771
1519650376403,-0.581055,0.856445,-0.165771
1519650376411,-0.581055,0.847412,-0.142822
1519650376434,-0.549561,0.867188,-0.119141
1519650376467,-0.592285,0.891846,-0.122070
1519650376500,-0.558105,0.891602,-0.123291
1519650376533,-0.543213,0.891357,-0.143555
1519650376565,-0.514404,0.880127,-0.139404
1519650376597,-0.511475,0.843506,-0.125732
1519650376636,-0.501465,0.841553,-0.102783
1519650376645,-0.500244,0.875732,-0.087158
1519650376702,-0.500244,0.868408,-0.056152
1519650376736,-0.493164,0.885986,-0.004883
1519650376744,-0.515137,0.890381,0.003662
1519650376799,-0.509277,0.938232,-0.001953
1519650376832,-0.519287,0.893311,-0.027100
1519650376864,-0.507813,0.865723,-0.043701
1519650376897,-0.521484,0.871582,-0.031250
1519650376930,-0.531250,0.817383,-0.045166
1519650376962,-0.538086,0.819092,-0.041260
1519650376998,-0.564453,0.887451,0.020996
1519650377027,-0.552979,0.871582,-0.029785
1519650377053,-0.551514,0.878662,-0.036133
1519650377083,-0.535645,0.875488,-0.032959
1519650377117,-0.540527,0.886719,-0.011475
1519650377187,-0.536865,0.855225,-0.068604
1519650377192,-0.543701,0.894531,-0.048340
1519650377254,-0.539307,0.865479,-0.009766
1519650377259,-0.530518,0.870361,-0.007568
1519650377288,-0.531738,0.862305,-0.004883
1519650377293,-0.529297,0.878906,-0.030029
1519650377324,-0.541504,0.874268,-0.028320
1519650377357,-0.519287,0.879150,-0.012451
1519650377414,-0.513672,0.860840,-0.011230
1519650377446,-0.518555,0.860840,-0.020752
1519650377455,-0.528809,0.872559,-0.024414
1519650377492,-0.541504,0.873779,-0.016602
1519650377524,-0.553955,0.861084,-0.009277
1519650377558,-0.545654,0.891846,0.016846
1519650377589,-0.555664,0.891357,0.007080
1519650377624,-0.553223,0.877441,0.015137
1519650377681,-0.545898,0.869385,0.018066
1519650377687,-0.539307,0.857910,0.016846
1519650377716,-0.544434,0.850586,0.011230
1519650377748,-0.521484,0.866699,0.031738
1519650377779,-0.517090,0.864258,0.041748
1519650377811,-0.515381,0.877441,0.062256
1519650377844,-0.536621,0.871826,0.071533
1519650377886,-0.539063,0.898438,0.075439
1519650377918,-0.531738,0.845703,0.057129
1519650377950,-0.536133,0.802490,0.032227
1519650377983,-0.534912,0.873779,0.008789
1519650378017,-0.530273,0.835449,-0.043945
1519650378022,-0.545410,0.928467,-0.041504
1519650378078,-0.562744,0.840576,-0.000977
1519650378111,-0.537598,0.813477,0.068604
1519650378117,-0.564453,0.863037,0.064697
1519650378176,-0.580078,0.884521,0.030029
1519650378208,-0.613525,0.840820,0.003906
1519650378240,-0.676514,0.827393,-0.003418
1519650378254,-0.659180,0.741211,0.076904
1519650378286,-0.574707,0.780029,0.062744
1519650378323,-0.527588,0.846191,0.018066
1519650378355,-0.491455,0.907959,0.006104
1519650378387,-0.469238,0.987305,-0.010986
1519650378422,-0.487549,0.913330,-0.012695
1519650378454,-0.463379,0.888672,0.031006
1519650378487,-0.454346,0.926270,0.046143
1519650378519,-0.466064,0.883545,0.068848
1519650378551,-0.494385,0.936768,0.151611
1519650378586,-0.412354,0.846436,0.320801
1519650378619,-0.499268,0.847900,0.210938
1519650378658,-0.495361,0.940674,0.192139
1519650378690,-0.433594,0.915283,0.154297
1519650378722,-0.532959,0.881592,-0.011963
1519650378756,-0.520996,0.864258,-0.163574
1519650378788,-0.497559,0.849609,-0.214844
1519650378821,-0.500977,0.843994,-0.277100
1519650378855,-0.519775,0.745361,-0.422607
1519650378887,-0.540283,0.799072,-0.413818
1519650378920,-0.500977,0.850342,-0.352295
1519650378962,-0.567139,0.721924,-0.417480
1519650378971,-0.536133,0.748291,-0.368896
1519650379024,-0.576904,0.810791,-0.383057
1519650379058,-0.564697,0.845947,-0.387695
1519650379066,-0.566895,0.777344,-0.352783
1519650379103,-0.561035,0.805420,-0.329834
1519650379135,-0.557129,0.820557,-0.292480
1519650379167,-0.552246,0.834473,-0.259277
1519650379201,-0.557373,0.799072,-0.223877
1519650379234,-0.560303,0.773438,-0.176025
1519650379265,-0.570068,0.765381,-0.131348
1519650379297,-0.586182,0.807373,-0.089844
1519650379332,-0.571045,0.865967,0.021484
1519650379364,-0.544678,0.867920,0.047119
1519650379398,-0.531006,0.885498,0.082764
1519650379430,-0.522217,0.915283,0.079834
1519650379462,-0.533203,0.928223,0.063477
1519650379475,-0.523682,0.831787,0.056885
1519650379532,-0.530273,0.860840,0.105225
1519650379569,-0.537842,0.855713,0.142334
1519650379577,-0.543213,0.809326,0.164307
1519650379629,-0.538330,0.841064,0.187256
1519650379637,-0.544189,0.852295,0.188965
1519650379690,-0.552002,0.834961,0.207031
1519650379724,-0.505615,0.872803,0.296143
1519650379732,-0.525146,0.846436,0.233398
1519650379787,-0.537598,0.881836,0.178467
1519650379821,-0.523682,0.938721,0.170410
1519650379852,-0.548096,0.900146,0.143555
1519650379885,-0.555908,0.855713,0.100586
1519650379898,-0.549316,0.879395,0.057373
1519650379931,-0.536133,0.846924,0.044922
1519650379964,-0.559570,0.825928,0.022705
1519650380023,-0.557373,0.835205,0.010498
1519650380053,-0.550293,0.814209,-0.009277
1519650380059,-0.567383,0.831299,-0.043213
1519650380117,-0.583252,0.843018,-0.103027
1519650380150,-0.580322,0.865234,-0.095459
1519650380158,-0.578369,0.848633,-0.091309
1519650380209,-0.569336,0.852783,-0.084961
1519650380217,-0.570801,0.852295,-0.083252
1519650380284,-0.575195,0.842285,-0.064941
1519650380352,-0.577881,0.827881,-0.056885
1519650380358,-0.572754,0.857666,-0.050537
1519650380409,-0.563721,0.861816,-0.038330
1519650380414,-0.564453,0.846191,-0.016602
1519650380420,-0.560791,0.831055,-0.011719
1519650380471,-0.561768,0.832520,-0.003418
1519650380479,-0.572754,0.831299,-0.013672
1519650380513,-0.566162,0.832764,-0.005127
1519650380546,-0.532959,0.652588,0.007324
1519650380579,-0.524170,0.726807,-0.079346
1519650380636,-0.557129,0.953125,-0.198730
1519650380644,-0.587891,0.945557,-0.337891
1519650380669,-0.622314,0.841309,-0.376709
1519650380734,-0.588867,0.797363,-0.361816
1519650380742,-0.578125,0.791748,-0.369629
1519650380766,-0.595947,0.924072,-0.406006
1519650380798,-0.600342,0.868652,-0.374023
1519650380832,-0.572998,0.748779,-0.280518
1519650380864,-0.551514,0.673828,-0.133057
1519650380898,-0.566406,0.829834,-0.084717
1519650380927,-0.558838,0.812012,-0.070068
1519650380961,-0.555908,0.832275,-0.048096
1519650380994,-0.582520,0.872559,-0.028564
1519650381027,-0.574707,0.906982,0.001465
1519650381086,-0.580811,0.838379,0.038330
1519650381095,-0.576660,0.860596,0.013916
1519650381132,-0.570068,0.847900,0.004395
1519650381164,-0.562988,0.840576,0.022705
1519650381197,-0.556152,0.844971,0.031982
1519650381229,-0.552246,0.827881,0.037598
1519650381262,-0.532715,0.793213,0.025635
1519650381294,-0.539307,0.792480,0.002930
1519650381326,-0.555420,0.818115,-0.025635
1519650381358,-0.554688,0.805176,-0.065430
1519650381394,-0.591553,0.852051,-0.139893
1519650381425,-0.592285,0.873779,-0.154785
1519650381456,-0.578369,0.835693,-0.172607
1519650381496,-0.576416,0.862061,-0.224121
1519650381521,-0.558838,0.872559,-0.239746
1519650381554,-0.539307,0.841553,-0.223389
1519650381587,-0.531738,0.814209,-0.225342
1519650381596,-0.525635,0.788818,-0.247559
1519650381652,-0.516846,0.810791,-0.265137
1519650381683,-0.511230,0.770996,-0.274658
1519650381689,-0.502441,0.755127,-0.315918
1519650381748,-0.496826,0.673828,-0.333984
1519650381778,-0.522217,0.710205,-0.436523
1519650381811,-0.556641,0.770020,-0.559814
1519650381843,-0.575928,0.736572,-0.598877
1519650381876,-0.563965,0.737549,-0.568848
1519650381909,-0.528320,0.706787,-0.545166
1519650381923,-0.532227,0.758301,-0.582520
1519650381955,-0.521484,0.729248,-0.563232
1519650382012,-0.524902,0.810791,-0.557861
1519650382045,-0.512451,0.809570,-0.493652
1519650382058,-0.493652,0.744629,-0.430176
1519650382091,-0.459961,0.728516,-0.357910
1519650382124,-0.462646,0.795166,-0.312012
1519650382156,-0.461426,0.785156,-0.283203
1519650382189,-0.468506,0.806885,-0.260254
1519650382245,-0.488281,0.847656,-0.233154
1519650382250,-0.488037,0.864014,-0.209473
1519650382278,-0.508545,0.869141,-0.230713
1519650382343,-0.528320,0.876709,-0.252930
1519650382352,-0.522461,0.861572,-0.252441
1519650382378,-0.510010,0.853271,-0.250977
1519650382410,-0.532715,0.865234,-0.239502
1519650382446,-0.533203,0.888672,-0.251465
1519650382479,-0.533447,0.830566,-0.251709
1519650382510,-0.538818,0.828125,-0.223633
1519650382548,-0.526855,0.875488,-0.170410
1519650382580,-0.520020,0.810547,-0.122803
1519650382614,-0.536377,0.835693,-0.078369
1519650382646,-0.540039,0.862793,-0.067627
1519650382677,-0.520020,0.855469,-0.063965
1519650382710,-0.551270,0.865967,-0.090332
1519650382724,-0.527832,0.850342,-0.071533
1519650382756,-0.535156,0.804443,-0.047852
1519650382801,-0.536865,0.875244,-0.038574
1519650382834,-0.541992,0.866455,-0.049072
1519650382866,-0.522705,0.817383,-0.044678
1519650382898,-0.534424,0.864502,-0.049805
1519650382931,-0.552490,0.916748,-0.083984
1519650382965,-0.558594,0.876465,-0.090820
1519650382996,-0.563965,0.834473,-0.139893
1519650383029,-0.530762,0.784180,-0.123291
1519650383037,-0.513672,0.771973,-0.061035
1519650383094,-0.505615,0.857422,-0.151367
1519650383128,-0.503662,0.878906,-0.087158
1519650383136,-0.479492,1.141602,-0.060791
1519650383190,-0.620850,0.813721,-0.197266
1519650383224,-0.605225,0.779297,-0.218506
1519650383256,-0.577881,0.833740,-0.200439
1519650383287,-0.578125,0.846924,-0.200439
1519650383320,-0.576172,0.799072,-0.194092
1519650383353,-0.512695,0.851807,-0.018555
1519650383426,-0.500244,0.843506,-0.115967
1519650383435,-0.543701,0.900146,-0.155273
1519650383492,-0.521484,0.844482,-0.129639
1519650383495,-0.519775,0.871338,-0.090820
1519650383528,-0.515869,0.875244,-0.129639
1519650383543,-0.534424,0.880615,-0.174805
1519650383576,-0.545898,0.873535,-0.226074
1519650383608,-0.545654,0.825195,-0.176270
1519650383641,-0.514648,0.854980,-0.159180
1519650383675,-0.547119,0.833984,-0.202393
1519650383706,-0.544434,0.825195,-0.192383
1519650383739,-0.479004,0.914795,-0.083252
1519650383772,-0.563721,0.834961,-0.120117
1519650383804,-0.521729,0.868408,-0.135254
1519650383836,-0.567139,0.856445,-0.248779
1519650383870,-0.576172,0.850830,-0.198486
1519650383901,-0.527832,0.829102,-0.142822
1519650383934,-0.532227,0.833252,-0.126465
1519650383948,-0.531982,0.834717,-0.181885
1519650383995,-0.538574,0.841797,-0.199463
1519650384040,-0.529297,0.864746,-0.185059
1519650384083,-0.531250,0.839600,-0.176758
1519650384091,-0.515625,0.836426,-0.164795
1519650384114,-0.509033,0.818604,-0.152100
1519650384148,-0.483643,0.812256,-0.150635
1519650384206,-0.473145,0.815674,-0.117432
1519650384215,-0.488281,0.978027,-0.060303
1519650384239,-0.444824,0.856689,-0.097168
1519650384295,-0.459473,0.910645,-0.094971
1519650384298,-0.491211,1.038086,-0.123047
1519650384335,-0.479492,0.932373,-0.048584
1519650384372,-0.469727,0.977783,-0.021973
1519650384405,-0.488770,0.948730,-0.076172
1519650384438,-0.477783,0.888672,-0.097656
1519650384469,-0.417969,0.964111,-0.038086
1519650384501,-0.435303,0.961670,-0.021240
1519650384533,-0.437012,0.902588,-0.078125
1519650384567,-0.434814,0.955811,-0.035400
1519650384600,-0.424561,1.000488,-0.023193
1519650384633,-0.500244,0.862793,-0.114746
1519650384689,-0.447266,0.911621,-0.022705
1519650384694,-0.478516,0.925049,0.016113
1519650384749,-0.445313,0.849121,0.050049
1519650384757,-0.452393,0.908691,0.070068
1519650384807,-0.393311,0.929688,0.134766
1519650384812,-0.427979,0.869873,0.117676
1519650384871,-0.397949,0.778076,0.141846
1519650384880,-0.422607,0.923096,0.092773
1519650384934,-0.489258,0.942139,-0.029297
1519650384966,-0.516357,0.929199,-0.035400
1519650385001,-0.478516,0.898438,-0.031494
1519650385035,-0.497559,0.905762,-0.043945
1519650385063,-0.476563,0.894531,-0.023193
1519650385096,-0.437500,0.850098,-0.026123
1519650385129,-0.484131,0.979492,-0.049561
1519650385143,-0.443115,0.897461,-0.049072
1519650385177,-0.478271,0.796875,-0.133301
1519650385236,-0.423828,0.828857,-0.089355
1519650385245,-0.409424,1.137207,-0.002441
1519650385268,-0.381836,1.024658,-0.023193
1519650385326,-0.387695,0.928955,0.071533
1519650385332,-0.281982,0.863037,-0.037354
1519650385363,-0.522705,1.086426,-0.281982
1519650385395,-0.525146,0.890869,-0.307129
1519650385427,-0.513672,0.901123,-0.246582
1519650385461,-0.496826,0.910156,-0.227051
1519650385493,-0.455811,0.794678,-0.181152
1519650385525,-0.443848,0.804932,-0.121582
1519650385567,-0.429932,0.938477,-0.122070
1519650385599,-0.418457,0.865967,-0.101074
1519650385633,-0.422852,0.927979,-0.037842
1519650385689,-0.417969,0.968506,-0.101074
1519650385694,-0.501709,0.918457,-0.230469
1519650385750,-0.490479,0.876953,-0.166748
1519650385761,-0.448975,0.915283,-0.081543
1519650385811,-0.419922,0.860352,-0.020752
1519650385816,-0.440918,0.909180,-0.098145
1519650385871,-0.449951,0.920654,-0.186279
1519650385930,-0.460938,0.944580,-0.165527
1519650385935,-0.472412,0.935059,-0.128174
1519650385995,-0.478271,0.873047,-0.161133
1519650386003,-0.481934,0.887451,-0.202881
1519650386029,-0.479248,0.873535,-0.176025
1519650386062,-0.469482,0.871338,-0.136963
1519650386096,-0.468262,0.906982,-0.136475
1519650386128,-0.476807,0.877441,-0.177734
1519650386160,-0.474121,0.881592,-0.153076
1519650386191,-0.474365,0.900391,-0.118896
1519650386225,-0.487305,0.899170,-0.129395
1519650386233,-0.474854,0.878418,-0.097900
1519650386283,-0.471436,0.882324,-0.148193
1519650386291,-0.505615,0.903809,-0.158936
1519650386344,-0.533447,0.938232,-0.090576
1519650386358,-0.483643,0.861816,-0.067627
1519650386392,-0.448730,0.809570,-0.086670
1519650386425,-0.520264,0.984131,-0.103271
1519650386457,-0.515137,0.915039,-0.069336
1519650386529,-0.495605,0.844727,-0.024170
1519650386537,-0.493652,0.895752,0.021240
1519650386596,-0.487061,0.880859,0.032471
1519650386599,-0.480713,0.876465,0.066650
1519650386690,-0.485840,1.026367,0.098877
1519650386696,-0.435791,0.888184,0.210449
1519650386703,-0.433838,0.640137,0.277100
1519650386708,-0.470459,0.875488,0.220947
1519650386753,-0.454102,0.837891,0.166016
1519650386811,-0.530762,0.994141,0.120605
1519650386816,-0.489502,0.870605,0.134766
1519650386844,-0.498535,0.829346,0.032227
1519650386877,-0.482178,0.781494,-0.057861
1519650386913,-0.488770,0.788330,-0.124268
1519650386963,-0.456055,0.782715,-0.161377
1519650386972,-0.502441,0.766602,-0.324463
1519650387023,-0.544189,0.940918,-0.332275
1519650387081,-0.448242,0.861572,-0.244141
1519650387090,-0.409668,0.854980,-0.120605
1519650387138,-0.450439,0.823242,-0.132324
1519650387141,-0.436768,0.946045,-0.184326
1519650387203,-0.437256,0.850098,-0.344238
1519650387212,-0.460449,0.915039,-0.352539
1519650387260,-0.462158,0.850586,-0.396484
1519650387264,-0.454346,0.854736,-0.422363
1519650387321,-0.478271,0.755127,-0.482910
1519650387354,-0.446289,0.871094,-0.469482
1519650387357,-0.424561,0.857666,-0.448730
1519650387387,-0.429443,0.812988,-0.467773
1519650387420,-0.448730,0.829590,-0.474854
1519650387452,-0.416260,0.812256,-0.440674
1519650387485,-0.406738,0.799805,-0.443359
1519650387517,-0.436279,0.774902,-0.456299
1519650387557,-0.427246,0.809082,-0.444824
1519650387590,-0.414063,0.822021,-0.435791
1519650387622,-0.432129,0.821289,-0.449463
1519650387656,-0.431396,0.804932,-0.464355
1519650387687,-0.431885,0.805664,-0.435791
1519650387720,-0.430176,0.810547,-0.436279
1519650387753,-0.426514,0.827637,-0.432129
1519650387786,-0.444092,0.822021,-0.454590
1519650387817,-0.408447,0.814209,-0.437988
1519650387850,-0.408936,0.836426,-0.427002
1519650387882,-0.404053,0.841064,-0.436523
1519650387922,-0.416748,0.825684,-0.429688
1519650387954,-0.426758,0.812744,-0.415283
1519650387968,-0.432617,0.795654,-0.413086
1519650388000,-0.465820,0.782471,-0.419189
1519650388058,-0.463135,0.803223,-0.397461
1519650388067,-0.458984,0.814941,-0.374268
1519650388119,-0.453369,0.808350,-0.381104
1519650388152,-0.471680,0.838867,-0.386475
1519650388186,-0.450684,0.864502,-0.392090
1519650388218,-0.419189,0.865723,-0.381592
1519650388227,-0.398926,0.851563,-0.371826
1519650388256,-0.374268,0.817627,-0.397705
1519650388311,-0.365234,0.802246,-0.350098
1519650388314,-0.382324,0.847900,-0.321777
1519650388371,-0.395508,0.849854,-0.344238
1519650388386,-0.419189,0.851807,-0.355225
1519650388418,-0.439453,0.921387,-0.375488
1519650388451,-0.450195,0.916504,-0.391846
1519650388481,-0.465088,0.851807,-0.415771
1519650388514,-0.491211,0.857422,-0.423340
1519650388546,-0.494385,0.862305,-0.430420
1519650388579,-0.489502,0.867432,-0.409424
1519650388636,-0.453369,0.857422,-0.393311
1519650388638,-0.426758,0.813721,-0.387695
1519650388695,-0.447510,0.763916,-0.370850
1519650388728,-0.454834,0.774170,-0.357666
1519650388734,-0.462158,0.756836,-0.378662
1519650388789,-0.482910,0.766846,-0.390869
1519650388797,-0.490234,0.776855,-0.368164
1519650388853,-0.494141,0.790283,-0.354980
1519650388893,-0.486084,0.814941,-0.354248
1519650388901,-0.487305,0.835938,-0.350830
1519650388953,-0.465332,0.845947,-0.342285
1519650388982,-0.469971,0.812012,-0.331299
1519650389015,-0.481445,0.811523,-0.333740
1519650389047,-0.481689,0.815674,-0.349365
1519650389081,-0.510254,0.809326,-0.387207
1519650389116,-0.501221,0.783203,-0.365967
1519650389146,-0.507324,0.777344,-0.352783
1519650389178,-0.499756,0.800049,-0.374512
1519650389202,-0.495850,0.813477,-0.365479
1519650389234,-0.498047,0.818115,-0.366943
1519650389266,-0.488770,0.813965,-0.358154
1519650389299,-0.495117,0.814209,-0.354980
1519650389331,-0.487793,0.817871,-0.362793
1519650389364,-0.486572,0.808105,-0.378174
1519650389397,-0.491211,0.805176,-0.366211
1519650389429,-0.495850,0.806396,-0.368164
1519650389462,-0.487549,0.812012,-0.370605
1519650389494,-0.484863,0.809326,-0.369629
1519650389526,-0.485352,0.795410,-0.363037
1519650389560,-0.486816,0.816406,-0.374268
1519650389640,-0.495850,0.803955,-0.388184
1519650389645,-0.493896,0.791504,-0.385742
1519650389707,-0.496826,0.780518,-0.410889
1519650389713,-0.497803,0.820557,-0.430176
1519650389769,-0.501953,0.802734,-0.453369
1519650389775,-0.504395,0.807373,-0.451660
1519650389780,-0.512207,0.791016,-0.457520
1519650389809,-0.500732,0.758301,-0.420166
1519650389841,-0.500977,0.758789,-0.377930
1519650389874,-0.503662,0.753662,-0.375000
1519650389906,-0.537842,0.758301,-0.398926
1519650389938,-0.558350,0.794678,-0.413818
1519650389971,-0.535645,0.811523,-0.402588
1519650390004,-0.530273,0.799561,-0.377930
1519650390037,-0.543213,0.792480,-0.371582
1519650390069,-0.545898,0.766602,-0.374756
1519650390101,-0.553955,0.732178,-0.366455
1519650390134,-0.547607,0.747070,-0.346680
1519650390171,-0.577148,0.799316,-0.370117
1519650390177,-0.529785,0.741699,-0.338867
1519650390230,-0.545166,0.736816,-0.300781
1519650390262,-0.552979,0.787598,-0.340576
1519650390295,-0.564941,0.831299,-0.365479
1519650390327,-0.527588,0.793945,-0.312500
1519650390360,-0.534180,0.804688,-0.308594
1519650390374,-0.530273,0.784424,-0.308105
1519650390432,-0.551270,0.777832,-0.314209
1519650390438,-0.538330,0.812012,-0.262939
1519650390482,-0.544434,0.789307,-0.284424
1519650390514,-0.549316,0.911377,-0.336670
1519650390547,-0.593994,0.834473,-0.344238
1519650390580,-0.529541,0.711670,-0.147949
1519650390612,-0.555176,0.816406,-0.215820
1519650390644,-0.569580,0.850830,-0.292725
1519650390677,-0.595703,0.825439,-0.226563
1519650390710,-0.573975,0.850342,-0.156982
1519650390742,-0.567871,0.802002,-0.174316
1519650390775,-0.599609,0.840820,-0.134766
1519650390816,-0.571045,0.836182,-0.122314
1519650390824,-0.580566,0.848145,-0.101563
1519650390852,-0.582520,0.813232,-0.078857
1519650390938,-0.545410,0.851563,-0.045410
1519650390943,-0.552246,0.871826,-0.036621
1519650390998,-0.556885,0.824951,-0.028809
1519650391003,-0.553467,0.852539,-0.004150
1519650391058,-0.563965,0.860596,-0.005615
1519650391064,-0.565918,0.845215,-0.015625
1519650391104,-0.563721,0.851563,-0.002686
1519650391140,-0.556641,0.828125,0.009277
1519650391173,-0.544434,0.890869,0.030762
1519650391206,-0.577393,0.930176,0.089844
1519650391222,-0.546875,0.825439,0.070068
1519650391250,-0.538818,0.828369,0.065918
1519650391307,-0.553955,0.880127,0.058838
1519650391340,-0.555176,0.837646,-0.036865
1519650391345,-0.596191,0.861328,-0.114990
1519650391399,-0.588623,0.869141,-0.075684
1519650391405,-0.596436,0.905518,-0.079590
1519650391437,-0.621338,0.760742,-0.215576
1519650391494,-0.573975,0.818604,-0.070557
1519650391502,-0.589111,0.854248,-0.082275
1519650391558,-0.587402,0.832764,-0.086426
1519650391592,-0.580322,0.780273,-0.131348
1519650391626,-0.592285,0.778564,-0.143066
1519650391639,-0.593750,0.771973,-0.111328
1519650391671,-0.600830,0.797607,-0.081299
1519650391704,-0.595703,0.842041,-0.074951
1519650391737,-0.599854,0.837891,-0.076172
1519650391791,-0.590820,0.838623,-0.086426
1519650391797,-0.589355,0.831055,-0.101318
1519650391825,-0.611084,0.821777,-0.118164
1519650391883,-0.596680,0.806396,-0.108154
1519650391889,-0.593750,0.802002,-0.118896
1519650391920,-0.593994,0.819824,-0.127930
1519650391974,-0.594971,0.825928,-0.123047
1519650392007,-0.590820,0.817627,-0.120117
1519650392042,-0.587646,0.808838,-0.108154
1519650392055,-0.594238,0.824219,-0.114990
1519650392091,-0.602783,0.809814,-0.121338
1519650392125,-0.606689,0.829346,-0.123291
1519650392156,-0.600098,0.820557,-0.111572
1519650392189,-0.605713,0.817627,-0.118164
1519650392222,-0.606201,0.827881,-0.100342
1519650392254,-0.613770,0.848633,-0.105225
1519650392286,-0.600830,0.790039,-0.085938
1519650392319,-0.588379,0.814941,-0.073486
1519650392351,-0.593994,0.822021,-0.100098
1519650392384,-0.599854,0.798340,-0.104004
1519650392417,-0.597656,0.819336,-0.093750
1519650392454,-0.602539,0.825684,-0.082764
1519650392467,-0.608643,0.814697,-0.092773
1519650392501,-0.612061,0.822998,-0.082275
1519650392532,-0.602539,0.822998,-0.066162
1519650392566,-0.604736,0.828613,-0.080322
1519650392623,-0.607910,0.806641,-0.100830
1519650392629,-0.607666,0.812500,-0.092773
1519650392686,-0.598389,0.822754,-0.087646
1519650392717,-0.598145,0.822266,-0.098389
1519650392789,-0.590576,0.833740,-0.093506
1519650392794,-0.604248,0.821045,-0.092773
1519650392855,-0.608154,0.829590,-0.089600
1519650392861,-0.601563,0.827148,-0.088135
1519650392888,-0.606201,0.830078,-0.089355
1519650392894,-0.608887,0.821045,-0.094482
1519650392947,-0.590088,0.836426,-0.090576
1519650392953,-0.594238,0.822266,-0.086670
1519650392982,-0.607422,0.814941,-0.091064
1519650393042,-0.620850,0.815430,-0.094238
1519650393050,-0.607666,0.833008,-0.101563
1519650393080,-0.610596,0.834473,-0.107178
1519650393111,-0.603516,0.808350,-0.108154
1519650393170,-0.598633,0.821777,-0.106445
1519650393202,-0.599609,0.812988,-0.103271
1519650393235,-0.601563,0.803223,-0.098877
1519650393267,-0.590576,0.819092,-0.096436
1519650393280,-0.602783,0.812500,-0.093506
1519650393312,-0.601563,0.817383,-0.091797
1519650393345,-0.614014,0.813721,-0.104492
1519650393377,-0.621094,0.822266,-0.118896
1519650393435,-0.619629,0.827148,-0.114746
1519650393441,-0.614746,0.793945,-0.118164
1519650393476,-0.606201,0.795898,-0.111572
1519650393508,-0.601563,0.799805,-0.104492
1519650393540,-0.602051,0.781982,-0.114990
1519650393572,-0.600342,0.789795,-0.123291
1519650393605,-0.613281,0.821045,-0.142822
1519650393636,-0.608887,0.797363,-0.147217
1519650393669,-0.611084,0.785645,-0.163330
1519650393711,-0.614258,0.815674,-0.177490
1519650393744,-0.612305,0.825684,-0.165771
1519650393777,-0.611572,0.798828,-0.175049
1519650393811,-0.614258,0.795166,-0.182861
1519650393819,-0.610107,0.827881,-0.162842
1519650393843,-0.606689,0.811768,-0.175293
1519650393902,-0.620361,0.794434,-0.189697
1519650393910,-0.615479,0.788086,-0.182373
1519650393965,-0.613037,0.798340,-0.180420
1519650393998,-0.613281,0.801025,-0.188965
1519650394034,-0.616455,0.810791,-0.186279
1519650394041,-0.611572,0.801270,-0.184082
1519650394098,-0.610840,0.791016,-0.178467
1519650394112,-0.608643,0.795166,-0.177979
1519650394144,-0.602051,0.796387,-0.181396
1519650394176,-0.598389,0.807617,-0.179443
1519650394234,-0.594482,0.795654,-0.179688
1519650394244,-0.600098,0.808350,-0.183838
1519650394296,-0.598145,0.825195,-0.184082
1519650394320,-0.596680,0.812012,-0.186035
1519650394324,-0.596680,0.808105,-0.177490
1519650394380,-0.596680,0.814453,-0.184082
1519650394413,-0.597168,0.808594,-0.185791
1519650394423,-0.596680,0.802002,-0.186523
1519650394478,-0.588623,0.801270,-0.184570
1519650394508,-0.602539,0.793213,-0.186768
1519650394522,-0.599365,0.809326,-0.186279
1519650394581,-0.609375,0.793457,-0.185059
1519650394614,-0.607910,0.791504,-0.185791
1519650394622,-0.603271,0.793701,-0.183105
1519650394678,-0.603027,0.803223,-0.194824
1519650394709,-0.602539,0.803467,-0.186768
1519650394741,-0.607666,0.787598,-0.182373
1519650394774,-0.606934,0.793945,-0.174072
1519650394808,-0.612061,0.798584,-0.168701
1519650394815,-0.618652,0.807129,-0.173340
1519650394865,-0.612305,0.801025,-0.175293
1519650394898,-0.621826,0.797119,-0.172607
1519650394912,-0.622314,0.797363,-0.174561
1519650394968,-0.616455,0.799316,-0.176758
1519650394972,-0.615723,0.792236,-0.172607
1519650395030,-0.613525,0.791748,-0.172607
1519650395063,-0.607910,0.799072,-0.179443
1519650395071,-0.604736,0.795166,-0.165771
1519650395127,-0.601318,0.797119,-0.162109
1519650395159,-0.605957,0.799316,-0.176270
1519650395192,-0.608154,0.794678,-0.177246
1519650395224,-0.600830,0.799805,-0.164795
1519650395256,-0.604736,0.794434,-0.166260
1519650395290,-0.597412,0.784668,-0.175293
1519650395322,-0.613770,0.809570,-0.180664
1519650395338,-0.616699,0.817139,-0.181152
1519650395394,-0.610352,0.851318,-0.156494
1519650395403,-0.612061,0.834717,-0.162354
1519650395453,-0.614502,0.825928,-0.187256
1519650395461,-0.609375,0.815430,-0.179199
1519650395488,-0.600098,0.775146,-0.142090
1519650395520,-0.595947,0.787598,-0.152588
1519650395577,-0.595703,0.810059,-0.147217
1519650395602,-0.598877,0.805420,-0.145508
1519650395635,-0.607178,0.801514,-0.158691
1519650395666,-0.612061,0.795654,-0.158691
1519650395698,-0.613281,0.793457,-0.158691
1519650395730,-0.607178,0.757813,-0.171631
1519650395773,-0.594482,0.783936,-0.161377
1519650395781,-0.592041,0.855957,-0.140381
1519650395830,-0.601318,0.783936,-0.135010
1519650395904,-0.574463,0.774658,-0.124512
1519650395913,-0.568359,0.761230,-0.239014
1519650395971,-0.589355,0.698242,-0.240479
1519650395980,-0.564697,0.803467,-0.243164
1519650396010,-0.575684,0.893799,-0.262451
1519650396018,-0.555176,0.851074,-0.208740
1519650396044,-0.536865,0.863037,-0.191406
1519650396077,-0.547852,0.916260,-0.302002
1519650396115,-0.564209,0.857178,-0.333984
1519650396144,-0.573486,0.863037,-0.279053
1519650396181,-0.562256,0.851807,-0.251465
1519650396215,-0.553711,0.774902,-0.199951
1519650396248,-0.565674,0.865234,-0.171875
1519650396281,-0.535889,0.864746,-0.138916
1519650396312,-0.544678,0.769043,-0.145264
1519650396344,-0.561035,0.885986,-0.145996
1519650396350,-0.550781,0.815674,-0.130127
1519650396408,-0.572510,0.800537,-0.103516
1519650396441,-0.590576,0.845459,-0.107666
1519650396450,-0.615479,0.832520,-0.122559
1519650396504,-0.584473,0.799561,-0.145264
1519650396537,-0.566895,0.904785,-0.166016
1519650396569,-0.552979,0.835205,-0.213623
1519650396582,-0.528564,0.722900,-0.218506
1519650396616,-0.539795,0.873291,-0.229980
1519650396650,-0.568115,0.809814,-0.263184
1519650396683,-0.593994,0.813232,-0.290771
1519650396739,-0.602783,0.838379,-0.304443
1519650396771,-0.615479,0.842285,-0.299561
1519650396805,-0.596191,0.866455,-0.388184
1519650396814,-0.537354,0.840088,-0.312744
1519650396881,-0.477539,0.794678,-0.262207
1519650396887,-0.557129,0.660400,-0.343262
1519650396919,-0.604736,0.746582,-0.297363
1519650396951,-0.628906,0.712158,-0.281494
1519650396990,-0.588135,0.791016,-0.164063
1519650397024,-0.468018,0.781738,-0.059082
1519650397033,-0.386230,0.724121,-0.174561
1519650397065,-0.443848,1.045166,-0.284912
1519650397099,-0.481445,0.852295,-0.333252
1519650397132,-0.545410,0.747803,-0.366943
1519650397164,-0.639893,0.809570,-0.380615
1519650397222,-0.668457,0.873047,-0.377441
1519650397231,-0.691895,0.865479,-0.418457
1519650397283,-0.636475,0.713379,-0.308105
1519650397315,-0.576416,0.727051,-0.243896
1519650397348,-0.596436,0.732422,-0.237549
1519650397382,-0.523193,0.708008,-0.146973
1519650397387,-0.528809,0.849609,-0.165283
1519650397429,-0.549805,0.842529,-0.250488
1519650397462,-0.564697,0.814941,-0.354248
1519650397494,-0.530518,0.896729,-0.323730
1519650397525,-0.494629,0.907959,-0.245117
1519650397556,-0.512939,0.960693,-0.206543
1519650397591,-0.554199,0.962646,-0.202881
1519650397622,-0.545166,0.833984,-0.185059
1519650397655,-0.541748,0.821777,-0.117432
1519650397689,-0.549316,0.811279,-0.119873
1519650397720,-0.561768,0.817627,-0.149902
1519650397753,-0.571777,0.831055,-0.202148
1519650397786,-0.562256,0.861816,-0.218994
1519650397799,-0.548828,0.855469,-0.261719
1519650397856,-0.527344,0.820557,-0.265137
1519650397892,-0.511230,0.822754,-0.284180
1519650397898,-0.529297,0.753418,-0.287842
1519650397952,-0.541748,0.731689,-0.233154
1519650397984,-0.559326,0.696289,-0.207031
1519650398016,-0.592285,0.797363,-0.200195
1519650398049,-0.587402,0.876709,-0.218506
1519650398085,-0.560059,0.791992,-0.177246
1519650398094,-0.583496,0.784912,-0.181885
1519650398161,-0.692627,0.828369,-0.156250
1519650398164,-0.734619,0.805176,-0.158447
1519650398201,-0.752930,0.868408,-0.155029
1519650398234,-0.719727,0.814697,-0.166992
1519650398268,-0.700195,0.771240,-0.164063
1519650398300,-0.734863,0.749268,-0.184814
1519650398332,-0.738770,0.776855,-0.300049
1519650398364,-0.664307,0.813721,-0.212158
1519650398397,-0.547363,0.562744,-0.200439
1519650398430,-0.527832,0.613281,-0.118164
1519650398462,-0.553223,0.728271,-0.145508
1519650398495,-0.627441,0.806152,-0.254150
1519650398527,-0.555176,0.854004,-0.197266
1519650398558,-0.500000,0.959717,-0.129883
1519650398591,-0.541992,0.821777,-0.147949
1519650398634,-0.564453,0.840088,-0.174805
1519650398643,-0.558350,0.844727,-0.168945
1519650398698,-0.557373,0.852295,-0.149170
1519650398729,-0.513428,0.922852,-0.117676
1519650398762,-0.535156,0.850830,-0.197021
1519650398796,-0.543701,0.807861,-0.209229
1519650398829,-0.560547,0.834717,-0.177979
1519650398837,-0.572510,0.803955,-0.156006
1519650398896,-0.587891,0.802979,-0.153809
1519650398930,-0.578369,0.812012,-0.162598
1519650399000,-0.587402,0.806641,-0.192871
1519650399009,-0.597168,0.835938,-0.226563
1519650399067,-0.562012,0.842529,-0.244141
1519650399073,-0.522705,0.791748,-0.235352
1519650399131,-0.555420,0.736572,-0.237793
1519650399138,-0.597900,0.749512,-0.212158
1519650399147,-0.621338,0.708984,-0.235596
1519650399164,-0.676025,0.707520,-0.267334
1519650399197,-0.694092,0.750488,-0.303223
1519650399229,-0.666992,0.957520,-0.264404
1519650399262,-0.644775,0.891846,-0.277100
1519650399295,-0.603760,0.919434,-0.178711
1519650399327,-0.629395,0.981445,-0.164795
1519650399358,-0.604004,0.751709,-0.210205
1519650399390,-0.559570,0.805176,-0.219971
1519650399442,-0.555664,0.860107,-0.218262
1519650399451,-0.562256,0.828857,-0.225830
1519650399502,-0.554688,0.851807,-0.295898
1519650399511,-0.546387,0.874268,-0.359131
1519650399561,-0.564453,0.901123,-0.361328
1519650399595,-0.548584,0.814941,-0.293701
1519650399603,-0.541504,0.777588,-0.265869
1519650399659,-0.526855,0.761230,-0.230957
1519650399692,-0.553955,0.738525,-0.226563
1519650399723,-0.554932,0.796143,-0.203613
1519650399755,-0.542969,0.816650,-0.210938
1519650399788,-0.527588,0.783691,-0.219482
1519650399799,-0.521240,0.791748,-0.215332
1519650399838,-0.501465,0.857178,-0.222412
1519650399868,-0.472900,0.851807,-0.202393
1519650399901,-0.483643,0.821777,-0.219238
1519650399934,-0.488037,0.845215,-0.224609
1519650399993,-0.513672,0.846924,-0.224854
1519650400001,-0.522949,0.843506,-0.221680
1519650400024,-0.519287,0.847656,-0.207520
1519650400083,-0.527588,0.858887,-0.222900
1519650400092,-0.536377,0.822998,-0.234863
1519650400141,-0.545166,0.837402,-0.226074
1519650400174,-0.550049,0.814209,-0.238281
1519650400208,-0.550781,0.804688,-0.243164
1519650400240,-0.550293,0.797852,-0.222900
1519650400253,-0.560547,0.815186,-0.217529
1519650400287,-0.546631,0.812988,-0.230469
1519650400319,-0.558105,0.930908,-0.195557
1519650400375,-0.545898,0.865234,-0.135010
1519650400407,-0.529053,0.841309,-0.136719
1519650400415,-0.530518,0.796631,-0.199463
1519650400473,-0.531250,0.883301,-0.226807
1519650400505,-0.535889,0.826904,-0.251221
1519650400514,-0.594482,0.914551,-0.163574
1519650400563,-0.653320,0.896973,-0.163086
1519650400572,-0.551514,0.691406,-0.317871
1519650400600,-0.611816,0.895508,-0.259521
1519650400658,-0.549805,0.877197,-0.079102
1519650400672,-0.504395,0.809326,0.033447
1519650400722,-0.535889,0.926025,-0.103760
1519650400754,-0.570557,0.916504,-0.134521
1519650400790,-0.556885,0.822266,-0.141846
1519650400796,-0.635986,0.848633,-0.158691
1519650400855,-0.570557,0.833252,-0.132813
1519650400886,-0.549316,0.752686,0.040283
1519650400918,-0.568115,0.888916,0.173096
1519650400951,-0.573242,0.710693,0.054443
1519650400954,-0.554443,0.799072,0.083252
1519650400990,-0.554443,0.833008,0.137939
1519650401042,-0.592773,0.872803,0.042725
1519650401053,-0.600830,0.841064,-0.031250
1519650401087,-0.601563,0.805420,-0.053955
1519650401119,-0.590820,0.839600,-0.117676
