1519482577908,0.511719,-0.094971,0.959717
1519482577944,0.433594,-0.115479,0.491699
1519482577977,0.633057,-0.382324,0.800293
1519482578008,0.530273,-0.228271,0.874512
1519482578040,0.515869,-0.350586,0.790283
1519482578074,0.296143,0.343506,0.441406
1519482578105,0.691650,-0.811523,1.605469
1519482578139,0.668701,0.584473,0.427734
1519482578172,0.822754,-0.495605,0.796387
1519482578203,0.137207,0.249023,0.663818
1519482578236,0.745361,-0.368164,0.764160
1519482578269,0.728271,0.230713,0.589844
1519482578303,-0.166992,-0.041992,0.664551
1519482578334,1.153809,-0.570313,1.030762
1519482578366,-0.097168,-0.127686,1.197021
1519482578398,0.901123,-0.391357,0.958984
1519482578432,0.269043,0.242188,0.677246
1519482578464,0.967529,-0.352539,1.630371
1519482578495,0.488037,0.815674,0.444580
1519482578529,0.323975,-0.107178,0.876709
1519482578562,0.619141,0.123535,1.035645
1519482578593,0.365234,0.079346,0.585205
1519482578626,0.859863,0.213867,0.822998
1519482578659,0.179932,0.098389,0.927734
1519482578667,0.523438,0.237549,1.036133
1519482578722,0.383545,0.341797,1.285889
1519482578755,0.404297,0.226563,0.692871
1519482578787,0.646729,0.446289,1.277344
1519482578801,0.181152,0.328369,0.787354
1519482578856,0.329346,0.129150,1.205566
1519482578889,0.571045,0.302002,0.844971
1519482578899,0.364746,0.123779,0.916748
1519482578958,0.388428,0.249512,0.955811
1519482578990,0.295410,0.330078,1.006836
1519482578998,0.117676,0.470215,0.891602
1519482579048,0.671875,0.287842,1.210449
1519482579057,-0.036621,0.226318,0.593262
1519482579085,0.667480,0.294922,1.322998
1519482579144,0.236572,0.228516,0.884521
1519482579152,0.361328,0.113281,1.052734
1519482579205,0.341064,0.124512,0.810547
1519482579219,0.596680,0.145264,1.150879
1519482579252,0.289795,0.125977,0.665283
1519482579284,0.555176,0.263428,1.045410
1519482579317,0.478027,0.060547,0.441650
1519482579350,0.645996,0.014160,0.916260
1519482579383,0.536865,-0.057129,0.865967
1519482579441,0.168457,0.304688,0.833252
1519482579474,0.720215,0.277832,1.095703
1519482579483,0.348633,0.305420,0.881836
1519482579535,0.768799,0.224365,1.245605
1519482579569,0.247070,0.207764,-0.014648
1519482579578,0.385986,-0.175293,1.207031
1519482579627,0.415039,0.029053,1.208252
1519482579641,0.743896,-0.316406,1.092773
1519482579674,0.406738,-0.225098,0.702148
1519482579715,0.814209,-0.204590,1.323730
1519482579748,0.342285,0.464600,0.690186
1519482579781,0.632813,0.047852,0.789551
1519482579813,0.362549,0.070801,0.709229
1519482579846,0.717773,0.018066,1.155029
1519482579883,0.266113,-0.145020,0.685547
1519482579915,0.631348,0.070313,0.965820
1519482579949,0.162354,-0.001465,0.825684
1519482579981,0.785889,0.122559,0.841553
1519482580012,0.181641,0.406738,1.410645
1519482580045,0.382568,0.422119,1.101074
1519482580058,0.272217,0.345459,0.262207
1519482580108,0.395752,0.213623,0.393555
1519482580141,0.170898,0.427246,1.229980
1519482580150,0.355957,0.180176,0.192627
1519482580204,0.272217,0.116211,1.313965
1519482580236,0.187744,0.306152,1.075684
1519482580268,0.478027,0.392578,1.619873
1519482580300,-0.279541,-0.168457,0.783936
1519482580334,0.394287,0.629883,0.837891
1519482580366,0.454346,-0.187012,0.625244
1519482580398,0.279785,-0.126709,0.763428
1519482580430,0.281494,-0.184326,0.791260
1519482580464,0.394775,0.072998,0.923340
1519482580478,0.626221,0.071289,0.930664
1519482580509,0.011475,-0.049805,0.583252
1519482580568,0.553467,0.022705,1.202637
1519482580600,0.345459,-0.392334,0.617188
1519482580632,0.321289,-0.129395,1.141602
1519482580638,0.536377,0.187744,0.882813
1519482580692,0.445801,0.253662,0.570557
1519482580763,0.655273,0.097168,0.875244
1519482580768,0.442871,-0.142090,0.959717
1519482580832,0.459229,-0.304688,0.848633
1519482580840,0.606201,0.107422,0.338135
1519482580898,0.158936,-0.451416,0.660400
1519482580968,0.665527,0.321289,0.414063
1519482581034,0.611328,-0.637939,0.652832
1519482581042,0.484619,-0.112793,0.468994
1519482581101,0.634766,0.118164,0.604980
1519482581104,0.307373,-0.185791,0.604248
1519482581170,0.864746,-0.418457,1.043701
1519482581179,0.544922,-0.440186,0.914551
1519482581226,0.832764,0.020508,0.750000
1519482581229,0.286621,0.035645,0.963623
1519482581233,0.438965,0.125732,1.412598
1519482581236,1.543457,-0.033447,1.170410
1519482581238,0.041992,0.257813,1.888672
1519482581264,0.939453,0.304199,0.529297
1519482581272,0.334961,-0.072510,0.815430
1519482581330,0.560059,0.053467,0.891602
1519482581343,0.146240,0.050293,0.904541
1519482581387,0.442871,0.231934,0.713135
1519482581421,0.770996,0.162354,0.899902
1519482581453,0.560791,0.333008,0.698975
1519482581484,0.122314,0.003906,1.224609
1519482581517,1.134766,0.098877,0.734863
1519482581549,0.031738,-0.227295,0.686035
1519482581582,0.647705,0.380371,1.005615
1519482581615,-0.014160,0.193359,1.023193
1519482581647,1.046143,0.061523,1.331543
1519482581680,0.472168,0.087158,0.524414
1519482581714,-0.578369,0.002686,1.035645
1519482581745,0.384033,0.519287,1.348389
1519482581759,0.509521,-0.173340,0.577393
1519482581796,0.027344,-0.208740,0.785645
1519482581829,0.388916,0.334717,0.650635
1519482581861,0.457275,-0.030029,1.294189
1519482581893,0.724609,0.260010,0.648193
1519482581925,0.508789,-0.195313,1.135010
1519482581959,0.240723,0.031250,0.674805
1519482581992,0.854492,-0.215820,1.300049
1519482582048,0.191162,-0.179932,0.846924
1519482582056,0.751953,0.318604,0.633545
1519482582109,0.493896,-0.126465,0.795654
1519482582142,0.423584,0.336670,0.541016
1519482582155,0.270508,0.417725,0.650879
1519482582188,0.601807,0.265625,0.904785
1519482582245,0.197998,0.116455,0.981445
1519482582248,0.418701,0.275146,0.840576
1519482582279,0.583496,-0.499756,1.386719
1519482582338,0.414063,0.250488,0.867920
1519482582347,0.442383,-0.048584,0.731689
1519482582372,0.414551,-0.089355,0.631592
1519482582429,0.713135,-0.066650,0.943604
1519482582462,0.299072,-0.216309,0.974854
1519482582471,0.409912,0.356201,0.915527
1519482582524,0.674316,-0.104248,1.086670
1519482582557,0.099854,0.425781,0.500732
1519482582571,0.700195,-0.654297,1.567871
1519482582628,0.197266,0.085449,0.610107
1519482582667,0.621338,-0.561279,1.240234
1519482582673,0.457764,0.278809,0.568359
1519482582701,0.610596,-0.050293,1.261475
1519482582758,0.360352,0.342773,0.866943
1519482582764,0.406982,0.161865,1.252197
1519482582821,0.370605,0.218994,0.762207
1519482582829,0.573730,-0.133057,1.103760
1519482582854,0.634766,0.961426,0.230225
1519482582924,0.614258,-0.113281,0.962646
1519482582927,0.677002,0.348633,0.551270
1519482582957,0.419189,0.035889,0.900391
1519482582998,0.466309,0.072266,0.603027
1519482583031,0.499268,-0.319824,0.998779
1519482583064,0.309082,-0.176758,1.216797
1519482583098,0.289551,-0.211426,1.009766
1519482583130,0.816406,-0.211182,0.902832
1519482583163,0.570068,-0.280518,0.062012
1519482583195,0.722168,0.291016,0.573486
1519482583227,1.021484,0.415283,1.070801
1519482583258,0.445801,0.136475,0.287109
1519482583291,0.462891,-0.112549,0.561035
1519482583299,0.509277,-0.082275,0.733398
1519482583354,0.530518,0.232178,0.905518
1519482583369,0.569092,0.288330,0.721436
1519482583400,0.513184,0.064209,1.645020
1519482583458,0.826904,0.468018,0.641846
1519482583463,0.555176,0.245117,0.820801
1519482583521,0.660889,0.408447,0.443115
1519482583554,0.676025,0.117920,0.765625
1519482583587,0.599365,0.259766,0.734131
1519482583619,0.595215,0.259033,0.904541
1519482583628,0.493408,0.418945,0.421387
1519482583677,0.555664,0.168701,0.369873
1519482583717,0.785156,0.231445,0.803955
1519482583725,0.680664,0.543701,0.784180
1519482583785,0.725098,0.421387,0.644775
1519482583790,0.467529,0.687500,0.558838
1519482583819,0.611328,0.695313,0.700195
1519482583876,0.639404,0.578369,0.412109
1519482583882,0.436523,0.538330,1.116455
1519482583948,0.885254,0.937500,0.423340
1519482583957,0.267334,0.294434,0.739990
1519482584005,0.912842,0.774414,0.531738
1519482584038,0.595215,0.885986,0.587158
1519482584044,0.394043,0.886963,0.442383
1519482584103,0.798584,0.556152,0.685547
1519482584136,0.986328,0.489746,0.413818
1519482584169,0.549561,0.724365,0.651367
1519482584181,0.650391,0.516846,0.528564
1519482584214,0.833252,0.659424,0.489258
1519482584246,0.347412,0.742432,1.036865
1519482584278,0.662598,0.754883,0.673340
1519482584311,0.640625,0.694092,0.430664
1519482584368,0.631592,0.487061,0.468750
1519482584371,0.838867,0.382080,-0.119385
1519482584401,0.468018,0.863037,1.243652
1519482584434,0.765137,0.710449,-0.017578
1519482584466,0.013184,0.693604,1.073486
1519482584499,1.145752,0.588379,0.544922
1519482584532,0.763184,0.648926,0.498779
1519482584564,0.192139,0.852051,0.711426
1519482584605,0.939209,1.010742,0.877930
1519482584638,0.656982,0.004395,0.044678
1519482584671,0.421875,0.295898,0.829346
1519482584708,0.432617,0.842285,0.779785
1519482584739,0.415527,0.508057,0.979004
1519482584773,0.313232,0.980469,0.780518
1519482584779,0.523438,0.834961,1.074707
1519482584835,0.431152,0.883301,1.183350
1519482584869,0.274902,0.810547,1.451904
1519482584879,-0.059814,0.392334,0.510498
1519482584932,0.239258,0.364258,0.542236
1519482584965,0.700684,0.904541,1.437988
1519482584978,0.041748,0.287354,0.615723
1519482585035,-0.105957,0.218994,0.522705
1519482585040,0.766113,0.346191,1.124023
1519482585099,0.137695,0.843994,0.788086
1519482585133,0.118896,0.085205,0.066650
1519482585164,0.129883,0.761963,1.684570
1519482585197,-0.064697,0.476318,0.360840
1519482585228,0.333496,0.642090,0.439209
1519482585260,0.662842,0.755127,0.656494
1519482585293,0.213135,0.027832,0.631836
1519482585326,0.404785,0.289795,0.443359
1519482585360,0.708740,0.669922,0.746338
1519482585368,0.550293,0.345703,0.671631
1519482585431,0.016846,-0.013184,1.051758
1519482585439,-0.053711,-0.272461,1.193848
1519482585464,0.172363,0.382080,1.676514
1519482585495,-0.299561,-0.108154,1.241211
1519482585529,-0.013428,-0.148926,0.763184
1519482585560,-0.135010,0.187988,1.470215
1519482585594,0.167236,0.153809,0.854248
1519482585626,-0.052002,0.313232,1.473389
1519482585662,0.171875,0.178711,0.642822
1519482585696,0.353760,0.354980,1.213379
1519482585767,0.197021,0.004395,1.186523
1519482585773,0.322266,0.374756,0.708740
1519482585836,0.339111,-0.107666,0.521484
1519482585844,0.400879,-0.009033,0.671875
1519482585904,1.233643,0.008301,0.684814
1519482585912,0.174072,0.173340,1.230469
1519482585972,0.996826,0.200195,0.484863
1519482585980,0.079834,0.173584,0.905762
1519482586038,0.720459,-0.106445,0.371582
1519482586046,-0.047607,0.483887,2.265381
1519482586107,0.726074,-0.538086,0.280029
1519482586115,0.452148,0.429199,0.817627
1519482586173,0.567871,-0.183350,0.978027
1519482586229,0.222900,0.292480,0.760742
1519482586238,0.343750,0.015381,0.901123
1519482586245,0.644775,0.200928,1.029785
1519482586252,0.192383,-0.244385,1.214600
1519482586289,0.241699,0.338867,0.816162
1519482586321,0.213379,0.071777,1.223389
1519482586325,0.908203,0.034180,0.587158
1519482586380,-0.187012,0.031738,0.982910
1519482586414,0.850830,0.364502,1.352051
1519482586447,-0.062256,-0.184326,1.116943
1519482586480,0.436523,0.428467,1.082764
1519482586509,0.726807,0.121094,0.652100
1519482586540,0.320313,0.135498,0.809326
1519482586574,0.585205,0.199219,0.951660
1519482586606,0.102539,0.109131,0.774658
1519482586642,0.639404,0.303711,0.986084
1519482586674,0.461426,0.209473,0.990723
1519482586706,0.604248,-0.303223,1.450684
1519482586739,-0.065186,-0.250488,1.018311
1519482586771,0.581055,0.730225,1.472168
1519482586804,0.266113,-0.162598,0.156738
1519482586807,-0.039551,-0.056396,1.270996
1519482586867,0.378174,-0.119385,0.697754
1519482586900,0.296143,-0.003662,1.338135
1519482586909,0.658447,-0.062500,0.952148
1519482586959,-0.105469,0.190674,0.937256
1519482586992,0.200928,0.211426,0.921631
1519482587004,1.584473,0.759766,0.809570
1519482587061,-0.587402,-0.908447,1.400146
1519482587070,0.423096,0.457275,0.586426
1519482587125,0.531982,-0.194824,1.229736
1519482587158,1.562500,0.483643,-0.372070
1519482587191,-1.128662,-0.523682,1.389404
1519482587222,0.564697,0.194092,1.281494
1519482587254,0.224609,-0.249268,0.978760
1519482587287,-0.273193,-0.215088,1.311523
1519482587319,0.744873,0.255371,1.065674
1519482587353,-0.010742,0.233398,0.700195
1519482587386,-0.073486,0.011963,0.851807
1519482587395,0.443604,0.461182,1.435303
1519482587445,-0.601563,0.093506,0.323975
1519482587477,0.946777,0.178467,2.057373
1519482587485,0.890625,-0.200195,0.922852
1519482587540,-0.219482,0.463867,0.911377
1519482587574,0.709961,-0.261475,1.317383
1519482587586,1.216064,0.332031,0.149902
1519482587641,0.007813,-0.145508,1.009766
1519482587647,0.702881,0.105469,0.492188
1519482587706,0.804199,0.035400,0.981445
1519482587738,0.485352,0.134277,0.553223
1519482587787,0.262451,-0.446533,1.311279
1519482587790,0.960205,0.352051,0.179932
1519482587820,0.289063,0.078369,1.128662
1519482587853,0.700928,-0.027832,0.483643
1519482587886,-0.036377,0.048828,0.891357
1519482587920,0.484619,-0.113770,1.109863
1519482587952,0.490967,0.112549,0.812744
1519482587983,-0.024902,0.113525,1.929688
1519482588017,0.881592,0.495850,0.286133
1519482588050,-0.374023,-0.172607,1.858398
1519482588081,0.945557,0.467773,0.584229
1519482588114,0.222412,0.443359,0.330078
1519482588147,0.362549,-0.229004,1.079834
1519482588180,0.610352,0.438965,0.611572
1519482588213,0.556152,-0.139648,1.510742
1519482588253,0.492676,-0.100098,0.314453
1519482588285,0.464111,0.348145,1.526855
1519482588317,0.279053,-0.333008,1.074219
1519482588349,0.659668,-0.053955,0.011963
1519482588352,0.135010,0.163574,1.518799
1519482588407,0.368408,-0.551270,0.930908
1519482588417,0.329102,0.205811,0.654785
1519482588446,0.463135,-0.018555,1.178223
1519482588503,0.346191,0.160645,0.733887
1519482588535,0.235107,0.255859,0.838135
1519482588548,0.411133,0.175049,1.069336
1519482588604,0.501221,0.101318,0.947754
1519482588618,-0.195068,-0.266602,0.813232
1519482588650,0.673828,0.035889,0.879395
1519482588682,1.055176,0.174316,0.705811
1519482588716,-0.375732,0.108154,0.780273
1519482588749,0.599365,0.190918,0.944092
1519482588781,0.116211,-0.389404,0.751465
1519482588813,0.385742,0.187744,0.987061
1519482588846,0.502930,-0.088135,0.706543
1519482588878,0.558350,0.144287,0.865479
1519482588911,0.625732,0.041748,0.825439
1519482588944,-0.119141,-0.135498,0.796387
1519482589001,0.935303,-0.052979,0.778564
1519482589010,-0.150391,0.220459,0.910156
1519482589068,0.842773,0.029785,0.998779
1519482589101,0.262207,0.691895,1.803711
1519482589109,0.556152,-0.363037,0.305908
1519482589133,0.311279,0.068604,1.246094
1519482589165,0.279297,0.351318,0.833496
1519482589199,0.116699,0.087646,1.052490
1519482589230,0.918213,0.042480,0.460449
1519482589262,0.329834,0.104004,0.809326
1519482589295,0.199951,0.114502,0.897217
1519482589334,0.938965,0.016846,0.526611
1519482589360,-0.364014,0.528320,1.213867
1519482589418,0.872803,0.211426,1.043945
1519482589422,0.117188,-0.017822,0.906250
1519482589464,0.260010,0.133789,0.968262
1519482589496,0.840820,0.098633,0.885010
1519482589531,0.109863,0.292969,0.914063
1519482589565,0.131836,0.085449,0.817627
1519482589596,0.705566,0.292725,0.981934
1519482589629,-0.280762,0.126221,0.898926
1519482589661,1.116943,0.051758,-0.013428
1519482589694,-0.434814,0.412109,1.277344
1519482589726,0.483643,0.106934,0.680664
1519482589759,0.866943,0.148438,0.411865
1519482589792,-0.380615,0.131348,1.309570
1519482589824,0.533691,0.295410,0.737305
1519482589838,0.448730,0.315186,1.422363
1519482589895,0.537598,-0.112061,0.256348
1519482589927,-0.150879,0.283447,1.301025
1519482589960,1.020508,-0.149170,0.477295
1519482589993,0.229004,0.392578,0.922852
1519482589996,0.441162,0.057373,0.915771
1519482590052,-0.059326,0.063721,0.549316
1519482590084,1.026123,0.363281,1.793457
1519482590089,0.369873,-0.385986,0.193604
1519482590147,0.699707,0.364258,1.061035
1519482590179,0.372070,0.149658,0.739258
1519482590212,0.342773,0.171631,1.168945
1519482590219,0.034180,0.057861,0.698730
1519482590257,0.562500,0.218262,1.148682
1519482590289,0.837402,0.114990,0.299561
1519482590322,0.175781,0.177979,0.851074
1519482590376,0.704590,0.270264,1.016602
1519482590409,0.448486,0.090332,0.730957
1519482590442,0.453613,0.058594,0.887451
1519482590474,-0.130615,0.321777,1.253906
1519482590509,0.971924,0.088623,0.849609
1519482590541,0.453613,0.281006,1.127441
1519482590545,0.316162,0.185303,0.973145
1519482590575,0.380859,0.200928,0.833252
1519482590608,0.120361,0.201660,0.943359
1519482590640,0.167236,0.152100,1.147461
1519482590673,0.730957,0.098389,0.658447
1519482590745,0.043701,0.356201,1.466309
1519482590749,0.569580,-0.146973,0.623779
1519482590813,0.083252,0.437988,0.821777
1519482590816,0.752930,0.294189,0.857422
1519482590880,-0.193604,0.069336,0.894043
1519482590883,0.928223,0.252441,0.961426
1519482590947,0.267334,0.176025,0.821777
1519482590950,0.004395,0.031006,1.444580
1519482591015,0.762939,0.129150,0.324219
1519482591018,0.472656,0.566650,1.238770
1519482591083,0.180176,-0.239258,0.272949
1519482591151,0.187744,0.434814,1.548096
1519482591219,0.691895,-0.044678,0.467773
1519482591230,0.316162,0.479736,0.946533
1519482591235,-0.058838,-0.017090,0.836426
1519482591238,1.043213,0.558594,0.398682
1519482591241,-0.073975,-0.141357,1.253906
1519482591266,0.355469,0.100098,0.629883
1519482591299,0.518311,0.509766,0.554688
1519482591331,0.649902,-0.036377,1.179199
1519482591364,0.474854,-0.061768,0.706055
1519482591397,0.550537,0.420654,0.519775
1519482591430,0.444580,0.266602,1.556152
1519482591466,0.424072,0.088623,0.445313
1519482591498,0.291016,0.522217,0.944580
1519482591530,0.835938,-0.038330,0.707275
1519482591535,-0.029297,-0.056885,1.288330
1519482591591,0.636963,0.215088,0.919434
1519482591626,-0.114990,0.324463,0.862305
1519482591631,0.818359,0.353760,1.290771
1519482591689,-0.004395,-0.128662,1.335205
1519482591722,0.311523,0.135986,0.557129
1519482591754,0.806152,0.194824,0.954590
1519482591787,-0.514404,-0.133545,0.956299
1519482591819,0.669678,0.340820,0.662354
1519482591853,0.791260,0.225098,0.981201
1519482591884,0.373779,-0.085449,1.027588
1519482591898,-0.106201,0.060791,0.719727
1519482591955,0.824951,0.478760,1.119629
1519482591988,0.388672,0.241211,0.990723
1519482592021,-0.521973,0.067627,0.938965
1519482592030,1.567871,0.507568,0.605225
1519482592086,-0.210205,0.148193,0.933594
1519482592118,0.349365,-0.046387,1.131348
1519482592124,1.239746,0.086426,0.406006
1519482592177,-0.214600,0.575684,1.287842
1519482592183,-0.123535,-0.301514,1.246338
1519482592217,0.570801,0.163818,1.024902
1519482592274,0.644287,0.375244,1.347900
1519482592280,0.683594,-0.104248,0.598389
1519482592318,-0.651367,0.170654,0.855713
1519482592350,1.004395,-0.306152,0.695313
1519482592383,-0.747803,0.244629,0.934082
1519482592418,1.472168,-0.093506,0.694092
1519482592450,-0.053955,0.486084,0.872314
1519482592483,1.008057,0.343262,0.739990
1519482592515,0.694092,0.294434,0.917725
1519482592548,0.245850,0.085693,0.991211
1519482592605,0.913574,0.112549,0.965088
1519482592607,-0.020996,-0.019287,1.229736
1519482592664,1.018311,0.437500,0.888428
1519482592668,0.460449,-0.128906,0.910156
1519482592698,0.118164,0.116943,1.204346
1519482592739,0.633301,0.346191,0.837646
1519482592771,0.408936,0.328369,0.884521
1519482592804,0.691650,0.392334,0.815918
1519482592836,0.152588,-0.101807,0.979248
1519482592869,1.223633,0.104736,0.706543
1519482592907,0.152588,-0.150391,1.100342
1519482592939,0.656738,0.163574,0.956543
1519482592971,0.105713,0.028076,0.936523
1519482593004,0.740967,0.238770,1.086182
1519482593037,-0.026611,0.045166,1.209717
1519482593069,1.274170,0.034668,0.676025
1519482593077,-0.242432,-0.264404,1.391846
1519482593142,-0.214355,-0.139404,1.179199
1519482593146,1.318115,0.363770,0.651367
1519482593203,0.213379,0.161621,0.921875
1519482593236,0.192871,-0.041504,0.916748
1519482593242,0.702148,0.551758,0.673828
1519482593299,0.285156,0.214844,0.805420
1519482593332,0.403809,0.033691,1.027832
1519482593365,1.200684,0.683105,0.202393
1519482593400,-0.511475,-0.235352,0.992188
1519482593407,1.258789,-0.000732,0.496826
1519482593464,0.057129,-0.307129,1.095703
1519482593497,0.100342,-0.033691,1.025146
1519482593510,0.957031,0.196533,0.501221
1519482593543,-0.209717,-0.183594,1.020996
1519482593576,0.688232,0.113281,1.171631
1519482593608,0.298584,0.023193,0.889160
1519482593640,0.722168,0.078125,0.978027
1519482593672,0.115234,-0.116455,0.747314
1519482593730,0.915771,0.395752,0.943115
1519482593742,-0.209229,0.055664,1.030273
1519482593764,0.579834,0.225342,1.071777
1519482593796,-0.062744,0.080078,0.963379
1519482593829,0.520020,0.133301,1.040527
1519482593861,0.747070,-0.032227,0.364502
1519482593894,0.633301,-0.030273,0.815186
1519482593935,0.551025,0.181641,0.736084
1519482593967,0.437988,-0.079834,1.073730
1519482594000,0.639160,0.253906,0.780029
1519482594032,0.276611,0.033203,0.955078
1519482594065,0.303955,0.026855,0.757813
1519482594097,0.733643,0.257324,1.042969
1519482594130,0.177734,-0.218018,0.653320
1519482594186,0.372559,0.095459,1.078613
1519482594192,0.583008,0.125000,0.573975
1519482594225,-0.410645,-0.132813,1.204346
1519482594257,0.869873,0.053467,0.895996
1519482594290,0.212646,0.104248,0.886475
1519482594307,0.361084,0.104980,0.969238
1519482594342,1.095459,0.277100,0.791992
1519482594375,0.458984,0.220459,1.218994
1519482594407,0.195068,0.263428,1.124023
1519482594440,0.667480,0.240723,0.885742
1519482594472,0.181885,0.134277,0.953857
1519482594505,0.763916,0.096924,0.854248
1519482594562,0.155273,-0.197266,0.858154
1519482594595,1.019775,0.435547,1.073242
1519482594603,-0.256348,-0.052246,0.934326
1519482594659,0.768799,0.367920,0.895508
1519482594691,0.355957,0.101807,0.779541
1519482594705,-0.132568,-0.117920,0.949219
1519482594737,1.092529,0.386230,0.715332
1519482594770,-0.149170,0.007080,1.203369
1519482594804,0.795410,0.204590,0.886719
1519482594836,0.597412,0.328857,0.911133
1519482594869,0.349365,0.151367,0.972900
1519482594901,0.611572,0.323975,0.648682
1519482594934,0.120850,0.083984,0.918701
1519482594966,0.583252,0.142822,1.053223
1519482594999,0.783691,0.044434,0.886719
1519482595031,0.156250,-0.074707,0.787354
1519482595064,0.235352,0.158203,0.754150
1519482595096,0.628174,0.187744,0.914795
1519482595137,0.204834,-0.065430,0.853027
1519482595170,0.466797,0.149170,1.075439
1519482595172,0.634277,-0.127686,0.751709
1519482595204,-0.273926,-0.012451,1.107178
1519482595261,0.576416,0.030273,0.852539
1519482595267,0.809082,-0.151855,0.882813
1519482595302,0.071533,0.088379,1.128662
1519482595360,-0.321533,0.161133,0.964600
1519482595392,1.012695,0.606689,1.177490
1519482595399,0.737061,0.345947,1.058350
1519482595466,-0.233154,-0.169678,0.546875
1519482595468,0.661377,0.223145,1.033447
1519482595506,0.575684,0.245605,1.308350
1519482595539,0.257568,0.360596,1.187500
1519482595571,0.212158,0.320313,0.946777
1519482595604,1.158203,0.976074,1.084961
1519482595636,0.404785,-0.525879,0.788330
1519482595669,0.641846,0.101563,0.324707
1519482595684,-0.076416,-0.613770,0.913574
1519482595757,0.440918,-0.369385,0.405029
1519482595759,0.505615,0.102051,1.100342
1519482595826,0.338379,-0.197754,1.121826
1519482595894,0.675293,-0.244629,0.812988
1519482595896,0.604004,0.192139,1.009521
1519482595961,-0.397217,-0.050537,1.184082
1519482595963,1.174561,0.292236,0.860107
1519482596029,-0.115234,-0.299805,0.583496
1519482596030,0.119873,-0.139648,0.937988
1519482596096,0.456543,0.096436,0.822510
1519482596098,0.275391,-0.309814,1.089111
1519482596164,0.718018,0.231934,0.406006
1519482596229,0.334717,0.159912,1.099609
1519482596231,0.929443,0.352295,0.649902
1519482596233,-0.039063,-0.059814,0.952393
1519482596235,1.198242,0.225586,0.814453
1519482596265,-0.103027,-0.237549,0.643799
1519482596267,0.535889,-0.035156,0.986572
1519482596326,-0.175049,-0.288086,1.288330
1519482596332,0.777344,0.253174,0.349365
1519482596390,-0.088135,-0.189697,0.960693
1519482596422,0.692383,0.327393,0.937500
1519482596429,-0.475098,-0.093018,0.919678
1519482596486,0.597656,1.028076,1.304932
1519482596519,1.027344,0.437256,1.234131
1519482596551,-0.220947,-0.072266,1.077148
1519482596584,0.871338,0.951416,0.916016
1519482596616,0.195557,-0.080566,1.265869
1519482596651,0.291260,-0.037354,0.629395
1519482596684,0.579102,0.556885,1.601563
1519482596716,0.494629,0.164063,0.809082
1519482596746,0.414307,0.180908,1.345947
1519482596748,0.608887,0.070801,0.918945
1519482596805,0.492920,-0.128418,0.522217
1519482596837,0.679443,0.268799,1.004883
1519482596845,0.179199,-0.300781,0.890381
1519482596901,0.663818,0.216797,1.386230
1519482596934,0.569580,-0.021973,0.620850
1519482596967,0.262695,-0.142334,0.987061
1519482597000,0.545898,0.127441,0.942871
1519482597032,0.246094,-0.162598,1.155273
1519482597065,0.376709,0.213867,0.947754
1519482597097,0.754150,0.132813,1.295654
1519482597130,0.243652,0.126953,1.057617
1519482597162,0.338135,0.490723,0.993408
1519482597204,0.829834,0.178467,0.871582
1519482597208,0.008057,-0.121826,0.910156
1519482597244,0.856201,0.234375,0.730469
1519482597301,0.018311,0.120850,1.066650
1519482597303,0.481689,-0.242188,0.791504
1519482597335,0.534180,0.231445,1.173096
1519482597369,0.545898,-0.124268,0.536621
1519482597401,0.454834,-0.107666,0.943604
1519482597434,0.464844,-0.025146,0.760986
1519482597466,1.132813,0.468018,0.790527
1519482597499,-0.312500,-0.522461,0.549805
1519482597531,1.110596,0.825928,0.798340
1519482597564,-0.525146,-0.344971,0.916260
1519482597606,0.723633,0.420166,1.022949
1519482597639,0.824463,0.297119,0.938232
1519482597671,0.008789,-0.358643,0.932617
1519482597704,0.502686,0.080566,0.576172
1519482597710,0.540039,0.285889,1.461426
1519482597768,-0.095215,-0.052734,0.846924
1519482597800,0.654785,-0.242676,0.569824
1519482597806,0.243652,-0.194336,0.885254
1519482597865,0.538330,0.118164,0.563232
1519482597899,0.338135,-0.133057,1.010742
1519482597931,0.907227,0.680176,0.850342
1519482597964,0.113281,-0.103516,1.189697
1519482597977,1.022949,0.660889,0.765137
1519482598026,-0.249756,-0.276855,1.090088
1519482598059,0.767822,0.496094,1.447266
1519482598091,-0.119629,-0.598145,0.756836
1519482598124,1.682617,0.812012,0.440186
1519482598156,-0.420166,-0.091309,0.807129
1519482598189,1.074707,0.320557,0.720215
1519482598224,0.136719,-0.010986,1.551270
1519482598256,1.106689,0.282471,1.272461
1519482598289,0.124268,0.029541,0.926514
1519482598292,-0.248779,-0.209961,0.406494
1519482598350,1.047607,0.296143,0.732910
1519482598382,-0.014160,-0.264160,0.792969
1519482598396,0.679199,0.438232,0.912598
1519482598454,0.498291,-0.409668,0.812256
1519482598456,0.769287,0.094727,1.110840
1519482598512,-0.547607,-0.054932,0.267578
1519482598545,1.750977,0.896729,1.199951
1519482598577,-0.955322,-0.184814,1.535645
1519482598610,1.080078,0.337891,0.928711
1519482598642,0.142334,-0.189941,1.012451
1519482598675,0.842041,-0.243408,0.268066
1519482598707,-0.731689,0.117920,1.197998
1519482598740,1.008789,-0.154053,0.207275
1519482598773,0.125977,-0.114014,1.245850
1519482598775,0.150146,-0.447754,0.152588
1519482598832,0.656738,0.305664,1.035156
1519482598865,-0.122070,-0.405762,0.480957
1519482598871,1.139648,0.705078,0.963135
1519482598929,-0.283203,-0.186035,0.373535
1519482598961,1.184814,0.118652,0.592285
1519482598994,0.274658,-0.076416,1.437256
1519482599026,0.615234,-0.323730,0.639893
1519482599059,0.291992,-0.126953,0.589844
1519482599091,0.852783,0.121582,1.008057
1519482599124,-0.246582,0.079590,1.453857
1519482599156,0.963379,-0.407959,0.766602
1519482599191,0.472168,0.388916,1.102051
1519482599205,0.435547,0.016113,0.184326
1519482599237,0.350586,-0.216309,0.783203
1519482599270,0.190674,-0.114990,0.934082
1519482599306,0.669189,0.494629,1.097900
1519482599339,0.087158,-0.472168,0.649170
1519482599371,0.600342,0.652100,1.276367
1519482599404,0.614990,-0.181396,1.067383
1519482599436,0.348389,0.080566,0.998535
1519482599469,0.843994,-0.348145,0.635742
1519482599501,-0.129395,-0.187744,1.032471
1519482599535,1.091797,1.046875,0.856689
1519482599567,0.000244,-0.595703,0.837646
1519482599602,0.596191,-0.053955,0.589600
1519482599616,0.349365,-0.457275,0.878662
1519482599674,0.677734,0.321045,1.070557
1519482599685,0.424561,-0.413086,0.920654
1519482599742,0.758057,0.335205,0.873291
1519482599775,0.104736,-0.121582,1.175293
1519482599781,0.854736,0.237793,0.603760
1519482599839,-0.029297,-0.592529,1.020752
1519482599840,0.562988,0.556641,1.172607
1519482599897,0.633789,-0.481201,0.500244
1519482599902,0.229004,-0.536377,0.502441
1519482599935,0.451416,-0.025391,1.382080
1519482599992,0.391113,-0.089111,1.154541
1519482599997,0.378906,0.195068,0.819092
1519482600039,1.047607,-0.224609,0.570313
1519482600071,0.438477,0.040283,1.019531
1519482600104,0.715576,-0.382568,0.531982
1519482600138,0.344971,-0.106934,0.792236
1519482600171,0.375000,-0.159180,1.040527
1519482600204,0.245117,-0.596924,0.733643
1519482600236,0.593018,-0.100098,0.900146
1519482600268,0.286621,-0.749023,0.442871
1519482600301,0.653320,0.122559,1.137451
1519482600334,0.511475,-0.566650,0.791016
1519482600391,0.331543,-0.074219,0.895752
1519482600396,0.409912,-0.356445,0.845215
1519482600437,0.549316,-0.086914,1.065186
1519482600470,0.257080,-0.368652,0.764404
1519482600502,0.521729,-0.221436,1.061523
1519482600535,1.021240,-0.433105,0.666260
1519482600586,0.574707,-0.139160,0.529541
1519482600588,0.679932,-0.200195,0.793457
1519482600620,0.626953,-0.245361,0.822021
1519482600652,0.279053,-0.240723,0.623535
1519482600685,0.615967,-0.488281,0.448486
1519482600757,0.657959,-0.084717,1.094482
1519482600760,0.054932,-0.284668,0.652344
1519482600826,0.100586,-0.280273,0.939697
1519482600895,0.972900,-1.104248,0.514893
1519482600961,0.074707,-0.372314,1.078369
1519482600966,0.874512,0.411621,0.995605
1519482601028,0.077393,0.398682,0.962646
1519482601032,0.210205,0.219971,1.022705
1519482601095,0.461670,-0.122559,0.962158
1519482601098,0.560547,-0.112549,1.325684
1519482601163,0.157959,-0.074219,0.957520
1519482601166,0.498291,-0.122803,0.935547
1519482601227,0.667236,-0.151855,1.086670
1519482601231,0.363525,-0.006104,0.915039
1519482601234,-0.008789,0.070557,0.827148
1519482601243,0.480957,-0.145508,0.569580
1519482601247,0.219238,-0.182129,1.346680
1519482601277,0.337402,0.052490,0.970459
1519482601309,0.641846,0.097656,1.030518
1519482601342,0.282471,-0.298096,0.829834
1519482601374,0.554688,-0.016113,0.803955
1519482601406,0.358643,0.231445,1.269775
1519482601440,0.380371,0.029297,1.057617
1519482601472,0.492920,-0.105713,0.893799
1519482601478,0.466797,-0.203857,1.224609
1519482601536,-0.017578,-0.007813,1.001953
1519482601568,0.240479,-0.062988,0.941162
1519482601577,0.873047,-0.111816,0.502686
1519482601632,0.508789,-0.207764,0.900635
1519482601646,0.296387,-0.220703,0.959229
1519482601678,0.659424,-0.245117,0.705322
1519482601735,0.747314,0.010986,0.537598
1519482601768,0.904785,-0.027832,0.581055
1519482601774,0.752686,-0.146729,0.528809
1519482601831,0.004150,-0.238525,0.936523
1519482601866,1.404541,0.062744,0.859619
1519482601899,-0.009277,0.033936,0.922607
1519482601932,1.068359,0.220459,0.880127
1519482601936,0.339355,-0.017578,0.765137
1519482601971,0.466309,0.055176,0.976074
1519482602023,0.717285,0.421143,0.839844
1519482602027,0.459473,0.175537,1.074463
1519482602059,0.196289,0.394531,1.066650
1519482602116,0.558838,-0.029297,1.258057
1519482602149,0.177246,-0.186035,1.028320
1519482602182,0.440674,0.358398,1.010254
1519482602189,0.306641,0.373291,1.000732
1519482602245,0.423096,0.011719,0.949463
1519482602277,0.241455,0.313477,0.838623
1519482602310,0.325684,0.028809,0.782715
1519482602343,0.174805,0.314697,0.937744
1519482602347,0.600586,0.109619,0.798096
1519482602402,0.545166,0.037598,0.971924
1519482602434,0.430908,-0.036621,0.808838
1519482602447,0.305664,-0.117676,0.865967
1519482602505,0.267334,0.193848,0.704346
1519482602507,0.185303,0.202881,0.891113
1519482602564,0.776611,-0.122803,1.381348
1519482602597,0.103516,0.211670,0.455078
1519482602629,0.168945,-0.445557,1.381592
1519482602661,0.504639,0.321289,0.800537
1519482602695,0.546143,0.093994,1.029541
1519482602727,0.401611,-0.138184,0.774170
1519482602760,0.108154,-0.068115,0.823975
1519482602793,0.764648,-0.045166,1.000000
1519482602825,0.401367,-0.085205,0.825684
1519482602859,0.255371,-0.176025,1.083008
1519482602872,0.332520,0.007568,0.925781
1519482602906,0.082031,0.193604,0.776611
1519482602939,0.473145,0.093994,1.076660
1519482602971,0.405762,0.026611,1.141357
1519482603004,0.245117,0.435303,0.481201
1519482603039,0.593994,-0.072021,1.364990
1519482603071,0.065918,-0.001709,0.650635
1519482603104,0.591309,-0.119873,1.003906
1519482603146,0.584229,0.084717,0.742432
1519482603178,0.987549,0.286621,0.645264
1519482603185,0.196777,-0.426514,0.983154
1519482603243,0.697510,0.127930,0.847168
1519482603275,0.272705,0.311035,1.062988
1519482603288,0.689697,0.114014,0.660889
1519482603321,0.173584,-0.004883,1.067871
1519482603379,0.460938,0.129150,1.028809
1519482603384,0.468262,0.278564,0.885498
1519482603441,0.666260,-0.281494,1.005371
1519482603474,0.196045,0.138184,0.912109
1519482603506,0.524902,0.050293,0.865234
1519482603509,0.486572,0.011475,0.949951
1519482603565,0.618408,-0.065918,0.890137
1519482603597,0.323486,-0.118408,0.866699
1519482603600,0.456299,-0.088623,0.461914
1519482603656,0.306885,-0.036865,0.895020
1519482603689,0.523438,-0.074951,0.750244
1519482603702,0.271729,0.080811,1.082275
1519482603761,0.123779,0.377686,1.048828
1519482603765,0.416016,0.387207,0.889160
1519482603822,0.663086,-0.114014,0.970703
1519482603855,0.175293,0.328125,0.694336
1519482603887,0.489502,-0.093994,0.906494
1519482603920,0.601318,-0.040283,0.949219
1519482603952,0.389404,0.049561,0.863525
1519482603985,0.657471,0.070557,0.800781
1519482604020,0.110352,0.118652,0.660156
1519482604053,0.531738,0.222900,0.831055
1519482604085,0.355713,0.140381,0.993164
1519482604087,0.439209,-0.235840,0.832275
1519482604119,0.364746,-0.023193,0.894775
1519482604176,0.609375,-0.315186,1.128662
1519482604181,0.185059,0.342529,0.756836
1519482604239,0.156250,-0.132324,1.125732
1519482604271,0.313721,0.221191,0.871338
1519482604304,0.083008,0.088867,0.911133
1519482604336,0.628906,0.010010,1.002197
1519482604369,0.280029,-0.071533,0.644531
1519482604401,0.509277,-0.051270,1.035889
1519482604426,0.347412,-0.029541,0.720459
1519482604459,0.768311,-0.209473,0.865234
1519482604467,0.549072,0.005127,0.545654
1519482604522,0.514648,-0.038574,0.673096
1519482604555,0.735596,-0.241455,0.849854
1519482604563,0.586914,0.055420,0.805176
1519482604618,0.611816,0.347656,0.694824
1519482604651,0.125000,-0.151367,1.204834
1519482604684,1.052002,0.380859,0.922852
1519482604716,0.231445,0.181885,1.032959
1519482604749,0.630127,0.084961,0.848877
1519482604781,0.227051,0.076904,0.845947
1519482604814,0.739014,-0.186035,1.118164
1519482604846,0.571533,0.139160,0.942871
1519482604879,0.067383,-0.075684,0.916504
1519482604911,0.630615,-0.188477,1.091553
1519482604952,0.161377,-0.102295,1.208984
1519482604954,0.606934,0.215820,0.772949
1519482605013,0.430664,-0.204102,0.790527
1519482605045,0.486572,-0.571289,0.853271
1519482605047,0.505371,-0.214111,0.992188
1519482605104,0.604248,0.350342,0.706787
1519482605136,0.572754,0.116699,0.578369
1519482605169,0.533447,0.274902,0.686035
1519482605201,0.653320,-0.351074,0.737305
1519482605234,0.557617,-0.107178,0.916260
1519482605266,0.216064,0.012939,1.073486
1519482605299,0.523193,0.261230,0.878174
1519482605331,0.789307,0.149658,0.707520
1519482605348,0.228027,-0.275635,0.854248
1519482605376,0.678223,-0.193359,0.818359
1519482605434,0.298828,-0.021240,1.076660
1519482605466,0.432861,0.057129,1.079346
1519482605499,0.575195,0.186279,0.944580
1519482605531,0.479004,0.122803,0.978516
1519482605533,0.232178,0.183838,0.911865
1519482605590,0.813232,-0.045166,1.023438
1519482605622,0.341553,-0.140625,0.819092
1519482605627,0.570801,0.186768,0.810303
1519482605727,0.626221,-0.062256,0.871094
1519482605728,0.268555,-0.091553,0.878906
1519482605795,0.428467,0.025391,0.974365
1519482605864,0.341309,-0.056885,0.906738
1519482605930,0.807617,0.003418,0.919678
1519482605931,0.279297,0.019531,0.648193
1519482605997,0.521484,0.178711,0.851318
1519482605998,0.660156,-0.212891,0.756836
1519482606065,0.383545,-0.179688,0.750000
1519482606066,0.556152,-0.204102,0.529053
1519482606132,0.596924,-0.441650,0.929932
1519482606133,0.361084,-0.177734,0.833252
1519482606200,0.679199,-0.246094,0.930908
1519482606201,0.531006,-0.028564,0.668701
1519482606232,0.390381,-0.258545,0.774658
1519482606233,0.412354,-0.479004,0.574707
1519482606235,0.356934,-0.108887,1.044678
1519482606248,0.473389,0.072021,0.894287
1519482606250,0.620605,-0.252686,0.977539
1519482606282,0.146484,0.136719,0.847168
1519482606315,0.513184,-0.063232,1.141113
1519482606347,0.325195,0.091309,1.163818
1519482606380,0.559082,0.203125,0.837646
1519482606412,0.377930,-0.132080,0.770752
1519482606445,0.384766,-0.132813,1.111328
1519482606477,0.358887,0.035645,0.865479
1519482606510,0.175293,-0.042480,0.891357
1519482606567,0.447021,-0.039063,0.851318
1519482606572,0.531250,-0.057373,0.969238
1519482606630,0.346191,-0.136963,0.978027
1519482606643,0.435059,0.019775,0.775391
1519482606676,0.172852,-0.098145,1.193115
1519482606708,0.560303,-0.085449,1.109131
1519482606741,0.681152,-0.057129,0.778809
1519482606775,0.259766,-0.061279,0.879883
1519482606807,0.297363,0.202148,0.867920
1519482606841,0.496338,0.125000,0.720703
1519482606873,0.349854,0.150146,0.777832
1519482606908,0.219482,-0.241455,1.204102
1519482606941,0.157227,0.005859,1.177246
1519482606986,0.139160,0.243164,1.050781
1519482606987,0.273193,0.257813,0.789551
1519482607045,0.378418,0.250488,0.802002
1519482607058,0.330811,-0.179199,0.822266
1519482607091,0.114258,0.299316,1.020264
1519482607124,0.554443,0.105957,1.257568
1519482607156,0.636230,0.157715,0.724854
1519482607188,0.188232,-0.170410,0.853760
1519482607221,0.651367,0.163330,0.725342
1519482607253,0.371094,-0.203369,0.988281
1519482607286,0.622559,0.318604,0.721924
1519482607318,0.280273,-0.143555,0.859131
1519482607351,0.431641,-0.233398,1.132324
1519482607384,0.778320,-0.139893,0.947021
1519482607416,0.217041,0.031250,0.868408
1519482607448,0.539063,-0.194092,0.893311
1519482607490,0.331787,-0.006592,0.712891
1519482607522,0.746338,-0.246826,1.101563
1519482607555,0.461914,0.109619,0.787842
1519482607587,0.221680,-0.144775,1.091309
1519482607620,0.589111,0.115723,0.748291
1519482607652,0.281738,-0.213623,0.817139
1519482607653,0.363525,-0.280029,1.072998
1519482607711,0.667725,-0.049805,1.107910
1519482607744,0.534424,0.061523,0.687500
1519482607750,0.346191,-0.118896,0.677734
1519482607808,0.766602,0.181396,0.500244
1519482607840,0.229980,-0.202637,0.913330
1519482607854,0.733887,0.047607,0.749512
1519482607886,0.265869,0.179688,0.890381
1519482607944,0.403809,-0.296875,0.822510
1519482607949,0.405273,0.242432,0.893311
1519482608006,0.672363,-0.366699,0.953613
1519482608039,0.503174,0.232666,0.855469
1519482608071,0.327881,-0.051514,1.002930
1519482608104,0.467041,0.115234,0.856445
1519482608136,0.354736,-0.027832,0.890137
1519482608138,0.381348,-0.071777,0.847656
1519482608195,0.381592,-0.091553,1.028564
1519482608228,0.330078,0.244385,1.009521
1519482608234,0.407471,0.047607,0.930176
1519482608291,0.475586,0.234863,0.850342
1519482608324,0.391602,-0.171875,0.933594
1519482608356,0.565674,-0.301514,1.042480
1519482608389,0.323730,-0.274902,0.842529
1519482608421,0.482666,-0.001709,0.957764
1519482608454,0.527588,-0.053955,0.835449
1519482608486,0.369141,-0.004150,1.058105
1519482608519,0.586914,0.016602,0.852295
1519482608551,0.281982,0.032227,0.808594
1519482608584,0.319336,0.146729,0.921875
1519482608616,0.422119,-0.215088,1.229492
1519482608649,0.492432,-0.041504,0.753418
1519482608681,0.414307,-0.088135,0.942139
1519482608714,0.601563,-0.034180,0.883545
1519482608718,0.344727,-0.086670,0.954346
1519482608775,0.582764,0.168945,0.730713
1519482608780,0.299316,-0.101318,1.027100
1519482608815,0.205322,0.030762,0.876709
1519482608873,0.240723,-0.058105,1.031982
1519482608907,0.580078,-0.098389,0.905029
1519482608938,0.201172,0.055176,1.003662
1519482608946,0.468506,-0.109619,1.033936
1519482609002,0.497070,0.041016,0.756836
1519482609035,0.413574,-0.113770,0.874268
1519482609068,0.355713,-0.322998,0.913086
1519482609101,0.521729,-0.061523,0.939697
1519482609109,0.327881,-0.145020,0.712891
1519482609158,0.462158,-0.148193,0.941650
1519482609192,0.350342,-0.138184,1.055176
1519482609200,0.630127,-0.137207,0.867920
1519482609256,0.391113,-0.003174,0.873535
1519482609289,0.274170,0.047363,1.039307
1519482609321,0.432617,-0.073975,0.903564
1519482609353,0.367676,-0.172119,0.873047
1519482609386,0.405762,-0.051514,0.770996
1519482609419,0.478760,-0.262695,0.889648
1519482609451,0.483398,-0.069336,0.742188
1519482609483,0.448730,0.189209,0.848389
1519482609514,0.478271,0.040771,0.984863
1519482609547,0.566162,-0.152832,0.918945
1519482609579,0.362793,-0.064941,0.698242
1519482609612,0.595703,-0.024414,0.841553
1519482609646,0.520996,-0.040283,0.881348
1519482609677,0.471924,0.078369,0.910400
1519482609683,0.673828,0.088135,0.867920
1519482609736,0.345947,0.021484,0.808594
1519482609770,0.417480,-0.001465,0.722412
1519482609780,0.564697,0.164551,1.221680
1519482609835,0.401367,-0.008057,0.887451
1519482609868,0.406250,0.083252,0.869629
1519482609901,0.458740,-0.067139,0.762451
1519482609933,0.497803,0.150391,1.101563
1519482609966,0.188232,0.066650,0.919189
1519482609998,0.433594,0.138428,1.067139
1519482610032,0.505371,0.070313,0.779053
1519482610064,0.188477,-0.008301,0.813721
1519482610096,0.428467,0.189209,1.157959
1519482610128,0.278564,0.034912,0.883789
1519482610159,0.402344,0.034424,0.879395
1519482610194,0.393555,0.002197,0.950439
1519482610226,0.518555,-0.190674,0.924072
1519482610258,0.604004,-0.075439,0.772217
1519482610261,0.414551,0.153320,0.880127
1519482610317,0.456543,0.099365,0.953125
1519482610351,0.368896,0.255371,1.024902
1519482610383,0.726807,0.315674,0.907959
1519482610416,0.610840,0.201904,1.125000
1519482610448,0.102051,0.512695,0.794189
1519482610479,0.234131,0.076172,0.683350
1519482610512,0.454834,-0.199707,0.905029
1519482610545,0.228027,-0.012695,0.807861
1519482610578,0.180420,-0.012939,0.612305
1519482610612,0.573975,0.151855,1.041748
1519482610643,0.437500,0.251465,1.217041
1519482610676,0.605713,0.152832,0.909668
1519482610747,0.498535,0.114990,1.250977
1519482610754,0.494385,0.249023,0.685303
1519482610815,0.409912,0.171387,0.803711
1519482610819,0.249023,0.082275,0.384033
1519482610882,0.591309,0.107666,1.114990
1519482610884,0.507080,0.115479,1.054443
1519482610950,0.416748,0.039795,0.739746
1519482610955,0.363525,0.309326,1.018311
1519482611017,0.556396,0.096924,0.731689
1519482611022,0.473633,0.078125,0.614014
1519482611086,0.380127,0.077637,1.093994
1519482611101,0.327148,0.061279,0.820801
1519482611153,0.303223,0.125488,0.781250
1519482611156,0.699219,0.189697,1.403564
1519482611220,0.106201,0.463135,0.697998
1519482611226,0.208984,0.404053,0.679688
1519482611261,0.131104,0.231934,1.021240
1519482611277,0.385742,0.085205,0.883789
1519482611294,0.491943,0.144287,0.904053
1519482611298,0.355225,0.159668,0.898193
1519482611328,0.534668,0.308838,1.098633
1519482611387,0.330078,0.118652,0.862061
1519482611393,0.450195,0.082275,0.793701
1519482611445,0.763184,-0.054688,0.899170
1519482611479,0.449707,-0.048096,0.603516
1519482611511,0.585938,0.039551,0.763428
1519482611543,0.487549,0.175537,0.870850
1519482611575,0.478760,0.135498,0.799561
1519482611609,0.482178,0.208984,1.127441
1519482611640,0.329590,0.122803,1.009766
1519482611673,0.666504,0.084229,0.995361
1519482611691,0.226318,0.112793,1.160400
1519482611727,0.591553,0.363525,0.791748
1519482611760,0.544434,0.248779,0.957764
1519482611793,0.321289,0.374512,0.808105
1519482611825,0.510742,0.229492,0.759766
1519482611859,0.336426,0.101807,1.105957
1519482611891,0.290771,0.096436,0.822754
1519482611923,0.449707,0.110596,0.912354
1519482611956,0.449707,0.112793,1.140625
1519482611990,0.466309,0.153076,0.843506
1519482612019,0.178467,0.227783,1.036133
1519482612061,0.824219,0.023926,1.061035
1519482612107,0.286133,0.156250,0.671631
1519482612110,0.586670,-0.008789,0.595703
1519482612142,0.437744,-0.084473,0.719727
1519482612174,0.624756,0.047363,0.596436
1519482612207,0.699219,-0.250977,0.705566
1519482612245,0.498779,-0.180420,0.578369
1519482612278,0.472656,-0.033936,0.625488
1519482612310,0.681641,-0.148438,0.792725
1519482612342,0.395508,-0.203125,0.778320
1519482612375,0.395264,-0.256348,0.802979
1519482612408,0.425537,0.009521,1.052490
1519482612449,0.342041,0.095703,0.967773
1519482612458,0.437500,0.044189,0.989990
1519482612509,0.484863,-0.072266,0.812500
1519482612542,0.606445,-0.051514,1.071777
1519482612550,0.764648,-0.237061,0.654541
1519482612606,0.210693,-0.078613,0.861572
1519482612638,0.363525,-0.049316,0.875244
1519482612671,0.693604,-0.142822,0.806641
1519482612708,0.451660,-0.166016,0.781006
1519482612740,0.518799,-0.249512,0.812988
1519482612772,0.274170,-0.043945,1.089600
1519482612805,0.559082,0.087891,0.822998
1519482612838,0.680908,0.038818,0.648926
1519482612851,0.211426,-0.103760,1.126953
1519482612884,0.681152,0.033447,1.070068
1519482612942,0.487061,0.115723,0.967285
1519482612950,0.589355,-0.123535,1.054199
1519482612979,0.552734,-0.026611,0.677734
1519482613038,0.552979,-0.127197,0.893066
1519482613043,0.410645,0.113037,0.772217
1519482613070,0.503662,0.012939,0.754883
1519482613104,0.503906,-0.052490,0.721436
1519482613136,0.572998,-0.124268,0.884277
1519482613170,0.394531,-0.061768,0.821045
1519482613203,0.478271,0.048096,0.925049
1519482613234,0.463623,0.035400,0.859863
1519482613268,0.559326,0.067383,0.767578
1519482613324,0.546387,0.162598,0.821777
1519482613336,0.330322,0.130615,0.841553
1519482613388,0.263428,0.231689,1.059326
1519482613421,0.259033,0.220459,1.177002
1519482613430,0.409912,0.220703,1.154053
1519482613454,0.247803,-0.033203,0.990967
1519482613486,0.259766,0.184326,1.010498
1519482613518,0.160889,0.179688,1.036133
1519482613550,0.080078,0.231934,0.918945
1519482613583,0.167725,0.216797,0.746582
1519482613615,0.154297,0.127930,0.903076
1519482613657,0.466309,0.144287,0.804688
1519482613689,0.406982,-0.018311,0.889160
1519482613723,0.353027,0.092773,0.856445
1519482613755,0.350342,0.205322,1.015625
1519482613788,0.378662,0.200439,0.962891
1519482613820,0.224854,0.050049,0.934082
1519482613853,0.286621,0.245605,0.998291
1519482613886,0.174072,0.237793,0.995361
1519482613918,0.366211,0.170898,0.957520
1519482613951,0.250244,0.174316,1.032227
1519482613983,0.132324,0.140137,0.970215
1519482614015,0.472900,0.211182,0.950439
1519482614047,0.321045,0.118896,0.990479
1519482614079,0.330078,0.128418,0.764893
1519482614112,0.390625,0.263672,1.041260
1519482614144,0.251953,0.067627,0.852051
1519482614178,0.472412,0.215576,0.926025
1519482614211,0.443359,0.147217,0.966309
1519482614244,0.121094,0.145020,0.788086
1519482614277,0.356689,0.236328,0.935059
1519482614310,0.405029,0.150879,0.856201
1519482614319,0.498535,0.187012,0.934814
1519482614371,0.351074,0.255127,0.794189
1519482614406,0.452881,0.297607,1.035889
1519482614412,0.447021,0.180908,0.695801
1519482614468,0.384033,0.224854,0.883545
1519482614482,0.613281,0.110352,0.912598
1519482614516,0.390625,0.074219,0.744385
1519482614573,0.438232,0.096436,0.773438
1519482614581,0.528320,0.107910,0.774902
1519482614609,0.320068,0.149170,0.822510
1519482614668,0.417236,0.163574,0.963379
1519482614700,0.499023,0.107666,0.805420
1519482614732,0.470703,0.160889,0.716797
1519482614764,0.389404,0.264893,1.052490
1519482614797,0.373535,0.261719,0.842285
1519482614830,0.419922,0.177979,0.931152
1519482614863,0.443359,0.270020,0.861816
1519482614895,0.401855,0.059082,0.792236
1519482614900,0.482666,0.208740,0.859375
1519482614942,0.253174,0.283203,0.912109
1519482614975,0.480713,0.233887,0.836670
1519482615008,0.381104,0.171143,0.890381
1519482615064,0.474609,0.280518,0.923096
1519482615069,0.425781,0.237061,0.885986
1519482615098,0.391846,0.231201,0.732666
1519482615156,0.449951,0.300293,1.001709
1519482615166,0.190186,0.372314,0.857910
1519482615213,0.087891,0.416504,1.102295
1519482615246,0.370361,0.312988,0.727539
1519482615279,0.305420,0.397461,0.978760
1519482615311,0.438477,0.458740,0.878418
1519482615324,0.429932,0.403320,0.981201
1519482615357,0.315430,0.304199,0.917969
1519482615392,0.427002,0.235352,0.729248
1519482615449,0.446289,0.351807,0.862549
1519482615482,0.382568,0.304932,0.774170
1519482615490,0.432617,0.228516,0.877930
1519482615513,0.479004,0.361572,0.928955
1519482615572,0.348633,0.391113,0.841064
1519482615580,0.338379,0.389893,0.959473
1519482615610,0.339111,0.446777,0.904541
1519482615642,0.445801,0.402344,0.864990
1519482615698,0.340576,0.381104,0.641113
1519482615771,0.397949,0.421143,0.789307
1519482615778,0.275879,0.312256,0.847656
1519482615838,0.179199,0.326660,0.850586
1519482615841,0.239258,0.367188,1.097168
1519482615907,0.240479,0.545166,1.051025
1519482615916,0.205566,0.361084,0.871338
1519482615974,0.270508,0.398438,0.975342
1519482615981,0.201660,0.354736,0.950439
1519482616042,0.060059,0.481445,0.865234
1519482616050,0.010986,0.417480,0.918701
1519482616109,0.206299,0.421387,0.936035
1519482616115,0.043945,0.388672,0.966553
1519482616178,0.103027,0.373291,0.895508
1519482616186,0.067383,0.435303,0.865234
1519482616244,0.164063,0.408691,0.831299
1519482616249,0.119141,0.350830,0.894043
1519482616255,0.169189,0.405762,0.905029
1519482616261,0.029541,0.377930,0.928223
1519482616312,0.123047,0.442871,0.962158
1519482616317,0.139648,0.408936,1.089355
1519482616374,-0.112549,0.216064,0.960938
1519482616407,0.158447,0.357422,0.971436
1519482616440,0.085205,0.243408,0.896973
1519482616449,0.200684,0.373047,0.935303
1519482616500,0.108643,0.267334,0.844482
1519482616509,0.290039,0.298828,0.858887
1519482616541,0.298340,0.336670,0.998779
1519482616600,0.029785,0.232178,0.822266
1519482616609,0.490479,0.350586,0.944580
1519482616659,0.219482,0.136475,0.954590
1519482616692,0.275391,0.344971,1.011719
1519482616725,0.384277,0.259521,0.934326
1519482616733,0.319092,0.250488,0.782471
1519482616789,0.293945,0.239258,0.946289
1519482616821,0.457031,0.173096,0.950439
1519482616854,0.488770,0.174316,0.714111
1519482616887,0.576416,0.178223,0.852539
1519482616920,0.243896,0.208496,0.798828
1519482616953,0.485352,0.198975,0.988770
1519482616985,0.287109,0.250977,0.959473
1519482617004,0.364258,0.172119,1.007080
1519482617026,0.433105,0.180176,0.883545
1519482617086,0.595947,0.145508,0.781006
1519482617094,0.592773,0.186279,0.777588
1519482617118,0.335938,0.086426,0.821045
1519482617177,0.423584,0.119629,0.958740
1519482617186,0.491943,0.148682,0.903564
1519482617228,0.253418,0.247070,0.864746
1519482617259,0.510254,0.149658,0.875732
1519482617292,0.426270,0.232666,0.803955
1519482617325,0.477783,0.098633,0.803223
1519482617357,0.333984,0.280273,0.908203
1519482617390,0.459229,0.249756,0.982422
1519482617433,0.473877,0.257813,0.878418
1519482617465,0.349365,0.278564,0.937744
1519482617498,0.364258,0.354980,1.092773
1519482617507,0.428223,0.248535,0.879639
1519482617559,0.321045,0.192383,0.914795
1519482617591,0.303223,0.240479,0.776855
1519482617600,0.373535,0.211670,0.901367
1519482617658,0.416016,0.118896,0.908203
1519482617690,0.168701,0.277588,1.139160
1519482617721,0.203613,0.260254,1.047852
1519482617754,0.356445,0.339111,1.008301
1519482617787,0.281250,0.206055,0.934570
1519482617819,0.340088,0.229248,1.035400
1519482617832,0.386963,0.210205,0.895508
1519482617865,0.207520,0.263672,0.966553
1519482617922,0.511719,0.197266,0.775146
1519482617929,0.254639,0.151367,0.990479
1519482617987,0.410156,0.173096,1.009033
1519482618020,0.225342,0.132080,0.897461
1519482618053,0.392334,0.226074,0.862793
1519482618061,0.567383,0.208008,0.864502
1519482618084,0.066895,0.040527,0.871582
1519482618143,0.420898,-0.130859,0.938965
1519482618148,0.588135,0.233643,0.651367
1519482618202,0.387451,-0.116943,0.900635
1519482618236,0.411133,-0.032227,1.127686
1519482618248,0.296143,-0.007324,0.817627
1519482618306,0.232666,0.059326,1.007324
1519482618316,0.403076,0.012451,0.925537
1519482618367,0.454102,0.098633,0.912598
1519482618400,0.377686,0.027832,0.914551
1519482618434,0.447998,0.002930,0.759766
1519482618466,0.352539,0.051270,0.883789
1519482618469,0.487061,0.004883,0.892334
1519482618533,0.407471,0.048340,0.973633
1519482618565,0.482666,-0.022217,0.948975
1519482618574,0.361328,0.113525,1.003174
1519482618625,0.478027,0.041260,0.905273
1519482618634,0.345215,-0.110107,0.922852
1519482618688,0.549072,0.002441,0.865234
1519482618719,0.447266,-0.096436,0.795166
1519482618730,0.585449,-0.051514,0.906738
1519482618783,0.512207,-0.059814,0.812500
1519482618816,0.537842,-0.192139,0.842285
1519482618847,0.463867,-0.142578,0.802734
1519482618880,0.506836,-0.154053,0.748291
1519482618914,0.501465,-0.252197,0.852051
1519482618946,0.880859,-0.065674,0.772705
1519482618977,0.315674,0.029541,0.928467
1519482619011,0.536621,0.078857,0.876709
1519482619042,0.421387,-0.063477,0.863525
1519482619045,0.468262,-0.010254,1.020996
1519482619114,0.307861,0.195313,0.967529
1519482619148,0.527588,0.114014,0.842773
1519482619156,0.335938,0.199707,0.948975
1519482619205,0.513672,0.140137,1.039307
1519482619214,0.362061,0.098145,0.890137
1519482619268,0.389404,0.131836,0.897217
1519482619301,0.490234,-0.040527,0.797852
1519482619312,0.473145,-0.091797,0.882813
1519482619362,0.396240,-0.023682,0.913818
1519482619396,0.339111,-0.030518,0.817627
1519482619427,0.784424,-0.024902,0.790527
1519482619462,0.353027,0.181152,0.801270
1519482619476,0.426270,0.012207,1.021240
1519482619509,0.599365,0.035889,0.821533
1519482619541,0.538086,-0.087891,0.782227
1519482619574,0.422607,0.104492,0.911865
1519482619632,0.339844,0.067627,0.981445
1519482619640,0.467285,0.093750,1.001709
1519482619690,0.404785,0.148438,0.965332
1519482619693,0.417725,0.177002,0.916992
1519482619724,0.266846,0.177490,0.904541
1519482619788,0.449219,0.183105,0.964355
1519482619805,0.308105,0.230225,0.984375
1519482619845,0.206543,0.108643,0.977539
1519482619879,0.452637,0.057861,0.970459
1519482619892,0.578369,0.262207,0.635986
1519482619925,0.468018,0.249268,0.877930
1519482619958,0.404785,0.094482,0.771729
1519482619990,0.580566,-0.028076,0.947510
1519482620023,0.534424,0.150391,0.721436
1519482620079,0.465576,-0.066650,0.929688
1519482620112,0.497803,-0.060547,0.924561
1519482620120,0.402344,-0.071777,0.877686
1519482620178,0.492432,-0.253906,0.964844
1519482620211,0.441650,-0.157959,0.944092
1519482620219,0.389160,0.077393,0.909668
1519482620245,0.422852,0.084473,0.867676
1519482620277,0.496338,-0.083740,0.923340
1519482620308,0.508301,-0.028809,0.744141
1519482620343,0.525879,-0.107666,0.871582
1519482620373,0.471191,0.161865,1.004639
1519482620409,0.607666,-0.037598,0.877197
1519482620440,0.484131,-0.006836,0.828369
1519482620473,0.607910,-0.233154,0.794678
1519482620507,0.525146,-0.052246,0.749512
1519482620540,0.364502,0.029785,0.831055
1519482620571,0.662354,-0.048584,0.949951
1519482620605,0.506592,-0.248047,0.889648
1519482620663,0.385254,-0.172607,0.707031
1519482620671,0.443604,-0.180176,0.968750
1519482620697,0.444092,-0.098877,0.850342
1519482620768,0.544922,-0.178711,0.916260
1519482620773,0.409668,-0.090332,0.916504
1519482620835,0.500244,0.002930,0.801758
1519482620840,0.563477,-0.100830,0.941162
1519482620902,0.458252,-0.090088,0.907959
1519482620909,0.462158,0.148926,0.835938
1519482620969,0.416260,0.057129,0.930664
1519482620972,0.508057,-0.058105,0.928955
1519482621037,0.384521,0.033447,0.977295
1519482621040,0.347412,-0.003418,0.954102
1519482621104,0.398926,0.020020,0.944336
1519482621175,0.473389,0.081055,0.908936
1519482621243,0.412109,0.069092,0.893555
1519482621260,0.518311,0.042236,0.866211
1519482621267,0.381592,-0.043213,0.904297
1519482621272,0.503906,-0.023682,0.818359
1519482621276,0.432129,-0.089111,0.868652
1519482621279,0.464355,0.032959,0.820557
1519482621326,0.495605,-0.023926,0.885986
1519482621332,0.437988,0.013916,0.935547
1519482621367,0.444336,0.005859,0.802734
1519482621400,0.608398,-0.000488,0.801758
1519482621458,0.447754,0.081055,0.769775
1519482621489,0.600830,-0.246826,0.905518
1519482621497,0.637939,-0.050537,0.760986
1519482621534,0.237305,-0.043701,0.797607
1519482621567,0.476074,0.044678,0.835693
1519482621600,0.493896,0.041504,0.960449
1519482621659,0.475098,0.205078,0.964111
1519482621667,0.416260,0.159424,0.964355
1519482621717,0.400391,0.040771,0.938965
1519482621749,0.480957,0.099609,0.996826
1519482621754,0.331299,-0.014404,0.838135
1519482621808,0.262695,0.163574,0.958008
1519482621840,0.347656,0.112549,1.043945
1519482621873,0.068115,0.245117,0.956787
1519482621906,0.343506,0.207764,1.070801
1519482621914,0.376221,0.285156,1.000488
1519482621949,0.149658,0.197510,1.024170
1519482621984,0.282959,0.128174,1.043213
1519482622016,0.255371,0.121826,0.949707
1519482622072,0.255127,0.222656,0.957275
1519482622106,0.417969,0.285645,0.761230
1519482622115,0.308594,0.119629,0.894043
1519482622169,0.389648,0.329346,0.789063
1519482622202,0.856934,0.175537,0.834473
1519482622235,0.480957,-0.035400,0.406250
1519482622244,0.386475,-0.204834,0.919678
1519482622292,0.546387,-0.062012,0.840088
1519482622347,0.510742,0.001221,0.746338
1519482622350,0.632324,-0.017822,0.808105
1519482622393,0.451172,0.053711,0.801514
1519482622396,0.380615,-0.032227,0.921387
1519482622453,0.429443,0.096924,1.022949
1519482622486,0.433594,0.217773,0.865479
1519482622495,0.528076,0.094727,0.937256
1519482622548,0.389160,0.069824,0.858643
1519482622582,0.457275,0.075684,0.908447
1519482622614,0.449707,-0.022217,0.957764
1519482622646,0.427246,0.082764,0.897705
1519482622679,0.475098,0.213135,1.038818
1519482622682,0.424072,-0.129395,0.851807
1519482622739,0.484863,0.012695,0.914551
1519482622770,0.447510,0.089355,0.769531
1519482622778,0.583740,0.125244,0.841309
1519482622836,0.508057,-0.001953,0.779297
1519482622866,0.543213,-0.095459,0.811279
1519482622899,0.470459,-0.095947,0.875732
1519482622932,0.397949,0.165039,0.897705
1519482622964,0.576172,0.055664,0.860352
1519482622996,0.458008,0.026611,0.814697
1519482623029,0.531738,0.013672,0.875000
1519482623063,0.515381,-0.083008,0.786621
1519482623093,0.409668,0.055664,0.914551
1519482623126,0.597656,0.203857,0.805908
1519482623158,0.452148,0.089600,0.812744
1519482623199,0.534668,0.227539,0.933350
1519482623210,0.504639,-0.002930,0.839355
1519482623259,0.548828,0.132568,1.004639
1519482623262,0.553955,0.144043,0.905518
1519482623296,0.522949,0.184814,0.914795
1519482623353,0.349365,0.159912,0.905518
1519482623359,0.465576,0.262451,0.893799
1519482623416,0.549316,0.203125,0.917236
1519482623450,0.345459,0.135498,0.788574
1519482623482,0.606689,0.093994,0.757568
1519482623514,0.387207,0.037842,0.760498
1519482623546,0.632324,0.152588,0.961670
1519482623580,0.338623,0.187012,0.997314
1519482623593,0.548340,0.098877,0.882080
1519482623627,0.426514,0.105957,0.873047
1519482623661,0.423584,0.159668,0.872314
1519482623693,0.355469,0.138428,0.874512
1519482623725,0.398438,0.174561,0.936523
1519482623758,0.421875,0.182373,0.954834
1519482623790,0.368164,0.147705,0.873535
1519482623849,0.484619,0.107422,1.002686
1519482623857,0.339844,0.144043,0.826172
1519482623881,0.462402,0.004883,0.886230
1519482623938,0.415283,0.187744,0.897705
1519482623942,0.310303,0.015381,0.895752
1519482623972,0.440186,0.013184,0.891846
1519482624032,0.388428,0.223145,0.803467
1519482624062,0.591309,-0.004395,0.835449
1519482624094,0.415771,0.071045,0.933105
1519482624128,0.354248,-0.052979,1.104492
1519482624161,0.385010,-0.023682,0.923828
1519482624194,0.490967,-0.075684,0.869141
1519482624226,0.470703,-0.159668,0.800293
1519482624259,0.418945,-0.171143,0.847412
1519482624268,0.438965,-0.175781,0.902100
1519482624321,0.525391,-0.087891,0.905273
1519482624354,0.452148,-0.093262,0.807373
1519482624357,0.561523,-0.274170,0.849609
1519482624417,0.373535,-0.129639,0.908447
1519482624423,0.610107,-0.103027,0.875977
1519482624482,0.478516,-0.197021,0.781250
1519482624515,0.444824,-0.187500,0.942383
1519482624524,0.598145,-0.111572,0.893555
1519482624576,0.458496,-0.113037,0.816895
1519482624609,0.611084,-0.250977,0.804688
1519482624642,0.567383,-0.075684,0.743408
1519482624673,0.489014,-0.021240,0.788330
1519482624707,0.511230,-0.114746,0.818115
1519482624739,0.540771,-0.089111,0.881104
1519482624772,0.520508,0.013916,0.876465
1519482624804,0.435547,0.250488,0.871582
1519482624836,0.535645,-0.047119,0.935059
1519482624841,0.474121,-0.036377,0.952148
1519482624908,0.465576,0.080566,0.981201
1519482624941,0.499756,0.170654,0.864258
1519482624949,0.527832,0.068848,0.854736
1519482624974,0.421875,0.126709,0.996582
1519482625006,0.486328,0.053467,0.895264
1519482625040,0.446533,-0.128174,0.866211
1519482625072,0.417480,0.134521,0.888672
1519482625104,0.575195,0.009766,0.830566
1519482625136,0.455566,-0.006348,0.892090
1519482625170,0.363770,0.077393,0.834961
1519482625228,0.503906,0.146240,0.880371
1519482625238,0.372070,0.049561,0.901123
1519482625295,0.525146,0.185303,0.845459
1519482625304,0.424072,0.117920,0.722168
1519482625332,0.397461,-0.020264,0.870605
1519482625389,0.522217,0.102051,0.881592
1519482625395,0.360352,0.114990,0.833740
1519482625423,0.658936,-0.086182,0.909668
1519482625456,0.495850,-0.094482,0.804199
1519482625489,0.372314,-0.091309,0.868896
1519482625521,0.541992,-0.011230,0.914307
1519482625552,0.458984,0.086426,0.771973
1519482625584,0.438232,0.039551,1.014893
1519482625627,0.515137,0.025391,0.815918
1519482625660,0.403564,-0.039063,1.032227
1519482625692,0.481201,0.011963,0.940674
1519482625765,0.271729,0.127441,0.895996
1519482625771,0.515625,0.144287,0.964111
1519482625832,0.439941,0.090088,0.887695
1519482625840,0.444580,0.223633,0.746582
1519482625899,0.521729,0.165283,0.833008
1519482625904,0.413818,0.068115,0.924072
1519482625968,0.363037,0.035889,0.857422
1519482625977,0.484863,0.021484,0.843018
1519482626033,0.248291,-0.001953,0.950439
1519482626103,0.373047,0.217285,0.949219
1519482626169,0.374268,0.108887,0.911621
1519482626172,0.508545,0.155762,0.796631
1519482626237,0.492676,0.060059,0.768799
1519482626246,0.458984,0.090088,0.861816
1519482626258,0.463623,-0.013184,0.886475
1519482626268,0.372314,0.094971,1.009521
1519482626275,0.457764,-0.057861,0.925293
1519482626280,0.509277,0.008789,0.804199
1519482626299,0.448975,-0.048584,0.755127
1519482626331,0.510254,-0.028809,0.881104
1519482626365,0.593750,-0.135010,0.821289
1519482626396,0.429932,-0.033447,0.705566
1519482626454,0.610352,-0.009277,0.770264
1519482626463,0.533203,-0.082520,0.927002
1519482626501,0.488525,0.150879,0.921387
1519482626534,0.418457,-0.036377,0.911865
1519482626566,0.500488,0.109375,0.990723
1519482626598,0.449219,0.101563,0.879639
1519482626632,0.430908,0.112549,0.835449
1519482626664,0.778320,0.137207,0.830566
1519482626695,0.416992,-0.059570,0.889160
1519482626728,0.338867,0.182373,0.889648
1519482626761,0.524170,0.047852,0.901123
1519482626793,0.524902,0.119873,0.932617
1519482626826,0.447510,0.179443,0.907715
1519482626859,0.481689,0.156494,0.939453
1519482626872,0.423584,0.144287,0.821289
1519482626928,0.521240,0.133301,0.801514
1519482626961,0.598877,0.093018,0.802979
1519482626968,0.500000,0.368164,1.046387
1519482627020,0.469727,0.272461,1.252441
1519482627053,0.562012,-0.042236,0.953613
1519482627085,0.475586,0.139404,0.703369
1519482627092,0.377686,0.063965,0.944092
1519482627150,0.512451,0.106689,0.997559
1519482627161,0.527588,0.271973,0.871826
1519482627215,0.388916,0.184326,0.879883
1519482627248,0.549072,0.342773,0.830078
1519482627282,0.354980,0.210938,0.868652
1519482627296,0.446777,0.296875,0.878418
1519482627328,0.357910,0.188965,0.948486
1519482627360,0.288574,0.169678,1.044434
1519482627417,0.438232,0.095703,0.937744
1519482627423,0.472412,0.157715,0.833252
1519482627469,0.281494,0.170898,0.774170
1519482627502,0.590332,0.088379,0.912354
1519482627510,0.504883,0.159668,0.644531
1519482627564,0.326172,0.041260,0.996826
1519482627597,0.556641,-0.017334,0.826660
1519482627630,0.444580,0.123535,0.698242
1519482627662,0.642822,-0.108887,0.875000
1519482627684,0.414307,-0.114746,0.832520
1519482627707,0.545410,-0.036865,1.155762
1519482627752,0.740967,0.067139,0.771973
1519482627785,0.339111,0.027832,0.687012
1519482627818,0.464844,0.024414,0.977051
1519482627852,0.595459,-0.114258,0.653564
1519482627883,0.475830,-0.065430,0.733154
1519482627915,0.506104,0.013184,0.939941
1519482627948,0.309814,0.068604,0.909180
1519482627979,0.320557,0.169922,0.835205
1519482628012,0.459961,0.175293,0.794434
1519482628044,0.372803,0.152588,0.884766
1519482628078,0.350098,0.141357,0.884033
1519482628111,0.368652,0.149902,1.058594
1519482628124,0.227539,0.196533,1.090820
1519482628157,0.203369,0.201904,1.121094
1519482628215,0.103027,0.272705,0.913818
1519482628247,0.314697,0.196289,0.977539
1519482628280,0.218750,0.207031,1.083252
1519482628312,0.246826,0.175293,0.849121
1519482628346,0.267578,0.192383,0.960938
1519482628377,0.304688,0.185547,0.901367
1519482628409,0.252930,0.186035,0.860596
1519482628413,0.458740,0.168457,0.936768
1519482628468,0.412354,0.216309,0.888428
1519482628501,0.472168,0.205078,0.933350
1519482628507,0.598145,0.077148,0.751221
1519482628562,0.332031,0.071777,0.975098
1519482628593,0.479004,0.152100,0.876709
1519482628626,0.411865,0.180176,1.005127
1519482628659,0.367920,0.161865,0.958984
1519482628692,0.324951,0.197998,0.988281
1519482628747,0.506592,0.158691,0.841309
1519482628753,0.428223,0.154785,0.979492
1519482628782,0.579590,0.116699,0.824219
1519482628815,0.367432,0.168213,0.855713
1519482628848,0.504883,0.195068,0.941650
1519482628881,0.530029,0.137451,0.712891
1519482628912,0.510498,0.105957,0.912842
1519482628954,0.661865,0.133545,1.008057
1519482628988,0.268799,0.038818,0.907715
1519482628996,0.673828,0.065918,0.773193
1519482629046,0.350830,0.110840,1.027100
1519482629079,0.638428,0.043701,0.918945
1519482629088,0.333984,0.144531,0.765137
1519482629144,0.698486,0.060303,0.911621
1519482629177,0.424316,0.206787,0.910400
1519482629210,0.411621,0.130127,0.846924
1519482629241,0.598877,0.115479,0.699219
1519482629274,0.371338,0.173584,0.931885
1519482629309,0.618164,0.106445,1.016357
1519482629323,0.198486,0.186279,0.739258
1519482629356,0.699219,0.117676,0.987305
1519482629390,0.386475,0.354736,0.889648
1519482629421,0.537598,0.275879,0.851807
1519482629456,0.593506,0.208984,0.841797
1519482629490,0.400879,0.148438,0.948242
1519482629522,0.334473,0.276611,0.805908
1519482629553,0.482910,0.059082,0.989746
1519482629587,0.601563,0.119629,0.741943
1519482629619,0.437012,0.097900,0.927002
1519482629652,0.305908,0.166748,0.885010
1519482629684,0.469727,0.240234,0.851074
1519482629717,0.509277,0.233154,0.883301
1519482629759,0.328857,0.161377,0.826660
1519482629792,0.518555,0.251953,0.866699
1519482629823,0.393555,0.278076,0.800537
1519482629855,0.461670,0.296387,0.885254
1519482629861,0.523438,0.302490,0.895996
1519482629914,0.328369,0.174805,0.855225
1519482629946,0.580566,0.125488,0.902100
1519482629949,0.336914,0.155762,0.875000
1519482630028,0.535889,0.147949,0.870117
1519482630031,0.380127,0.181152,0.733154
1519482630067,0.444336,0.226318,0.809814
1519482630098,0.180420,0.269775,1.141357
1519482630132,0.488770,-0.026611,0.799072
1519482630173,0.617920,0.373779,0.905762
1519482630205,0.252441,-0.011230,0.894531
1519482630238,0.580566,0.281982,0.795898
1519482630270,0.351318,0.128418,0.990479
1519482630306,0.373291,0.182373,0.956543
1519482630338,0.330811,0.141113,0.967285
1519482630369,0.351807,0.266357,0.765381
1519482630402,0.495117,0.181641,0.934326
1519482630434,0.357422,0.168945,0.689209
1519482630438,0.581543,0.158203,0.828369
1519482630495,0.389893,0.035645,0.899170
1519482630527,0.456299,0.131592,0.836670
1519482630536,0.519043,0.068115,0.857910
1519482630588,0.460205,0.037842,0.835938
1519482630622,0.438232,0.073242,0.900146
1519482630655,0.481934,0.101563,0.968994
1519482630686,0.490723,0.139648,0.841064
1519482630757,0.319824,-0.038086,0.940186
1519482630762,0.579102,-0.023926,0.896240
1519482630825,0.476074,0.143555,0.633301
1519482630832,0.635010,0.101074,0.782227
1519482630892,0.456787,0.140869,0.819824
1519482630895,0.535400,-0.175781,0.915283
1519482630960,0.499512,0.013916,0.870850
1519482631096,0.623779,-0.063477,0.800293
1519482631105,0.463867,-0.292480,0.976563
1519482631233,0.460205,-0.019043,0.887939
1519482631237,0.621582,-0.019775,0.772217
1519482631241,0.318359,0.023926,0.794189
1519482631245,0.610352,-0.084473,0.920654
1519482631248,0.357422,-0.040283,0.880371
1519482631251,0.505127,0.006348,0.833008
1519482631254,0.423584,0.033936,0.965576
1519482631257,0.494629,-0.020020,1.077881
1519482631260,0.334229,-0.064453,1.099854
1519482631279,0.349854,0.049072,1.020264
1519482631310,0.406494,-0.002930,0.880615
1519482631368,0.492188,-0.078857,1.021484
1519482631382,0.354004,0.016357,1.020752
1519482631413,0.351318,0.009521,0.975586
1519482631446,0.411133,0.023193,1.039307
1519482631479,0.496826,-0.076904,1.053467
1519482631512,0.448486,0.055908,0.814209
1519482631545,0.531006,0.011230,0.949951
1519482631578,0.560303,0.078369,0.792236
1519482631613,0.392578,0.025879,0.874512
1519482631645,0.430664,0.195801,0.707764
1519482631678,0.412354,0.054932,1.036621
1519482631716,0.751709,0.178711,0.768066
1519482631749,0.258789,0.075684,0.969482
1519482631781,0.576660,0.150879,0.753418
1519482631795,0.287842,-0.035400,1.107666
1519482631829,0.266602,0.064209,0.864502
1519482631862,0.494629,0.096680,0.972412
1519482631893,0.318115,-0.008789,1.053223
1519482631926,0.466797,-0.086670,1.015625
1519482631958,0.409912,0.004150,1.073486
1519482631994,0.520264,-0.012207,0.900879
1519482632052,0.502197,-0.054443,1.076904
1519482632059,0.407959,-0.002441,0.712646
1519482632084,0.187012,-0.074951,1.066895
1519482632145,0.592529,0.073975,0.889648
1519482632153,0.402832,0.015625,0.983643
1519482632176,0.578369,0.091309,0.830078
1519482632210,0.335205,0.003174,1.133545
1519482632267,0.684326,0.232910,0.786133
1519482632276,0.246338,0.327881,0.722412
1519482632331,0.568359,0.094238,0.848633
1519482632362,0.440430,0.160156,0.700928
1519482632394,0.601563,0.105469,1.012939
1519482632428,0.263428,0.209961,0.863037
1519482632461,0.517334,0.239014,0.910156
1519482632494,0.489502,0.183105,0.938477
1519482632525,0.412842,0.184814,0.863770
1519482632559,0.520020,0.250244,0.860107
1519482632567,0.622559,-0.022949,0.831299
1519482632629,0.463379,0.062500,0.931641
1519482632638,0.442627,0.059326,0.848389
1519482632662,0.690674,-0.034912,0.795654
1519482632719,0.201416,-0.091064,0.911133
1519482632726,0.701660,-0.065918,0.938721
1519482632777,0.395020,0.197021,0.676758
1519482632810,0.542236,0.061279,0.856445
1519482632844,0.580078,0.062256,0.864746
1519482632877,0.508789,0.222168,0.803467
1519482632909,0.593018,0.100586,0.768799
1519482632942,0.343750,0.142334,0.846191
1519482632980,0.561768,0.133301,0.984863
1519482633011,0.429443,0.124023,0.815674
1519482633026,0.722900,0.224365,0.891357
1519482633058,0.198975,0.114746,0.778809
1519482633092,0.665771,0.206787,1.005615
1519482633124,0.183594,-0.034912,0.844971
1519482633157,0.720703,0.147461,0.963135
1519482633190,0.429199,0.223877,0.805908
1519482633228,0.615234,0.231445,0.792969
1519482633261,0.321045,0.219971,0.880615
1519482633294,0.631592,0.185547,0.935791
1519482633328,0.191162,0.191650,0.970947
1519482633362,0.599121,0.179688,0.957764
1519482633395,0.353516,0.114746,0.857178
1519482633426,0.652100,-0.039551,1.009033
1519482633440,0.403564,0.078857,0.568848
1519482633474,0.549316,0.172852,0.613037
1519482633506,0.789307,0.039307,0.844971
1519482633540,0.846680,0.024902,0.732910
1519482633574,0.930176,0.162354,0.614502
1519482633605,0.838867,0.212158,0.738770
1519482633638,0.753662,0.319824,0.812744
1519482633670,0.637939,0.438965,0.763672
1519482633705,0.500000,0.431885,0.822510
1519482633737,0.439941,0.418213,0.910400
1519482633794,0.338379,0.511963,0.880859
1519482633799,0.153809,0.620117,0.682129
1519482633827,0.088135,0.538330,0.683838
1519482633871,0.022705,0.717041,0.564697
1519482633904,0.033447,0.890137,0.387451
1519482633939,0.055908,0.955322,0.502197
1519482633971,0.126465,0.705566,0.333984
1519482634005,-0.050537,1.035156,0.601318
1519482634037,-0.060547,0.983887,0.801758
1519482634070,-0.113281,0.938232,0.636963
1519482634104,-0.039795,0.878174,0.848389
1519482634138,0.108643,0.957520,0.984131
1519482634171,0.292480,0.837158,0.721680
1519482634179,0.381348,0.739746,0.611816
1519482634202,0.429932,0.736328,0.533691
1519482634236,0.461426,0.694336,0.476807
1519482634278,0.430176,0.760498,0.473145
1519482634308,0.370361,0.803955,0.516113
1519482634341,0.355713,0.752441,0.551758
1519482634375,0.362793,0.708496,0.521973
1519482634406,0.424805,0.722412,0.593262
1519482634438,0.472900,0.705322,0.628174
1519482634473,0.493408,0.685547,0.614014
1519482634505,0.499756,0.652100,0.603516
1519482634536,0.476807,0.569824,0.616943
1519482634569,0.443848,0.533203,0.611816
1519482634601,0.443604,0.507568,0.633301
1519482634636,0.448730,0.553711,0.672119
1519482634667,0.428467,0.624023,0.640137
1519482634698,0.425781,0.690918,0.631592
1519482634730,0.416016,0.774170,0.608887
1519482634763,0.384277,0.697998,0.568115
1519482634798,0.391113,0.653320,0.571777
1519482634830,0.422363,0.636963,0.609375
1519482634865,0.441162,0.697754,0.612061
1519482634901,0.445557,0.780518,0.603027
1519482634935,0.427246,0.836182,0.548828
1519482634966,0.426270,0.771973,0.504395
1519482634998,0.446045,0.707520,0.536621
1519482635031,0.463867,0.735596,0.556396
1519482635073,0.467773,0.755615,0.537109
1519482635082,0.496338,0.740723,0.540527
1519482635147,0.520264,0.695801,0.544678
1519482635155,0.518311,0.713867,0.544189
1519482635181,0.553223,0.722168,0.582275
1519482635213,0.552490,0.710449,0.531738
1519482635246,0.519287,0.645752,0.488037
1519482635280,0.513672,0.597656,0.508301
1519482635314,0.511719,0.639893,0.527832
1519482635346,0.519043,0.653809,0.521484
1519482635378,0.526367,0.653809,0.524414
1519482635409,0.534668,0.690674,0.555420
1519482635442,0.547852,0.674561,0.559082
1519482635475,0.538574,0.641357,0.541016
1519482635516,0.524414,0.618408,0.560791
1519482635556,0.526611,0.629150,0.581055
1519482635562,0.522705,0.625977,0.558350
1519482635620,0.519775,0.614746,0.577637
1519482635652,0.512207,0.629883,0.587646
1519482635660,0.479248,0.630859,0.535400
1519482635756,0.475586,0.636963,0.554443
1519482635765,0.503174,0.724121,0.566406
1519482635823,0.524902,0.783447,0.526367
1519482635828,0.531738,0.755127,0.511475
1519482635889,0.511719,0.719482,0.526367
1519482635893,0.490234,0.711426,0.580322
1519482635957,0.488037,0.674072,0.649170
1519482635961,0.526367,0.601807,0.664551
1519482636096,0.543945,0.626709,0.622803
1519482636104,0.548096,0.646240,0.572998
1519482636164,0.517334,0.617676,0.554443
1519482636232,0.457520,0.645996,0.535400
1519482636240,0.380371,0.746826,0.505859
1519482636257,0.338623,0.782715,0.499512
1519482636275,0.358887,0.789551,0.537354
1519482636278,0.395020,0.685303,0.567383
1519482636282,0.424561,0.672363,0.561035
1519482636285,0.453125,0.634521,0.560303
1519482636288,0.456543,0.630615,0.574951
1519482636311,0.470215,0.697510,0.524902
1519482636345,0.464844,0.723633,0.526611
1519482636377,0.463623,0.760254,0.587158
1519482636427,0.499756,0.783203,0.570068
1519482636430,0.531738,0.760498,0.520020
1519482636462,0.526123,0.740234,0.480957
1519482636496,0.480225,0.718994,0.484131
1519482636529,0.447998,0.706299,0.495605
1519482636562,0.464355,0.698975,0.553467
1519482636595,0.508545,0.700195,0.623047
1519482636628,0.568115,0.670166,0.648438
1519482636660,0.606934,0.621094,0.608643
1519482636691,0.583984,0.582031,0.538330
1519482636705,0.535156,0.568115,0.502930
1519482636762,0.460205,0.606445,0.543213
1519482636795,0.404785,0.690186,0.542480
1519482636830,0.370850,0.765625,0.537109
1519482636863,0.380859,0.725830,0.538574
1519482636896,0.393555,0.694336,0.527344
1519482636928,0.449463,0.705078,0.560791
1519482636961,0.527100,0.757813,0.574219
1519482636994,0.523438,0.714844,0.512451
1519482637026,0.514404,0.673584,0.525391
1519482637057,0.475830,0.718018,0.543701
1519482637089,0.465332,0.805908,0.558350
1519482637122,0.460205,0.830322,0.539307
1519482637138,0.454834,0.770508,0.529541
