1519672781703,0.765137,0.033936,1.174561
1519672781736,-0.042480,0.156494,0.514160
1519672781769,0.541992,0.260742,1.301270
1519672781800,0.000000,0.558594,1.139160
1519672781836,0.488037,-0.024170,0.989258
1519672781843,0.574219,-0.056152,0.936035
1519672781901,0.806152,0.026123,0.561523
1519672781933,0.941895,0.053955,0.402588
1519672781966,0.747070,0.147461,0.222656
1519672782000,0.444092,0.270508,1.323975
1519672782006,0.382568,-0.190430,0.885986
1519672782064,0.019287,0.159668,1.441406
1519672782098,0.791504,0.307861,1.040527
1519672782113,0.328857,0.810059,0.502197
1519672782146,1.345703,0.464355,0.334717
1519672782178,0.483398,0.513672,0.966064
1519672782209,-0.048828,0.657959,1.368652
1519672782243,0.379150,-0.024658,1.344482
1519672782274,0.285889,0.453613,0.954834
1519672782331,0.438965,0.811035,0.828857
1519672782334,0.617432,0.658936,0.912598
1519672782393,0.191895,0.471680,1.066406
1519672782399,0.197021,0.647949,0.209717
1519672782430,1.165771,0.142090,0.332275
1519672782502,0.437256,-0.497314,0.698486
1519672782508,0.098877,0.195313,0.656738
1519672782535,0.881592,-0.768311,1.629639
1519672782563,0.104492,0.515869,0.965576
1519672782615,0.417969,0.203857,0.684570
1519672782623,0.685303,0.675049,0.831543
1519672782676,0.302734,0.485596,0.987793
1519672782730,0.749268,0.039551,0.883057
1519672782739,0.046631,0.170166,0.998291
1519672782779,1.024658,0.971924,0.422363
1519672782827,0.263672,0.058594,0.792480
1519672782835,0.116211,0.578613,0.587158
1519672782910,0.510498,0.400879,0.290039
1519672782917,1.245850,-0.080811,1.163574
1519672782926,0.821777,0.333008,0.516602
1519672782943,0.816650,0.312744,0.833984
1519672782991,0.138184,0.873779,0.875977
1519672783070,0.242188,0.243896,1.000977
1519672783073,0.065186,1.318604,0.478027
1519672783076,1.262939,-1.404785,1.125488
1519672783107,0.418213,0.166504,0.823730
1519672783154,0.364014,0.775391,1.480225
1519672783189,0.258301,-0.940430,0.510986
1519672783236,0.098633,1.192139,1.033691
1519672783244,0.214844,0.137695,0.767822
1519672783295,-2.015137,1.546875,1.356689
1519672783304,2.103516,0.386719,0.585938
1519672783355,0.423096,0.327881,0.278564
1519672783365,0.261230,0.531006,0.663818
1519672783412,1.759766,-0.640137,0.979980
1519672783446,0.133301,0.844971,0.717773
1519672783452,0.457275,0.909668,0.852295
1519672783510,1.298096,-0.806885,1.116943
1519672783544,-0.575684,0.617432,1.533203
1519672783576,0.666504,0.457520,0.998047
1519672783609,0.295654,1.625977,1.349365
1519672783641,0.395996,-0.218506,0.480469
1519672783675,-0.214111,1.468750,0.583740
1519672783707,0.667969,-0.316162,1.195068
1519672783720,0.511963,0.222412,0.587891
1519672783777,0.375732,0.517578,1.437500
1519672783782,-0.194580,1.307617,0.078857
1519672783837,0.394531,-0.137451,1.248047
1519672783845,0.452881,0.045410,0.582520
1519672783869,0.657959,-0.050537,0.977539
1519672783901,0.316650,0.622314,0.469971
1519672783960,1.328613,0.249023,1.144775
1519672783994,0.638428,0.022461,0.728271
1519672784002,0.439697,0.192383,0.443115
1519672784055,0.184326,0.108398,1.077881
1519672784087,0.499756,0.024902,0.838379
1519672784121,0.395264,0.654785,0.460938
1519672784136,0.721680,-0.301514,1.361572
1519672784168,0.406250,0.390381,0.661621
1519672784199,0.822998,1.032227,0.338379
1519672784232,0.328857,-0.734619,1.075439
1519672784267,-0.953857,1.111816,0.999756
1519672784300,1.079346,-0.950195,1.976563
1519672784334,0.557861,-0.020752,0.775635
1519672784367,0.527100,0.299072,0.474854
1519672784399,0.362549,-0.213623,0.755127
1519672784432,0.639893,0.046875,0.833252
1519672784463,0.073242,0.463867,0.634033
1519672784497,0.886719,-0.228516,0.787598
1519672784530,0.384277,0.595947,0.377930
1519672784562,1.227539,-0.351807,0.339355
1519672784593,0.035645,1.486572,1.422852
1519672784625,1.038818,-1.359619,1.102295
1519672784657,-0.162598,1.278320,0.352051
1519672784690,0.089600,0.500244,1.213379
1519672784722,0.677734,0.439453,0.607178
1519672784755,1.071289,-0.224121,1.162109
1519672784791,0.093750,0.647705,0.770508
1519672784820,0.433838,0.415283,0.879150
1519672784853,0.528564,0.106201,0.605469
1519672784886,0.590820,0.486816,0.846680
1519672784918,0.504150,0.049316,0.550049
1519672784951,0.871338,1.076172,0.658936
1519672784967,0.065430,0.190674,0.661621
1519672784994,0.679688,0.535156,1.086426
1519672785051,0.138184,0.612061,1.052734
1519672785084,0.244141,0.421143,1.027100
1519672785117,0.473145,0.289307,0.684082
1519672785123,0.584473,0.730469,0.776367
1519672785177,0.350586,0.115723,0.791992
1519672785184,-0.073486,0.534668,0.939209
1519672785221,0.337646,0.327637,0.809326
1519672785276,0.527344,1.072510,0.041016
1519672785282,1.359131,-2.435059,1.602295
1519672785337,-0.516357,0.676758,0.283691
1519672785369,0.617676,-0.338623,1.569824
1519672785383,1.261963,-1.538574,1.495850
1519672785416,-0.080811,0.160156,0.580322
1519672785449,0.369629,0.216797,0.600586
1519672785481,1.189453,0.579834,0.986328
1519672785513,0.393799,0.316895,0.663574
1519672785571,-0.637939,0.670410,0.674072
1519672785603,2.927002,0.507080,0.993164
1519672785610,0.234131,0.720947,0.852051
1519672785667,-0.149170,-0.069580,0.494385
1519672785699,0.259033,0.646973,0.831299
1519672785704,1.459473,-0.689209,0.725098
1519672785758,-0.288574,1.382813,1.100098
1519672785764,0.924072,-0.659668,0.600586
1519672785805,1.619873,-0.285889,0.290771
1519672785867,-0.067627,1.116455,0.895752
1519672785872,-1.012939,1.404053,0.503418
1519672785901,4.309326,-1.633789,1.958984
1519672785933,-0.717041,1.279053,1.449463
1519672785965,1.111572,-1.070313,0.748047
1519672785998,0.720703,0.519043,0.531494
1519672786031,0.764160,-0.066895,0.410889
1519672786170,0.097900,0.695557,0.496338
1519672786173,0.585693,0.523926,1.228516
1519672786239,0.410889,0.225830,0.924805
1519672786245,1.502441,-0.520996,1.379883
1519672786309,-0.231934,0.962891,-0.238281
1519672786376,0.383057,-0.063477,0.950684
1519672786381,0.290039,0.577637,0.611328
1519672786441,0.260742,0.702393,1.126709
1519672786444,0.035889,0.405518,-0.254639
1519672786510,1.872803,-0.678223,1.388916
1519672786514,0.821289,-0.304199,1.096191
1519672786568,-0.318359,-0.020020,1.384521
1519672786571,-0.854492,1.210693,0.872070
1519672786574,0.871338,0.236816,0.977783
1519672786578,0.948486,0.439697,0.649170
1519672786580,0.494141,-0.009277,0.755615
1519672786584,-0.109131,0.550049,0.226318
1519672786614,0.656250,-0.333984,1.217773
1519672786647,0.121582,0.210938,0.367432
1519672786681,0.354492,0.293701,0.972412
1519672786721,0.000488,0.050781,0.692627
1519672786727,-0.129150,1.413574,0.020020
1519672786786,2.455811,-1.385742,2.797607
1519672786819,-0.622559,0.208740,1.271484
1519672786824,0.267578,1.250000,0.234131
1519672786880,0.083252,0.068848,0.766846
1519672786911,1.952148,0.129395,0.913574
1519672786944,0.280273,0.469238,-0.050781
1519672786978,1.416260,0.257568,1.266113
1519672787011,1.912354,-0.619141,1.376465
1519672787026,-0.493652,-0.066895,0.766846
1519672787057,-0.874023,1.148682,0.371826
1519672787089,0.720459,0.802979,1.115234
1519672787147,-0.043701,0.319336,0.650635
1519672787153,0.590332,0.634766,1.841797
1519672787183,0.809570,0.282715,0.666748
1519672787216,0.485352,0.684326,0.590088
1519672787247,0.606445,0.448486,0.552490
1519672787280,0.831543,0.360596,0.924805
1519672787312,-0.306396,0.604980,0.697754
1519672787346,1.010498,0.631836,1.289307
1519672787379,-0.141602,0.498779,0.527100
1519672787411,1.442627,-0.298340,1.147705
1519672787444,0.193359,-0.126709,0.666260
1519672787476,0.473633,0.594971,0.876465
1519672787509,0.333984,0.370117,0.799561
1519672787541,0.612793,-0.396729,0.564209
1519672787573,0.357910,-0.035400,0.155029
1519672787605,1.397705,-0.426270,0.983398
1519672787637,0.539795,0.076660,1.118408
1519672787672,0.269287,0.585693,1.238770
1519672787705,0.588867,0.080566,0.759521
1519672787738,0.472168,0.243408,0.885498
1519672787771,0.588623,0.009521,0.732910
1519672787804,0.683105,0.466553,0.778076
1519672787838,0.640869,0.044922,0.684326
1519672787853,0.594971,0.095947,0.794678
1519672787910,0.541992,-0.021729,0.583252
1519672787942,0.469727,0.300537,1.293213
1519672787975,0.130615,0.523926,1.052490
1519672788006,0.702637,0.008545,1.243408
1519672788041,-0.300049,0.790771,1.071777
1519672788072,1.312012,-0.019287,1.313721
1519672788105,0.229248,0.318359,0.812988
1519672788110,0.465576,0.447998,0.507324
1519672788166,0.341309,0.608887,0.433350
1519672788172,0.889404,0.242188,0.816895
1519672788203,0.282715,0.068359,0.529541
1519672788242,0.476318,0.587158,1.156738
1519672788275,0.459717,0.150391,0.871094
1519672788308,0.513428,0.619141,0.924561
1519672788341,0.527832,0.317627,0.655518
1519672788373,0.442871,0.485107,0.880859
1519672788403,0.129883,0.283936,1.074219
1519672788447,0.534180,0.442383,0.755127
1519672788479,0.495361,0.220459,0.944580
1519672788485,0.536865,0.000244,0.637695
1519672788543,0.253906,0.362061,0.805176
1519672788574,1.567383,0.626465,1.427490
1519672788580,-0.148193,0.720947,0.937012
1519672788639,0.398193,-0.523682,0.888428
1519672788653,0.493896,0.991455,1.024902
1519672788685,0.475830,0.027588,0.571289
1519672788717,1.050781,-0.418945,0.686523
1519672788775,0.182617,0.179199,0.480957
1519672788783,1.194824,-0.154053,1.014893
1519672788838,-0.154785,0.492188,1.113281
1519672788871,0.434814,0.357910,1.140625
1519672788905,0.390625,0.076416,0.470459
1519672788938,0.779541,0.185547,0.363525
1519672788968,0.377441,-0.548584,0.720947
1519672788973,0.139404,1.591064,1.929443
1519672789029,0.173340,-0.076172,0.521729
1519672789060,0.994629,0.576172,0.750000
1519672789069,0.211914,0.533447,0.725098
1519672789121,0.575928,-0.259277,0.654297
1519672789155,0.663330,0.174561,0.970703
1519672789187,0.206299,0.231445,0.700684
1519672789221,0.607910,0.284912,0.889404
1519672789253,0.370850,0.188965,0.799561
1519672789286,0.474854,0.209961,0.645264
1519672789319,0.599854,0.858643,0.689209
1519672789351,-0.134766,0.126953,1.516357
1519672789384,0.826172,1.060059,0.802734
1519672789416,0.395264,0.732910,0.640869
1519672789449,0.869141,-0.225342,0.847412
1519672789464,0.134766,0.506592,0.693604
1519672789519,0.597900,0.142334,0.603271
1519672789522,0.515625,0.047119,0.749023
1519672789553,0.409424,0.252686,0.254883
1519672789610,0.526367,-0.177246,0.800537
1519672789613,0.208252,0.370605,0.835449
1519672789681,0.403564,0.110107,0.856445
1519672789684,0.285645,0.614990,0.987549
1519672789715,2.150391,0.074951,1.210449
1519672789774,-0.283936,0.384521,0.771729
1519672789782,0.928223,0.034424,1.374268
1519672789812,0.081055,0.688721,0.921875
1519672789850,0.448486,-0.046387,0.596191
1519672789881,0.577637,0.072021,0.375732
1519672789914,0.541504,0.025146,0.547119
1519672789946,0.513916,0.479492,0.877441
1519672789981,0.605225,0.361328,0.940186
1519672790014,0.635986,0.221436,1.050049
1519672790051,0.360352,0.348145,1.008545
1519672790083,0.116699,0.201660,1.020508
1519672790114,0.105469,0.448730,1.170654
1519672790146,1.051758,-0.098145,0.272461
1519672790179,0.400635,0.481689,0.777588
1519672790212,0.435303,0.100830,0.924805
1519672790245,0.585693,0.334473,0.648193
1519672790262,0.393555,0.381836,0.897217
1519672790318,0.903564,0.072266,0.940918
1519672790351,0.152344,-0.071777,0.653809
1519672790382,0.687012,0.284180,1.320313
1519672790415,0.020264,0.117188,0.788818
1519672790448,0.663574,0.283447,1.018799
1519672790481,0.268311,0.213379,0.678711
1519672790512,0.919922,0.553711,0.693359
1519672790517,0.379395,0.326416,0.488770
1519672790546,0.586914,0.081787,0.850586
1519672790579,0.394531,0.466553,0.833008
1519672790610,0.232422,0.049805,1.071777
1519672790643,0.368652,0.024414,1.123291
1519672790684,0.525146,0.574463,0.864990
1519672790717,0.660400,0.176514,0.763672
1519672790750,0.413818,0.527832,0.781982
1519672790784,0.620605,0.476563,0.958008
1519672790816,0.467773,0.397461,0.789063
1519672790849,0.219482,-0.025391,0.756104
1519672790881,0.859375,0.215088,0.444824
1519672790914,0.414795,0.231445,0.774170
1519672790962,0.784180,0.246094,0.836670
1519672790970,0.412354,-0.150146,0.942383
1519672790999,0.291260,0.000488,0.825195
1519672791097,0.504150,-0.144531,0.886475
1519672791101,0.368164,0.554443,0.830811
1519672791165,0.494629,-0.232910,1.159668
1519672791169,1.433594,-0.276611,0.518066
1519672791234,0.784668,0.336670,0.923584
1519672791242,0.482422,0.111084,0.970947
1519672791301,1.046631,-0.484375,0.805664
1519672791310,0.812500,-0.329834,0.426514
1519672791369,0.103760,0.380615,1.184570
1519672791373,0.822754,0.591309,0.739014
1519672791436,0.445801,-0.128174,1.121338
1519672791441,0.196533,0.473877,0.821533
1519672791502,0.377197,0.419678,0.703613
1519672791506,0.529053,0.621826,1.059082
1519672791568,0.611084,-0.239258,0.753174
1519672791576,0.722412,1.383057,0.557129
1519672791585,0.140137,-0.476563,1.137695
1519672791593,0.704590,0.824463,0.554932
1519672791628,0.516602,0.507080,0.721191
1519672791661,0.778076,0.043945,0.614746
1519672791694,0.449707,0.256836,0.681885
1519672791728,0.462158,0.298828,1.029785
1519672791759,0.406982,0.402832,0.811768
1519672791791,0.945313,-0.178955,0.533936
1519672791823,0.350830,0.415283,0.694580
1519672791856,0.632813,0.359375,0.806396
1519672791865,0.354736,0.401367,0.888916
1519672791914,0.690186,0.365723,1.088135
1519672791929,0.396240,-0.025635,0.989258
1519672791965,0.368896,0.225586,0.502930
1519672792024,0.324463,-0.090088,1.152832
1519672792032,0.328613,0.493652,0.858887
1519672792057,0.671387,0.312256,0.861084
1519672792089,0.397461,0.500244,0.743896
1519672792120,0.791504,-0.234619,0.643799
1519672792178,0.163330,0.546143,0.702148
1519672792189,0.545898,0.120850,0.858154
1519672792241,0.409180,0.405518,0.796143
1519672792274,0.610107,0.149170,1.020996
1519672792308,0.645996,0.640625,0.902588
1519672792342,0.466797,0.028076,0.881104
1519672792350,0.598389,0.250488,0.554932
1519672792385,0.561523,0.171631,0.781738
1519672792418,0.424561,-0.226074,0.720703
1519672792452,0.226318,0.380371,0.941895
1519672792508,0.613525,0.018799,0.907471
1519672792514,0.550293,0.382080,0.954102
1519672792545,0.515869,0.122803,1.135010
1519672792602,0.456543,0.329834,0.910645
1519672792607,0.352783,0.399414,0.964355
1519672792635,0.599121,0.018555,0.646240
1519672792667,0.398438,0.362793,0.916504
1519672792726,0.733154,0.079102,0.629150
1519672792760,0.523193,0.018799,0.706299
1519672792772,0.377930,0.208740,0.897705
1519672792805,0.876953,0.014893,0.887939
1519672792839,0.271729,0.139893,0.979736
1519672792871,0.546143,0.578613,0.687988
1519672792903,0.769531,0.287354,0.647217
1519672792941,0.682373,-0.224121,0.667969
1519672792971,0.966309,-0.104980,1.201416
1519672793003,0.218262,0.189697,1.129150
1519672793036,0.517578,0.208252,0.397949
1519672793069,0.216553,0.312500,0.460449
1519672793101,0.448975,0.241455,0.737061
1519672793134,1.030762,-0.147705,0.952637
1519672793167,0.228760,0.312988,1.249512
1519672793181,0.599121,0.142578,1.122559
1519672793239,0.630127,0.326904,0.520996
1519672793271,0.334717,0.106689,0.754883
1519672793304,0.595459,0.369385,0.800049
1519672793310,0.553955,-0.058838,0.608398
1519672793362,0.741455,0.064941,0.925537
1519672793395,0.518555,0.123779,0.778564
1519672793401,0.657959,0.098633,1.040771
1519672793453,0.328857,0.341309,0.979980
1519672793485,0.437744,0.168457,0.825928
1519672793520,0.795898,0.454346,0.533936
1519672793552,0.425293,0.097412,0.699951
1519672793561,0.453125,0.079346,1.022461
1519672793598,0.488281,0.275146,0.872314
1519672793631,0.539063,0.274902,0.515869
1519672793663,0.672363,0.206055,0.546143
1519672793721,0.533203,-0.047852,0.789795
1519672793754,0.552979,0.276123,1.028320
1519672793760,0.605957,0.155762,0.840088
1519672793817,0.479004,0.190674,0.800537
1519672793851,0.534180,0.036133,0.801758
1519672793884,0.549805,0.179199,0.672607
1519672793889,0.597168,-0.022705,0.942139
1519672793948,0.702148,0.130615,0.818115
1519672793953,0.572266,0.013428,0.826172
1519672793981,0.584717,0.150391,0.861084
1519672794014,0.462402,0.266357,0.727783
1519672794048,0.704102,0.106934,0.495605
1519672794079,0.663330,0.333740,0.655273
1519672794136,0.730957,-0.050049,0.806885
1519672794169,0.305420,0.227295,0.982422
1519672794175,0.433838,0.213135,0.865234
1519672794233,0.547119,0.332275,0.698975
1519672794267,0.658936,0.163818,0.729248
1519672794272,0.343994,0.396484,0.758057
1519672794325,0.598389,0.278076,0.823975
1519672794331,0.586182,0.095947,0.849121
1519672794364,0.476074,0.287842,1.014160
1519672794423,0.211670,0.150391,1.010986
1519672794428,0.603027,0.534180,0.962891
1519672794484,0.479980,0.335205,0.711670
1519672794517,0.539307,0.633301,0.706055
1519672794550,0.767578,0.165283,0.942627
1519672794557,0.214355,0.358154,0.864990
1519672794615,0.435547,0.287354,0.809082
1519672794647,0.417725,0.237793,0.793701
1519672794681,0.713623,0.277344,0.673584
1519672794712,0.400146,0.244141,0.559814
1519672794746,0.687500,0.031494,1.130371
1519672794752,0.461182,0.400391,0.537354
1519672794802,0.902832,0.063477,0.806641
1519672794843,0.571289,0.056641,0.707031
1519672794846,0.236328,0.038574,0.939697
1519672794903,0.457031,0.108154,0.942383
1519672794911,0.258301,0.320801,1.041992
1519672794967,0.638184,0.650391,0.624512
1519672795000,0.843018,0.313232,0.566895
1519672795007,0.660645,0.338135,0.908691
1519672795064,0.361572,0.228271,0.835205
1519672795099,0.523193,0.072998,0.914551
1519672795131,0.023682,0.350342,0.977295
1519672795163,0.781738,0.189209,0.966553
1519672795196,0.391846,0.427490,0.680908
1519672795210,0.845215,0.448730,0.791504
1519672795242,0.650391,0.404785,0.602051
1519672795275,0.343994,0.378662,0.843262
1519672795307,0.416504,0.304688,0.730713
1519672795340,0.313965,0.315186,0.798096
1519672795372,0.297607,0.084473,0.926270
1519672795405,0.094727,0.508057,0.910889
1519672795438,0.588135,0.458984,1.123291
1519672795471,0.464844,0.441162,0.922363
1519672795503,0.493896,0.499023,0.757813
1519672795535,0.311768,0.174316,0.763184
1519672795567,0.583496,0.246826,0.361816
1519672795599,0.642578,-0.208496,0.543945
1519672795641,0.557861,-0.102783,1.000977
1519672795675,0.692627,-0.083252,0.964355
1519672795706,0.449707,0.128662,0.916992
1519672795710,0.385498,0.215820,0.670166
1519672795766,0.538330,0.321289,0.509766
1519672795798,0.682373,0.152100,0.652344
1519672795805,0.667480,-0.173340,0.828125
1519672795863,0.530273,0.023193,1.085449
1519672795896,0.213135,0.115967,0.838623
1519672795914,0.475342,0.482178,0.889648
1519672795946,0.694092,0.062256,0.750000
1519672795979,0.354980,0.391846,0.964111
1519672796012,0.632568,0.330322,0.888672
1519672796085,0.399414,0.187256,0.755859
1519672796090,0.435303,0.283447,0.949463
1519672796152,0.746582,-0.188232,0.714355
1519672796157,0.678955,0.055908,0.990234
1519672796185,0.381836,0.126465,0.733154
1519672796218,0.541748,0.282471,0.863281
1519672796252,0.522217,0.151855,0.745850
1519672796283,0.827393,-0.110840,0.963135
1519672796289,0.241211,0.066895,0.937256
1519672796361,0.381592,0.319092,0.935791
1519672796367,0.634521,0.227783,0.626221
1519672796429,0.601563,-0.052490,0.731934
1519672796496,0.646729,0.046387,0.959961
1519672796563,0.346680,0.035156,0.819580
1519672796568,0.352051,0.194336,0.843506
1519672796632,0.660889,0.379639,0.794434
1519672796638,0.683105,0.009277,0.417236
1519672796643,0.603027,0.576660,1.033203
1519672796649,0.287842,0.064941,0.812256
1519672796676,0.479492,0.411377,1.026367
1519672796680,0.645996,0.214844,0.747314
1519672796736,0.678711,0.085693,0.689697
1519672796740,0.247070,0.203857,1.006104
1519672796771,0.201416,0.472412,0.974365
1519672796830,0.782959,0.238281,0.852783
1519672796844,0.815674,0.093506,0.933594
1519672796876,0.275391,0.236816,0.833740
1519672796908,0.655029,0.281494,0.730713
1519672796941,0.378418,0.343994,0.732910
1519672796974,0.714844,0.268311,0.609619
1519672797007,0.577148,0.218506,0.869385
1519672797039,0.472168,0.214111,0.839111
1519672797072,0.569336,0.285156,0.718750
1519672797103,0.430176,0.336914,0.804443
1519672797136,0.706299,0.173096,1.118652
1519672797169,0.395508,0.207764,0.735352
1519672797201,0.665039,0.559570,0.744629
1519672797234,0.544189,0.585449,0.756104
1519672797250,0.422607,0.611816,0.795898
1519672797306,0.515869,0.116699,0.595215
1519672797362,0.619873,0.203613,0.851563
1519672797367,0.531006,-0.048096,1.057129
1519672797396,0.722412,0.447998,0.937256
1519672797428,0.569580,0.092773,0.844238
1519672797461,0.371582,0.443359,0.418701
1519672797493,0.572998,0.075684,0.699707
1519672797525,0.316650,0.240234,0.522461
1519672797557,0.658447,0.070801,1.021973
1519672797590,0.622314,0.419922,0.833008
1519672797622,0.717285,0.089355,0.975586
1519672797654,0.273682,0.368408,0.716309
1519672797695,0.651367,0.359131,0.758057
1519672797699,0.429932,0.091797,0.541992
1519672797736,0.445313,0.060547,0.786865
1519672797794,0.571533,0.270264,0.625977
1519672797799,0.678711,0.145996,0.769287
1519672797851,0.711914,0.281250,1.031250
1519672797885,0.689209,0.144775,1.018066
1519672797917,0.379150,0.240234,0.854004
1519672797950,0.477051,0.322754,0.615967
1519672797983,0.628906,0.068604,0.613525
1519672798015,0.466064,0.300293,0.740723
1519672798048,0.572510,0.131836,0.902832
1519672798065,0.678955,0.020508,0.926025
1519672798121,0.840088,-0.421875,0.784180
1519672798126,0.217041,0.276855,0.887451
1519672798180,0.494873,0.264893,0.750977
1519672798212,0.617676,0.166748,0.671387
1519672798218,0.422119,0.336914,0.835449
1519672798273,0.602783,0.174316,0.913330
1519672798305,0.535400,0.267090,0.792236
1519672798337,0.513672,0.158936,0.890381
1519672798370,0.537598,0.298340,0.745850
1519672798379,0.454834,0.290039,0.762939
1519672798435,0.401123,0.125488,0.891602
1519672798465,0.585205,0.119873,0.638428
1519672798479,0.361084,0.109863,0.665039
1519672798537,0.956055,0.089844,0.882080
1519672798543,0.372559,0.332031,0.758789
1519672798602,1.095459,-0.396484,0.597168
1519672798641,0.511230,-0.243896,0.355469
1519672798646,0.504639,-0.157959,0.875977
1519672798677,0.394531,0.027832,0.836914
1519672798715,0.592773,0.191406,0.735107
1519672798748,0.576172,0.084717,0.716309
1519672798781,0.678955,0.128418,0.954346
1519672798813,0.446777,0.241699,0.894775
1519672798846,0.511475,0.101563,0.822754
1519672798878,0.446289,0.096436,0.791260
1519672798895,0.726074,-0.085205,0.684326
1519672798951,0.515381,0.321533,0.774170
1519672798960,0.671387,0.264160,0.719971
1519672799018,0.546387,0.220703,0.977051
1519672799051,0.905273,0.018066,0.757324
1519672799081,0.854736,-0.284668,0.567139
1519672799086,0.233154,0.202637,1.192139
1519672799139,0.694336,0.216064,0.943115
1519672799172,0.676758,0.156738,0.716797
1519672799177,0.629395,0.244873,0.782227
1519672799231,0.521240,0.190918,0.875732
1519672799265,0.347412,0.399170,0.944092
1519672799298,0.666504,0.466553,0.900635
1519672799311,0.376465,0.462891,0.967041
1519672799343,0.401123,0.632568,0.707764
1519672799376,0.574951,0.443115,0.711182
1519672799409,0.539795,0.383057,0.726807
1519672799464,0.527588,0.375977,0.803223
1519672799496,0.674805,0.140869,0.795410
1519672799529,0.552246,0.107910,0.506836
1519672799562,0.396240,0.166992,1.036865
1519672799599,0.529053,0.282715,0.895020
1519672799627,0.458740,0.184814,0.728516
1519672799661,0.671631,0.514893,0.603027
1519672799667,0.463867,0.351807,0.791992
1519672799701,0.806396,0.402100,0.561523
1519672799743,0.432617,0.341064,0.961670
1519672799777,0.469238,0.266357,0.920898
1519672799810,0.441162,0.040771,0.722656
1519672799842,0.604248,0.020020,0.552979
1519672799874,0.800781,-0.032227,0.724365
1519672799921,0.329102,0.220215,0.586182
1519672799925,0.639404,0.039551,1.101563
1519672799957,0.494873,-0.032959,1.152100
1519672799990,0.605713,0.520508,0.827637
1519672800023,0.647461,0.324951,0.827148
1519672800055,0.700928,0.280762,0.715576
1519672800113,0.477051,0.070313,0.839844
1519672800116,0.527588,0.230469,0.726318
1519672800159,0.623535,0.027100,0.862793
1519672800191,0.816162,0.100098,0.706299
1519672800224,0.468994,0.330322,0.698242
1519672800256,0.484863,0.147217,0.761230
1519672800289,0.401367,0.141602,0.774658
1519672800322,0.524658,0.199951,0.680420
1519672800355,0.464355,0.071777,0.948975
1519672800389,0.815918,0.191895,0.730713
1519672800421,0.619629,0.013428,1.082520
1519672800453,0.523193,0.068604,0.771973
1519672800486,0.419922,0.289551,0.976807
1519672800519,0.658936,0.058594,0.898193
1519672800521,0.373291,0.337891,0.787354
1519672800590,0.865967,0.212402,0.639160
1519672800624,0.431641,0.083984,0.876465
1519672800629,0.306152,0.504639,0.811279
1519672800686,0.598145,0.239746,0.755127
1519672800689,0.466797,0.316650,0.836182
1519672800745,0.503662,0.254150,0.893066
1519672800750,0.751709,0.316895,0.634766
1519672800807,0.448486,0.229492,0.726807
1519672800841,0.598877,0.381348,0.619629
1519672800874,0.658691,0.202881,0.936768
1519672800905,0.387451,0.506836,0.372070
1519672800937,1.093994,0.086914,0.775391
1519672800951,0.026123,0.328369,0.877441
1519672800984,0.176758,0.272705,1.202881
1519672801017,0.492920,0.206787,0.921143
1519672801089,0.409424,0.685547,1.038330
1519672801093,0.345215,0.473633,0.857178
1519672801156,0.653809,0.628174,0.800781
1519672801160,0.404297,0.425049,0.592041
1519672801224,0.677490,0.554688,0.649902
1519672801227,0.635010,0.074463,0.762695
1519672801291,0.220215,0.226807,0.657959
1519672801295,0.612061,0.281494,0.760010
1519672801359,0.552246,0.193604,0.510254
1519672801427,0.852783,0.152832,0.762451
1519672801494,0.479736,-0.049072,0.827881
1519672801496,0.732178,0.241699,0.920166
1519672801561,0.238037,0.452881,0.887939
1519672801564,0.498779,0.285400,1.014893
1519672801589,0.387695,0.079346,0.504639
1519672801592,0.723633,0.331055,0.508057
1519672801594,0.385010,0.007324,0.856689
1519672801597,0.715576,0.023682,0.699463
1519672801651,0.505615,0.180908,0.766846
1519672801654,0.544678,0.111328,0.782959
1519672801685,0.665527,0.090820,0.972168
1519672801718,0.359131,-0.048340,0.801025
1519672801750,0.494385,0.072021,1.013428
1519672801783,0.399658,-0.102539,0.923340
1519672801815,0.703369,0.031738,0.787842
1519672801847,0.228760,0.319336,0.811523
1519672801905,0.779053,0.337402,0.732666
1519672801938,0.887207,-0.072266,0.717773
1519672801946,0.416016,-0.025146,0.782959
1519672802001,0.513672,0.086426,0.866699
1519672802034,0.400146,0.151855,0.881104
1519672802037,0.408936,0.160889,0.802246
1519672802067,0.821289,0.184570,0.811523
1519672802102,0.695313,0.244873,1.369385
1519672802134,0.854736,-0.152588,0.516357
1519672802167,0.437988,0.088379,0.489746
1519672802207,0.786621,0.379395,0.119873
1519672802240,0.430908,0.262207,1.131836
1519672802273,0.656250,0.129639,1.451172
1519672802306,0.654785,0.282959,0.544434
1519672802339,0.636230,0.364502,0.487061
1519672802376,0.662842,0.225342,0.440918
1519672802410,0.642822,0.262207,0.846680
1519672802443,0.532227,0.111084,0.887451
1519672802446,0.624023,0.110107,0.803955
1519672802515,0.290039,0.445313,0.619629
1519672802518,0.867432,0.174072,0.625732
1519672802574,0.579346,0.279541,0.687256
1519672802625,0.775879,0.200439,0.717773
1519672802629,0.298828,0.554443,0.833252
1519672802673,0.637939,0.344727,0.603271
1519672802679,0.764648,0.093506,0.767822
1519672802734,0.640869,0.327637,0.784912
1519672802788,0.592773,0.154541,0.678467
1519672802791,0.594482,0.386230,0.792236
1519672802834,0.733154,0.173828,0.781250
1519672802873,0.333740,-0.055420,1.134521
1519672802922,0.172119,0.517090,1.017822
1519672802930,0.857178,0.488037,0.780762
1519672802954,0.409912,0.289307,0.729248
1519672803004,0.488525,0.454346,0.607178
1519672803018,0.577148,0.045898,0.645020
1519672803084,0.595947,0.283203,0.692871
1519672803093,0.569580,0.121338,0.884521
1519672803164,0.489014,0.182373,1.094727
1519672803167,0.631104,0.050781,0.922607
1519672803170,0.438721,0.081299,0.898438
1519672803199,0.553223,0.338623,0.604492
1519672803246,0.488037,0.388672,0.834717
1519672803283,0.639404,0.113037,0.905518
1519672803335,0.603760,-0.043457,0.987305
1519672803344,0.315186,0.392334,0.854004
1519672803369,0.549805,0.154297,0.542725
1519672803400,0.648926,0.213867,0.364258
1519672803408,0.774902,-0.031250,1.124023
1519672803472,0.669678,0.156494,0.595459
1519672803476,0.780273,0.125000,0.713623
1519672803511,0.691162,0.375732,0.760254
1519672803570,0.636230,0.104980,0.835205
1519672803572,0.485107,0.153320,0.894775
1519672803629,0.554932,-0.020752,0.387451
1519672803662,0.619385,-0.030029,0.762939
1519672803694,0.469727,0.310791,0.945557
1519672803728,0.918213,-0.128418,0.718994
1519672803762,0.393799,0.277832,0.645752
1519672803795,0.851318,0.279297,0.802979
1519672803826,0.636963,0.007080,0.619873
1519672803840,0.733154,-0.147949,0.549561
1519672803898,0.548340,0.233154,0.948486
1519672803903,0.972412,-0.020264,0.765381
1519672803957,0.733643,0.150391,0.971924
1519672803991,0.591797,0.182129,0.933350
1519672803999,0.635010,0.149658,0.802490
1519672804050,0.635254,-0.170166,0.610107
1519672804057,0.404785,0.288086,0.757813
1519672804115,0.653809,0.181885,0.635254
1519672804147,0.527344,0.227051,0.585449
1519672804155,0.834229,0.104248,0.520264
1519672804212,0.789795,0.016357,1.002441
1519672804243,0.699951,0.054443,0.813232
1519672804257,0.544434,0.245117,0.684814
1519672804314,0.647705,-0.052246,0.629639
1519672804319,0.498047,0.073242,0.622803
1519672804378,0.704346,0.222412,0.605957
1519672804411,0.494141,0.480469,0.751953
1519672804443,0.857178,-0.007080,0.792725
1519672804452,0.525635,-0.000732,0.566650
1519672804482,0.617188,0.130127,0.763916
1519672804513,0.497070,0.211426,0.662598
1519672804544,0.805664,0.006592,0.701416
1519672804577,0.607910,0.173584,0.796387
1519672804609,0.513916,0.083496,0.809814
1519672804647,0.692627,0.169922,0.678467
1519672804680,0.522461,0.255615,0.849609
1519672804713,0.727783,0.349365,0.719238
1519672804746,0.739502,0.227783,0.794678
1519672804778,0.674072,0.299316,0.653809
1519672804810,0.518066,0.355225,0.973389
1519672804842,0.346436,0.241211,1.177246
1519672804875,0.499756,0.514648,0.826660
1519672804907,0.496338,0.574463,0.793701
1519672804940,0.696289,0.513184,0.837891
1519672804974,0.297363,0.415771,0.901855
1519672805006,0.569092,0.870361,0.517334
1519672805042,0.866943,0.187012,0.555176
1519672805055,0.409912,0.108154,0.786621
1519672805086,0.586914,0.317139,0.881104
1519672805120,0.863525,-0.026367,0.789795
1519672805153,0.481445,-0.014648,0.796143
1519672805185,0.736084,-0.067383,0.809082
1519672805218,0.439697,0.148438,0.484375
1519672805276,0.707520,0.212402,0.546143
1519672805308,0.662109,-0.192871,0.777100
1519672805317,0.576172,0.304932,0.660400
1519672805372,0.726318,-0.028564,1.144775
1519672805405,0.324951,0.059814,1.075439
1519672805437,0.548828,0.379150,0.694336
1519672805440,0.654297,0.405029,0.749268
1519672805482,0.439209,0.198730,0.668945
1519672805515,0.602295,0.353760,0.615234
1519672805546,0.642578,0.020752,0.677246
1519672805579,0.666016,0.050293,0.887207
1519672805613,0.830811,-0.036133,0.857178
1519672805644,0.447021,0.026367,0.873291
1519672805679,0.556396,0.173584,0.284912
1519672805712,0.666992,0.062012,0.675537
1519672805745,0.347900,0.237061,0.657715
1519672805778,0.840088,-0.142334,0.851318
1519672805809,0.683594,0.027100,0.675537
1519672805816,0.592773,0.091064,1.022949
1519672805875,0.388428,0.417236,0.619873
1519672805906,0.858887,0.137695,0.954834
1519672805914,0.307861,0.422119,0.778564
1519672805973,0.438721,0.377930,0.963623
1519672805980,0.671143,0.272705,0.873291
1519672806077,0.762939,0.199463,0.738037
1519672806083,0.509033,0.268555,0.640625
1519672806145,0.493164,0.609375,0.653809
1519672806212,0.961182,0.222900,0.724854
1519672806215,0.571045,0.440918,0.760254
1519672806279,0.345215,0.073975,0.619873
1519672806282,0.593750,0.341064,0.865479
1519672806348,0.598145,0.078613,0.584717
1519672806356,0.643555,0.318359,0.895264
1519672806417,0.662598,0.019531,0.571533
1519672806425,0.599365,-0.054688,0.499268
1519672806483,0.457275,0.423828,0.861084
1519672806488,0.605469,0.329590,1.066406
1519672806550,0.359131,0.156250,0.856445
1519672806554,0.582520,0.403564,0.919189
1519672806586,0.525391,0.381592,0.784668
1519672806590,0.994629,0.274170,0.611328
1519672806593,0.453613,0.207764,0.651367
1519672806596,0.783203,0.083496,0.935547
1519672806655,0.449219,0.259033,0.724121
1519672806685,0.581787,0.234863,0.643066
1519672806700,0.665771,0.326416,0.933594
1519672806736,0.678223,0.205811,0.814453
1519672806770,0.492432,0.177734,0.474121
1519672806802,0.833984,0.071289,0.611328
1519672806835,0.821045,0.097656,0.802246
1519672806866,0.333008,0.265869,0.716553
1519672806902,0.504883,0.170898,0.728516
1519672806935,0.799072,0.238037,0.902100
1519672806965,0.533691,0.354248,0.898682
1519672806998,0.513672,0.072266,0.731689
1519672807032,0.737061,0.428711,0.750000
1519672807064,0.651611,0.146484,0.729248
1519672807096,0.523926,0.407227,0.688477
1519672807109,0.670654,0.040771,0.911133
1519672807142,0.481934,-0.105225,0.485107
1519672807188,0.479248,0.398193,0.716797
1519672807222,0.640869,0.346436,0.821777
1519672807254,0.811035,0.095947,0.936035
1519672807262,0.310791,0.151123,0.863281
1519672807320,0.662598,0.299561,0.686523
1519672807354,0.590820,0.207764,0.394043
1519672807359,0.468994,0.282715,0.762451
1519672807423,0.248047,0.474365,0.518066
1519672807432,0.711670,0.433594,0.931885
1519672807485,0.603271,0.034424,0.825439
1519672807516,0.423584,0.317627,0.903564
1519672807530,0.573486,0.067627,0.566162
1519672807562,0.601318,0.163086,0.586670
1519672807600,0.764893,0.171387,1.026123
1519672807632,0.602539,0.047363,1.064697
1519672807666,0.171875,0.323242,0.838135
1519672807698,0.521240,0.646240,0.554443
1519672807731,0.706787,0.039795,0.873047
1519672807768,0.430664,0.363037,0.810303
1519672807800,0.716553,0.169922,0.816406
1519672807809,0.608643,0.410400,0.874756
1519672807865,0.594971,0.557617,0.332520
1519672807898,0.697021,0.082275,0.737549
1519672807907,0.590332,0.069336,0.641602
1519672807945,0.434326,0.133057,1.022949
1519672807977,0.685791,0.079834,0.850098
1519672808011,0.473877,0.302246,0.516846
1519672808046,0.788086,-0.071533,0.841553
1519672808078,0.593994,0.125244,0.715332
1519672808112,0.616211,0.220703,0.861084
1519672808145,0.584229,0.247070,0.836182
1519672808177,0.621094,0.115967,0.562012
1519672808210,0.481689,0.318115,0.687012
1519672808242,0.740967,0.080322,0.872314
1519672808301,0.586670,0.389648,0.780029
1519672808309,0.479736,0.378174,0.791016
1519672808340,0.798828,0.209717,0.799561
1519672808381,0.631104,-0.053223,0.913330
1519672808414,0.562744,0.328125,0.935059
1519672808448,0.558350,0.394531,0.493408
1519672808480,0.535156,0.068359,0.550781
1519672808512,0.565674,0.241211,0.987793
1519672808523,0.844971,0.226807,0.666260
1519672808575,0.516846,0.254639,0.812012
1519672808607,0.795166,-0.087158,0.575195
1519672808640,0.443848,0.492188,0.678711
1519672808673,0.685059,0.089600,0.891602
1519672808705,0.553223,0.174561,0.905762
1519672808737,0.607422,0.016602,0.260254
1519672808772,0.375488,0.307861,0.618896
1519672808790,0.800537,0.125732,0.620850
1519672808822,0.814697,-0.183105,1.021240
1519672808855,0.721191,-0.064697,0.889404
1519672808881,0.311768,0.206543,1.056641
1519672808913,0.507080,-0.085938,0.878662
1519672808945,0.540039,-0.001953,0.872314
1519672808977,0.604980,0.126709,1.032227
1519672809011,0.425537,0.389160,0.909668
1519672809045,0.817139,0.234619,0.979004
1519672809082,0.478516,0.100342,0.866455
1519672809113,0.726074,0.229248,0.703857
1519672809146,0.413574,0.016357,0.645020
1519672809179,0.333008,0.315674,0.736328
1519672809195,0.669678,0.199463,0.817627
1519672809252,0.503174,0.302002,0.857178
1519672809255,0.805908,0.109131,0.761475
1519672809288,0.659668,0.156738,1.044922
1519672809347,0.513184,0.392822,0.682861
1519672809352,0.686035,0.297363,0.787598
1519672809410,0.751953,0.196533,0.619141
1519672809442,0.899902,-0.076660,0.170898
1519672809475,0.384766,0.228271,0.618408
1519672809508,0.558105,0.301758,0.860352
1519672809541,0.534180,0.109131,0.869385
1519672809570,0.717773,0.157715,0.815430
1519672809603,0.792236,0.091064,0.576904
1519672809617,0.579346,0.057129,0.896729
1519672809674,0.388672,0.277832,1.040527
1519672809677,0.413818,0.322510,0.854980
1519672809734,0.795898,0.399902,0.697021
1519672809768,0.464600,0.318115,0.871094
1519672809776,0.472412,0.366455,1.032227
1519672809826,0.352051,0.623535,1.069824
1519672809858,0.726563,0.658447,0.671875
1519672809891,0.787842,0.513916,0.680908
1519672809924,0.371094,0.270752,0.579102
1519672809960,0.466064,0.365723,0.838135
1519672809968,0.392822,0.249756,0.881592
1519672810024,0.464844,0.115967,0.865967
1519672810037,0.373535,0.144775,0.631836
1519672810069,0.484375,0.249268,0.863281
1519672810102,0.483643,0.539795,0.926758
1519672810136,0.559326,0.244873,0.931641
1519672810165,0.420410,0.305908,0.822998
1519672810221,0.722412,0.298828,0.635010
1519672810228,0.735352,0.155762,0.588379
1519672810263,0.685303,0.314209,0.877686
1519672810295,0.491943,0.173584,0.804932
1519672810327,0.456055,0.026123,0.729248
1519672810361,0.496826,0.051514,1.033447
1519672810393,0.510498,0.280762,0.724609
1519672810425,0.625000,0.145996,0.764648
1519672810467,0.613525,-0.167725,0.670166
1519672810501,0.417480,0.021973,0.834717
1519672810534,0.408691,0.115479,0.827393
1519672810565,0.400391,0.083008,0.750732
1519672810597,0.490234,0.304932,0.967773
1519672810630,0.742432,0.153076,0.901123
1519672810635,0.485840,0.202393,0.884766
1519672810689,0.659424,0.121826,0.927490
1519672810722,0.412354,0.233887,0.865967
1519672810730,0.516846,0.320801,0.859131
1519672810784,0.448730,0.170410,0.735352
1519672810820,0.566406,0.264648,0.905762
1519672810853,0.623535,0.159424,0.669678
1519672810867,0.610596,0.208740,0.824219
1519672810900,0.543701,0.388916,0.958740
1519672810932,0.333740,0.262939,0.885254
1519672810966,0.506348,0.382324,0.715088
1519672810999,0.516357,0.290771,0.763916
1519672811031,0.518311,0.355957,1.124756
1519672811103,0.302734,0.287598,1.056885
1519672811111,0.687988,0.143799,0.750244
1519672811169,0.444336,0.409424,0.729248
1519672811172,0.501221,0.545654,0.878906
1519672811239,0.386230,0.447510,0.901367
1519672811248,0.386719,0.265625,0.867432
1519672811306,0.370850,0.418213,0.941895
1519672811374,0.480469,0.089355,0.942627
1519672811442,0.471191,0.182373,0.833984
1519672811449,0.371826,0.704102,0.729004
1519672811508,0.822510,0.299561,0.934570
1519672811516,0.522705,0.065674,0.635010
1519672811574,0.471436,0.306641,0.747070
1519672811578,0.259766,0.202637,0.808105
1519672811594,0.718262,-0.018799,0.743896
1519672811597,0.373535,0.299316,0.808105
1519672811600,0.729980,0.409424,0.868896
1519672811603,0.514648,0.110840,0.721436
1519672811655,0.464600,0.418945,0.766113
1519672811662,0.479004,0.158936,0.836670
1519672811694,0.276367,0.319824,0.840332
1519672811762,0.611084,0.179932,0.706299
1519672811770,0.372559,0.457764,0.852783
1519672811796,0.398438,0.224121,0.952881
1519672811829,0.145996,0.251709,1.016602
1519672811886,0.374023,0.370361,0.817139
1519672811895,0.508545,0.398926,0.762207
1519672811946,0.388672,0.384521,0.843262
1519672811979,0.413574,0.315430,0.854248
1519672812011,0.310791,0.113281,0.928223
1519672812045,0.410889,0.320068,0.909668
1519672812077,0.525635,0.157715,1.034424
1519672812083,0.107910,0.437256,0.957764
1519672812142,0.498291,0.269775,0.823242
1519672812175,0.402832,0.082031,0.750977
1519672812181,0.459229,0.285156,0.687500
1519672812236,0.556152,0.305908,0.657227
1519672812242,0.639404,0.111084,0.684814
1519672812299,0.772217,-0.226563,0.799805
1519672812305,0.420654,0.033203,0.990967
1519672812362,0.203125,0.237305,1.008301
1519672812395,0.226807,0.488525,1.045410
1519672812430,0.350342,0.459717,0.734375
1519672812462,0.677979,0.478027,0.744385
1519672812493,0.943848,0.227295,0.718506
1519672812527,0.456787,0.357422,0.970703
1519672812540,0.585449,0.223389,0.873779
1519672812572,0.234619,0.627686,0.850586
1519672812630,0.682617,0.229004,0.820313
1519672812641,0.226563,0.381836,0.583252
1519672812665,0.674072,0.369629,0.812988
1519672812720,0.488770,0.241211,0.730225
1519672812723,0.519775,0.290771,1.092529
1519672812754,0.468750,0.442383,0.826416
1519672812813,0.540039,0.513672,0.767822
1519672812846,0.311768,0.416016,0.788330
1519672812879,0.578857,0.368164,0.918945
1519672812911,0.447266,0.414063,0.789063
1519672812942,0.637451,0.409668,0.902100
1519672812957,0.294922,0.520996,0.662109
1519672812989,0.715576,0.308350,0.681396
1519672813048,0.667236,0.294922,0.760010
1519672813055,0.324951,0.434326,1.120850
1519672813105,0.471924,0.403320,0.868408
1519672813139,0.565430,0.174561,0.763672
1519672813144,0.502930,0.357910,0.649170
1519672813197,0.588867,0.193359,0.711670
1519672813204,0.538574,0.229980,0.783203
1519672813262,0.549316,0.165039,0.805176
1519672813295,0.404053,0.258789,0.895264
1519672813304,0.423096,0.397705,0.920166
1519672813360,0.499023,0.388916,0.862793
1519672813392,0.412354,0.330811,0.787354
1519672813425,0.525146,0.287842,0.740967
1519672813458,0.519775,0.204834,0.751465
1519672813490,0.423340,0.413574,0.869629
1519672813522,0.533203,0.134277,0.969238
1519672813554,0.385254,0.277588,0.876709
1519672813585,0.525146,0.247314,0.938232
1519672813589,0.518066,0.243408,0.812256
1519672813619,0.490723,0.187744,0.834473
1519672813676,0.647705,0.281006,0.763184
1519672813683,0.846436,0.264160,0.788086
1519672813741,0.472900,0.222412,0.563965
1519672813756,0.482178,0.064697,0.923828
1519672813788,0.175781,0.271729,1.062500
1519672813821,0.470703,0.127686,1.193115
1519672813878,1.045410,0.335205,0.887695
1519672813886,-0.087158,0.733154,0.849609
1519672813940,0.380127,0.349365,1.137695
1519672813972,0.248291,0.317383,0.947998
1519672814001,0.593994,0.349609,0.622559
1519672814006,0.604492,0.459473,0.613037
1519672814061,0.484131,0.572266,0.653564
1519672814093,0.393311,0.265625,0.833984
1519672814101,0.326416,0.177490,0.879150
1519672814157,0.452881,0.118408,0.955811
1519672814187,0.484619,0.291504,0.892334
1519672814220,0.599121,0.326904,0.795654
1519672814253,0.526855,0.466064,0.681641
1519672814287,0.544922,0.451904,0.735596
1519672814320,0.261475,0.430420,0.882080
1519672814352,0.346680,0.431641,0.942871
1519672814385,0.463379,0.225586,0.984375
1519672814418,0.597412,0.451172,0.835693
1519672814450,0.593750,0.499268,1.041748
1519672814482,0.420166,0.502197,0.678711
1519672814515,0.345703,0.455322,0.830566
1519672814545,0.388184,0.267090,0.809570
1519672814587,0.531006,0.413086,0.780762
1519672814593,0.442627,0.285400,0.788330
1519672814621,0.399902,0.334961,0.820801
1519672814654,0.487061,0.200928,0.859619
1519672814686,0.321533,0.379395,0.898682
1519672814719,0.329834,0.256592,0.906006
1519672814752,0.430176,0.356689,0.918945
1519672814783,0.360596,0.420410,0.872070
1519672814817,0.465820,0.450439,0.856934
1519672814873,0.307861,0.405518,0.779785
1519672814876,0.275146,0.375488,0.862305
1519672814932,0.298340,0.351074,0.928955
1519672814964,0.285889,0.317871,1.083252
1519672814968,0.302490,0.486328,0.950195
1519672815037,0.144531,0.405273,0.928223
1519672815045,0.377686,0.476318,0.902832
1519672815073,0.431641,0.377686,0.814941
1519672815131,0.290283,0.183350,0.904297
1519672815134,0.205078,0.191895,1.002441
1519672815164,0.383545,0.536377,1.148193
1519672815196,0.531006,0.712158,1.010010
1519672815256,0.629639,0.374023,0.875732
1519672815282,0.377197,0.308350,0.568848
1519672815315,0.395752,-0.192383,0.574219
1519672815348,0.575928,-0.176758,0.802002
1519672815380,0.364014,-0.074707,0.564697
1519672815422,0.545410,-0.070313,1.148682
1519672815454,0.499756,0.039795,0.963135
1519672815462,0.349854,0.130615,0.737061
1519672815512,0.223389,0.194580,0.794678
1519672815544,0.554199,0.359863,1.026367
1519672815552,0.479248,0.289307,0.741455
1519672815602,0.339355,0.242920,1.076416
1519672815635,0.427734,-0.023926,1.039551
1519672815667,0.274414,-0.124756,0.803711
1519672815699,0.378418,0.048584,1.014404
1519672815733,0.492920,-0.037598,0.793213
1519672815766,0.483398,0.250244,0.936279
1519672815799,0.429443,0.117432,1.014648
1519672815832,0.486572,0.278564,1.038086
1519672815864,0.567139,0.012939,0.601807
1519672815896,0.493652,0.037842,0.910889
1519672815929,0.422119,-0.031250,0.837402
1519672815960,0.594238,-0.041992,0.895508
1519672815994,0.537842,0.178467,0.994385
1519672816002,0.331055,0.020996,0.644531
1519672816030,0.513184,0.162598,1.032471
1519672816103,0.316895,0.170898,0.944092
1519672816112,0.686035,0.261963,1.160400
1519672816169,0.345947,-0.096191,0.576904
1519672816172,0.480225,0.218994,0.951904
1519672816237,0.416748,0.147949,1.013184
1519672816240,0.409424,0.140869,0.885742
1519672816306,0.513672,0.110840,0.976074
1519672816315,0.227539,0.040771,0.899658
1519672816374,0.597900,0.000000,1.046631
1519672816382,0.276367,0.130127,0.839600
1519672816441,0.529053,0.080078,1.099365
1519672816449,0.286133,0.396729,1.019287
1519672816507,0.396484,0.369873,1.137451
1519672816511,0.368896,0.277832,0.880127
1519672816575,0.447266,0.174561,0.888428
1519672816581,0.084961,0.338867,0.890625
1519672816588,0.509766,0.322510,1.210693
1519672816620,-0.110352,0.348633,0.673828
1519672816654,0.305176,0.352783,0.953857
1519672816684,0.343994,0.133301,1.051025
1519672816717,0.262695,0.303711,0.932861
1519672816749,0.661621,0.069824,0.816895
1519672816782,0.478516,0.066162,0.446777
1519672816814,1.089844,0.092773,0.949219
1519672816847,0.416992,-0.245605,0.460449
1519672816881,0.218750,0.323975,0.844727
1519672816913,0.422852,-0.083984,0.890625
1519672816947,0.279785,-0.202881,0.965820
1519672816979,0.518799,0.338379,1.727783
1519672816991,0.333984,-0.288818,0.811768
1519672817048,0.302734,-0.052490,0.659668
1519672817080,0.325684,-0.340576,0.743896
1519672817089,0.465576,-0.475342,0.763184
1519672817143,0.299805,-0.101807,0.865967
1519672817175,0.564453,-0.171875,0.742920
1519672817207,0.507568,0.110352,0.665283
1519672817240,0.255371,-0.061523,0.655762
1519672817272,0.220703,0.229004,1.330078
1519672817304,0.341553,0.274658,1.351074
1519672817337,0.281250,-0.196533,0.883057
1519672817371,0.253418,0.150879,1.052734
1519672817374,0.505127,-0.124268,0.999512
1519672817428,0.476318,-0.302734,0.843262
1519672817462,0.506592,0.115723,0.718262
1519672817470,0.287109,-0.000244,0.785889
1519672817527,0.437256,-0.088867,0.869385
1519672817559,0.294189,0.203125,1.107178
1519672817590,0.503906,0.066895,0.983154
1519672817623,0.412598,0.201416,1.150879
1519672817657,0.499756,0.338867,0.990967
1519672817688,0.258057,-0.226074,0.687988
1519672817719,0.416260,0.203125,1.065674
1519672817753,0.310059,-0.048584,0.895020
1519672817786,0.728516,-0.081055,1.020508
1519672817840,0.638184,-0.005859,1.151367
1519672817844,0.426514,-0.143311,0.772461
1519672817876,0.401123,-0.164795,1.097656
1519672817907,0.463867,-0.472412,0.933594
1519672817940,0.376953,-0.137207,0.822510
1519672817978,0.583008,0.290283,0.952148
1519672818010,0.571045,-0.027832,0.946045
1519672818042,0.416748,0.034180,0.803955
1519672818075,0.311768,0.099121,1.101074
1519672818108,0.425049,0.004395,1.073242
1519672818140,0.362793,-0.200928,0.884766
1519672818172,0.444092,-0.347656,0.848633
1519672818203,0.364990,-0.031250,0.927734
1519672818235,0.567627,-0.319824,0.979004
1519672818267,0.468018,-0.192871,0.823486
1519672818300,0.431885,-0.124756,0.791260
1519672818333,0.447510,0.158691,1.016846
1519672818339,0.375000,-0.045898,0.666992
1519672818394,0.403076,-0.054199,0.979004
1519672818427,0.569336,-0.089600,0.959961
1519672818459,0.447266,-0.182617,0.602783
1519672818492,0.519775,0.044189,0.840820
1519672818523,0.463135,-0.232910,0.907715
1519672818555,0.357666,-0.227295,0.849854
1519672818588,0.484863,-0.162354,0.799561
1519672818620,0.598389,-0.285645,0.637207
1519672818652,0.525146,-0.173828,0.873535
1519672818686,0.493164,-0.293701,0.803467
1519672818718,0.399902,-0.004883,0.797607
1519672818749,0.666260,0.038574,0.843262
1519672818783,0.464355,0.051758,0.938232
1519672818814,0.636963,0.023682,0.892334
1519672818818,0.329346,-0.224854,0.990234
1519672818874,0.491699,-0.201660,0.775391
1519672818907,0.375732,-0.543701,0.782959
1519672818915,0.369141,-0.114258,0.781982
1519672818973,0.555664,-0.371094,0.802490
1519672819005,0.424805,-0.179199,0.721680
1519672819038,0.740723,0.054688,0.796387
1519672819070,0.519775,-0.065674,0.545898
1519672819123,0.471436,-0.085449,1.036621
1519672819131,0.153564,-0.193359,0.797852
1519672819154,0.323730,-0.080566,1.196289
1519672819186,0.472168,-0.188232,0.916260
1519672819219,0.364502,0.035400,0.524902
1519672819251,0.519287,0.183350,0.870361
1519672819285,0.438477,-0.118652,0.917236
1519672819318,0.331543,0.081055,1.054688
1519672819350,0.432373,-0.167725,1.044922
1519672819382,0.196533,0.007324,0.915771
1519672819415,0.589111,0.182373,0.734131
1519672819449,0.215820,0.224609,1.332764
1519672819481,0.566162,0.188232,1.019775
1519672819514,0.412598,-0.097900,0.829102
1519672819546,0.620605,0.133789,0.867920
1519672819585,0.769287,-0.114746,0.360107
1519672819618,0.741211,0.130127,0.849609
1519672819651,0.383545,-0.397705,0.477539
1519672819660,0.379883,-0.009033,1.115479
1519672819714,0.469971,0.203613,0.804932
1519672819747,0.424316,0.395508,1.071533
1519672819780,0.487305,0.336914,0.978027
1519672819788,0.284668,0.504150,0.851563
1519672819839,0.075928,0.287842,1.114990
1519672819873,0.088379,0.094238,1.063965
1519672819881,0.070801,0.175781,1.242920
1519672819934,0.227783,0.424072,0.922607
1519672819968,0.297852,0.325928,0.883301
1519672819981,0.479736,0.605469,0.888916
1519672820014,0.321777,0.383545,0.988770
1519672820071,0.211182,0.218994,0.926025
1519672820079,0.326904,0.270020,0.993408
1519672820134,0.375977,0.223389,0.802979
1519672820166,0.345459,0.662598,0.815918
1519672820198,0.810791,0.206543,0.844482
1519672820229,0.432373,0.241699,0.819824
1519672820262,0.268555,0.175781,0.748047
1519672820294,0.215820,0.365967,0.975830
1519672820327,0.309326,0.113037,0.901855
1519672820361,0.168213,0.508545,1.066895
1519672820369,0.357422,0.435791,1.041992
1519672820429,0.349609,0.433838,0.940674
1519672820437,0.402100,0.419922,0.937988
1519672820463,0.361084,0.084961,0.869141
1519672820495,0.506348,0.003906,0.937988
1519672820527,0.281982,0.151611,0.818604
1519672820560,0.543213,0.047607,0.998535
1519672820616,0.382080,0.343262,0.907227
1519672820648,0.474854,0.248047,0.886963
1519672820657,0.518799,0.370850,0.912598
1519672820712,0.367920,0.283691,0.796387
1519672820744,0.341309,0.488525,0.853271
1519672820747,0.313477,0.301270,0.829346
1519672820804,0.327148,0.485107,0.906738
1519672820814,0.320557,0.434814,0.839844
1519672820848,0.330322,0.587158,0.807129
1519672820907,-0.022461,0.317383,0.694336
1519672820915,0.278320,0.283447,1.031250
1519672820963,-0.199463,0.389404,0.961914
1519672820995,-0.038818,0.601563,0.938232
1519672821027,-0.119141,0.366455,0.694092
1519672821101,0.196045,0.853516,0.901123
1519672821105,0.371582,1.211670,0.996826
1519672821169,0.362549,0.023926,0.974854
1519672821237,-0.613037,0.780518,0.396484
1519672821305,0.272217,0.356689,1.303223
1519672821312,0.167725,0.670166,0.488525
1519672821372,0.448730,0.315918,0.954102
1519672821380,0.213867,0.650635,0.593750
1519672821440,0.529541,0.154541,1.022461
1519672821448,0.209717,0.509277,0.699463
1519672821508,0.586914,0.117920,0.798828
1519672821516,-0.139160,0.676514,0.796631
1519672821563,0.381348,0.589600,0.922852
1519672821571,0.006592,0.490479,0.781494
1519672821579,0.137939,0.576904,0.962646
1519672821583,-0.003906,0.530029,0.883545
1519672821586,-0.027588,0.786133,1.141113
1519672821611,0.135254,0.667725,0.786621
1519672821644,0.145020,1.134521,1.046143
1519672821682,0.113770,0.827637,0.798584
1519672821690,0.076904,0.533691,0.883057
1519672821720,0.298828,0.593994,0.957520
1519672821753,0.058350,0.482666,0.625732
1519672821786,0.471191,0.540283,0.980957
1519672821822,0.593750,0.015869,0.690918
1519672821855,0.511475,0.300781,1.133545
1519672821887,0.192871,-0.140137,0.781250
1519672821920,0.468506,0.272705,0.806885
1519672821954,0.149414,0.264648,0.764893
1519672821988,0.456055,0.229736,0.989746
1519672822020,0.428711,-0.061279,0.820557
1519672822052,0.364014,0.015869,0.869385
1519672822085,0.282959,0.007813,0.996826
1519672822118,0.452637,0.288330,0.965820
1519672822150,0.455566,0.436768,0.802490
1519672822182,0.367432,0.367432,0.929443
1519672822190,0.296875,0.255371,0.898682
1519672822243,0.333496,0.331543,1.038574
1519672822275,0.359131,0.275146,1.051270
1519672822284,0.423828,0.410156,0.799072
1519672822339,0.405029,0.432617,0.933105
1519672822372,0.213867,0.404297,0.901855
1519672822385,0.365723,0.382813,0.947998
1519672822444,0.343262,0.387451,0.742676
1519672822461,0.424561,0.302490,0.854736
1519672822482,0.442627,0.207520,0.942627
1519672822536,0.382080,0.094482,0.824219
1519672822591,0.197998,0.184570,0.651367
1519672822595,-0.235107,0.164063,0.704590
1519672822647,1.820801,0.539795,1.377686
1519672822652,0.060547,0.210449,0.145752
1519672822697,3.379639,-1.760254,3.324463
1519672822731,-0.716064,1.159912,1.557861
1519672822777,0.154053,-0.883057,1.395752
1519672822790,0.647949,-0.217529,1.048096
1519672822813,0.359619,0.195068,0.318604
1519672822859,0.689941,0.082520,0.734375
1519672822864,0.590820,0.159180,0.757324
1519672822918,0.457764,0.105713,0.901367
1519672822963,0.476563,0.121094,0.820557
1519672822979,0.921143,0.076416,0.509033
1519672823024,0.198730,0.254150,0.485596
1519672823106,0.373779,0.378418,1.054199
1519672823114,-0.262939,0.563965,1.260986
1519672823122,-0.313721,0.706787,1.628174
1519672823189,0.582275,0.048828,0.905762
1519672823196,0.770752,0.209473,1.397461
1519672823206,0.219238,0.377441,0.681396
1519672823270,-0.539307,0.312744,0.847168
1519672823274,-0.329346,-0.141846,1.245361
1519672823305,-0.004395,0.492920,0.923340
1519672823353,0.961914,0.945557,0.570313
1519672823361,1.495117,0.128418,0.193848
1519672823385,0.851318,0.460205,0.883057
1519672823421,0.530273,-0.259033,0.869873
1519672823454,0.182617,-0.423340,1.187012
1519672823486,-0.079346,-0.020752,0.930176
1519672823519,0.391113,0.522949,0.651367
1519672823553,0.387695,0.640381,0.649414
1519672823585,-0.113525,0.374512,0.736816
1519672823626,-0.139404,0.727539,1.252930
1519672823632,-0.293701,0.634521,1.293213
1519672823692,-0.554688,1.206543,1.078125
1519672823721,0.281738,1.037598,0.765869
1519672823729,0.671631,0.659912,0.499512
1519672823787,0.449707,0.466309,0.807861
1519672823821,0.518555,0.384766,0.907959
1519672823853,0.360352,-0.022217,0.884033
1519672823861,-0.002930,0.501709,0.791748
1519672823917,0.709717,0.183594,0.848145
1519672823950,-0.029297,0.225098,0.698486
1519672823982,0.138916,0.574951,0.846680
1519672823996,0.351074,0.372559,0.787109
1519672824054,0.867676,0.469971,1.136230
1519672824060,-0.455566,0.406250,0.619141
1519672824117,0.638672,0.380127,0.803955
1519672824120,0.232666,0.719971,0.744873
1519672824176,0.471924,0.574707,0.830811
1519672824179,0.234619,0.206543,0.580566
1519672824241,0.393555,0.694336,1.101807
1519672824275,0.320557,0.366211,0.804443
1519672824283,0.261230,0.427490,0.675781
1519672824333,0.237061,0.659668,0.880371
1519672824366,0.375488,0.435059,0.744629
1519672824397,0.362793,0.897461,0.789551
1519672824410,0.353516,0.417236,0.668457
1519672824444,0.251221,0.197021,0.791992
1519672824475,0.133789,0.653076,1.290039
1519672824509,0.339355,0.209717,1.069580
1519672824567,0.308838,0.413330,0.912109
1519672824598,0.343750,0.616943,0.830566
1519672824601,0.176270,0.358398,0.575439
1519672824658,0.602539,0.149658,0.831787
1519672824691,0.509277,0.086182,0.787598
1519672824699,0.359131,0.433105,0.996582
1519672824751,0.381836,0.280762,0.789551
1519672824783,0.309570,0.452637,0.889160
1519672824816,0.136230,0.565186,1.048340
1519672824830,0.221680,0.468750,0.947021
1519672824862,-0.033936,0.528564,0.857178
1519672824895,0.435303,0.425781,0.918701
1519672824927,0.668945,0.438965,0.749756
1519672824959,-0.122559,0.435303,0.759766
1519672824992,-0.114258,0.481689,0.925537
1519672825051,0.305664,0.358398,0.910889
1519672825059,0.385986,0.380371,0.870850
1519672825114,0.550293,0.216309,0.777588
1519672825144,0.342773,0.724609,0.908447
1519672825147,0.209961,0.460205,0.738525
1519672825178,0.370850,0.413574,0.998291
1519672825210,-0.062988,0.295654,0.706299
1519672825243,0.168213,0.631348,1.015137
1519672825276,0.689941,0.252930,0.844971
1519672825322,0.381348,0.510742,0.899658
1519672825353,0.398926,0.145752,0.706787
1519672825387,0.122314,0.489014,1.025391
1519672825420,0.235352,0.208984,1.008057
1519672825453,-0.158936,0.592529,0.956543
1519672825485,0.346680,0.754883,0.893066
1519672825520,0.500244,0.274658,0.773682
1519672825554,0.251709,0.512451,0.903809
1519672825557,0.432129,0.458496,0.791992
1519672825612,0.199707,0.303467,0.832520
1519672825644,0.391113,0.207764,1.049561
1519672825659,-0.039307,0.176514,0.744141
1519672825716,0.774170,0.266602,1.062012
1519672825721,0.665771,0.385010,0.743164
1519672825780,0.737549,0.475098,0.625488
1519672825813,0.419434,0.583252,0.749512
1519672825845,0.183105,0.400879,0.916260
1519672825878,0.058594,0.536133,0.860596
1519672825908,0.410400,0.764404,1.041260
1519672825940,-0.059570,0.529297,0.814697
1519672825974,0.304932,0.652344,0.735840
1519672826007,0.167969,0.402100,0.795654
1519672826081,0.055664,0.601807,0.777588
1519672826089,0.069824,0.545898,0.942627
1519672826149,0.322021,0.666992,0.960449
1519672826157,0.354736,0.528809,0.739990
1519672826216,-0.053711,0.588623,0.643799
1519672826223,0.715820,0.295410,0.796631
1519672826282,-0.029785,0.571289,0.792725
1519672826288,0.439941,0.371338,0.914307
1519672826350,0.173584,0.413818,0.769531
1519672826353,0.107910,0.938721,1.010986
1519672826417,0.289307,0.448242,0.646484
1519672826423,0.202393,0.830322,1.014648
1519672826487,-0.003906,0.679932,0.723389
1519672826495,0.474609,0.530518,0.816650
1519672826553,-0.202148,0.461182,0.871094
1519672826558,0.281982,0.812500,0.815186
1519672826564,0.215332,0.245361,0.768555
1519672826570,0.036621,0.705811,0.801758
1519672826603,0.743164,0.807617,1.001953
1519672826639,0.563721,0.097168,0.638916
1519672826672,0.340576,0.075439,0.854736
1519672826703,0.061523,0.468750,0.804932
1519672826735,0.463623,0.340576,0.933105
1519672826768,0.718994,-0.222900,0.715332
1519672826801,0.416748,0.150635,0.912354
1519672826835,0.489990,0.077881,0.998535
1519672826868,0.353516,0.228027,0.745850
1519672826899,0.883057,0.103516,0.641846
1519672826942,0.736572,-0.017334,0.543457
1519672826973,0.742676,0.340820,0.858154
1519672827005,0.397705,0.016357,0.790527
1519672827011,0.337891,0.122559,1.229004
1519672827063,0.482422,0.218994,0.945557
1519672827096,0.431396,0.488525,1.041016
1519672827099,0.331055,0.404541,0.765137
1519672827155,0.391602,0.640869,0.854736
1519672827188,0.652344,-0.009277,0.818848
1519672827221,0.326660,0.297119,1.327637
1519672827253,0.407715,0.310059,0.729736
1519672827285,0.534668,0.426025,0.772461
1519672827318,0.194336,0.670654,0.645996
1519672827332,0.812500,0.253906,0.768066
1519672827389,0.236572,0.345215,0.959473
1519672827422,0.275146,0.448242,0.905029
1519672827430,0.331543,0.355225,1.049072
1519672827485,0.139160,0.478271,1.101563
1519672827488,0.327881,0.410889,0.832520
1519672827544,0.864014,0.386475,0.635498
1519672827548,0.384521,0.586670,0.697510
1519672827584,0.497070,0.445801,0.639404
1519672827617,0.715088,-0.001953,0.830322
1519672827649,0.581299,0.051025,0.830322
1519672827682,0.354980,0.255127,0.708008
1519672827715,0.454590,-0.008301,0.778320
1519672827772,0.143311,0.509766,0.981201
1519672827806,0.489746,0.006104,0.753662
1519672827839,0.616943,0.306641,0.974854
1519672827847,0.598633,0.297363,1.046387
1519672827902,0.447266,0.263916,0.721191
1519672827933,0.796143,0.531006,0.784912
1519672827965,0.267090,0.301758,0.798584
1519672827969,0.225342,0.454346,0.592773
1519672828025,0.081299,0.532471,1.052002
1519672828081,0.490234,0.424805,0.993408
1519672828089,0.413574,0.373047,0.761963
1519672828119,0.440430,0.481689,0.808105
1519672828153,0.244873,0.498535,0.808594
1519672828187,0.309082,0.402344,0.869385
1519672828218,-0.087402,0.877197,1.082031
1519672828250,0.032959,0.710693,0.776367
1519672828282,0.496094,0.744385,0.889893
1519672828315,0.026123,0.559082,0.517090
1519672828349,0.482666,0.563721,1.010010
1519672828381,0.343506,0.467285,0.893066
1519672828412,0.025391,0.802246,0.931152
1519672828444,0.444824,0.483643,0.625000
1519672828477,0.157715,0.684814,0.604004
1519672828511,0.332275,0.349854,0.857910
1519672828514,0.016602,0.454102,0.858887
1519672828556,0.491943,0.596436,1.302979
1519672828589,0.195068,0.617188,0.355957
1519672828622,0.444336,0.367920,0.775391
1519672828654,0.282227,0.585449,0.333252
1519672828687,0.621826,0.181396,0.870850
1519672828720,0.497803,0.320801,0.752197
1519672828751,0.432129,0.535156,1.024170
1519672828784,0.152588,0.258057,0.772461
1519672828822,1.178467,-0.044922,1.018311
1519672828856,0.276367,0.003418,0.644043
1519672828886,0.554199,0.266846,1.030029
1519672828918,0.344482,0.205078,0.555420
1519672828933,0.656250,0.496338,1.136230
1519672828991,0.157471,0.458740,0.604004
1519672828994,0.626465,0.280518,1.395020
1519672829027,0.460449,0.162109,0.708740
1519672829087,0.159180,0.515381,0.778076
1519672829096,0.341553,0.469238,1.078857
1519672829149,0.337646,0.332275,0.850342
1519672829182,0.703369,0.477783,0.548828
1519672829214,0.468506,0.200195,0.854004
1519672829246,0.054688,0.173828,0.802246
1519672829278,0.607178,-0.037842,0.964600
1519672829311,0.297119,0.186768,1.061035
1519672829325,0.367920,0.461670,0.875000
1519672829359,0.590820,0.505127,0.695801
1519672829392,0.439941,0.427734,0.499268
1519672829424,0.589355,0.399658,1.015381
1519672829456,0.312012,0.268555,0.791992
1519672829489,0.599365,0.337158,0.924316
1519672829526,0.590576,0.452637,0.772705
1519672829558,0.644775,0.554199,0.500000
1519672829591,0.587891,0.533936,0.686523
1519672829623,0.651855,0.508301,0.854248
1519672829654,0.438477,0.373535,1.118408
1519672829688,0.231934,0.509277,0.842285
1519672829722,0.260498,0.434570,0.862305
1519672829761,0.823486,0.541016,0.876221
1519672829794,0.362305,0.307861,0.822266
1519672829802,0.227783,0.876221,0.803955
1519672829852,0.110596,0.673584,1.036621
1519672829885,0.046875,0.764160,1.077881
1519672829890,-0.011230,0.645508,1.014404
1519672829944,0.392822,0.881104,0.572754
1519672829978,0.618652,0.744141,0.500732
1519672830010,0.572510,0.552490,0.823730
1519672830042,0.028809,0.229004,0.712402
1519672830075,0.354980,0.479492,0.770752
1519672830109,0.267334,0.391602,0.958984
1519672830126,0.595703,0.552246,0.837891
1519672830161,0.678955,0.190186,0.474854
1519672830194,0.436523,0.467773,0.524902
1519672830226,0.708008,0.029297,0.364746
1519672830257,0.520996,-0.063477,0.882324
1519672830289,0.247314,0.157715,1.110352
1519672830322,0.234619,0.340088,1.002441
1519672830356,0.357910,0.648682,0.780029
1519672830387,0.238037,0.869141,0.579834
1519672830423,0.440430,0.887207,0.895508
1519672830455,-0.042480,0.749512,0.734375
1519672830492,0.039551,0.697754,1.133057
1519672830531,-0.278564,0.566895,0.947998
1519672830539,0.403076,0.653564,0.979492
1519672830595,0.364258,0.781494,0.648438
1519672830640,0.546143,0.923340,0.605225
1519672830643,0.315186,0.523193,0.887939
1519672830673,-0.088623,0.511230,0.634521
1519672830707,0.376221,0.199219,0.976563
1519672830744,0.102051,0.443115,0.666748
1519672830771,0.454834,0.332764,0.933105
1519672830803,0.371094,0.593506,0.559814
1519672830836,0.732910,0.260986,0.707031
1519672830868,0.609863,0.397949,0.704346
1519672830901,0.443848,-0.109375,0.782227
1519672830935,0.344727,0.436279,0.920654
1519672830967,0.372559,0.091553,0.995850
1519672830998,0.150391,0.437744,0.833984
1519672831031,0.405273,0.296631,1.410889
1519672831105,0.430908,0.358398,0.968018
1519672831113,0.652100,0.330078,0.722656
1519672831172,0.606934,0.585449,0.775635
1519672831181,0.571289,0.459961,0.929688
1519672831239,0.416992,0.225830,0.860352
1519672831245,0.594727,0.127930,0.798584
1519672831305,0.475342,0.047119,0.510254
1519672831374,0.763672,-0.054688,0.909424
1519672831441,0.567871,0.126709,0.502197
1519672831446,0.670654,0.135986,0.873047
1519672831508,0.448975,0.114014,0.674316
1519672831514,0.428223,0.037598,0.958740
1519672831564,0.433350,0.093018,0.940430
1519672831573,0.404785,0.325684,0.759033
1519672831583,0.315674,0.476074,0.963623
1519672831593,0.330322,0.393311,0.980225
1519672831596,0.851563,0.198242,0.803955
1519672831624,0.214600,0.640381,1.059326
1519672831629,0.543945,0.317139,0.766846
1519672831687,0.453613,0.352539,0.638184
1519672831720,0.393555,0.284180,0.708740
1519672831740,0.559570,0.204346,0.865234
1519672831765,0.386719,0.260254,0.937500
1519672831823,0.469238,0.126953,0.845215
1519672831828,0.475098,0.326416,0.778320
1519672831886,0.463867,0.515381,0.666748
1519672831920,0.602295,0.313477,1.091797
1519672831929,0.259033,0.500244,0.905029
1519672831954,0.220215,0.197021,1.155273
1519672831987,0.461182,0.208252,1.065918
1519672832020,0.194824,0.525391,0.747559
1519672832052,0.699463,0.614746,0.673096
1519672832085,0.686279,0.286865,0.617920
1519672832118,0.494385,0.222412,0.792969
1519672832159,0.489014,0.137695,0.708984
1519672832191,0.687500,0.145996,0.763916
1519672832222,0.606201,0.020996,0.925293
1519672832254,0.636475,0.081543,0.833496
1519672832287,0.581787,0.287842,0.815186
1519672832296,0.611572,0.285400,0.951904
1519672832354,0.609131,0.434082,1.132813
1519672832387,0.781250,0.436523,1.576172
1519672832399,0.352295,-0.322021,-0.084229
1519672832455,0.189941,0.402344,0.560547
1519672832465,0.338867,0.455322,1.014404
1519672832518,0.354736,0.414307,0.757080
1519672832551,0.335693,0.533691,0.668457
1519672832565,0.205322,0.688721,0.876709
1519672832622,0.858154,0.438721,0.666992
1519672832631,0.307617,0.700684,0.640381
1519672832683,0.055176,0.606445,1.181396
1519672832715,-0.017090,0.609863,1.313477
1519672832748,0.082520,0.959229,0.936035
1519672832781,0.163574,1.039795,0.730469
1519672832786,-0.114746,1.249756,0.799805
1519672832840,-0.010254,0.899658,0.920898
1519672832874,-0.354492,0.882568,0.877441
1519672832879,0.188232,0.706299,0.990967
1519672832933,-0.060059,0.465332,0.450439
1519672832966,0.544189,1.000977,0.677734
1519672832980,0.470459,0.354736,0.344482
1519672833013,0.297119,0.639160,0.888184
1519672833045,0.155273,0.251221,0.798096
1519672833077,-0.036133,0.579102,1.052490
1519672833109,0.156006,0.350586,0.744873
1519672833168,0.178223,0.625244,0.706787
1519672833201,0.648682,0.483398,0.734375
1519672833206,-0.140625,0.405273,0.556396
1519672833264,0.441895,0.829590,0.830811
1519672833269,0.572266,0.094727,0.769531
1519672833323,0.757324,1.011719,1.199951
1519672833332,0.552979,0.054443,0.726318
1519672833365,0.091553,0.479980,0.794189
1519672833407,0.198486,0.262451,0.494629
1519672833439,0.472168,0.382080,0.698486
1519672833471,0.199951,0.447266,0.790283
1519672833509,0.448730,0.819824,1.206055
1519672833540,-0.124023,0.371338,1.124023
1519672833573,0.334961,0.335449,1.302979
1519672833605,0.010010,0.380371,0.964111
1519672833637,0.108643,0.708496,1.048096
1519672833669,0.376221,0.558838,0.784180
1519672833702,0.909424,0.585693,0.905029
1519672833736,0.320801,0.376465,0.512207
1519672833744,0.390869,0.219238,1.048340
1519672833799,-0.171387,0.361572,0.938721
1519672833832,0.500000,-0.083740,1.087158
1519672833841,0.527344,0.157959,0.807373
1519672833894,0.804443,0.727783,0.635498
1519672833928,0.589600,0.554932,0.594727
1519672833961,0.171387,0.603027,0.739258
1519672833992,0.210693,0.115234,0.834473
1519672834025,-0.088379,0.427734,1.347168
1519672834057,0.460938,-0.013428,0.834473
1519672834089,0.237305,0.262939,0.695068
1519672834122,0.655273,0.423096,0.677734
1519672834156,0.695313,0.401611,0.393311
1519672834198,0.630615,0.334229,0.940430
1519672834207,0.064209,0.357910,0.924072
1519672834261,0.241943,0.479736,1.241211
1519672834293,0.181396,0.344482,0.833984
1519672834298,0.859619,0.461670,0.730713
1519672834331,0.777832,0.339355,0.341797
1519672834363,-0.011963,0.736816,0.824463
1519672834396,0.538574,0.144287,1.230957
1519672834427,0.053223,0.465332,1.076660
1519672834480,0.293213,0.333252,0.873291
1519672834488,0.294678,0.506592,1.056152
1519672834544,0.221436,0.697021,0.608154
1519672834557,0.894531,0.318115,0.887939
1519672834590,0.301270,0.848633,0.665283
1519672834623,0.474365,0.650635,0.546631
1519672834655,0.143555,0.609619,0.919678
1519672834687,0.013916,0.362793,0.748535
1519672834721,0.230957,0.429443,1.147217
1519672834778,0.152100,0.617920,0.849609
1519672834783,0.630127,0.464111,0.564209
1519672834812,0.431885,0.319336,0.546875
1519672834869,0.106689,0.351807,0.889893
1519672834875,0.294922,0.038818,0.753906
1519672834902,0.706055,0.478027,0.911133
1519672834937,0.619141,0.166016,0.675293
1519672834993,0.724609,0.562012,0.463135
1519672834998,0.746338,0.143799,0.717041
1519672835057,0.054443,0.310547,0.736572
1519672835089,0.293213,0.392090,1.066650
1519672835121,0.155762,0.062012,0.936523
1519672835155,0.302979,0.523682,1.030029
1519672835188,0.169922,0.489014,0.747559
1519672835196,0.070313,0.794922,0.920166
1519672835246,-0.006836,0.863281,0.943115
1519672835277,0.093750,0.548828,1.027100
1519672835284,0.343018,0.716309,0.869873
1519672835341,-0.010010,0.950684,0.635742
1519672835374,0.292480,0.661133,0.606445
1519672835387,0.429932,0.618896,0.738525
1519672835419,-0.014160,0.729004,1.095459
1519672835452,-0.020264,0.847900,1.188965
1519672835485,-0.395996,0.491943,0.878418
1519672835517,0.834717,0.461426,0.849609
1519672835576,-0.148682,0.705811,0.667236
1519672835583,0.327393,0.631104,0.971680
1519672835635,-0.065918,0.666260,0.640381
1519672835665,0.390381,0.770752,1.020020
1519672835669,0.146729,0.398438,0.629150
1519672835726,0.303711,0.380127,0.791260
1519672835760,-0.073242,0.524414,0.635986
1519672835768,0.375488,0.654785,0.619629
1519672835833,0.412354,0.090576,0.756592
1519672835842,0.591309,0.203857,0.979980
1519672835865,0.343750,0.527832,0.820068
1519672835898,0.653076,0.168945,0.710449
1519672835957,0.534912,0.083008,0.547363
1519672835990,0.301514,0.164063,1.197021
1519672835999,0.341309,0.239258,1.034180
1519672836030,0.076904,0.295654,0.991943
1519672836086,0.205811,0.756348,0.977539
1519672836119,0.799805,0.651123,0.777832
1519672836153,0.591064,0.375488,0.728516
1519672836161,0.588867,-0.046387,0.864014
1519672836226,0.314453,-0.145996,0.731201
1519672836292,0.643555,-0.185547,0.775635
1519672836295,0.573730,-0.493896,0.709229
1519672836361,0.674316,0.102539,0.994385
1519672836365,0.267822,0.010254,0.865479
1519672836429,0.368896,0.219971,0.865234
1519672836435,0.494873,0.270752,0.697754
1519672836497,0.519531,0.238525,0.875488
1519672836503,0.549561,0.410156,0.862549
1519672836564,0.355713,0.082031,0.946533
1519672836572,0.287598,0.509521,0.887695
1519672836592,0.516846,0.320313,0.992432
1519672836606,0.250488,0.277832,0.749756
1519672836609,0.655518,0.477295,0.551758
1519672836642,0.599854,0.177734,0.800049
1519672836699,0.556396,0.085938,0.850342
1519672836703,0.543213,0.186035,0.768311
1519672836733,0.435547,0.280029,1.220215
1519672836766,0.235352,0.125977,0.647461
1519672836799,0.625244,0.307861,0.785156
1519672836832,0.493896,-0.004639,0.840576
1519672836865,0.582031,0.393311,1.097656
1519672836897,0.363525,0.607178,0.772217
1519672836928,0.658447,0.266357,1.066895
1519672836986,0.139648,0.349854,1.051025
1519672836991,0.294434,0.062012,0.788818
1519672837040,0.448486,0.478760,1.003418
1519672837074,0.327148,0.545898,0.803467
1519672837104,0.883301,0.218994,0.648193
1519672837111,0.662354,0.246338,0.470947
1519672837170,0.801514,-0.144287,1.047607
1519672837201,0.429932,-0.257813,0.634766
1519672837207,0.600098,0.114014,0.806885
1519672837267,0.224365,0.055908,1.087158
1519672837297,0.380859,0.267822,1.241943
1519672837330,0.057861,0.391846,1.075928
1519672837362,0.282959,0.658203,1.097168
1519672837395,0.117676,0.628174,0.712158
1519672837408,0.067871,0.467773,0.979980
1519672837441,0.616211,0.327637,0.682617
1519672837498,-0.152344,0.452881,0.260254
1519672837531,1.137207,0.335205,1.079346
1519672837565,-0.437256,0.454834,0.533447
1519672837597,0.764893,0.009766,1.273682
1519672837630,-0.088623,0.612061,0.936523
1519672837661,-0.064453,0.444580,0.889404
1519672837667,0.096680,0.874023,0.993896
1519672837695,-0.099609,0.748047,0.654053
1519672837727,0.306152,0.954834,0.952148
1519672837762,0.410889,0.375244,0.823242
1519672837793,0.035889,0.266846,0.810791
1519672837835,0.442627,0.198730,0.823975
1519672837868,0.382324,0.319580,0.799072
1519672837901,0.252441,0.502930,0.503418
1519672837934,0.627197,0.284180,0.791016
1519672837967,0.208008,0.546143,1.018799
1519672837999,0.121094,0.244385,0.727539
1519672838031,-0.069092,0.407227,0.985840
1519672838064,0.351807,0.867188,0.809570
1519672838098,0.526367,0.417725,0.776855
1519672838130,0.243652,0.818115,0.805176
1519672838163,0.287354,0.324219,0.914795
1519672838198,0.414063,0.704590,0.932861
1519672838241,0.541992,0.072021,0.768066
1519672838249,0.317871,0.037109,0.911133
1519672838273,0.489014,0.091064,0.589111
1519672838320,0.490967,0.232422,0.573730
1519672838354,0.734375,0.237305,0.913574
1519672838387,0.753174,0.110107,0.660400
1519672838420,0.206543,0.530518,0.893066
1519672838449,0.612793,0.299316,1.036377
1519672838482,0.165039,0.502930,0.978271
1519672838515,0.276855,0.237305,1.070313
1519672838548,0.419922,0.639893,1.129883
1519672838581,0.621338,0.226318,0.905762
1519672838614,0.570068,0.568115,0.656982
1519672838647,0.712646,0.064697,0.839600
1519672838654,0.547607,0.109131,0.520752
1519672838710,0.931396,0.061768,0.785645
1519672838742,0.515625,-0.249268,0.523193
1519672838774,0.428711,0.211426,0.810303
1519672838807,0.454102,-0.092773,0.698486
1519672838840,0.676270,-0.048828,0.802490
1519672838872,0.351807,0.067627,0.901123
1519672838904,0.214355,0.253418,1.062500
1519672838936,0.459229,0.523682,0.629639
1519672838939,0.601318,0.236572,1.151855
1519672838996,0.422363,0.565918,0.903320
1519672839028,0.459229,0.644531,1.072754
1519672839034,0.415527,0.432129,0.747803
1519672839092,0.281738,0.415771,0.785400
1519672839124,0.334229,0.331055,0.992920
1519672839159,0.441895,0.219482,0.831787
1519672839192,0.572510,-0.025146,0.611084
1519672839200,0.618164,0.301025,0.889160
1519672839256,0.503418,0.287842,0.793213
1519672839288,0.999756,-0.116455,0.831543
1519672839320,0.638184,0.080811,0.644775
1519672839353,0.338135,0.342041,0.719482
1519672839386,0.371582,0.243896,0.985352
1519672839418,0.684326,0.205322,0.834717
1519672839432,0.453125,0.185547,0.614258
1519672839489,0.301758,0.195068,1.207031
1519672839522,0.533447,0.272461,0.900146
1519672839525,0.181396,0.145996,0.694092
1519672839601,0.389160,0.612793,0.998047
1519672839609,0.132813,0.278564,1.098633
1519672839636,0.583008,1.155029,0.750488
1519672839668,0.372559,-0.066895,0.880859
1519672839701,0.208496,0.592285,0.816650
1519672839734,-0.052246,0.516113,1.145508
1519672839767,-0.117920,0.545410,0.682373
1519672839799,0.293457,0.915771,0.886230
1519672839831,0.516602,0.495361,0.994629
1519672839865,0.360352,0.642822,0.721680
1519672839898,0.246338,0.171875,0.698486
1519672839930,-0.018555,0.317627,0.695068
1519672839963,0.463623,0.330811,0.976563
1519672839971,0.028076,0.601563,0.809570
1519672839998,0.139648,0.691895,0.800049
1519672840056,-0.134521,0.679443,0.736572
1519672840088,-0.264404,0.861572,1.022705
1519672840123,0.801270,0.328369,0.855957
1519672840156,0.291504,0.727051,0.908447
1519672840189,0.213623,0.435547,1.010742
1519672840196,-0.109131,0.709229,0.934326
1519672840235,-0.031982,0.637207,0.778076
1519672840267,0.120605,0.740723,0.703369
1519672840300,0.386230,0.281982,0.848389
1519672840334,0.288574,0.512939,0.639648
1519672840366,0.258301,0.897461,1.302490
1519672840399,-0.058350,0.843262,0.990967
1519672840432,0.766846,0.462891,0.850830
1519672840465,0.496338,0.443848,0.802490
1519672840497,0.152344,0.102783,0.827393
1519672840555,0.358887,0.521729,0.963379
1519672840563,0.530518,0.122314,0.598389
1519672840590,0.653564,0.295410,0.681396
1519672840648,0.835938,-0.319824,0.855469
1519672840656,-0.043945,0.696045,1.235107
1519672840693,0.348633,0.160400,1.075684
1519672840725,0.852051,0.360352,0.750000
1519672840758,0.831787,0.175049,0.581787
1519672840790,0.694824,0.249756,-0.025391
1519672840822,0.462158,-0.155273,1.108398
1519672840855,0.133301,0.177490,0.588867
1519672840880,0.690674,-0.375488,1.322266
1519672840939,0.332764,-0.200195,0.693359
1519672840973,0.850586,0.034180,1.080078
1519672840977,0.311768,0.632324,0.400146
