1519672911527,0.475098,-0.135498,0.681152
1519672911560,0.804443,-0.155762,0.705078
1519672911595,0.700928,-0.109863,0.585938
1519672911629,0.711426,0.022461,0.779053
1519672911661,0.431152,0.203857,0.770508
1519672911693,0.489990,0.136719,1.037842
1519672911726,0.670898,0.315674,0.708496
1519672911734,0.633545,0.334229,0.880615
1519672911790,0.460449,0.386475,0.983887
1519672911821,0.331299,0.510986,0.897217
1519672911854,0.314941,0.486328,1.030762
1519672911888,0.384521,0.559326,0.936279
1519672911902,0.413818,0.445801,1.125732
1519672911933,0.328369,0.428711,0.938477
1519672911992,0.457031,0.375244,0.947998
1519672912023,0.369385,0.366699,0.940430
1519672912055,0.373779,0.611572,0.890625
1519672912087,0.277588,0.417480,0.981689
1519672912121,0.321289,0.506104,0.704102
1519672912154,0.171143,0.239014,0.916260
1519672912187,0.379883,0.289551,0.683350
1519672912196,0.264893,0.246826,0.920654
1519672912219,0.362549,0.295166,0.780273
1519672912253,0.438721,0.416504,0.914307
1519672912314,0.483398,0.460449,0.666016
1519672912322,0.422363,0.053223,1.009277
1519672912360,0.399658,0.321533,0.883545
1519672912393,0.282471,0.416748,0.746582
1519672912424,0.272705,0.301514,0.853027
1519672912457,0.618652,0.101563,0.986084
1519672912490,0.536133,0.155273,0.726318
1519672912523,0.545898,0.036133,0.820801
1519672912559,0.393555,0.100098,0.743164
1519672912593,0.430908,0.046631,0.931885
1519672912601,0.474609,0.055420,0.803955
1519672912657,0.405518,0.108398,0.900146
1519672912690,0.403564,0.265381,0.858887
1519672912699,0.363525,0.406982,0.828857
1519672912762,0.739502,0.196533,0.952148
1519672912771,0.501221,0.049805,0.818848
1519672912819,0.315918,0.271240,0.896973
1519672912851,0.222900,0.504883,0.930664
1519672912885,0.201416,0.452637,0.739258
1519672912917,0.196533,0.493164,0.882568
1519672912952,0.236328,0.659912,0.902100
1519672912988,0.156494,0.493896,1.062012
1519672913020,-0.017578,0.445313,1.009033
1519672913052,-0.187744,0.681396,0.893066
1519672913085,-0.123291,0.699707,0.801025
1519672913090,-0.029785,0.791016,0.740479
1519672913143,0.108398,0.788330,0.816162
1519672913177,0.103271,0.499512,0.781494
1519672913185,-0.018311,0.563721,0.800781
1519672913237,-0.045654,0.488525,0.893311
1519672913270,-0.189209,0.510986,0.899170
1519672913289,-0.036377,0.524658,0.918457
1519672913322,0.257080,0.560547,0.833008
1519672913354,0.311768,0.368896,0.562256
1519672913388,0.301758,0.340088,0.614014
1519672913420,0.137939,0.475830,0.970459
1519672913452,-0.012207,0.635742,0.822021
1519672913485,0.046875,0.405518,0.944092
1519672913522,0.272461,0.550537,0.956787
1519672913553,0.284424,0.589844,0.944824
1519672913561,0.014404,0.561035,0.667969
1519672913618,-0.073242,0.638428,0.736328
1519672913649,0.238281,0.853760,0.969238
1519672913682,0.221680,0.379395,1.127930
1519672913714,0.206055,0.716064,0.865234
1519672913746,0.488281,0.630615,0.729736
1519672913779,0.461182,0.488770,0.892578
1519672913811,0.284424,0.330078,0.727295
1519672913841,0.266357,0.402588,0.751709
1519672913871,0.258789,0.450195,0.771729
1519672913905,0.321045,0.497559,0.803223
1519672913937,0.287354,0.603516,0.876953
1519672913979,0.389893,0.597900,1.027588
1519672914011,0.390625,0.686768,0.997314
1519672914044,0.453125,0.779541,1.082520
1519672914047,0.421875,1.007813,1.137451
1519672914103,0.392334,1.429688,1.184326
1519672914135,-0.112061,1.520020,0.860352
1519672914140,-0.369873,1.605469,0.729736
1519672914199,-0.229248,1.108398,0.075439
1519672914232,-0.187744,1.134033,-0.034180
1519672914244,-0.194580,0.740967,-0.046631
1519672914302,-0.344971,0.318359,-0.082764
1519672914311,-0.418457,0.197998,0.085938
1519672914366,-0.270264,0.124756,0.385742
1519672914381,-0.229492,-0.005127,0.333252
1519672914411,-0.231934,0.026123,0.225342
1519672914443,-0.436523,0.136719,0.102539
1519672914477,-0.687744,0.383057,-0.069824
1519672914510,-0.834229,0.294189,-0.339111
1519672914543,-0.919678,0.792725,-0.241455
1519672914576,-0.835205,0.945557,0.034180
1519672914609,-0.775879,0.979248,0.207520
1519672914641,-0.485107,0.805420,0.093994
1519672914675,0.065186,0.575928,0.315918
1519672914707,0.181885,0.562256,0.309570
1519672914739,0.135498,0.629639,0.219727
1519672914772,-0.003174,0.977295,-0.007080
1519672914812,-0.143555,1.267334,-0.221436
1519672914844,-0.180420,2.073242,-0.414063
1519672914877,-0.215820,1.814941,-0.051270
1519672914909,-0.483643,1.238770,0.343262
1519672914942,-0.774414,1.058350,-0.146973
1519672914975,-0.233887,0.520508,0.331299
1519672915008,0.047119,0.205078,0.365234
1519672915016,0.533447,1.070313,0.198242
1519672915065,0.932861,1.572510,0.223877
1519672915120,0.991455,1.176025,0.369141
1519672915129,0.811035,1.312744,0.825439
1519672915179,0.914307,1.446777,1.145508
1519672915187,0.743408,1.234375,1.125977
1519672915225,0.226318,0.010498,0.665283
1519672915257,0.555664,0.515625,0.709717
1519672915290,0.092529,0.418457,1.612793
1519672915323,0.183350,0.685791,0.891602
1519672915356,0.192383,0.643555,0.573486
1519672915390,0.550781,0.647705,0.878174
1519672915422,0.080078,0.526855,0.781250
1519672915458,0.105469,0.731201,0.931885
1519672915491,0.191650,0.457275,0.818848
1519672915525,0.583252,0.607910,0.848389
1519672915556,0.224609,0.615234,0.718262
1519672915561,0.552979,0.629639,0.744385
1519672915590,0.539307,0.325928,0.846924
1519672915623,0.143555,0.349365,0.759033
1519672915679,0.225342,0.374512,0.979736
1519672915685,0.340332,0.188721,0.925537
1519672915742,0.333252,0.396240,0.927246
1519672915775,0.389160,0.645752,0.826172
1519672915807,0.468262,0.508789,0.743896
1519672915840,0.283936,0.152588,0.714844
1519672915874,-0.012207,0.331787,0.647705
1519672915883,0.163086,0.676270,0.842773
1519672915936,-0.132568,0.468018,0.729004
1519672915970,0.328369,0.695313,0.911133
1519672915978,0.416748,0.302734,0.653320
1519672916081,0.509277,0.339111,0.870850
1519672916084,0.080566,0.360596,0.782227
1519672916149,0.196289,0.651367,0.890869
1519672916151,-0.038574,0.685059,0.858643
1519672916216,0.139404,0.753906,0.898682
1519672916219,0.308105,0.871338,0.795166
1519672916285,0.093506,0.575439,0.655518
1519672916294,0.115723,0.571045,0.772705
1519672916353,0.035889,0.576416,0.732178
1519672916361,0.339355,0.617432,0.803467
1519672916419,0.011963,0.499512,0.966553
1519672916422,0.258789,0.654297,0.700439
1519672916480,0.250000,0.626221,0.720947
1519672916484,0.448242,0.577881,0.732910
1519672916489,0.052246,0.387451,0.699219
1519672916498,0.330078,0.801270,0.967041
1519672916552,0.479980,0.645752,0.643555
1519672916554,0.615723,0.678467,0.608154
1519672916586,0.471191,0.588867,0.769531
1519672916618,0.397461,0.313232,0.755615
1519672916652,0.112549,0.270996,0.853516
1519672916684,0.223633,0.672852,1.012207
1519672916717,0.453125,0.578613,0.810791
1519672916750,0.470459,0.693604,0.656250
1519672916781,0.638916,0.477783,0.777344
1519672916842,0.252441,0.540283,0.829590
1519672916850,0.539063,0.722168,0.919922
1519672916887,0.415283,0.561768,0.855225
1519672916917,0.146729,0.747314,0.762939
1519672916950,0.302002,0.611572,0.735107
1519672916982,0.195313,0.446045,0.626465
1519672917015,0.594971,0.562256,0.556641
1519672917050,0.595947,0.363525,0.728760
1519672917085,0.833496,0.300781,0.670166
1519672917118,0.566895,0.175537,0.767334
1519672917150,0.531982,0.454346,0.856689
1519672917167,0.652344,0.370850,0.757813
1519672917198,0.555420,0.270508,0.728760
1519672917257,0.514648,0.446533,0.618896
1519672917269,0.536377,0.372559,0.769531
1519672917303,0.488525,0.344482,0.781738
1519672917336,0.575439,0.333984,0.974365
1519672917372,0.748535,0.345947,0.692139
1519672917405,0.596191,0.392578,0.834717
1519672917437,0.423584,0.413574,0.653320
1519672917470,0.467773,0.569336,0.728271
1519672917503,0.327881,0.443604,0.687744
1519672917511,0.488770,0.705811,0.690918
1519672917567,0.478760,0.438477,0.673584
1519672917601,0.584229,0.392578,0.555420
1519672917633,0.664307,0.419189,0.993896
1519672917679,0.511963,0.122314,0.376221
1519672917685,0.571289,0.351074,0.902100
1519672917726,0.516846,0.305420,0.688721
1519672917759,0.629883,0.262939,0.269531
1519672917792,0.629639,0.421143,0.666260
1519672917823,0.676758,0.297363,0.612305
1519672917857,0.497803,0.520996,0.635010
1519672917865,0.610840,0.280029,0.881592
1519672917894,0.621582,0.588379,0.808838
1519672917949,0.722168,0.202393,0.627686
1519672917982,0.553467,0.646973,0.558838
1519672918014,0.276855,0.668213,0.893799
1519672918047,0.297607,0.654053,1.157227
1519672918080,0.301270,0.703369,0.907471
1519672918094,0.456055,0.764160,0.773682
1519672918127,0.595215,0.647217,0.628418
1519672918184,0.491455,0.474365,0.684570
1519672918217,0.380371,0.619141,0.795654
1519672918250,0.422852,0.542236,0.592041
1519672918282,0.659180,0.555176,0.597900
1519672918315,0.410400,0.471924,0.769287
1519672918327,0.635498,0.573486,0.873535
1519672918383,0.567627,0.078369,0.631348
1519672918392,0.489990,0.574219,0.656006
1519672918440,0.631348,0.054199,0.767578
1519672918444,0.570068,0.534180,0.756348
1519672918477,0.629883,0.444336,0.756348
1519672918544,0.590332,0.236084,0.720947
1519672918547,0.477539,0.345703,0.667969
1519672918577,0.604980,0.670410,0.767578
1519672918610,0.414063,0.570313,0.887695
1519672918644,0.304932,0.531494,0.926025
1519672918677,0.309082,0.727295,0.720215
1519672918710,0.291992,0.364258,0.734619
1519672918741,0.290039,0.605713,0.622314
1519672918797,0.282471,0.729248,0.473145
1519672918830,0.390869,0.566650,0.499512
1519672918864,0.387451,0.571045,0.584717
1519672918873,0.423096,0.509277,0.749023
1519672918927,0.311035,0.611084,0.916748
1519672918931,0.311768,0.703369,0.777832
1519672918959,0.267822,0.614014,0.785645
1519672918991,0.426758,0.598145,0.706055
1519672919024,0.391357,0.713135,0.544434
1519672919083,0.196289,0.698486,0.651123
1519672919089,0.508545,0.655029,0.662598
1519672919147,0.259277,0.855957,0.580322
1519672919179,0.350342,0.460449,0.890381
1519672919212,0.155273,0.891357,0.716797
1519672919244,0.075195,0.694824,0.859619
1519672919253,0.469727,0.934326,0.649902
1519672919308,0.224854,0.582031,0.640381
1519672919321,0.386719,0.677490,0.778809
1519672919353,0.218994,0.584229,0.723389
1519672919411,-0.165039,0.614502,0.509277
1519672919414,0.242432,0.772461,0.961426
1519672919444,0.383057,0.639404,0.537598
1519672919502,0.476074,0.724609,0.629150
1519672919506,0.383545,0.110840,0.753418
1519672919561,0.375244,0.824707,0.780518
1519672919593,0.463867,0.432373,0.977295
1519672919627,0.561523,0.478271,0.765137
1519672919662,0.407715,0.321045,0.594727
1519672919670,0.700928,0.609619,0.582520
1519672919726,0.571289,0.243896,0.584473
1519672919739,0.565430,-0.013184,0.991455
1519672919772,0.542480,0.124023,0.947998
1519672919829,0.343994,0.148682,0.973877
1519672919833,0.457275,0.058350,1.109375
1519672919886,0.383057,0.370361,0.814697
1519672919919,0.406250,0.460449,0.724609
1519672919923,0.529785,0.265381,0.744385
1519672919953,0.457764,0.474365,0.900391
1519672920011,0.349609,0.299316,0.846680
1519672920042,0.591064,0.221924,0.709717
1519672920075,0.532715,0.286865,0.913330
1519672920083,0.562012,0.124756,0.734375
1519672920140,0.477295,0.495117,0.820557
1519672920154,0.303467,0.064453,0.721436
1519672920186,0.498047,0.227051,0.977051
1519672920239,0.502441,0.063232,0.638428
1519672920274,0.709717,0.302246,0.656494
1519672920307,0.371582,0.130371,0.712158
1519672920318,0.562256,0.369873,0.899170
1519672920366,0.315430,0.240479,0.890869
1519672920371,0.468262,0.383301,0.898926
1519672920424,0.392090,0.514404,0.967773
1519672920456,0.330078,0.278076,0.922363
1519672920464,0.478760,0.512939,0.832520
1519672920520,0.401611,0.519775,0.909424
1519672920552,0.464355,0.435303,0.882813
1519672920566,0.362793,0.333496,0.395752
1519672920623,0.536865,0.510742,0.994141
1519672920656,0.510254,0.436035,0.734863
1519672920664,0.523926,0.515381,0.584717
1519672920720,0.395264,0.325928,0.914551
1519672920753,0.440674,0.509277,0.783447
1519672920785,0.476807,0.375977,0.950684
1519672920787,0.370850,0.465820,0.640625
1519672920843,0.375244,0.474121,0.773438
1519672920851,0.473145,0.659668,0.691406
1519672920880,0.488281,0.278809,0.902832
1519672920937,0.384033,0.348145,0.805420
1519672920970,0.302734,0.366211,0.898193
1519672920984,0.449951,0.521484,0.866455
1519672921017,0.503174,0.362793,0.612061
1519672921092,0.640625,0.260498,0.592529
1519672921098,0.488525,0.290039,0.744141
1519672921161,0.619629,0.381348,0.826904
1519672921169,0.518311,-0.066650,0.567383
1519672921228,0.230225,0.191162,0.821533
1519672921236,0.525635,0.309814,0.898193
1519672921296,0.253662,0.402100,0.842285
1519672921301,0.404541,0.491943,0.996582
1519672921363,0.317383,0.592529,0.731934
1519672921366,0.274170,0.604736,0.796875
1519672921431,0.141357,0.382080,0.814941
1519672921501,0.380859,0.667236,0.792480
1519672921506,0.246338,0.394287,1.055664
1519672921569,0.315186,0.754639,1.352051
1519672921574,0.063721,0.297119,0.437500
1519672921593,0.296143,0.453613,0.445313
1519672921599,0.417480,0.161865,0.919189
1519672921604,0.383789,0.559326,0.637695
1519672921654,0.050537,0.724121,0.916260
1519672921660,0.136719,0.615967,0.730469
1519672921714,-0.014648,0.802979,0.901855
1519672921748,0.282715,0.547852,0.666016
1519672921756,0.052246,0.842529,0.797119
1519672921806,0.292480,0.832031,0.685303
1519672921836,-0.044189,0.683350,0.794922
1519672921869,-0.089355,0.920654,0.744141
1519672921901,0.240967,0.907959,0.752197
1519672921935,0.210693,0.596191,0.658447
1519672921967,0.176270,0.990967,0.811035
1519672922001,-0.152344,0.770752,0.767334
1519672922033,0.212402,0.608154,0.827148
1519672922065,0.383545,0.864990,0.672852
1519672922097,0.062256,0.530762,0.546143
1519672922130,0.674072,0.900391,1.020996
1519672922164,0.083252,0.325684,0.755371
1519672922201,0.057129,0.626953,0.649658
1519672922234,-0.078369,0.872070,0.756592
1519672922242,0.351563,0.788086,0.782959
1519672922290,0.274414,0.571045,0.476807
1519672922323,0.454590,0.578369,0.289063
1519672922326,0.112793,0.372559,0.768555
1519672922382,0.476563,0.564697,1.368896
1519672922414,0.093262,0.378174,0.760742
1519672922448,0.568848,0.618896,1.003906
1519672922480,0.359863,0.178955,0.787598
1519672922516,0.359131,0.657227,0.982910
1519672922550,0.550781,0.251465,0.772461
1519672922581,0.346680,0.345215,0.720215
1519672922615,0.375977,0.418457,0.757568
1519672922621,0.914063,0.214844,0.767578
1519672922675,0.367188,0.170898,0.813721
1519672922708,0.438232,0.489258,0.854492
1519672922716,0.497559,0.058838,0.965576
1519672922764,0.494629,0.414795,0.688477
1519672922799,0.654053,0.256592,0.667969
1519672922831,0.605957,0.057129,0.609375
1519672922864,0.635010,0.321045,0.652344
1519672922897,0.726807,-0.366699,1.158447
1519672922930,0.178467,0.343018,0.696289
1519672922963,0.534424,-0.150391,1.242432
1519672922997,0.336914,0.370361,1.140137
1519672923028,0.778564,0.480713,0.469971
1519672923061,0.412109,0.381592,0.552490
1519672923093,0.498535,0.514404,1.154541
1519672923127,0.300781,0.339111,0.765625
1519672923141,0.193604,0.344971,0.886719
1519672923198,0.291992,0.350586,0.982178
1519672923206,0.541992,0.366455,0.852295
1519672923257,0.757324,0.781250,0.313721
1519672923289,0.341309,0.218018,0.894287
1519672923296,0.259033,0.419434,0.516602
1519672923346,0.254395,0.201904,1.014648
1519672923379,0.380859,0.881836,0.601318
1519672923402,0.885254,-0.248535,1.000732
1519672923434,0.405029,0.480225,0.384033
1519672923467,0.569824,-0.047119,0.682617
1519672923499,0.564697,0.685791,0.815918
1519672923531,0.258789,-0.447510,0.988525
1519672923564,0.204590,0.327148,0.876709
1519672923596,0.272705,-0.128906,1.173340
1519672923629,0.580566,0.555908,0.874268
1519672923661,0.355225,0.201416,0.702881
1519672923669,0.655029,0.545898,0.750488
1519672923724,0.335449,0.480957,0.676270
1519672923778,0.763916,0.702881,0.949707
1519672923785,0.125977,0.372070,1.002441
1519672923831,0.364746,0.581299,1.074707
1519672923877,0.531982,0.539551,0.707764
1519672923881,0.572754,0.653564,0.736816
1519672923915,0.525391,0.494141,0.780273
1519672923964,0.545166,0.537354,0.807129
1519672923973,0.460449,0.474365,0.723633
1519672924045,0.398682,0.318604,0.728027
1519672924054,0.202637,0.463379,0.781494
1519672924080,0.511475,0.985352,0.724121
1519672924127,0.561768,0.364746,0.865967
1519672924162,0.827148,0.193115,0.538574
1519672924209,-0.017578,0.603760,0.518799
1519672924217,0.292725,-0.138672,1.212402
1519672924245,0.089111,1.144775,0.471191
1519672924292,-0.109619,0.184570,0.873779
1519672924326,0.850098,0.640137,1.126709
1519672924386,-0.473145,0.787109,0.563965
1519672924390,0.566406,1.222412,1.057861
1519672924393,-0.180908,0.878662,0.483154
1519672924442,0.369141,0.369385,1.101807
1519672924450,0.199219,1.070801,0.506836
1519672924500,0.083984,0.253906,0.736816
1519672924549,0.531494,1.290771,0.554199
1519672924553,0.321777,0.246338,0.847900
1519672924589,0.395996,0.175049,0.549072
1519672924621,0.097656,0.800293,0.484131
1519672924652,0.499023,0.667969,0.947754
1519672924685,0.417236,0.312256,0.886230
1519672924717,0.316895,0.054688,0.915527
1519672924749,0.313477,0.730225,0.886230
1519672924782,0.466064,0.317871,0.610107
1519672924815,0.363770,0.622314,0.843994
1519672924847,0.490723,0.463135,0.811768
1519672924880,0.416016,0.416992,0.686035
1519672924912,0.537109,0.243652,0.840088
1519672924945,0.663086,0.307861,0.804688
1519672924978,0.566895,0.305420,0.837402
1519672925015,0.652588,0.020752,0.840332
1519672925044,0.704590,0.086182,0.592529
1519672925080,0.471680,0.027344,0.676514
1519672925112,0.505859,0.348389,0.690918
1519672925117,0.629883,0.239258,0.965576
1519672925172,0.464600,0.201660,0.692383
1519672925204,0.542969,0.232422,0.998047
1519672925235,0.543945,0.483154,0.854980
1519672925267,0.462402,0.193115,0.725098
1519672925301,0.480957,0.433105,0.921875
1519672925334,0.368408,0.339111,1.116699
1519672925359,0.413818,0.305420,1.001953
1519672925393,0.304443,0.600586,0.467773
1519672925426,0.779297,0.453369,0.586914
1519672925458,0.414551,0.414063,0.490723
1519672925490,0.772461,0.217285,0.930908
1519672925522,0.187012,0.432373,0.785889
1519672925555,0.742432,0.121094,0.901367
1519672925587,0.363037,0.399414,0.723389
1519672925619,0.429443,0.075195,0.748047
1519672925651,0.750977,0.361572,0.812256
1519672925684,0.567627,0.443848,0.443848
1519672925717,0.631836,0.363037,0.856201
1519672925750,0.634277,0.663086,0.826416
1519672925784,0.357910,0.523438,0.708740
1519672925815,0.432861,0.556885,0.830078
1519672925848,0.218506,0.467529,0.931641
1519672925879,0.261719,0.777588,0.927734
1519672925913,0.214111,0.692871,1.019531
1519672925944,0.349365,0.930664,0.854248
1519672925976,0.169189,0.581787,1.081787
1519672925979,0.150391,0.782227,0.921387
1519672926080,0.415771,0.416016,0.906494
1519672926083,0.072021,0.864746,0.613525
1519672926148,0.822754,0.666992,0.891357
1519672926157,0.154785,0.640137,0.623291
1519672926218,0.373047,0.859619,0.658936
1519672926226,0.775635,0.401611,0.405029
1519672926285,0.931641,0.035156,0.418945
1519672926293,0.593506,-0.062012,0.576172
1519672926351,0.559814,-0.125732,0.754150
1519672926354,0.275635,-0.129395,0.656494
1519672926417,0.533936,0.339600,1.150391
1519672926421,0.456543,0.415771,1.174072
1519672926485,0.628662,0.618408,0.641113
1519672926492,0.401123,0.671631,0.599121
1519672926554,0.367432,0.202637,0.978271
1519672926563,-0.205811,0.560547,0.654541
1519672926571,0.164307,0.561768,1.083740
1519672926574,0.169922,0.777588,0.767090
1519672926642,0.397705,0.699707,0.729004
1519672926651,0.268311,0.677979,0.596680
1519672926674,0.384766,0.689453,0.883789
1519672926732,-0.312012,0.786377,0.899414
1519672926740,0.560059,0.653076,1.009033
1519672926765,0.428711,0.436768,0.629639
1519672926796,0.556885,0.594482,0.633789
1519672926829,0.808350,0.080322,0.277832
1519672926862,0.320068,0.798340,0.643066
1519672926894,0.234375,0.565430,0.903320
1519672926926,0.188721,0.536621,1.000488
1519672926959,0.106201,0.737549,0.913818
1519672926994,0.594971,0.583740,0.717773
1519672927027,0.092285,0.905029,0.691650
1519672927060,0.360840,0.800049,0.633545
1519672927093,-0.014893,0.473389,0.756348
1519672927125,0.509033,1.031250,0.937012
1519672927158,0.281006,0.413086,0.726807
1519672927190,0.636719,0.364746,0.556641
1519672927222,0.428955,0.363770,0.537109
1519672927254,0.382324,0.739746,1.304932
1519672927286,0.223389,0.553711,1.027344
1519672927319,0.291748,0.311035,0.849854
1519672927352,0.308105,0.771729,0.833496
1519672927385,0.275146,0.446289,0.796875
1519672927418,0.296387,0.725830,0.767090
1519672927450,0.647461,0.590088,0.769775
1519672927483,0.630371,0.248535,0.766602
1519672927515,0.213379,0.700439,0.619629
1519672927547,0.508789,0.176514,0.987305
1519672927579,0.243652,0.565674,0.569092
1519672927611,0.788086,0.422607,0.682129
1519672927644,0.960205,-0.461670,0.579834
1519672927676,0.510986,0.791748,0.272949
1519672927709,0.416748,-0.063477,1.088135
1519672927742,0.274658,0.134521,0.879639
1519672927775,0.625977,0.078857,0.708252
1519672927807,0.463135,0.492920,0.748779
1519672927841,0.373779,0.680908,0.610840
1519672927873,0.171387,0.534180,0.623291
1519672927920,0.284912,0.670898,0.975586
1519672927925,0.782471,0.151855,1.284180
1519672927956,0.456055,0.773438,0.676514
1519672928013,0.365723,0.291016,0.796631
1519672928016,0.103027,0.542969,0.726807
1519672928073,0.440430,0.212158,0.842041
1519672928078,0.224365,0.359375,0.739746
1519672928105,0.508057,0.571045,0.682373
1519672928137,0.426514,0.696777,0.686279
1519672928195,0.594238,0.366699,0.872070
1519672928227,0.285889,0.683838,0.521729
1519672928233,0.332031,0.231201,1.008789
1519672928291,0.694824,0.468750,0.847412
1519672928323,0.430664,0.248779,0.793457
1519672928356,0.593262,0.533691,0.812744
1519672928389,0.635986,0.425537,0.559326
1519672928390,0.666504,0.532715,0.789551
1519672928447,0.304932,0.302979,0.632080
1519672928479,0.575684,0.794922,0.976807
1519672928483,0.199463,0.256348,0.871094
1519672928541,0.455566,0.395264,1.027832
1519672928573,0.266113,0.484619,0.658691
1519672928606,0.525635,0.831543,0.796631
1519672928638,0.308350,0.591064,0.687744
1519672928671,0.704102,0.599609,0.770752
1519672928703,0.583008,0.590332,0.798340
1519672928736,0.031738,0.560303,0.612305
1519672928751,0.270508,0.539795,0.631104
1519672928809,0.417969,0.474121,0.588379
1519672928841,0.221680,0.382324,0.891113
1519672928849,0.281250,1.065918,0.260742
1519672928905,0.675537,0.160156,1.155518
1519672928940,-0.480469,1.082764,0.670654
1519672928972,0.295654,0.699463,0.945557
1519672928975,0.153320,1.001953,0.696289
1519672929031,0.166260,0.452881,0.968262
1519672929064,-0.006836,0.812256,0.747559
1519672929066,0.185791,0.851563,0.825439
1519672929122,0.163574,0.711426,0.720215
1519672929155,0.280029,0.774658,0.770264
1519672929169,0.487305,0.885986,0.690430
1519672929202,0.654053,0.920654,0.819336
1519672929230,0.823730,0.583740,0.719971
1519672929287,0.556152,0.570801,0.633057
1519672929320,0.233398,0.499023,0.668945
1519672929352,-0.031738,0.433350,0.780518
1519672929354,-0.320068,0.429932,0.832031
1519672929412,-0.511963,0.302246,0.842529
1519672929419,-0.514648,0.148438,0.700684
1519672929452,-0.187256,0.289063,0.771484
1519672929510,0.360840,0.734131,0.892578
1519672929516,0.450684,0.665771,0.564941
1519672929573,-0.130615,-0.007813,-0.008057
1519672929587,-0.085938,0.343750,0.352051
1519672929620,0.590576,0.564697,0.362305
1519672929652,1.445313,1.688965,1.417969
1519672929685,0.706055,0.715332,0.827393
1519672929717,0.501465,0.125244,0.993896
1519672929750,0.442139,0.243408,0.804199
1519672929784,0.639648,0.497314,1.151123
1519672929840,0.545410,0.129639,0.942383
1519672929846,0.568848,0.317139,0.511475
1519672929882,0.681885,-0.075684,0.604492
1519672929915,0.656250,0.127197,0.552979
1519672929946,0.688721,-0.140625,0.723633
1519672930003,0.699219,0.174072,0.698486
1519672930005,0.717041,-0.090088,0.783203
1519672930037,0.557129,0.171387,0.813965
1519672930095,0.693359,0.178467,0.863281
1519672930097,0.620850,0.176270,0.531006
1519672930129,0.638184,0.417236,0.872559
1519672930186,0.783203,0.122070,0.561279
1519672930218,0.699463,0.230957,0.570068
1519672930226,0.786621,0.278320,1.041016
1519672930282,0.488525,0.439453,0.653564
1519672930315,0.875732,-0.194580,0.793457
1519672930347,0.443359,0.346436,0.643799
1519672930380,0.697998,0.106201,0.899658
1519672930381,0.508789,0.471191,1.091309
1519672930426,0.730713,0.406982,0.723877
1519672930478,0.620361,0.264893,0.802246
1519672930480,0.708496,0.380859,0.622314
1519672930512,0.678467,0.248779,0.689941
1519672930545,0.757568,0.261719,0.488281
1519672930603,0.619141,0.184082,0.594238
1519672930635,0.690186,0.194336,0.685059
1519672930641,0.567139,0.235596,0.870850
1519672930699,0.531738,0.200439,0.864502
1519672930731,0.787598,-0.047119,0.780273
1519672930764,0.444824,0.365479,0.428467
1519672930796,0.961914,0.052734,0.652344
1519672930798,0.606934,0.353027,0.506104
1519672930843,0.871094,-0.020508,0.559082
1519672930875,0.799316,0.207520,1.080078
1519672930908,0.663818,0.101318,0.752930
1519672930965,0.517578,0.348633,0.639648
1519672930967,0.633545,0.294189,0.630859
1519672930999,0.730957,0.158447,0.482666
1519672931099,0.775146,0.294189,0.849121
1519672931101,0.695313,0.397949,0.730957
1519672931166,0.445557,0.588623,0.828613
1519672931168,0.682617,0.294678,0.615479
1519672931234,0.465576,0.392334,0.748535
1519672931235,0.699463,0.322998,0.585938
1519672931301,0.445313,0.348877,1.134521
1519672931303,0.594238,0.281982,0.556396
1519672931369,0.486328,0.392334,0.781250
1519672931371,0.584473,0.363525,0.753418
1519672931437,0.775146,0.147705,0.704102
1519672931439,0.501221,0.298096,0.776611
1519672931504,0.478760,0.367676,0.871582
1519672931505,0.703125,0.251709,0.541992
1519672931565,0.934326,0.013428,0.693115
1519672931567,0.157715,0.334717,0.507813
1519672931569,0.624268,0.352295,0.867920
1519672931575,0.598877,0.482910,0.619141
1519672931632,0.810303,0.139160,0.451660
1519672931646,0.789795,0.041992,0.958252
1519672931678,0.313721,0.504150,1.016113
1519672931710,0.749512,0.371826,0.695801
1519672931759,0.583252,0.136719,0.665039
1519672931761,0.501953,0.297607,0.598145
1519672931821,0.514404,0.053711,0.675293
1519672931854,0.585938,0.575439,0.749023
1519672931860,0.712158,-0.058594,0.953125
1519672931912,0.416992,0.349365,0.385010
1519672931945,0.737061,0.362061,0.779785
1519672931977,0.698730,0.236816,0.923828
1519672932009,0.895264,0.029053,0.753174
1519672932041,0.457275,0.372803,0.873779
1519672932055,0.440186,0.208496,0.911133
1519672932087,0.654785,0.088379,0.797852
1519672932146,0.314697,0.608398,0.695801
1519672932178,1.085205,-0.237061,0.580078
1519672932211,0.439453,0.470703,0.758301
1519672932219,0.838623,-0.004883,0.822266
1519672932283,0.785156,0.057129,0.678955
1519672932291,0.258545,0.254639,0.709961
1519672932346,0.503174,0.368652,0.633301
1519672932355,0.661865,0.294678,0.855225
1519672932403,0.819092,0.056396,0.727539
1519672932406,0.577637,0.191406,0.853760
1519672932436,0.519775,0.180176,0.718262
1519672932478,0.604736,0.042725,0.760498
1519672932511,0.379639,0.165771,0.808838
1519672932546,0.551270,0.287842,0.864502
1519672932578,0.707275,0.247070,0.836426
1519672932610,0.752441,0.183594,0.675781
1519672932642,0.509033,0.197021,0.683350
1519672932676,0.435059,0.215332,0.681396
1519672932707,0.596924,-0.003662,0.821045
1519672932739,0.416016,0.378418,0.824951
1519672932776,0.561035,0.041748,0.936768
1519672932809,0.475586,0.279541,0.910645
1519672932841,0.496582,0.519043,0.329834
1519672932878,0.670410,-0.220947,0.989502
1519672932912,0.258789,0.256836,0.688232
1519672932943,0.556152,0.099854,0.820313
1519672932976,0.431152,0.470703,0.594727
1519672933008,0.614502,-0.148438,0.980713
1519672933040,0.429199,0.254639,0.438232
1519672933072,1.080322,0.264404,0.665771
1519672933105,0.540283,0.223633,1.402832
1519672933137,0.377197,0.404053,0.825684
1519672933169,0.492676,0.347412,0.795898
1519672933203,0.497803,0.120605,0.635498
1519672933211,0.458008,0.243408,0.643066
1519672933261,0.687744,0.339844,0.414551
1519672933303,0.568115,0.361816,0.876221
1519672933313,0.693848,0.162842,0.478271
1519672933360,0.593750,0.497803,0.702393
1519672933368,0.895020,0.434326,0.867676
1519672933425,0.544434,0.483887,1.017578
1519672933458,0.135986,0.313965,1.169434
1519672933490,0.288086,0.528320,0.476563
1519672933522,0.456543,0.285645,0.554199
1519672933555,0.750977,1.527588,-0.028076
1519672933588,0.981201,-0.445557,1.069092
1519672933621,0.388428,0.341553,1.066406
1519672933653,0.695313,0.115967,0.679199
1519672933666,0.412842,0.300049,0.639648
1519672933699,0.634521,0.202881,0.617188
1519672933735,0.427490,0.187744,0.665039
1519672933767,0.518311,0.172607,0.731445
1519672933800,0.914063,0.372803,0.591309
1519672933833,0.428467,0.122070,0.862793
1519672933865,0.324707,0.400879,0.707764
1519672933899,0.611572,0.486328,0.721680
1519672933931,0.613037,0.205322,0.807861
1519672933963,1.002441,0.241211,0.729492
1519672933997,0.321289,0.147705,1.048828
1519672934028,0.685547,0.758789,0.628662
1519672934060,0.784424,0.184082,0.904297
1519672934100,0.083496,0.305420,0.825195
1519672934133,0.302979,0.316895,0.699463
1519672934167,0.592529,0.436035,0.920166
1519672934175,0.542236,0.457031,0.927002
1519672934225,0.671875,0.440918,0.706055
1519672934260,0.839355,-0.072266,1.018066
1519672934269,0.253174,0.154053,1.049805
1519672934320,0.536621,0.183350,0.463135
1519672934352,0.545654,0.017334,0.399414
1519672934384,0.263428,0.322266,0.756348
1519672934417,1.023682,-0.261230,0.719238
1519672934452,0.339844,0.165527,0.902832
1519672934485,1.008057,-0.233643,0.969238
1519672934499,0.258545,0.327637,1.343262
1519672934532,0.532715,0.171875,0.877197
1519672934565,0.381104,0.331055,0.854980
1519672934621,0.499756,0.225342,0.450195
1519672934626,0.640381,0.041748,0.362549
1519672934684,0.663818,-0.051514,0.719971
1519672934695,0.876709,-0.564453,0.860840
1519672934753,0.488770,-0.260498,0.975830
1519672934762,0.654053,-0.184570,0.852051
1519672934785,0.337158,0.144775,0.843506
1519672934819,0.594482,0.154541,0.893066
1519672934851,0.522461,0.117188,0.783691
1519672934887,0.372803,-0.058350,0.679443
1519672934929,0.577881,-0.024170,0.915527
1519672934962,0.548584,0.029785,0.752441
1519672934994,0.491211,-0.015625,1.149170
1519672935028,0.564209,0.037354,0.942383
1519672935060,0.496338,0.094727,1.024902
1519672935090,0.559082,-0.168457,0.662109
1519672935123,0.351318,0.002930,0.765381
1519672935130,0.397461,-0.040527,0.728516
1519672935185,0.440674,0.075439,0.724609
1519672935219,0.573975,0.051025,0.891602
1519672935229,0.577393,0.027344,0.799805
1519672935281,0.538086,-0.003906,0.773193
1519672935313,0.522461,0.044434,0.989746
1519672935326,0.450439,0.137451,0.766357
1519672935384,0.344482,0.232666,0.888916
1519672935416,0.497070,0.243652,1.064941
1519672935423,0.533447,0.197510,0.691162
1519672935457,0.512939,0.085938,0.599609
1519672935490,0.537109,0.064697,0.578369
1519672935549,0.544434,-0.079102,1.130371
1519672935600,0.688477,-0.075439,0.958008
1519672935606,0.595459,-0.051758,0.744141
1519672935634,0.439209,0.235840,0.981445
1519672935671,0.563232,-0.014160,0.996826
1519672935704,0.751709,0.235107,0.469727
1519672935712,0.563965,0.228516,0.621826
1519672935775,0.606934,0.049072,0.753418
1519672935784,0.563232,0.063232,0.751221
1519672935807,0.493408,0.125732,1.030029
1519672935840,0.462402,0.277588,1.018311
1519672935873,0.405518,0.536133,1.065918
1519672935931,0.546143,0.488037,0.993164
1519672935964,0.482178,0.516846,0.742432
1519672935997,0.601563,0.510254,0.789063
1519672936032,0.510986,0.379883,1.019287
1519672936100,0.317383,0.376953,0.746094
1519672936103,0.468994,0.184814,0.831787
1519672936168,0.539795,0.327148,0.554199
1519672936173,0.707520,0.214600,0.586914
1519672936237,0.878906,0.260986,0.486816
1519672936246,0.883545,-0.164551,0.716553
1519672936304,0.585693,-0.136230,0.719238
1519672936313,0.435547,-0.015137,0.767090
1519672936371,0.527588,0.003418,0.832764
1519672936380,0.503174,0.285889,0.677734
1519672936439,0.666260,0.297363,0.602295
1519672936447,0.578125,0.312744,0.728516
1519672936505,0.252441,0.302246,0.900879
1519672936508,0.047363,0.459473,1.123535
1519672936563,0.160156,0.621582,1.005127
1519672936566,0.525879,0.812256,1.019043
1519672936569,0.412598,0.285645,1.003418
1519672936573,0.122559,0.522461,0.755615
1519672936634,0.035889,0.604004,0.931396
1519672936668,0.405273,0.666748,0.674072
1519672936676,0.595947,0.331299,0.881592
1519672936728,0.191650,0.366699,0.705322
1519672936761,0.348145,0.699219,0.744141
1519672936794,0.487061,0.238525,0.731445
1519672936825,0.075195,0.541504,0.521973
1519672936879,1.162109,0.507568,0.678467
1519672936883,0.280518,-0.238037,0.970459
1519672936914,0.500977,0.353760,1.134521
1519672936955,0.437500,0.518066,0.884521
1519672936987,0.338867,0.517090,0.897949
1519672937022,0.131348,0.417725,0.786377
1519672937056,0.205322,0.531738,0.957764
1519672937087,0.372070,0.729248,0.668701
1519672937119,0.609131,0.473877,0.765137
1519672937123,0.439209,0.378418,0.879395
1519672937153,0.487549,0.258545,0.783691
1519672937211,0.600342,0.146240,0.598145
1519672937217,0.183350,0.557861,0.974609
1519672937276,0.608398,0.032715,0.842529
1519672937309,0.344727,0.416748,0.753906
1519672937323,0.088135,0.745850,1.009033
1519672937365,0.020508,0.482910,1.068848
1519672937398,0.383545,0.404785,0.645508
1519672937415,-0.003174,0.856201,0.998535
1519672937474,0.490479,0.388184,0.936523
1519672937506,0.328613,0.429932,0.796143
1519672937538,0.720459,0.364746,0.679932
1519672937546,0.483154,0.126709,0.859131
1519672937603,0.486084,0.354980,0.708496
1519672937635,0.589111,0.009521,0.730713
1519672937641,0.632324,-0.163574,0.771240
1519672937694,0.403564,0.079590,0.698242
1519672937703,0.439697,0.239990,0.691162
1519672937738,0.461182,0.387207,0.614258
1519672937771,0.634521,0.127441,0.739014
1519672937803,0.597412,0.083496,0.768555
1519672937835,0.889648,-0.322998,0.657471
1519672937868,0.579346,-0.509766,0.737549
1519672937902,0.504883,-0.394043,0.923828
1519672937935,0.510254,-0.066895,0.895752
1519672937992,0.576660,-0.127686,0.654053
1519672938000,0.563721,0.167236,0.766357
1519672938054,0.450684,0.208008,0.849121
1519672938087,0.447021,0.283203,0.896240
1519672938118,0.677979,0.127441,0.862305
1519672938122,0.697754,-0.031494,0.689697
1519672938159,0.444824,0.205811,0.538574
1519672938191,0.479248,0.139648,0.945557
1519672938225,0.508301,-0.049316,1.139160
1519672938257,0.649902,0.368896,0.878906
1519672938292,0.556641,0.324463,0.803711
1519672938325,0.519043,0.315186,0.577148
1519672938358,0.292969,0.520264,1.146729
1519672938388,0.037354,0.482910,1.278076
1519672938422,-0.011719,0.532227,1.273926
1519672938455,0.540527,0.793701,1.225098
1519672938486,0.604004,0.529541,0.819336
1519672938519,0.530273,0.735596,0.692139
1519672938565,0.483887,0.336670,0.748535
1519672938569,0.461182,0.115723,0.668945
1519672938599,0.554443,-0.256592,0.750488
1519672938658,0.368652,0.074707,0.893799
1519672938666,0.521729,0.117432,0.524658
1519672938721,0.450928,0.104004,0.816406
1519672938753,0.338623,0.364990,1.322021
1519672938786,0.204590,0.509766,0.964355
1519672938818,0.209229,0.597412,0.916992
1519672938849,0.323486,0.484619,0.915771
1519672938882,0.521973,0.407471,1.130615
1519672938916,0.450684,0.436768,0.726318
1519672938951,0.514893,0.162598,0.809814
1519672938963,0.560547,0.051514,0.621582
1519672938996,0.515869,-0.130371,0.685547
1519672939029,0.324463,-0.007813,0.881592
1519672939063,0.718262,-0.014893,0.904541
1519672939094,0.618652,0.144775,0.840820
1519672939152,0.094238,0.198730,0.900391
1519672939155,0.202637,0.617676,1.270752
1519672939186,0.205078,0.579102,1.004883
1519672939247,0.532471,0.343506,1.035156
1519672939256,0.336670,0.679443,1.111572
1519672939282,0.344971,0.313965,0.795898
1519672939314,0.520508,0.062744,0.643311
1519672939349,0.520264,-0.254639,0.607666
1519672939398,0.936279,-0.263916,0.976563
1519672939442,0.814209,-0.520508,0.686279
1519672939450,0.472168,-0.158936,0.606934
1519672939500,0.433350,-0.244385,0.670410
1519672939510,0.394043,-0.090332,0.878906
1519672939542,0.384033,-0.054688,1.208496
1519672939577,0.206299,0.274902,1.394043
1519672939610,0.342041,0.587891,0.872803
1519672939641,0.380127,0.828369,1.129639
1519672939675,0.385498,0.496094,0.937744
1519672939707,0.380127,0.399658,0.894775
1519672939740,0.303955,0.237793,0.914795
1519672939782,0.397949,0.224854,1.041504
1519672939813,0.517822,0.185547,0.654541
1519672939845,0.301514,0.119385,0.793213
1519672939876,0.704834,-0.042725,1.099609
1519672939909,0.504395,0.017334,0.909180
1519672939942,0.265381,0.205322,0.688477
1519672939945,0.501221,0.289063,0.733887
1519672940002,0.544434,0.187988,0.765137
1519672940035,0.947021,-0.339355,0.781982
1519672940044,0.457520,-0.398193,0.687500
1519672940098,0.454590,-0.115723,1.146484
1519672940130,0.420654,-0.247070,0.654053
1519672940161,0.310547,-0.014893,1.046143
1519672940175,0.258789,0.305420,0.941406
1519672940208,0.573486,0.195313,1.161621
1519672940240,0.117432,0.288818,0.965088
1519672940273,0.470703,0.235107,1.066650
1519672940334,0.068359,0.259277,1.162842
1519672940344,0.399414,0.387695,1.162842
1519672940399,0.420410,0.509521,0.797363
1519672940408,0.416504,0.076416,0.881348
1519672940462,0.433350,-0.041748,0.592529
1519672940474,0.092041,0.148193,0.919189
1519672940507,0.577881,0.009766,1.021973
1519672940539,0.701660,0.284912,0.666260
1519672940572,0.635254,-0.050049,0.600098
1519672940586,0.471680,-0.242676,0.808594
1519672940643,0.339111,-0.281006,0.784424
1519672940675,0.365479,-0.122070,0.976074
1519672940721,0.345947,-0.071777,0.842285
1519672940724,0.278564,0.326416,0.917725
1519672940780,0.558594,0.509033,1.008789
1519672940788,0.422119,0.083008,0.717773
1519672940842,0.103760,0.664063,1.108643
1519672940877,0.616455,0.229248,1.376465
1519672940910,0.245850,0.193604,0.922607
1519672940918,0.306396,0.653320,1.130859
1519672940968,0.389648,0.343994,0.900879
1519672940981,0.241943,0.363037,0.776123
1519672941014,0.439209,0.121826,0.799805
1519672941087,0.472168,0.264893,0.848145
1519672941154,0.345459,0.087891,0.876465
1519672941157,0.422607,-0.123291,0.814209
1519672941222,0.407471,0.263428,0.739502
1519672941227,0.538086,0.075928,0.879395
1519672941291,0.615234,0.071777,1.009277
1519672941300,0.275391,0.228027,0.506592
1519672941356,0.529785,-0.033447,0.967529
1519672941360,0.443115,-0.040283,1.082275
1519672941424,0.319336,-0.008545,0.553711
1519672941427,0.558838,0.070313,1.002686
1519672941493,0.279297,0.074463,0.663330
1519672941502,0.542725,0.164795,1.096680
1519672941561,0.156494,0.262207,0.646729
1519672941569,0.324707,0.402832,0.811279
1519672941585,0.282959,0.519531,1.329590
1519672941590,0.919922,-0.579346,0.941162
1519672941599,0.199707,0.412598,1.145996
1519672941643,0.636230,-0.134033,0.973145
1519672941651,0.303223,-0.062012,0.494629
1519672941706,0.445801,0.140869,0.887207
1519672941739,0.520996,0.170166,0.930176
1519672941772,0.491455,-0.293213,0.434082
1519672941804,0.369629,0.517822,1.149170
1519672941837,0.725098,-0.176025,0.995605
1519672941851,0.554199,0.097656,0.935059
1519672941885,0.469727,0.036621,0.777100
1519672941945,0.437744,0.093994,0.795898
1519672941954,0.397949,0.048828,0.560059
1519672942001,0.416260,0.197998,0.971924
1519672942033,0.344971,-0.016113,0.596680
1519672942041,0.721436,-0.182129,1.122314
1519672942068,1.112549,-0.664795,0.433838
1519672942128,0.432861,0.095703,1.240479
1519672942133,0.165527,0.313721,1.272461
1519672942193,0.619385,0.005859,0.876465
1519672942196,0.515869,0.371826,0.819580
1519672942255,0.579346,0.212158,0.779541
1519672942270,0.550781,0.233398,0.729492
1519672942303,0.531494,0.206787,0.674561
1519672942335,0.552246,0.142334,0.453613
1519672942366,0.926514,-0.194580,0.986572
1519672942404,0.684570,-0.489746,0.532715
1519672942437,0.390381,0.144043,1.062988
1519672942470,0.723877,0.042236,0.808350
1519672942503,0.612061,0.124268,0.568359
1519672942534,0.523682,-0.060791,0.495850
1519672942566,0.611084,0.008301,0.590576
1519672942600,0.851318,-0.083984,0.806885
1519672942632,0.643555,0.016113,1.013672
1519672942664,0.599365,-0.124756,0.777344
1519672942705,0.347168,0.086182,0.894531
1519672942738,0.599121,-0.149414,0.345459
1519672942769,0.448730,0.325928,1.154053
1519672942777,0.501709,-0.098145,0.416260
1519672942833,0.484619,0.368652,1.145264
1519672942867,1.203857,-0.653564,0.852783
1519672942899,0.943115,-0.056396,0.819580
1519672942932,0.478516,0.196045,0.707031
1519672942941,0.606201,-0.008301,0.793701
1519672942990,0.340576,0.255127,0.651123
1519672942999,0.462891,0.237061,0.835205
1519672943052,0.708984,-0.103760,0.584473
1519672943085,0.666992,0.013184,0.831543
1519672943098,0.747559,-0.090820,0.973389
1519672943154,0.710449,0.045410,0.854004
1519672943186,0.551025,0.214111,0.672607
1519672943192,0.556641,0.256348,0.867676
1519672943250,0.693604,0.257324,0.576416
1519672943280,0.573242,0.446289,0.559814
1519672943312,0.719727,0.145508,0.824951
1519672943316,0.433838,0.302979,0.709473
1519672943375,0.579102,0.029053,0.914551
1519672943408,0.566650,0.223633,0.987549
1519672943417,0.611816,0.506592,1.286621
1519672943469,0.685303,0.385254,-0.198730
1519672943501,0.392578,0.511475,1.163818
1519672943514,0.507568,0.103516,0.861572
1519672943545,0.452637,0.467041,1.187744
1519672943577,0.706543,0.268799,0.934326
1519672943610,0.519287,0.492920,0.939209
1519672943643,0.570801,0.119873,0.633789
1519672943678,0.620605,0.302246,0.995361
1519672943734,0.666748,0.532715,0.460449
1519672943791,0.560547,0.436523,0.660156
1519672943799,0.703125,0.211670,0.725830
1519672943846,0.718750,-0.308594,0.606934
1519672943855,0.328369,0.344971,0.650879
1519672943900,0.664063,0.012451,0.832031
1519672943903,0.897217,0.325439,0.688965
1519672943962,0.635986,0.279541,0.546387
1519672943965,0.456543,0.207275,0.970459
1519672944008,1.059082,0.602295,1.213379
1519672944060,0.309570,0.512207,1.465820
1519672944068,0.114502,0.452637,0.324463
1519672944139,0.620605,0.414795,0.691895
1519672944146,0.764893,0.126221,0.688477
1519672944194,0.663086,-0.217285,0.726563
1519672944201,0.374023,0.111328,0.735107
1519672944251,0.873535,-0.033691,0.908936
1519672944256,0.423340,0.202148,0.942871
1519672944304,1.064941,0.282959,1.001465
1519672944339,0.287109,0.366943,0.836426
1519672944385,0.453125,0.567871,0.603760
1519672944390,0.490967,0.051758,0.847412
1519672944446,0.306641,0.340332,0.326416
1519672944455,1.204590,-0.479004,0.955566
1519672944501,0.228271,0.297607,0.998779
1519672944560,0.897461,0.514160,1.000244
1519672944565,0.601074,0.281982,0.883545
1519672944587,0.494629,0.276611,0.511230
1519672944620,0.513672,0.433105,0.472168
1519672944653,0.642334,0.093750,0.730957
1519672944685,0.183838,0.351563,0.901123
1519672944717,1.626953,0.446045,0.489502
1519672944750,0.506104,0.627441,0.857422
1519672944758,0.333740,0.297852,1.143555
1519672944814,0.442139,0.132080,0.625244
1519672944846,0.402100,0.473145,0.500000
1519672944855,0.921143,0.440674,0.619629
1519672944912,0.470947,0.273438,0.622803
1519672944944,0.793457,0.432373,1.064697
1519672944977,0.757080,0.205322,0.639893
1519672945008,0.277100,0.433350,0.654053
1519672945040,0.701904,0.390869,0.549805
1519672945074,0.498535,0.273926,0.462891
1519672945107,0.524170,0.160645,0.708008
1519672945124,0.392578,0.389648,0.894775
1519672945178,0.806152,0.039063,1.000244
1519672945186,0.360596,-0.063721,1.479736
1519672945243,0.784180,0.050049,0.779541
1519672945276,0.266113,0.787598,0.944092
1519672945289,0.567139,0.409180,0.457520
1519672945312,0.396240,0.739990,0.746094
1519672945344,0.484375,0.185303,1.409668
1519672945402,0.744873,-0.843506,0.073242
1519672945410,0.449707,0.879395,0.710205
1519672945436,0.508789,0.037598,1.101074
1519672945493,0.593262,0.364502,0.560303
1519672945525,0.844482,-0.090576,0.715332
1519672945542,0.780762,-0.089844,0.377197
1519672945574,0.268799,0.400391,1.043701
1519672945608,1.125244,-0.862549,0.106445
1519672945640,0.169434,0.575439,0.831787
1519672945672,0.721191,0.375977,1.386719
1519672945705,0.678955,0.050537,0.706055
1519672945738,0.621338,0.123779,0.860352
1519672945770,0.399414,0.085693,0.720215
1519672945802,0.413574,0.450928,1.153076
1519672945841,0.975098,-0.320068,0.471680
1519672945874,0.474854,0.282715,1.059814
1519672945905,0.511719,0.190186,0.783691
1519672945938,0.477539,0.307373,0.958008
1519672945955,0.685547,-0.031982,0.116455
1519672945984,0.879639,0.049561,0.593018
1519672946084,0.521484,0.061523,1.177734
1519672946092,0.599121,0.248291,0.776367
1519672946149,0.607666,0.235840,0.739746
1519672946151,0.443115,0.120361,0.112061
1519672946216,0.532959,0.381592,1.087158
1519672946219,0.640869,0.218018,0.827148
1519672946285,1.047852,-0.312500,0.442383
1519672946290,0.524170,0.335693,1.053467
1519672946353,0.558594,0.074951,1.138184
1519672946422,0.643311,0.030029,0.637207
1519672946487,0.232422,0.368896,0.795898
1519672946493,0.773438,0.072754,0.246338
1519672946555,0.458496,-0.007080,1.091553
1519672946560,0.427979,0.112793,0.291748
1519672946573,0.826416,-0.116699,1.107910
1519672946578,0.321289,0.261230,1.172363
1519672946584,0.891357,-0.021729,1.082031
1519672946589,0.594482,0.159912,0.956787
1519672946608,0.518311,0.242920,0.393799
1519672946642,0.624268,0.178467,0.720947
1519672946676,0.469971,0.099121,0.893311
1519672946681,0.499023,0.314697,0.781250
1519672946739,0.531982,0.179932,1.151611
1519672946772,0.439941,-0.228271,-0.060791
1519672946786,1.460938,-0.085693,0.259277
1519672946844,0.151367,0.183594,1.165039
1519672946850,0.183105,0.330566,0.341064
1519672946905,0.740479,-0.023926,0.762939
1519672946938,0.834473,0.252686,0.764893
1519672946971,0.858887,-0.170898,0.447510
1519672947003,0.114502,0.577148,0.792725
1519672947036,0.536621,0.130859,1.048096
1519672947067,0.342041,0.427002,1.098389
1519672947120,0.657959,0.119629,0.220947
1519672947125,0.699463,0.293213,0.678955
1519672947153,0.939453,-0.114258,0.825195
1519672947185,0.653320,0.304932,0.948975
1519672947230,0.514404,0.316650,0.675537
1519672947263,0.623779,0.169922,0.473145
1519672947266,0.593750,0.358643,0.909424
1519672947322,0.751709,0.154053,0.991455
1519672947354,0.408936,0.356201,1.434570
1519672947359,0.859619,0.202148,0.241943
1519672947417,1.017578,0.394531,0.286865
1519672947450,0.620117,-0.039307,1.467041
1519672947482,0.320313,0.372559,1.055908
1519672947516,0.827637,0.324951,0.866455
1519672947547,0.328613,0.108154,0.109863
1519672947580,0.385254,0.301025,0.616211
1519672947613,0.422852,0.050537,0.974365
1519672947626,0.420166,0.392334,1.065430
1519672947659,0.494141,0.630859,0.521973
1519672947716,0.678223,0.417725,0.531982
1519672947722,0.800537,0.163574,0.954346
1519672947749,0.756592,0.203125,0.816406
1519672947807,0.430176,0.229248,0.882080
1519672947810,0.709473,0.237305,0.795898
1519672947865,0.581055,-0.009277,0.279297
1519672947899,0.342529,0.274414,0.614746
1519672947932,0.688965,0.085205,0.381348
1519672947964,0.631836,0.098633,1.450195
1519672947996,0.800537,0.426758,1.034424
1519672948030,0.924072,-0.182373,0.961670
1519672948042,0.390625,0.354248,0.855713
1519672948099,0.642090,0.151123,0.548340
1519672948132,0.215332,0.488525,0.633789
1519672948134,0.840088,0.408691,0.815430
1519672948194,0.540771,0.148193,0.816162
1519672948227,0.513916,0.109375,0.942383
1519672948233,0.770508,-0.001709,0.634277
1519672948284,0.544922,0.196533,0.952148
1519672948316,0.362549,0.170166,0.807617
1519672948349,0.555176,0.311523,0.121582
1519672948399,0.402588,0.052246,1.228271
1519672948402,0.166260,0.124756,0.425537
1519672948434,0.984863,0.136230,0.812012
1519672948475,0.403076,0.052246,0.650146
1519672948507,0.376221,0.276123,0.215332
1519672948540,1.188477,-0.342041,1.446533
1519672948573,0.677246,-0.063232,1.166016
1519672948606,0.376221,0.612549,2.143311
1519672948638,0.376953,-0.153564,-0.569336
1519672948670,0.362061,0.014893,-0.109619
1519672948676,0.006836,0.176514,0.629639
1519672948732,0.952881,0.232910,1.483643
1519672948764,0.249268,0.524170,1.266113
1519672948770,0.663086,0.078613,0.802734
1519672948828,0.689941,0.344238,0.472900
1519672948842,0.532715,0.022217,1.225342
1519672948875,0.576416,0.313232,0.659180
1519672948908,0.763916,0.011719,0.733887
1519672948965,0.357422,-0.045654,0.325928
1519672948972,0.627441,0.184326,0.992920
1519672949029,0.473877,-0.018311,0.233154
1519672949061,0.525146,0.224121,1.182861
1519672949094,0.830322,0.035156,1.193115
1519672949100,1.256348,-0.441650,0.496582
1519672949156,1.040283,-0.346436,0.888184
1519672949188,0.052246,0.342285,1.561279
1519672949193,0.323242,0.063965,0.351074
1519672949247,0.346191,0.298340,-0.016113
1519672949280,0.374756,0.187012,0.881836
1519672949311,0.592285,0.020508,0.474854
1519672949344,0.585205,0.221191,1.031738
1519672949351,1.366455,-0.235840,1.255127
1519672949408,0.275635,0.450439,0.826904
1519672949440,0.743896,0.223145,0.830566
1519672949473,0.474609,0.267334,0.796631
1519672949506,0.727295,-0.342529,0.874512
1519672949539,0.252197,0.177734,0.769531
1519672949572,0.787598,-0.052734,0.658936
1519672949605,0.270508,0.103271,0.685547
1519672949637,0.628418,0.158203,0.923096
1519672949654,0.406250,0.314209,0.955078
1519672949680,0.802490,0.007813,0.261230
1519672949713,0.837158,0.022705,1.503906
1519672949745,1.022217,-0.424805,1.219482
1519672949776,0.406250,0.270508,0.892334
1519672949809,0.994873,-0.156738,0.488770
1519672949842,0.615234,0.170410,0.916260
1519672949875,0.446777,0.146729,0.743652
1519672949908,0.613525,0.073242,0.060059
1519672949940,0.596191,-0.086914,0.715088
1519672949973,0.253662,-0.019775,0.322998
1519672950005,0.933838,0.740723,1.045410
1519672950037,1.515137,-0.103271,0.915771
1519672950052,0.676758,-0.004395,1.044434
1519672950115,0.457275,0.514404,0.740723
1519672950121,0.281006,0.622559,0.745117
1519672950157,0.292236,0.549072,0.482910
1519672950217,2.146973,-0.227051,0.289063
1519672950222,0.592041,0.187500,2.371094
1519672950251,-0.204834,0.321289,1.521240
1519672950311,1.251953,0.906006,-0.832520
1519672950343,0.850830,-0.029297,0.736084
1519672950348,0.099854,0.071045,1.259277
1519672950406,0.606201,-0.025879,0.861572
1519672950437,0.740234,0.207275,0.839600
1519672950471,0.790771,0.645752,0.294434
1519672950484,0.331543,0.509521,0.061035
1519672950541,0.456299,-0.238281,0.746826
1519672950547,0.100586,0.710449,1.192139
1519672950600,0.786377,-0.334473,0.197021
1519672950633,0.727783,-0.067383,1.053467
1519672950638,0.739990,-0.433594,0.942627
1519672950692,0.573486,0.380615,0.944336
1519672950723,0.463867,0.108154,0.547363
1519672950755,0.458984,0.375488,0.733643
1519672950788,0.471680,0.583496,1.155518
1519672950821,0.963867,0.199463,0.331299
1519672950854,1.209961,-0.248535,1.610596
1519672950886,0.482178,0.001465,1.077881
1519672950900,-0.327637,0.388672,0.496826
1519672950961,0.122803,0.777344,0.820313
1519672950967,0.255371,0.361816,0.379395
1519672951019,-0.129639,0.360840,0.326172
1519672951025,1.433105,0.219727,1.045166
1519672951095,-0.065918,0.866943,0.730469
1519672951099,0.321289,0.785889,0.973633
1519672951163,0.687744,-0.310303,0.838867
1519672951166,0.227783,0.159912,0.519043
1519672951232,0.552979,-0.056885,0.918457
1519672951237,0.329590,0.548340,0.663574
1519672951299,0.652588,0.137207,0.886963
1519672951367,0.725098,0.155029,0.863037
1519672951433,0.341309,0.456543,0.652344
1519672951436,0.345703,0.352783,0.869629
1519672951501,0.171631,0.488037,0.614990
1519672951504,0.602539,0.424072,0.459229
1519672951561,0.380615,0.377197,0.336670
1519672951567,0.505371,0.479492,1.003906
1519672951572,0.454346,0.157471,0.817871
1519672951577,0.389893,0.569580,0.427734
1519672951597,0.927734,-0.733154,0.656250
1519672951600,0.496094,0.824951,1.125244
1519672951656,0.474365,-0.037109,0.981445
1519672951662,0.389160,0.631104,0.485840
1519672951720,1.050049,0.168945,0.861816
1519672951734,0.466064,-0.049072,0.975830
1519672951765,0.466797,0.356445,1.071289
1519672951798,0.639404,0.029053,0.495605
1519672951830,0.408936,0.613525,0.967041
1519672951863,0.580811,0.116943,0.578125
1519672951896,0.636719,0.811523,1.088623
1519672951954,0.294189,0.188721,1.032227
1519672951960,0.014893,0.400879,1.171875
1519672952016,0.708740,-0.022705,1.198486
1519672952028,0.476563,0.483643,0.838623
1519672952062,0.784912,0.249512,-0.125000
1519672952087,0.640381,0.619385,0.964355
1519672952119,0.286377,0.762207,1.076172
1519672952160,0.994141,-0.133301,1.175781
1519672952192,-0.159180,0.222900,0.764648
1519672952240,0.686523,-0.019531,1.022949
1519672952245,0.334717,0.484375,0.985352
1519672952301,0.006104,0.708008,0.479736
1519672952334,1.237549,0.822998,1.062500
1519672952340,0.615479,-0.342285,1.040283
1519672952399,-0.410400,1.175049,-0.042725
1519672952430,-0.025635,1.228271,0.994873
1519672952463,0.884521,0.528320,1.322998
1519672952468,0.412354,-0.572266,0.856934
1519672952521,0.875244,0.733887,0.857422
1519672952534,0.568604,0.431152,0.215820
1519672952567,0.664795,0.296387,0.707764
1519672952625,-0.110840,0.426758,0.604004
1519672952631,0.851318,0.029541,0.588867
1519672952660,0.806885,-0.135254,0.608887
1519672952718,0.895020,-0.354980,0.999756
1519672952751,0.158447,0.499512,0.564209
1519672952757,2.468994,-1.468506,1.912842
1519672952814,-1.670898,1.079346,0.946045
1519672952846,0.638428,0.817139,0.672363
1519672952878,0.783447,0.365967,0.244873
1519672952910,0.304688,0.083740,0.744385
1519672952943,0.947510,0.629395,0.878174
1519672952956,0.417725,-0.368652,0.574219
1519672952992,-0.284912,2.327393,0.404053
1519672953025,1.181641,-2.009521,0.981445
1519672953058,-0.040039,1.291748,0.538574
1519672953116,0.718262,-1.004395,1.454102
1519672953121,0.074463,1.316895,0.231934
1519672953148,0.544434,-0.210938,1.198242
1519672953181,0.477539,-0.406982,1.406738
1519672953212,0.136475,0.191895,0.507568
1519672953245,0.776367,0.441650,1.257324
1519672953278,0.271973,0.047119,-0.117188
1519672953310,0.606934,0.868164,0.530273
1519672953343,0.868652,0.135254,1.128418
1519672953385,0.155029,0.941650,1.001953
1519672953418,1.464600,-0.362061,1.418945
1519672953423,-0.211182,0.401123,0.805664
1519672953480,1.150146,-0.969482,0.994141
1519672953520,-0.097412,1.167725,0.326904
1519672953539,1.018066,-0.179688,0.936035
1519672953571,0.493164,0.985352,0.165771
1519672953604,0.365967,0.055176,1.231689
1519672953635,0.709473,-0.045654,0.874023
1519672953668,0.361572,1.283691,0.183105
1519672953700,0.338623,-0.260742,0.934326
1519672953733,0.328857,0.931396,0.337646
1519672953775,0.491455,0.395508,0.691162
1519672953808,0.882813,-0.073486,0.883301
1519672953840,0.166992,0.776123,0.731934
1519672953872,0.270264,0.417480,1.017090
1519672953905,0.485352,-0.212402,0.782227
1519672953912,-0.311768,0.505615,0.930420
1519672953966,2.754639,-3.364502,1.793945
1519672953999,0.005371,1.090088,-0.409180
1519672954007,0.292480,0.648438,1.074707
1519672954059,1.500977,0.643066,0.510742
1519672954092,0.324707,0.366943,1.222656
1519672954125,-0.867188,1.061768,0.647461
1519672954167,1.447754,0.284668,0.488037
1519672954173,0.635010,-0.308838,0.719238
1519672954225,-0.126221,0.751221,0.485352
1519672954258,0.588135,-0.227051,0.650635
1519672954291,0.229004,0.450684,0.535889
1519672954323,0.283447,0.467041,1.029541
1519672954356,1.655029,-0.503418,1.109375
1519672954387,0.171631,0.668701,0.679443
1519672954419,0.395996,0.732422,1.086182
1519672954452,0.387207,0.291016,0.576172
1519672954455,0.510010,0.233887,0.803955
1519672954486,0.485596,0.376221,0.818848
1519672954531,0.583984,-0.179443,0.567627
1519672954562,0.046631,0.849609,0.753174
1519672954595,0.320068,0.232910,0.948242
1519672954629,3.383789,-2.020020,1.675293
1519672954661,-0.463867,0.648193,0.448975
1519672954693,-0.265381,0.910889,0.361816
1519672954725,1.437744,-0.639648,1.175781
1519672954757,-0.225830,0.432861,1.358887
1519672954800,0.135010,0.427002,0.928955
1519672954832,0.260986,0.623047,0.607910
1519672954865,1.617188,-1.045898,1.162109
1519672954868,-0.131836,0.742188,0.088623
1519672954928,1.273438,-0.500488,1.635010
1519672954970,-0.554443,0.316650,0.987305
1519672954975,-0.303955,1.260986,0.676270
1519672955028,0.979004,-1.014160,0.765625
1519672955033,-0.033691,1.175049,1.474121
1519672955091,-0.160400,0.887451,-0.369385
1519672955123,0.997314,0.767578,1.072510
1519672955129,0.209961,0.691650,1.450195
1519672955185,-0.118652,0.552734,1.279297
1519672955218,0.856445,-0.683350,0.297119
1519672955252,0.961182,0.394531,0.729004
1519672955285,0.550537,1.047363,1.532715
1519672955317,0.074219,1.123535,0.843506
1519672955331,0.603760,0.406738,0.815430
1519672955364,0.254150,-0.099365,0.633789
1519672955421,1.218750,-0.331787,0.166260
1519672955454,0.663574,0.166260,0.767334
1519672955459,-0.303223,0.863525,0.925293
1519672955487,1.486084,-0.111084,0.972168
1519672955519,0.643555,0.167969,0.816895
1519672955552,0.553711,-0.287109,0.582031
1519672955584,-0.282471,0.817871,1.013672
1519672955617,0.836182,-0.123535,0.149902
1519672955650,0.773438,-0.027832,0.789551
1519672955683,0.066895,0.055176,1.104248
1519672955714,0.416992,0.460205,0.912598
1519672955756,0.784180,-0.165771,0.250488
1519672955789,0.195068,0.558838,1.327148
1519672955821,0.647217,0.320068,0.002686
1519672955854,0.379395,-0.560059,1.363281
1519672955892,-0.583984,0.880127,0.629150
1519672955897,0.720703,0.245605,1.083008
1519672955925,0.407959,-0.067627,0.047119
1519672955983,0.898193,-0.024170,1.127930
1519672956015,0.432129,0.223633,0.899170
1519672956089,-0.004639,0.598633,0.497559
1519672956094,1.086670,0.290771,0.930908
1519672956156,0.437012,0.539063,0.683594
1519672956224,0.337891,0.175293,0.632568
1519672956290,0.730713,0.028076,1.181152
1519672956294,0.728516,-0.240723,0.705566
1519672956358,0.395264,0.230469,0.752686
1519672956361,0.571777,0.144775,0.642090
1519672956426,0.044189,0.836670,0.718506
1519672956432,0.880859,0.457031,1.160156
1519672956495,0.301514,0.026123,0.682617
1519672956500,1.012939,0.023926,0.760010
1519672956561,0.412598,0.219482,0.813965
1519672956566,0.316162,0.501465,0.642578
1519672956592,0.521484,0.412842,0.582764
1519672956595,0.431641,0.424805,1.225342
1519672956598,0.545654,0.383301,0.965820
1519672956608,0.355469,0.242676,0.719482
1519672956611,1.174316,-0.125488,1.038330
1519672956667,-0.134033,0.440430,0.727051
1519672956699,0.764160,0.135742,0.952881
1519672956732,0.112061,0.169922,0.395264
1519672956739,1.125000,-0.350342,0.848633
1519672956796,0.635742,0.114502,0.722412
1519672956799,0.086914,0.408691,0.789307
1519672956858,0.456299,0.472900,0.657227
1519672956863,0.904297,0.080078,1.305176
1519672956915,0.480469,0.148193,0.745850
1519672956948,0.311768,0.387939,1.022705
1519672956956,0.323730,0.288574,0.490479
1519672957013,0.559082,0.433838,0.636475
1519672957026,0.040771,0.306885,1.087646
1519672957058,0.647705,0.097412,0.282471
1519672957116,0.629639,0.564697,1.200195
1519672957120,0.842041,0.110107,0.180420
1519672957178,0.639893,0.344971,1.199707
1519672957211,0.114014,0.311035,0.822510
1519672957245,0.728027,-0.231689,0.773926
1519672957278,0.366943,0.359863,0.882568
1519672957286,0.138184,0.151855,0.911865
1519672957337,1.883789,-1.051514,1.855957
1519672957360,0.230225,0.277100,-0.320068
1519672957393,0.834473,0.226318,1.019531
1519672957431,0.283447,0.286377,1.215332
1519672957463,0.567139,0.006348,1.083008
1519672957495,0.357910,0.107910,0.648193
1519672957528,0.745850,-0.031738,0.638428
1519672957541,0.342773,0.231934,0.261230
1519672957573,0.044434,0.204834,1.221924
1519672957606,0.011963,-1.210205,2.768799
1519672957639,-0.268311,1.304443,0.035400
1519672957696,0.573242,-0.031006,1.145020
1519672957729,0.673828,0.281494,0.410889
1519672957741,0.876465,-0.206543,0.980713
1519672957792,0.030518,0.331299,0.961914
1519672957826,0.766846,0.131348,0.976318
1519672957843,0.313232,0.206787,0.714844
1519672957873,0.335938,0.570557,-0.053223
1519672957905,0.896973,-0.498291,0.736572
1519672957939,0.291748,0.802734,0.830078
1519672957972,0.354492,0.277588,1.685059
1519672958005,0.413818,0.379395,1.020264
1519672958035,1.047119,0.046875,0.696777
1519672958069,0.384033,0.441406,0.790283
1519672958101,0.630615,0.350098,0.750244
1519672958134,0.172119,0.351318,0.501221
1519672958167,0.805420,0.462646,0.551025
1519672958199,0.537842,0.280518,0.274170
1519672958232,0.178955,0.213623,0.966064
1519672958246,1.674316,-0.597168,0.840820
1519672958304,0.363037,0.836914,0.474365
1519672958309,0.229248,0.043945,1.046631
1519672958336,0.175781,0.924316,0.577148
1519672958394,0.429199,0.368408,1.025879
1519672958402,0.955322,0.466064,0.362061
1519672958458,0.499268,0.385254,0.692871
1519672958491,0.678711,0.783936,0.252441
1519672958523,0.495117,0.008545,1.214844
1519672958555,-0.135010,0.171875,0.791504
1519672958588,1.606201,-0.797363,1.055664
1519672958639,0.420898,1.205322,0.507813
1519672958653,0.350586,0.473633,1.288330
1519672958686,0.552979,0.496338,1.291260
1519672958718,0.245850,0.312744,0.660645
1519672958751,0.643799,0.590576,0.434814
1519672958785,0.340088,0.227051,0.656738
1519672958818,1.117676,1.673584,-0.770996
1519672958820,0.334961,0.264404,1.625244
1519672958877,-0.967041,2.110596,-0.257324
1519672958911,1.876709,-0.707275,0.982910
1519672958917,0.490967,0.740234,1.031494
1519672958971,0.088623,0.966064,0.795654
1519672959004,0.680176,-0.385010,0.399170
1519672959036,-0.067627,0.913818,0.490234
1519672959050,0.602783,-0.366943,1.188477
1519672959108,-0.190918,0.442871,1.465332
1519672959114,0.979736,-0.378662,0.604492
1519672959171,0.132813,0.539795,1.116455
1519672959204,1.269287,-0.769775,0.381348
1519672959209,0.428711,0.423828,1.639648
1519672959264,0.077148,0.695313,1.059082
1519672959272,0.922852,-0.270996,0.691162
1519672959324,0.293213,-0.045898,0.454102
1519672959356,0.275146,0.882324,0.158936
1519672959363,0.503174,-0.162109,1.379150
1519672959421,0.494629,0.602539,0.522705
1519672959454,0.705811,0.100830,0.755615
1519672959469,0.392822,0.552002,1.317383
1519672959526,0.777588,0.305908,1.315186
1519672959536,-0.048828,0.556885,1.360840
1519672959587,0.199463,0.728271,0.222168
1519672959620,1.243408,-0.949219,0.799316
1519672959653,0.968018,0.878418,0.019287
1519672959685,0.234131,0.052002,0.410156
1519672959693,0.476318,1.057129,1.246338
1519672959747,0.256836,0.665283,1.302734
1519672959780,0.624756,-0.269043,0.428955
1519672959783,0.731934,0.300781,0.642090
1519672959838,0.098389,0.571777,0.826904
1519672959872,2.635498,-1.588135,1.397217
1519672959885,0.162109,0.715332,0.070801
1519672959946,1.044678,0.259033,0.583252
1519672959955,0.456543,0.046875,0.603516
1519672959981,-0.224609,0.862305,1.141846
1519672960012,0.542480,0.132324,1.085205
1519672960069,1.069580,-0.162842,0.754395
1519672960103,0.360596,0.406982,0.639404
1519672960110,0.174561,0.659668,0.298828
1519672960166,0.731201,0.486572,0.919922
1519672960200,0.493652,0.091309,0.640381
1519672960231,0.621826,0.662109,1.606201
1519672960236,0.579834,-0.421631,0.403564
1519672960265,0.319580,0.749756,0.651123
1519672960308,0.585449,0.180908,0.370850
1519672960339,0.356201,0.668213,0.659180
1519672960370,0.333252,0.359863,1.043945
1519672960403,0.442139,0.313477,1.077393
1519672960435,0.653076,0.087402,0.539063
1519672960468,0.545898,0.181641,0.781250
1519672960500,0.488525,0.549316,1.011719
1519672960533,0.603760,0.116455,0.596436
1519672960565,0.499756,0.224854,0.670898
1519672960598,0.531006,-0.062012,0.921143
1519672960630,0.194824,0.310791,0.918945
1519672960664,0.839355,-0.148438,0.877930
1519672960709,0.418945,0.203369,0.595459
1519672960741,0.413574,0.301270,0.817383
1519672960747,0.490479,0.188965,0.816650
1519672960801,0.442627,0.100342,0.885254
1519672960833,0.546631,0.117188,0.748779
1519672960867,0.440918,0.565674,0.713623
1519672960899,0.554688,0.385010,0.716309
1519672960931,0.748779,0.338867,0.842773
1519672960963,0.409912,0.153809,0.620117
1519672960995,0.300781,0.130859,0.577393
1519672961027,0.687744,0.264648,0.780029
1519672961101,0.688232,-0.020020,0.795410
1519672961104,0.116699,0.552002,0.925293
1519672961168,0.685791,0.404785,0.603027
1519672961176,0.658691,-0.027344,0.816162
1519672961234,0.406982,0.234863,0.579834
1519672961237,0.706055,0.260254,0.925781
1519672961303,0.212646,0.374512,0.786377
1519672961312,0.860107,0.101563,1.166748
1519672961371,0.436035,0.300293,0.475098
1519672961379,0.722168,0.034424,0.788330
1519672961437,0.269775,0.239258,0.473389
1519672961449,0.683594,0.276123,0.980713
1519672961504,0.535889,0.088135,0.603027
1519672961508,0.253906,0.628174,0.458008
1519672961572,0.512939,0.214844,0.948975
1519672961575,0.609863,0.228760,0.558350
1519672961599,0.360352,0.308838,0.856689
1519672961603,0.633301,0.186035,0.780518
1519672961609,0.282227,0.317871,0.708740
1519672961670,0.488281,0.339355,0.756104
1519672961679,0.603516,0.249023,0.843262
1519672961708,0.676025,0.238037,0.789551
1519672961766,0.519043,0.452148,0.938477
1519672961775,0.504639,0.445313,1.005615
1519672961828,0.462158,0.066162,0.802490
1519672961862,0.448486,0.237793,0.803711
1519672961895,0.346191,0.326416,0.765625
1519672961909,0.613037,0.172607,0.828613
1519672961941,0.574219,0.546143,0.873047
1519672961974,0.654541,0.042236,0.904785
1519672962007,0.534180,0.380859,0.749512
1519672962039,0.433838,0.157715,0.699219
1519672962097,0.192871,0.511719,0.862793
1519672962106,0.573730,0.265381,0.800293
1519672962157,0.298096,0.333252,0.743408
1519672962188,0.510742,0.433350,0.883301
1519672962191,0.350830,0.525879,0.765381
1519672962246,0.442383,0.461426,0.832275
1519672962279,0.521729,0.429199,0.903076
1519672962313,0.549561,0.079590,0.765869
1519672962357,0.349121,0.204346,0.850098
1519672962365,0.411377,0.349365,0.631592
1519672962388,0.807373,0.188232,1.053223
1519672962421,0.314209,0.244141,0.824463
1519672962481,0.374512,-0.064453,0.825684
1519672962514,0.489258,0.192139,0.635742
1519672962523,0.699951,0.199707,0.912842
1519672962574,0.663330,0.179688,0.635010
1519672962607,0.634033,-0.016602,0.910400
1519672962642,0.414795,0.145020,0.881104
1519672962645,0.449951,0.147461,0.446045
1519672962677,0.921875,-0.241455,1.059570
1519672962734,0.135498,0.333008,1.066895
1519672962739,0.436035,0.250244,0.687744
1519672962774,0.670654,0.198730,0.979004
1519672962826,0.591064,0.328613,0.561279
1519672962858,0.559326,0.287354,1.056152
1519672962892,0.412109,0.437988,0.539307
1519672962910,0.689209,0.105713,0.950928
1519672962954,0.421875,-0.008057,0.684570
1519672962987,0.758789,-0.047363,0.802490
1519672963021,0.374756,0.075439,0.682617
1519672963053,0.658203,0.016113,0.833008
1519672963056,0.557129,0.286865,0.710938
1519672963113,0.624756,0.052246,0.945068
1519672963145,0.271973,0.450928,0.968018
1519672963154,0.910889,-0.151855,1.005615
1519672963208,0.722656,0.282227,0.654297
1519672963239,0.602539,0.136963,0.932617
1519672963272,0.310059,0.454102,0.982910
1519672963306,0.470215,0.223389,0.787598
1519672963336,0.582031,0.309326,0.640869
1519672963369,0.622314,0.221436,0.798096
1519672963402,0.718018,0.311279,0.759521
1519672963434,0.332764,0.251465,0.716797
1519672963468,0.771484,0.377197,0.754639
1519672963502,0.291748,0.233154,0.999512
1519672963534,0.397461,0.493408,0.808594
1519672963547,0.514160,0.361572,0.905029
1519672963585,0.629395,0.461670,0.745361
1519672963618,0.628906,0.209717,0.735596
1519672963652,0.365234,0.316895,0.915039
1519672963692,0.432129,0.470703,0.867920
1519672963711,0.570801,0.474609,0.757813
1519672963745,0.737793,0.227539,0.717529
1519672963797,0.292969,0.398193,0.749268
1519672963800,0.383789,0.469727,0.839844
1519672963844,0.559570,0.218506,1.101074
1519672963880,0.753906,-0.031982,0.752930
1519672963927,0.348877,0.148926,0.701660
1519672963935,0.360107,0.338623,0.734863
1519672964010,0.750977,0.111084,0.737793
1519672964019,0.576904,0.028564,0.945313
1519672964029,0.462402,0.270264,0.761963
1519672964068,0.434082,0.331787,0.940918
1519672964122,0.231201,0.350342,0.854004
1519672964125,0.442627,0.505127,0.543701
1519672964178,0.595215,0.296387,0.586670
1519672964181,0.593994,0.331787,1.114990
1519672964234,0.405029,0.229980,0.922852
1519672964288,0.569092,0.278076,0.865967
1519672964296,0.595459,0.003174,0.699463
1519672964339,0.641357,-0.077637,0.959717
1519672964373,0.361816,0.444580,0.644531
1519672964421,0.545898,0.061768,0.949463
1519672964427,0.326904,0.377686,0.724121
1519672964455,0.743164,-0.057617,0.861572
1519672964501,0.492920,0.097168,0.964111
1519672964509,0.811279,0.059326,0.902588
1519672964584,0.060547,0.530518,0.886475
1519672964587,0.690674,0.354980,0.688477
1519672964619,0.767090,-0.106934,0.841064
1519672964655,0.405029,0.138672,0.599365
1519672964663,0.658447,0.190186,0.836182
1519672964690,0.729004,0.108887,0.629150
1519672964747,0.441406,0.240967,0.755615
1519672964761,0.575928,0.111328,0.739014
1519672964794,0.635986,0.038086,0.797119
1519672964851,0.377197,0.313232,0.847412
1519672964884,0.770996,0.106934,0.863037
1519672964890,0.433838,0.259521,0.782227
1519672964949,0.370850,0.314941,1.244141
1519672964980,0.483154,0.239502,0.792236
1519672964983,0.685547,0.349121,0.872559
1519672965039,0.790283,0.141602,0.557617
1519672965044,0.437256,0.237549,0.688721
1519672965103,0.294434,0.269531,0.788086
1519672965135,0.703613,-0.000732,0.768555
1519672965141,0.857910,-0.079102,1.032715
1519672965198,0.016357,0.427979,1.105957
1519672965230,0.626221,0.300049,0.723877
1519672965263,0.316895,0.203613,0.609863
1519672965295,0.591797,0.791992,0.732178
1519672965329,0.572510,-0.204834,0.715332
1519672965362,0.242676,0.375244,0.818848
1519672965393,0.539551,0.092285,0.873047
1519672965426,0.514404,0.318359,0.743896
1519672965458,0.739502,0.073975,0.852783
1519672965461,0.548096,0.100830,0.576416
1519672965520,0.436523,0.191650,0.959473
1519672965540,0.375977,0.291016,1.001953
1519672965581,0.563477,0.166016,0.776367
1519672965613,0.500977,0.241211,0.928955
1519672965645,0.747559,0.210938,1.011230
1519672965677,0.403564,0.258301,0.717285
1519672965711,0.706543,0.251221,0.832520
1519672965744,0.194580,0.322021,0.705566
1519672965777,0.762939,0.059570,0.740479
1519672965810,0.338135,0.019043,0.760254
1519672965841,0.611572,0.105713,1.069092
1519672965874,0.540039,0.363525,0.913330
1519672965907,0.348389,0.289307,1.046387
1519672965939,0.380127,0.470459,0.651123
1519672965955,0.608887,0.182617,0.563232
1519672966010,0.534424,0.009277,0.648926
1519672966015,0.275879,0.271973,0.803467
1519672966085,0.784424,0.349365,0.771729
1519672966089,0.493652,0.467773,0.883545
1519672966152,0.805908,0.128418,0.958496
1519672966158,0.543457,0.195557,1.000244
1519672966220,0.447266,0.276611,0.530762
1519672966230,0.681396,0.183838,0.618164
1519672966288,0.339844,0.220215,0.946777
1519672966356,0.679199,0.247559,0.685791
1519672966364,0.760498,-0.208496,0.713623
1519672966422,0.491699,0.137207,0.765137
1519672966425,0.224609,0.237061,0.750732
1519672966489,0.501465,0.369385,0.891357
1519672966493,0.483643,0.243652,1.024414
1519672966558,0.702881,0.109863,0.820801
1519672966566,0.581787,-0.012939,0.613037
1519672966587,0.508789,0.270752,0.981445
1519672966593,0.385010,0.221191,0.854492
1519672966597,0.424805,0.168457,0.878174
1519672966623,0.533447,0.238037,0.847168
1519672966655,0.316650,0.178955,0.893311
1519672966688,0.629639,0.151123,0.924072
1519672966720,0.371582,0.185059,0.699219
1519672966759,0.762939,0.137695,0.439941
1519672966791,0.894287,0.030273,0.575684
1519672966823,0.700439,-0.108398,0.936035
1519672966855,0.558594,-0.027344,0.929932
1519672966888,0.605713,-0.150146,0.835693
1519672966920,0.702881,0.000732,0.758057
1519672966952,0.560547,0.122314,0.704834
1519672966985,0.750488,0.049072,0.561279
1519672967017,0.695068,-0.007813,0.739746
1519672967050,0.763916,0.053467,0.920898
1519672967083,0.600830,-0.028809,0.855713
1519672967116,0.465576,0.164551,0.864746
1519672967148,0.379150,0.561768,1.217041
1519672967189,0.985596,-0.132568,0.373779
1519672967222,0.340332,0.369385,0.945557
1519672967254,0.456787,0.365967,0.834229
1519672967287,0.544922,0.199951,0.955322
1519672967320,0.541992,0.569580,0.874756
1519672967353,0.612061,0.333252,1.082764
1519672967385,0.391602,0.411621,0.647461
1519672967391,0.394775,0.523438,0.597900
1519672967447,0.246094,0.505371,1.051270
1519672967453,0.495117,0.191406,1.057861
1519672967485,0.466553,0.396729,0.635986
1519672967542,0.456787,0.460205,0.774658
1519672967548,0.862061,0.021484,0.855225
1519672967600,0.306885,0.341797,0.787109
1519672967632,0.507324,0.084961,0.790527
1519672967666,0.658691,0.380127,0.647949
1519672967699,0.330811,0.012207,0.723389
1519672967731,0.735840,0.164795,0.868652
1519672967764,0.279785,0.320068,0.734375
1519672967798,0.784912,0.277588,0.867676
1519672967830,0.230713,0.463623,0.828857
1519672967863,0.520996,-0.079590,1.008057
1519672967868,0.295898,0.492432,0.760742
1519672967925,0.517822,-0.002197,0.959229
1519672967957,0.359375,0.399414,0.791016
1519672967965,0.867432,0.395508,0.979004
1519672968029,0.640137,0.201904,0.792480
1519672968031,0.536865,0.186523,0.913330
1519672968088,0.557861,0.138672,0.898926
1519672968121,0.297363,0.156982,0.825684
1519672968154,0.628662,0.372314,0.586670
1519672968187,0.553223,0.015137,0.853027
1519672968218,0.611572,-0.150146,0.783447
1519672968251,0.345459,0.297607,0.835205
1519672968285,0.409912,0.217041,1.002686
1519672968318,0.343018,0.316162,0.552002
1519672968351,0.883057,0.200439,0.676514
1519672968383,0.912109,0.187256,0.749268
1519672968401,0.461914,0.356201,0.958496
1519672968433,0.641357,0.384277,0.696045
1519672968466,0.221191,0.525146,0.713867
1519672968499,0.586914,0.432129,0.714600
1519672968532,0.477051,0.346436,1.028076
1519672968565,0.671143,0.156982,0.737793
1519672968598,0.880371,0.083252,1.039063
1519672968630,0.709229,0.278564,0.497803
1519672968663,0.325195,0.232666,1.102783
1519672968696,0.426514,0.600098,1.374268
1519672968729,0.299316,0.208496,0.865479
1519672968760,0.280273,0.427490,0.675049
1519672968793,0.590820,0.235596,0.784668
1519672968835,0.426270,0.350830,0.711182
1519672968844,0.538086,0.180664,0.905029
1519672968879,0.450195,0.624512,0.872803
1519672968912,0.590332,0.138184,0.521484
1519672968945,0.269775,0.282715,0.549561
1519672968979,0.907959,-0.020020,0.626221
1519672969012,0.343018,0.094727,0.915039
1519672969042,0.495605,0.183594,0.940674
1519672969074,0.603516,0.103027,1.105469
1519672969108,0.514160,0.087646,1.032471
1519672969140,0.508301,0.146240,0.753906
1519672969173,0.213379,0.487061,0.826172
1519672969206,0.409668,0.428711,0.990234
1519672969245,0.503906,0.109131,0.895264
1519672969278,0.394775,-0.066162,0.886475
1519672969312,0.474121,0.269531,0.886963
1519672969345,0.623291,0.317871,1.062744
1519672969382,0.319824,0.416504,0.756592
1519672969415,0.393311,0.472412,0.762207
1519672969420,0.507813,0.334473,0.567383
1519672969447,0.643311,0.008057,0.942383
1519672969481,0.282715,0.149902,0.467285
1519672969513,0.720703,0.260010,1.146484
1519672969545,0.393066,0.305420,1.134033
1519672969578,0.713623,0.046631,1.051514
1519672969609,0.286865,0.471924,0.913574
1519672969668,0.679688,0.254639,0.916260
1519672969673,0.400146,0.292725,0.866943
1519672969731,0.332764,0.023193,0.616699
1519672969763,0.561523,-0.048096,0.754395
1519672969796,0.438721,-0.049805,0.828613
1519672969805,0.557373,0.040771,1.058594
1519672969854,0.475342,0.229736,1.127930
1519672969860,0.360352,0.121826,0.720459
1519672969893,0.532715,0.224365,0.503174
1519672969949,0.621582,0.070801,0.561768
1519672969957,0.411377,-0.108887,0.453857
1519672970013,0.371338,0.109131,0.961182
1519672970045,0.732422,-0.052979,1.306885
1519672970060,0.300537,0.130371,0.722656
1519672970093,0.830811,-0.065918,0.772949
1519672970127,0.311768,0.440430,0.896973
1519672970162,0.471436,0.087402,0.522217
1519672970194,0.550049,-0.122070,0.783203
1519672970226,0.265381,0.196045,0.985352
1519672970282,0.260986,0.292480,1.124268
1519672970287,0.577393,-0.045410,0.715332
1519672970322,0.600830,0.322021,0.760254
1519672970354,0.627441,0.582275,1.134766
1519672970387,0.552002,0.301025,1.051270
1519672970445,0.376709,0.103760,0.810791
1519672970448,0.197021,0.247803,0.434326
1519672970488,1.144287,-0.104736,1.233154
1519672970520,0.437256,1.549316,1.475098
1519672970554,1.035645,0.494385,0.903320
1519672970588,0.564209,-0.456299,0.144775
1519672970620,0.313477,-0.410889,0.409668
1519672970652,0.774414,-0.144043,1.459961
1519672970685,1.070557,-0.462402,1.391602
1519672970718,0.343506,0.827637,1.084473
1519672970750,0.197021,0.540283,0.260498
1519672970755,0.452881,-0.102295,0.743164
1519672970814,0.283447,0.135010,0.895264
1519672970846,0.500244,0.134277,0.609863
1519672970879,0.595215,0.122803,0.699707
1519672970921,0.786865,0.102539,0.819336
1519672970929,0.374756,0.199707,0.628662
1519672970979,0.467285,0.316162,1.170410
