1519676972001,0.513184,-0.124268,0.906250
1519676972036,0.686768,0.015137,0.800049
1519676972053,0.765869,-0.158936,1.035400
1519676972098,0.541992,0.087158,0.632568
1519676972132,0.460938,-0.038330,0.872070
1519676972149,0.821777,-0.142334,0.828857
1519676972200,0.609375,-0.100830,0.790527
1519676972218,0.556152,0.059570,0.764160
1519676972251,0.757568,-0.083740,0.628418
1519676972298,0.716309,-0.062500,0.551758
1519676972314,0.695313,-0.180420,0.910156
1519676972359,0.775146,-0.153809,0.473633
1519676972382,0.878174,-0.132568,0.626221
1519676972416,0.718750,-0.270508,0.596680
1519676972450,0.465576,-0.218262,0.513184
1519676972479,0.558594,-0.183838,0.917969
1519676972514,0.706787,-0.004883,1.217773
1519676972547,0.541748,0.090088,1.131104
1519676972582,0.560303,0.153320,0.991943
1519676972616,0.584961,0.051514,0.547119
1519676972633,0.715576,-0.051025,0.622070
1519676972696,0.632813,-0.315186,1.068115
1519676972713,0.388672,-0.152832,0.880859
1519676972731,0.494141,-0.088867,0.722412
1519676972764,0.636475,-0.030762,0.981201
1519676972799,0.574463,-0.083740,1.079102
1519676972832,0.692139,0.067139,0.723633
1519676972862,0.631836,0.006592,0.843506
1519676972895,0.475098,-0.053223,1.002441
1519676972929,0.625732,-0.061035,0.678711
1519676972963,0.630859,-0.008545,0.506348
1519676972998,0.671875,-0.150391,0.721680
1519676973031,0.732666,-0.194092,0.637939
1519676973059,0.764404,-0.353760,0.361084
1519676973094,0.580322,-0.229980,1.077393
1519676973128,0.637207,-0.201660,0.538818
1519676973161,0.704590,-0.121582,0.596924
1519676973180,0.566895,-0.094971,0.719238
1519676973215,0.880859,-0.159424,0.681396
1519676973247,0.730957,-0.243164,0.368408
1519676973275,0.468018,-0.175293,1.070068
1519676973310,0.634277,-0.145264,0.791016
1519676973344,0.411133,0.056152,0.622314
1519676973380,0.773926,-0.010254,0.367432
1519676973413,0.930664,-0.118896,1.102051
1519676973448,0.938232,-0.095215,0.129395
1519676973477,0.467285,-0.105713,0.954102
1519676973509,0.782959,-0.517578,0.750244
1519676973549,0.982666,-0.060303,0.538818
1519676973577,0.677979,-0.093506,0.744141
1519676973596,0.641846,-0.092041,0.838135
1519676973646,0.604492,-0.233643,1.189941
1519676973676,0.603271,0.090576,0.394287
1519676973692,0.570557,0.050537,0.662354
1519676973744,0.949951,-0.021240,0.856201
1519676973760,0.499268,-0.099854,0.501953
1519676973795,0.803711,-0.159424,0.305664
1519676973829,0.732178,-0.281982,0.757568
1519676973856,0.550049,-0.020264,0.640869
1519676973892,0.715576,-0.141113,0.684814
1519676973925,0.656250,-0.082764,0.066650
1519676973977,0.739258,-0.119141,1.782959
1519676973993,0.396240,-0.112061,0.193604
1519676974026,0.464355,-0.046387,0.949463
1519676974056,0.563477,0.030762,1.135254
1519676974091,0.344971,-0.032471,0.980957
1519676974127,0.733643,-0.079346,0.873291
1519676974158,0.552490,-0.080078,0.373779
1519676974176,0.872559,-0.256348,0.796875
1519676974226,0.727051,-0.096680,0.400146
1519676974244,0.484863,-0.066406,0.842285
1519676974272,0.579346,-0.084961,0.765625
1519676974323,0.618652,-0.217285,0.650635
1519676974339,0.815186,0.084473,0.882080
1519676974373,0.651123,-0.030273,0.475098
1519676974408,0.385254,0.032227,0.934326
1519676974442,0.907471,-0.110107,0.803711
1519676974470,0.369629,0.045654,0.535400
1519676974505,0.549561,-0.030273,0.635010
1519676974539,0.720947,-0.244385,0.753906
1519676974573,0.648682,-0.088135,0.644531
1519676974609,0.389404,-0.084229,0.739502
1519676974642,0.880371,-0.096680,0.295654
1519676974671,0.310547,-0.225098,0.888672
1519676974705,0.584229,0.035400,0.895996
1519676974740,0.790283,0.076416,0.679688
1519676974756,0.661133,-0.057861,1.166992
1519676974809,0.562012,-0.218506,0.794434
1519676974825,0.550537,-0.073730,0.343994
1519676974851,0.511475,-0.014404,0.681396
1519676974888,0.568848,0.024170,1.102051
1519676974921,0.718994,-0.025879,0.504883
1519676974956,0.470215,0.110840,1.189697
1519676974990,0.664063,0.081787,0.640869
1519676975024,0.779053,-0.086426,0.314453
1519676975051,0.850586,-0.191895,1.144531
1519676975087,0.736572,-0.042969,0.568359
1519676975122,0.394287,0.168457,0.884766
1519676975156,0.562256,0.035156,1.116211
1519676975190,0.547363,0.015625,0.960449
1519676975206,0.669678,0.179443,0.477051
1519676975256,0.543701,0.095459,0.897949
1519676975285,0.680664,0.084229,0.688477
1519676975302,0.628662,0.064697,0.454590
1519676975336,0.548584,-0.183594,0.884277
1519676975372,0.607910,0.010498,0.902832
1519676975405,0.527344,-0.046387,0.766846
1519676975440,0.563721,-0.142334,0.644287
1519676975466,0.593994,-0.150146,0.679443
1519676975501,0.672363,-0.075928,0.711182
1519676975536,0.496338,-0.002441,0.816162
1519676975569,0.716797,-0.134521,0.692139
1519676975605,0.684326,-0.010986,0.841553
1519676975622,0.518066,-0.040527,0.545166
1519676975666,0.573242,0.015137,0.870605
1519676975702,0.597656,-0.048584,0.824463
1519676975718,0.589355,-0.039795,1.021240
1519676975784,0.584717,0.035156,0.924072
1519676975789,0.603516,0.067871,0.687500
1519676975851,0.668457,-0.082764,0.619629
1519676975917,0.595459,-0.049805,0.595947
1519676975923,0.738770,-0.081055,0.646729
1519676975985,0.779785,-0.215332,0.513428
1519676976048,0.696533,-0.169922,0.527100
1519676976055,0.733887,-0.052246,0.556885
1519676976117,0.700195,-0.097900,0.564209
1519676976126,0.774902,-0.154053,0.598633
1519676976185,0.645752,-0.190430,0.745850
1519676976194,0.697754,-0.181641,0.543213
1519676976252,0.736084,-0.041260,0.751953
1519676976261,0.782715,-0.051025,0.552490
1519676976267,0.821533,-0.083984,0.799561
1519676976273,0.783447,0.009033,0.841797
1519676976281,0.752686,-0.035645,0.473877
1519676976299,0.845947,-0.066406,0.772217
1519676976350,0.724609,0.001221,0.718750
1519676976366,0.656250,-0.033203,0.908936
1519676976401,0.778809,0.019287,0.577148
1519676976435,0.771484,-0.022217,0.479980
1519676976463,0.730469,0.013672,0.891113
1519676976499,0.705322,-0.069824,0.692383
1519676976536,0.748779,-0.024902,0.627197
1519676976566,0.629395,-0.065186,0.881592
1519676976602,0.570068,0.003174,0.900879
1519676976634,0.807129,0.215820,0.813477
1519676976662,0.568604,0.210693,0.805176
1519676976699,0.519043,0.093506,0.511719
1519676976733,0.921631,0.259521,1.109375
1519676976767,0.503174,0.148926,0.998779
1519676976795,0.302734,0.205078,0.816162
1519676976835,0.714111,0.018555,0.869141
1519676976863,0.418457,-0.203125,1.340576
1519676976880,0.108887,0.092773,0.904541
1519676976929,0.608154,0.250488,0.772217
1519676976948,0.388916,0.167725,1.354736
1519676976982,0.353271,0.341309,0.583496
1519676977017,0.447266,0.220703,0.854736
1519676977044,0.561279,0.024902,0.802490
1519676977079,0.393311,-0.159180,0.847412
1519676977113,0.518066,-0.019287,1.354248
1519676977147,0.462158,0.222168,0.989746
1519676977189,0.585693,0.364502,0.687012
1519676977216,0.738281,-0.054932,0.460205
1519676977243,0.577148,-0.187988,0.718506
1519676977278,0.549072,-0.076660,0.420410
1519676977313,0.693115,-0.200928,0.630127
1519676977329,0.766357,-0.364746,0.618652
1519676977362,0.683350,-0.228516,0.816895
1519676977399,0.628906,-0.180908,0.892578
1519676977433,0.628906,0.050537,0.902832
1519676977459,0.582031,0.002930,0.695801
1519676977495,0.705078,-0.158936,0.997314
1519676977527,0.611816,-0.207275,0.764404
1519676977562,0.639404,-0.131104,0.403320
1519676977598,0.655273,-0.185059,0.735840
1519676977630,0.754150,-0.105225,0.816650
1519676977657,0.603271,-0.191162,0.817871
1519676977693,0.587158,-0.199463,0.795410
1519676977729,0.529297,-0.244629,0.737061
1519676977745,0.625977,-0.126953,0.694336
1519676977817,0.719238,-0.172119,0.852539
1519676977826,0.561035,0.040527,0.805420
1519676977841,0.671631,-0.054932,0.712402
1519676977892,0.741699,-0.234863,0.662354
1519676977909,0.765381,-0.001953,0.701904
1519676977944,0.712158,-0.092041,0.707275
1519676977985,0.656006,-0.217285,0.885498
1519676978013,0.483887,-0.136963,0.510254
1519676978039,0.591064,-0.217773,0.888184
1519676978075,0.785400,-0.138428,0.957520
1519676978109,0.450439,-0.025146,0.641846
1519676978143,0.523438,-0.148438,0.528564
1519676978177,0.457031,-0.102539,1.004639
1519676978211,0.542969,-0.040283,0.805176
1519676978228,0.454590,-0.062500,1.021973
1519676978275,0.474609,0.016602,0.933350
1519676978308,0.393555,-0.201660,0.872070
1519676978327,0.354736,-0.317871,0.776611
1519676978382,0.295410,0.068115,0.945801
1519676978391,0.480469,0.244141,0.885010
1519676978426,0.712402,-0.003906,0.895996
1519676978473,0.393066,-0.056152,0.817627
1519676978491,0.983643,-0.061523,0.970947
1519676978525,0.532471,-0.239014,0.554932
1519676978558,0.606445,-0.049316,0.703613
1519676978592,0.512451,-0.298828,0.627197
1519676978627,0.689453,-0.664063,0.329834
1519676978653,0.729980,-0.335938,0.258545
1519676978689,0.599854,-0.082031,1.012207
1519676978723,0.740967,-0.132324,0.885254
1519676978757,0.722900,-0.226807,0.707031
1519676978790,0.664307,-0.139648,0.999023
1519676978811,0.701416,-0.214600,0.848633
1519676978855,0.596191,-0.136719,0.644287
1519676978891,0.548828,-0.085938,0.650146
1519676978906,0.704834,-0.193848,0.524170
1519676978956,0.720459,-0.162598,0.828613
1519676978974,0.766357,-0.093750,0.851318
1519676979008,0.753906,-0.259521,0.556152
1519676979054,0.811523,-0.308594,0.683838
1519676979070,0.568604,-0.124756,0.568359
1519676979105,0.745117,-0.212646,0.529053
1519676979139,0.628662,-0.240967,0.502441
1519676979185,0.758789,-0.332520,0.512695
1519676979208,0.677979,-0.299316,0.440430
1519676979236,0.622314,-0.213135,0.705566
1519676979272,0.758057,-0.332031,0.772461
1519676979306,0.536621,-0.217285,0.801514
1519676979339,0.727783,-0.084229,0.970215
1519676979373,0.651367,0.016602,0.880127
1519676979390,0.966309,-0.191162,0.663818
1519676979436,0.666504,-0.156006,0.705078
1519676979470,0.504639,-0.083008,0.864258
1519676979488,0.573975,-0.285400,0.740723
1519676979537,0.452637,-0.071045,0.854736
1519676979553,0.561523,-0.051025,0.790771
1519676979597,0.445313,-0.036377,0.689209
1519676979623,0.732910,-0.085205,1.190918
1519676979651,0.561768,0.120605,0.933838
1519676979686,0.544922,0.017578,0.833740
1519676979722,0.483643,-0.207520,0.693115
1519676979754,0.574219,-0.202637,0.622559
1519676979789,0.501221,-0.224365,0.880615
1519676979823,0.668213,-0.223877,0.538818
1519676979851,0.476807,-0.004883,1.534668
1519676979885,0.574707,-0.338623,0.518311
1519676979919,0.231689,0.141602,1.288330
1519676979952,0.833252,-0.237061,0.261230
1519676979971,0.619385,0.246582,1.041992
1519676980005,0.572998,-0.084717,0.763672
1519676980032,0.612549,-0.171143,0.945557
1519676980066,0.455566,-0.222900,0.597168
1519676980101,0.599121,-0.251465,0.364258
1519676980137,0.622314,-0.069580,0.937012
1519676980171,0.925049,-0.262451,0.459229
1519676980203,0.792725,-0.238281,0.282471
1519676980232,0.701416,-0.087646,0.927246
1519676980267,0.786377,-0.437256,0.479736
1519676980301,0.647217,-0.204102,0.630127
1519676980334,0.584229,-0.092529,0.781250
1519676980352,0.831055,-0.317383,0.730713
1519676980403,0.545654,-0.332031,0.536621
1519676980420,0.614746,-0.069824,1.024170
1519676980447,0.637939,-0.255615,0.516357
1519676980499,0.708984,-0.180908,0.854736
1519676980516,0.593994,-0.162598,0.745605
1519676980550,0.629883,-0.135742,0.828125
1519676980585,0.520996,-0.152588,0.866211
1519676980620,0.611084,-0.067383,0.684570
1519676980647,0.738770,-0.152344,0.794434
1519676980681,0.651855,-0.056152,0.762939
1519676980715,0.601807,-0.131592,0.779297
1519676980782,0.502197,-0.044678,0.678955
1519676980791,0.652832,-0.174072,0.836426
1519676980850,0.845459,-0.164063,0.746338
1519676980917,0.516846,0.004883,0.487549
1519676980925,0.696289,-0.136230,1.075684
1519676980984,0.545654,-0.121338,0.912354
1519676980992,0.603271,-0.180908,0.628418
1519676981051,0.587402,-0.170654,0.708008
1519676981057,0.512451,-0.086914,0.779785
1519676981119,0.656006,-0.004150,0.807617
1519676981130,0.375732,-0.114258,1.017334
1519676981186,0.511230,-0.248047,0.862305
1519676981252,0.645264,-0.119385,0.521973
1519676981261,0.374023,0.026611,0.855469
1519676981270,0.637939,-0.074219,0.650635
1519676981276,0.712158,-0.247559,0.597168
1519676981280,0.502930,0.092041,0.914551
1519676981296,0.669678,-0.224121,0.674072
1519676981330,0.517822,-0.137939,0.961914
1519676981364,0.695557,-0.364014,0.593506
1519676981399,0.468994,-0.244141,0.361572
1519676981415,0.573730,-0.316650,0.355225
1519676981462,0.591309,-0.187988,0.635010
1519676981496,0.512695,-0.128906,0.628418
1519676981513,0.819092,-0.264893,0.590088
1519676981562,0.703613,-0.405762,0.406006
1519676981580,0.761963,-0.006592,0.642822
1519676981615,0.906494,-0.362305,0.330811
1519676981660,0.664307,-0.269775,0.631592
1519676981679,0.683594,-0.100586,0.815674
1519676981711,0.815186,-0.268555,0.754150
1519676981746,0.704102,-0.223145,0.405273
1519676981781,0.793457,-0.203125,0.738525
1519676981814,0.600830,-0.084961,0.938721
1519676981842,0.820801,-0.377197,0.620117
1519676981878,0.583740,-0.144287,0.975830
1519676981912,0.680420,-0.026123,0.840088
1519676981945,0.892090,-0.026123,0.800781
1519676981979,0.747314,0.019775,0.684814
1519676981998,0.895752,-0.034912,0.691650
1519676982041,0.447266,-0.071289,0.796631
1519676982076,0.667236,-0.058105,0.642090
1519676982092,0.739014,-0.159912,0.862793
1519676982143,0.545166,0.114502,0.730713
1519676982161,0.655273,0.051025,0.980469
1519676982196,0.552490,-0.091553,0.697266
1519676982241,0.532227,-0.091797,0.601807
1519676982257,0.782227,-0.223389,0.874512
1519676982292,0.531006,-0.068115,0.541748
1519676982327,0.499756,-0.001709,0.600830
1519676982361,0.568604,-0.063232,0.963623
1519676982396,0.531738,-0.095215,0.678467
1519676982423,0.428711,-0.096680,0.684570
1519676982458,0.597656,-0.063965,0.631104
1519676982494,0.584473,-0.257568,0.951172
1519676982526,0.628418,-0.135498,0.884033
1519676982560,0.729004,-0.046631,0.820557
1519676982576,0.696045,-0.091309,0.870117
1519676982611,0.676758,-0.186035,0.702393
1519676982638,0.443359,-0.354492,0.898193
1519676982675,0.528320,-0.163574,0.645752
1519676982705,0.794678,-0.250244,0.459717
1519676982740,0.608154,-0.224854,0.604736
1519676982777,0.730469,-0.029053,0.803467
1519676982809,0.907715,-0.360352,-0.137695
1519676982837,1.023926,-0.413818,0.860352
1519676982872,0.576660,-0.229004,0.715332
1519676982906,0.608887,-0.136230,1.034180
1519676982941,0.490723,-0.094238,0.269043
1519676982957,0.562988,-0.112305,1.020020
1519676983009,0.605957,-0.219971,0.809814
1519676983036,0.789307,-0.256104,0.641113
1519676983056,0.743408,-0.083740,0.643555
1519676983106,0.443359,0.056641,0.889160
1519676983124,0.769043,-0.157715,0.309326
1519676983167,0.638916,-0.190918,0.844727
1519676983192,0.792480,-0.224854,1.005859
1519676983220,0.723633,-0.032471,0.717285
1519676983255,0.510986,-0.043213,0.365723
1519676983290,0.551758,-0.079590,0.937500
1519676983323,0.674561,-0.111084,0.861084
1519676983357,0.712646,-0.059570,0.764893
1519676983391,0.422607,0.036133,0.531494
1519676983419,0.851563,-0.113770,1.006592
1519676983454,0.383789,-0.026855,0.852783
1519676983488,0.690918,0.134033,1.106689
1519676983520,0.521240,-0.019531,0.624268
1519676983538,0.570801,-0.067871,0.717285
1519676983591,0.645752,-0.184570,0.856201
1519676983607,0.502441,0.006836,1.040771
1519676983636,0.559814,0.022705,0.588379
1519676983688,0.544678,-0.053955,0.421875
1519676983705,0.527832,-0.163574,0.861816
1519676983737,0.760498,-0.216064,0.653809
1519676983773,0.680176,-0.182129,0.628174
1519676983807,0.678223,-0.099609,0.942627
1519676983835,0.497803,-0.196289,0.634033
1519676983870,0.758789,-0.309082,0.887939
1519676983904,0.499268,-0.055908,0.766113
1519676983937,0.813721,-0.142578,0.506348
1519676983971,0.545410,-0.207764,0.562988
1519676984007,0.733398,-0.142090,0.809570
1519676984034,0.632568,-0.156982,0.612061
1519676984068,0.590332,0.013672,0.966797
1519676984103,0.765381,-0.071533,0.425537
1519676984120,0.619629,-0.072021,0.745605
1519676984170,0.607910,-0.088623,0.817627
1519676984188,0.718506,-0.177002,0.511963
1519676984217,0.611328,-0.198486,0.644043
1519676984268,0.689453,-0.042725,0.805176
1519676984285,0.729492,-0.194580,0.597168
1519676984320,0.789063,-0.241455,0.897217
1519676984353,0.669434,-0.057129,0.570313
1519676984388,0.657715,-0.086914,0.888672
1519676984416,0.510742,-0.189697,0.347168
1519676984452,0.597900,-0.065186,0.704590
1519676984484,0.847656,-0.093018,0.495117
1519676984518,0.662842,-0.056396,0.700684
1519676984550,0.666748,-0.306152,1.097656
1519676984586,0.485596,-0.159668,0.569824
1519676984602,0.634277,-0.041016,0.857178
1519676984649,0.795410,-0.147705,0.529785
1519676984683,0.466553,-0.072998,0.995850
1519676984701,0.646484,-0.119629,0.880615
1519676984751,0.649170,0.004883,0.607910
1519676984769,0.790283,-0.199219,0.601563
1519676984803,0.475586,-0.197510,0.640869
1519676984848,0.666992,0.028320,0.982910
1519676984866,0.909180,-0.246826,0.327393
1519676984899,0.585205,-0.297852,0.713867
1519676984935,0.730469,-0.225342,0.662598
1519676984968,0.537598,-0.069580,0.497070
1519676985002,0.663330,-0.070801,0.632080
1519676985030,0.933838,-0.629639,0.529053
1519676985064,0.508301,0.012207,1.068359
1519676985099,1.040527,0.019531,0.283691
1519676985133,0.703369,-0.268066,0.500488
1519676985166,0.495361,-0.096191,0.520752
1519676985184,0.572266,-0.329102,1.182129
1519676985229,1.002686,-0.010986,1.353516
1519676985265,0.721924,-0.062500,-0.026367
1519676985281,0.509277,-0.118896,1.088623
1519676985316,0.649902,-0.179932,0.710693
1519676985349,0.761719,-0.217773,1.060547
1519676985383,0.570557,-0.016846,0.450439
1519676985412,0.606934,-0.021484,1.038086
1519676985446,0.882324,0.062012,0.890381
1519676985496,0.881104,-0.060059,0.417969
1519676985515,0.860352,-0.286621,0.604248
1519676985548,0.655518,-0.107178,0.802490
1519676985581,0.603516,-0.099121,0.634521
1519676985610,0.453125,-0.090088,1.278809
1519676985646,0.817383,-0.213135,0.436768
1519676985665,0.386963,-0.098145,1.030029
1519676985713,0.622559,0.151855,0.911621
1519676985731,0.519775,0.128906,0.799316
1519676985797,0.769287,0.001709,0.758789
1519676985806,0.440674,0.079346,0.264648
1519676985863,0.794922,-0.002686,0.755127
1519676985867,0.701660,-0.141113,0.516113
1519676985932,0.887451,-0.227295,0.700439
1519676985940,0.593262,-0.277344,0.713867
1519676985999,0.770508,-0.085449,0.600342
1519676986006,0.667969,-0.295410,0.915527
1519676986066,0.508301,-0.205811,0.688232
1519676986072,0.521973,0.017578,0.810303
1519676986135,0.626465,-0.002930,1.155518
1519676986143,0.858887,-0.094238,0.564209
1519676986202,0.593018,-0.173828,0.468018
1519676986211,0.635742,-0.150146,0.645996
1519676986258,0.861572,-0.219238,0.879883
1519676986261,0.675293,-0.175049,0.570313
1519676986301,0.586670,-0.178223,0.546631
1519676986311,0.887207,-0.627441,0.360840
1519676986346,0.423096,-0.217773,0.790771
1519676986380,0.780029,-0.006592,1.014893
1519676986408,0.841309,-0.438965,0.410400
1519676986442,0.562500,-0.006836,0.663086
1519676986478,0.661377,0.071777,1.001953
1519676986511,0.463623,0.023926,0.441162
1519676986545,0.781982,-0.139160,0.842773
1519676986577,0.616211,-0.100342,0.616455
1519676986606,0.652588,0.216797,0.718262
1519676986642,0.963379,-0.244385,0.645508
1519676986676,0.614502,-0.010498,0.648682
1519676986710,0.876709,-0.148193,1.083496
1519676986728,0.802490,-0.085205,1.018799
1519676986777,0.586914,-0.222900,0.639404
1519676986794,0.425049,-0.233643,0.916260
1519676986822,0.568359,-0.169678,0.315674
1519676986873,0.456055,-0.013184,0.986084
1519676986891,0.793701,-0.013916,0.573486
1519676986925,0.652588,-0.143311,0.834717
1519676986960,0.845703,-0.056152,0.665283
1519676986994,0.641357,-0.179688,0.780273
1519676987022,0.712158,-0.199219,0.709961
1519676987056,0.574219,0.028809,0.783203
1519676987090,0.657715,-0.054688,0.673340
1519676987125,0.704102,-0.078613,1.103760
1519676987158,0.739990,-0.133057,0.787598
1519676987193,0.722900,-0.036621,1.006104
1519676987220,0.804199,-0.115967,0.125977
1519676987257,0.559570,-0.096436,0.802734
1519676987291,0.735352,-0.245850,0.082764
1519676987307,0.626465,-0.139648,1.066895
1519676987359,0.795410,-0.145752,0.530518
1519676987376,0.579590,-0.003662,1.104492
1519676987402,0.614746,0.046143,0.776855
1519676987455,0.823486,-0.149414,0.750732
1519676987472,0.533447,-0.047607,0.677979
1519676987507,0.731934,0.031494,0.584717
1519676987539,0.531738,-0.103027,1.184326
1519676987571,0.643066,0.105225,0.869629
1519676987601,0.587891,-0.107910,0.487793
1519676987638,0.648926,-0.161865,0.914551
1519676987672,0.513184,0.022217,0.522217
1519676987705,0.882813,-0.196533,0.712646
1519676987740,0.465576,-0.092285,0.370117
1519676987774,0.789063,-0.070313,0.758057
1519676987791,0.584473,-0.113281,0.541992
1519676987837,0.553711,-0.126709,0.698730
1519676987872,0.548828,-0.229492,1.182373
1519676987890,0.707520,-0.119629,0.436035
1519676987921,0.541016,-0.133545,0.773438
1519676987954,0.757568,-0.172119,0.302002
1519676987990,0.574951,-0.307617,0.674072
1519676988018,0.712646,-0.002930,0.761963
1519676988057,0.787842,-0.079590,0.977051
1519676988086,0.697266,-0.112061,0.826416
1519676988122,0.774170,-0.053955,0.883789
1519676988157,0.706299,-0.173096,0.264160
1519676988190,0.607178,-0.118408,0.966064
1519676988217,0.789063,-0.287598,0.654785
1519676988252,0.562988,-0.104004,0.780762
1519676988280,0.868408,0.031250,0.947266
1519676988322,0.932861,-0.158203,0.775879
1519676988338,0.565430,-0.172607,0.473145
1519676988371,0.850342,-0.117188,1.016113
1519676988417,0.752930,-0.197266,0.596680
1519676988434,0.774658,-0.471680,0.533447
1519676988468,0.632568,-0.081299,0.875000
1519676988502,0.828857,-0.337646,0.684570
1519676988536,0.478760,-0.193604,0.924316
1519676988570,0.596680,-0.149170,0.948730
1519676988598,0.877930,-0.062744,0.921875
1519676988632,0.499023,0.120361,0.480225
1519676988674,0.858398,-0.188232,0.991211
1519676988700,0.595703,-0.140625,0.348633
1519676988734,0.809570,-0.060791,0.831055
1519676988751,0.791504,-0.113037,0.900879
1519676988798,0.615479,-0.068359,0.551270
1519676988832,0.791748,-0.088867,0.716309
1519676988849,0.785400,-0.117188,0.821045
1519676988901,0.769531,-0.094238,0.826904
1519676988919,0.572754,-0.029785,0.760498
1519676988951,0.682617,-0.174316,0.753662
1519676988987,0.737793,-0.203125,0.978516
1519676989014,0.535156,-0.118164,0.267090
1519676989050,0.687744,-0.224609,0.917725
1519676989082,0.793457,-0.122070,0.588623
1519676989117,0.743896,-0.137207,0.635498
1519676989153,0.735840,-0.122314,0.576416
1519676989186,0.743652,-0.353271,0.547119
1519676989212,0.505127,-0.211182,0.573242
1519676989248,0.823242,-0.213379,0.969482
1519676989281,0.796143,-0.141846,0.961914
1519676989338,0.814209,-0.226807,0.494141
1519676989346,0.805664,-0.111816,0.646484
1519676989385,0.765869,-0.119141,0.362305
1519676989414,0.642334,-0.306396,0.956543
1519676989435,0.698486,-0.051270,0.808594
1519676989482,0.802490,-0.102051,0.404785
1519676989498,0.564697,-0.105713,1.096191
1519676989534,0.804932,-0.180420,0.448975
1519676989566,0.607666,-0.160156,0.962402
1519676989595,0.797607,-0.064209,0.758057
1519676989629,0.807373,-0.305664,0.482422
1519676989664,0.700439,-0.112061,0.738525
1519676989698,0.635498,-0.082275,0.868408
1519676989732,0.713135,-0.242188,0.857422
1519676989766,0.690430,-0.271973,0.512207
1519676989794,0.608154,0.053467,0.787109
1519676989828,0.718506,-0.129395,0.679932
1519676989875,0.548584,-0.131592,0.805420
1519676989897,0.736084,-0.085938,0.955811
1519676989938,0.542236,-0.188965,0.557373
1519676989964,0.701660,-0.037354,0.996338
1519676989995,0.528076,-0.421143,-0.175537
1519676990010,0.634521,-0.041504,1.644775
1519676990063,0.924805,-0.034424,0.621094
1519676990079,0.748779,-0.280518,0.737549
1519676990115,0.737793,-0.188477,0.718506
1519676990148,0.662842,0.048340,0.588867
1519676990181,0.676514,-0.318604,0.171875
1519676990211,0.429199,-0.092041,1.315918
1519676990244,0.884277,-0.017334,0.720703
1519676990278,0.568604,-0.285889,0.531738
1519676990313,0.758545,-0.297363,0.580566
1519676990347,0.446289,-0.024170,0.290527
1519676990381,1.036133,-0.241211,1.317871
1519676990409,0.434570,-0.198242,0.259521
1519676990449,0.950195,-0.127197,1.196533
1519676990478,0.557129,-0.136963,0.073975
1519676990495,0.604248,-0.176758,0.761230
1519676990530,0.701904,-0.312500,0.958984
1519676990567,0.851074,-0.041260,0.941406
1519676990589,0.635986,-0.081055,0.988770
1519676990625,0.656494,-0.249512,0.809082
1519676990659,0.486328,-0.014404,0.550293
1519676990695,0.923096,-0.209473,0.881836
1519676990728,0.405762,-0.101563,-0.077148
1519676990794,0.641113,-0.106934,1.008057
1519676990799,0.790283,-0.389893,0.111084
1519676990861,0.676514,0.008789,0.803467
1519676990865,0.665527,-0.380127,0.041748
1519676990931,0.711914,-0.469971,0.961426
1519676990940,0.626953,-0.247559,0.497314
1519676990996,0.479736,-0.084961,0.909912
1519676991003,0.589355,-0.098145,0.492188
1519676991065,0.506592,-0.153076,0.894287
1519676991130,0.776855,-0.068115,0.671143
1519676991139,0.614502,-0.372803,1.228027
1519676991197,0.685547,0.137939,0.780762
1519676991207,0.733887,-0.125000,0.238037
1519676991262,0.518311,-0.233643,0.633545
1519676991271,0.260254,0.052734,0.944580
1519676991279,1.374268,-0.187012,1.377441
1519676991287,0.266602,-0.096436,-0.161621
1519676991308,0.785645,-0.294678,0.392822
1519676991341,0.888916,-0.207031,1.155273
1519676991359,0.730957,-0.171631,0.654297
1519676991406,0.567871,-0.106201,1.018311
1519676991439,0.908447,-0.044678,0.755127
1519676991466,0.571777,-0.293701,0.110596
1519676991509,0.472168,-0.057861,1.028320
1519676991526,0.639160,-0.125732,0.895752
1519676991558,0.525635,0.016113,1.122559
1519676991603,0.584473,-0.199219,1.311523
1519676991620,0.886719,-0.203125,0.759521
1519676991655,0.485840,-0.090820,0.807129
1519676991691,0.661865,-0.040283,0.708984
1519676991724,0.594971,0.055176,0.845215
1519676991759,0.922363,-0.178223,0.876953
1519676991785,0.361816,-0.034912,0.351807
1519676991820,0.858398,0.037598,1.479492
1519676991854,0.692871,-0.197021,0.505371
1519676991897,0.595215,-0.245117,0.468994
1519676991923,0.520508,-0.062988,0.916504
1519676991941,0.510742,-0.116699,1.077881
1519676991985,0.625488,0.015869,0.925781
1519676992020,0.806152,-0.211914,0.874756
1519676992036,0.659424,-0.064453,0.598633
1519676992087,0.649658,0.026855,0.550049
1519676992105,0.543701,-0.025391,0.885986
1519676992139,0.862549,-0.091797,0.614746
1519676992175,0.708984,-0.248535,0.195313
1519676992203,0.744873,0.041016,0.875244
1519676992237,0.820557,-0.117920,0.296631
1519676992272,0.790283,-0.285645,0.474854
1519676992303,0.592529,-0.182373,0.772705
1519676992337,0.862793,-0.274170,0.369141
1519676992370,0.708252,-0.171387,0.619629
1519676992402,0.764160,0.023193,0.615967
1519676992436,0.664795,-0.095947,0.798340
1519676992470,0.647461,-0.213623,0.880127
1519676992504,0.620117,-0.187012,0.756104
1519676992520,0.594482,-0.093018,1.219238
1519676992571,0.969482,-0.224854,0.916016
1519676992599,0.347900,0.095703,0.666016
1519676992617,0.995605,-0.129395,1.262207
1519676992670,0.587646,-0.175049,0.025879
1519676992687,0.766846,-0.217529,1.020020
1519676992721,0.552979,-0.123047,0.598145
1519676992754,0.730469,-0.087646,0.695313
1519676992781,0.934082,-0.343018,0.591064
1519676992817,0.529785,-0.069336,1.254639
1519676992851,0.651611,0.177490,0.726807
1519676992884,0.576660,-0.303711,1.218506
1519676992918,0.155518,-0.060059,-0.143311
1519676992951,0.634033,-0.187744,1.313721
1519676992982,0.646240,-0.241211,0.571289
1519676993017,0.445068,-0.004395,0.873535
1519676993051,1.153076,-0.295898,1.241699
1519676993087,0.540771,-0.079346,0.504883
1519676993110,0.655029,0.018799,0.375244
1519676993177,0.214600,-0.172607,0.886963
1519676993186,0.856201,-0.229004,0.567139
1519676993198,0.511475,-0.083984,0.600098
1519676993233,0.555664,-0.065430,1.196289
1519676993267,0.657471,0.019287,0.541016
1519676993301,0.884521,-0.409668,0.601318
1519676993334,0.681641,-0.188965,0.287354
1519676993372,0.728271,0.027832,0.730713
1519676993398,0.713135,-0.407959,0.516602
1519676993441,0.309814,-0.005371,1.034424
1519676993465,1.058838,-0.203125,0.760010
1519676993499,0.547852,-0.118652,0.642822
1519676993533,0.611816,-0.020996,0.405518
1519676993558,1.000488,-0.297852,1.309326
1519676993597,0.476318,-0.170166,0.258789
1519676993630,0.668945,-0.083984,0.530273
1519676993650,0.733154,-0.188965,0.943604
1519676993682,0.841064,0.070313,0.855469
1519676993717,0.634521,-0.097412,0.595703
1519676993751,0.520508,-0.091797,0.851807
1519676993778,0.876221,-0.258545,0.446289
1519676993813,0.372314,-0.080566,0.124268
1519676993847,0.628662,-0.009277,1.166016
1519676993882,0.586914,-0.163086,0.599365
1519676993916,0.855469,-0.047119,0.937988
1519676993949,0.670410,-0.368408,0.800537
1519676993966,0.286865,-0.115234,1.091309
1519676994011,0.768555,-0.110840,0.635010
1519676994046,0.994873,0.060303,0.400635
1519676994062,0.586426,0.116211,1.010498
1519676994113,0.748291,0.152344,1.411865
1519676994131,0.750488,-0.177734,0.329834
1519676994165,0.391357,0.124512,0.691650
1519676994211,0.711426,-0.254883,1.045654
1519676994228,0.574463,-0.297363,-0.063965
1519676994264,0.824463,-0.029541,1.031738
1519676994294,1.007080,-0.408691,0.350830
1519676994328,0.686523,-0.158691,0.488281
1519676994365,0.508301,-0.192383,0.318604
1519676994394,0.714355,-0.316650,0.815186
1519676994429,0.451172,-0.077881,1.171387
1519676994461,0.903809,-0.235352,0.358643
1519676994494,0.415527,-0.209717,-0.311768
1519676994529,0.583740,-0.037598,1.049072
1519676994546,1.117432,-0.290527,0.869141
1519676994593,0.666992,-0.186768,0.277832
1519676994626,0.430420,-0.135498,0.757568
1519676994643,0.776367,-0.204834,0.649414
1519676994697,0.727051,-0.004395,0.580078
1519676994711,0.937744,0.015625,1.267822
1519676994747,0.349365,0.047363,0.955078
1519676994792,0.556885,0.011475,1.104248
1519676994810,1.053223,-0.313721,0.617920
1519676994843,0.463623,-0.258789,0.364502
1519676994878,0.637451,-0.146973,0.746094
1519676994912,0.621826,-0.246826,0.778320
1519676994945,0.947266,-0.024414,0.956299
1519676994972,0.545898,-0.060059,0.705322
1519676995007,0.759521,0.025391,0.663330
1519676995043,0.627197,-0.253662,0.504883
1519676995077,0.844482,-0.000488,0.596680
1519676995110,0.597412,-0.196533,0.407715
1519676995127,0.685059,-0.091309,0.930176
1519676995172,0.902344,-0.189941,0.507080
1519676995207,0.703125,-0.102539,0.823242
1519676995225,0.646729,-0.095703,0.611572
1519676995276,0.706543,-0.241699,0.590332
1519676995293,0.582275,-0.067871,0.842529
1519676995327,0.737549,0.092773,0.264648
1519676995362,0.712402,-0.214600,0.989502
1519676995389,0.657227,-0.176514,0.813965
1519676995426,0.742188,-0.012695,1.201904
1519676995459,0.470215,0.039063,0.195313
1519676995492,0.767334,-0.174072,0.881348
1519676995526,0.821289,-0.283691,0.909180
1519676995561,0.789307,-0.041016,0.395264
1519676995588,0.552246,-0.052734,0.539307
1519676995622,0.839844,-0.136719,0.857178
1519676995656,0.704346,-0.329346,0.655762
1519676995691,0.608154,-0.097412,0.852051
1519676995709,0.365479,-0.084473,0.493652
1519676995774,0.743652,-0.309570,0.605225
1519676995841,0.694092,-0.328369,1.691650
1519676995907,0.489990,-0.182617,-0.018555
1519676995916,0.396240,0.115479,1.203857
1519676995975,1.089355,-0.142334,0.833008
1519676995985,0.345703,-0.015381,-0.002930
1519676996041,0.520752,-0.020264,1.404785
1519676996048,0.585693,-0.068115,0.188477
1519676996110,0.792969,-0.324219,0.725342
1519676996117,0.821533,-0.029297,1.109375
1519676996177,0.782715,-0.048096,0.654785
1519676996183,0.965820,-0.469971,1.100586
1519676996244,0.944092,-0.365723,-0.366455
1519676996254,0.510498,-0.319092,0.931641
1519676996266,0.570068,-0.434570,0.571289
1519676996270,0.438232,0.051514,0.900146
1519676996273,0.944092,0.071289,1.263672
1519676996288,0.740723,-0.033691,1.174805
1519676996322,1.145996,-0.064209,1.401855
1519676996356,0.198242,-0.238525,-0.300293
1519676996385,0.564453,0.143799,1.964111
1519676996419,0.938232,-0.370361,0.688232
1519676996454,0.214600,-0.094482,0.178223
1519676996486,0.749512,0.007080,1.644287
1519676996521,1.300537,-0.220947,0.663330
1519676996555,0.748779,0.197510,1.233643
1519676996584,0.889404,-0.038330,0.347656
1519676996618,0.503906,-0.230469,1.103027
1519676996651,0.224854,-0.064697,0.261719
1519676996670,0.343262,-0.284668,0.479492
1519676996721,0.350098,-0.144043,1.082031
1519676996739,0.924072,0.019775,1.271729
1519676996766,0.694824,0.073975,0.655029
1519676996817,0.789795,-0.185059,0.753418
1519676996835,0.829590,-0.071289,1.091797
1519676996869,0.615723,-0.117920,0.423340
1519676996904,0.646240,0.004150,0.322754
1519676996938,0.504395,-0.113525,0.676514
1519676996966,0.599121,-0.229980,1.096436
1519676997015,0.789551,-0.217773,0.686279
1519676997033,0.797607,-0.196533,0.758057
1519676997067,0.548096,-0.246094,0.164063
1519676997101,0.476807,-0.353760,0.341309
1519676997135,0.611084,-0.151367,1.094971
1519676997153,0.624023,-0.138184,0.502197
1519676997198,0.740479,-0.124756,0.988770
1519676997233,0.330566,0.012207,0.615234
1519676997249,1.145264,-0.187012,0.691406
1519676997300,0.631348,-0.271484,0.017334
1519676997317,0.612793,-0.036377,0.509766
1519676997351,0.433594,-0.297607,0.858643
1519676997398,0.519531,-0.020020,0.723389
1519676997415,0.892334,0.088135,1.278809
1519676997449,0.394531,0.008789,-0.220459
1519676997483,0.471680,-0.140137,0.501221
1519676997517,0.908203,-0.195313,1.028076
1519676997550,0.481201,-0.194580,0.533691
1519676997580,0.502441,-0.190918,0.386963
1519676997614,0.383789,-0.119873,0.732666
1519676997648,-0.281982,-0.117188,-0.853027
1519676997682,-0.038818,-0.312744,2.610352
1519676997717,1.455322,0.039063,0.916016
1519676997733,-0.225098,0.156494,0.359863
1519676997779,2.175049,-0.038086,5.052979
1519676997813,-1.570557,0.354004,-4.173828
1519676997841,0.453369,-0.237549,1.762939
1519676997881,1.585449,0.156494,-0.033936
1519676997899,-0.266602,-1.025391,0.734863
1519676997933,1.628662,-0.284424,1.182129
1519676997978,0.473145,-0.691406,-1.386475
1519676997996,0.670166,-0.122314,2.177490
1519676998029,0.658691,0.150146,0.273926
1519676998064,0.543457,-0.238037,0.540283
1519676998098,-0.146484,0.371826,0.692627
1519676998132,0.828857,0.184814,1.100098
1519676998159,0.875977,0.158691,0.512207
1519676998195,0.666016,-0.070313,0.995605
1519676998228,0.543457,0.016602,0.644287
1519676998263,0.835693,-0.086182,1.316895
1519676998297,0.902588,-0.196533,0.215332
1519676998315,0.755615,-0.013428,1.258545
1519676998360,0.855469,0.031006,0.661377
1519676998395,0.622559,-0.108398,0.828369
1519676998411,0.470215,-0.071533,0.809326
1519676998464,0.388672,0.056396,0.772461
1519676998481,0.939697,0.015869,0.750977
1519676998514,0.556641,-0.046143,0.587891
1519676998548,0.621582,-0.001953,1.426025
1519676998576,0.705078,0.083008,0.002197
1519676998611,0.381592,0.264404,0.919922
1519676998645,1.035156,-0.158447,0.891602
1519676998679,0.367432,-0.235596,0.667725
1519676998713,1.143555,0.013916,1.058594
1519676998747,0.707764,-0.348633,0.246826
1519676998776,0.630127,-0.024414,0.886963
1519676998811,0.622070,-0.069336,0.939697
1519676998844,0.542969,-0.143799,0.891846
1519676998862,0.700195,-0.124023,0.477539
1519676998895,0.907715,-0.071533,0.968018
1519676998931,0.592041,-0.071045,0.530029
1519676998960,0.691650,-0.069824,0.812012
1519676998993,0.687012,-0.262695,0.517578
1519676999030,0.334229,-0.135498,0.455322
1519676999061,0.371826,0.115967,0.927246
1519676999096,1.200928,-0.282959,0.760010
1519676999127,0.463135,0.013428,0.606934
1519676999158,0.878174,0.081299,0.946777
1519676999193,0.379150,-0.239014,0.452393
1519676999226,0.674316,0.072510,1.032715
1519676999260,0.647217,0.001221,0.656738
1519676999276,0.384521,0.063232,0.948486
1519676999330,0.786865,-0.120361,0.713623
1519676999347,0.662354,-0.094482,0.530273
1519676999376,1.063232,-0.196777,1.439697
1519676999426,0.484131,-0.196045,0.491211
1519676999443,0.521484,0.089844,0.591553
1519676999477,0.689209,-0.386719,0.124512
1519676999511,0.254883,0.006104,0.778320
1519676999543,0.963867,-0.013672,0.649170
1519676999576,0.371338,-0.085205,0.878906
1519676999606,0.857666,-0.226563,0.648193
1519676999640,0.691406,-0.243896,0.794434
1519676999674,0.738770,0.010010,0.737549
1519676999707,0.388428,-0.170654,1.032227
1519676999743,0.616943,-0.001709,0.752930
1519676999770,0.733643,-0.072266,0.737061
1519676999806,0.455078,0.050781,0.469482
1519676999840,0.867676,-0.116455,0.623535
1519676999858,0.343750,-0.061523,0.595703
1519676999909,0.992188,-0.368164,1.489014
1519676999926,0.694824,-0.112305,0.191162
1519676999954,0.619141,0.072021,0.810547
1519677000005,0.621338,-0.119629,1.085693
1519677000022,0.509033,-0.196533,0.858887
1519677000056,0.670166,-0.007324,0.360352
1519677000089,0.646973,-0.001709,0.812012
1519677000123,0.709473,0.124023,0.822754
1519677000153,0.821045,-0.049805,0.569824
1519677000197,0.568604,0.048828,1.032959
1519677000220,0.459961,-0.192383,0.092285
1519677000255,0.474854,-0.019287,1.506592
1519677000289,0.818848,-0.185059,0.944336
1519677000324,0.762207,-0.295166,0.226074
1519677000341,0.606201,-0.198730,0.178467
1519677000387,0.296143,-0.069580,0.412109
1519677000423,0.608398,-0.027344,1.716064
1519677000439,0.349121,-0.055176,0.084473
1519677000490,0.249023,-0.379395,2.046631
1519677000507,1.569092,0.483887,1.231934
1519677000540,0.338135,0.351318,-0.694092
1519677000587,0.358643,0.247314,0.391846
1519677000603,0.963623,-0.103760,1.015137
1519677000637,0.828125,-0.233887,0.905518
1519677000671,0.439697,-0.448486,-0.727783
1519677000704,0.239502,-0.455078,1.999756
1519677000863,1.244141,-0.137939,0.722412
1519677000871,0.971680,-0.196289,0.358398
1519677000931,0.502197,0.186523,0.989014
1519677000939,0.798096,-0.141846,0.790527
1519677000996,0.522461,-0.017334,0.726074
1519677001006,0.927490,0.123291,0.505859
1519677001064,0.394043,0.169434,0.539551
1519677001069,0.670410,0.117432,1.720215
1519677001130,0.259033,0.142822,0.571533
1519677001134,1.095215,0.122803,1.405762
1519677001199,1.190430,-0.526367,-0.265869
1519677001209,0.319336,-0.150879,1.747803
1519677001268,0.820068,0.205078,0.006836
1519677001274,0.274170,-0.147217,0.150146
1519677001289,0.746582,-0.213867,1.030273
1519677001295,0.420410,-0.291748,0.651367
1519677001305,0.375244,-0.104736,0.847168
1519677001309,0.974121,-0.352051,0.511963
1519677001319,0.949463,-0.255127,0.995117
1519677001348,0.777344,-0.104492,0.439209
1519677001383,0.363281,0.013916,0.803711
1519677001418,0.711670,-0.244141,0.111572
1519677001451,0.550537,-0.062500,0.872803
1519677001485,0.729004,-0.143555,0.535400
1519677001503,0.317627,0.040527,0.952393
1519677001537,0.907227,-0.052734,0.962891
1519677001567,0.730957,-0.149658,0.539795
1519677001599,0.718994,-0.185059,0.855469
1519677001634,0.509033,-0.110596,0.676025
1519677001668,0.810059,-0.149414,0.134033
1519677001702,0.564453,-0.202148,1.078857
1519677001737,0.814697,-0.026611,1.483398
1519677001765,0.763428,-0.121582,0.740234
1519677001800,0.605469,0.245605,0.772705
1519677001833,0.923340,-0.374512,0.639648
1519677001867,0.486572,-0.182617,0.750488
1519677001887,0.731934,-0.052734,1.004883
1519677001935,0.451660,-0.128906,0.402344
1519677001962,0.511230,-0.240479,0.374512
1519677001981,0.955078,-0.125244,2.571289
1519677002031,0.626709,0.095947,1.019775
1519677002049,1.002930,-0.320557,-0.706299
1519677002090,0.141846,-0.159668,2.367188
1519677002137,1.303711,0.369141,1.414795
1519677002146,0.753418,-0.362061,0.305908
1519677002181,0.342041,-0.221436,0.055176
1519677002214,1.058350,-0.008301,1.271973
1519677002250,1.109619,-0.369873,0.720703
1519677002283,0.857178,0.125732,0.870605
1519677002317,0.804688,-0.289063,0.447998
1519677002345,0.353516,-0.372559,0.851318
1519677002380,0.332520,-0.099854,0.875977
1519677002413,0.781494,-0.089600,0.432373
1519677002448,0.344727,-0.005371,0.675537
1519677002464,0.985107,-0.016357,0.830811
1519677002515,0.777832,-0.104980,0.757324
1519677002533,0.579590,-0.010498,0.574707
1519677002562,0.567139,-0.238525,0.793213
1519677002614,0.293945,-0.025391,0.282959
1519677002630,0.461182,0.015869,1.044678
1519677002667,1.483154,-0.748291,-0.747070
1519677002697,-0.451904,0.497803,0.188232
1519677002732,1.027588,0.097412,1.146973
1519677002759,1.106201,-0.893311,-1.008057
1519677002795,0.154297,-0.077393,-0.809814
1519677002829,0.649902,0.286133,1.557861
1519677002862,0.816650,-0.139648,0.390137
1519677002896,1.356445,-0.364502,0.557129
1519677002931,0.217285,-0.146973,0.496094
1519677002958,1.194092,-0.072510,2.069580
1519677002991,0.593750,-0.170654,0.536621
1519677003026,0.983398,0.030518,-0.349854
1519677003044,0.579346,-0.245605,0.695557
1519677003095,0.756348,-0.290283,0.931885
1519677003113,0.657959,-0.107666,0.612793
1519677003140,0.825195,0.116943,1.229492
1519677003191,0.894775,-0.466064,0.940674
1519677003209,0.784180,0.096924,0.889648
1519677003243,0.874023,0.049561,0.743408
1519677003278,0.481934,-0.193604,0.965576
1519677003312,0.564941,0.036621,0.448242
1519677003339,0.561035,-0.015869,0.277588
1519677003374,0.479980,0.006104,1.005615
1519677003415,0.908203,-0.241211,0.190918
1519677003443,0.609131,-0.128906,0.996338
1519677003477,0.942871,-0.154785,1.034180
1519677003510,0.623779,-0.237061,0.319336
1519677003528,0.684814,-0.311035,0.623535
1519677003573,0.845703,-0.113281,1.170166
1519677003608,0.726563,0.091553,0.922852
1519677003624,0.457031,0.283203,1.059814
1519677003676,0.641846,-0.070557,1.183105
1519677003693,0.782959,-0.139893,0.703125
1519677003727,0.420898,0.095703,0.960449
1519677003773,1.032959,-0.262695,1.583984
1519677003791,0.127930,-0.026123,-0.342773
1519677003824,1.103516,0.059082,0.967529
1519677003858,0.814453,-0.156738,1.079346
1519677003891,0.481201,-0.024658,0.463135
1519677003927,0.788818,-0.163818,0.201660
1519677003955,0.491943,-0.313965,0.797119
1519677003989,0.760742,-0.320313,0.513184
1519677004023,0.585938,0.098145,1.106201
1519677004057,1.013184,-0.092529,0.572754
1519677004091,0.659424,-0.067627,1.266846
1519677004108,0.790039,0.008301,0.322021
1519677004154,0.388916,-0.260254,1.012939
1519677004188,0.432617,-0.110107,0.599609
1519677004206,0.931885,-0.354492,0.374512
1519677004247,0.536865,-0.085205,0.603271
1519677004273,0.688965,0.006592,0.843994
1519677004308,0.760742,-0.183105,0.527588
1519677004337,1.011963,-0.085693,0.912842
1519677004370,0.866455,0.125244,1.157471
1519677004404,0.467285,-0.314941,0.135010
1519677004439,0.440674,0.021484,0.850342
1519677004473,0.850098,-0.211670,0.806396
1519677004508,0.744385,-0.156494,1.177002
1519677004535,0.655273,0.040039,0.022217
1519677004569,0.627686,-0.158447,1.043457
1519677004587,0.827393,-0.494629,-0.526367
1519677004638,0.112549,-0.286133,-0.207031
1519677004655,0.976074,0.016357,1.679199
1519677004695,0.922852,-0.464844,-0.009033
1519677004723,0.969727,-0.040039,0.717285
1519677004751,0.647461,0.024658,0.934326
1519677004786,0.732178,0.015381,0.697510
1519677004822,0.990723,-0.162598,-0.224365
1519677004855,0.299805,0.089844,0.963379
1519677004889,1.132324,-0.147949,1.667969
1519677004923,0.438721,-0.151611,1.553955
1519677004951,1.336914,0.212646,1.165527
1519677004986,0.221191,0.362549,0.739502
1519677005030,0.324219,0.114258,2.210449
1519677005053,0.751709,-0.834961,-1.478027
1519677005071,0.176025,-0.205322,1.429932
1519677005121,1.396240,-0.081299,0.856201
1519677005151,0.532715,-0.052490,1.195068
1519677005169,0.920166,0.242920,0.825439
1519677005220,0.466797,-0.202148,0.457031
1519677005237,1.137695,0.120117,2.056641
1519677005270,0.656250,0.184326,0.498291
1519677005306,0.657715,0.216553,0.578857
1519677005331,0.964355,-0.194824,0.529297
1519677005368,0.457520,-0.123291,1.284180
1519677005402,1.208740,-0.001953,1.638428
1519677005436,0.047119,-0.039307,0.107666
1519677005472,1.198242,0.401123,1.709961
1519677005506,0.461670,-0.204834,0.244629
1519677005531,1.089111,-0.007568,1.555908
1519677005567,0.253906,-0.089600,-0.056152
1519677005601,0.139893,0.073242,1.719727
1519677005634,1.300049,0.266602,1.569092
1519677005652,0.360596,0.285645,1.004395
1519677005703,0.683350,-0.146484,0.566650
1519677005722,0.359375,-0.434082,0.042480
1519677005786,0.211426,-0.050781,1.524902
1519677005852,1.211914,-0.191650,0.785156
1519677005917,0.324463,-0.096924,0.385010
1519677005939,1.125488,0.475830,1.665771
1519677005983,0.470215,-0.217773,0.184326
1519677005987,0.975586,0.198486,0.641357
1519677006051,0.753906,-0.190674,0.088135
1519677006056,0.698242,-0.219971,0.784180
1519677006120,0.599365,-0.116943,0.531006
1519677006129,0.910156,-0.162109,0.728271
1519677006186,0.349854,0.024658,0.875244
1519677006192,1.002930,-0.150146,1.023926
1519677006255,0.477783,0.190186,0.363525
1519677006266,0.843262,-0.510742,0.078369
1519677006283,0.785400,-0.136963,0.531494
1519677006286,0.807129,-0.207275,0.151611
1519677006291,0.622559,0.156006,0.451660
1519677006300,1.000977,-0.086670,0.843994
1519677006329,0.729980,-0.141846,0.367188
1519677006381,0.419678,-0.153809,0.735352
1519677006399,0.711182,0.127686,0.626221
1519677006431,0.980469,0.018066,0.890869
1519677006465,0.459717,-0.068359,0.643555
1519677006499,1.019775,0.029541,1.377686
1519677006528,0.718262,-0.181396,-0.194580
1519677006564,1.061768,0.177002,0.989014
1519677006597,0.467529,-0.076904,0.453857
1519677006630,1.098877,-0.108154,1.501221
1519677006664,1.133057,-0.938232,-0.718262
1519677006698,0.189209,-0.054932,0.837402
1519677006715,1.126953,0.074951,0.796631
1519677006762,1.713135,-0.853027,1.489258
1519677006798,-0.167969,0.390869,0.425781
1519677006814,1.116455,0.343506,1.378418
1519677006847,0.614746,-0.208984,1.024414
1519677006882,0.847412,-0.247070,-0.205566
1519677006916,0.722168,-0.000732,1.917725
1519677006944,0.672363,0.203857,1.444580
1519677006977,1.121582,-0.389160,-1.045898
1519677007014,0.488525,0.007813,1.285400
1519677007049,0.953125,-0.166504,0.920654
1519677007081,0.585693,-0.512207,0.553223
1519677007115,0.449219,-0.025879,1.471924
1519677007141,0.609131,-0.102539,2.411621
1519677007177,0.853516,0.284180,-0.006348
1519677007211,0.551514,0.084229,0.672119
1519677007257,0.679443,-0.149414,0.995117
1519677007262,0.667969,-0.076660,0.335449
1519677007296,0.643555,-0.191650,0.487061
1519677007343,0.730957,-0.178711,0.405762
1519677007361,0.575684,0.079346,1.140625
1519677007394,0.831787,-0.125977,-0.028076
1519677007436,0.132813,-0.126221,0.268799
1519677007463,1.171143,0.241211,2.137207
1519677007497,0.704834,-0.122070,0.474854
1519677007525,0.755371,-0.477783,0.181885
1519677007562,0.310547,-0.416992,0.493164
1519677007594,0.891113,0.087158,1.391846
1519677007628,0.898682,-0.260010,0.396240
1519677007660,0.716553,-0.296631,0.706787
1519677007677,0.703369,-0.165527,0.862305
1519677007723,0.862061,-0.113037,0.402832
1519677007757,0.537842,-0.176758,0.485352
1519677007774,0.681396,-0.214600,0.412354
1519677007835,0.738770,-0.159424,0.908203
1519677007845,0.747314,-0.277588,0.358643
1519677007879,0.973877,-0.459717,0.050537
1519677007912,0.785645,-0.110352,0.171387
1519677007940,0.909424,-0.195801,0.614502
1519677007974,0.724854,-0.408447,0.595703
1519677008008,0.568115,-0.076172,0.597412
1519677008042,0.825439,-0.036865,1.302002
1519677008076,0.663086,0.129395,0.243652
1519677008109,0.788086,-0.108887,0.937744
1519677008138,0.825439,-0.132568,0.407959
1519677008174,0.667236,-0.121338,0.838867
1519677008208,0.638184,-0.015625,1.070068
1519677008242,0.792236,-0.218994,0.255859
1519677008260,0.946777,-0.111816,1.242920
1519677008309,0.743164,0.055664,0.366211
1519677008339,0.417236,-0.150146,0.715088
1519677008355,0.420654,-0.090576,1.010498
1519677008407,0.795654,-0.114502,1.097656
1519677008424,0.617188,-0.293457,0.625000
1519677008458,0.627686,-0.139404,0.314453
1519677008492,0.488037,-0.120850,0.382080
1519677008536,0.918945,-0.020996,1.018311
1519677008555,0.428711,-0.307373,0.112549
1519677008588,0.599854,-0.156250,0.432617
1519677008622,0.651611,-0.004639,1.365479
1519677008657,0.988281,-0.126221,0.396973
1519677008691,0.493164,-0.025879,0.137207
1519677008719,0.643066,0.067139,0.919434
1519677008754,0.356689,0.170166,1.333496
1519677008787,0.092041,0.148926,2.423828
1519677008823,0.799316,0.158203,1.298828
1519677008840,1.494385,-0.251709,0.991699
1519677008893,0.624023,0.638184,-0.994385
1519677008907,0.492432,0.093506,0.578125
1519677008938,1.012207,-0.574951,0.311768
1519677008987,-0.076172,-0.302002,-0.823486
1519677009012,0.491455,0.031006,2.648193
1519677009038,0.561768,0.088867,0.786133
1519677009072,1.210449,-0.366211,1.517822
1519677009106,0.730713,-0.161621,0.017334
1519677009134,0.646973,-0.031250,0.557617
1519677009170,0.572754,-0.311523,0.082764
1519677009205,0.537354,-0.105225,0.866699
1519677009238,0.646240,-0.274902,0.528809
1519677009273,0.404541,0.020020,1.029297
1519677009308,0.679688,-0.203857,0.679688
1519677009335,0.465576,-0.069824,0.644531
1519677009369,1.055908,-0.229004,0.964844
1519677009408,0.308838,-0.212158,0.478760
1519677009420,0.653564,-0.012207,1.500244
1519677009470,0.788818,-0.183350,0.655518
1519677009489,0.477051,0.072266,0.681885
1519677009515,0.550049,0.278076,1.081055
1519677009550,0.653809,-0.074707,2.013428
1519677009584,0.953857,-0.351807,0.222656
1519677009618,0.932861,-0.128174,0.792236
1519677009653,0.795898,0.028076,-0.060791
1519677009687,0.606201,-0.041504,1.301758
1519677009726,1.073486,-0.420166,0.536133
1519677009751,0.447021,-0.162842,0.594238
1519677009784,0.381592,0.184082,1.714600
1519677009831,1.087891,-0.352539,-0.228027
1519677009853,0.721436,-0.250732,-0.275391
1519677009892,0.855713,-0.135498,0.656738
1519677009903,0.471924,-0.112305,1.304688
1519677009948,0.944336,-0.165771,0.624512
1519677009973,0.426758,-0.103027,0.806885
1519677010000,0.822998,0.229248,1.312012
1519677010036,0.803223,-0.071533,0.758545
1519677010069,0.845215,0.006104,0.583740
1519677010139,0.596191,-0.043213,0.756836
1519677010145,0.524414,-0.067871,1.073486
1519677010167,0.552979,0.032715,1.153320
1519677010200,0.420654,-0.106689,1.101318
1519677010235,0.794434,-0.335938,1.802734
1519677010267,0.211670,-0.101318,-0.561035
1519677010289,0.577148,-0.047852,1.387695
1519677010332,0.789307,0.064209,1.077637
1519677010363,0.753174,-0.443848,0.411377
1519677010382,0.565674,0.011475,1.035645
1519677010431,0.675781,-0.120117,0.510742
1519677010454,0.822998,-0.444092,0.555908
1519677010483,0.770264,-0.189209,0.235840
1519677010528,0.614502,-0.086914,0.598633
1519677010547,0.685303,-0.097168,0.787598
1519677010580,0.831055,-0.163574,0.454834
1519677010626,0.830811,-0.202637,0.893799
1519677010649,0.545166,0.003906,0.571045
1519677010683,0.918457,-0.157471,0.853516
1519677010711,0.598389,-0.312988,0.358154
1519677010789,0.586182,-0.071777,0.952637
1519677010794,0.690918,-0.152100,1.142334
1519677010857,0.858398,-0.017090,1.010254
1519677010923,0.724854,-0.034180,0.714355
1519677010927,0.683594,-0.133545,0.516602
1519677010992,0.764404,-0.125488,0.904053
1519677011002,0.646240,-0.070801,0.911865
1519677011059,0.759277,-0.093994,0.841797
1519677011128,0.551514,-0.022705,0.763428
1519677011136,0.836426,-0.071777,0.827393
1519677011195,0.540527,-0.204590,0.592773
1519677011206,0.910645,-0.175293,0.887695
1519677011263,0.427979,-0.238281,0.302734
1519677011267,0.660156,-0.080566,1.021240
1519677011289,0.717285,-0.130127,0.912842
1519677011294,0.597900,-0.233887,0.639404
1519677011299,0.493164,-0.326660,0.790771
1519677011304,0.702637,-0.047607,0.699463
1519677011326,0.780518,-0.253418,0.350342
1519677011361,0.622314,0.083740,1.167725
1519677011395,0.803711,-0.274170,0.562988
1519677011430,0.305176,-0.060303,0.950195
1519677011447,0.780029,-0.055664,0.753906
1519677011498,0.816895,-0.316406,0.269287
1519677011526,0.693604,0.077148,0.887939
1519677011543,0.816895,-0.212646,0.443359
1519677011595,0.734375,-0.278564,0.662354
1519677011612,0.582520,0.079102,0.706787
1519677011644,0.875732,-0.074219,0.736328
1519677011678,0.738770,-0.315430,0.263916
1519677011708,0.821289,-0.154053,0.637695
1519677011742,0.521729,-0.056152,1.105713
1519677011776,0.614746,-0.198730,0.886475
1519677011809,0.615723,-0.100586,1.035156
1519677011852,0.883301,0.063965,0.692627
1519677011878,0.540527,0.100586,0.882324
1519677011906,0.849854,0.022461,0.747559
1519677011940,0.670166,-0.158203,0.618408
1519677011974,0.455322,0.028809,0.546875
1519677012009,0.730225,-0.200439,1.101563
1519677012025,0.485840,-0.124023,0.874268
1519677012077,0.781250,-0.173584,1.183105
1519677012094,0.484619,-0.242432,0.681885
1519677012121,0.665283,0.009033,0.514648
1519677012174,0.769043,-0.298828,0.699951
1519677012191,0.562500,-0.291748,0.519775
1519677012225,0.721924,0.026367,1.037109
1519677012259,0.832520,-0.305664,0.025146
1519677012293,0.298340,-0.041260,1.197754
1519677012321,1.239990,-0.080322,1.380859
1519677012375,0.661621,-0.102783,0.288574
1519677012390,0.679443,-0.022461,0.239014
1519677012424,0.802734,-0.214355,0.415771
1519677012457,0.873535,0.028076,0.586670
1519677012493,0.605469,-0.123047,0.897705
1519677012520,0.666748,-0.210449,1.119629
1519677012555,0.640381,-0.044922,0.793457
1519677012573,0.713867,-0.160889,0.771973
1519677012606,0.657227,-0.104004,0.595215
1519677012639,0.473633,-0.082764,0.497559
1519677012675,0.762451,-0.177734,1.000732
1519677012703,0.531982,-0.115723,0.884033
1519677012738,0.951904,-0.228027,0.865479
1519677012771,0.677246,0.045410,0.789795
1519677012805,0.667236,0.111816,0.662109
1519677012840,0.624023,-0.272705,0.633545
1519677012874,0.504150,-0.201416,0.683594
1519677012892,0.805176,-0.114502,1.392090
1519677012938,0.544922,0.196289,1.018555
1519677012972,0.920898,0.032227,0.822266
1519677012989,0.432617,-0.111572,0.465088
1519677013039,0.905029,0.092041,1.027588
1519677013056,0.401123,-0.125244,0.780273
1519677013090,0.643799,-0.145752,0.449219
1519677013136,0.549561,-0.125000,0.500732
1519677013154,1.038818,-0.063477,1.128174
1519677013187,0.515625,-0.214111,0.024170
1519677013222,0.701904,-0.163818,0.812256
1519677013256,0.637207,0.001465,0.586182
1519677013290,0.630615,0.042969,0.906982
1519677013319,0.533691,-0.154541,0.756592
1519677013353,0.481689,-0.020508,0.709717
1519677013388,0.903320,-0.181885,0.300049
1519677013429,0.581787,-0.082520,0.162354
1519677013456,0.932373,-0.200439,0.734619
1519677013473,0.599121,-0.134521,0.674316
1519677013518,0.914795,-0.211426,0.731201
1519677013551,0.426270,-0.164551,0.504883
1519677013568,0.913330,-0.214844,0.815186
1519677013619,0.502441,0.016357,0.255859
1519677013656,0.774414,-0.164551,0.923340
1519677013670,0.724121,0.035645,0.710938
1519677013718,0.716309,-0.297852,0.937744
1519677013735,0.520508,-0.224854,0.537354
1519677013769,0.616455,0.126221,1.160156
1519677013804,0.831055,-0.074219,0.909424
1519677013836,0.565674,-0.009277,1.131592
1519677013870,0.879639,0.085449,0.574951
1519677013898,0.444824,-0.094482,0.372559
1519677013934,0.701172,0.015381,1.032959
1519677013966,0.622070,-0.325684,0.447754
1519677014000,0.487305,0.039551,0.853271
1519677014035,0.836426,-0.394287,0.238281
1519677014053,0.495850,-0.183838,0.913574
1519677014099,0.493652,0.078613,0.994629
1519677014134,0.780762,-0.215576,0.971680
1519677014151,0.613770,-0.190186,0.264160
1519677014201,0.434326,0.069092,0.956299
1519677014218,0.906006,-0.203125,0.187500
1519677014253,0.524414,-0.055420,0.617676
1519677014286,0.432617,0.211182,1.014648
1519677014314,1.231445,-0.676270,-0.953125
1519677014349,0.791016,-0.649902,1.409424
1519677014385,0.335693,0.286865,0.253662
1519677014418,0.860107,-0.087891,0.220703
1519677014452,0.918457,-1.222412,-1.082764
1519677014485,-0.264404,0.522949,0.633545
1519677014514,1.201416,-0.012207,2.102295
1519677014549,-0.149658,-0.252930,-0.594971
1519677014581,0.815674,0.000488,0.917236
1519677014616,0.775146,0.049805,1.586426
1519677014634,0.209717,-0.259766,0.053467
1519677014684,0.770264,-0.335449,-0.702637
1519677014712,0.583008,0.257324,1.296875
1519677014730,1.089600,0.073730,1.267578
1519677014783,0.584473,-0.185547,0.943359
1519677014800,0.858398,-0.029297,0.946533
1519677014834,0.246582,0.211914,0.418945
1519677014868,0.316895,-0.382813,1.093018
1519677014896,0.734131,-0.390381,0.712158
1519677014937,0.617676,-0.164307,0.593750
1519677014964,0.455078,-0.142822,0.625244
1519677014998,0.782227,-0.043457,0.988281
1519677015031,0.944580,-0.311523,0.444580
1519677015065,0.204346,0.019287,0.624512
1519677015093,0.906982,0.121094,1.242432
1519677015129,0.680664,-0.034912,0.496094
1519677015164,0.763916,-0.106445,0.494385
1519677015198,0.565186,-0.131836,0.761230
1519677015216,1.055908,-0.004150,1.146484
1519677015250,1.054199,-0.482178,-0.326416
1519677015283,0.686768,-0.464355,0.654785
1519677015311,0.470459,0.263184,1.154785
1519677015346,0.927246,-0.272217,0.861084
1519677015383,0.460205,-0.113037,0.686768
1519677015417,0.966064,-0.111816,0.984375
1519677015448,0.877930,0.102783,0.867676
1519677015481,0.730713,-0.008789,0.555908
1519677015510,0.736084,-0.221191,0.903809
1519677015543,0.524170,0.015137,0.654541
1519677015590,0.974121,-0.152832,1.275391
1519677015596,0.597656,-0.099365,0.363525
1519677015645,0.556396,-0.052979,0.836670
1519677015663,0.923340,-0.051514,0.093262
1519677015692,0.611816,-0.252686,0.585693
1519677015787,0.658936,0.202148,1.513184
1519677015851,0.782227,-0.058350,0.817383
1519677015856,0.562500,-0.031006,0.121582
1519677015918,0.469482,-0.028320,0.781738
1519677015927,0.768799,-0.152344,0.776367
1519677015985,0.551514,-0.188477,0.690918
1519677015988,0.628174,-0.061279,1.072021
1519677016053,0.543213,-0.191650,0.459717
1519677016058,0.746094,0.094482,1.239990
1519677016122,0.566162,0.120361,0.408691
1519677016130,0.837158,-0.051514,1.514160
1519677016188,0.695068,-0.004639,0.206299
1519677016254,1.260742,0.286865,2.327148
1519677016263,0.398926,-0.051514,-0.788330
1519677016283,0.550537,-0.101807,1.388184
1519677016289,0.602783,-0.151611,1.410645
1519677016294,0.871826,-0.140625,0.913818
1519677016299,0.520996,-0.176514,0.065430
1519677016323,0.416992,-0.110840,0.886719
1519677016341,1.314697,-0.711670,-0.097900
1519677016377,0.217529,-0.254639,0.088135
1519677016410,0.137451,0.076172,1.108154
1519677016443,1.238770,-0.571045,1.161865
1519677016478,0.309814,0.015869,0.681641
1519677016506,0.805908,-0.229980,0.982666
1519677016539,0.603027,-0.016602,0.701904
1519677016575,0.714111,-0.093750,0.327393
1519677016610,0.768799,-0.067139,0.936035
1519677016642,0.662354,0.066650,1.113770
1519677016660,0.824951,-0.106689,0.378174
1519677016704,0.403564,0.018799,1.175049
1519677016741,0.659180,-0.238281,-0.334229
1519677016759,0.560059,0.101807,1.484131
1519677016808,0.668457,0.013428,1.048096
1519677016826,0.626953,-0.117432,1.194580
1519677016859,0.643311,-0.507813,-0.013184
1519677016904,0.621094,-0.324707,0.601318
1519677016922,0.846924,-0.376221,0.290283
1519677016956,0.807617,-0.221191,0.950439
1519677016989,0.495605,-0.314453,0.047363
1519677017025,0.353516,-0.086670,1.192871
1519677017176,0.937988,-0.458984,0.774414
1519677017178,0.587891,-0.067139,0.190674
1519677017178,0.544189,0.161133,0.908691
1519677017179,0.987549,-0.354004,0.448486
1519677017188,0.803223,-0.176514,0.635986
1519677017224,0.548584,-0.097656,0.668213
1519677017241,0.835938,-0.379150,0.795898
1519677017286,1.031982,-0.495361,-0.099121
1519677017321,0.440918,-0.001953,0.930908
1519677017337,0.815430,-0.232910,0.465088
1519677017388,0.622314,-0.175537,0.704102
1519677017405,0.788330,-0.245850,0.920898
1519677017439,0.717285,0.016602,0.943115
1519677017496,0.682861,-0.067627,0.691650
1519677017502,0.613770,-0.054199,1.024414
1519677017536,0.506104,0.136230,1.319092
1519677017572,0.620850,-0.025635,1.220459
1519677017606,0.715332,0.026855,1.124268
1519677017640,0.679443,-0.100342,-0.297607
1519677017673,0.455811,-0.201416,0.000488
1519677017701,0.853271,-0.020996,1.400635
1519677017736,0.359619,-0.019043,1.180908
1519677017771,1.065430,-0.064941,2.251709
1519677017806,0.567627,-0.277100,0.096436
1519677017822,0.771240,0.310547,1.061035
1519677017855,0.728516,-0.038574,0.769531
1519677017900,0.636475,-0.532715,0.604736
1519677017917,0.366943,0.156006,0.997559
1519677017951,0.708252,-0.229980,1.832275
1519677017986,0.603760,-0.264648,-0.279785
1519677018019,0.598877,-0.154785,1.337891
1519677018056,0.524658,0.036377,1.154053
1519677018083,1.100830,0.011230,0.488281
1519677018119,0.670410,-0.575195,-0.419189
1519677018151,0.514160,0.085938,1.069092
1519677018185,0.761230,-0.352051,0.163086
1519677018220,0.841553,-0.220947,0.703857
1519677018254,0.827637,-0.370850,0.488281
1519677018271,0.482910,-0.092529,0.723877
1519677018300,0.937500,-0.269287,0.766846
1519677018350,0.627686,-0.175293,0.480713
1519677018367,0.736816,-0.197510,0.718262
1519677018401,0.535645,-0.145996,1.205322
1519677018434,1.031250,-0.154785,1.342041
1519677018469,0.334473,0.169678,0.676025
1519677018499,1.145752,0.139893,1.000977
1519677018533,0.464355,-0.068115,0.308838
1519677018568,0.683350,0.197754,1.262939
1519677018602,0.718750,-0.339355,0.556641
1519677018635,0.831787,-0.024414,0.302002
1519677018670,0.580566,0.079346,0.809326
1519677018697,0.859375,0.007813,1.373535
1519677018731,0.782959,-0.077881,1.089111
1519677018776,0.551270,-0.261475,0.694824
1519677018783,0.575195,-0.211426,0.802002
1519677018833,0.849609,-0.280762,0.106201
1519677018850,0.405029,-0.177734,1.225830
1519677018877,-0.059814,-0.021484,0.511230
1519677018929,0.301025,-0.625488,2.479492
1519677018947,0.833740,-0.033203,0.437500
1519677018981,2.006836,-1.048340,1.070313
1519677019015,-0.447510,0.325195,-0.979980
1519677019050,0.817871,-0.077148,0.545654
1519677019079,0.378662,-0.532227,0.425537
1519677019114,0.139648,-0.328125,1.882324
1519677019148,1.320313,-0.354980,-0.393799
1519677019181,0.419434,-0.253174,1.284668
1519677019215,1.479492,-0.060303,-0.146729
1519677019251,0.721436,-0.305908,1.201660
1519677019267,0.562012,-0.006836,1.631104
1519677019312,0.806396,0.017578,0.350342
1519677019346,0.170166,-0.090576,0.305420
1519677019363,0.730469,-0.200195,1.942871
1519677019416,0.975830,-0.007813,1.244873
1519677019433,0.591553,0.150391,1.207275
1519677019466,0.477051,0.216064,0.006592
1519677019512,1.030762,-0.044678,0.641846
1519677019529,0.823486,-0.272461,1.030029
1519677019561,0.266602,-0.031250,0.488525
1519677019597,0.614502,-0.308105,1.489258
1519677019631,0.300781,-0.227295,0.490234
1519677019667,0.632080,-0.184814,1.433350
1519677019693,0.904297,-0.187988,1.545410
1519677019735,0.377441,0.310791,0.071289
1519677019762,0.610596,0.232422,0.542480
1519677019796,0.623535,-0.455811,0.953125
1519677019830,0.505859,-0.214844,0.882080
1519677019847,0.944092,-0.487061,0.029541
1519677019894,0.346924,-0.020020,0.438477
1519677019928,0.948975,-0.307617,0.381104
1519677019946,0.846680,-0.296631,1.485352
1519677019994,0.555908,0.105957,0.849609
1519677020011,0.639648,0.094971,0.643799
1519677020055,0.869385,-0.301270,0.432129
1519677020091,0.776367,-0.780518,0.466064
1519677020110,0.773682,-0.354736,0.357178
1519677020144,0.658936,-0.074219,1.080322
1519677020178,0.639893,0.152100,1.143555
1519677020211,0.859131,-0.103027,0.792236
1519677020247,0.940918,-0.112793,0.718262
1519677020273,1.082031,-0.337402,0.587402
1519677020309,0.396973,-0.162354,0.974121
1519677020341,0.398193,-0.075928,1.024170
1519677020375,0.492676,0.089600,1.375000
1519677020410,0.772705,0.160889,0.745850
1519677020427,0.730225,0.314697,0.541504
1519677020473,0.686523,0.028809,0.848145
1519677020507,0.768799,-0.114746,0.531250
1519677020533,0.553467,-0.093994,0.339600
1519677020559,0.573242,-0.326660,1.069580
1519677020594,0.784424,-0.381104,0.541748
1519677020629,0.420654,-0.092529,0.896729
1519677020661,0.742188,-0.145752,0.627441
1519677020689,0.434814,-0.122070,0.758057
1519677020724,0.732422,0.080322,0.624023
1519677020789,0.444092,-0.078369,1.169189
1519677020793,0.760742,-0.390137,0.378418
1519677020857,0.701416,-0.337402,0.417480
1519677020923,0.482910,-0.203369,0.904785
1519677020988,0.557861,-0.009521,0.842285
1519677021001,0.705078,-0.186279,0.888672
1519677021055,0.672119,-0.141846,0.748047
1519677021060,0.456787,0.009521,1.121582
1519677021123,0.869629,-0.259033,0.099121
1519677021131,0.663574,-0.095703,0.414795
1519677021190,0.770020,-0.053955,0.882080
1519677021195,0.789551,-0.303467,0.566162
1519677021259,0.513672,-0.141602,0.276123
1519677021271,0.677002,-0.199707,1.041016
1519677021279,0.531982,-0.066650,0.651367
1519677021286,0.699707,-0.094727,1.131836
1519677021294,0.739258,0.047852,1.211182
1519677021305,0.846680,-0.197998,0.421631
1519677021337,0.902588,-0.037109,0.450439
1519677021371,0.629150,-0.163574,0.364502
1519677021389,0.985352,-0.237549,1.301025
1519677021440,0.829102,0.055908,1.267334
1519677021458,0.092285,0.229492,0.018311
1519677021485,0.574707,-0.131592,1.310059
1519677021538,0.851563,-0.184814,0.576660
1519677021555,0.852051,-0.132568,0.914063
1519677021589,0.621094,-0.281982,0.442627
1519677021625,0.877197,-0.110596,0.541260
1519677021658,0.521973,-0.213135,0.447510
1519677021685,0.997314,0.077881,1.275635
1519677021728,0.599854,-0.300781,0.676025
1519677021754,0.462646,-0.027588,0.699463
1519677021789,0.604492,-0.259766,0.392334
1519677021824,0.487793,-0.455566,0.367676
1519677021856,0.357910,-0.174316,0.922363
1519677021885,0.720947,-0.090820,0.945557
1519677021920,1.016602,-0.084961,0.388916
1519677021955,0.820313,-0.210205,1.095215
1519677021973,1.017334,-0.227051,0.805176
1519677022021,0.145020,0.060547,-0.013672
1519677022039,1.063232,-0.444336,0.790527
1519677022067,0.643311,-0.290527,0.617432
1519677022117,0.954346,-0.025391,0.552246
1519677022137,0.539795,-0.156982,0.711182
1519677022170,0.820557,-0.250732,0.731689
1519677022203,1.085693,-0.082275,0.705566
1519677022237,0.709717,0.003906,1.046875
1519677022266,0.436035,-0.072510,0.523193
1519677022299,0.416748,0.059570,0.674072
1519677022336,0.725342,-0.001709,1.065674
1519677022370,0.662598,0.145752,0.460449
1519677022403,0.478027,0.102539,0.684326
1519677022438,0.947998,-0.065918,0.541016
1519677022455,0.667480,-0.023682,0.502686
1519677022510,1.023438,-0.257324,0.538818
1519677022532,0.422363,-0.178223,0.349365
1519677022550,0.685791,-0.088867,1.000244
1519677022616,0.636963,-0.328857,1.354248
1519677022620,0.494141,0.037842,0.175537
1519677022654,0.413818,-0.088623,1.602539
1519677022698,0.994141,-0.115479,0.986816
1519677022716,0.436768,-0.011719,0.455566
1519677022750,0.642090,-0.223877,0.951416
1519677022786,0.652100,-0.023193,0.987793
1519677022819,0.621094,-0.031738,1.029053
1519677022853,0.418457,-0.081787,0.507324
1519677022881,0.970459,-0.178467,0.473145
1519677022915,0.459473,-0.092529,0.597900
1519677022951,1.020264,-0.151367,0.693848
1519677022983,0.772705,-0.264893,0.107910
1519677023017,0.450928,-0.018799,0.932129
1519677023036,0.923340,-0.563232,0.783936
1519677023081,0.622559,-0.131592,0.623535
1519677023114,0.816650,-0.114990,0.424561
1519677023132,0.636230,-0.218262,0.472168
1519677023183,0.379639,0.101318,0.935791
1519677023200,0.934082,-0.092773,0.799805
1519677023234,0.580078,-0.098633,0.607178
1519677023264,0.806152,-0.047119,0.988037
1519677023302,0.510010,0.138184,0.258301
1519677023329,0.935303,-0.192627,0.988037
1519677023364,0.735352,-0.296875,0.465576
1519677023398,0.741455,-0.023438,1.088623
1519677023434,0.611816,-0.072998,0.340576
1519677023461,0.720459,-0.089844,0.965332
1519677023497,0.544678,-0.094238,0.989258
1519677023531,0.969971,-0.155273,0.381104
1519677023565,0.616699,-0.067871,0.878174
1519677023592,0.533203,-0.036377,1.287354
1519677023617,0.748779,0.034912,0.504150
1519677023652,0.504883,0.086426,0.343750
1519677023678,0.539551,-0.124756,0.690430
1519677023712,0.569580,-0.331543,0.946533
1519677023746,0.470459,-0.068359,0.402344
1519677023783,0.821777,-0.215332,0.527100
1519677023816,0.600586,-0.205078,0.541016
1519677023850,0.880371,-0.202637,1.309814
1519677023896,0.678711,-0.285156,-0.138428
1519677023911,0.676025,0.125244,1.023438
1519677023946,0.625244,-0.255615,0.946289
1519677023979,0.240967,-0.055908,0.545898
1519677023998,0.858887,-0.175537,0.898926
1519677024047,0.999756,-0.135986,0.418213
1519677024077,0.614502,0.171631,1.294678
1519677024098,1.059082,0.000000,0.294922
1519677024146,0.341797,-0.018066,0.601563
1519677024163,0.807861,-0.211914,0.701416
1519677024196,0.718262,-0.406982,0.028809
1519677024230,0.540039,0.006348,0.508789
1519677024259,0.420654,-0.200195,0.844482
1519677024294,0.860352,-0.272461,0.270020
1519677024329,0.513428,-0.139893,1.193115
1519677024362,0.987549,-0.043945,0.515869
1519677024396,0.604492,-0.100586,0.966309
1519677024428,0.626221,0.087891,0.410156
1519677024457,0.626465,0.061768,0.891602
1519677024497,0.691650,-0.115967,0.792725
1519677024525,0.660645,-0.134521,0.622070
1519677024561,0.713379,-0.075684,0.901367
1519677024578,0.698486,0.020020,0.840332
1519677024628,0.693359,0.027344,0.755615
1519677024647,0.706055,-0.157471,0.818115
1519677024674,0.365479,-0.089844,0.748535
1519677024724,0.727783,-0.014648,1.079834
1519677024741,0.465576,-0.145508,0.552490
1519677024777,0.708496,-0.024902,1.002197
1519677024812,0.574463,-0.134766,0.124268
1519677024847,0.809326,-0.072266,1.147461
1519677024872,0.826416,-0.353516,0.688232
1519677024907,0.663818,-0.137207,0.354248
1519677024941,1.199463,-0.456055,1.171631
1519677024976,0.333008,-0.151367,0.424805
1519677025011,0.375488,-0.000732,0.813721
1519677025045,0.835449,-0.297119,0.945801
1519677025073,0.646729,-0.196777,0.404297
1519677025107,0.709229,-0.094482,0.677246
1519677025141,1.000000,0.016846,1.037598
1519677025177,0.584717,0.093994,0.206055
1519677025208,0.897949,-0.337158,0.767334
1519677025226,0.562256,-0.419434,0.909424
1519677025254,0.829590,-0.028564,1.248779
1519677025307,0.770752,-0.123779,0.703125
1519677025325,0.602295,0.047852,0.945801
1519677025357,0.539551,-0.073730,0.456787
1519677025392,0.834717,-0.056641,0.710938
1519677025426,0.500000,-0.015381,0.646973
1519677025454,0.589355,-0.204102,1.056885
1519677025490,0.587646,-0.112549,0.676270
1519677025524,0.597656,-0.120117,0.580566
1519677025556,0.820068,-0.090820,0.877197
1519677025590,0.976563,-0.082520,0.737061
1519677025625,0.577393,-0.066406,0.542725
1519677025642,0.580811,-0.219727,0.704834
1519677025688,0.770020,-0.229736,0.837646
1519677025721,0.568115,-0.146729,0.630615
1519677025789,0.707275,-0.229736,1.178711
1519677025797,0.568848,-0.003906,0.599854
1519677025854,0.764648,0.063477,0.939941
1519677025857,0.699463,-0.262207,0.800781
1519677025922,0.391602,-0.071533,0.574219
1519677025928,0.595215,-0.096436,0.851318
1519677025991,0.727295,-0.270508,0.751953
1519677025999,0.540283,-0.158691,0.699463
1519677026058,0.589355,-0.089844,0.535645
1519677026067,0.796143,-0.307129,1.021484
1519677026125,0.717041,-0.233643,0.390625
1519677026128,0.491943,-0.006104,1.088135
1519677026192,0.630859,-0.220459,0.555176
1519677026198,0.540771,-0.345459,0.549805
1519677026260,0.560547,-0.210693,0.628174
1519677026268,0.735107,-0.353760,0.164307
1519677026277,0.631104,-0.072510,0.731445
1519677026286,0.865967,-0.053223,0.533203
1519677026318,0.644287,-0.137207,0.908691
1519677026353,0.763428,-0.159912,0.972412
1519677026388,0.565186,-0.140381,0.692627
1519677026421,0.791260,-0.303955,0.565674
1519677026457,0.679688,-0.106445,0.451904
1519677026485,0.685303,-0.027832,0.597412
1519677026520,0.936768,-0.143311,0.125244
1519677026554,0.779541,-0.272705,0.518799
1519677026587,0.678711,-0.246582,0.846924
1519677026605,0.681641,-0.208984,1.098633
1519677026650,0.736572,-0.022705,0.791016
1519677026684,0.532471,-0.057129,0.554932
1519677026701,0.659668,-0.077148,0.900879
1519677026751,0.916016,-0.301514,1.017578
1519677026770,0.596680,-0.185547,0.798096
1519677026803,0.649902,0.027832,0.486572
1519677026838,0.666016,-0.133545,0.980957
1519677026866,0.544922,-0.210938,0.279297
1519677026901,0.633301,-0.221436,0.824463
1519677026934,0.590820,0.101563,0.924316
1519677026967,0.706055,-0.178467,0.908691
1519677027002,0.398438,0.031738,0.484863
1519677027035,0.624268,-0.183594,0.583008
1519677027063,0.695313,-0.206787,0.672607
1519677027098,0.558594,-0.170654,0.885986
1519677027132,0.660400,-0.107666,1.222412
1519677027168,0.730957,-0.271729,0.386475
1519677027186,0.469727,-0.395020,0.182129
1519677027235,0.440918,-0.198730,0.765625
1519677027268,0.880859,-0.250977,0.598877
1519677027281,0.585693,-0.166016,0.635742
1519677027333,0.699951,-0.164795,1.138916
1519677027351,0.612549,-0.263428,0.581543
1519677027384,0.508789,-0.101563,1.025635
1519677027418,0.623535,-0.046631,0.969238
1519677027446,0.864990,-0.181396,0.379639
1519677027481,0.654053,-0.260986,0.745850
1519677027516,0.647705,-0.049561,0.861572
1519677027550,0.767822,-0.174316,0.678711
1519677027593,0.497070,-0.250000,0.308594
1519677027617,0.648682,-0.110596,0.719482
1519677027647,0.811279,-0.112793,0.744385
1519677027680,0.675049,-0.065674,0.780273
1519677027736,0.757568,-0.185547,1.021240
1519677027747,0.806152,-0.004150,0.451660
1519677027764,0.532959,-0.091553,0.555908
1519677027817,0.775391,-0.311279,1.040039
1519677027834,0.623779,-0.116455,0.377686
1519677027861,0.548828,-0.219238,0.783203
1519677027914,0.687988,-0.055664,1.126465
1519677027931,0.738281,-0.070557,0.683105
1519677027965,0.646240,-0.008789,0.853271
1519677027999,0.763428,-0.133789,0.794678
1519677028032,0.533936,-0.220703,0.531494
1519677028062,0.672607,-0.077393,0.739502
1519677028095,0.679688,-0.193115,0.612061
1519677028129,0.784424,-0.157959,0.783691
1519677028166,0.597412,-0.196045,0.974365
1519677028197,0.772949,-0.171631,0.713623
1519677028231,0.832520,-0.204346,0.718506
1519677028260,0.479004,-0.257080,0.694824
1519677028297,0.662354,-0.161133,0.508789
1519677028330,0.662598,-0.250977,0.608398
1519677028347,0.701416,-0.065674,0.433838
1519677028398,0.756592,-0.281982,0.599854
1519677028414,0.532227,-0.072266,0.435059
1519677028443,1.003174,-0.474121,0.682373
1519677028494,0.614014,-0.314209,0.583008
1519677028513,0.610107,-0.036377,0.700684
1519677028545,0.692383,-0.256104,0.460449
1519677028579,0.567383,-0.158203,0.759521
1519677028612,0.631592,-0.099609,0.561279
1519677028641,0.755127,-0.387207,0.579590
1519677028676,0.662109,-0.196289,0.500732
1519677028709,0.835693,-0.359375,0.542725
1519677028743,0.635498,-0.392578,0.586182
1519677028779,0.719482,-0.281006,0.748047
1519677028813,0.646973,-0.149170,0.612549
1519677028831,0.696777,-0.346680,0.508057
1519677028874,0.737305,-0.120361,0.556885
1519677028892,0.927002,-0.210449,0.556152
1519677028927,0.461670,-0.232666,0.653564
1519677028961,0.736572,-0.086182,0.627197
1519677029016,0.715088,-0.263428,0.540771
1519677029028,0.843994,-0.416504,0.840088
1519677029056,0.717773,-0.112305,0.710205
1519677029090,0.541016,-0.133789,0.486572
1519677029125,0.700684,-0.421387,0.676758
1519677029160,0.443359,-0.202393,0.561279
1519677029194,0.989746,-0.236816,0.607178
1519677029211,0.550049,-0.106445,0.626953
1519677029258,0.805420,-0.165039,0.705322
1519677029289,0.651611,-0.423096,0.461426
1519677029308,0.777100,-0.272217,0.747559
1519677029358,0.812988,-0.140381,0.879639
1519677029376,0.520508,-0.217041,0.333008
1519677029410,0.781494,-0.262695,0.924316
1519677029455,0.559570,-0.165771,0.603027
1519677029472,0.905273,-0.174805,0.614014
1519677029507,0.408691,-0.143555,0.945313
1519677029540,0.885986,-0.180420,0.483154
1519677029576,0.581543,-0.418213,0.774902
1519677029619,0.730225,-0.208740,0.516113
1519677029637,0.724609,-0.335449,0.677246
1519677029670,0.511230,-0.103760,0.678467
1519677029713,0.931396,-0.257813,0.802979
1519677029739,0.535156,-0.182617,0.817139
1519677029773,0.811768,-0.185303,0.519775
1519677029791,0.648926,-0.291016,0.938232
1519677029836,0.648438,-0.106201,0.565186
1519677029871,0.595703,-0.243408,0.513916
1519677029891,0.688721,-0.229248,0.744141
1519677029939,0.780518,-0.196533,0.778809
1519677029957,0.579102,-0.140137,0.379395
1519677029990,0.997070,-0.403809,0.629883
1519677030026,0.600342,-0.035156,0.554932
1519677030058,0.811523,-0.151855,0.786133
1519677030103,0.722168,-0.281738,0.584717
1519677030121,0.676514,-0.127686,0.665283
1519677030155,0.612061,-0.229980,0.431152
1519677030189,0.638184,-0.262207,0.706543
1519677030224,0.724854,-0.318848,0.784180
1519677030251,0.703613,-0.323486,0.797852
1519677030296,0.751221,-0.266357,0.737549
1519677030320,0.736572,-0.175537,0.688721
1519677030357,0.762207,-0.204102,0.804199
1519677030382,0.603271,-0.135010,0.742432
1519677030424,0.626465,-0.226318,0.530273
1519677030470,0.602295,-0.191162,0.846680
1519677030507,0.718262,-0.238037,0.637207
1519677030520,0.651123,-0.078125,0.811035
1519677030537,0.578613,0.012695,0.457275
1519677030569,0.723633,-0.364258,0.769043
1519677030604,0.562744,-0.198242,0.665283
1519677030631,0.822266,-0.182861,0.835693
1519677030667,0.492432,-0.136719,0.570068
1519677030701,0.677246,-0.298096,0.797607
1519677030794,0.628174,-0.310303,0.548584
1519677030796,0.653809,-0.208252,0.907715
1519677030861,0.689453,-0.163574,0.695313
1519677030926,0.587891,-0.218994,0.425049
1519677030929,0.672852,-0.342773,0.874512
1519677030994,0.439209,-0.197021,0.954834
1519677030997,0.740234,-0.248535,0.677002
1519677031061,0.568848,-0.278564,0.686279
1519677031064,0.845215,-0.287842,0.662842
1519677031129,0.555420,-0.120850,0.494385
1519677031131,0.816895,-0.265381,0.416992
1519677031198,0.667725,-0.287598,0.534424
1519677031203,0.629395,-0.325928,0.595703
1519677031261,0.869873,-0.234375,0.948730
1519677031270,0.742188,-0.199707,0.551025
1519677031277,0.770508,-0.169678,0.725342
1519677031280,0.509277,-0.217285,0.845459
1519677031283,0.755859,-0.085693,0.775391
1519677031316,0.724854,-0.183350,0.666504
1519677031353,0.596436,-0.154297,0.492188
1519677031386,0.829834,-0.393555,0.559326
1519677031420,0.586182,-0.093750,0.999756
1519677031448,0.661621,-0.234375,0.820801
