1519426279509,-0.134277,-0.123291,-0.007324
1519426279550,0.265869,-0.687988,0.318848
1519426279582,0.733887,-1.187744,0.322998
1519426279615,1.204590,-2.381104,0.522949
1519426279647,1.726563,-2.965088,0.495605
1519426279679,1.436035,-2.326172,0.320557
1519426279713,0.885254,-1.510986,0.151855
1519426279744,0.417969,-0.550049,-0.052002
1519426279777,0.210205,0.041260,-0.191162
1519426279811,0.046143,0.497314,-0.247803
1519426279843,-0.068848,0.696045,-0.333740
1519426279876,0.103271,0.408447,-0.324463
1519426279910,0.400391,-0.056396,-0.184326
1519426279943,0.654053,-0.358643,0.153320
1519426279974,1.266113,-1.866699,0.513672
1519426280007,1.734375,-2.723389,0.774658
1519426280020,1.572998,-2.132080,0.775391
1519426280081,0.765625,-1.357178,0.466064
1519426280115,0.218506,-0.839844,0.293457
1519426280148,-0.071045,-0.387451,0.344238
1519426280181,-0.244873,-0.046387,0.240479
1519426280215,-0.347900,0.126953,-0.055420
1519426280247,-0.463135,0.288330,-0.214844
1519426280280,-0.311523,0.053223,-0.141846
1519426280313,0.009521,-0.436523,0.067871
1519426280322,0.434814,-0.988037,0.407715
1519426280373,1.524902,-2.642334,0.607666
1519426280376,1.950439,-2.891113,0.513672
1519426280408,1.609131,-2.593750,0.446045
1519426280475,0.944580,-1.570557,0.114746
1519426280490,0.492920,-0.417969,-0.149170
1519426280508,0.288574,0.164063,-0.268799
1519426280542,0.080322,0.492432,-0.214355
1519426280599,0.045898,0.510742,-0.189941
1519426280609,0.100586,0.399414,-0.182373
1519426280662,0.278809,0.157227,-0.152100
1519426280695,0.434082,-0.120361,-0.024414
1519426280727,0.690430,-0.797852,0.228516
1519426280758,1.722412,-3.025146,0.619873
1519426280791,1.782715,-2.482422,0.769043
1519426280794,1.219971,-1.950684,0.515381
1519426280856,0.303223,-0.827637,0.212158
1519426280860,0.078125,-0.400879,0.146729
1519426280890,-0.098389,-0.069824,0.050537
1519426280923,-0.270020,0.010254,0.105957
1519426280981,-0.488037,0.173584,0.074463
1519426281013,-0.483154,0.166260,0.032715
1519426281021,-0.154053,-0.329346,0.162354
1519426281076,0.266357,-0.755615,0.346680
1519426281110,0.761963,-1.812500,0.360840
1519426281141,1.731201,-2.729004,0.374023
1519426281211,1.489990,-2.448242,0.390381
1519426281214,1.292236,-2.159912,0.280518
1519426281279,0.584717,-0.668701,0.029053
1519426281348,0.282471,-0.208252,-0.135254
1519426281413,0.071777,0.329346,-0.149414
1519426281416,0.020508,0.417725,-0.087402
1519426281481,0.179199,0.315430,-0.089111
1519426281483,0.311523,0.166992,-0.122803
1519426281549,0.546875,-0.365234,-0.057373
1519426281554,0.666748,-0.728027,0.110840
1519426281616,1.245850,-1.806641,0.263184
1519426281619,1.337891,-2.392578,0.825439
1519426281686,1.156738,-1.988281,0.722656
1519426281694,0.736816,-1.566895,0.598877
1519426281710,0.074951,-0.622559,0.550293
1519426281715,-0.041260,-0.344238,0.436768
1519426281721,-0.113281,0.034180,0.027832
1519426281727,-0.404541,0.439941,-0.286621
1519426281759,-0.319092,0.196289,-0.185303
1519426281762,-0.057373,-0.134766,0.015869
1519426281818,0.450928,-0.703857,0.449707
1519426281851,0.551025,-1.444824,0.373047
1519426281859,1.168457,-2.711182,0.286133
1519426281908,1.854004,-2.761475,0.272705
1519426281940,1.437744,-2.157715,0.201904
1519426281973,0.815430,-1.160156,-0.009033
1519426282005,0.370117,0.020264,-0.194336
1519426282039,0.240967,0.422852,-0.282715
1519426282073,0.249268,0.519287,-0.350586
1519426282105,0.256104,0.409668,-0.234863
1519426282138,0.231445,0.275879,-0.122314
1519426282151,0.337891,-0.093506,-0.066406
1519426282209,0.362305,-0.267090,0.100342
1519426282217,0.635742,-1.128906,0.009033
1519426282251,1.127197,-2.796631,0.160400
1519426282283,1.320801,-2.091064,0.583252
1519426282315,1.366699,-2.009033,0.364746
1519426282349,0.684570,-1.196289,0.450439
1519426282382,0.048584,-0.693359,0.334961
1519426282415,-0.149414,-0.513916,0.283936
1519426282469,-0.207764,-0.163818,0.096680
1519426282477,-0.409668,0.442383,-0.193359
1519426282502,-0.412109,0.381592,-0.128418
1519426282534,0.018311,-0.208740,0.101318
1519426282567,0.445313,-1.157959,0.286865
1519426282599,0.880127,-1.687744,0.140869
1519426282631,1.378662,-2.858398,0.174316
1519426282663,1.321289,-2.309082,0.206787
1519426282720,1.201660,-2.120361,0.185303
1519426282724,0.844971,-1.251465,0.036377
1519426282780,0.378662,0.151855,-0.083984
1519426282789,0.160400,0.556396,-0.217529
1519426282815,0.126709,0.598389,-0.365234
1519426282872,0.179932,0.468018,-0.330078
1519426282905,0.271973,0.155762,0.036865
1519426282938,0.358887,-0.484375,0.180908
1519426282970,0.318359,-0.603027,0.189697
1519426282983,0.629639,-1.265137,0.228271
1519426283014,1.448975,-3.001709,0.285156
1519426283047,1.406982,-1.787109,0.525391
1519426283079,0.868896,-1.505127,0.384521
1519426283138,0.328857,-1.219238,0.364258
1519426283171,-0.156250,-0.614990,0.367188
1519426283203,-0.299072,-0.251709,0.249023
1519426283215,-0.337891,0.090576,0.022705
1519426283269,-0.390137,0.321045,-0.152100
1519426283302,-0.304199,0.194580,-0.025635
1519426283310,0.019531,-0.398926,0.217041
1519426283358,0.240967,-1.527100,0.363037
1519426283363,0.885010,-2.573242,0.661133
1519426283404,1.603760,-2.565918,0.590088
1519426283462,1.212158,-2.121582,0.264160
1519426283468,0.879395,-1.478027,0.121338
1519426283497,0.538086,-0.656494,0.005859
1519426283529,0.286377,-0.010010,-0.071289
1519426283587,0.143799,0.397705,-0.092773
1519426283597,0.051025,0.633545,-0.112305
1519426283649,0.276855,0.229004,-0.106934
1519426283682,0.634277,-0.443115,-0.069580
1519426283713,0.641113,-0.377686,-0.077148
1519426283747,0.565430,-1.111084,0.258545
1519426283780,1.247070,-2.706299,0.637695
1519426283785,1.275146,-1.941162,0.965820
1519426283825,0.594727,-1.490967,0.614746
1519426283859,0.269531,-1.317139,0.445557
1519426283892,0.005127,-1.124512,0.320068
1519426283926,-0.046143,-0.635986,0.236572
1519426283958,-0.175049,-0.178955,0.173340
1519426283989,-0.371338,0.111816,0.129883
1519426284022,-0.466309,0.304443,0.006104
1519426284054,-0.348877,0.111816,-0.030762
1519426284092,0.000244,-0.397217,0.147217
1519426284118,0.438965,-1.366455,0.243164
1519426284151,0.957520,-2.303467,0.213135
1519426284159,1.313477,-2.685791,0.093750
1519426284219,1.078857,-2.390137,0.054199
1519426284252,0.986572,-2.147705,-0.148193
1519426284261,0.715088,-1.430664,-0.244629
1519426284316,0.373779,0.069580,-0.161865
1519426284350,0.097168,0.546631,-0.125488
1519426284382,0.094727,0.559082,-0.159668
1519426284413,0.277100,0.270264,-0.210449
1519426284445,0.445068,0.005371,-0.142090
1519426284477,0.614014,-0.191650,0.013916
1519426284509,0.677246,-0.543213,0.170166
1519426284548,1.013184,-1.852539,-0.088623
1519426284582,1.209961,-2.728760,0.085205
1519426284595,1.053711,-2.052490,0.545166
1519426284628,0.675293,-1.351074,0.220703
1519426284662,0.218262,-1.097412,0.109619
1519426284694,-0.019043,-0.517090,0.169434
1519426284726,-0.214600,0.015381,0.152588
1519426284759,-0.319336,0.252930,0.006104
1519426284791,-0.483154,0.394531,-0.169678
1519426284824,-0.430664,0.042725,-0.117676
1519426284857,-0.089111,-0.684570,0.151611
1519426284912,0.604492,-1.803711,0.364014
1519426284915,1.519043,-2.969482,0.390381
1519426284945,1.727783,-2.923828,0.220703
1519426284978,1.153076,-2.099609,0.252441
1519426285027,0.663330,-1.077393,0.075439
1519426285059,0.328857,-0.151123,-0.002930
1519426285092,0.031982,0.354736,-0.100830
1519426285124,0.024170,0.558350,-0.209473
1519426285159,0.073975,0.591797,-0.265381
1519426285193,0.353760,0.293457,-0.296875
1519426285226,0.512695,-0.183105,-0.197266
1519426285258,0.561035,-0.573486,0.105713
1519426285289,1.088135,-2.744385,0.104736
1519426285322,1.048828,-2.497070,0.484863
1519426285325,1.089844,-2.275635,0.704834
1519426285355,0.612549,-1.339355,0.296143
1519426285413,0.221436,-0.854492,0.106445
1519426285419,-0.042725,-0.567871,0.076172
1519426285477,-0.188965,-0.067139,0.023193
1519426285510,-0.285645,0.267334,-0.062012
1519426285545,-0.397217,0.326416,-0.101563
1519426285578,-0.301025,-0.055420,0.016113
1519426285584,-0.012695,-0.570068,0.134033
1519426285642,0.455566,-1.306885,0.304932
1519426285673,1.658203,-2.923340,0.381592
1519426285705,1.704590,-2.472656,0.116455
1519426285709,1.315674,-2.268799,0.011963
1519426285765,0.789307,-1.658203,-0.108887
1519426285771,0.446289,-0.825195,-0.111328
1519426285804,0.166016,-0.036133,-0.100830
1519426285862,-0.044189,0.459961,-0.174316
1519426285872,-0.045166,0.565186,-0.209717
1519426285925,-0.008545,0.575928,-0.164063
1519426285959,0.140137,0.269531,-0.075684
1519426285995,0.378418,-0.201904,0.092285
1519426286022,0.677734,-0.703613,0.230469
1519426286054,1.454590,-2.922363,-0.181396
1519426286088,0.996582,-2.200684,0.436035
1519426286124,1.273682,-2.213135,0.593018
1519426286197,0.976074,-1.520020,0.161621
1519426286206,0.371826,-0.827148,0.160400
1519426286266,-0.087402,-0.495361,0.070068
1519426286275,-0.267334,-0.324219,-0.060303
1519426286332,-0.329834,0.053955,-0.045898
1519426286341,-0.340332,0.197754,-0.023926
1519426286399,-0.299072,0.035156,0.253662
1519426286404,-0.173584,-0.108887,0.422119
1519426286466,0.113770,-0.710205,0.298584
1519426286533,0.930420,-2.162109,-0.120850
1519426286536,1.700928,-2.513428,-0.276855
1519426286602,1.338135,-2.265625,-0.106689
1519426286611,1.035645,-2.196045,-0.057861
1519426286670,0.666504,-1.308594,-0.057861
1519426286679,0.423584,-0.444824,-0.052002
1519426286707,0.260010,0.263184,-0.063965
1519426286715,0.187012,0.479736,-0.043457
1519426286725,0.197266,0.542969,-0.194336
1519426286740,0.259033,0.300049,-0.170410
1519426286772,0.424561,-0.022949,-0.033203
1519426286775,0.614990,-0.397949,0.074951
1519426286831,1.108154,-1.842529,0.045898
1519426286864,1.336426,-2.306885,0.149414
1519426286867,0.769775,-1.626709,0.434082
1519426286922,0.808350,-2.162354,0.570801
1519426286957,0.549072,-1.592285,0.564453
1519426286988,0.318848,-0.861572,0.239746
1519426286999,0.007813,-0.302979,0.066162
1519426287032,-0.139160,-0.105225,0.094482
1519426287067,-0.130127,0.142334,0.132080
1519426287101,-0.197998,0.149170,0.129639
1519426287133,-0.163818,0.000732,0.205566
1519426287165,0.030762,-0.363037,0.268311
1519426287197,0.724121,-1.646729,0.219727
1519426287229,1.871826,-3.015137,0.047119
1519426287262,1.499756,-1.950684,0.160156
1519426287319,1.038574,-1.965088,0.136719
1519426287323,0.621094,-1.334229,-0.079834
1519426287354,0.382324,-0.506592,-0.170654
1519426287412,0.188477,0.138428,-0.144531
1519426287421,0.195313,0.329102,-0.147949
1519426287445,0.185791,0.482422,-0.152588
1519426287503,0.319092,0.313477,0.080322
1519426287534,0.529541,-0.324219,0.343506
1519426287587,0.520508,-0.958740,0.397705
1519426287591,1.044678,-2.677490,0.354736
1519426287621,0.906738,-2.090088,0.514160
1519426287654,0.805420,-1.737061,0.437012
1519426287686,0.354492,-1.363037,0.281494
1519426287720,0.132080,-0.755127,0.339600
1519426287753,0.026855,-0.313965,0.305176
1519426287786,-0.068115,-0.054932,0.142578
1519426287818,-0.165039,0.131104,0.052246
1519426287849,-0.214844,0.249512,-0.028564
1519426287892,-0.130127,-0.023193,0.033447
1519426287901,-0.038330,-0.555176,0.154785
1519426287952,0.126953,-1.430176,0.226318
1519426287984,0.940430,-2.405518,0.237549
1519426287991,1.178223,-2.617676,0.102295
1519426288025,1.082031,-2.581543,0.131836
1519426288083,0.729248,-1.636963,0.035889
1519426288116,0.393555,-0.607178,0.003174
1519426288150,0.156738,0.289795,-0.033936
1519426288182,-0.021729,0.405518,-0.052490
1519426288215,0.023438,0.469482,-0.076416
1519426288248,0.252441,0.177734,-0.202637
1519426288261,0.578857,-0.306396,-0.157715
1519426288292,0.713379,-0.714355,0.145264
1519426288324,1.059570,-1.705322,0.281494
1519426288357,1.320801,-2.560791,0.593506
1519426288390,1.335938,-2.211914,0.561523
1519426288422,0.820313,-1.223877,0.293701
1519426288455,0.168945,-0.656250,0.162842
1519426288490,-0.037354,-0.330811,0.110107
1519426288519,-0.215820,-0.023926,0.035400
1519426288553,-0.246582,-0.019043,-0.044189
1519426288586,-0.215332,-0.012207,-0.012207
1519426288620,-0.238525,0.006836,-0.016357
1519426288651,-0.093018,-0.353516,0.085938
1519426288692,0.181152,-0.892334,0.223633
1519426288701,1.059814,-2.210449,0.292480
1519426288749,2.086914,-3.059814,0.175049
1519426288783,1.589355,-2.392578,0.322510
1519426288788,0.919678,-1.586182,0.144775
1519426288868,0.311279,-0.485352,-0.099854
1519426288877,0.078613,0.254395,-0.184570
1519426288902,-0.078613,0.405518,-0.204834
1519426288934,-0.075928,0.555908,-0.159912
1519426288967,0.062012,0.471924,-0.224121
1519426289003,0.260986,0.223633,-0.295654
1519426289035,0.655273,-0.339355,-0.035645
1519426289067,0.938721,-1.008301,-0.010010
1519426289099,1.530762,-2.561523,0.363037
1519426289132,1.249023,-2.255371,0.599854
1519426289165,1.204346,-2.435059,0.215820
1519426289197,0.535400,-1.552490,0.109619
1519426289231,0.075439,-0.811768,0.041748
1519426289263,-0.035156,-0.295898,0.082764
1519426289295,-0.161621,0.018555,0.113525
1519426289328,-0.161865,0.256836,0.103516
1519426289361,-0.157715,0.093506,0.005371
1519426289392,-0.234619,0.105469,-0.086426
1519426289425,-0.123047,-0.214355,-0.078857
1519426289457,0.213135,-1.113037,0.151855
1519426289471,0.847412,-2.254883,0.146729
1519426289529,1.583008,-2.847168,0.023193
1519426289561,1.422607,-2.647949,0.017090
1519426289567,0.979004,-1.983643,-0.036133
1519426289626,0.419922,-1.020264,-0.183838
1519426289659,0.227051,-0.208740,-0.230713
1519426289691,0.086670,0.411377,-0.214111
1519426289723,0.041992,0.630615,-0.167236
1519426289756,0.048828,0.814697,-0.123535
1519426289764,0.187012,0.519043,-0.221191
1519426289814,0.442871,-0.226074,0.027832
1519426289846,0.795410,-0.880371,0.192627
1519426289852,1.554199,-1.972412,0.042969
1519426289918,1.610840,-2.787354,0.300049
1519426289922,1.357910,-2.019531,0.018311
1519426289955,0.699463,-1.349854,-0.056885
1519426289989,0.129883,-1.114014,0.023438
1519426290021,-0.230225,-0.640137,0.154785
1519426290052,-0.402344,-0.310059,0.138184
1519426290111,-0.405518,0.007568,0.011963
1519426290150,-0.336670,0.239014,0.143066
1519426290155,-0.302246,0.265869,0.105957
1519426290187,-0.093018,-0.083008,0.034424
1519426290220,0.141846,-0.614014,0.047607
1519426290251,0.804199,-1.885986,-0.057373
1519426290292,1.779053,-2.682129,-0.130615
1519426290324,1.425293,-2.793213,0.135742
1519426290357,1.171143,-2.472412,0.101074
1519426290390,0.413086,-0.346924,0.672607
1519426290423,0.456543,-0.415283,0.134521
1519426290455,0.139160,-0.074951,-0.229736
1519426290488,0.051270,0.469971,-0.299072
1519426290521,0.165039,0.463623,-0.298584
1519426290536,0.323730,0.287354,-0.197510
1519426290568,0.530273,-0.315430,0.020996
1519426290601,0.681152,-0.752930,0.132080
1519426290632,1.217529,-1.860352,0.110352
1519426290690,1.542480,-2.257324,0.691406
1519426290722,1.277588,-1.791992,0.541748
1519426290725,0.735840,-1.149658,0.217285
1519426290782,0.079590,-0.702637,0.291504
1519426290815,-0.126221,-0.354248,0.216797
1519426290824,-0.192871,-0.068359,-0.018066
1519426290874,-0.413818,0.342041,-0.183838
1519426290906,-0.466309,0.300293,-0.168701
1519426290917,-0.392090,0.111328,-0.043213
1519426290976,0.135742,-0.540771,0.406250
1519426290985,0.490967,-1.982178,0.271973
1519426291037,1.759766,-3.226807,0.085938
1519426291069,1.784180,-2.645996,0.139160
1519426291083,1.307373,-2.020508,0.119385
1519426291115,0.735596,-1.276367,0.060547
1519426291189,0.265869,-0.146973,0.004150
1519426291193,0.025146,0.335693,-0.082764
1519426291255,-0.090820,0.458496,-0.135010
1519426291260,-0.092285,0.527588,-0.266357
1519426291323,0.054443,0.333496,-0.381592
1519426291325,0.369629,-0.132568,-0.410400
1519426291384,0.603516,-0.572754,0.005615
1519426291387,0.910889,-1.161133,0.349609
1519426291418,1.658203,-2.699463,0.324219
1519426291445,1.548584,-2.423340,0.585938
1519426291515,1.125488,-1.854980,0.420654
1519426291583,0.546387,-1.116211,0.167480
1519426291668,-0.007324,-0.720215,0.025146
1519426291677,-0.083496,-0.132324,0.273682
1519426291748,-0.260010,0.162842,0.104980
1519426291831,-0.451660,0.435791,-0.129150
1519426291889,-0.508545,0.320557,-0.053711
1519426291893,-0.219971,-0.141602,0.064697
1519426291896,0.398438,-0.835693,0.177979
1519426291899,0.934082,-1.571045,0.041748
1519426291903,1.609619,-2.820557,0.326416
1519426291906,1.490479,-2.682617,0.129395
1519426291909,1.199707,-2.295654,0.052979
1519426291913,0.663330,-1.065430,-0.024658
1519426291950,0.139893,0.062744,-0.209473
1519426291953,0.088379,0.017578,-0.265625
1519426291997,0.168213,0.178223,-0.283447
1519426292045,0.150635,0.719971,-0.225342
1519426292058,0.229736,0.662842,0.085205
1519426292079,0.260498,-0.105713,0.096924
1519426292125,0.439453,-0.579346,0.179932
1519426292162,0.820068,-1.123291,0.074219
1519426292211,1.866943,-3.401611,0.011230
1519426292214,1.418945,-2.342529,0.397461
1519426292245,1.087402,-1.876709,0.237793
1519426292278,0.487549,-1.076904,0.200439
1519426292402,-0.032227,-0.281982,0.349365
1519426292403,-0.198975,-0.136475,0.140625
1519426292404,-0.296875,0.305176,-0.077393
1519426292417,-0.392578,0.383301,-0.217041
1519426292424,-0.304443,0.202881,-0.156006
1519426292482,0.035889,-0.225098,0.043945
1519426292515,0.667480,-1.249756,0.423340
1519426292546,1.491455,-2.748291,0.203369
1519426292579,1.799316,-2.799561,0.170654
1519426292611,1.302979,-2.362061,-0.046387
1519426292643,0.828369,-1.760010,-0.017822
1519426292675,0.431152,-0.810303,0.000000
1519426292708,0.108643,0.268799,-0.158936
1519426292741,0.036621,0.529541,-0.220459
1519426292744,0.116699,0.641602,-0.347168
1519426292792,0.366699,0.491211,-0.295166
1519426292849,0.561035,0.133057,-0.180908
1519426292858,0.632324,-0.198975,0.137695
1519426292909,0.770508,-0.929199,0.246582
1519426292918,1.288818,-2.125000,0.151123
1519426292942,1.537598,-2.898438,0.228760
1519426293000,1.044434,-2.120361,0.320801
1519426293009,0.618896,-1.475586,0.144531
1519426293063,0.220703,-0.888916,0.126709
1519426293095,-0.173096,0.144043,0.572266
1519426293129,-0.291016,-0.185059,0.174316
1519426293162,-0.434326,0.492676,-0.188965
1519426293196,-0.344971,0.169434,-0.206787
1519426293209,-0.085449,-0.243164,-0.163330
1519426293241,0.201904,-0.392578,0.055420
1519426293299,0.699463,-2.149170,0.286621
1519426293307,1.645264,-3.438477,0.436279
1519426293331,1.993652,-2.394287,0.241699
1519426293388,1.094482,-1.979736,0.102539
1519426293391,0.503174,-0.981689,0.093018
1519426293423,0.221924,0.199463,-0.067383
1519426293454,0.134521,0.520508,-0.296875
1519426293513,0.143311,0.576904,-0.366943
1519426293546,0.175537,0.531006,-0.397705
1519426293553,0.287354,0.238281,-0.347168
1519426293609,0.330322,-0.155518,-0.037109
1519426293624,0.512451,-0.931885,0.056152
1519426293656,1.540771,-2.975830,0.356689
1519426293714,1.394775,-2.164307,0.616943
1519426293726,1.247803,-2.139648,0.259033
1519426293771,0.502686,-1.499023,0.114014
1519426293803,0.177734,-0.865234,0.125977
1519426293806,-0.001709,-0.209961,0.236816
1519426293872,-0.055908,-0.101563,0.124023
1519426293880,-0.132813,0.062988,-0.064941
1519426293905,-0.261230,0.281738,-0.152832
1519426293964,-0.074219,-0.024902,0.015381
1519426293990,0.239990,-0.556885,0.348389
1519426294021,0.458008,-1.233398,0.213135
1519426294037,1.175049,-2.697266,-0.297119
1519426294093,1.498291,-2.901611,-0.070313
1519426294126,1.282471,-2.411133,-0.104492
1519426294157,0.741943,-1.523193,0.147217
1519426294189,0.436523,-0.370117,0.046387
1519426294222,0.221436,0.264648,-0.187988
1519426294255,0.107910,0.577881,-0.363281
1519426294288,0.121094,0.653320,-0.375732
1519426294295,0.207764,0.524658,-0.291260
1519426294346,0.320068,0.029297,-0.148438
1519426294381,0.509521,-0.288818,0.302246
1519426294389,0.889404,-0.945557,0.247070
1519426294443,2.351074,-3.141602,-0.031738
1519426294475,1.431152,-2.386475,0.516113
1519426294508,1.145264,-2.005371,0.346680
1519426294540,0.310059,-1.040283,0.033447
1519426294572,-0.025879,-0.620117,0.046143
1519426294604,-0.133789,-0.185303,0.183105
1519426294637,-0.266602,0.090820,0.103760
1519426294670,-0.370361,0.161133,-0.082520
1519426294703,-0.279297,0.159668,-0.101318
1519426294737,0.028809,-0.078125,0.167969
1519426294771,0.305176,-0.557861,0.184814
1519426294783,0.897461,-1.800049,-0.019775
1519426294839,1.845215,-3.081299,0.054199
1519426294843,1.566162,-2.666504,0.163330
1519426294885,1.148682,-2.009766,0.084229
1519426294918,0.468994,-0.676514,0.120117
1519426294949,0.232178,-0.124023,-0.072510
1519426294982,0.078857,0.198730,-0.203613
1519426295014,0.103271,0.535400,-0.337158
1519426295047,0.197510,0.625488,-0.415527
1519426295080,0.395508,0.418701,-0.415771
1519426295113,0.490234,-0.060791,0.138916
1519426295145,0.755859,-0.772217,0.282959
1519426295177,1.736084,-2.801270,0.099609
1519426295211,1.565674,-2.164063,0.554932
1519426295244,1.116211,-1.850586,0.223877
1519426295269,0.500488,-1.191162,0.081543
1519426295301,-0.005127,-0.672363,0.103516
1519426295332,-0.160889,-0.108643,0.318115
1519426295364,-0.324707,0.051758,0.293457
1519426295399,-0.523193,0.306885,-0.112061
1519426295430,-0.475342,0.207764,-0.164795
1519426295462,-0.275146,-0.158447,-0.012939
1519426295495,0.285889,-0.857178,0.124756
1519426295528,1.137207,-2.157471,0.160400
1519426295562,2.225342,-3.314209,-0.177979
1519426295594,1.447510,-2.417236,-0.103027
1519426295628,0.975586,-1.816406,-0.146729
1519426295660,0.539063,-0.884277,-0.210938
1519426295701,0.150879,0.152344,-0.083008
1519426295733,-0.015869,0.470215,0.236328
1519426295743,-0.169434,0.563232,0.020508
1519426295793,0.045898,0.548584,-0.239990
1519426295825,0.367432,0.134766,-0.402588
1519426295829,0.695313,-0.440918,-0.282959
1519426295890,0.881104,-0.645020,0.080811
1519426295922,1.281738,-1.873047,-0.012939
1519426295956,1.642090,-3.118408,-0.041016
1519426295987,1.205811,-2.192871,0.480225
1519426295996,0.699463,-1.423340,0.198486
1519426296051,0.167725,-0.997314,0.088379
1519426296083,-0.229248,-0.222900,0.154297
1519426296095,-0.353027,0.202881,0.136230
1519426296195,-0.442139,0.380127,-0.020752
1519426296199,-0.498535,0.361328,-0.093018
1519426296265,-0.341064,0.142578,-0.087646
1519426296273,-0.083984,-0.363770,-0.005127
1519426296333,0.442383,-1.461426,0.260986
1519426296341,1.427979,-3.124023,0.213867
1519426296400,1.829102,-3.148682,0.127441
1519426296408,1.476074,-2.297119,-0.000732
1519426296468,0.969238,-1.394531,-0.140869
1519426296474,0.620361,-0.524658,-0.197510
1519426296533,0.254883,0.238525,-0.119141
1519426296537,0.041748,0.457275,-0.123291
1519426296601,-0.115234,0.575439,-0.143555
1519426296604,-0.056641,0.437744,-0.041260
1519426296670,0.164063,-0.030273,-0.056641
1519426296678,0.420654,-0.558105,-0.053955
1519426296710,0.808838,-1.049072,0.008057
1519426296713,1.462646,-2.631592,-0.161865
1519426296716,1.231445,-2.345215,0.327881
1519426296746,1.084473,-1.916504,0.248535
1519426296780,0.465820,-1.222900,0.172607
1519426296812,0.020752,-1.031738,0.146729
1519426296845,-0.228271,-0.372803,0.101074
1519426296860,-0.259277,-0.053467,0.051514
1519426296899,-0.268799,0.102539,0.039795
1519426296933,-0.295410,0.163574,0.024170
1519426296974,-0.216553,-0.015137,0.060303
1519426297006,0.011963,-0.389648,0.202881
1519426297038,0.501953,-1.221924,0.498779
1519426297071,1.563232,-3.545410,0.309082
1519426297104,1.669189,-2.966064,-0.310059
1519426297138,0.895996,-2.087646,-0.480957
1519426297170,0.530762,-1.381592,-0.375244
1519426297205,0.295898,-0.381836,-0.249023
1519426297236,0.116699,0.459717,-0.056396
1519426297270,-0.000244,0.627930,-0.024658
1519426297282,0.072510,0.575195,0.054443
1519426297331,0.252197,0.225830,0.022705
1519426297372,0.531250,-0.358887,-0.029053
1519426297375,0.654297,-0.479980,-0.011230
1519426297432,0.843506,-1.053223,0.034424
1519426297464,1.237793,-2.561279,-0.182129
1519426297497,1.132813,-2.475098,0.159912
1519426297530,0.834473,-1.914551,0.202637
1519426297541,0.319336,-1.312744,0.175293
1519426297573,0.034668,-1.094727,0.197754
1519426297605,-0.143066,-0.531006,0.205322
1519426297663,-0.216553,0.088135,0.122803
1519426297673,-0.380127,0.397949,0.013428
1519426297729,-0.538330,0.425537,-0.054932
1519426297743,-0.430664,0.078857,-0.029297
1519426297777,-0.169189,-0.666504,0.141357
1519426297829,0.530029,-2.133789,0.186523
1519426297862,1.515625,-3.145020,0.006348
1519426297871,1.766846,-2.833008,-0.259521
1519426297895,1.304199,-2.144287,-0.230469
1519426297928,0.825439,-1.230713,-0.183594
1519426297961,0.441895,-0.310059,-0.111816
1519426297993,0.142334,0.302002,0.016602
1519426298026,0.038086,0.632813,0.364258
1519426298059,-0.081787,0.438721,0.006836
1519426298092,0.104248,0.332520,-0.346924
1519426298123,0.420898,-0.093994,-0.398926
1519426298156,0.625732,-0.430664,-0.122314
1519426298188,1.085938,-1.255615,0.070801
1519426298221,1.690674,-2.838867,0.353516
1519426298255,1.638916,-2.789307,0.573486
1519426298312,0.878662,-1.301025,0.261230
1519426298320,0.305176,-1.013428,0.137939
1519426298348,0.031982,-0.633789,0.331299
1519426298409,-0.284424,-0.260498,0.238037
1519426298417,-0.347900,0.036377,0.204102
1519426298440,-0.406738,0.129150,0.121582
1519426298473,-0.418701,0.086182,-0.075439
1519426298505,-0.140869,-0.414063,-0.105957
1519426298537,0.161133,-0.908447,0.098145
1519426298578,0.673340,-1.697266,-0.160889
1519426298611,1.696045,-2.503418,-0.142822
1519426298647,2.113281,-2.894775,0.341797
1519426298681,1.572754,-2.280029,0.203613
1519426298712,0.820313,-1.037109,0.123047
1519426298745,0.253662,0.306641,0.300293
1519426298778,-0.135742,0.597656,0.083252
1519426298812,-0.175293,0.603271,-0.193359
1519426298821,-0.209473,0.345947,-0.340576
1519426298876,0.343506,-0.143066,-0.469727
1519426298908,0.614258,-0.363770,-0.338135
1519426298939,0.609619,-0.010498,-0.057617
1519426298971,1.062256,-1.217773,-0.055908
1519426299004,1.694824,-2.934570,0.156006
1519426299036,1.694580,-2.262207,0.756836
1519426299068,0.993896,-1.457275,0.446045
1519426299107,0.412354,-1.423096,0.262207
1519426299140,-0.181152,-0.738281,0.228027
1519426299147,-0.376709,-0.329346,-0.031738
1519426299205,-0.454834,0.117920,0.005127
1519426299237,-0.484863,0.320068,0.011230
1519426299269,-0.448242,0.352539,-0.104492
1519426299301,-0.098145,-0.094482,-0.096191
1519426299304,0.369629,-0.887207,0.276855
1519426299360,1.539063,-2.395020,0.301025
1519426299373,2.074463,-2.464355,-0.148682
1519426299406,1.736084,-2.400879,-0.116455
1519426299438,1.108398,-1.767334,0.188965
1519426299471,0.695557,-0.896729,0.051025
1519426299505,0.447266,-0.027100,0.134766
1519426299540,-0.112061,0.194092,0.302246
1519426299577,-0.270508,0.478516,-0.190918
1519426299613,-0.182129,0.592773,-0.486572
1519426299647,0.201904,0.022949,-0.487793
1519426299679,0.484375,-0.506348,-0.155029
1519426299687,0.910400,-1.075684,0.010254
1519426299739,1.993408,-2.469238,0.320068
1519426299772,1.661377,-1.937500,0.828125
1519426299778,1.335449,-1.702148,0.612305
1519426299837,0.424316,-0.750977,0.390137
1519426299870,-0.004883,-0.865234,0.217041
1519426299903,-0.248779,-0.377930,0.064209
1519426299935,-0.335693,0.260254,0.013184
1519426299968,-0.438232,0.299072,0.036621
1519426300000,-0.399902,0.110596,-0.074463
1519426300033,0.024902,-0.568604,-0.046143
1519426300064,0.536133,-1.117432,0.234863
1519426300095,1.392334,-2.134766,-0.487305
1519426300128,1.503662,-2.355957,0.011963
1519426300161,1.234619,-1.999756,0.064941
1519426300178,1.025879,-1.925537,0.115234
1519426300234,0.531250,-0.989746,-0.185547
1519426300269,0.202393,-0.137695,-0.274170
1519426300277,0.007324,0.279541,-0.312744
1519426300326,-0.174561,0.650146,-0.317383
1519426300358,-0.097412,0.589844,-0.321289
1519426300368,0.144043,0.317627,-0.270752
1519426300418,0.569336,-0.159424,-0.149414
1519426300451,0.859619,-0.297363,0.311523
1519426300482,1.368164,-1.537842,0.132813
1519426300514,2.286133,-2.395996,0.227295
1519426300545,1.689941,-1.712158,0.230957
1519426300581,0.853027,-1.599365,0.157959
1519426300594,-0.022705,-1.006348,0.278320
1519426300627,-0.317627,-0.382080,0.059326
1519426300687,-0.438721,-0.189209,-0.033203
1519426300718,-0.508057,0.116455,0.038086
1519426300726,-0.402832,0.243652,0.159668
1519426300782,-0.247559,0.075439,0.206543
1519426300816,-0.132813,-0.357422,0.247803
1519426300848,0.258545,-1.486572,0.243164
1519426300852,1.446289,-3.516113,0.367188
1519426300880,2.219238,-2.973877,-0.691162
1519426300914,1.557129,-2.393555,-0.822021
1519426300945,0.867432,-1.077148,-0.587891
1519426300979,0.339111,-0.325928,-0.444824
1519426301012,0.058105,0.233887,-0.162598
1519426301047,-0.007813,0.849365,0.112793
1519426301086,-0.065674,0.604004,0.417480
1519426301118,0.229980,0.204102,-0.119873
1519426301191,0.607666,-0.353760,-0.374268
1519426301199,0.833740,-0.614990,-0.118164
1519426301257,1.147949,-1.497070,0.007324
1519426301260,1.867432,-2.849609,0.151855
1519426301325,1.451172,-1.744629,0.580811
1519426301328,0.880127,-1.176025,0.300537
1519426301396,0.241943,-0.612305,0.592773
1519426301404,-0.039551,-0.667236,0.219238
1519426301462,-0.258789,0.145508,-0.025635
1519426301465,-0.466553,0.453857,-0.093750
1519426301530,-0.698975,0.367676,-0.073242
1519426301535,-0.624023,0.154785,-0.031250
1519426301598,-0.304688,-0.265381,0.149170
1519426301603,0.389404,-1.970215,0.130615
1519426301666,2.088623,-4.086914,-0.871582
1519426301709,2.508301,-3.338623,-0.915283
1519426301713,1.529541,-1.667725,0.012207
1519426301716,1.079102,-1.099365,0.767822
1519426301720,0.291504,-0.090332,-0.017578
1519426301771,-0.105713,0.541748,-0.458496
1519426301805,-0.439941,0.488525,-0.539551
1519426301813,-0.281738,0.687744,-0.504639
1519426301877,0.202637,-0.001465,0.005615
1519426301886,0.652832,-0.561035,0.110107
1519426301910,0.742676,-0.552734,0.241699
1519426301968,1.501953,-1.394043,-0.252441
1519426301977,2.043213,-2.789551,-0.209473
1519426302028,1.630615,-1.619385,0.385498
1519426302061,1.161377,-1.327393,0.218506
1519426302072,0.516113,-0.997803,0.466553
1519426302129,0.119141,-0.891357,0.434326
1519426302136,-0.264648,-0.418945,-0.003906
1519426302195,-0.343506,0.059814,-0.157227
1519426302227,-0.510010,0.416748,-0.046631
1519426302240,-0.548828,0.275635,0.066650
1519426302284,-0.308105,-0.130127,0.159180
1519426302293,0.298340,-1.130127,0.187012
1519426302347,2.093750,-3.197510,-0.152588
1519426302381,1.885742,-2.112793,-0.109131
1519426302385,1.456299,-2.108154,-0.174316
1519426302443,0.936279,-1.550537,-0.159668
1519426302477,0.641602,-0.746338,-0.023438
1519426302490,0.302246,-0.057129,0.026855
1519426302522,0.079102,0.277832,0.453369
1519426302554,-0.101318,0.913818,0.049805
1519426302590,-0.022705,0.660156,-0.426758
1519426302623,0.311768,-0.067871,-0.432617
1519426302660,0.551514,-0.579346,-0.218994
1519426302693,0.782715,-0.562744,0.014648
1519426302725,1.418945,-1.814453,0.219727
1519426302757,1.417725,-1.948975,0.486084
1519426302791,1.360107,-2.057861,0.585449
1519426302823,0.580566,-1.306885,0.443115
1519426302857,-0.004395,-0.881592,0.343506
1519426302890,-0.287598,-0.533447,0.331055
1519426302922,-0.352539,-0.075928,0.097900
1519426302949,-0.472168,0.409424,-0.025635
1519426302982,-0.518066,0.322021,-0.123047
1519426303014,-0.407227,-0.202881,0.001221
1519426303047,0.114502,-0.974609,0.023926
1519426303088,1.555420,-3.068115,0.019531
1519426303119,2.153076,-2.707520,0.078613
1519426303153,1.513672,-2.174805,0.119385
1519426303185,0.923340,-1.517578,0.014160
1519426303219,0.327148,-0.669678,0.021729
1519426303252,0.085449,-0.138184,0.006836
1519426303261,0.019043,0.031250,0.242188
1519426303312,-0.206299,0.734863,0.149658
1519426303343,-0.052490,0.467773,-0.204590
1519426303353,0.233887,0.033203,-0.281006
1519426303405,0.587158,-0.542969,-0.158691
1519426303441,0.641846,-0.099121,-0.073486
1519426303452,1.072266,-0.765137,-0.085693
1519426303509,1.908691,-2.883789,0.180908
1519426303516,1.292725,-2.245850,0.670166
1519426303570,0.982178,-1.467773,0.976807
1519426303602,0.269531,-0.661865,0.710205
1519426303634,-0.012695,-0.411377,0.525879
1519426303671,-0.447754,0.037598,0.114502
1519426303700,-0.505859,0.148682,0.026367
1519426303733,-0.422852,0.186279,0.219482
1519426303767,-0.330566,-0.294922,0.300293
1519426303800,0.063232,-1.116455,0.365479
1519426303831,0.495361,-1.986328,0.128418
1519426303843,1.252686,-2.286133,-0.171143
1519426303888,1.688721,-2.480713,-0.095215
1519426303921,1.624023,-2.251953,0.154053
1519426303929,1.236816,-1.523682,0.083008
1519426303985,0.718994,-0.456787,0.161377
1519426304022,0.171631,0.951416,0.551270
1519426304051,0.068604,0.465088,0.149414
1519426304083,-0.243408,0.552002,-0.220215
1519426304115,0.018799,0.278320,-0.299561
1519426304147,0.455811,-0.174072,-0.217285
1519426304185,0.790039,-0.415527,-0.038574
1519426304230,0.805420,-0.216553,0.333252
1519426304238,1.494629,-1.499023,0.542480
1519426304286,1.856934,-1.964355,0.350586
1519426304289,1.310791,-1.329834,0.543701
1519426304320,0.958496,-1.577881,0.507080
1519426304379,0.204590,-0.760498,0.450439
1519426304382,-0.203125,-0.407227,0.325684
1519426304416,-0.505859,-0.359863,0.195801
1519426304448,-0.720215,-0.148682,0.120605
1519426304504,-0.653320,-0.021973,0.122559
1519426304509,-0.409668,-0.028809,0.134277
1519426304567,-0.182617,-0.118896,0.095703
1519426304600,0.052979,-0.717773,-0.192139
1519426304631,1.177490,-2.479980,-0.415039
1519426304663,1.999268,-2.626953,-0.025635
1519426304680,2.197021,-2.466797,0.388184
1519426304705,1.759277,-1.707031,0.245605
1519426304762,0.760986,-0.631348,0.296875
1519426304798,0.255371,0.001221,0.360352
1519426304807,-0.004150,0.209961,0.135742
1519426304855,-0.257324,0.438232,-0.082031
1519426304888,-0.321289,0.527588,-0.109131
1519426304921,-0.169189,0.423340,-0.090088
1519426304955,0.273926,-0.304688,-0.107910
1519426304964,0.679932,-0.605957,-0.214600
1519426305016,1.201904,-0.569336,-0.102051
1519426305048,2.427002,-3.114746,-0.080811
1519426305081,1.895020,-2.242676,0.576172
1519426305094,1.315186,-1.513428,0.661377
1519426305127,0.315674,-0.839844,0.455322
1519426305161,-0.056396,-0.653564,0.673828
1519426305194,-0.191650,-0.679443,0.303955
1519426305250,-0.795898,-0.164551,0.120117
1519426305284,-0.589844,0.124268,0.133301
1519426305292,-0.612549,0.263428,-0.047607
1519426305342,-0.485840,-0.108643,0.009277
1519426305376,-0.358887,-0.507568,0.089844
1519426305385,0.321045,-1.745850,0.287598
1519426305412,2.486816,-3.118896,-0.040039
1519426305444,1.618652,-2.042480,0.341797
1519426305478,1.363037,-2.289063,0.212402
1519426305508,0.827881,-1.108398,0.079346
1519426305543,0.427490,-0.188232,0.177246
1519426305577,0.089111,0.118652,0.115723
1519426305608,-0.118164,0.314941,0.008057
1519426305666,-0.234131,0.597656,-0.094727
1519426305700,-0.075439,0.360840,-0.270264
1519426305709,0.426514,-0.518799,-0.150635
1519426305767,0.900391,-0.697021,-0.002441
1519426305775,1.533691,-1.054199,-0.089111
1519426305823,2.032471,-2.315918,0.191162
1519426305827,1.732910,-1.667725,1.220947
1519426305883,1.223633,-1.446777,0.715088
1519426305896,0.400391,-0.749268,0.536133
1519426305930,0.003174,-0.536377,0.323730
1519426305962,-0.629639,-0.116211,0.187256
1519426305996,-0.752441,-0.090820,-0.037109
1519426306028,-0.789551,-0.150146,-0.000977
1519426306062,-0.545898,-0.239258,0.063477
1519426306093,-0.198975,-0.602783,0.157715
1519426306124,0.228027,-0.951904,0.298828
1519426306200,1.078613,-1.896973,0.429443
1519426306203,1.826660,-2.327393,0.072510
1519426306264,1.832031,-2.642090,0.132813
1519426306333,1.296631,-1.818359,0.239746
1519426306337,0.550781,-0.512939,0.259766
1519426306402,0.208496,-0.047363,0.158447
1519426306411,-0.126709,0.711426,0.448242
1519426306469,-0.201660,0.395264,0.040527
1519426306477,-0.211914,0.407227,-0.210205
1519426306535,0.200439,-0.193359,-0.155518
1519426306542,0.770264,-0.683594,0.100586
1519426306602,1.165283,-1.023682,0.013916
1519426306606,1.599365,-2.682129,0.129639
1519426306670,1.424316,-1.859375,1.136230
1519426306675,0.896729,-0.840332,1.046631
1519426306689,0.246094,0.106445,0.981201
1519426306693,0.015625,-0.269287,0.449707
1519426306706,-0.167480,-0.533691,-0.236816
1519426306739,-0.385010,-0.546631,-0.518066
1519426306787,-0.443359,-0.616699,-0.152832
1519426306820,-0.287354,-0.344482,-0.132080
1519426306823,-0.019531,-0.692139,-0.154541
1519426306880,0.463623,-0.591064,0.639160
1519426306912,0.886719,-0.550781,1.292969
1519426306923,1.115723,-2.087646,0.489502
1519426306974,1.117920,-2.413330,-0.496094
1519426307007,0.864746,-1.942871,-0.740967
1519426307040,0.566406,-2.067871,-0.612305
1519426307073,0.254639,-0.032959,-0.062500
1519426307104,0.042480,0.830811,0.183105
1519426307137,0.038330,0.726074,0.312012
1519426307171,0.013672,0.297607,0.035156
1519426307186,0.233398,-0.889160,-0.500732
1519426307243,0.552246,-0.746094,-0.258057
1519426307276,1.098389,-0.629639,0.056396
1519426307285,1.404297,-1.717529,0.170410
1519426307312,1.463867,-2.113770,0.271973
1519426307371,1.111816,-1.394531,0.234131
1519426307375,0.463379,-0.919678,0.121582
1519426307406,0.052246,-0.926270,0.057373
1519426307441,-0.206543,-0.620361,0.062012
1519426307473,-0.358887,-0.211182,0.099609
1519426307505,-0.469238,0.009277,0.120361
1519426307538,-0.411621,0.092773,0.096436
1519426307572,-0.291016,-0.038330,0.078857
1519426307611,-0.115234,-0.591309,0.061035
1519426307643,0.813477,-1.776611,0.333496
1519426307675,1.959473,-2.780518,-0.115234
1519426307708,1.751953,-2.435303,-0.116211
1519426307740,1.513184,-2.019531,0.360107
1519426307773,0.964600,-1.458984,-0.005615
1519426307806,0.547607,-0.602539,-0.004883
1519426307838,0.109375,0.109863,-0.054199
1519426307871,-0.051758,0.368164,-0.067627
1519426307903,-0.141357,0.418213,0.005859
1519426307935,-0.070557,0.441406,-0.086670
1519426307968,0.211914,-0.012695,-0.086426
1519426307982,0.524658,-0.425049,-0.017822
1519426308014,1.166748,-0.999512,-0.058105
1519426308067,1.848145,-1.989502,-0.039063
1519426308100,1.924561,-2.279541,0.468262
1519426308132,1.416016,-1.564697,0.349365
1519426308164,0.618408,-1.026123,0.297607
1519426308197,-0.055176,-0.996094,0.157715
1519426308229,-0.465576,-0.422119,0.431641
1519426308262,-0.638428,-0.238525,0.338135
1519426308268,-0.462158,-0.125488,0.110596
1519426308324,-0.193359,0.026367,0.080078
1519426308357,0.039551,-0.100342,0.088135
1519426308362,0.157471,-0.469727,0.022949
1519426308422,1.127686,-1.606934,0.125244
1519426308455,2.101318,-2.434082,-0.168701
1519426308487,1.976318,-2.522705,-0.250244
1519426308493,1.276855,-1.902100,0.134033
1519426308540,0.694336,-1.064941,0.095947
1519426308572,0.350098,-0.385010,0.085693
1519426308604,-0.030518,0.295410,0.008789
1519426308638,-0.317139,0.528564,-0.126953
1519426308670,-0.439941,0.599365,-0.208740
1519426308703,-0.291504,0.403076,-0.374512
1519426308737,0.095703,0.007080,-0.311523
1519426308769,0.869629,-1.283936,-0.242188
1519426308801,2.855225,-2.186768,-0.428223
1519426308814,2.199707,-1.724854,1.061279
1519426308849,1.752441,-1.819336,0.382080
1519426308880,0.737061,-1.038330,-0.057373
1519426308914,0.029053,-0.581055,0.020996
1519426308946,-0.109131,-0.526123,-0.006104
1519426308979,-0.379883,0.011230,-0.164307
1519426309037,-0.390137,0.205811,-0.203857
1519426309069,-0.473877,0.281006,-0.049805
1519426309101,-0.107910,-0.063965,0.682617
1519426309110,0.206787,-1.039551,0.658936
1519426309164,0.634766,-1.473633,0.126465
1519426309200,2.003174,-2.907715,-0.126465
1519426309209,1.814697,-2.813477,-0.147705
1519426309244,1.428955,-1.979004,0.110840
1519426309303,0.714111,-0.773926,-0.014160
1519426309307,0.323975,0.175049,0.062744
1519426309351,-0.030273,0.570801,0.022217
1519426309382,-0.320313,0.641602,-0.094971
1519426309415,-0.301758,0.530762,-0.176758
1519426309447,-0.032227,0.294434,-0.217285
1519426309479,0.555664,-0.386230,-0.012695
1519426309511,1.461182,-1.549316,-0.049805
1519426309543,2.438232,-2.021973,-0.082275
1519426309574,1.892822,-2.090332,0.538818
1519426309607,1.216064,-1.507813,0.429688
1519426309648,0.390869,-0.852051,0.373047
1519426309682,0.010010,-0.672119,0.410645
1519426309690,-0.226074,-0.559570,0.241455
1519426309745,-0.386719,-0.280029,0.174072
1519426309779,-0.143799,0.049805,0.120361
1519426309812,-0.170166,0.137939,0.005127
1519426309821,-0.221680,0.298828,0.093994
1519426309869,-0.052490,-0.503662,0.101074
1519426309878,0.848633,-2.283203,-0.066895
1519426309905,2.283691,-3.062500,-0.531738
1519426309963,1.684326,-2.006836,-0.275391
1519426309995,1.329834,-1.670166,-0.157227
1519426310027,0.810059,-1.263916,-0.015137
1519426310042,0.375244,-0.271973,0.100342
1519426310100,0.036133,0.188232,0.154541
1519426310109,-0.091553,0.459229,0.072754
1519426310165,-0.186768,0.590820,-0.035400
1519426310173,0.135010,0.459473,-0.115723
1519426310212,0.711914,-0.063965,-0.074951
1519426310245,1.765625,-1.612549,-0.216553
1519426310275,1.902344,-1.685547,-0.147949
1519426310308,1.342773,-1.662598,0.081543
1519426310341,0.940674,-1.722412,-0.356934
1519426310373,0.445068,-1.195313,-0.202393
1519426310407,-0.037354,-1.194580,-0.105469
1519426310440,-0.189697,-0.722168,0.033691
1519426310482,-0.254395,-0.321045,0.111084
1519426310492,-0.291260,-0.050781,0.145996
1519426310544,-0.377441,0.233887,0.030518
1519426310579,-0.385254,0.328125,0.022461
1519426310629,-0.209717,-0.075684,0.112793
1519426310635,0.583008,-1.429932,0.222900
1519426310661,2.407471,-3.329590,-0.105225
1519426310694,2.235596,-2.440918,0.022461
1519426310727,1.729248,-2.346191,-0.357422
1519426310759,1.082520,-1.351563,-0.420166
1519426310792,0.519775,-0.532715,-0.326416
1519426310825,0.073486,0.209717,-0.090576
1519426310858,-0.256104,0.452393,0.160156
1519426310872,-0.248535,0.534668,0.119873
1519426310932,-0.329834,0.658447,0.003174
1519426310940,-0.023926,0.254395,-0.101074
1519426310993,0.454834,-0.471680,-0.141846
1519426311028,1.157959,-1.063965,0.034424
1519426311058,1.876465,-1.855713,-0.099854
1519426311091,2.027344,-2.368652,-0.103271
1519426311123,1.455078,-1.837646,-0.021729
1519426311198,0.680908,-1.155029,0.035889
1519426311206,0.183594,-0.995117,-0.003906
1519426311263,-0.137207,-0.693848,0.139648
1519426311332,-0.294189,-0.276123,0.265381
1519426311380,-0.474365,0.048828,0.424316
1519426311386,-0.544189,0.423584,0.114014
1519426311389,-0.517822,0.378662,0.007813
1519426311392,-0.351563,-0.058105,0.003662
1519426311445,0.663574,-2.095215,0.078857
1519426311449,2.283447,-3.285400,-0.068604
1519426311452,2.039551,-1.857178,-0.102295
1519426311484,1.462891,-2.154785,-0.405273
1519426311557,0.891357,-1.438721,-0.068848
1519426311560,0.516113,-0.768555,0.191162
1519426311625,0.080322,0.322510,0.533203
1519426311630,0.042969,0.351807,0.160400
1519426311819,-0.123047,0.883789,-0.204590
1519426311822,0.085449,0.572266,-0.368896
1519426311867,0.437256,0.066406,-0.436035
1519426311869,0.800049,-0.494629,-0.241943
1519426311875,1.655029,-1.622070,-0.235107
1519426311877,1.750488,-2.342529,0.342529
1519426311879,1.570068,-1.955811,0.496094
1519426311882,0.888184,-1.344971,0.083008
1519426311907,0.330811,-1.487793,0.150879
1519426311957,-0.094482,-1.141602,0.236084
1519426312004,-0.379639,-0.461182,0.057373
1519426312010,-0.409668,-0.014893,0.084473
1519426312041,-0.420654,0.321777,0.041748
1519426312088,-0.398438,0.218994,-0.121582
1519426312123,-0.207764,-0.637939,-0.095459
1519426312170,0.267578,-0.743896,0.338623
1519426312172,1.687744,-1.419434,1.004150
1519426312251,2.144775,-2.424561,0.588379
1519426312255,1.776855,-2.587158,0.458984
1519426312287,1.233643,-1.773682,0.355225
1519426312296,0.605713,-0.845459,0.218262
1519426312328,0.209229,-0.195557,0.081055
1519426312385,-0.124756,0.254395,0.009766
1519426312395,-0.221436,0.510498,-0.076660
1519426312419,-0.166016,0.577148,-0.170654
1519426312453,0.101318,0.282959,-0.188232
1519426312514,0.489746,-0.155518,-0.122559
1519426312516,0.844727,-0.561523,0.167725
1519426312569,1.415039,-1.270264,0.431885
1519426312623,1.715820,-3.007813,0.291504
1519426312690,1.476563,-2.373291,0.355469
1519426312693,0.932373,-1.407227,-0.049805
1519426312696,0.402588,-0.989746,-0.079102
1519426312750,0.054688,-0.606201,-0.039307
1519426312755,-0.253174,-0.180908,0.005371
1519426312789,-0.428467,0.150146,-0.017578
1519426312805,-0.556152,0.353271,-0.051270
1519426312859,-0.463623,0.019775,0.090088
1519426312865,-0.201172,-0.708984,0.226318
1519426312922,-0.133301,-1.119629,-0.050537
1519426312954,0.683594,-2.309326,0.210938
1519426313000,1.671631,-2.804443,0.091553
1519426313003,1.949463,-2.854248,-0.058594
1519426313035,1.529785,-2.040039,-0.005371
1519426313083,0.800293,-0.574951,0.255859
1519426313096,0.273193,0.285400,0.273682
1519426313162,0.055420,0.175049,-0.041260
1519426313165,-0.089844,0.293213,-0.138428
1519426313247,-0.100342,0.463379,-0.252686
1519426313250,0.320068,0.257568,-0.379639
1519426313253,0.615967,-0.249756,-0.177734
1519426313304,0.644287,-0.389404,0.022461
1519426313408,0.994629,-1.577148,-0.043701
1519426313411,1.513184,-3.228516,0.267334
1519426313413,1.200928,-2.127686,0.560303
1519426313416,0.726318,-1.646729,0.250977
1519426313471,0.297119,-1.151855,0.384033
1519426313481,0.164063,-0.643066,0.552246
1519426313531,-0.147461,-0.123047,0.234863
1519426313564,-0.198486,0.068848,-0.068604
1519426313598,-0.109375,0.143066,-0.228271
1519426313629,-0.445068,-0.222412,0.120361
1519426313661,-0.323486,-0.488525,0.194824
1519426313664,-0.086182,-0.660400,0.366943
1519426313720,0.558350,-1.532715,0.434570
1519426313753,1.403076,-2.412354,0.326172
1519426313786,1.914551,-2.627686,-0.115723
1519426313819,1.133057,-1.972900,0.192871
1519426313852,0.676025,-1.171875,0.285645
1519426313884,0.342529,-0.560303,0.118652
1519426313915,-0.136230,0.809082,0.307617
1519426313949,-0.241211,0.214355,-0.186523
1519426313981,-0.339111,0.504395,-0.313232
1519426314012,-0.049072,0.274902,-0.118164
1519426314044,0.416992,-0.166016,0.113037
1519426314080,0.842529,-1.017090,0.148193
1519426314112,1.878662,-2.092041,0.399170
1519426314145,1.712646,-2.536865,0.623291
1519426314178,1.451172,-2.324951,0.324951
1519426314211,0.367920,-1.093994,0.063477
1519426314244,-0.138184,-0.682617,0.053955
1519426314253,-0.238281,-0.538574,0.131836
1519426314303,-0.213379,-0.081055,0.156006
1519426314344,-0.047363,0.080078,-0.033447
1519426314354,-0.257324,0.229248,-0.048096
1519426314401,-0.260742,0.194580,0.035156
1519426314407,-0.087402,-0.392090,0.127197
1519426314467,0.540527,-1.768066,0.244873
1519426314469,1.825195,-2.948730,0.092285
1519426314526,1.436035,-2.777100,-0.134521
1519426314559,0.986328,-2.216064,-0.076172
1519426314592,0.481934,-1.083496,0.040527
1519426314625,0.333496,-0.370850,-0.056152
1519426314657,0.229980,0.123291,-0.069824
1519426314690,0.110596,0.647461,-0.048340
1519426314722,0.154785,0.661621,-0.124756
1519426314731,0.411377,0.401123,-0.293945
1519426314792,0.668457,-0.274658,-0.181641
1519426314795,0.630127,-0.254150,0.250977
1519426314826,1.132324,-1.674316,0.233154
1519426314860,1.615234,-3.271973,0.383545
1519426314892,1.123047,-1.717773,0.519043
1519426314926,0.542969,-1.081299,0.235352
1519426314957,0.048096,-0.977539,0.069092
1519426314992,-0.075195,-0.548828,0.075928
1519426315029,-0.210693,0.121582,0.055908
1519426315061,-0.374756,0.450928,0.021973
1519426315094,-0.529297,0.347900,-0.062256
1519426315124,-0.494873,0.242432,-0.030518
1519426315166,-0.157227,-0.118164,0.218750
1519426315199,0.622070,-1.984619,0.241699
1519426315204,2.486328,-4.151123,0.154541
1519426315263,1.935791,-2.338379,-0.079346
1519426315296,1.500488,-2.176025,-0.155273
1519426315305,0.828125,-1.259521,-0.105713
1519426315360,0.382813,-0.352051,-0.107422
1519426315391,0.270020,0.333984,-0.051758
1519426315424,0.182129,0.674072,-0.106689
1519426315457,0.104248,0.785156,-0.311768
1519426315490,0.155029,0.617920,-0.405273
1519426315524,0.230225,0.137939,-0.413574
1519426315557,0.460693,-0.484131,0.058105
1519426315571,0.924805,-1.179688,0.226807
1519426315603,1.548096,-2.203613,0.517822
1519426315636,1.686768,-2.220215,0.697754
1519426315669,1.266113,-1.938477,0.287354
1519426315703,0.700928,-0.976563,0.587891
1519426315750,0.236084,-0.753418,0.483887
1519426315782,-0.007324,-0.344482,0.370850
1519426315791,-0.125244,0.125732,0.143066
1519426315844,-0.259521,0.525879,-0.148438
1519426315874,-0.313965,0.532959,-0.106934
1519426315881,-0.111084,-0.033691,0.145996
1519426315939,0.541016,-0.938477,0.119141
1519426315972,1.598145,-2.598389,0.223145
1519426315985,1.822510,-2.661377,0.446045
1519426316019,1.477539,-2.565674,0.233154
1519426316076,1.207764,-1.947266,0.193848
1519426316084,0.808594,-1.034424,0.273926
1519426316139,0.210938,0.213135,0.045166
1519426316212,0.193848,0.448975,-0.224854
1519426316221,0.114258,0.618408,-0.336670
1519426316279,0.193115,0.472168,-0.410645
1519426316284,0.352051,0.329346,-0.316162
1519426316346,0.497070,0.134521,-0.097412
1519426316349,0.762207,-0.594238,0.144775
1519426316413,1.201172,-1.497314,0.298828
1519426316415,1.619873,-2.444092,0.339600
1519426316481,1.460449,-2.458740,0.425781
1519426316483,1.068359,-1.550049,0.314209
1519426316549,0.486328,-0.848389,0.350098
1519426316555,0.059814,-0.492432,0.548096
1519426316616,-0.267334,-0.207520,0.300781
1519426316622,-0.333984,0.106201,0.174561
1519426316679,-0.476074,0.446045,-0.152588
1519426316682,-0.470703,0.341797,-0.108643
1519426316685,-0.149414,-0.145996,-0.067627
1519426316713,0.524170,-1.147461,0.212646
1519426316746,1.232910,-2.039795,0.207031
1519426316748,1.731201,-2.559570,0.254395
1519426316807,1.868164,-2.712646,0.093262
1519426316840,1.419189,-1.947754,0.090820
1519426316854,0.732666,-0.762695,0.068359
1519426316914,0.203857,0.212402,0.019287
1519426316920,0.024414,0.523926,-0.043945
1519426316951,-0.083984,0.527588,-0.250977
1519426316984,0.075928,0.471436,-0.323975
1519426317028,0.362793,0.156982,-0.209717
1519426317060,0.575195,-0.179443,-0.122803
1519426317092,0.840088,-0.748535,0.094482
1519426317124,1.429932,-2.078125,0.376465
1519426317157,1.878906,-2.807129,0.822510
1519426317190,1.413086,-1.984863,0.634277
1519426317224,0.647461,-1.177734,0.502197
1519426317231,0.110107,-0.675293,0.363281
1519426317295,-0.223877,-0.211670,0.226074
1519426317328,-0.242920,0.046631,0.068604
1519426317334,-0.302246,0.226563,-0.082764
1519426317386,-0.348633,0.202637,-0.079834
1519426317418,-0.185547,-0.141846,0.060059
1519426317450,0.321289,-0.765869,0.401123
1519426317459,1.627197,-2.153320,0.150146
1519426317517,1.782227,-2.383545,-0.041504
1519426317549,1.384766,-2.749756,0.010010
1519426317582,1.121338,-1.980713,0.205811
1519426317614,0.649902,-0.961670,0.274414
1519426317649,0.465820,0.137451,0.495850
1519426317663,-0.011963,0.424561,0.052246
1519426317695,0.089844,0.565918,-0.395752
1519426317734,-0.094727,0.521240,-0.532959
1519426317767,0.200439,0.204346,-0.507568
1519426317799,0.503174,-0.340576,-0.223633
1519426317832,0.625000,-0.531494,-0.027588
1519426317865,1.014648,-1.722412,0.229736
1519426317873,1.595703,-2.660400,0.436523
1519426317911,1.726074,-2.310059,0.731445
1519426317943,1.182129,-1.508545,0.628662
1519426317975,0.575684,-0.741699,0.603027
1519426318010,0.114990,-0.493408,0.417236
1519426318068,-0.140137,-0.184326,0.035645
1519426318083,-0.325684,0.134766,-0.122314
1519426318115,-0.507568,0.354004,-0.179932
1519426318147,-0.540039,0.327881,-0.050049
1519426318180,-0.419678,-0.002441,0.041504
1519426318212,-0.084961,-0.514404,0.316406
1519426318245,1.101074,-2.470703,0.409668
1519426318307,2.674072,-3.366455,0.182617
1519426318310,1.991211,-2.635498,0.298828
1519426318342,1.254883,-1.816162,0.213135
1519426318374,0.645264,-0.651123,0.265869
1519426318406,0.459717,-0.001465,0.242432
1519426318438,0.052734,0.359619,-0.046143
1519426318471,-0.028809,0.518311,-0.255127
1519426318512,-0.074463,0.527832,-0.379639
1519426318546,0.206787,0.239014,-0.323975
1519426318579,0.412598,-0.144043,-0.114014
1519426318612,0.756592,-0.588135,0.088135
1519426318644,1.728271,-2.554199,0.191406
1519426318677,1.936768,-2.602539,0.803223
1519426318710,1.453125,-1.828613,0.476074
1519426318743,0.563721,-1.116211,0.185059
1519426318775,0.086670,-0.911377,0.195801
1519426318784,-0.155029,-0.562256,0.216309
1519426318834,-0.396240,-0.039307,0.116699
1519426318867,-0.444092,0.132568,0.035645
1519426318880,-0.439941,0.146729,0.011719
1519426318915,-0.308594,0.036133,0.085449
1519426318947,-0.150391,-0.365479,0.169678
1519426318980,0.339600,-1.096436,0.229004
1519426319012,2.335449,-4.012207,0.134521
1519426319050,2.143066,-2.563721,0.061035
1519426319080,1.443359,-1.612549,0.059326
1519426319115,0.665771,-0.976074,-0.170898
1519426319147,0.172363,-0.150146,0.029541
1519426319178,-0.060059,0.124756,-0.002930
1519426319211,-0.226074,0.487549,0.065918
1519426319245,-0.202637,0.349609,0.004639
1519426319254,0.060791,0.109863,-0.256836
1519426319318,0.500244,-0.437012,-0.280273
1519426319325,0.764160,-0.436768,0.081299
1519426319376,1.296631,-1.307373,0.118896
1519426319408,2.221436,-2.676270,0.459961
1519426319441,1.652344,-2.101074,0.770020
1519426319473,1.011475,-1.327393,0.383057
1519426319507,0.219482,-0.765137,0.151123
1519426319540,-0.158691,-0.510498,0.130859
1519426319588,-0.325195,-0.127930,0.080811
1519426319593,-0.585693,0.667236,-0.104004
1519426319623,-0.539551,0.441650,-0.124756
1519426319655,-0.324463,-0.130371,0.071289
1519426319692,0.138428,-0.817383,0.344971
1519426319725,0.563232,-1.129639,0.361328
1519426319757,1.074463,-1.900635,0.241455
1519426319790,1.637939,-2.763428,-0.156250
1519426319824,1.486572,-2.513916,-0.112305
1519426319860,1.187500,-1.814941,-0.323486
1519426319893,0.472412,-0.570313,-0.316650
1519426319926,0.161133,0.046631,-0.136230
1519426319957,0.003662,0.258301,-0.063721
1519426319990,-0.121582,0.424072,-0.068115
1519426320021,-0.053223,0.352539,-0.040283
1519426320053,0.177979,0.071289,-0.014648
1519426320086,0.615967,-0.372314,0.070801
1519426320099,0.812500,-0.449219,0.200439
1519426320157,1.424561,-1.782715,0.085205
1519426320189,1.763916,-2.713867,0.203369
1519426320222,1.313232,-2.227051,0.293945
1519426320226,0.721924,-1.288818,0.056396
1519426320281,0.002686,-0.727783,-0.098633
1519426320313,-0.208496,-0.460205,0.004150
1519426320315,-0.368652,0.010254,0.015869
1519426320372,-0.508057,0.347900,-0.038086
1519426320404,-0.538086,0.232666,-0.043213
1519426320437,-0.467773,0.061768,0.038574
1519426320469,-0.090820,-0.587646,0.036377
1519426320502,0.645264,-1.697021,0.015869
1519426320516,1.892822,-3.242188,-0.220215
1519426320550,1.579834,-2.729004,-0.060791
1519426320589,1.245361,-2.168213,0.006592
1519426320625,0.742920,-1.462646,-0.082764
1519426320662,0.274414,-0.424316,-0.094238
1519426320696,0.065918,0.053955,-0.069092
1519426320701,-0.091064,0.331787,-0.079102
1519426320756,-0.112549,0.607178,-0.146973
1519426320788,-0.024414,0.608887,-0.174805
1519426320799,0.242920,0.181152,-0.202148
1519426320873,0.722168,-0.530762,-0.121826
1519426320877,0.738770,-0.522705,0.143555
1519426320909,1.249756,-2.094727,-0.012939
1519426320952,1.582031,-2.855713,0.002930
1519426320987,1.121826,-1.897217,0.341309
1519426321020,0.787598,-1.483887,0.160400
1519426321055,0.254883,-0.842529,-0.046631
1519426321088,-0.140137,-0.374512,0.211426
1519426321100,-0.250244,-0.075439,0.380371
1519426321136,-0.329102,0.322021,-0.150635
1519426321277,-0.668213,0.586426,-0.238037
1519426321280,-0.563232,0.291748,-0.018555
1519426321346,-0.219482,-0.554199,0.094971
1519426321413,0.369141,-2.031250,0.085938
1519426321479,1.722656,-3.300781,-0.168213
1519426321482,1.366211,-2.630127,-0.157227
1519426321548,1.321777,-2.427734,-0.121094
1519426321617,0.899170,-1.468262,-0.259766
1519426321622,0.445801,-0.351563,-0.069824
1519426321634,0.123779,0.426758,0.154297
1519426321687,0.079590,0.458740,0.126953
1519426321701,-0.101318,0.559082,-0.094727
1519426321709,-0.028564,0.519043,-0.233398
1519426321712,0.348633,0.052734,-0.291260
1519426321715,0.764404,-0.851807,-0.081299
1519426321720,0.871094,-1.042725,0.239502
1519426321723,1.296875,-2.303955,-0.012207
1519426321727,1.243408,-2.178467,0.274414
1519426321760,1.044678,-1.851074,0.437744
1519426321764,0.662354,-1.415527,0.240967
1519426321824,-0.002441,-0.532227,0.204102
1519426321846,-0.270264,-0.224854,0.286621
1519426321872,-0.385498,0.012451,0.106201
1519426321903,-0.558838,0.317383,-0.163330
1519426321935,-0.458740,0.277100,-0.132324
1519426321968,-0.224121,0.066406,-0.034424
1519426322000,0.373291,-0.771729,0.164063
1519426322034,1.020020,-2.035400,0.200684
1519426322067,1.993164,-2.895752,0.320801
1519426322103,1.780518,-2.609375,0.358643
1519426322150,1.441162,-2.231934,0.238037
1519426322158,0.881104,-1.287109,0.229248
1519426322209,0.417969,-0.244385,0.058350
1519426322215,0.112793,0.294922,-0.121582
1519426322244,-0.022461,0.624756,-0.275879
1519426322302,-0.022461,0.590088,-0.381836
1519426322312,0.180664,0.363770,-0.393799
1519426322344,0.467529,-0.030762,-0.239746
1519426322398,0.517822,-0.444336,0.097412
1519426322430,1.035889,-1.421631,0.169678
1519426322438,1.546875,-2.402832,0.479004
1519426322474,1.354980,-1.999023,0.541748
1519426322508,0.890137,-1.846191,0.326904
1519426322551,0.128418,-1.139893,0.301270
1519426322583,-0.201660,-0.612305,0.256348
1519426322619,-0.199951,-0.330566,0.176025
1519426322651,-0.206055,0.094238,0.046875
1519426322688,-0.179688,0.355469,-0.110352
1519426322722,-0.077393,0.300049,-0.176514
1519426322730,0.334961,-0.171631,0.204590
1519426322783,0.662598,-1.595215,0.175293
1519426322814,1.536377,-2.431152,0.491699
1519426322847,2.524414,-2.415283,0.162598
1519426322880,1.543213,-2.052490,0.139893
1519426322916,0.944580,-1.527588,0.176758
1519426322931,0.552246,-0.880859,0.191162
1519426322965,0.198975,-0.167236,0.042236
1519426323000,-0.091064,0.173584,-0.316406
1519426323041,-0.210938,0.626221,-0.432617
1519426323075,-0.191895,0.726318,-0.470459
1519426323113,0.114990,0.279541,-0.477783
1519426323143,0.467041,-0.189209,-0.220947
1519426323176,1.377686,-1.257813,0.088379
1519426323210,2.044189,-2.440918,0.668213
1519426323213,2.053223,-2.384033,0.675537
1519426323272,1.105469,-1.279785,0.430176
1519426323317,0.529785,-0.964844,0.245361
1519426323333,0.145752,-0.756348,0.164307
1519426323342,-0.151855,-0.465088,0.142822
1519426323395,-0.343262,-0.034424,0.046143
1519426323427,-0.437988,0.241211,-0.127686
1519426323435,-0.575684,0.431152,-0.084473
1519426323491,-0.406006,0.108154,0.138184
1519426323523,-0.082764,-0.623047,0.246582
1519426323556,1.330322,-2.788086,0.282715
1519426323589,2.250977,-2.728516,0.255859
1519426323622,2.011230,-2.404541,0.162842
1519426323655,1.333496,-1.706299,-0.038818
1519426323688,0.750488,-0.844971,-0.052734
1519426323694,0.394043,-0.171143,-0.085693
1519426323750,-0.027100,0.472412,-0.125977
1519426323759,-0.120850,0.662598,-0.117676
1519426323815,-0.110107,0.729248,-0.151855
1519426323848,0.261230,0.309570,-0.269043
1519426323857,0.634033,-0.148438,-0.179932
1519426323906,0.876953,-0.474365,0.114746
1519426323939,1.686768,-1.738281,0.232910
1519426323973,2.029541,-3.104492,0.236328
1519426324005,1.466553,-2.224365,0.493164
1519426324039,0.687500,-1.157227,0.173584
1519426324070,0.125732,-0.774658,0.048584
1519426324105,-0.246338,-0.527832,0.097412
1519426324136,-0.560059,-0.093018,0.420898
1519426324152,-0.643311,0.135254,0.163086
1519426324176,-0.672607,0.164795,-0.085938
1519426324235,-0.429199,0.011475,-0.086426
1519426324267,-0.016602,-0.432129,-0.012939
1519426324272,1.047852,-1.728027,0.109131
1519426324325,2.506592,-3.017822,0.066650
1519426324359,2.085938,-2.352051,0.214111
1519426324391,1.507813,-1.775635,0.016357
1519426324423,0.735352,-0.917725,-0.114258
1519426324429,0.302002,-0.177734,-0.088135
1519426324487,0.016846,0.263916,-0.109619
1519426324528,-0.211182,0.469971,-0.098633
1519426324533,-0.250977,0.425781,-0.038330
1519426324591,-0.050049,0.362549,-0.024170
1519426324623,0.479492,-0.120361,-0.200684
1519426324632,0.948975,-0.553467,-0.230713
1519426324669,1.547119,-1.335938,-0.346436
1519426324708,1.634277,-2.991943,0.339111
1519426324740,1.571533,-2.636230,0.558350
1519426324772,0.852295,-1.087402,0.411133
1519426324806,-0.006592,-0.554932,0.197266
1519426324840,-0.242432,-0.534180,0.588623
1519426324849,-0.465820,-0.292480,0.416992
1519426324905,-0.526367,0.127930,-0.097900
1519426324936,-0.532715,0.160889,-0.229004
1519426324951,-0.451904,0.003418,-0.057373
1519426325008,0.147217,-0.567871,0.186035
1519426325052,0.833008,-1.607910,0.216064
1519426325056,2.224854,-3.234619,-0.017090
1519426325089,1.869629,-2.756836,0.021973
1519426325121,1.380615,-2.038086,0.100098
1519426325153,0.831055,-1.102539,-0.054688
1519426325187,0.310059,-0.109375,-0.095947
1519426325223,-0.010498,0.414551,-0.114502
1519426325232,-0.093750,0.592529,-0.166504
1519426325286,-0.097656,0.715088,-0.224609
1519426325319,0.075684,0.519287,-0.234619
1519426325353,0.326660,0.127441,-0.283691
1519426325366,0.752197,-0.532471,-0.043945
1519426325398,1.116211,-0.946289,0.182861
1519426325429,2.059570,-2.622070,-0.206787
1519426325462,1.577881,-2.433350,0.125977
1519426325494,1.105469,-2.013672,0.182373
1519426325553,0.640137,-1.428223,0.035889
1519426325585,0.041748,-0.795898,0.161621
1519426325618,-0.328613,-0.256836,0.560303
1519426325624,-0.485840,-0.190674,0.165283
1519426325680,-0.631836,0.347168,-0.240234
1519426325712,-0.551514,0.299072,-0.178711
1519426325718,-0.291260,-0.020508,-0.027100
1519426325771,0.448486,-0.625000,0.274902
1519426325802,0.949463,-1.556396,-0.057129
1519426325840,1.550049,-2.552246,-0.165771
1519426325872,1.929443,-2.907959,-0.080566
1519426325880,1.604248,-2.356201,-0.142090
1519426325915,1.034912,-1.396240,-0.052246
1519426325949,0.445068,-0.296631,0.061035
1519426325989,0.081543,0.412354,0.199463
1519426326021,0.022217,0.299805,-0.025146
1519426326054,-0.170898,0.706055,-0.313965
1519426326089,-0.015869,0.559082,-0.448242
1519426326122,0.213135,0.088135,-0.405762
1519426326193,0.531982,-0.298584,-0.050049
1519426326261,0.785156,-0.794922,0.036133
1519426326264,1.608154,-2.597168,-0.165527
1519426326329,1.622314,-2.434082,0.447754
1519426326335,1.256104,-2.144775,0.338379
1519426326396,0.620117,-1.256836,0.199219
1519426326402,-0.029541,-0.803223,0.165527
1519426326463,-0.231689,-0.414307,0.230469
1519426326467,-0.343750,0.141357,0.171631
1519426326531,-0.463623,0.259521,-0.073730
1519426326537,-0.478516,0.297119,-0.100830
1519426326599,-0.264648,-0.096924,-0.043213
1519426326602,0.292969,-1.143555,0.199951
1519426326666,1.270752,-2.313477,0.083252
1519426326669,1.884766,-2.284668,-0.061523
1519426326674,1.506104,-2.615234,0.036133
1519426326677,1.171387,-2.134766,-0.119385
1519426326680,0.637207,-1.151611,-0.141113
1519426326733,0.241699,-0.002441,-0.182373
1519426326741,0.089355,0.292725,-0.127197
1519426326800,0.045898,0.504150,-0.018311
1519426326833,0.124268,0.600342,-0.212158
1519426326842,0.284424,0.368896,-0.380127
1519426326895,0.501221,-0.192627,-0.229736
1519426326927,0.650879,-0.616943,0.081543
1519426326960,1.124268,-1.514648,-0.153809
1519426326992,1.512451,-2.480469,-0.148438
1519426327031,1.393311,-2.410889,0.202881
1519426327044,1.002686,-1.773682,0.169922
1519426327077,0.375244,-0.750244,0.676270
1519426327110,-0.112793,-0.728271,0.425537
1519426327144,-0.298096,-0.242432,0.146729
1519426327176,-0.364990,0.215088,-0.060059
1519426327209,-0.425293,0.416748,-0.137939
1519426327243,-0.315430,0.267578,-0.060791
1519426327269,0.353027,-0.328125,0.177734
1519426327325,1.127930,-1.564941,0.100830
1519426327333,1.761963,-2.161133,-0.250732
1519426327359,1.491699,-2.556885,-0.182861
1519426327391,1.143066,-2.628906,-0.247559
1519426327423,0.659668,-1.876465,-0.294189
1519426327464,0.294189,-0.647217,0.019775
1519426327498,0.038086,0.272461,0.133789
1519426327532,0.026123,0.229492,-0.176270
1519426327568,0.063232,0.603271,-0.371582
1519426327605,0.169434,0.556396,-0.468262
1519426327637,0.337402,0.219238,-0.366699
1519426327671,0.589844,-0.222900,-0.048828
1519426327704,1.131348,-1.240234,0.211182
1519426327736,1.760742,-2.433838,0.199463
1519426327740,1.605225,-2.367920,0.334717
1519426327794,1.008057,-1.769287,0.054443
1519426327829,0.362549,-1.188721,0.013916
1519426327842,-0.002441,-0.869873,0.066895
1519426327874,-0.245850,-0.430420,0.276611
1519426327908,-0.353516,0.194580,0.124512
1519426327940,-0.489746,0.428467,-0.104492
1519426327973,-0.391357,0.346680,0.073975
1519426328030,-0.041748,-0.152832,0.177002
1519426328036,0.390381,-0.983887,0.166748
1519426328091,1.242432,-2.179688,0.025146
1519426328124,2.027100,-2.861572,-0.064941
1519426328127,1.718018,-2.361084,-0.253174
1519426328182,0.976807,-1.639404,-0.168701
1519426328187,0.439453,-0.804688,-0.162354
1519426328220,0.093018,-0.173096,-0.153809
1519426328287,-0.186523,0.312500,-0.152832
1519426328292,-0.210693,0.596924,-0.082764
1519426328321,-0.072998,0.531494,-0.189697
1519426328354,0.349609,-0.123779,-0.276367
1519426328410,0.739746,-0.474365,-0.036865
1519426328416,1.131348,-0.720215,0.294189
1519426328472,1.871338,-2.594238,0.094971
1519426328506,1.728516,-2.181641,0.552002
1519426328547,1.273193,-1.277832,0.308594
1519426328554,0.375244,-0.947754,-0.263428
1519426328586,-0.117188,-0.985840,-0.318604
1519426328619,-0.287598,-0.914063,-0.049805
1519426328661,-0.408203,-0.153564,0.163818
1519426328693,-0.509521,0.049072,0.071533
1519426328701,-0.392578,0.332275,0.178223
1519426328757,0.234131,-0.129150,0.563965
1519426328789,0.407471,-1.062500,0.195801
1519426328822,1.051270,-1.649902,-0.302246
1519426328855,1.766846,-2.534668,-0.150146
1519426328888,1.697266,-2.579346,-0.038086
1519426328921,1.406006,-2.124756,0.030029
1519426328954,0.611816,-0.720459,0.256592
1519426328991,0.282715,-0.246338,0.020508
1519426329027,0.063965,0.155518,-0.134033
1519426329042,-0.004639,0.548096,-0.293213
1519426329074,0.004639,0.667236,-0.313965
1519426329107,0.176270,0.463623,-0.336914
1519426329139,0.443359,0.091064,-0.206543
1519426329172,0.723389,-0.303467,-0.147949
1519426329207,1.083252,-0.968750,-0.275391
1519426329240,1.669922,-2.480713,0.875000
1519426329272,1.458740,-3.457031,-0.183838
1519426329281,1.217529,-1.465820,0.251465
1519426329337,0.329102,-0.950928,0.011230
1519426329371,-0.049316,-0.599365,0.043945
1519426329404,-0.210449,-0.250488,0.098877
1519426329412,-0.333740,0.198975,0.093750
1519426329449,-0.387207,0.218994,-0.072266
1519426329484,-0.316406,0.161133,-0.049561
1519426329517,0.226074,-0.364746,0.240234
1519426329548,0.719238,-1.325684,0.169678
1519426329581,1.563721,-2.472168,-0.110107
1519426329613,1.560547,-2.572754,-0.164795
1519426329649,1.443604,-2.464111,-0.195801
1519426329682,0.939697,-1.658203,0.029541
1519426329715,0.371094,-0.366943,0.148438
1519426329750,0.170898,-0.036865,-0.076660
1519426329784,0.086182,0.344482,-0.184326
1519426329830,0.135986,0.666748,-0.347168
1519426329836,0.270508,0.539551,-0.448486
1519426329863,0.424316,0.307373,-0.396729
1519426329894,0.742432,-0.145020,-0.085449
1519426329954,0.920898,-0.972900,-0.029053
1519426329989,1.508057,-2.706543,-0.298340
1519426330021,1.463135,-2.410400,0.222656
1519426330027,1.137207,-1.888672,0.126465
1519426330085,0.675781,-1.370361,0.184082
1519426330117,0.117920,-0.863525,0.524658
1519426330139,-0.148682,-0.376221,0.133789
1519426330167,-0.366699,0.175049,-0.222168
1519426330220,-0.544922,0.448730,-0.155029
1519426330227,-0.358643,0.501221,0.151367
1519426330257,-0.080566,0.058594,0.286621
1519426330299,0.381348,-0.884766,0.230225
1519426330331,0.692871,-1.522949,-0.297852
1519426330364,1.516113,-3.223145,-0.298340
1519426330396,1.716553,-2.776123,-0.279541
1519426330430,1.316895,-2.282227,-0.149414
1519426330442,0.801025,-1.046631,0.245605
1519426330499,0.207764,0.327393,0.286865
1519426330534,0.230225,0.464355,-0.053955
1519426330545,0.049805,0.521973,-0.316650
1519426330601,-0.053467,0.504639,-0.410400
1519426330608,0.176514,0.364502,-0.442871
1519426330664,0.453369,-0.012207,-0.337402
1519426330677,0.696045,-0.450439,-0.140137
1519426330710,1.189697,-1.343018,-0.367188
1519426330742,1.864746,-2.495361,-0.216064
1519426330779,2.014160,-2.697998,-0.114502
1519426330812,0.920898,-2.215820,0.227051
1519426330844,0.080078,-1.254150,0.344238
1519426330877,-0.045654,-0.784668,0.112793
1519426330909,-0.259033,0.140625,0.392578
1519426330943,-0.330322,0.411621,0.062500
1519426330975,-0.435059,0.610840,-0.145508
1519426331007,-0.218018,0.182861,-0.144287
1519426331039,0.214600,-0.388184,0.049316
1519426331071,0.398926,-1.247314,0.257813
1519426331109,0.854004,-1.739746,-0.382813
1519426331114,1.712646,-3.002441,-0.387207
1519426331184,1.692627,-2.437012,0.020020
1519426331190,1.295654,-2.078125,0.208252
1519426331250,0.774658,-0.437988,0.726807
1519426331318,0.281982,-0.032227,-0.041260
1519426331324,0.027100,0.284424,-0.382324
1519426331385,-0.047852,0.499268,-0.468506
1519426331393,0.107178,0.561523,-0.480225
1519426331457,0.320068,0.145508,-0.456299
1519426331461,0.570801,-0.244385,-0.261719
1519426331526,1.116943,-0.970703,0.194092
1519426331593,1.938232,-2.607178,0.567627
1519426331597,2.169434,-2.785645,0.604736
1519426331663,0.941162,-1.307129,0.191895
1519426331672,0.183350,-1.003418,0.042969
1519426331685,-0.101807,-0.550293,0.101074
1519426331693,-0.287598,0.105225,0.284424
1519426331696,-0.339111,-0.048828,-0.021240
1519426331699,-0.295166,0.011230,-0.116699
1519426331745,-0.130859,0.115967,0.041504
1519426331780,0.250244,-0.182861,0.336182
1519426331810,0.525879,-0.709229,0.089844
1519426331842,1.424072,-2.463623,-0.289063
1519426331875,1.851318,-2.629150,-0.134277
1519426331907,1.723145,-2.399170,-0.168213
1519426331941,1.010742,-1.538818,-0.101563
1519426331975,0.393799,-0.330322,0.167969
1519426332008,0.073730,-0.053467,0.043701
1519426332038,-0.197754,0.252197,-0.331055
1519426332053,-0.071533,0.549316,-0.338623
1519426332109,0.202148,0.519287,-0.337158
1519426332126,0.650879,0.064697,-0.092529
1519426332167,0.812988,-0.382813,0.138672
1519426332190,0.989990,-0.712402,0.014648
1519426332222,1.939209,-2.327881,0.007813
1519426332254,1.891113,-2.698975,0.102539
1519426332287,1.308594,-1.910889,0.079346
1519426332320,0.431152,-1.002441,0.248535
1519426332352,0.038330,-0.684570,0.509277
1519426332387,-0.171875,-0.496582,0.391602
1519426332420,-0.386719,0.274170,-0.100830
1519426332452,-0.619141,0.483643,-0.172363
1519426332467,-0.552246,0.408447,-0.044922
1519426332524,-0.116211,-0.130371,0.089355
1519426332557,0.381836,-1.017822,0.289063
1519426332559,1.060303,-2.239990,-0.034668
1519426332615,2.228027,-3.106689,-0.033203
1519426332637,1.869873,-2.760010,0.031494
1519426332662,1.305176,-1.787109,0.011230
1519426332720,0.563965,-0.506104,-0.048584
1519426332721,0.252930,0.057861,-0.145752
1519426332753,0.028076,0.528809,-0.064453
1519426332786,0.005615,0.558838,-0.172363
1519426332820,-0.035156,0.505127,-0.301270
1519426332852,0.081055,0.365234,-0.279053
1519426332894,0.338379,0.041016,-0.238525
1519426332929,0.481934,-0.526611,-0.136719
1519426332961,0.883789,-1.629395,0.101074
1519426332993,1.685791,-2.167236,0.727539
1519426333026,1.844238,-2.590332,0.664551
1519426333059,1.404785,-1.429688,0.617920
1519426333091,0.438477,-1.043213,0.400146
1519426333123,-0.095459,-0.651123,0.090332
1519426333157,-0.345703,-0.153076,-0.066162
1519426333189,-0.491943,0.026123,-0.039795
1519426333221,-0.495605,0.313477,0.194824
1519426333255,-0.308594,0.280762,0.423096
1519426333297,0.157715,-0.355225,0.450195
1519426333307,0.480225,-1.178711,0.116211
1519426333337,1.481201,-2.916992,0.057617
1519426333370,1.705811,-2.564697,0.018555
1519426333403,1.363525,-2.349121,0.032715
1519426333436,0.841797,-1.519287,-0.001465
1519426333470,0.248047,-0.318115,-0.094482
1519426333503,0.054199,0.262207,-0.056885
1519426333536,0.090820,0.383789,-0.124023
1519426333569,0.056885,0.659912,-0.291016
1519426333599,0.327148,0.585205,-0.377686
1519426333632,0.711914,0.034668,-0.331543
1519426333667,1.134033,-0.861328,-0.166260
1519426333680,1.396484,-1.708984,0.110596
1519426333738,1.672852,-2.529297,0.497070
1519426333773,1.345459,-2.176270,0.169434
1519426333804,0.606445,-1.244385,0.172119
1519426333837,0.101318,-0.820557,0.055664
1519426333870,-0.149902,-0.713623,0.245605
1519426333901,-0.292236,-0.166260,0.265869
1519426333933,-0.404785,0.239014,0.096191
1519426333966,-0.495117,0.277344,-0.013916
1519426334000,-0.270996,-0.027100,0.117920
1519426334034,0.210205,-0.750488,0.288574
1519426334065,0.989990,-2.058838,-0.034668
1519426334077,1.963135,-2.847900,-0.035400
1519426334110,1.695313,-2.576660,-0.057373
1519426334167,1.176514,-1.772217,-0.114014
1519426334170,0.660889,-0.780518,-0.031982
1519426334201,0.294678,0.254883,0.435059
1519426334261,0.147949,0.063721,-0.002441
1519426334269,0.049072,0.527832,-0.415527
1519426334298,-0.135742,0.672363,-0.447266
1519426334333,0.408936,0.046387,-0.424805
1519426334367,0.750732,-0.454590,-0.144043
1519426334398,0.989990,-1.025879,-0.036621
1519426334430,1.598389,-2.543213,0.255859
1519426334462,1.591553,-2.269043,0.475342
1519426334503,1.032959,-1.925537,0.138916
1519426334536,0.279297,-1.100098,0.175049
1519426334570,0.057129,-0.523926,0.149414
1519426334602,0.061035,-0.128906,0.161621
1519426334634,-0.129883,0.687256,-0.177490
1519426334668,-0.403076,0.616943,-0.145996
1519426334700,-0.091064,-0.301514,0.183105
1519426334732,0.284912,-1.535889,0.777832
1519426334764,0.032715,-0.499512,0.087646
1519426334796,0.347412,-1.309570,-0.597900
1519426334829,2.078857,-3.250977,-0.223877
1519426334862,1.793945,-2.257324,0.273193
1519426334896,1.318115,-1.649170,0.445313
1519426334910,0.496338,-0.358887,-0.085449
1519426334948,0.377441,-0.066650,-0.284180
1519426334980,0.159180,0.488525,-0.394775
1519426335015,0.077881,0.761475,-0.445801
1519426335049,0.107178,0.588135,-0.451904
1519426335080,0.387207,0.064697,-0.221924
1519426335114,0.613281,-0.554688,0.159668
1519426335145,0.899414,-1.140137,0.077881
1519426335176,1.555908,-2.961182,0.086182
1519426335209,1.399170,-2.103027,0.481201
1519426335241,1.070557,-1.700684,0.236084
1519426335280,0.556396,-1.258301,0.316650
1519426335313,-0.086182,-0.571533,0.405518
1519426335326,-0.176270,-0.347412,0.155518
1519426335384,-0.185303,0.110840,-0.051758
1519426335393,-0.292236,0.379395,-0.162598
1519426335448,-0.228516,0.188965,-0.001465
1519426335479,0.138672,-0.152832,0.165283
1519426335510,0.584229,-1.217529,0.033691
1519426335546,1.282471,-2.197021,0.035156
1519426335549,1.558838,-2.506836,0.174805
1519426335605,1.589111,-2.776611,0.074219
1519426335638,1.142822,-2.018555,-0.001465
1519426335644,0.626709,-0.657715,0.128662
1519426335696,0.255859,0.097412,-0.157715
1519426335729,0.175293,0.356689,-0.299561
1519426335742,0.117676,0.578613,-0.392334
1519426335776,0.142090,0.488037,-0.352051
1519426335809,0.223877,0.269775,-0.206299
1519426335842,0.349854,-0.140381,0.063477
1519426335874,0.505371,-0.657471,0.178955
1519426335905,0.831055,-1.218750,0.096191
1519426335963,1.607910,-2.864014,0.142822
1519426335995,1.621094,-2.152588,0.456299
1519426336004,1.055420,-1.475098,0.341309
1519426336060,0.402832,-0.887451,0.311279
1519426336093,-0.068604,-0.447510,0.277588
1519426336125,-0.193848,-0.073975,0.118896
1519426336134,-0.228516,0.129395,-0.022949
1519426336209,-0.300781,0.259521,-0.119873
1519426336212,-0.282959,0.197510,-0.077881
1519426336277,0.067627,-0.162842,0.163330
1519426336282,0.427002,-1.199707,0.273438
1519426336344,1.204834,-2.283691,-0.012939
1519426336347,1.777344,-3.081055,0.061035
1519426336414,1.506836,-2.492920,-0.050049
1519426336422,1.088135,-1.917480,-0.060547
1519426336481,0.576416,-0.935791,-0.037842
1519426336548,0.250488,0.095459,0.097412
1519426336557,0.037109,0.398926,-0.088379
1519426336616,0.005615,0.585693,-0.326660
1519426336683,0.157471,0.499756,-0.398438
1519426336687,0.309814,0.264893,-0.368164
1519426336702,0.426025,-0.091309,-0.190674
1519426336706,0.513184,-0.382568,0.263428
1519426336709,0.985840,-1.266602,0.230713
1519426336712,1.470947,-2.798828,0.208252
1519426336739,1.473145,-2.594971,0.588379
1519426336773,1.098389,-1.665771,0.316162
1519426336805,0.422119,-1.021973,0.206299
1519426336838,0.000977,-0.522461,0.354004
1519426336870,-0.134766,-0.285889,0.217285
1519426336903,-0.202881,0.182861,-0.011230
1519426336960,-0.382568,0.341309,-0.111084
1519426336973,-0.317871,0.201904,0.012695
1519426337005,-0.171387,-0.151855,0.191650
1519426337037,0.226074,-1.212646,0.206787
1519426337070,1.114990,-2.426025,0.167969
1519426337103,1.938477,-3.229004,-0.045166
1519426337135,1.375732,-2.589111,0.071533
1519426337169,0.942383,-1.808838,0.011475
1519426337206,0.509277,-0.648193,0.025879
1519426337238,0.148926,0.358154,0.229980
1519426337270,0.037598,0.294678,-0.203369
1519426337303,0.042480,0.446533,-0.479248
1519426337335,0.227051,0.443115,-0.410889
1519426337369,0.472168,0.118164,-0.286133
1519426337390,0.589355,-0.204834,-0.045898
1519426337420,0.894287,-0.997070,0.147217
1519426337452,1.330078,-2.472900,0.064697
1519426337506,1.510010,-2.741211,0.340332
1519426337539,1.222412,-1.847900,0.306152
1519426337574,0.605713,-1.152588,0.096680
1519426337582,0.113281,-0.677246,0.141602
1519426337631,-0.147217,-0.165039,0.241699
1519426337664,-0.306152,0.214600,0.025879
1519426337671,-0.423340,0.347412,-0.128418
1519426337724,-0.411865,0.252197,-0.065430
1519426337754,-0.197998,-0.067871,0.101807
1519426337786,0.149902,-0.762939,0.369141
1519426337828,0.830322,-1.758789,0.036133
1519426337837,1.592285,-2.616211,-0.002441
1519426337886,1.634033,-2.676270,0.009277
1519426337920,1.274414,-2.115967,0.050049
1519426337952,0.793945,-1.233643,-0.005371
1519426337986,0.409180,-0.372070,-0.033691
1519426338018,0.081055,0.095459,-0.151367
1519426338050,-0.074707,0.388672,-0.254395
1519426338084,-0.019043,0.542236,-0.286133
1519426338116,0.182129,0.458984,-0.314453
1519426338124,0.549316,-0.067139,-0.221680
1519426338152,0.861328,-0.665039,0.139404
1519426338209,1.607910,-2.038818,0.118164
1519426338213,1.536377,-2.415771,0.555664
1519426338255,1.516113,-2.241211,0.330322
1519426338288,0.769287,-1.255127,0.191162
1519426338321,0.223389,-0.854980,0.079346
1519426338355,-0.093750,-0.557129,0.335205
1519426338389,-0.183350,-0.206787,0.212891
1519426338420,-0.276611,0.113037,-0.082764
1519426338453,-0.417236,0.431396,-0.140625
1519426338485,-0.206787,0.225342,0.022949
1519426338516,0.185547,-0.356445,0.145996
1519426338549,0.594482,-1.086914,0.131348
1519426338581,1.440186,-2.197266,-0.147461
1519426338614,1.461670,-2.612793,0.062012
1519426338628,1.346924,-2.622803,0.158691
1519426338687,0.959717,-1.725342,0.518066
1519426338719,0.490723,-0.800537,0.110107
1519426338751,0.248779,0.231934,-0.271240
1519426338788,0.064697,0.285889,-0.376953
1519426338797,0.066162,0.431396,-0.444580
1519426338849,0.034668,0.508301,-0.400635
1519426338884,0.189941,0.389160,-0.019287
1519426338914,0.401611,-0.470703,0.117432
1519426338946,0.635742,-0.769531,-0.004395
