1519242523146,-0.049561,-0.770752,0.367188
1519242523179,-0.073242,-0.615479,0.371582
1519242523205,-0.017822,-0.673828,0.435791
1519242523250,0.066162,-0.353027,0.722656
1519242523276,0.023926,-0.811768,0.529785
1519242523305,0.028809,-0.874268,0.455811
1519242523349,0.038818,-0.656982,0.622070
1519242523363,0.035645,-0.550781,0.662842
1519242523400,0.060303,-0.568359,0.785400
1519242523428,0.072998,-0.601074,0.683350
1519242523461,0.029785,-1.077148,0.318115
1519242523503,-0.046631,-1.115479,0.199463
1519242523529,-0.133301,-0.877686,0.279297
1519242523559,-0.350098,-1.232178,0.008057
1519242523594,-0.428467,-1.301025,-0.366699
1519242523626,-0.351318,-1.115479,0.180908
1519242523663,-0.089600,-0.603516,0.663574
1519242523694,-0.149170,-0.412354,0.675537
1519242523726,0.020264,-0.767334,0.539307
1519242523759,-0.045654,-0.936279,0.157227
1519242523779,-0.123779,-1.012207,-0.137939
1519242523825,-0.158447,-1.145508,-0.227783
1519242523842,-0.199707,-1.068604,0.042236
1519242523875,-0.209961,-0.915527,-0.015137
1519242523926,-0.210205,-0.834961,-0.282959
1519242523956,-0.150146,-1.125244,-0.139160
1519242523974,-0.149658,-0.959961,0.124756
1519242524008,-0.116699,-0.881348,-0.215820
1519242524052,-0.160889,-0.782959,-0.369629
1519242524074,-0.112549,-0.710693,-0.355713
1519242524111,-0.144531,-1.047119,-0.515869
1519242524140,-0.129150,-1.085938,-0.411377
1519242524172,-0.099365,-0.735596,-0.379883
1519242524206,0.052246,-1.259277,-0.418945
1519242524240,-0.010986,-1.146973,-0.302002
1519242524257,-0.095459,-1.007080,-0.413330
1519242524305,-0.105469,-0.955322,-0.444580
1519242524340,-0.095215,-0.914795,-0.323242
1519242524355,-0.148682,-0.881592,-0.420654
1519242524406,-0.126221,-0.980957,-0.512207
1519242524423,-0.190430,-1.020020,-0.506836
1519242524454,-0.135986,-0.879883,-0.385254
1519242524489,-0.127686,-0.825928,-0.372803
1519242524523,-0.099854,-0.842041,-0.419189
1519242524556,-0.139648,-0.860596,-0.428467
1519242524591,-0.133545,-0.974121,-0.406006
1519242524623,-0.117432,-0.999756,-0.418213
1519242524654,-0.114990,-0.986084,-0.395508
1519242524695,-0.119141,-0.895752,-0.303467
1519242524720,-0.132813,-0.945313,-0.354004
1519242524754,-0.113770,-0.783936,-0.324219
1519242524786,-0.138184,-0.836182,-0.296631
1519242524821,-0.142334,-0.852539,-0.449707
1519242524839,-0.191406,-0.834717,-0.416992
1519242524897,-0.199951,-0.904297,-0.368652
1519242524903,-0.200684,-0.896729,-0.433594
1519242524939,-0.194336,-0.863037,-0.451172
1519242524988,-0.182617,-0.893066,-0.382324
1519242525005,-0.135254,-0.847900,-0.312500
1519242525039,-0.081299,-0.942383,-0.390869
1519242525085,-0.059814,-0.951416,-0.270996
1519242525105,-0.079834,-0.870361,-0.417725
1519242525137,-0.061523,-0.782959,-0.339111
1519242525170,-0.092529,-0.923340,-0.376465
1519242525203,-0.138428,-0.863525,-0.361572
1519242525236,-0.175293,-0.798096,-0.361084
1519242525269,-0.227295,-0.881836,-0.486328
1519242525301,-0.210938,-0.817627,-0.429199
1519242525320,-0.218262,-0.853271,-0.414551
1519242525369,-0.272705,-0.866455,-0.469238
1519242525404,-0.283691,-1.096191,-0.426025
1519242525419,-0.199463,-1.199707,-0.265381
1519242525471,-0.137939,-1.092773,-0.301514
1519242525488,-0.075439,-0.958740,-0.493652
1519242525518,0.065674,-0.916260,-0.518311
1519242525552,0.250244,-0.883789,-0.359131
1519242525585,0.337646,-0.908203,-0.281738
1519242525625,0.330566,-0.878174,-0.292236
1519242525652,0.124756,-0.811279,-0.378906
1519242525685,-0.016113,-0.733398,-0.437988
1519242525717,-0.114014,-0.781494,-0.408936
1519242525751,0.013428,-0.867920,-0.279541
1519242525785,-0.137939,-0.867188,-0.276611
1519242525820,-0.717285,-1.156006,-0.187988
1519242525849,-0.023926,-1.262695,0.154541
1519242525884,-0.077881,-1.047363,-0.077148
1519242525901,-0.067139,-0.767090,-0.280273
1519242525951,-0.070313,-0.741699,-0.179688
1519242525968,-0.104004,-0.794678,-0.105225
1519242526011,-0.099609,-0.902100,-0.180176
1519242526050,-0.005127,-0.926758,-0.213867
1519242526067,0.020752,-0.932617,-0.231934
1519242526100,0.026123,-0.971680,-0.250488
1519242526133,-0.053223,-1.084473,-0.285645
1519242526167,-0.120117,-1.146240,-0.239258
1519242526199,-0.081543,-1.077637,-0.162598
1519242526231,-0.023438,-0.981689,-0.081543
1519242526265,-0.005615,-1.008301,-0.063477
1519242526299,0.002686,-1.047852,-0.103271
1519242526331,-0.009521,-0.963623,-0.158936
1519242526364,-0.007813,-0.875732,-0.222656
1519242526399,-0.013184,-0.833740,-0.248779
1519242526462,-0.035156,-0.962158,-0.245117
1519242526466,-0.061523,-1.020752,-0.177490
1519242526530,-0.038330,-1.081787,-0.149414
1519242526532,-0.006104,-1.078857,-0.174561
1519242526599,-0.068604,-1.034180,-0.187500
1519242526665,-0.104004,-1.050537,-0.250488
1519242526668,-0.113281,-0.986816,-0.292725
1519242526732,-0.122070,-0.913818,-0.236816
1519242526798,-0.092041,-0.918701,-0.190674
1519242526867,-0.069336,-0.885010,-0.161133
1519242526875,-0.082031,-0.852295,-0.110352
1519242526924,-0.096924,-0.864258,-0.048828
1519242526933,-0.137207,-0.884033,-0.056641
1519242526941,-0.142578,-0.948730,-0.013672
1519242526951,-0.099854,-0.986572,0.010498
1519242526954,-0.090088,-1.044189,-0.060059
1519242526957,-0.103271,-1.047119,-0.076416
1519242526963,-0.118896,-1.060303,-0.087891
1519242527012,-0.102051,-1.048340,-0.068359
1519242527045,-0.117676,-0.999268,-0.070068
1519242527063,-0.115479,-1.009766,-0.058838
1519242527113,-0.123535,-1.023682,-0.010498
1519242527131,-0.135254,-1.008057,0.023682
1519242527164,-0.131592,-0.993164,0.031250
1519242527197,-0.120117,-0.941895,0.057617
1519242527230,-0.135254,-0.927002,0.062500
1519242527262,-0.150146,-0.931152,0.048096
1519242527302,-0.184326,-0.917480,0.018066
1519242527328,-0.180908,-0.922119,0.010986
1519242527361,-0.189941,-0.960205,0.000000
1519242527395,-0.177246,-0.944092,0.051270
1519242527429,-0.151855,-0.968750,0.109863
1519242527462,-0.152344,-0.995361,0.142578
1519242527494,-0.161133,-0.970215,0.155762
1519242527526,-0.169434,-0.963135,0.106445
1519242527543,-0.182861,-0.953125,0.047119
1519242527593,-0.187012,-0.942139,0.009766
1519242527610,-0.180420,-0.983398,0.005371
1519242527644,-0.181152,-0.978271,0.009521
1519242527695,-0.179199,-0.973877,0.036621
1519242527717,-0.177734,-0.964600,0.031494
1519242527752,-0.172363,-0.998047,0.018555
1519242527776,-0.172363,-1.005615,0.016846
1519242527808,-0.179688,-1.002197,-0.028320
1519242527842,-0.181641,-0.972412,-0.026855
1519242527877,-0.172607,-0.971924,-0.010742
1519242527908,-0.172607,-0.969971,-0.014648
1519242527942,-0.178955,-0.981934,-0.017822
1519242527975,-0.181396,-0.973633,-0.028076
1519242528009,-0.173828,-0.962646,-0.017334
1519242528027,-0.173828,-0.958984,-0.008545
1519242528075,-0.171631,-0.975586,0.002197
1519242528108,-0.171143,-0.960449,0.003662
1519242528124,-0.170166,-0.960693,-0.015625
1519242528175,-0.166992,-0.983887,-0.028809
1519242528192,-0.184326,-0.996094,-0.073730
1519242528225,-0.174561,-0.998047,-0.048584
1519242528257,-0.176025,-1.002686,-0.062988
1519242528290,-0.178467,-0.957275,-0.059082
1519242528323,-0.178223,-0.958740,-0.062012
1519242528357,-0.175293,-0.964600,-0.049072
1519242528390,-0.175293,-0.975830,-0.050537
1519242528425,-0.175537,-0.966797,-0.047607
1519242528459,-0.172607,-0.984619,-0.039551
1519242528490,-0.178467,-0.964844,-0.054199
1519242528523,-0.179688,-0.962158,-0.055908
1519242528557,-0.184082,-0.970459,-0.055908
1519242528591,-0.182129,-0.963867,-0.063965
1519242528607,-0.172852,-0.962891,-0.053223
1519242528657,-0.180420,-0.988281,-0.080566
1519242528673,-0.184814,-0.962646,-0.077637
1519242528707,-0.171387,-0.979736,-0.062012
1519242528755,-0.177002,-0.993896,-0.052734
1519242528771,-0.182861,-0.965820,-0.062988
1519242528806,-0.181641,-0.974121,-0.062744
1519242528837,-0.182129,-0.956055,-0.057861
1519242528872,-0.179443,-0.955078,-0.058350
1519242528923,-0.179443,-0.966797,-0.069092
1519242528943,-0.181396,-0.976074,-0.062988
1519242528972,-0.179688,-0.975586,-0.063721
1519242529006,-0.179932,-0.976563,-0.060303
1519242529039,-0.177979,-0.977295,-0.051758
1519242529073,-0.176025,-0.980957,-0.049805
1519242529089,-0.178711,-0.978760,-0.049805
1519242529137,-0.178467,-0.975342,-0.042725
1519242529170,-0.179443,-0.969238,-0.049316
1519242529186,-0.180664,-0.925293,-0.053955
1519242529236,-0.188965,-0.977539,-0.070313
1519242529252,-0.174072,-0.980225,-0.035645
1519242529286,-0.171143,-0.960693,-0.017578
1519242529319,-0.172119,-0.980469,-0.003906
1519242529353,-0.171875,-0.979980,0.001221
1519242529387,-0.173584,-0.958008,-0.021729
1519242529420,-0.178467,-0.971191,-0.046631
1519242529455,-0.178467,-0.986572,-0.037109
1519242529488,-0.176758,-0.983154,-0.034180
1519242529521,-0.168701,-0.962402,-0.015137
1519242529554,-0.167725,-0.983643,-0.013672
1519242529588,-0.168945,-0.975586,-0.006836
1519242529621,-0.163574,-0.966309,0.002686
1519242529654,-0.167480,-0.983887,0.005127
1519242529669,-0.167725,-0.984863,-0.011230
1519242529718,-0.177979,-0.984619,-0.041748
1519242529736,-0.177002,-0.979248,-0.051270
1519242529769,-0.179932,-0.958740,-0.047852
1519242529817,-0.176025,-0.970947,-0.032959
1519242529834,-0.169189,-0.961914,-0.013184
1519242529868,-0.171875,-0.970703,-0.014893
1519242529901,-0.166748,-0.975586,-0.017334
1519242529934,-0.168701,-0.981689,-0.020020
1519242529967,-0.175293,-0.998047,-0.029541
1519242530002,-0.174072,-0.974365,-0.034180
1519242530034,-0.176025,-0.967529,-0.039795
1519242530069,-0.174561,-0.961670,-0.033936
1519242530102,-0.175537,-0.970947,-0.030273
1519242530135,-0.177734,-0.973145,-0.024170
1519242530167,-0.170898,-0.974365,-0.022461
1519242530203,-0.177002,-0.989746,-0.027588
1519242530235,-0.177490,-0.986572,-0.046631
1519242530251,-0.178711,-0.996826,-0.052002
1519242530300,-0.171631,-0.943848,-0.018799
1519242530317,-0.167480,-0.854980,-0.023193
1519242530349,-0.181152,-0.852539,-0.015381
1519242530383,-0.164307,-1.110840,0.021484
1519242530417,-0.158447,-1.013916,0.016846
1519242530451,-0.177246,-0.926514,-0.067383
1519242530491,-0.197510,-0.854492,-0.157959
1519242530522,-0.195801,-0.907715,-0.159424
1519242530548,-0.173584,-0.944092,-0.141357
1519242530581,-0.156494,-0.952393,-0.210449
1519242530614,-0.168701,-0.990479,-0.229248
1519242530648,-0.160400,-1.057373,-0.207031
1519242530681,-0.150146,-1.061035,-0.176270
1519242530715,-0.143066,-1.075928,-0.178467
1519242530731,-0.149414,-1.061035,-0.153320
1519242530781,-0.166748,-1.019531,-0.203125
1519242530799,-0.170166,-0.976563,-0.109863
1519242530830,-0.146729,-0.912109,-0.054443
1519242530884,-0.179443,-0.940674,-0.059326
1519242530898,-0.172363,-0.902588,-0.071045
1519242530929,-0.167725,-0.875000,0.012939
1519242530964,-0.176025,-0.941895,-0.009033
1519242530999,-0.198242,-0.940186,-0.090088
1519242531030,-0.152344,-0.881836,-0.044189
1519242531066,-0.153076,-0.913330,0.001465
1519242531097,-0.150146,-1.010742,-0.039307
1519242531131,-0.167725,-1.045654,-0.076172
1519242531164,-0.152344,-1.033447,-0.031738
1519242531197,-0.143555,-1.031738,-0.030762
1519242531230,-0.150879,-1.020752,-0.051270
1519242531274,-0.157471,-0.985107,-0.059326
1519242531296,-0.136719,-0.984619,-0.022217
1519242531313,-0.149658,-0.930908,-0.015625
1519242531362,-0.148193,-0.992432,-0.030273
1519242531378,-0.149902,-1.006104,0.012451
1519242531447,-0.142334,-0.998779,0.003418
1519242531455,-0.159668,-0.960693,-0.013916
1519242531515,-0.149414,-0.973145,-0.037109
1519242531518,-0.155273,-0.968994,0.012451
1519242531584,-0.143066,-0.908936,0.026855
1519242531592,-0.146484,-1.004639,0.057129
1519242531718,-0.144043,-1.004395,0.022217
1519242531724,-0.163330,-1.016113,-0.006104
1519242531786,-0.145752,-0.993652,0.021973
1519242531791,-0.160156,-0.917725,0.007568
1519242531854,-0.158691,-0.920898,-0.001953
1519242531857,-0.166504,-0.976563,-0.022217
1519242531926,-0.173584,-0.988770,-0.049316
1519242531929,-0.156982,-0.964355,-0.034180
1519242531959,-0.143066,-0.965088,0.005615
1519242531968,-0.165039,-0.958008,-0.022461
1519242531975,-0.152100,-0.960205,-0.021729
1519242531981,-0.147217,-0.984375,-0.002930
1519242531993,-0.154541,-1.003662,-0.034668
1519242532026,-0.129150,-0.985352,0.015625
1519242532061,-0.147705,-1.015137,0.005859
1519242532092,-0.148193,-0.994873,-0.024414
1519242532126,-0.132324,-0.948730,0.024170
1519242532159,-0.145264,-0.997559,0.004395
1519242532192,-0.147217,-0.987793,-0.024170
1519242532224,-0.139404,-0.962891,-0.022461
1519242532259,-0.143799,-0.981689,-0.013672
1519242532293,-0.141357,-0.982178,-0.014648
1519242532325,-0.139404,-0.984131,-0.025146
1519242532358,-0.134521,-0.994385,-0.028564
1519242532374,-0.139160,-0.965088,-0.030029
1519242532423,-0.111816,-0.949951,0.041992
1519242532450,-0.151855,-0.983398,-0.029297
1519242532477,-0.146484,-0.994141,-0.045898
1519242532525,-0.142822,-1.010010,-0.008789
1519242532542,-0.134033,-0.973877,-0.049805
1519242532575,-0.145020,-0.946045,-0.052246
1519242532607,-0.138916,-0.988281,-0.052002
1519242532641,-0.141357,-0.919922,-0.015869
1519242532675,-0.155518,-1.023438,-0.090088
1519242532707,-0.144531,-1.002686,-0.043701
1519242532763,-0.130371,-0.965332,0.021973
1519242532773,-0.099854,-0.995850,0.072021
1519242532805,-0.154785,-0.992676,-0.035156
1519242532839,-0.124023,-0.960693,-0.045166
1519242532856,-0.149902,-0.998779,-0.025879
1519242532907,-0.135010,-0.977295,0.005859
1519242532941,-0.149902,-1.013916,-0.026855
1519242532957,-0.142334,-0.989746,-0.036377
1519242533006,-0.158203,-0.948730,-0.078125
1519242533023,-0.148438,-1.015869,-0.068604
1519242533057,-0.115967,-0.922607,0.023682
1519242533091,-0.152588,-1.045654,0.022217
1519242533122,-0.139160,-0.991211,-0.001953
1519242533155,-0.126953,-0.952393,0.015869
1519242533191,-0.123047,-0.997070,0.067627
1519242533220,-0.137939,-0.957764,0.089600
1519242533255,-0.141846,-1.010986,0.085938
1519242533290,-0.160889,-0.990234,0.013672
1519242533322,-0.171143,-0.973633,-0.100098
1519242533354,-0.162109,-0.943604,-0.033447
1519242533386,-0.154785,-0.917480,0.044189
1519242533420,-0.151123,-1.014160,0.017334
1519242533437,-0.156982,-0.988525,0.046143
1519242533488,-0.142090,-0.969971,0.039551
1519242533504,-0.142578,-0.994629,0.025879
1519242533538,-0.153564,-0.966553,0.003662
1519242533587,-0.151367,-1.000000,0.002930
1519242533603,-0.151123,-0.994873,0.005371
1519242533635,-0.128662,-0.937012,0.054688
1519242533670,-0.157959,-0.995117,0.042480
1519242533705,-0.165527,-1.016357,-0.019043
1519242533736,-0.175293,-0.979736,-0.081055
1519242533772,-0.145996,-0.911133,0.002441
1519242533807,-0.142090,-0.948486,0.035645
1519242533837,-0.160645,-1.024658,0.043945
1519242533868,-0.138672,-0.957275,0.007324
1519242533901,-0.148193,-0.955322,-0.031250
1519242533917,-0.139404,-1.002686,-0.021729
1519242533970,-0.139404,-0.950195,0.059082
1519242534002,-0.126221,-0.967285,0.090088
1519242534018,-0.132324,-0.982178,0.116943
1519242534069,-0.148438,-1.001465,-0.009277
1519242534086,-0.164063,-0.927734,-0.068359
1519242534118,-0.146973,-1.028809,-0.038086
1519242534151,-0.136719,-0.984863,0.006348
1519242534186,-0.128906,-0.992188,0.003662
1519242534217,-0.134766,-0.913086,0.071289
1519242534251,-0.109863,-0.953857,0.101318
1519242534286,-0.132813,-0.940430,0.072754
1519242534317,-0.148438,-1.068115,-0.037109
1519242534351,-0.110596,-0.981689,0.080566
1519242534382,-0.131104,-0.962891,0.116943
1519242534416,-0.122803,-0.970947,0.083740
1519242534450,-0.168701,-0.970459,-0.070068
1519242534486,-0.137695,-0.968018,-0.068848
1519242534501,-0.129150,-1.036377,-0.010010
1519242534550,-0.109863,-0.923828,0.077393
1519242534567,-0.119385,-1.058838,0.068115
1519242534600,-0.145996,-1.018799,-0.011475
1519242534650,-0.120850,-0.965332,0.003174
1519242534667,-0.139648,-0.998291,-0.007324
1519242534699,-0.128418,-0.982178,0.030029
1519242534732,-0.143066,-0.960938,0.049316
1519242534769,-0.148926,-0.996582,-0.010498
1519242534799,-0.131348,-0.950439,-0.008789
1519242534835,-0.152344,-0.972900,-0.042480
1519242534863,-0.130127,-1.022705,-0.030762
1519242534898,-0.141602,-1.001221,0.008057
1519242534931,-0.114014,-0.944824,0.055664
1519242534965,-0.130371,-1.006104,0.032715
1519242535001,-0.123291,-0.990234,0.035889
1519242535032,-0.137207,-1.018311,0.023926
1519242535066,-0.132080,-0.996582,0.006348
1519242535082,-0.124756,-0.959717,0.030029
1519242535130,-0.117188,-0.948730,0.077393
1519242535148,-0.149658,-1.012207,0.019531
1519242535182,-0.135986,-0.985596,-0.002930
1519242535215,-0.134521,-0.951660,0.015869
1519242535248,-0.130615,-0.963867,0.037842
1519242535280,-0.128662,-0.995361,0.033936
1519242535322,-0.122803,-0.996094,0.041748
1519242535345,-0.125244,-0.994141,0.045898
1519242535379,-0.129883,-0.980957,0.042725
1519242535413,-0.130371,-0.977539,0.026855
1519242535446,-0.126465,-0.977295,0.032471
1519242535481,-0.131348,-0.979004,0.035156
1519242535512,-0.137939,-0.979004,0.032227
1519242535547,-0.128906,-0.978516,0.026611
1519242535563,-0.123291,-0.944336,0.085449
1519242535613,-0.134521,-1.041016,0.064209
1519242535646,-0.129639,-1.004639,0.042969
1519242535663,-0.141357,-0.982422,0.012695
1519242535711,-0.135742,-0.938477,-0.020508
1519242535728,-0.137695,-0.955078,0.004150
1519242535764,-0.135254,-0.965332,0.023438
1519242535795,-0.130371,-1.004639,0.031982
1519242535828,-0.124756,-0.996338,0.042236
1519242535861,-0.130615,-0.986572,0.006348
1519242535896,-0.139404,-1.008057,-0.022217
1519242535928,-0.141846,-0.981934,-0.006592
1519242535961,-0.136475,-0.948730,0.006104
1519242535995,-0.131836,-0.953369,0.022705
1519242536028,-0.137695,-0.970459,0.012939
1519242536062,-0.142090,-0.982178,0.004639
1519242536095,-0.137451,-0.953125,-0.010010
1519242536128,-0.118408,-0.898193,0.025635
1519242536144,-0.129883,-0.923584,0.017090
1519242536195,-0.133057,-0.968506,-0.030518
1519242536210,-0.122070,-0.981689,-0.043457
1519242536245,-0.121582,-0.993408,-0.037109
1519242536295,-0.107422,-1.020752,-0.043213
1519242536312,-0.092285,-1.066406,-0.008301
1519242536341,-0.087891,-1.058105,0.007080
1519242536375,-0.098877,-0.998291,-0.001465
1519242536444,-0.102295,-0.976074,-0.016113
1519242536715,-0.092773,-0.973877,0.004883
1519242536782,-0.104980,-1.004150,-0.014404
1519242536787,-0.101318,-1.010254,-0.026367
1519242536848,-0.093750,-0.975342,0.005371
1519242536854,-0.086426,-0.982666,0.036133
1519242536916,-0.083740,-0.958984,0.076660
1519242536923,-0.093506,-0.945313,0.092285
1519242536956,-0.106445,-1.029541,0.039307
1519242536960,-0.112549,-0.961182,-0.001221
1519242536964,-0.109619,-0.967773,-0.066406
1519242536967,-0.116211,-1.007568,-0.077881
1519242536970,-0.086426,-1.012695,0.000244
1519242536973,-0.073730,-1.000488,0.019043
1519242536976,-0.098633,-0.999512,0.080566
1519242536979,-0.040039,-0.942871,0.124756
1519242536982,-0.129883,-0.923828,0.065186
1519242536985,-0.110352,-1.019775,-0.005615
1519242536989,-0.108398,-1.065674,0.012695
1519242537023,-0.115479,-0.962158,-0.037354
1519242537058,-0.080566,-0.940674,0.003906
1519242537089,-0.091797,-0.954102,0.032715
1519242537124,-0.102539,-0.992920,-0.014648
1519242537157,-0.104492,-1.008545,-0.025879
1519242537189,-0.090088,-0.970703,0.028809
1519242537206,-0.096436,-0.967529,0.036133
1519242537255,-0.095459,-0.976563,-0.008057
1519242537273,-0.091797,-0.997070,-0.012695
1519242537306,-0.093506,-0.995605,-0.005859
1519242537354,-0.086182,-0.977783,-0.001465
1519242537391,-0.094727,-0.989746,-0.009521
1519242537405,-0.098633,-0.975342,-0.025635
1519242537440,-0.106201,-0.972900,-0.065430
1519242537477,-0.106201,-0.968506,-0.064209
1519242537505,-0.105713,-1.009521,-0.057861
1519242537541,-0.096924,-1.009277,-0.027832
1519242537572,-0.095215,-1.000244,-0.026855
1519242537606,-0.090820,-0.983398,-0.045410
1519242537638,-0.097412,-0.979248,-0.032471
1519242537670,-0.095459,-0.986328,-0.030029
1519242537688,-0.097168,-0.988037,-0.046387
1519242537738,-0.092285,-0.988281,-0.032471
1519242537770,-0.093262,-0.985596,-0.029785
1519242537787,-0.094238,-0.980713,-0.036133
1519242537839,-0.092285,-0.985840,-0.039063
1519242537853,-0.093506,-0.976074,-0.026123
1519242537887,-0.091309,-0.993652,-0.034668
1519242537920,-0.092041,-0.988281,-0.035400
1519242537954,-0.092041,-0.980225,-0.036865
1519242537986,-0.093506,-0.987061,-0.046631
1519242538020,-0.100098,-0.994629,-0.075928
1519242538053,-0.092529,-0.990234,-0.065674
1519242538086,-0.078857,-0.982910,0.019287
1519242538119,-0.090332,-0.984619,-0.003174
1519242538152,-0.090820,-0.991211,-0.045166
1519242538183,-0.086914,-0.994141,-0.029785
1519242538217,-0.083008,-0.960938,-0.002686
1519242538253,-0.090576,-0.980957,-0.000244
1519242538269,-0.093018,-0.988281,-0.014404
1519242538320,-0.089600,-0.979492,-0.025391
1519242538336,-0.085693,-0.978760,-0.007813
1519242538375,-0.087891,-0.996338,0.006836
1519242538417,-0.095947,-0.982666,-0.022461
1519242538472,-0.088623,-0.973389,-0.016357
1519242538481,-0.090332,-0.979736,-0.007324
1519242538502,-0.091553,-0.989746,-0.027344
1519242538536,-0.086670,-0.989990,-0.020752
1519242538568,-0.088135,-0.985840,-0.020020
1519242538629,-0.093750,-0.991211,-0.019775
1519242538635,-0.092041,-0.989258,-0.030762
1519242538671,-0.097412,-1.004395,-0.055420
1519242538702,-0.090576,-0.999756,-0.032227
1519242538733,-0.087646,-0.981934,0.004883
1519242538768,-0.079834,-0.971191,0.030518
1519242538800,-0.077637,-0.957031,0.072021
1519242538834,-0.093018,-0.978271,0.032471
1519242538872,-0.102051,-0.974854,-0.004883
1519242538898,-0.096191,-0.958984,-0.033447
1519242538940,-0.089355,-1.011475,-0.006348
1519242538951,-0.077148,-0.958984,0.025391
1519242538981,-0.086670,-1.059326,0.011963
1519242539022,-0.082764,-1.062012,0.031250
1519242539052,-0.097656,-0.861816,0.026855
1519242539099,-0.114746,-0.990723,-0.040527
1519242539115,-0.103271,-0.992188,-0.051758
1519242539163,-0.075439,-0.951660,0.014893
1519242539183,-0.083008,-0.991455,0.010498
1519242539217,-0.115723,-0.991943,-0.040283
1519242539249,-0.095947,-1.003906,-0.082275
1519242539282,-0.099365,-1.013184,-0.017578
1519242539315,-0.104004,-0.970947,0.014404
1519242539331,-0.099365,-0.950928,-0.015381
1519242539380,-0.055176,-0.983887,0.142578
1519242539413,-0.104736,-0.998535,0.065186
1519242539431,-0.117188,-0.937988,-0.087891
1519242539482,-0.105957,-1.005615,-0.080078
1519242539498,-0.104492,-0.980957,0.003418
1519242539531,-0.097900,-1.019043,0.008301
1519242539565,-0.103027,-0.993652,-0.004639
1519242539598,-0.105469,-0.970703,-0.008301
1519242539630,-0.095459,-0.942627,0.010498
1519242539671,-0.093018,-0.960205,0.026611
1519242539699,-0.105225,-1.045410,-0.002930
1519242539730,-0.109131,-1.004150,-0.001953
1519242539762,-0.120605,-0.994629,-0.096924
1519242539796,-0.115479,-0.929932,-0.048096
1519242539829,-0.054688,-0.950195,0.143799
1519242539863,-0.158203,-1.070557,0.067383
1519242539895,-0.102783,-0.847168,0.006348
1519242539912,-0.127930,-0.955078,-0.034424
1519242539962,-0.102051,-0.955078,-0.030762
1519242539978,-0.098145,-1.010254,0.024170
1519242540012,-0.091553,-0.972900,0.033936
1519242540044,-0.099854,-0.968018,-0.042236
1519242540077,-0.111328,-0.993408,-0.069580
1519242540110,-0.102783,-1.006104,-0.042969
1519242540144,-0.095703,-0.979492,0.052734
1519242540176,-0.107910,-0.984863,0.031006
1519242540211,-0.109619,-0.992188,-0.023193
1519242540245,-0.112061,-0.987549,-0.041748
1519242540279,-0.104492,-0.981445,-0.018799
1519242540311,-0.104004,-0.965332,0.005371
1519242540342,-0.104248,-0.989014,0.000977
1519242540376,-0.103027,-0.997314,-0.007568
1519242540393,-0.101563,-0.987061,-0.010254
1519242540444,-0.105957,-0.990234,0.005615
1519242540477,-0.106445,-0.978027,-0.002197
1519242540494,-0.098877,-0.986328,-0.004150
1519242540543,-0.108643,-0.982666,-0.013916
1519242540560,-0.100830,-0.983643,-0.004395
1519242540593,-0.101807,-0.990234,-0.006104
1519242540627,-0.108643,-0.989502,-0.017822
1519242540661,-0.095947,-0.989502,0.005859
1519242540694,-0.096191,-0.959717,-0.003418
1519242540728,-0.114014,-1.031982,-0.039063
1519242540758,-0.094971,-0.962646,0.013672
1519242540792,-0.097168,-0.988281,-0.002686
1519242540826,-0.104248,-1.016602,-0.006836
1519242540862,-0.106689,-0.968262,0.005615
1519242540890,-0.092529,-0.983154,-0.012695
1519242540924,-0.111816,-0.993652,-0.036377
1519242540958,-0.084717,-0.963135,-0.004883
1519242540975,-0.099609,-1.014648,0.003906
1519242541024,-0.077881,-0.976807,0.004883
1519242541041,-0.111816,-1.012695,0.001709
1519242541075,-0.095703,-1.001465,0.000488
1519242541125,-0.109619,-0.964355,-0.037354
1519242541142,-0.115234,-0.948486,-0.057617
1519242541174,-0.080078,-0.946289,0.079590
1519242541209,-0.129150,-0.947754,-0.008301
1519242541240,-0.111328,-1.000488,-0.072266
1519242541274,-0.103516,-1.016602,-0.020264
1519242541309,-0.125732,-0.973145,-0.070557
1519242541341,-0.117920,-1.003174,-0.088867
1519242541374,-0.103516,-0.963379,-0.011719
1519242541465,-0.109375,-0.974609,-0.019531
1519242541474,-0.113525,-1.046143,-0.030029
1519242541535,-0.112793,-0.990723,-0.013428
1519242541543,-0.100830,-0.941650,-0.006592
1519242541603,-0.104492,-0.981934,-0.021973
1519242541612,-0.116455,-0.982422,-0.031006
1519242541672,-0.105713,-0.986084,-0.001221
1519242541738,-0.101807,-0.994629,0.006348
1519242541746,-0.104492,-0.982910,0.023193
1519242541805,-0.111572,-0.969482,-0.031738
1519242541875,-0.125732,-0.990234,-0.090332
1519242541882,-0.117188,-1.001465,-0.072754
1519242541945,-0.073730,-0.974121,0.042480
1519242541953,-0.098389,-0.987305,0.008545
1519242541963,-0.115967,-1.001953,-0.065674
1519242541965,-0.095703,-0.964111,-0.000732
1519242541968,-0.085205,-0.994873,0.055420
1519242541971,-0.086426,-0.946289,0.079346
1519242541986,-0.099609,-1.002930,0.026367
1519242542019,-0.091309,-0.932617,0.006836
1519242542036,-0.101563,-0.998535,-0.034424
1519242542088,-0.110840,-1.016357,-0.015625
1519242542102,-0.101563,-1.014893,0.006836
1519242542136,-0.102295,-0.962402,-0.018311
1519242542185,-0.091309,-0.966064,0.026611
1519242542202,-0.099854,-0.963379,0.043213
1519242542235,-0.088379,-0.983887,0.030029
1519242542269,-0.101318,-1.001953,0.024414
1519242542303,-0.115723,-1.039063,-0.044678
1519242542335,-0.099609,-0.972412,-0.018555
1519242542369,-0.083496,-0.956299,-0.012451
1519242542402,-0.117676,-0.998535,-0.050781
1519242542437,-0.093750,-0.972168,-0.036133
1519242542471,-0.089600,-0.994873,0.006348
1519242542503,-0.095703,-1.008545,0.011963
1519242542536,-0.103760,-0.966309,-0.011475
1519242542570,-0.093506,-0.976074,-0.030273
1519242542602,-0.098145,-0.999023,-0.008545
1519242542627,-0.101074,-0.998779,-0.020264
1519242542666,-0.103027,-0.967773,-0.008545
1519242542684,-0.097900,-0.969971,0.000732
1519242542716,-0.097168,-0.973633,-0.000488
1519242542751,-0.100342,-1.000244,0.000732
1519242542784,-0.107178,-0.995117,-0.040527
1519242542818,-0.097900,-0.980713,-0.036865
1519242542854,-0.099365,-0.982422,-0.007568
1519242542886,-0.107422,-0.997803,-0.015137
1519242542928,-0.100342,-0.992920,-0.000732
1519242542951,-0.106689,-0.976074,-0.008545
1519242543004,-0.101807,-0.981934,0.002930
1519242543017,-0.102051,-0.969971,0.006104
1519242543051,-0.102783,-0.989746,-0.002686
1519242543085,-0.107422,-0.993164,-0.011719
1519242543100,-0.103516,-0.986816,0.011963
1519242543151,-0.101074,-0.980713,-0.004395
1519242543167,-0.108154,-0.992676,0.005371
1519242543199,-0.102539,-0.983154,0.008057
1519242543247,-0.101563,-0.992676,-0.020996
1519242543265,-0.109863,-0.982422,-0.013184
1519242543298,-0.105225,-0.979492,-0.001221
1519242543332,-0.102295,-0.986572,-0.011475
1519242543366,-0.088379,-0.971191,0.043945
1519242543398,-0.098633,-1.011963,0.010986
1519242543432,-0.100586,-0.992188,-0.010986
1519242543465,-0.100342,-0.970947,-0.003174
1519242543501,-0.104004,-0.974609,-0.010742
1519242543532,-0.101318,-0.983887,0.005127
1519242543566,-0.098633,-0.984619,0.002197
1519242543599,-0.099365,-0.991455,0.000488
1519242543630,-0.100098,-0.980469,0.003906
1519242543664,-0.099609,-0.976807,-0.000488
1519242543689,-0.101074,-0.975586,-0.005127
1519242543732,-0.099121,-0.982666,-0.006836
1519242543748,-0.096436,-0.988281,0.001221
1519242543781,-0.106201,-0.991699,-0.013916
1519242543813,-0.099609,-0.993164,-0.008789
1519242543855,-0.098389,-0.968018,-0.006348
1519242543879,-0.100830,-1.029053,-0.032715
1519242543913,-0.104248,-1.012207,-0.055420
1519242543947,-0.112793,-0.948730,-0.032959
1519242543983,-0.104980,-1.004395,0.006836
1519242544013,-0.117432,-0.921631,-0.054443
1519242544047,-0.097656,-0.959473,-0.050293
1519242544086,-0.112793,-0.987305,-0.044678
1519242544114,-0.086182,-0.965820,0.007568
1519242544146,-0.106934,-1.012451,-0.026367
1519242544163,-0.108887,-0.998779,-0.030273
1519242544211,-0.116699,-0.953369,-0.095703
1519242544243,-0.114746,-0.966309,-0.088623
1519242544283,-0.094727,-0.995361,-0.038818
1519242544312,-0.095459,-0.959229,0.014648
1519242544329,-0.102295,-1.027832,-0.012695
1519242544361,-0.105713,-0.960693,-0.035889
1519242544394,-0.124268,-1.010498,-0.083008
1519242544426,-0.118652,-0.983643,-0.067627
1519242544460,-0.105713,-0.976318,-0.025635
1519242544495,-0.054199,-0.981689,0.123535
1519242544529,-0.098145,-1.048096,0.065674
1519242544561,-0.112549,-0.959229,-0.045410
1519242544595,-0.116943,-0.963379,-0.056152
1519242544628,-0.094971,-0.982910,0.027344
1519242544660,-0.086914,-0.955566,0.067871
1519242544692,-0.093506,-1.003662,-0.005127
1519242544725,-0.099854,-0.995361,-0.016846
1519242544743,-0.101074,-0.916260,-0.037842
1519242544792,-0.105225,-0.993896,-0.036621
1519242544810,-0.112549,-1.011475,-0.035156
1519242544842,-0.100586,-0.985596,-0.014404
1519242544892,-0.100586,-0.974121,-0.008301
1519242544909,-0.113037,-0.983887,-0.035156
1519242544942,-0.101318,-0.984863,-0.029297
1519242544976,-0.097168,-0.998535,-0.025146
1519242545009,-0.084473,-0.966064,-0.008789
1519242545042,-0.101318,-1.001709,-0.010742
1519242545076,-0.117676,-0.983398,-0.063232
1519242545110,-0.113281,-0.971191,-0.070801
1519242545141,-0.103027,-0.994873,-0.031738
1519242545174,-0.083008,-0.975098,0.016846
1519242545208,-0.105957,-1.008789,0.011475
1519242545230,-0.112549,-0.997559,-0.016113
1519242545274,-0.093506,-0.940918,0.001709
1519242545308,-0.088623,-0.993408,0.034424
1519242545326,-0.093018,-0.992188,0.041260
1519242545374,-0.089844,-0.983643,0.025146
1519242545391,-0.106934,-0.960938,0.006348
1519242545422,-0.099609,-0.963135,-0.000488
1519242545457,-0.114258,-0.973145,-0.033447
1519242545491,-0.102295,-0.994629,-0.032715
1519242545525,-0.098877,-0.981445,0.004150
1519242545564,-0.104492,-1.006592,0.002930
1519242545589,-0.080811,-0.963135,-0.013672
1519242545625,-0.105713,-0.987305,-0.029785
1519242545667,-0.114502,-0.986572,-0.092773
1519242545690,-0.109375,-0.987061,-0.109619
1519242545723,-0.103516,-0.983887,-0.093262
1519242545758,-0.104004,-0.988770,-0.061279
1519242545788,-0.109863,-1.001709,-0.097900
1519242545806,-0.098877,-0.974121,-0.092773
1519242545862,-0.103760,-0.993408,-0.076904
1519242545879,-0.093018,-0.998047,-0.061035
1519242545904,-0.104004,-0.971436,-0.081299
1519242545955,-0.119873,-0.999512,-0.161865
1519242545972,-0.105713,-0.996094,-0.197754
1519242546006,-0.106201,-0.893799,-0.194092
1519242546041,-0.125488,-0.882813,-0.216309
1519242546072,-0.123047,-1.010498,-0.240967
1519242546106,-0.112305,-0.979736,-0.177490
1519242546138,-0.105957,-0.931152,-0.119385
1519242546172,-0.105225,-0.937988,-0.109375
1519242546205,-0.111328,-0.981201,-0.145996
1519242546238,-0.100830,-0.990234,-0.139648
1519242546271,-0.096680,-0.976563,-0.109863
1519242546302,-0.096680,-0.965088,-0.105469
1519242546338,-0.103516,-0.997803,-0.122314
1519242546370,-0.097656,-0.991699,-0.111572
1519242546388,-0.094971,-0.974365,-0.120117
1519242546456,-0.097656,-0.996582,-0.100342
1519242546463,-0.087891,-1.008301,-0.107910
1519242546526,-0.093262,-0.982422,-0.102539
1519242546534,-0.079590,-0.982666,-0.065430
1519242546592,-0.080322,-0.967773,-0.045410
1519242546596,-0.085449,-0.994141,-0.047852
1519242546663,-0.086914,-0.993652,-0.062012
1519242546671,-0.085693,-0.979736,-0.067627
1519242546732,-0.083740,-0.981689,-0.074707
1519242546741,-0.088379,-0.995850,-0.060303
1519242546800,-0.086670,-0.969971,-0.056152
1519242546805,-0.081543,-0.975586,-0.054443
1519242546870,-0.076416,-0.968018,-0.041992
1519242546934,-0.082764,-0.989990,-0.043457
1519242546937,-0.088623,-1.002686,-0.072510
1519242546960,-0.076904,-0.945801,-0.031738
1519242546968,-0.087891,-0.986572,-0.028076
1519242546976,-0.096191,-1.004150,-0.039551
1519242547016,-0.091553,-0.966064,-0.034424
1519242547034,-0.083740,-0.960205,-0.025879
1519242547068,-0.093018,-1.020020,-0.036865
1519242547102,-0.078369,-0.959229,-0.027100
1519242547135,-0.078613,-0.954346,-0.012207
1519242547168,-0.080811,-1.007813,-0.027344
1519242547201,-0.085449,-0.995361,-0.023193
1519242547235,-0.081543,-0.976563,-0.015869
1519242547277,-0.087646,-0.976563,-0.007568
1519242547302,-0.084473,-0.990967,-0.005615
1519242547331,-0.084961,-0.979004,-0.012207
1519242547366,-0.089844,-0.990234,-0.007813
1519242547399,-0.099365,-0.973389,-0.027100
1519242547432,-0.107666,-0.968506,-0.051270
1519242547449,-0.090088,-0.983398,-0.043945
1519242547499,-0.080811,-1.009521,0.022949
1519242547527,-0.094482,-1.022217,0.008301
1519242547553,-0.093994,-0.983887,-0.001709
1519242547584,-0.092773,-0.940430,-0.007568
1519242547614,-0.089844,-0.988037,0.003906
1519242547649,-0.088379,-0.995361,0.013916
1519242547688,-0.095215,-0.999268,-0.012695
1519242547712,-0.093018,-0.985596,0.004883
1519242547748,-0.102295,-0.990967,-0.002930
1519242547780,-0.089355,-0.995605,0.001709
1519242547814,-0.087158,-0.953369,0.018311
1519242547847,-0.084473,-0.981445,0.016357
1519242547880,-0.087646,-0.995850,0.011719
1519242547912,-0.098877,-0.980957,-0.020508
1519242547931,-0.095703,-0.990723,-0.029785
1519242547981,-0.086670,-0.968994,0.002197
1519242548014,-0.098389,-1.002930,-0.022217
1519242548030,-0.089844,-1.029785,-0.084229
1519242548083,-0.095459,-0.973633,-0.028809
1519242548098,-0.091064,-0.993164,0.014404
1519242548131,-0.092285,-0.980957,0.027832
1519242548165,-0.086914,-0.991943,0.020752
1519242548197,-0.066895,-0.951416,0.065918
1519242548229,-0.118164,-0.943115,0.046387
1519242548262,-0.123047,-1.041992,-0.061768
1519242548295,-0.095947,-1.019287,-0.038086
1519242548327,-0.088135,-0.937500,-0.008301
1519242548367,-0.089355,-0.996826,0.023193
1519242548393,-0.062256,-0.957764,0.039063
1519242548427,-0.087158,-0.972168,0.005615
1519242548463,-0.110840,-1.070557,-0.088867
1519242548495,-0.096191,-0.986328,-0.057861
1519242548520,-0.112305,-0.970459,0.024170
1519242548561,-0.098145,-0.966797,0.053711
1519242548599,-0.069336,-0.967041,0.069824
1519242548611,-0.091064,-0.933838,0.017822
1519242548662,-0.111084,-1.011475,-0.085205
1519242548678,-0.099121,-0.959473,-0.013672
1519242548710,-0.108398,-0.982178,-0.013428
1519242548744,-0.090820,-0.973633,-0.013428
1519242548779,-0.097168,-0.967285,0.005127
1519242548811,-0.099121,-0.997070,0.013428
1519242548844,-0.102051,-0.967041,0.018799
1519242548904,-0.110352,-1.010010,-0.035156
1519242548910,-0.122314,-1.026367,-0.090332
1519242548946,-0.093018,-0.957764,-0.066406
1519242548976,-0.068604,-0.922607,0.016357
1519242548993,-0.090332,-1.013672,0.012451
1519242549042,-0.100830,-1.005127,-0.032227
1519242549078,-0.086914,-0.982422,-0.008057
1519242549114,-0.099854,-0.987549,-0.012207
1519242549144,-0.079102,-0.942871,0.001953
1519242549162,-0.080566,-0.997559,0.096436
1519242549192,-0.102539,-0.997803,0.022461
1519242549227,-0.107666,-0.905518,-0.063477
1519242549259,-0.117188,-1.031494,-0.071777
1519242549293,-0.107178,-0.969971,-0.027100
1519242549324,-0.061768,-0.931885,0.020996
1519242549357,-0.106445,-0.956299,-0.017822
1519242549401,-0.115723,-0.990967,-0.056152
1519242549424,-0.104492,-1.023926,-0.049805
1519242549457,-0.090332,-0.988037,0.044678
1519242549491,-0.125000,-0.996582,-0.016846
1519242549525,-0.114258,-0.937012,-0.050049
1519242549559,-0.106934,-0.954590,-0.008789
1519242549574,-0.118652,-1.006836,-0.011475
1519242549624,-0.114014,-1.012695,-0.011475
1519242549644,-0.089111,-0.967285,-0.009033
1519242549672,-0.107666,-0.956787,0.005615
1519242549725,-0.094971,-0.976563,0.019531
1519242549740,-0.083496,-0.987305,0.025635
1519242549775,-0.090088,-0.992188,-0.001465
1519242549806,-0.102539,-1.014160,-0.025879
1519242549839,-0.100098,-1.001221,-0.019775
1519242549872,-0.095459,-0.983154,-0.022217
1519242549905,-0.103516,-0.952881,-0.003418
1519242549939,-0.096191,-0.960938,0.023193
1519242549972,-0.081055,-1.008545,0.012939
1519242550007,-0.095703,-1.000000,-0.022705
1519242550039,-0.084961,-0.977539,-0.029541
1519242550074,-0.090576,-0.945801,0.018555
1519242550106,-0.095703,-1.011475,-0.005371
1519242550139,-0.086426,-0.999023,-0.004150
1519242550157,-0.072266,-0.976074,0.066162
1519242550206,-0.077393,-0.925781,0.036377
1519242550221,-0.095703,-1.030273,0.005127
1519242550253,-0.084473,-1.031494,0.000488
1519242550290,-0.089355,-0.949951,-0.000488
1519242550321,-0.090088,-0.979736,-0.000244
1519242550354,-0.064453,-0.982666,0.026123
1519242550386,-0.085693,-1.018066,-0.009521
1519242550420,-0.096680,-0.990967,-0.026855
1519242550453,-0.079834,-0.928467,0.040283
1519242550486,-0.098145,-1.007568,0.040771
1519242550521,-0.101563,-1.012939,-0.016602
1519242550552,-0.085449,-0.966309,-0.038086
1519242550587,-0.100830,-0.986328,-0.028809
1519242550621,-0.096924,-0.987549,0.029785
1519242550638,-0.084229,-1.029785,0.001953
1519242550686,-0.097412,-0.984375,-0.034180
1519242550719,-0.097900,-0.975342,-0.020020
1519242550737,-0.095459,-1.007080,-0.019043
1519242550786,-0.080566,-0.994629,0.019775
1519242550802,-0.089355,-0.972900,0.076660
1519242550836,-0.071289,-0.956055,0.035400
1519242550873,-0.102783,-0.998535,-0.001465
1519242550902,-0.088867,-0.995117,0.005859
1519242550934,-0.105957,-0.949219,-0.011719
1519242550968,-0.092529,-0.949463,-0.042969
1519242551002,-0.091797,-0.919922,-0.006836
1519242551036,-0.112549,-1.028564,-0.075439
1519242551070,-0.100586,-0.957275,-0.088867
1519242551101,-0.099609,-0.972412,-0.057617
1519242551136,-0.104492,-0.998779,-0.079834
1519242551171,-0.111572,-0.977051,-0.114990
1519242551201,-0.100830,-0.992920,-0.082275
1519242551218,-0.094727,-0.983154,-0.041748
1519242551275,-0.099854,-0.987549,-0.054688
1519242551284,-0.101074,-0.975098,-0.053467
1519242551316,-0.095703,-0.984619,-0.039795
1519242551366,-0.098633,-0.977051,-0.047852
1519242551382,-0.100586,-0.977295,-0.062744
1519242551448,-0.094727,-0.991455,-0.061768
1519242551518,-0.096191,-1.005615,-0.051514
1519242551585,-0.096680,-0.989014,-0.042236
1519242551593,-0.093994,-0.976563,-0.035889
1519242551653,-0.094238,-0.990234,-0.038818
1519242551657,-0.093506,-0.985107,-0.033447
1519242551721,-0.096680,-0.973633,-0.040527
1519242551726,-0.092773,-0.973633,0.008301
1519242551789,-0.085938,-0.997314,-0.050537
1519242551795,-0.103516,-0.995117,-0.055908
1519242551859,-0.095703,-0.970947,-0.052979
1519242551867,-0.091553,-0.965332,-0.037842
1519242551926,-0.088379,-0.979736,-0.023438
1519242551929,-0.096680,-0.981689,-0.018311
1519242551936,-0.093018,-0.979248,-0.052979
1519242551939,-0.096191,-0.993164,-0.093506
1519242551962,-0.083252,-0.988525,-0.063232
1519242551965,-0.082764,-0.996582,-0.050537
1519242551997,-0.091309,-0.986084,-0.056641
1519242552042,-0.090332,-0.980713,-0.068115
1519242552062,-0.093994,-0.980713,-0.074463
1519242552097,-0.087891,-0.979980,-0.071289
1519242552137,-0.089600,-0.988281,-0.064453
1519242552162,-0.090332,-0.990479,-0.068359
1519242552198,-0.091064,-0.997314,-0.067139
1519242552232,-0.084473,-0.981445,-0.067383
1519242552264,-0.088867,-0.973389,-0.071045
1519242552280,-0.085693,-0.981201,-0.074707
1519242552330,-0.091064,-0.982422,-0.072266
1519242552347,-0.084473,-0.991211,-0.062012
1519242552378,-0.088379,-0.985596,-0.064697
1519242552428,-0.085449,-0.975830,-0.061279
1519242552444,-0.087158,-0.971191,-0.062256
1519242552479,-0.087646,-0.975342,-0.060791
1519242552513,-0.083984,-0.986328,-0.064697
1519242552546,-0.087891,-0.991455,-0.057373
1519242552579,-0.083496,-0.990479,-0.054199
1519242552614,-0.083008,-0.979248,-0.065430
1519242552646,-0.085693,-0.969238,-0.061035
1519242552680,-0.084961,-0.973145,-0.058594
1519242552712,-0.081055,-0.998779,-0.060791
1519242552746,-0.084473,-0.994141,-0.057617
1519242552763,-0.082520,-0.981445,-0.061523
1519242552810,-0.088867,-0.979492,-0.058350
1519242552845,-0.081055,-0.983643,-0.060059
1519242552872,-0.081299,-0.985107,-0.063721
1519242552910,-0.087158,-0.977783,-0.054932
1519242552927,-0.084473,-0.978760,-0.050781
1519242552961,-0.078613,-0.978027,-0.049561
1519242552995,-0.073730,-0.973145,-0.050537
1519242553027,-0.065674,-0.969727,-0.064209
1519242553059,-0.080322,-0.966797,-0.066406
1519242553093,-0.095215,-0.966309,-0.057617
1519242553126,-0.083008,-0.977295,-0.053223
1519242553160,-0.071533,-0.994873,-0.061035
1519242553196,-0.078125,-1.015625,-0.107910
1519242553242,-0.062012,-0.995117,-0.127930
1519242553260,-0.060547,-0.974609,-0.127197
1519242553300,-0.075684,-0.962402,-0.144531
1519242553327,-0.066650,-0.953125,-0.122314
1519242553374,-0.091064,-0.885010,-0.110840
1519242553391,-0.077637,-0.963867,-0.125000
1519242553409,-0.047363,-1.037842,-0.129639
1519242553445,-0.030029,-1.022949,-0.118164
1519242553492,-0.036621,-0.983154,-0.140381
1519242553518,-0.061035,-0.995850,-0.171631
1519242553543,-0.058105,-1.019531,-0.163330
1519242553595,-0.037842,-0.971436,-0.125000
1519242553609,-0.044434,-0.949463,-0.126465
1519242553641,-0.056396,-0.971191,-0.135254
1519242553676,-0.055908,-0.995117,-0.159180
1519242553708,-0.049316,-0.995850,-0.167969
1519242553742,-0.045898,-0.970215,-0.169922
1519242553775,-0.055420,-0.931396,-0.163330
1519242553808,-0.062500,-0.974609,-0.150635
1519242553840,-0.057373,-0.999023,-0.133057
1519242553877,-0.019287,-1.048340,-0.124268
1519242553906,-0.006104,-1.001953,-0.140625
1519242553922,-0.031494,-1.009766,-0.123535
1519242553974,-0.031250,-0.960938,-0.104004
1519242553992,-0.031982,-0.926025,-0.162598
1519242554025,-0.045410,-0.956299,-0.192627
1519242554057,-0.137695,-0.959961,-0.214111
1519242554090,-0.131104,-1.022705,-0.129150
1519242554129,-0.172363,-0.939941,-0.163330
1519242554157,-0.123779,-0.933350,-0.197754
1519242554191,-0.082031,-0.850586,-0.216797
1519242554223,-0.103271,-0.770020,-0.305664
1519242554257,-0.111572,-0.883301,-0.393066
1519242554289,-0.034424,-0.914551,-0.393311
1519242554323,-0.096924,-0.945557,-0.377686
1519242554356,-0.083496,-0.993896,-0.356689
1519242554391,-0.095703,-1.035889,-0.316650
1519242554405,-0.074707,-1.045410,-0.261475
1519242554454,-0.054443,-0.869385,-0.259766
1519242554487,-0.038330,-0.827637,-0.289551
1519242554523,-0.138428,-0.851807,-0.374268
1519242554556,-0.144531,-0.981689,-0.366699
1519242554572,-0.087402,-0.974609,-0.365479
1519242554604,-0.093750,-1.020752,-0.394775
1519242554639,-0.045654,-1.024658,-0.401367
1519242554672,-0.061523,-0.907715,-0.312988
1519242554705,-0.089355,-0.871582,-0.262695
1519242554739,-0.077881,-0.886963,-0.397461
1519242554769,-0.078857,-0.934082,-0.413086
1519242554805,-0.077881,-0.967041,-0.335938
1519242554837,0.028076,-1.092773,-0.398438
1519242554876,-0.029541,-1.142822,-0.373047
1519242554907,-0.118164,-1.050049,-0.231934
1519242554942,-0.196045,-0.805420,0.010254
1519242554970,-0.097168,-0.798096,0.085205
1519242554987,-0.063721,-0.898438,-0.061768
1519242555036,-0.015137,-1.039063,-0.221436
1519242555053,0.120117,-1.275879,-0.192627
1519242555086,0.125977,-1.294434,-0.074951
1519242555136,0.210205,-1.167236,-0.005615
1519242555153,0.104736,-0.977783,-0.097412
1519242555186,0.035889,-0.770996,-0.086670
1519242555219,-0.072266,-0.621582,-0.109131
1519242555252,-0.188721,-0.495850,-0.087158
1519242555286,-0.323486,-0.510742,-0.075439
1519242555318,-0.392578,-0.612061,-0.185791
1519242555351,-0.512451,-0.927490,-0.223877
1519242555386,-0.268555,-1.420654,0.025146
1519242555416,-0.063232,-1.119873,0.040527
1519242555450,0.023193,-1.116211,-0.169678
1519242555466,0.175537,-0.991699,-0.529541
1519242555517,0.243164,-1.051025,-0.275391
1519242555552,0.164551,-1.047607,-0.117432
1519242555568,0.139160,-1.045898,-0.044189
1519242555618,-0.022949,-0.926025,-0.095947
1519242555634,-0.041748,-0.930664,-0.163818
1519242555667,-0.023926,-0.952881,-0.181641
1519242555701,-0.080078,-0.900635,-0.186523
1519242555735,-0.041992,-1.055176,-0.213135
1519242555767,-0.030762,-1.029297,-0.290771
1519242555804,-0.000732,-0.973145,-0.240723
1519242555832,0.034912,-0.899170,-0.247559
1519242555874,0.103516,-0.918945,-0.205811
1519242555898,0.103271,-0.938721,-0.306885
1519242555932,0.020264,-0.965332,-0.347168
1519242555965,0.004883,-1.031006,-0.326904
1519242555999,0.005127,-1.023682,-0.314453
1519242556033,0.010254,-0.968506,-0.318848
1519242556050,-0.002441,-0.926758,-0.313965
1519242556100,-0.015381,-0.869141,-0.287842
1519242556114,-0.013672,-0.894287,-0.296143
1519242556149,0.005127,-0.917236,-0.288818
1519242556199,0.014160,-1.020508,-0.269043
1519242556215,0.021973,-1.033691,-0.231689
1519242556249,0.038574,-0.922852,-0.172607
1519242556282,0.017822,-0.935791,-0.190430
1519242556316,0.014893,-0.960693,-0.200195
1519242556348,0.017822,-0.957520,-0.212891
1519242556382,0.012939,-0.964111,-0.230713
1519242556445,0.021240,-0.961914,-0.219971
1519242556448,0.021484,-0.982910,-0.203613
1519242556513,0.020996,-0.980957,-0.186035
1519242556516,0.021484,-0.945068,-0.180176
1519242556581,0.019043,-0.966064,-0.177979
1519242556590,0.021484,-0.982666,-0.190186
1519242556651,0.024170,-0.949951,-0.182129
1519242556659,0.019531,-0.966553,-0.182373
1519242556721,0.023193,-0.974609,-0.178467
1519242556729,0.021973,-0.981445,-0.180176
1519242556787,0.025635,-0.965332,-0.170898
1519242556795,0.023438,-0.968506,-0.169434
1519242556855,0.019287,-0.980225,-0.166260
1519242556861,0.024170,-0.964355,-0.165283
1519242556924,0.023193,-0.957031,-0.158203
1519242556926,0.025391,-0.966797,-0.162354
1519242556932,0.024414,-0.961670,-0.160400
1519242556960,0.038086,-0.925781,-0.199463
1519242556993,0.027100,-0.936523,-0.174805
1519242557031,0.017334,-0.981201,-0.199463
1519242557084,0.021729,-1.056152,-0.171387
1519242557095,0.034912,-0.991943,-0.158691
1519242557112,0.026367,-0.990967,-0.147949
1519242557162,0.018799,-0.950928,-0.152344
1519242557180,0.017822,-0.977051,-0.128418
1519242557211,0.028809,-0.953857,-0.112793
1519242557262,0.034424,-0.991699,-0.106689
1519242557278,0.035400,-0.994873,-0.097412
1519242557309,0.028809,-0.982666,-0.093750
1519242557351,0.021240,-0.960693,-0.082031
1519242557378,0.021729,-0.961182,-0.096436
1519242557409,0.037109,-0.965088,-0.112793
1519242557443,0.017578,-0.944336,-0.088135
1519242557475,0.017822,-1.016113,-0.103027
1519242557509,0.021240,-0.981689,-0.107178
1519242557543,0.025391,-0.971191,-0.129639
1519242557577,0.027588,-0.968506,-0.130127
1519242557610,0.030518,-0.988037,-0.136475
1519242557644,0.031006,-0.987793,-0.141357
1519242557676,0.027100,-0.975586,-0.134277
1519242557693,0.033203,-0.968262,-0.135498
1519242557755,0.029297,-0.966309,-0.127441
1519242557764,0.028320,-0.978760,-0.141357
1519242557792,0.029053,-0.991943,-0.155518
1519242557823,0.025391,-0.986084,-0.163330
1519242557857,0.025879,-0.970947,-0.151367
1519242557890,0.031006,-0.957031,-0.138428
1519242557923,0.033447,-0.976807,-0.128662
1519242557957,0.035156,-0.986084,-0.134033
1519242557993,0.032959,-0.975342,-0.142822
1519242558026,0.025635,-0.972656,-0.145264
1519242558059,0.024902,-0.972656,-0.146484
1519242558092,0.025635,-0.966064,-0.148193
1519242558124,0.032959,-0.923096,-0.137207
1519242558159,0.044434,-0.992188,-0.152100
1519242558174,0.036621,-1.011963,-0.170898
1519242558225,0.035889,-0.990723,-0.160156
1519242558256,0.023682,-0.962891,-0.151123
1519242558273,0.033447,-0.961182,-0.173340
1519242558325,0.028564,-0.995117,-0.151855
1519242558362,0.038330,-0.944092,-0.141602
1519242558372,0.038818,-0.967773,-0.148926
1519242558420,0.030762,-0.991943,-0.178711
1519242558439,0.031006,-0.961426,-0.172852
1519242558471,0.030762,-0.981201,-0.160889
1519242558505,0.024902,-0.992432,-0.175293
1519242558547,0.034424,-0.990234,-0.134766
1519242558573,0.032471,-0.989746,-0.135986
1519242558606,0.027832,-0.947998,-0.145020
1519242558641,0.021729,-0.957520,-0.126465
1519242558672,0.018799,-0.982910,-0.166504
1519242558705,0.030273,-0.975830,-0.119141
1519242558738,0.036133,-0.956787,-0.092041
1519242558754,0.026367,-0.978760,-0.128174
1519242558805,0.028809,-0.979980,-0.128906
1519242558821,0.034180,-0.990234,-0.123779
1519242558854,0.026611,-0.982910,-0.128418
1519242558904,0.032471,-0.984863,-0.114502
1519242558925,0.030762,-0.984619,-0.114990
1519242558953,0.029541,-0.981201,-0.117188
1519242558987,0.029785,-0.978027,-0.129150
1519242559020,0.032227,-0.972656,-0.123047
1519242559054,0.038574,-0.970703,-0.117920
1519242559088,0.036865,-0.986084,-0.120605
1519242559121,0.036377,-0.979004,-0.122559
1519242559155,0.036133,-0.971191,-0.125000
1519242559187,0.038574,-0.972412,-0.131836
1519242559220,0.037598,-0.978516,-0.127930
1519242559237,0.036133,-0.986572,-0.132080
1519242559287,0.036133,-0.979736,-0.144531
1519242559319,0.034668,-0.970459,-0.127197
1519242559337,0.038818,-0.971436,-0.133301
1519242559385,0.037598,-0.986328,-0.136230
1519242559404,0.038086,-0.974854,-0.134033
1519242559436,0.037354,-0.978271,-0.133789
1519242559477,0.037109,-0.976318,-0.135742
1519242559502,0.038086,-0.979004,-0.135254
1519242559552,0.042236,-0.973145,-0.131592
1519242559569,0.041992,-0.973145,-0.141846
1519242559601,0.038330,-0.936768,-0.153076
1519242559643,0.029297,-0.969238,-0.147217
1519242559669,0.047119,-1.006104,-0.142090
1519242559702,0.037354,-0.992676,-0.143311
1519242559737,0.041260,-0.975342,-0.152100
1519242559768,0.039307,-0.977051,-0.142578
1519242559800,0.041260,-0.966064,-0.137207
1519242559818,0.041748,-0.975342,-0.138672
1519242559867,0.043945,-0.980713,-0.148682
1519242559883,0.025879,-0.967041,-0.151367
1519242559921,0.042480,-0.981689,-0.145020
1519242559965,0.037842,-0.972412,-0.143555
1519242559983,0.038574,-0.974365,-0.140625
1519242560016,0.039063,-0.980957,-0.141357
1519242560050,0.044678,-0.971191,-0.137695
1519242560085,0.041504,-0.976807,-0.146240
1519242560118,0.040039,-0.978271,-0.148438
1519242560151,0.044678,-0.971191,-0.141357
1519242560184,0.039307,-0.963379,-0.134277
1519242560217,0.028320,-0.966553,-0.131836
1519242560250,0.038818,-0.992432,-0.143555
1519242560284,0.047607,-0.995605,-0.140869
1519242560299,0.043945,-0.982178,-0.137939
1519242560348,0.032471,-0.960938,-0.146973
1519242560384,0.031982,-0.964600,-0.147461
1519242560415,0.044189,-0.973633,-0.133057
1519242560448,0.052246,-0.983398,-0.123291
1519242560487,0.065674,-0.981934,-0.122070
1519242560498,0.026855,-0.974609,-0.103027
1519242560534,0.042236,-1.000488,-0.197754
1519242560565,0.031982,-0.974365,-0.139404
1519242560597,0.027100,-0.968994,-0.148438
1519242560637,0.033691,-0.966553,-0.135498
1519242560665,0.041504,-0.970703,-0.121338
1519242560725,0.046387,-0.976074,-0.122559
1519242560734,0.049805,-0.983643,-0.143311
1519242560765,0.047363,-0.977295,-0.145996
1519242560805,0.039795,-0.976074,-0.134766
1519242560831,0.037598,-0.979736,-0.137939
1519242560883,0.037598,-0.975098,-0.139404
1519242560892,0.036377,-0.971436,-0.144287
1519242560930,0.040527,-0.977539,-0.142822
1519242560972,0.044678,-0.978271,-0.136230
1519242560981,0.042725,-0.972656,-0.136475
1519242561031,0.042236,-0.967041,-0.136963
1519242561049,0.035889,-0.973633,-0.134033
1519242561081,0.039551,-0.981934,-0.134521
1519242561123,0.041504,-0.986328,-0.144775
1519242561145,0.039795,-0.978027,-0.149414
1519242561195,0.038818,-0.978027,-0.142578
1519242561213,0.043213,-0.977539,-0.137939
1519242561246,0.044678,-0.972900,-0.132080
1519242561280,0.041992,-0.972168,-0.126953
1519242561312,0.043457,-0.977783,-0.134766
1519242561345,0.043457,-0.973877,-0.138184
1519242561376,0.039551,-0.975342,-0.133057
1519242561444,0.039063,-0.979980,-0.128418
1519242561453,0.044922,-0.979492,-0.134277
1519242561511,0.043945,-0.975342,-0.132080
1519242561516,0.038818,-0.973389,-0.130859
1519242561579,0.039551,-0.978027,-0.134277
1519242561649,0.041504,-0.973633,-0.130371
1519242561716,0.043701,-0.978027,-0.130127
1519242561724,0.039063,-0.977051,-0.133301
1519242561785,0.039063,-0.977295,-0.135498
1519242561794,0.040283,-0.975342,-0.131592
1519242561853,0.039307,-0.975830,-0.130127
1519242561860,0.040283,-0.970459,-0.132080
1519242561865,0.041748,-0.977295,-0.132568
1519242561870,0.043213,-0.974121,-0.135498
1519242561875,0.042725,-0.978271,-0.139648
1519242561892,0.043213,-0.978516,-0.140381
1519242561926,0.036621,-0.969971,-0.145264
1519242561993,0.040283,-0.964111,-0.145508
1519242561998,0.038818,-0.974121,-0.140137
1519242562025,0.037842,-0.982178,-0.147949
1519242562041,0.041748,-0.967773,-0.148926
1519242562090,0.035400,-0.973877,-0.151123
1519242562107,0.041992,-0.974854,-0.153564
1519242562140,0.039063,-0.980957,-0.161621
1519242562174,0.033203,-0.973145,-0.165527
1519242562208,0.039307,-0.977295,-0.157715
1519242562241,0.048828,-0.970459,-0.153809
1519242562275,0.053711,-0.970703,-0.160889
1519242562308,0.043945,-0.986572,-0.161133
1519242562341,0.035645,-0.968750,-0.158203
1519242562374,0.030273,-0.967041,-0.161377
1519242562409,0.041016,-0.948242,-0.162598
1519242562440,0.031738,-0.991211,-0.165039
1519242562473,0.045654,-0.964844,-0.188232
1519242562505,0.038330,-0.985840,-0.193359
1519242562523,0.043213,-0.960693,-0.176758
1519242562572,0.039307,-0.971680,-0.166260
1519242562590,0.041748,-0.971680,-0.171631
1519242562624,0.041016,-0.980469,-0.174561
1519242562673,0.039551,-0.947754,-0.169922
1519242562691,0.037354,-0.987061,-0.172607
1519242562724,0.041748,-0.970703,-0.178467
1519242562757,0.041016,-0.990479,-0.166992
1519242562790,0.042725,-0.985352,-0.158203
1519242562824,0.043945,-0.961914,-0.144775
1519242562855,0.041260,-0.972412,-0.138428
1519242562888,0.042969,-0.950439,-0.130371
1519242562923,0.041504,-0.980713,-0.132324
1519242562958,0.043457,-0.975830,-0.130127
1519242562987,0.040771,-0.982910,-0.123291
1519242563003,0.044678,-0.979980,-0.123047
1519242563053,0.042969,-0.968506,-0.123291
1519242563085,0.040283,-0.977295,-0.118408
1519242563103,0.043701,-0.975342,-0.115479
1519242563153,0.043213,-0.981689,-0.110107
1519242563171,0.039307,-0.990723,-0.112793
1519242563204,0.034668,-0.980957,-0.111572
1519242563238,0.039307,-0.986328,-0.104980
1519242563271,0.041992,-0.977783,-0.098633
1519242563304,0.042236,-0.970947,-0.078613
1519242563339,0.041748,-0.973877,-0.071289
1519242563370,0.051025,-0.995361,-0.076172
1519242563405,0.049805,-0.986328,-0.088867
1519242563437,0.043945,-0.986572,-0.093994
1519242563482,0.040039,-0.976074,-0.086426
1519242563502,0.033691,-0.984863,-0.075439
1519242563535,0.034180,-0.982666,-0.066650
1519242563569,0.042480,-0.976074,-0.076416
1519242563585,0.036621,-0.968994,-0.066406
1519242563636,0.037354,-0.981934,-0.075195
1519242563653,0.046875,-0.989990,-0.074707
1519242563687,0.022705,-0.999023,-0.078613
1519242563736,0.055176,-0.975586,-0.061768
1519242563753,0.049316,-0.953369,-0.073486
1519242563786,0.037354,-1.000000,-0.081299
1519242563819,0.032715,-0.979980,-0.071289
1519242563850,0.038330,-0.983887,-0.073730
1519242563884,0.041992,-0.973145,-0.057373
1519242563918,0.042480,-0.984131,-0.070801
1519242563957,0.038086,-0.989746,-0.072754
1519242563984,0.040527,-0.979248,-0.069092
1519242564017,0.044922,-0.985352,-0.069580
1519242564053,0.044189,-0.986572,-0.071533
1519242564070,0.039795,-0.974365,-0.080811
1519242564117,0.037109,-0.960693,-0.086914
1519242564151,0.047363,-1.020996,-0.072510
1519242564168,0.065674,-0.968262,-0.077637
1519242564216,0.029541,-1.049316,-0.115723
1519242564234,0.023438,-0.982910,-0.129395
1519242564269,0.015137,-0.994629,-0.154541
1519242564301,0.017822,-0.937744,-0.191650
1519242564334,0.014404,-0.931885,-0.173096
1519242564366,0.005615,-0.977051,-0.137695
1519242564400,0.016846,-0.960205,-0.146484
1519242564436,0.012207,-0.973633,-0.178467
1519242564469,0.004883,-0.960938,-0.151855
1519242564499,0.018799,-0.970459,-0.169922
1519242564532,0.016357,-0.977783,-0.191162
1519242564565,0.010742,-0.987549,-0.194092
1519242564599,0.019287,-0.982910,-0.184082
1519242564632,0.020020,-0.973389,-0.185791
1519242564650,0.024170,-0.967285,-0.178711
1519242564700,0.024170,-0.962402,-0.169678
1519242564716,0.017578,-0.963379,-0.183838
1519242564763,0.018555,-0.973633,-0.186523
1519242564798,0.019287,-0.974854,-0.182129
1519242564815,0.021729,-0.972168,-0.184326
1519242564847,0.020508,-0.964844,-0.186768
1519242564881,0.022217,-0.971924,-0.186279
1519242564913,0.025635,-0.961914,-0.182861
1519242564956,0.020752,-0.962891,-0.182617
1519242564979,0.028809,-0.990967,-0.180176
1519242565013,0.032227,-0.969727,-0.178711
1519242565048,0.018799,-0.952881,-0.195068
1519242565081,0.035889,-1.007813,-0.179688
1519242565113,0.033203,-0.951904,-0.162842
1519242565146,0.014893,-0.932861,-0.189209
1519242565180,0.024170,-0.980713,-0.219238
1519242565213,0.027588,-0.997314,-0.190186
1519242565230,0.030518,-0.969482,-0.178711
1519242565279,0.037109,-0.963135,-0.194336
1519242565300,0.026367,-0.957520,-0.195801
1519242565331,0.029541,-0.959229,-0.197266
1519242565364,0.030762,-0.967041,-0.203369
1519242565397,0.034668,-0.978516,-0.201660
1519242565429,0.039551,-0.963867,-0.208740
1519242565461,0.030273,-0.967529,-0.168213
1519242565494,0.032471,-0.953125,-0.141357
1519242565528,0.037598,-0.970703,-0.171143
1519242565561,0.027832,-0.969971,-0.198242
1519242565595,0.026123,-0.974609,-0.223877
1519242565628,0.032227,-0.968262,-0.216797
1519242565661,0.035156,-0.969238,-0.204102
1519242565705,0.041260,-0.949707,-0.196289
1519242565713,0.042480,-0.963135,-0.186279
1519242565762,0.029785,-0.961182,-0.177246
1519242565795,0.028320,-0.978271,-0.186035
1519242565810,0.035889,-0.985596,-0.193359
1519242565860,0.037598,-0.966797,-0.190918
1519242565877,0.034180,-0.960693,-0.191895
1519242565909,0.032227,-0.958984,-0.197266
1519242565945,0.048584,-0.957764,-0.172607
1519242565978,0.015869,-0.983398,-0.178711
1519242566009,0.041260,-0.987549,-0.200195
1519242566044,0.041260,-0.978760,-0.191162
1519242566077,0.037598,-0.971191,-0.176758
1519242566109,0.038574,-0.968506,-0.196533
1519242566141,0.041260,-0.938232,-0.137451
1519242566176,0.034668,-0.973145,-0.156250
1519242566211,0.038818,-0.994385,-0.169922
1519242566244,0.016357,-0.997803,-0.185059
1519242566275,0.022949,-0.980469,-0.129150
1519242566292,0.026611,-0.945557,-0.146484
1519242566343,0.026123,-0.962402,-0.179443
1519242566359,0.029297,-0.985596,-0.162842
1519242566391,0.029785,-0.976563,-0.140869
1519242566457,0.037109,-0.947266,-0.152100
1519242566462,0.022949,-0.957764,-0.177246
1519242566524,0.030518,-1.004639,-0.186768
1519242566530,0.031250,-0.978271,-0.162598
1519242566594,0.035400,-0.972168,-0.150391
1519242566602,0.032715,-0.988037,-0.166504
1519242566659,0.036621,-0.989502,-0.156982
1519242566666,0.033447,-0.973633,-0.156982
1519242566728,0.035889,-0.958252,-0.149414
1519242566737,0.035156,-0.968262,-0.140869
1519242566796,0.035889,-0.977783,-0.146973
1519242566804,0.035400,-0.978027,-0.143555
1519242566862,0.039795,-0.991211,-0.125000
1519242566866,0.035645,-0.967773,-0.127441
1519242566923,0.035889,-0.979736,-0.116699
1519242566937,0.034668,-0.968750,-0.118652
1519242566943,0.033447,-0.979492,-0.122314
1519242566973,0.032227,-0.994873,-0.102295
1519242567005,0.044922,-0.965332,-0.119385
1519242567040,0.038086,-0.984375,-0.127441
1519242567075,0.036133,-0.969971,-0.141602
1519242567111,0.041748,-0.970215,-0.125244
1519242567148,0.039795,-0.983398,-0.110352
1519242567159,0.035400,-0.987305,-0.135010
1519242567204,0.038086,-0.982666,-0.130371
1519242567240,0.039063,-0.971436,-0.123535
1519242567257,0.037598,-0.988281,-0.127197
1519242567321,0.038086,-0.990479,-0.124756
1519242567340,0.032227,-0.980713,-0.120117
1519242567359,0.032959,-0.981445,-0.115723
1519242567404,0.032227,-0.980225,-0.104492
1519242567421,0.038330,-0.973877,-0.104736
1519242567456,0.028809,-0.987549,-0.115234
1519242567489,0.033936,-0.981201,-0.105957
1519242567523,0.032715,-0.967285,-0.103271
1519242567559,0.033691,-0.974854,-0.114502
1519242567587,0.033203,-0.969238,-0.107910
1519242567621,0.037109,-0.987549,-0.099854
1519242567656,0.031982,-0.998291,-0.105957
1519242567690,0.029053,-0.979736,-0.111816
1519242567725,0.031494,-0.972900,-0.110107
1519242567740,0.033203,-0.986328,-0.107422
1519242567787,0.032471,-0.982910,-0.104980
1519242567819,0.030762,-0.979736,-0.109863
1519242567837,0.034180,-0.980957,-0.107422
1519242567888,0.032471,-0.986816,-0.107178
1519242567904,0.033691,-0.982910,-0.107178
1519242567939,0.035400,-0.975830,-0.103516
1519242567978,0.032227,-0.979248,-0.104736
1519242568001,0.031982,-0.986084,-0.107910
1519242568036,0.034912,-0.976807,-0.105713
1519242568070,0.033447,-0.976563,-0.106445
1519242568105,0.033936,-0.982178,-0.107666
1519242568137,0.033936,-0.979492,-0.110596
1519242568171,0.034668,-0.976318,-0.103760
1519242568198,0.034912,-0.984375,-0.107666
1519242568234,0.032227,-0.978516,-0.105225
1519242568268,0.031738,-0.977783,-0.111816
1519242568304,0.033203,-0.979980,-0.104004
1519242568322,0.033936,-0.982422,-0.105469
1519242568373,0.033691,-0.977783,-0.106201
1519242568400,0.034668,-0.983154,-0.108398
1519242568419,0.033447,-0.979736,-0.108398
1519242568468,0.036865,-0.980225,-0.106689
1519242568485,0.037598,-0.978271,-0.107178
1519242568524,0.035889,-0.978760,-0.106689
1519242568554,0.035889,-0.973877,-0.105469
1519242568603,0.035645,-0.979492,-0.102539
1519242568617,0.036133,-0.983643,-0.108643
1519242568651,0.032959,-0.980713,-0.105225
1519242568684,0.033203,-0.978516,-0.106445
1519242568718,0.036621,-0.983398,-0.108398
1519242568755,0.035889,-0.980469,-0.103516
1519242568782,0.033936,-0.985107,-0.109375
1519242568816,0.034668,-0.979980,-0.106445
1519242568849,0.035400,-0.979248,-0.105225
1519242568884,0.035156,-0.979980,-0.106201
1519242568901,0.031982,-0.984619,-0.107910
1519242568955,0.032471,-0.981689,-0.115479
1519242568974,0.035400,-0.973877,-0.111572
1519242568996,0.039551,-0.972656,-0.104004
1519242569047,0.039307,-0.974121,-0.110107
1519242569065,0.039795,-0.988037,-0.106934
1519242569099,0.037598,-0.989990,-0.110840
1519242569133,0.036865,-0.985840,-0.122070
1519242569169,0.035400,-0.989258,-0.120361
1519242569196,0.041748,-0.986084,-0.094482
1519242569230,0.048096,-0.987793,-0.065918
1519242569265,0.058594,-0.959961,-0.042480
1519242569299,0.039795,-0.994629,-0.076172
1519242569332,0.040039,-0.974365,-0.089600
1519242569367,0.040771,-0.976318,-0.089600
1519242569395,0.045166,-0.983398,-0.082275
1519242569430,0.049072,-0.973145,-0.076416
1519242569464,0.045654,-0.991699,-0.084961
1519242569482,0.041992,-0.982422,-0.083252
1519242569532,0.043701,-0.987061,-0.078369
1519242569549,0.042969,-0.982910,-0.091797
1519242569576,0.042969,-0.982422,-0.079346
1519242569629,0.041504,-0.983398,-0.075928
1519242569646,0.046143,-0.973389,-0.082764
1519242569680,0.044678,-0.979248,-0.081055
1519242569714,0.044678,-0.976074,-0.078369
1519242569749,0.038818,-0.984375,-0.078125
1519242569776,0.043945,-0.958984,-0.090576
1519242569811,0.043945,-0.964111,-0.084717
1519242569844,0.038086,-1.017578,-0.091309
1519242569881,0.039551,-0.979248,-0.104980
1519242569914,0.040527,-0.987061,-0.103760
1519242569948,0.031982,-0.969482,-0.088135
1519242569965,0.038330,-0.992676,-0.085205
1519242570010,0.041504,-1.003418,-0.087402
1519242570044,0.042480,-0.996094,-0.083008
1519242570062,0.031982,-1.011230,-0.072998
1519242570097,0.031494,-1.002441,-0.059082
1519242570131,0.043945,-0.966064,-0.033203
1519242570165,0.037598,-0.981934,0.022705
1519242570191,0.047119,-0.963135,0.074463
1519242570226,0.039795,-0.962646,0.080078
1519242570261,0.037354,-0.944336,0.090820
1519242570294,0.031006,-0.969482,0.095947
1519242570328,0.035645,-0.981201,0.089111
1519242570362,0.037354,-0.988770,0.079834
1519242570391,0.035645,-0.976563,0.074707
1519242570426,0.033447,-1.001953,0.074219
1519242570459,0.034668,-0.989746,0.067871
1519242570501,0.032959,-0.988770,0.067871
1519242570527,0.032715,-0.982910,0.077393
1519242570544,0.032959,-0.987549,0.078613
1519242570591,0.039063,-0.964355,0.082031
1519242570624,0.028809,-0.939941,0.105957
1519242570642,0.048096,-0.999023,0.069092
1519242570676,0.039063,-0.962646,0.021240
1519242570712,0.025146,-1.000977,-0.016113
1519242570744,0.031738,-0.970215,-0.046387
1519242570788,0.029541,-1.013672,-0.076660
1519242570807,0.032471,-1.014160,-0.092041
1519242570841,0.033203,-1.022949,-0.114258
1519242570874,0.025146,-1.011475,-0.120850
1519242570910,0.029053,-1.014648,-0.107178
1519242570943,0.030762,-1.046631,-0.085693
1519242570971,0.041992,-0.926025,-0.020020
1519242571006,0.034912,-0.967041,0.020508
1519242571040,0.036621,-0.990234,0.065186
1519242571074,0.050049,-0.886719,0.085205
1519242571091,0.035156,-1.001709,0.095947
1519242571126,0.040771,-0.952393,0.079590
1519242571161,0.037109,-0.966309,0.038818
1519242571188,0.034424,-0.969482,0.028564
1519242571222,0.033203,-0.993164,-0.006836
1519242571256,0.036865,-1.005615,-0.035156
1519242571292,0.032959,-1.006104,-0.068604
1519242571327,0.038818,-0.999756,-0.090088
1519242571360,0.049316,-1.103760,-0.134521
1519242571389,0.036377,-1.188232,-0.151611
1519242571455,0.013428,-1.085693,-0.048096
1519242571464,0.059814,-0.939697,-0.006104
1519242571521,0.028076,-0.949219,-0.001465
1519242571589,-0.012939,-0.870117,-0.055908
1519242571597,-0.051270,-0.881348,-0.117676
1519242571656,-0.063721,-0.903809,-0.142334
1519242571664,-0.048340,-0.871338,-0.137207
1519242571723,-0.015381,-0.934570,-0.088379
1519242571788,-0.002930,-0.982910,-0.033447
1519242571796,0.016602,-1.028809,-0.007813
1519242571855,0.017090,-1.066895,-0.045410
1519242571863,0.013184,-1.059326,-0.086182
1519242571922,0.015869,-0.977295,-0.094971
1519242571928,0.022461,-0.953613,-0.068115
1519242571933,0.017334,-0.979248,-0.062012
1519242571941,0.021484,-1.012939,-0.069336
1519242571944,0.027588,-0.997803,-0.062012
1519242571968,0.026611,-0.992188,-0.056641
1519242572002,0.024658,-0.976074,-0.065186
1519242572037,0.020508,-0.976807,-0.066650
1519242572071,0.018555,-0.993408,-0.077881
1519242572089,0.025146,-0.990967,-0.065186
1519242572140,0.029541,-0.963867,-0.058350
1519242572158,0.028564,-0.990723,-0.038818
1519242572184,0.027588,-1.014160,-0.036133
1519242572236,0.024658,-0.954590,-0.060303
1519242572252,0.027100,-0.994873,-0.052246
1519242572289,0.024170,-0.990967,-0.055176
1519242572323,0.018311,-0.998291,-0.041504
1519242572356,0.024658,-0.999268,-0.059082
1519242572386,0.022705,-1.015137,-0.055664
1519242572420,0.014648,-0.959961,-0.039307
1519242572453,0.018066,-0.999268,-0.022461
1519242572487,0.024658,-0.997559,-0.002686
1519242572524,0.034912,-0.973145,0.032227
1519242572556,0.029785,-0.972656,0.052490
1519242572584,0.030518,-0.996826,0.073242
1519242572617,0.026367,-0.972412,0.068848
1519242572651,0.022217,-0.956299,0.075684
1519242572668,0.024658,-1.001709,0.077148
1519242572720,0.027588,-0.996094,0.075439
1519242572736,0.028076,-0.966797,0.082520
1519242572765,0.024902,-0.993164,0.100830
1519242572816,0.023438,-0.968262,0.113525
1519242572833,0.025879,-0.986328,0.117676
1519242572873,0.030518,-0.960693,0.128662
1519242572902,0.024902,-0.973633,0.135986
1519242572936,0.034180,-0.975586,0.126709
1519242572964,0.039551,-0.936768,0.120361
1519242572999,0.029053,-0.988037,0.115967
1519242573033,0.028809,-0.959961,0.086426
1519242573068,0.029053,-0.981934,0.072510
1519242573103,0.032227,-0.990967,0.054932
1519242573137,0.029785,-0.980469,0.027100
1519242573154,0.026855,-1.001221,0.010986
1519242573200,0.029785,-0.981934,-0.012207
1519242573233,0.024414,-1.000488,-0.021240
1519242573249,0.027588,-0.996338,-0.021240
1519242573302,0.028564,-0.983643,-0.033447
1519242573319,0.027344,-0.998779,-0.035645
1519242573352,0.024658,-0.992676,-0.037842
1519242573399,0.027588,-0.982422,-0.044434
1519242573416,0.026855,-1.006836,-0.042725
1519242573453,0.030518,-0.982178,-0.040039
1519242573483,0.030029,-0.980713,-0.039307
1519242573516,0.028564,-0.991699,-0.041504
1519242573550,0.028564,-0.988525,-0.044434
1519242573581,0.030273,-0.983154,-0.037598
1519242573614,0.031738,-0.992188,-0.039551
1519242573650,0.028809,-0.992920,-0.043213
1519242573681,0.029053,-0.978027,-0.042725
1519242573723,0.028809,-0.987793,-0.036133
1519242573734,0.030029,-0.997803,-0.044189
1519242573781,0.026611,-0.982178,-0.041748
1519242573815,0.030518,-0.985840,-0.038574
1519242573832,0.026611,-0.989014,-0.041260
1519242573883,0.029541,-0.988525,-0.039795
1519242573899,0.027100,-0.984619,-0.041748
1519242573932,0.028564,-0.983398,-0.041260
1519242573981,0.026611,-0.991455,-0.041260
1519242573996,0.030029,-0.983887,-0.039795
1519242574029,0.029053,-0.986084,-0.043701
1519242574063,0.027832,-0.995361,-0.052246
1519242574097,0.026611,-0.982178,-0.057617
1519242574132,0.024170,-0.987061,-0.055176
1519242574159,0.025879,-0.981934,-0.058594
1519242574195,0.027344,-0.989014,-0.061768
1519242574230,0.028076,-0.984131,-0.050049
1519242574262,0.028076,-0.980469,-0.067627
1519242574297,0.029053,-0.996094,-0.060791
1519242574314,0.026123,-0.970947,-0.060547
1519242574365,0.027832,-0.980225,-0.061768
1519242574392,0.025879,-1.001709,-0.062744
1519242574410,0.026123,-0.984375,-0.049805
1519242574462,0.032959,-0.985107,-0.071045
1519242574480,0.022949,-0.945313,-0.071533
1519242574513,0.030762,-0.989014,-0.037354
1519242574547,0.026855,-0.979736,-0.065186
1519242574575,0.027100,-0.992920,-0.080811
1519242574611,0.024658,-0.975342,-0.057129
1519242574646,0.022949,-0.978027,-0.089111
1519242574679,0.027344,-1.007568,-0.091064
1519242574711,0.025146,-0.993164,-0.103027
1519242574746,0.029785,-0.961426,-0.047363
1519242574775,0.034668,-0.968018,-0.024658
1519242574810,0.045654,-0.999756,-0.050049
1519242574843,0.022949,-1.011475,-0.072021
1519242574877,0.031738,-0.959961,-0.053467
1519242574894,0.032227,-0.982422,-0.071533
1519242574946,0.033691,-0.958252,-0.085205
1519242574974,0.048584,-1.011719,-0.045166
1519242575002,0.026611,-0.961914,-0.051025
1519242575046,0.031250,-1.003418,-0.047363
1519242575060,0.051514,-1.006836,-0.070313
1519242575095,0.036621,-0.984131,-0.128174
1519242575129,0.037109,-0.961182,-0.114014
1519242575156,0.037598,-0.962158,-0.093262
1519242575191,0.041260,-0.986816,-0.108887
1519242575225,0.038818,-0.992432,-0.162109
1519242575259,0.035156,-0.974609,-0.143311
1519242575292,0.042236,-0.969971,-0.119385
1519242575326,0.047119,-0.981689,-0.115234
1519242575355,0.036865,-0.984863,-0.127441
1519242575390,0.037842,-0.980225,-0.102539
1519242575426,0.034424,-0.984619,-0.087646
1519242575459,0.032715,-0.981689,-0.114746
1519242575475,0.036377,-0.974609,-0.096191
1519242575525,0.027588,-0.991455,-0.092285
1519242575543,0.033936,-0.984863,-0.101807
1519242575571,0.029785,-0.989502,-0.084961
1519242575623,0.025146,-0.945801,-0.117432
1519242575642,0.027100,-0.989014,-0.089111
1519242575676,0.031738,-0.992432,-0.072266
1519242575709,0.038330,-0.988281,-0.084961
1519242575743,0.027588,-0.999268,-0.054932
1519242575772,0.041260,-0.981934,-0.061523
1519242575806,0.039307,-0.971191,-0.069092
1519242575839,0.034912,-0.985596,-0.055664
1519242575874,0.034180,-0.956055,-0.065918
1519242575907,0.034912,-0.990479,-0.053711
1519242575942,0.034912,-0.989258,-0.056641
1519242575970,0.034180,-0.979980,-0.060547
1519242576005,0.030518,-0.980469,-0.064209
1519242576038,0.029297,-0.979736,-0.064697
1519242576056,0.033936,-0.990967,-0.056396
1519242576108,0.034668,-0.992188,-0.052490
1519242576157,0.034424,-0.981201,-0.060547
1519242576165,0.030273,-0.986572,-0.053955
1519242576205,0.031494,-0.986328,-0.052979
1519242576230,0.024170,-0.981689,-0.040283
1519242576256,0.031982,-0.985840,-0.044189
1519242576290,0.051758,-0.990967,-0.047607
1519242576322,0.036865,-0.968506,-0.057129
1519242576351,0.032715,-0.995850,-0.080322
1519242576386,0.038818,-1.009033,-0.038330
1519242576454,0.037842,-0.989746,-0.046875
1519242576519,0.033936,-0.989014,-0.048584
1519242576525,0.031494,-0.980957,-0.048340
1519242576587,0.032471,-0.982178,-0.046631
1519242576592,0.035156,-0.986084,-0.044678
1519242576656,0.036621,-0.985596,-0.048828
1519242576664,0.035156,-0.985107,-0.048584
1519242576724,0.032471,-0.983154,-0.045654
1519242576732,0.035889,-0.990723,-0.045166
1519242576791,0.034180,-0.983398,-0.044678
1519242576800,0.033691,-0.986328,-0.038818
1519242576859,0.033203,-0.981201,-0.049072
1519242576868,0.031494,-0.994141,-0.044434
1519242576923,0.034668,-0.990479,-0.039307
1519242576929,0.033691,-0.979980,-0.042969
1519242576934,0.031250,-0.989014,-0.033203
1519242576940,0.027100,-0.986328,-0.045166
1519242576974,0.026123,-0.985107,-0.033447
1519242576999,0.054688,-0.973389,-0.026611
1519242577034,0.034180,-0.990723,-0.062256
1519242577068,0.032471,-0.977783,-0.019531
1519242577103,0.035889,-0.995361,-0.051758
1519242577121,0.033447,-0.985596,-0.050781
1519242577167,0.032715,-0.982666,-0.033447
1519242577199,0.033936,-0.987549,-0.045166
1519242577217,0.035889,-0.982666,-0.043213
1519242577269,0.034668,-0.984131,-0.038818
1519242577287,0.031738,-0.991455,-0.041260
1519242577319,0.034180,-0.975342,-0.040039
1519242577347,0.036133,-0.993408,-0.042236
1519242577382,0.032471,-0.985840,-0.043945
1519242577416,0.032715,-0.981445,-0.033691
1519242577451,0.032959,-0.976318,-0.039551
1519242577486,0.035645,-0.994385,-0.040527
1519242577517,0.034912,-0.986816,-0.042480
1519242577562,0.034180,-0.984619,-0.041504
1519242577581,0.035156,-0.983643,-0.041748
1519242577617,0.034424,-0.987061,-0.039307
1519242577650,0.035400,-0.985352,-0.037598
1519242577685,0.033936,-0.982666,-0.039063
1519242577701,0.034912,-0.989746,-0.039551
1519242577736,0.033691,-0.988037,-0.042236
1519242577782,0.033691,-0.990723,-0.038818
1519242577799,0.036377,-0.983398,-0.043213
1519242577832,0.031494,-0.984619,-0.034424
1519242577865,0.035156,-0.980957,-0.045410
1519242577900,0.035400,-0.985840,-0.037842
1519242577934,0.034180,-0.990723,-0.024658
1519242577962,0.027832,-0.975830,-0.051270
1519242577996,0.034668,-0.980469,-0.018066
1519242578030,0.040771,-0.990967,-0.020752
1519242578064,0.031738,-0.990723,-0.058350
1519242578100,0.036865,-0.966553,-0.040039
1519242578134,0.038818,-1.027100,-0.046143
1519242578162,0.034912,-0.989746,-0.053467
1519242578195,0.032715,-0.979736,-0.051758
1519242578229,0.034668,-0.973145,-0.036621
1519242578248,0.033447,-1.003906,-0.024658
1519242578282,0.035889,-0.990479,-0.051270
1519242578316,0.032227,-0.981689,-0.044189
1519242578344,0.030273,-0.981445,-0.041748
1519242578379,0.031006,-1.015869,-0.059570
1519242578413,0.035889,-0.944092,-0.077393
1519242578447,0.027588,-0.992188,-0.061768
1519242578481,0.030518,-0.970703,-0.026123
1519242578515,0.034668,-0.961426,-0.031738
1519242578541,0.029297,-0.978760,-0.047119
1519242578576,0.028076,-0.986572,-0.045654
1519242578611,0.026611,-0.961426,-0.023682
1519242578646,0.030029,-0.999756,-0.046631
1519242578679,0.027588,-1.011230,-0.071045
1519242578714,0.031250,-0.979736,-0.030762
1519242578731,0.030762,-0.988037,-0.039551
1519242578760,0.030762,-0.972168,-0.052246
1519242578811,0.029297,-0.985840,-0.073730
1519242578842,0.026855,-1.002930,-0.069824
1519242578862,0.003662,-1.002441,-0.053467
1519242578896,0.021729,-0.881592,-0.156006
1519242578931,0.028320,-0.914795,-0.131104
1519242578958,0.027832,-0.944824,-0.117920
1519242578994,0.005127,-1.005859,-0.177979
1519242579027,0.018066,-1.018799,-0.201660
1519242579061,0.025146,-0.976563,-0.216064
1519242579096,0.030762,-0.990967,-0.222168
1519242579131,0.027344,-0.967529,-0.223389
1519242579158,0.015625,-0.930176,-0.234863
1519242579193,0.024902,-0.958984,-0.216064
1519242579227,0.022461,-0.979492,-0.212891
1519242579244,0.028564,-0.965088,-0.210693
1519242579295,0.023438,-0.978516,-0.210938
1519242579313,0.025635,-0.947754,-0.209961
1519242579339,0.030762,-0.961914,-0.202393
1519242579390,0.029541,-0.967041,-0.198242
1519242579409,0.028809,-0.976074,-0.188477
1519242579443,0.022217,-0.970459,-0.194824
1519242579477,0.022949,-0.959473,-0.217773
1519242579512,0.025391,-0.955078,-0.189453
1519242579539,0.036133,-0.960693,-0.178223
1519242579578,0.026123,-0.990723,-0.206055
1519242579609,0.028320,-0.976318,-0.200684
1519242579643,0.027588,-0.962891,-0.203369
1519242579677,0.026611,-0.960449,-0.207031
1519242579710,0.029053,-0.964111,-0.203125
1519242579728,0.031982,-0.962646,-0.196533
1519242579773,0.029053,-0.968018,-0.198486
1519242579808,0.028076,-0.970459,-0.204102
1519242579826,0.028076,-0.967041,-0.203857
1519242579876,0.024902,-0.966309,-0.207764
1519242579893,0.026367,-0.966064,-0.201172
1519242579929,0.030762,-0.958252,-0.204590
1519242579980,0.030762,-0.974365,-0.198486
1519242579989,0.031982,-0.962891,-0.198486
1519242580023,0.029785,-0.969727,-0.197021
1519242580057,0.026123,-0.963379,-0.199951
1519242580091,0.026611,-0.961670,-0.206787
1519242580127,0.027344,-0.961670,-0.201660
1519242580152,0.029297,-0.966797,-0.196533
1519242580189,0.027344,-0.968262,-0.200195
1519242580224,0.029053,-0.960449,-0.197266
1519242580257,0.032227,-0.958496,-0.192627
1519242580292,0.030273,-0.976074,-0.196289
1519242580310,0.029297,-0.968018,-0.192627
1519242580359,0.030273,-0.959229,-0.193115
1519242580386,0.029297,-0.968506,-0.196533
1519242580428,0.028320,-0.969238,-0.196045
1519242580456,0.032227,-0.966553,-0.192383
1519242580502,0.030518,-0.975098,-0.194336
1519242580507,0.029541,-0.965820,-0.196533
1519242580552,0.029541,-0.965820,-0.191895
1519242580579,0.028564,-0.967773,-0.191162
1519242580604,0.031006,-0.971191,-0.195801
1519242580640,0.029297,-0.962891,-0.192139
1519242580673,0.031982,-0.966064,-0.192627
1519242580707,0.030273,-0.968262,-0.190674
1519242580735,0.030273,-0.969482,-0.188477
1519242580770,0.030273,-0.954590,-0.181641
1519242580903,0.030029,-0.966064,-0.191895
1519242580904,0.030762,-0.980713,-0.189453
1519242580905,0.035400,-0.976074,-0.175293
1519242580905,0.035156,-0.961182,-0.183105
1519242580933,0.028076,-0.967285,-0.184082
1519242580968,0.028076,-0.968262,-0.183594
1519242580985,0.029785,-0.965332,-0.186279
1519242581036,0.031982,-0.968994,-0.183594
1519242581053,0.032959,-0.969727,-0.179688
1519242581087,0.032471,-0.973877,-0.179443
1519242581123,0.030762,-0.971924,-0.182373
1519242581151,0.030273,-0.969482,-0.182617
1519242581185,0.029785,-0.967041,-0.182617
1519242581220,0.033936,-0.968018,-0.180664
1519242581253,0.031250,-0.972900,-0.180420
1519242581288,0.031982,-0.969727,-0.177734
1519242581320,0.031494,-0.971191,-0.181885
1519242581347,0.031250,-0.968506,-0.180664
1519242581439,0.032227,-0.970215,-0.182373
1519242581507,0.032959,-0.966553,-0.175293
1519242581572,0.033447,-0.968262,-0.176025
1519242581577,0.032471,-0.970947,-0.176514
1519242581640,0.029785,-0.972656,-0.174805
1519242581649,0.031006,-0.970947,-0.177979
1519242581708,0.030518,-0.970459,-0.177979
1519242581716,0.031006,-0.969482,-0.176025
1519242581776,0.031494,-0.972412,-0.180176
1519242581784,0.031006,-0.968750,-0.174805
1519242581844,0.031006,-0.973877,-0.173828
1519242581852,0.031250,-0.970215,-0.174805
1519242581910,0.032471,-0.970459,-0.176270
1519242581919,0.031982,-0.970703,-0.172852
1519242581931,0.030029,-0.972656,-0.175049
1519242581935,0.030518,-0.971680,-0.176514
1519242581938,0.034180,-0.965820,-0.170654
1519242581940,0.032227,-0.967041,-0.171387
1519242581973,0.030273,-0.969971,-0.175049
1519242581997,0.032715,-0.973633,-0.175293
1519242582031,0.032227,-0.973145,-0.170166
1519242582048,0.033691,-0.971191,-0.169922
1519242582099,0.032471,-0.968506,-0.171387
1519242582117,0.030273,-0.972168,-0.171387
1519242582144,0.028809,-0.971191,-0.173828
1519242582196,0.031250,-0.972168,-0.173096
1519242582220,0.031982,-0.971191,-0.168701
