1519491465170,0.225342,0.409180,0.906982
1519491465202,0.207520,0.429688,0.907959
1519491465235,0.179688,0.416260,0.905273
1519491465270,0.145020,0.416748,0.889648
1519491465301,0.148682,0.394775,0.906494
1519491465333,0.177979,0.358398,0.897705
1519491465367,0.191895,0.382813,0.894287
1519491465409,0.291260,0.442383,0.929443
1519491465440,0.338135,0.399658,0.946289
1519491465474,0.335205,0.313232,0.885254
1519491465506,0.340576,0.311523,0.886475
1519491465539,0.325684,0.385498,0.922607
1519491465572,0.276123,0.420898,0.889648
1519491465603,0.240479,0.408447,0.882813
1519491465636,0.247314,0.418701,0.912354
1519491465644,0.234863,0.390137,0.916992
1519491465693,0.218262,0.379639,0.922119
1519491465726,0.214355,0.377441,0.920166
1519491465734,0.195068,0.370117,0.909668
1519491465790,0.197021,0.372314,0.908691
1519491465822,0.196289,0.374512,0.906494
1519491465855,0.197510,0.370361,0.918701
1519491465886,0.197266,0.385986,0.919189
1519491465920,0.202637,0.389648,0.914307
1519491465958,0.203125,0.380859,0.907715
1519491465991,0.216309,0.380859,0.924805
1519491466024,0.215332,0.385742,0.921387
1519491466056,0.214600,0.380127,0.921387
1519491466087,0.207764,0.391602,0.928223
1519491466121,0.199463,0.382813,0.904541
1519491466154,0.198486,0.384521,0.897705
1519491466184,0.217529,0.393066,0.924072
1519491466198,0.219971,0.386475,0.928223
1519491466233,0.215576,0.378662,0.922363
1519491466290,0.206299,0.380859,0.901367
1519491466295,0.207275,0.373291,0.902832
1519491466323,0.207275,0.366943,0.908691
1519491466382,0.213379,0.374512,0.915771
1519491466390,0.207275,0.380371,0.919922
1519491466441,0.197266,0.379883,0.911621
1519491466473,0.198730,0.390137,0.916504
1519491466506,0.192871,0.388672,0.921631
1519491466514,0.185059,0.396484,0.913818
1519491466568,0.179688,0.383545,0.922607
1519491466601,0.172363,0.381348,0.912598
1519491466616,0.176514,0.382568,0.907471
1519491466672,0.180420,0.370605,0.919922
1519491466704,0.187500,0.358154,0.908447
1519491466707,0.191895,0.414063,0.914063
1519491466765,0.190674,0.405762,0.917725
1519491466796,0.188232,0.376465,0.906982
1519491466801,0.189453,0.387695,0.906982
1519491466855,0.193359,0.389893,0.919922
1519491466888,0.187012,0.387451,0.904541
1519491466900,0.192627,0.401611,0.910889
1519491466956,0.192139,0.399658,0.914795
1519491466964,0.192139,0.382813,0.908447
1519491467022,0.193848,0.393799,0.912109
1519491467034,0.194580,0.395996,0.913330
1519491467068,0.189209,0.393799,0.907227
1519491467099,0.191162,0.382080,0.908936
1519491467131,0.197266,0.396729,0.919434
1519491467164,0.198730,0.392090,0.915283
1519491467196,0.192383,0.388916,0.903564
1519491467237,0.196777,0.390137,0.912109
1519491467272,0.197754,0.389404,0.913818
1519491467302,0.197021,0.399170,0.915527
1519491467334,0.190430,0.396240,0.907227
1519491467367,0.189941,0.393311,0.910645
1519491467401,0.189453,0.394775,0.911865
1519491467433,0.189941,0.401611,0.911133
1519491467464,0.190186,0.402344,0.911621
1519491467498,0.188965,0.385986,0.911133
1519491467530,0.191162,0.395020,0.912109
1519491467564,0.192383,0.396484,0.910156
1519491467596,0.193848,0.404053,0.907959
1519491467629,0.193848,0.393066,0.916504
1519491467660,0.192627,0.396973,0.908936
1519491467692,0.195313,0.396484,0.908447
1519491467725,0.191650,0.400635,0.909912
1519491467758,0.188721,0.396240,0.908936
1519491467789,0.192627,0.400879,0.916260
1519491467822,0.193359,0.395752,0.909424
1519491467865,0.195801,0.395264,0.908203
1519491467873,0.190186,0.410889,0.904541
1519491467926,0.192871,0.395508,0.908936
1519491467960,0.191162,0.397705,0.911621
1519491467968,0.191406,0.400391,0.909912
1519491468019,0.190186,0.404541,0.906982
1519491468052,0.189697,0.396484,0.908936
1519491468084,0.186768,0.396973,0.912354
1519491468116,0.187256,0.401123,0.912109
1519491468148,0.189941,0.404785,0.907471
1519491468183,0.189453,0.404541,0.906982
1519491468211,0.187744,0.394287,0.913086
1519491468244,0.184814,0.402832,0.909180
1519491468259,0.190430,0.406982,0.903809
1519491468317,0.189209,0.408447,0.903564
1519491468323,0.189209,0.406738,0.905029
1519491468381,0.190430,0.404053,0.902588
1519491468413,0.186035,0.410156,0.904053
1519491468445,0.184570,0.422852,0.903320
1519491468454,0.183105,0.417725,0.903564
1519491468518,0.174805,0.419434,0.906006
1519491468527,0.172607,0.416016,0.909912
1519491468556,0.174316,0.423340,0.906494
1519491468588,0.175781,0.428467,0.898926
1519491468621,0.177490,0.430664,0.897461
1519491468653,0.173584,0.433105,0.899170
1519491468694,0.172119,0.437988,0.902588
1519491468726,0.179443,0.434570,0.906250
1519491468759,0.175781,0.422607,0.896973
1519491468793,0.173340,0.440430,0.896484
1519491468824,0.177490,0.439941,0.898193
1519491468860,0.181152,0.429688,0.898438
1519491468894,0.178711,0.440674,0.892578
1519491468902,0.175781,0.435547,0.897461
1519491468952,0.174072,0.429932,0.902100
1519491468984,0.172852,0.433350,0.901367
1519491468993,0.177490,0.428711,0.901123
1519491469047,0.176025,0.430420,0.895996
1519491469062,0.176514,0.434326,0.895996
1519491469092,0.178711,0.437012,0.897217
1519491469134,0.181885,0.436768,0.898926
1519491469167,0.177979,0.429688,0.900879
1519491469199,0.175781,0.432129,0.899414
1519491469232,0.175049,0.432861,0.898438
1519491469264,0.175781,0.430908,0.899414
1519491469296,0.177734,0.435791,0.898438
1519491469328,0.179688,0.436035,0.897705
1519491469360,0.180176,0.429443,0.897461
1519491469394,0.180176,0.435791,0.902588
1519491469427,0.170166,0.432617,0.892334
1519491469466,0.173096,0.426514,0.904785
1519491469475,0.178955,0.427002,0.907715
1519491469501,0.182861,0.430908,0.900146
1519491469560,0.182373,0.437500,0.891846
1519491469593,0.179688,0.437744,0.893066
1519491469626,0.182373,0.440186,0.900879
1519491469659,0.177490,0.427979,0.898438
1519491469691,0.178955,0.430908,0.900635
1519491469722,0.174805,0.420654,0.899414
1519491469756,0.171143,0.418701,0.905762
1519491469798,0.160645,0.412354,0.908936
1519491469806,0.156494,0.427246,0.918945
1519491469874,0.156250,0.412109,0.906006
1519491469879,0.157715,0.430908,0.882324
1519491469941,0.155518,0.438721,0.879639
1519491469950,0.139404,0.410156,0.809814
1519491470008,0.115723,0.448242,0.850342
1519491470013,0.187012,0.530518,0.934814
1519491470077,0.296631,0.609619,0.839355
1519491470085,0.332764,0.635010,0.722656
1519491470143,0.341064,0.642334,0.697021
1519491470146,0.277344,0.628906,0.732910
1519491470167,0.223389,0.612549,0.740479
1519491470207,0.169922,0.610596,0.770508
1519491470239,0.109863,0.637451,0.765381
1519491470271,0.132324,0.685791,0.817871
1519491470285,0.200928,0.632813,0.832520
1519491470317,0.254883,0.597656,0.783447
1519491470350,0.221436,0.574951,0.784912
1519491470408,0.179443,0.579834,0.778076
1519491470442,0.120850,0.674316,0.737305
1519491470474,0.113281,0.715088,0.711914
1519491470482,0.128174,0.740723,0.813477
1519491470531,0.157715,0.548584,0.825439
1519491470564,0.152344,0.525879,0.743408
1519491470572,0.193359,0.612305,0.780518
1519491470623,0.241943,0.629395,0.847656
1519491470656,0.209473,0.600830,0.800781
1519491470689,0.191650,0.621582,0.796631
1519491470729,0.177490,0.597656,0.822754
1519491470734,0.146484,0.567383,0.788330
1519491470767,0.124512,0.555908,0.759033
1519491470800,0.171143,0.642334,0.832520
1519491470856,0.166016,0.617920,0.796631
1519491470888,0.172363,0.584229,0.773926
1519491470896,0.197998,0.558594,0.792969
1519491470953,0.186279,0.532715,0.784424
1519491470987,0.187012,0.542480,0.831299
1519491471017,0.202393,0.560303,0.864014
1519491471050,0.208008,0.543945,0.846191
1519491471059,0.209961,0.536621,0.832031
1519491471107,0.181396,0.541016,0.820313
1519491471139,0.136475,0.556152,0.809570
1519491471146,0.075195,0.600342,0.797119
1519491471202,0.074463,0.668457,0.844482
1519491471236,0.137451,0.625244,0.898682
1519491471267,0.341553,0.495605,0.822021
1519491471300,0.436279,0.465088,0.726807
1519491471332,0.445557,0.543701,0.685547
1519491471365,0.454346,0.586182,0.677734
1519491471399,0.295898,0.731934,0.633789
1519491471431,0.330078,0.719482,0.615723
1519491471464,0.350098,0.687012,0.639160
1519491471496,0.371582,0.670898,0.690430
1519491471511,0.376953,0.641846,0.751221
1519491471569,0.371582,0.557617,0.788574
1519491471602,0.318115,0.531250,0.803223
1519491471633,0.292725,0.519775,0.794434
1519491471642,0.265869,0.546875,0.786865
1519491471692,0.281250,0.595947,0.795898
1519491471724,0.276367,0.569336,0.771484
1519491471729,0.258057,0.558838,0.750977
1519491471785,0.291504,0.571045,0.797607
1519491471817,0.295166,0.564697,0.806641
1519491471850,0.287354,0.548584,0.815186
1519491471883,0.273926,0.553711,0.798828
1519491471916,0.269531,0.559326,0.780273
1519491471929,0.269775,0.545166,0.788086
1519491471963,0.265869,0.555664,0.800781
1519491471995,0.251465,0.570068,0.806885
1519491472053,0.256104,0.564209,0.817139
1519491472085,0.249268,0.560059,0.816162
1519491472092,0.251709,0.558350,0.810059
1519491472147,0.258789,0.564453,0.816895
1519491472180,0.257324,0.558838,0.819336
1519491472212,0.235596,0.548828,0.802246
1519491472217,0.225586,0.557861,0.787354
1519491472247,0.250488,0.551514,0.817871
1519491472279,0.250488,0.550781,0.824219
1519491472311,0.256348,0.533447,0.820068
1519491472356,0.258789,0.513428,0.801758
1519491472390,0.261963,0.508057,0.815918
1519491472423,0.254150,0.515137,0.833252
1519491472456,0.248291,0.518799,0.833496
1519491472488,0.255859,0.508057,0.831055
1519491472521,0.254639,0.505127,0.827393
1519491472553,0.260742,0.506836,0.823486
1519491472586,0.266113,0.512939,0.825195
1519491472618,0.261230,0.531982,0.823486
1519491472650,0.259277,0.529297,0.821045
1519491472683,0.252686,0.530762,0.816650
1519491472718,0.257080,0.534912,0.840332
1519491472760,0.239014,0.514160,0.899902
1519491472769,0.324951,0.420166,0.985596
1519491472794,0.465576,0.221680,0.909424
1519491472826,0.204834,0.520020,0.626709
1519491472884,0.242920,0.919922,0.644775
1519491472893,0.013428,1.138184,0.744141
1519491472946,0.104492,0.680420,0.814941
1519491472979,0.231445,0.552246,0.637695
1519491473011,0.515137,0.454102,0.541016
1519491473043,0.644043,0.433594,0.545898
1519491473076,0.542236,0.666016,0.646729
1519491473084,0.351074,0.748047,0.732422
1519491473134,0.245361,0.621338,0.846680
1519491473176,0.132324,0.491943,0.891602
1519491473185,0.039795,0.411133,0.935059
1519491473233,0.165527,0.386719,0.946045
1519491473241,0.218994,0.407227,0.924072
1519491473297,0.206299,0.425781,0.906006
1519491473329,0.200928,0.437744,0.880615
1519491473337,0.185791,0.446533,0.879639
1519491473394,0.184570,0.466553,0.886230
1519491473427,0.171387,0.475342,0.874756
1519491473460,0.178711,0.473389,0.876465
1519491473492,0.181885,0.463867,0.889160
1519491473525,0.188965,0.462646,0.891113
1519491473556,0.170166,0.461670,0.885010
1519491473571,0.163086,0.466309,0.876709
1519491473638,0.140381,0.467285,0.871826
1519491473646,0.146240,0.477783,0.873535
1519491473676,0.158936,0.493896,0.868652
1519491473708,0.172363,0.500977,0.865967
1519491473740,0.176025,0.490967,0.867676
1519491473773,0.169922,0.492432,0.878906
1519491473807,0.150391,0.506592,0.896484
1519491473837,0.151367,0.483398,0.906982
1519491473870,0.140625,0.440430,0.886475
1519491473903,0.161133,0.439453,0.863037
1519491473936,0.196533,0.471924,0.858643
1519491473969,0.228271,0.499268,0.856445
1519491474010,0.258301,0.532227,0.865967
1519491474043,0.238770,0.547607,0.837158
1519491474075,0.208496,0.498047,0.824707
1519491474107,0.225830,0.491943,0.865967
1519491474140,0.218506,0.487061,0.856445
1519491474170,0.221191,0.454590,0.850098
1519491474204,0.226807,0.483887,0.852539
1519491474237,0.206055,0.501465,0.848389
1519491474245,0.172852,0.502197,0.858154
1519491474295,0.177246,0.499512,0.887695
1519491474329,0.190674,0.483398,0.870605
1519491474338,0.205811,0.455811,0.860352
1519491474390,0.202393,0.482178,0.860840
1519491474424,0.198486,0.502930,0.869873
1519491474457,0.204834,0.540039,0.847900
1519491474492,0.212158,0.588135,0.844238
1519491474521,0.231201,0.526855,0.876709
1519491474554,0.207520,0.480225,0.872070
1519491474588,0.167236,0.434082,0.840332
1519491474620,0.180664,0.474365,0.852295
1519491474657,0.214111,0.505371,0.852539
1519491474690,0.225342,0.548828,0.837646
1519491474722,0.220215,0.553467,0.832275
1519491474754,0.190430,0.533691,0.825439
1519491474787,0.198975,0.485352,0.842285
1519491474802,0.222168,0.494873,0.861328
1519491474832,0.243652,0.510986,0.855469
1519491474901,0.259033,0.525146,0.841064
1519491474909,0.237549,0.510986,0.837158
1519491474967,0.225586,0.504639,0.848633
1519491474970,0.232422,0.479004,0.826416
1519491475037,0.259521,0.477295,0.821045
1519491475045,0.243164,0.517090,0.825195
1519491475103,0.209717,0.538330,0.849121
1519491475112,0.173584,0.542480,0.860107
1519491475170,0.159424,0.525391,0.861328
1519491475175,0.179688,0.502441,0.878174
1519491475239,0.195801,0.504150,0.872070
1519491475307,0.196533,0.528809,0.862061
1519491475372,0.185547,0.543701,0.871338
1519491475378,0.188477,0.541748,0.862793
1519491475396,0.194336,0.519043,0.834961
1519491475411,0.197998,0.472656,0.800293
1519491475419,0.213135,0.463623,0.820557
1519491475427,0.252197,0.467041,0.854980
1519491475457,0.322021,0.473145,0.901611
1519491475491,0.345459,0.459229,0.892334
1519491475499,0.272461,0.451416,0.888184
1519491475554,0.193115,0.392334,0.889404
1519491475586,0.174805,0.356689,0.885010
1519491475600,0.218750,0.340332,0.889648
1519491475653,0.265381,0.390137,0.897461
1519491475670,0.264893,0.450439,0.887939
1519491475700,0.234619,0.480957,0.866699
1519491475732,0.213135,0.483154,0.865479
1519491475772,0.199219,0.458740,0.880859
1519491475813,0.204834,0.446045,0.890137
1519491475854,0.239746,0.461426,0.888916
1519491475886,0.236084,0.453369,0.868164
1519491475892,0.234375,0.448730,0.867188
1519491475952,0.205078,0.433838,0.859375
1519491475984,0.219238,0.485596,0.865967
1519491475992,0.233154,0.424316,0.862061
1519491476018,0.238525,0.458496,0.894043
1519491476049,0.279297,0.433594,1.035645
1519491476091,0.227051,0.343750,0.989502
1519491476124,0.187988,0.575928,0.832764
1519491476156,0.183105,0.506104,0.674072
1519491476198,0.197510,0.564453,0.692627
1519491476232,0.224609,0.658691,0.717773
1519491476263,0.218750,0.702637,0.760010
1519491476296,0.175781,0.683105,0.752686
1519491476328,0.103516,0.715576,0.718750
1519491476359,0.097168,0.705078,0.760986
1519491476391,0.090820,0.766357,0.731689
1519491476425,0.111328,0.828369,0.729980
1519491476434,0.096924,0.617432,0.688232
1519491476485,0.123047,0.619141,0.802979
1519491476517,0.119385,0.714600,0.539551
1519491476550,0.126221,0.810791,0.429443
1519491476560,0.156738,0.660889,0.435791
1519491476616,0.332520,0.810059,0.436279
1519491476649,0.475830,0.867432,0.538574
1519491476682,0.656982,0.895752,0.599121
1519491476714,0.597656,0.763184,0.629883
1519491476746,0.389404,0.572998,0.619629
1519491476779,0.311523,0.649902,0.585205
1519491476812,0.241943,0.783936,0.605957
1519491476843,0.228760,0.870850,0.640625
1519491476849,0.257080,0.817627,0.626465
1519491476890,0.299072,0.712646,0.611572
1519491476949,0.326904,0.714844,0.622314
1519491476957,0.312988,0.707520,0.658691
1519491477006,0.292236,0.705566,0.681396
1519491477011,0.279785,0.720215,0.675293
1519491477064,0.278320,0.729004,0.654785
1519491477097,0.291504,0.726074,0.631836
1519491477105,0.287354,0.720703,0.630859
1519491477161,0.295654,0.724121,0.632813
1519491477194,0.289307,0.734131,0.631592
1519491477226,0.287354,0.721924,0.632080
1519491477259,0.283203,0.726563,0.638916
1519491477274,0.284424,0.741699,0.649414
1519491477307,0.285156,0.736572,0.658936
1519491477339,0.290283,0.728027,0.660400
1519491477396,0.287842,0.707764,0.653320
1519491477430,0.289551,0.708252,0.657959
1519491477438,0.290039,0.708008,0.657715
1519491477479,0.288574,0.705566,0.653076
1519491477511,0.290771,0.712646,0.659180
1519491477522,0.295166,0.708008,0.661865
1519491477579,0.294922,0.703857,0.661133
1519491477612,0.295654,0.702881,0.658203
1519491477644,0.296387,0.705811,0.660400
1519491477677,0.296143,0.707764,0.661133
1519491477690,0.291260,0.707764,0.659668
1519491477723,0.285156,0.706055,0.655762
1519491477755,0.291016,0.710693,0.661133
1519491477814,0.287109,0.710938,0.668213
1519491477846,0.280273,0.707275,0.664307
1519491477878,0.278320,0.712891,0.656738
1519491477885,0.287842,0.717529,0.651123
1519491477942,0.286133,0.718506,0.651611
1519491477975,0.282227,0.726074,0.652100
1519491478008,0.289795,0.717529,0.650879
1519491478016,0.290283,0.709961,0.648926
1519491478067,0.286377,0.714844,0.652832
1519491478099,0.282715,0.713379,0.656006
1519491478107,0.285645,0.717529,0.656738
1519491478158,0.284912,0.712646,0.668213
1519491478190,0.284912,0.712158,0.661133
1519491478224,0.290039,0.719238,0.650635
1519491478256,0.291016,0.722168,0.656738
1519491478289,0.288330,0.716309,0.656250
1519491478321,0.287842,0.715576,0.652832
1519491478352,0.287354,0.708984,0.651123
1519491478385,0.284424,0.710449,0.651123
1519491478418,0.285156,0.718262,0.651123
1519491478451,0.289551,0.725098,0.651855
1519491478482,0.297119,0.717773,0.643555
1519491478500,0.293457,0.722168,0.643066
1519491478558,0.288086,0.731201,0.645996
1519491478590,0.290771,0.728760,0.646973
1519491478598,0.289795,0.714844,0.648682
1519491478648,0.289795,0.717041,0.651611
1519491478653,0.289551,0.717773,0.644287
1519491478685,0.292236,0.722412,0.645996
1519491478757,0.291992,0.718506,0.646729
1519491478763,0.295410,0.720215,0.644775
1519491478792,0.296875,0.720215,0.645020
1519491478825,0.298828,0.718994,0.648438
1519491478856,0.293213,0.712891,0.652832
1519491478889,0.290771,0.719238,0.648682
1519491478931,0.298096,0.723389,0.647949
1519491478963,0.297607,0.719482,0.649658
1519491478995,0.294678,0.718262,0.646240
1519491479028,0.293701,0.719482,0.639648
1519491479061,0.299561,0.722412,0.641846
1519491479093,0.294434,0.717773,0.642578
1519491479126,0.299561,0.721191,0.648193
1519491479158,0.298096,0.718506,0.645020
1519491479190,0.291016,0.719238,0.645020
1519491479223,0.292480,0.724121,0.644531
1519491479256,0.291260,0.728027,0.644287
1519491479265,0.294434,0.722656,0.644043
1519491479329,0.295410,0.720947,0.643799
1519491479337,0.294434,0.724121,0.643066
1519491479388,0.288086,0.721436,0.644043
1519491479422,0.291504,0.727783,0.645508
1519491479454,0.291260,0.720459,0.646484
1519491479463,0.289551,0.720215,0.644043
1519491479496,0.293457,0.723877,0.642822
1519491479554,0.292480,0.720215,0.643311
1519491479587,0.292236,0.724121,0.644531
1519491479620,0.290039,0.726074,0.646973
1519491479652,0.289551,0.721680,0.651367
1519491479661,0.287598,0.721680,0.645508
1519491479717,0.290527,0.726807,0.634521
1519491479749,0.283203,0.733398,0.630371
1519491479754,0.274902,0.732910,0.640625
1519491479808,0.292969,0.718262,0.656494
1519491479817,0.293945,0.713379,0.653320
1519491479882,0.284912,0.711670,0.654785
1519491479951,0.282959,0.724121,0.651855
1519491479960,0.281494,0.722412,0.652832
1519491480017,0.289551,0.716064,0.648193
1519491480022,0.291748,0.715820,0.650146
1519491480083,0.283691,0.721924,0.655029
1519491480152,0.286133,0.724121,0.654785
1519491480219,0.282959,0.718262,0.645996
1519491480221,0.285645,0.717529,0.646729
1519491480287,0.282471,0.717285,0.646729
1519491480290,0.281250,0.715576,0.651611
1519491480357,0.277100,0.720459,0.648682
1519491480360,0.274414,0.734619,0.647705
1519491480393,0.302246,0.721436,0.671387
1519491480397,0.313232,0.701416,0.676514
1519491480400,0.304443,0.697754,0.667236
1519491480404,0.290771,0.701416,0.654541
1519491480408,0.292236,0.704102,0.652832
1519491480433,0.292480,0.704102,0.656738
1519491480466,0.291504,0.689209,0.660156
1519491480498,0.293213,0.691895,0.666504
1519491480540,0.299561,0.700439,0.666016
1519491480572,0.293457,0.710205,0.667969
1519491480605,0.299561,0.710938,0.676270
1519491480637,0.304932,0.695801,0.681641
1519491480670,0.292725,0.689941,0.673340
1519491480702,0.287109,0.689209,0.678467
1519491480736,0.287354,0.688965,0.685059
1519491480767,0.289551,0.693604,0.674561
1519491480799,0.298096,0.691650,0.666992
1519491480833,0.300537,0.692139,0.667236
1519491480865,0.305420,0.697998,0.672119
1519491480897,0.306885,0.694824,0.673584
1519491480911,0.297119,0.689453,0.676758
1519491480944,0.292725,0.691406,0.677979
1519491480976,0.293457,0.685059,0.683838
1519491481033,0.294434,0.682129,0.685547
1519491481066,0.305664,0.689453,0.672607
1519491481073,0.315186,0.693604,0.666992
1519491481130,0.307861,0.687012,0.669922
1519491481162,0.305908,0.692627,0.670898
1519491481195,0.306641,0.692383,0.678223
1519491481227,0.300537,0.684326,0.678711
1519491481260,0.304443,0.683838,0.678467
1519491481292,0.308350,0.685791,0.681152
1519491481298,0.302002,0.686279,0.678955
1519491481357,0.305420,0.686768,0.673828
1519491481363,0.302246,0.683350,0.674316
1519491481394,0.306641,0.693604,0.675781
1519491481426,0.303711,0.685547,0.678467
1519491481459,0.302246,0.684814,0.681152
1519491481491,0.303955,0.684326,0.682617
1519491481524,0.304443,0.686035,0.680176
1519491481557,0.303711,0.684814,0.676025
1519491481614,0.306152,0.688721,0.677490
1519491481647,0.299072,0.691650,0.666504
1519491481653,0.305908,0.703125,0.671143
1519491481709,0.294922,0.694580,0.677734
1519491481743,0.270264,0.693604,0.683105
1519491481756,0.270264,0.702148,0.678711
1519491481789,0.267334,0.702148,0.675049
1519491481847,0.277588,0.702393,0.674072
1519491481852,0.279541,0.700439,0.672607
1519491481879,0.288574,0.692627,0.669434
1519491481937,0.291992,0.686035,0.671143
1519491481940,0.291016,0.690430,0.683105
1519491481996,0.296631,0.686035,0.686768
1519491482028,0.295654,0.678711,0.686035
1519491482061,0.300049,0.678467,0.687744
1519491482069,0.299316,0.681152,0.692627
1519491482125,0.298584,0.674805,0.691650
1519491482158,0.303223,0.669434,0.687744
1519491482172,0.306396,0.671631,0.684326
1519491482229,0.295898,0.665283,0.679688
1519491482263,0.299072,0.675537,0.688477
1519491482271,0.300049,0.677246,0.695557
1519491482325,0.307373,0.666016,0.696777
1519491482356,0.303955,0.670654,0.692627
1519491482360,0.302734,0.675781,0.687256
1519491482417,0.299072,0.677734,0.685303
1519491482420,0.302246,0.678467,0.686523
1519491482454,0.301758,0.673096,0.689209
1519491482512,0.297852,0.675293,0.694092
1519491482520,0.296875,0.674561,0.691895
1519491482599,0.303467,0.672607,0.690186
1519491482606,0.300537,0.676514,0.688232
1519491482645,0.294922,0.677002,0.686035
1519491482654,0.300537,0.679443,0.689453
1519491482707,0.300293,0.677246,0.690674
1519491482740,0.300537,0.676270,0.689209
1519491482771,0.299561,0.681152,0.689209
1519491482804,0.298096,0.676025,0.687256
1519491482837,0.300293,0.677002,0.687744
1519491482845,0.299805,0.679199,0.688721
1519491482895,0.301270,0.675049,0.688721
1519491482928,0.299805,0.672852,0.688477
1519491482935,0.299805,0.678223,0.689697
1519491482992,0.298584,0.678223,0.688477
1519491483009,0.298584,0.678711,0.688477
1519491483037,0.299805,0.677734,0.686035
1519491483095,0.300049,0.676514,0.687012
1519491483104,0.302246,0.677490,0.687012
1519491483158,0.298340,0.674561,0.689697
1519491483190,0.298096,0.674561,0.691895
1519491483222,0.304443,0.676025,0.689697
1519491483255,0.301025,0.676758,0.691895
1519491483287,0.300781,0.676514,0.691162
1519491483320,0.303223,0.672852,0.688965
1519491483357,0.298096,0.673096,0.686279
1519491483388,0.298340,0.679443,0.689209
1519491483421,0.300293,0.676025,0.689697
1519491483426,0.303223,0.673584,0.690186
1519491483467,0.301270,0.672852,0.689209
1519491483501,0.298828,0.676758,0.686035
1519491483532,0.300293,0.677490,0.686035
1519491483591,0.300049,0.674561,0.692871
1519491483599,0.300049,0.673340,0.690674
1519491483625,0.301514,0.675537,0.688965
1519491483682,0.300049,0.675537,0.687256
1519491483691,0.301514,0.675781,0.689697
1519491483714,0.301025,0.676514,0.688965
1519491483747,0.302490,0.673096,0.689697
1519491483805,0.299561,0.675293,0.688477
1519491483838,0.301758,0.677979,0.688965
1519491483852,0.298584,0.676270,0.687744
1519491483878,0.299072,0.679199,0.688477
1519491483935,0.301025,0.678711,0.690674
1519491483969,0.300049,0.670898,0.687012
1519491484002,0.299561,0.679443,0.686035
1519491484010,0.299316,0.677734,0.690430
1519491484059,0.298584,0.677979,0.690674
1519491484093,0.299805,0.677490,0.688721
1519491484102,0.295898,0.671143,0.685303
1519491484150,0.297363,0.678711,0.689209
1519491484183,0.299561,0.677246,0.687256
1519491484215,0.298828,0.674561,0.688232
1519491484247,0.299316,0.678711,0.688477
1519491484262,0.298096,0.674805,0.688477
1519491484297,0.299805,0.678467,0.687500
1519491484330,0.301270,0.679199,0.691162
1519491484363,0.295654,0.672607,0.691162
1519491484395,0.301514,0.675537,0.688477
1519491484453,0.296875,0.677246,0.686279
1519491484457,0.298340,0.678223,0.688721
1519491484515,0.298096,0.678223,0.690430
1519491484547,0.300049,0.674072,0.691162
1519491484580,0.301025,0.676270,0.688721
1519491484584,0.298096,0.681641,0.689209
1519491484640,0.299805,0.676758,0.689941
1519491484673,0.299072,0.676270,0.689453
1519491484683,0.301270,0.675049,0.688721
1519491484733,0.297119,0.677979,0.685791
1519491484763,0.300049,0.677979,0.688232
1519491484795,0.300537,0.674316,0.692139
1519491484827,0.296631,0.671875,0.689209
1519491484902,0.297607,0.683350,0.687256
1519491484908,0.298096,0.678467,0.691162
1519491484968,0.298340,0.677002,0.691406
1519491484971,0.300049,0.676270,0.687012
1519491485035,0.295898,0.676025,0.686279
1519491485037,0.297852,0.677734,0.687012
1519491485102,0.297607,0.676270,0.688477
1519491485171,0.296631,0.673096,0.689941
1519491485237,0.300049,0.677979,0.688721
1519491485239,0.300293,0.677734,0.688721
1519491485305,0.295166,0.678955,0.686768
1519491485307,0.299805,0.679199,0.689941
1519491485372,0.297607,0.676025,0.688232
1519491485375,0.298096,0.677734,0.685547
1519491485400,0.296875,0.681885,0.686279
1519491485406,0.296631,0.678711,0.685791
1519491485408,0.296631,0.679199,0.686035
1519491485410,0.298828,0.680664,0.688721
1519491485435,0.299316,0.680664,0.688477
1519491485467,0.295166,0.677002,0.683105
1519491485500,0.299072,0.681641,0.688965
1519491485541,0.298584,0.677246,0.687012
1519491485574,0.297363,0.678467,0.686768
1519491485606,0.298096,0.681885,0.690186
1519491485639,0.300537,0.681396,0.689941
1519491485671,0.299805,0.676270,0.689209
1519491485704,0.295898,0.677002,0.685059
1519491485736,0.298096,0.683105,0.685303
1519491485738,0.299561,0.677734,0.685303
1519491485795,0.300293,0.679688,0.685791
1519491485828,0.298096,0.678711,0.685791
1519491485836,0.293945,0.676025,0.688721
1519491485891,0.295898,0.680664,0.687500
1519491485924,0.297852,0.680420,0.686768
1519491485937,0.295166,0.678223,0.685791
1519491485995,0.301514,0.677002,0.684326
1519491486027,0.301514,0.679932,0.685791
1519491486035,0.293945,0.675781,0.687012
1519491486091,0.294678,0.679932,0.688721
1519491486124,0.300537,0.677979,0.689453
1519491486156,0.297607,0.677490,0.685791
1519491486189,0.295410,0.680176,0.683838
1519491486221,0.296387,0.684326,0.686523
1519491486223,0.297119,0.677490,0.687012
1519491486281,0.298096,0.680176,0.687500
1519491486314,0.296387,0.680176,0.687744
1519491486319,0.296143,0.680664,0.687500
1519491486360,0.295654,0.676758,0.686523
1519491486392,0.296875,0.680664,0.688477
1519491486437,0.299072,0.682617,0.688232
1519491486470,0.296631,0.675049,0.687744
1519491486503,0.295898,0.680176,0.683838
1519491486535,0.295654,0.683350,0.687012
1519491486567,0.294678,0.678223,0.691406
1519491486600,0.298828,0.676758,0.690186
1519491486633,0.295166,0.679688,0.684326
1519491486665,0.292725,0.678955,0.687012
1519491486698,0.294678,0.680664,0.689209
1519491486730,0.294434,0.676270,0.688232
1519491486771,0.297119,0.680176,0.687744
1519491486804,0.296143,0.680664,0.687256
1519491486806,0.294922,0.678711,0.687012
1519491486862,0.296387,0.679199,0.690674
1519491486865,0.294678,0.676514,0.690918
1519491486921,0.295166,0.675781,0.688721
1519491486954,0.293945,0.681152,0.686523
1519491486986,0.293457,0.678467,0.685547
1519491487020,0.294922,0.678467,0.690430
1519491487052,0.294678,0.675293,0.692139
1519491487085,0.295410,0.676758,0.686035
1519491487117,0.293701,0.677734,0.686768
1519491487153,0.296387,0.680664,0.690918
1519491487185,0.293945,0.678711,0.685059
1519491487221,0.294189,0.680420,0.684814
1519491487255,0.296631,0.677002,0.689453
1519491487288,0.292236,0.684326,0.693359
1519491487320,0.297363,0.690918,0.697266
1519491487353,0.290527,0.690186,0.694580
1519491487361,0.290527,0.684814,0.678467
1519491487385,0.312256,0.676758,0.670654
1519491487443,0.319580,0.670166,0.666992
1519491487452,0.307861,0.688721,0.671631
1519491487505,0.309082,0.697510,0.690186
1519491487538,0.298096,0.668945,0.706543
1519491487552,0.297119,0.664551,0.710693
1519491487584,0.303467,0.670410,0.686035
1519491487642,0.291992,0.680420,0.681885
1519491487651,0.302979,0.689209,0.673828
1519491487718,0.303467,0.711426,0.693848
1519491487726,0.322266,0.724121,0.697021
1519491487752,0.342041,0.729492,0.797607
1519491487784,0.466309,0.830566,0.898682
1519491487842,0.309326,0.828125,0.608887
1519491487851,0.146973,0.484131,0.524658
1519491487880,0.063232,0.664063,0.626221
1519491487936,0.003906,0.759766,0.697998
1519491487942,-0.006836,0.734375,0.592529
1519491487983,0.006592,0.630859,0.590088
1519491488016,-0.012207,0.656006,0.573730
1519491488048,0.045654,0.839600,0.591553
1519491488080,0.118164,0.939941,0.606445
1519491488112,0.142578,0.921631,0.566162
1519491488144,0.160889,0.891846,0.622559
1519491488181,0.107178,0.850098,0.692871
1519491488214,0.094971,0.688477,0.592285
1519491488247,0.120850,0.740234,0.596191
1519491488280,0.129150,0.752441,0.651855
1519491488312,0.097412,0.829590,0.593018
1519491488344,0.091797,0.838135,0.530273
1519491488353,0.103271,0.849121,0.517334
1519491488414,0.090088,0.867188,0.575684
1519491488417,0.090088,0.840820,0.592773
1519491488448,0.087158,0.830811,0.581299
1519491488509,0.103027,0.853027,0.589600
1519491488514,0.095703,0.805176,0.602051
1519491488571,0.098633,0.793701,0.604004
1519491488603,0.112549,0.806396,0.597412
1519491488635,0.108643,0.806885,0.607910
1519491488643,0.110596,0.802734,0.595215
1519491488700,0.100830,0.798340,0.577637
1519491488731,0.105957,0.806152,0.575195
1519491488764,0.092773,0.802246,0.574219
1519491488778,0.098389,0.805420,0.579102
1519491488837,0.106934,0.819336,0.599365
1519491488847,0.111084,0.888428,0.596680
1519491488900,0.108154,0.878662,0.598633
1519491488933,0.092285,0.845703,0.565674
1519491488938,0.100342,0.834229,0.550049
1519491488999,0.087891,0.867676,0.543457
1519491489007,0.096191,0.863037,0.565674
1519491489033,0.100098,0.804688,0.564453
1519491489090,0.123047,0.798584,0.545166
1519491489098,0.139404,0.770020,0.520752
1519491489128,0.169922,0.907471,0.432861
1519491489161,0.186279,0.849365,0.629883
1519491489220,0.128174,0.733887,0.721436
1519491489228,0.120605,0.667480,0.714355
1519491489280,0.074463,0.795166,0.666260
1519491489314,0.076904,0.861572,0.638184
1519491489347,0.088135,0.910645,0.557373
1519491489383,0.097656,0.866211,0.544678
1519491489415,0.119141,0.783447,0.551270
1519491489418,0.144043,0.738037,0.574951
1519491489476,0.154053,0.811035,0.531738
1519491489509,0.168457,0.845947,0.424561
1519491489517,0.162598,0.885986,0.469971
1519491489567,0.121338,0.890625,0.547607
1519491489600,0.099854,0.832031,0.569092
1519491489613,0.091309,0.817871,0.582275
1519491489671,0.101074,0.864258,0.600098
1519491489679,0.113770,0.866943,0.591797
1519491489728,0.128418,0.869385,0.581787
1519491489760,0.128906,0.851074,0.564453
1519491489793,0.118408,0.840088,0.548340
1519491489825,0.113525,0.839111,0.538574
1519491489898,0.150146,0.815918,0.531738
1519491489901,0.161621,0.859863,0.496094
1519491489965,0.171143,0.799316,0.558838
1519491489967,0.184326,0.869141,0.521729
1519491490033,0.187256,0.965088,0.450195
1519491490102,0.218506,0.855225,0.507568
1519491490170,0.229492,0.742432,0.629395
1519491490178,0.242188,0.850586,0.617920
1519491490235,0.208984,0.735352,0.538818
1519491490238,0.205078,0.851563,0.568359
1519491490305,0.211914,0.798096,0.615479
1519491490314,0.206299,0.733398,0.571777
1519491490371,0.169922,0.786377,0.519287
1519491490377,0.203613,0.844727,0.498779
1519491490386,0.194336,0.849365,0.513916
1519491490391,0.183594,0.793701,0.456787
1519491490394,0.207031,0.919434,0.481201
1519491490397,0.225098,0.885986,0.506348
1519491490420,0.197754,0.786865,0.388916
1519491490453,0.233643,0.835205,0.396729
1519491490489,0.251221,0.889160,0.393555
1519491490522,0.403076,1.026123,0.394531
1519491490580,0.417725,0.947021,0.456055
1519491490588,0.340088,0.899658,0.521484
1519491490637,0.314697,0.876709,0.491455
1519491490671,0.196289,0.923096,0.479736
1519491490679,0.166016,0.899902,0.521729
1519491490730,0.107422,0.821045,0.581787
1519491490760,0.103271,0.823975,0.587891
1519491490793,0.138672,0.781006,0.624512
1519491490825,0.176025,0.724121,0.641357
1519491490833,0.190430,0.737793,0.644287
1519491490871,0.224854,0.760254,0.651367
1519491490904,0.218506,0.738770,0.643799
1519491490937,0.205078,0.743896,0.626953
1519491490995,0.194580,0.771240,0.635986
1519491491027,0.174072,0.780029,0.644287
1519491491036,0.182129,0.773682,0.650146
1519491491074,0.183594,0.739502,0.655762
1519491491106,0.200195,0.734375,0.665527
1519491491138,0.204590,0.748535,0.659668
1519491491170,0.209229,0.744873,0.660156
1519491491228,0.210449,0.746338,0.643555
1519491491233,0.206787,0.751953,0.640869
1519491491265,0.199463,0.757324,0.647461
1519491491307,0.186035,0.753418,0.648193
1519491491339,0.186035,0.748291,0.651123
1519491491372,0.184814,0.750244,0.656494
1519491491403,0.186523,0.755371,0.666260
1519491491435,0.182861,0.750732,0.661133
1519491491468,0.182617,0.740967,0.651611
1519491491500,0.192871,0.748047,0.650879
1519491491533,0.200195,0.750244,0.653320
1519491491557,0.205811,0.743652,0.654053
1519491491589,0.217285,0.740479,0.656006
1519491491622,0.214600,0.745605,0.658936
1519491491655,0.207520,0.738281,0.659668
1519491491688,0.197754,0.739990,0.657715
1519491491721,0.195068,0.746338,0.659668
1519491491753,0.188232,0.741943,0.659912
1519491491785,0.184082,0.740479,0.658691
1519491491817,0.188721,0.750488,0.653809
1519491491851,0.187012,0.752686,0.653564
1519491491884,0.187744,0.756592,0.654053
1519491491915,0.189697,0.757324,0.655762
1519491491948,0.193359,0.750732,0.661621
1519491491981,0.192871,0.743164,0.675537
1519491492014,0.187988,0.733398,0.662354
1519491492052,0.175781,0.726318,0.653809
1519491492084,0.184814,0.741699,0.647705
1519491492099,0.193115,0.756592,0.662109
1519491492155,0.203125,0.770752,0.676758
1519491492187,0.247803,0.841797,0.717285
1519491492221,0.236328,0.817871,0.753906
1519491492253,0.292969,0.923340,0.844971
1519491492286,0.604736,1.161865,1.135254
1519491492319,0.247314,1.110107,1.017090
1519491492327,0.114014,0.848877,0.772461
1519491492351,-0.107422,0.271484,0.702148
1519491492384,0.040771,0.370361,0.761475
1519491492416,-0.081787,0.453613,0.702637
1519491492449,-0.337158,0.381836,0.500488
1519491492482,-0.402588,0.553711,0.456055
1519491492524,-0.457520,0.795166,0.504395
1519491492556,-0.446777,0.473145,0.387207
1519491492588,-0.458740,0.451904,0.404541
1519491492621,-0.354736,0.811279,0.468994
1519491492653,-0.333984,0.758545,0.446777
1519491492685,-0.294189,0.786377,0.432617
1519491492718,-0.234375,0.925049,0.479004
1519491492749,-0.222168,0.986084,0.562012
1519491492782,-0.200684,0.911865,0.574463
1519491492837,-0.144043,0.917480,0.580811
1519491492845,-0.135742,0.906982,0.725586
1519491492876,-0.096191,0.775635,0.645996
1519491492909,-0.154541,0.642334,0.542236
1519491492941,-0.357422,0.622314,0.548584
1519491492982,-0.480713,0.350830,0.796143
1519491493026,-0.338867,0.682861,0.835449
1519491493035,-0.369873,0.799561,0.816895
1519491493062,-0.379639,0.718506,0.814941
1519491493095,-0.359375,0.743164,0.748291
1519491493153,-0.292236,0.704834,0.716797
1519491493184,-0.267578,0.672363,0.716797
1519491493217,-0.212402,0.794434,0.676758
1519491493249,-0.224121,0.800537,0.701172
1519491493282,-0.253662,0.732666,0.675049
1519491493291,-0.330566,0.811035,0.591553
1519491493339,-0.381104,0.722900,0.665283
1519491493354,-0.400146,0.720703,0.597900
1519491493388,-0.393066,0.706055,0.559082
1519491493445,-0.462158,0.873779,0.543945
1519491493450,-0.384033,0.832275,0.514648
1519491493478,-0.472656,0.786377,0.482178
1519491493510,-0.409912,0.566406,0.546143
1519491493545,-0.494141,0.620605,0.380615
1519491493578,-0.418701,0.679932,0.559326
1519491493611,-0.500488,0.635986,0.604980
1519491493643,-0.555420,0.567871,0.616455
1519491493675,-0.516846,0.613037,0.633057
1519491493717,-0.568359,0.621094,0.637939
1519491493749,-0.492188,0.547852,0.658691
1519491493782,-0.529541,0.609375,0.660645
1519491493814,-0.463867,0.635010,0.513428
1519491493847,-0.509277,0.702148,0.391846
1519491493879,-0.545410,0.819336,0.116943
1519491493912,-0.529785,1.064453,0.155029
1519491493945,-0.526611,0.890137,0.156494
1519491493983,-0.525879,0.835449,0.216309
1519491494017,-0.557129,0.938232,0.124756
1519491494027,-0.538330,0.903320,0.145752
1519491494057,-0.558594,0.845459,0.076416
1519491494118,-0.546387,0.883301,0.086914
1519491494132,-0.547607,0.795410,0.148926
1519491494164,-0.542725,0.803955,0.108398
1519491494197,-0.570313,0.819824,0.011719
1519491494231,-0.557373,0.846924,0.091309
1519491494263,-0.541260,0.845215,0.120850
1519491494297,-0.550293,0.829346,0.149902
1519491494329,-0.557129,0.846436,0.165283
1519491494360,-0.543213,0.834473,0.194824
1519491494392,-0.562500,0.894775,0.155029
1519491494425,-0.552002,0.868408,0.124268
1519491494458,-0.533203,0.828857,0.212402
1519491494491,-0.496826,0.849121,0.258301
1519491494524,-0.495605,0.828857,0.316650
1519491494563,-0.485352,0.853027,0.436523
1519491494595,-0.455322,0.826416,0.352783
1519491494602,-0.517334,0.810303,0.206787
1519491494659,-0.583252,0.881348,0.157471
1519491494693,-0.574707,0.805664,0.200684
1519491494727,-0.582520,0.796875,0.233154
1519491494758,-0.591309,0.829590,0.210205
1519491494791,-0.547607,0.824219,0.258301
1519491494824,-0.545166,0.832031,0.290771
1519491494897,-0.542969,0.856201,0.291260
1519491494903,-0.515869,0.783447,0.372314
1519491494963,-0.515625,0.856445,0.437988
1519491495032,-0.503174,0.752930,0.383057
1519491495099,-0.555664,0.787598,0.250488
1519491495108,-0.590820,0.808350,0.191650
1519491495166,-0.551270,0.808350,0.190186
1519491495174,-0.551025,0.869629,0.335693
1519491495232,-0.508057,0.813232,0.372803
1519491495235,-0.496582,0.798096,0.422852
1519491495301,-0.466553,0.837891,0.507080
1519491495309,-0.488770,0.746338,0.400879
1519491495366,-0.568115,0.803955,0.208984
1519491495379,-0.594238,0.841553,0.097656
1519491495387,-0.594482,0.830566,0.155518
1519491495395,-0.560791,0.799316,0.274902
1519491495399,-0.507324,0.745605,0.387451
1519491495402,-0.498779,0.827148,0.486328
1519491495432,-0.506104,0.817627,0.460205
1519491495464,-0.499268,0.774902,0.510498
1519491495498,-0.494873,0.780762,0.506592
1519491495501,-0.515625,0.719971,0.433838
1519491495558,-0.556396,0.817383,0.403809
1519491495591,-0.574219,0.734131,0.346924
1519491495622,-0.594238,0.691895,0.313232
1519491495655,-0.506592,0.724121,0.487305
1519491495688,-0.537109,0.634277,0.505127
1519491495721,-0.510010,0.514648,0.606689
1519491495753,-0.471191,0.550293,0.819092
1519491495786,-0.569824,0.645996,0.637695
1519491495817,-0.494629,0.593262,0.561523
1519491495855,-0.447510,0.773682,0.705811
1519491495886,-0.470459,0.645264,0.688721
1519491495923,-0.459229,0.736816,0.610352
1519491495955,-0.420654,0.737061,0.715332
1519491495988,-0.315430,0.623779,0.819580
1519491495996,-0.224365,0.399658,0.812500
1519491496048,-0.316406,0.789307,0.763672
1519491496080,-0.499268,1.006592,0.467773
1519491496089,-0.502197,0.918701,0.429443
1519491496138,-0.457520,0.820313,0.513184
1519491496170,-0.460205,0.718750,0.599609
1519491496185,-0.441895,0.702637,0.578125
1519491496242,-0.465576,0.754639,0.598877
1519491496252,-0.429688,0.791260,0.594971
1519491496305,-0.443359,0.634277,0.572754
1519491496339,-0.394531,0.731445,0.558838
1519491496370,-0.388916,0.669189,0.655029
1519491496402,-0.406738,0.632568,0.571777
1519491496435,-0.350586,0.581299,0.584961
1519491496468,-0.392822,0.776367,0.565918
1519491496502,-0.364746,0.873779,0.518311
1519491496532,-0.412598,0.749756,0.549072
1519491496566,-0.392578,0.800049,0.752197
1519491496574,-0.347168,0.843262,0.657715
1519491496611,-0.328369,0.693604,0.608154
1519491496678,-0.233398,0.748779,0.850098
1519491496687,-0.264648,0.719482,0.759033
1519491496738,-0.332031,0.665771,0.676758
1519491496746,-0.384277,0.738281,0.628662
1519491496769,-0.452637,0.833252,0.477051
1519491496827,-0.466309,0.795166,0.392578
1519491496833,-0.418457,0.732422,0.518555
1519491496866,-0.363281,0.737549,0.610840
1519491496899,-0.368164,0.667480,0.610840
1519491496929,-0.370605,0.691162,0.644775
1519491496975,-0.396729,0.721436,0.665527
1519491497007,-0.412354,0.750977,0.567871
1519491497040,-0.416748,0.744141,0.558105
1519491497072,-0.408936,0.760742,0.518555
1519491497105,-0.391846,0.742676,0.533691
1519491497137,-0.389893,0.763672,0.510010
1519491497170,-0.390381,0.782227,0.449951
1519491497202,-0.398926,0.842041,0.436768
1519491497234,-0.387451,0.849365,0.426270
1519491497266,-0.397217,0.871826,0.451660
1519491497300,-0.389648,0.960693,0.460693
1519491497332,-0.403320,0.876709,0.411133
1519491497352,-0.399902,0.833496,0.389648
1519491497385,-0.421143,0.877197,0.381592
1519491497417,-0.409180,0.880371,0.347168
1519491497448,-0.417480,0.864258,0.310547
1519491497481,-0.438232,0.874756,0.254150
1519491497515,-0.423096,0.894775,0.319580
1519491497547,-0.427979,0.866211,0.342529
1519491497580,-0.416504,0.789795,0.321045
1519491497610,-0.468750,0.877930,0.288330
1519491497644,-0.468506,0.939209,0.260254
1519491497677,-0.391113,0.938965,0.308105
1519491497734,-0.343750,0.940186,0.351074
1519491497743,-0.337402,0.941162,0.362549
1519491497799,-0.365479,0.826660,0.374268
1519491497807,-0.417480,0.839355,0.334473
1519491497844,-0.422119,0.815674,0.265869
1519491497877,-0.465576,0.897217,0.232422
1519491497909,-0.463867,0.884033,0.299072
1519491497958,-0.464600,0.892090,0.267334
1519491497963,-0.457764,0.851563,0.252441
1519491497990,-0.458252,0.926514,0.265625
1519491498024,-0.440918,0.978271,0.313965
1519491498058,-0.411621,0.794922,0.335693
1519491498115,-0.427979,0.920898,0.371582
1519491498147,-0.436523,0.872559,0.343750
1519491498180,-0.418457,0.900391,0.325928
1519491498195,-0.406738,0.867676,0.364014
1519491498226,-0.406982,0.866455,0.386230
1519491498259,-0.411865,0.844482,0.295898
1519491498292,-0.437500,0.895020,0.279541
1519491498325,-0.418213,0.844727,0.289063
1519491498357,-0.427246,0.824463,0.315674
1519491498389,-0.427979,0.849365,0.299316
1519491498421,-0.435303,0.903809,0.319580
1519491498453,-0.430420,0.862061,0.322021
1519491498487,-0.409180,0.840088,0.368896
1519491498520,-0.393311,0.915527,0.419434
1519491498552,-0.358398,0.834717,0.405762
1519491498585,-0.355713,0.789795,0.418457
1519491498626,-0.418213,0.904297,0.344482
1519491498660,-0.425781,0.843750,0.231934
1519491498692,-0.438965,0.886963,0.251221
1519491498725,-0.436523,0.917236,0.339111
1519491498757,-0.399170,0.861328,0.345215
1519491498790,-0.394287,0.875977,0.379395
1519491498826,-0.378906,0.825439,0.385254
1519491498859,-0.438232,0.788818,0.276367
1519491498864,-0.490967,0.881836,0.128418
1519491498893,-0.425049,1.218262,0.072266
1519491498926,-0.382080,0.853027,0.062744
1519491498957,-0.347412,0.789307,0.157959
1519491498991,-0.319092,0.885254,0.210693
1519491499031,-0.306152,0.928223,0.216309
1519491499064,-0.331299,1.045898,0.187500
1519491499096,-0.344482,1.025879,0.204102
1519491499128,-0.368408,0.961182,0.200439
1519491499160,-0.396729,0.951172,0.108643
1519491499193,-0.416748,0.899902,0.100586
1519491499238,-0.393555,0.909668,0.106689
1519491499271,-0.409424,0.978027,0.124268
1519491499303,-0.362305,0.984131,0.074463
1519491499336,-0.346680,1.043213,0.074951
1519491499345,-0.342041,0.924072,0.063965
1519491499395,-0.373291,0.884033,-0.090088
1519491499426,-0.423096,0.930908,-0.157471
1519491499440,-0.385498,0.923828,-0.079102
1519491499472,-0.424316,0.964111,-0.021484
1519491499506,-0.435303,0.789551,0.098145
1519491499538,-0.399414,0.881348,0.073975
1519491499596,-0.408936,0.970215,-0.140137
1519491499605,-0.439209,1.087646,-0.117432
1519491499659,-0.454834,1.009766,-0.179199
1519491499691,-0.375977,0.715332,0.073975
1519491499723,-0.409180,0.811768,-0.021973
1519491499755,-0.421143,0.850830,-0.184082
1519491499764,-0.414795,1.114502,-0.142822
1519491499817,-0.472900,0.854980,-0.171631
1519491499833,-0.456787,0.906494,-0.071777
1519491499901,-0.422852,0.941895,-0.071777
1519491499909,-0.435791,0.882080,-0.062744
1519491499967,-0.443115,0.900391,-0.062012
1519491499975,-0.453125,0.901611,-0.185791
1519491500035,-0.466064,0.806396,-0.096924
1519491500040,-0.436035,0.777344,-0.042236
1519491500102,-0.485107,0.977051,-0.195557
1519491500108,-0.362549,0.808594,0.338867
1519491500171,-0.416260,1.178955,0.088623
1519491500179,-0.434326,1.002930,0.087402
1519491500239,-0.315430,0.823242,0.228271
1519491500308,-0.374268,0.917480,0.125244
1519491500362,-0.389404,0.836670,0.064697
1519491500371,-0.429932,1.009766,0.183105
1519491500379,-0.452393,0.901123,0.231201
1519491500384,-0.445313,0.860840,0.329834
1519491500397,-0.420898,0.893066,0.392334
1519491500429,-0.424072,0.844482,0.268066
1519491500432,-0.433838,0.825439,0.310303
1519491500489,-0.348877,0.924072,0.376953
1519491500518,-0.444824,0.815674,0.341797
1519491500552,-0.415283,0.838379,0.448486
1519491500583,-0.406982,0.876465,0.480225
1519491500614,-0.394775,0.832031,0.471436
1519491500648,-0.380615,0.757080,0.489746
1519491500665,-0.441406,0.853271,0.391602
1519491500721,-0.442139,0.849121,0.416748
1519491500734,-0.432617,0.835205,0.540771
1519491500789,-0.471436,0.768311,0.453369
1519491500796,-0.512207,0.700928,0.491943
1519491500830,-0.475830,0.666748,0.482910
1519491500886,-0.440186,0.721924,0.595703
1519491500921,-0.406738,0.754395,0.701904
1519491500929,-0.406250,0.566162,0.642822
1519491500979,-0.409180,0.771484,0.703857
1519491501013,-0.416260,0.649414,0.670166
1519491501022,-0.452881,0.709473,0.605469
1519491501078,-0.436768,0.705566,0.600586
1519491501087,-0.442383,0.637939,0.572998
1519491501138,-0.454102,0.662842,0.576416
1519491501170,-0.485596,0.702637,0.520996
1519491501176,-0.477295,0.719238,0.519531
1519491501234,-0.469482,0.822754,0.473145
1519491501267,-0.459717,0.762695,0.388184
1519491501300,-0.475830,0.858643,0.371094
1519491501331,-0.446045,0.867920,0.308350
1519491501351,-0.482910,0.885498,0.277344
1519491501385,-0.470459,0.859619,0.334717
1519491501417,-0.468262,0.841064,0.360840
1519491501448,-0.456055,0.848877,0.376709
1519491501490,-0.478271,0.840332,0.349365
1519491501495,-0.467041,0.822021,0.369141
1519491501553,-0.454346,0.833008,0.352539
1519491501586,-0.447754,0.864502,0.348877
1519491501594,-0.449707,0.888672,0.303955
1519491501650,-0.470947,0.901611,0.309570
1519491501682,-0.472168,0.899414,0.246826
1519491501695,-0.484863,0.880127,0.201660
1519491501750,-0.477051,0.925537,0.178467
1519491501799,-0.473145,0.864990,0.156494
1519491501807,-0.477051,0.851074,0.191162
1519491501830,-0.474609,0.858643,0.205811
1519491501863,-0.487549,0.853027,0.181396
1519491501897,-0.498779,0.838867,0.186279
1519491501928,-0.499512,0.875488,0.224609
1519491501961,-0.495361,0.878662,0.228027
1519491501995,-0.495361,0.878662,0.213867
1519491502027,-0.494629,0.880859,0.219238
1519491502060,-0.488281,0.862061,0.230957
1519491502092,-0.486084,0.864258,0.234375
1519491502149,-0.482910,0.864746,0.230469
1519491502157,-0.485352,0.866455,0.222900
1519491502182,-0.489014,0.870850,0.225342
1519491502240,-0.467529,0.863770,0.269043
1519491502248,-0.474609,0.876709,0.250000
1519491502287,-0.491699,0.879883,0.269287
1519491502318,-0.472656,0.874512,0.243164
1519491502351,-0.450195,0.848877,0.302246
1519491502384,-0.469971,0.857422,0.261963
1519491502416,-0.460693,0.800293,0.273438
1519491502449,-0.482422,0.917725,0.320068
1519491502482,-0.468018,0.893066,0.353271
1519491502515,-0.489746,0.768555,0.296387
1519491502548,-0.494385,0.786133,0.307373
1519491502580,-0.504883,0.858887,0.298584
1519491502611,-0.519775,0.896240,0.290039
1519491502644,-0.500488,0.853516,0.365967
1519491502658,-0.481689,0.891113,0.384277
1519491502716,-0.473389,0.839355,0.427979
1519491502726,-0.457764,0.859375,0.426514
1519491502782,-0.466064,0.876709,0.415771
1519491502815,-0.441406,0.829102,0.425293
1519491502825,-0.442139,0.793457,0.379395
1519491502877,-0.445801,0.821533,0.380371
1519491502911,-0.445313,0.758789,0.359863
1519491502942,-0.437256,0.822510,0.370850
1519491502975,-0.458984,0.851318,0.356201
1519491503008,-0.452393,0.722412,0.333008
1519491503041,-0.467773,0.802979,0.305664
1519491503055,-0.463623,0.831055,0.306396
1519491503110,-0.468018,0.903809,0.294678
1519491503142,-0.474609,0.927490,0.233398
1519491503151,-0.464355,0.938965,0.304199
1519491503202,-0.438965,0.939941,0.295410
1519491503235,-0.433594,0.871582,0.231201
1519491503244,-0.439209,0.869629,0.277832
1519491503293,-0.415283,0.876221,0.246094
1519491503328,-0.450684,0.968262,0.202148
1519491503361,-0.409424,0.951660,0.172852
1519491503394,-0.402100,0.856445,0.208984
1519491503403,-0.436523,0.908203,0.276611
1519491503457,-0.413574,0.895508,0.239746
1519491503470,-0.442627,0.896729,0.209961
1519491503505,-0.463379,0.922852,0.252686
1519491503563,-0.451416,0.891113,0.210693
1519491503572,-0.459229,0.902832,0.192871
1519491503627,-0.449463,0.906250,0.230469
1519491503636,-0.429688,0.896484,0.228271
1519491503693,-0.437744,0.886475,0.203125
1519491503726,-0.425293,0.893799,0.232666
1519491503734,-0.427002,0.903564,0.220215
1519491503783,-0.443848,0.900635,0.216309
1519491503817,-0.441162,0.897949,0.221680
1519491503826,-0.423340,0.895508,0.292725
1519491503875,-0.421143,0.880371,0.238525
1519491503889,-0.451904,0.921387,0.148438
1519491503922,-0.443359,0.877930,0.206543
1519491503954,-0.444336,0.889893,0.207031
1519491503986,-0.425293,0.880127,0.192139
1519491504020,-0.418701,0.944824,0.197266
1519491504052,-0.385254,0.865479,0.355225
1519491504111,-0.418457,0.924072,0.322510
1519491504142,-0.396484,0.883545,0.323242
1519491504175,-0.364014,0.899170,0.347900
1519491504184,-0.354736,0.902100,0.355713
1519491504239,-0.347168,0.875244,0.332275
1519491504271,-0.313477,0.868408,0.352539
1519491504304,-0.315918,0.911133,0.358154
1519491504312,-0.299316,0.915039,0.234131
1519491504357,-0.282227,0.892334,0.230225
1519491504389,-0.374023,0.930664,0.070801
1519491504397,-0.343262,0.815674,0.122803
1519491504453,-0.290283,1.016602,0.246826
1519491504487,-0.393066,1.130127,0.204834
1519491504520,-0.401367,1.008301,0.233154
1519491504552,-0.396973,0.941406,0.289063
1519491504585,-0.327148,1.066406,0.283203
1519491504622,-0.283936,0.937500,0.259766
1519491504655,-0.201660,0.972656,0.428467
1519491504687,-0.282959,1.001465,0.267578
1519491504720,-0.286133,0.915039,0.073486
1519491504733,-0.301758,0.902344,0.095215
1519491504766,-0.289307,0.813477,0.137207
1519491504800,-0.297852,0.913086,0.189941
1519491504830,-0.252197,0.935791,0.189209
1519491504901,-0.282959,0.944824,0.145264
1519491504909,-0.310547,0.944580,0.254639
1519491504968,-0.348877,1.041992,0.221436
1519491505035,-0.303711,0.965820,0.231934
1519491505044,-0.338623,0.948730,0.156250
1519491505103,-0.310547,0.896973,0.198730
1519491505112,-0.341553,0.948242,0.146240
1519491505171,-0.300293,0.882324,0.190186
1519491505179,-0.367432,0.959229,0.179688
1519491505238,-0.320313,0.864014,0.081543
1519491505246,-0.312012,0.907471,0.113281
1519491505306,-0.291260,0.962891,0.190186
1519491505314,-0.291504,0.910400,0.115723
1519491505367,-0.270508,0.993896,0.112549
1519491505375,-0.304199,1.006836,0.153320
1519491505382,-0.307129,1.016113,0.123047
1519491505389,-0.234375,1.016846,0.268066
1519491505416,-0.227051,1.013916,0.187256
1519491505448,-0.178467,0.921631,0.151855
1519491505481,-0.209473,0.910156,0.103516
1519491505514,-0.130371,1.083008,0.112305
1519491505547,-0.206787,1.016113,0.116699
1519491505560,-0.160400,0.997070,0.237793
1519491505597,-0.187500,0.974609,0.135010
1519491505639,-0.291504,1.136963,0.027100
1519491505671,-0.331543,1.126221,-0.012695
1519491505704,-0.321777,0.951416,0.187500
1519491505736,-0.196289,0.897705,0.458008
1519491505768,-0.098633,0.923584,0.541504
1519491505799,-0.172119,1.036377,0.422363
1519491505833,-0.207764,0.979736,0.315430
1519491505865,-0.209473,0.975098,0.394287
1519491505898,-0.168701,0.776855,0.404785
1519491505930,-0.183594,0.828369,0.380615
1519491505963,-0.185791,0.902832,0.396240
1519491506002,-0.191162,0.868408,0.410400
1519491506010,-0.215332,0.738770,0.500244
1519491506067,-0.180908,0.776855,0.437012
1519491506099,-0.253906,0.807373,0.300293
1519491506131,-0.253174,0.980957,0.257080
1519491506164,-0.249756,0.922607,0.268066
1519491506197,-0.120850,1.057373,0.437012
1519491506229,-0.089111,1.182129,0.329834
1519491506263,-0.095947,0.975342,0.215088
1519491506293,-0.147461,0.943359,0.050537
1519491506326,-0.139160,1.089355,-0.015869
1519491506330,-0.115479,1.243896,0.082031
1519491506385,-0.149414,1.092041,0.135986
1519491506425,-0.101563,1.084229,0.028809
1519491506430,-0.138672,0.953857,0.058105
1519491506483,-0.126221,1.124023,0.082275
1519491506517,-0.122314,0.886230,0.163086
1519491506527,-0.180420,0.943115,0.066650
1519491506585,-0.141846,1.051270,0.221191
1519491506594,-0.168945,1.094238,0.191406
1519491506646,-0.263184,1.048828,0.238037
1519491506679,-0.141357,0.930176,0.323486
1519491506712,-0.182861,0.984863,0.254395
1519491506745,-0.208252,1.033936,0.172119
1519491506777,-0.235107,0.969971,0.261963
1519491506810,-0.278076,0.918945,0.107178
1519491506823,-0.325195,0.939941,0.019531
1519491506880,-0.265869,0.831299,0.256348
1519491506918,-0.223145,0.788818,0.304932
1519491506927,-0.286133,0.861572,0.192383
1519491506976,-0.275146,0.883301,0.193115
1519491507010,-0.276611,0.971191,0.217285
1519491507018,-0.279541,1.061523,0.227295
1519491507067,-0.259277,1.059814,0.280762
1519491507072,-0.262695,0.981201,0.292969
1519491507131,-0.222412,0.926758,0.260986
1519491507163,-0.249023,0.936523,0.257080
1519491507172,-0.227783,0.925293,0.290039
1519491507226,-0.239990,0.855713,0.199219
1519491507240,-0.239990,0.992920,0.201416
1519491507272,-0.213623,0.973633,0.196533
1519491507331,-0.235596,1.002930,0.188965
1519491507363,-0.248779,0.960205,0.179932
1519491507369,-0.218994,0.934570,0.249512
1519491507426,-0.189697,0.971191,0.274414
1519491507459,-0.197510,0.980469,0.224121
1519491507491,-0.197021,1.008301,0.232422
1519491507497,-0.187744,0.990967,0.254639
1519491507553,-0.190186,0.893311,0.209229
1519491507586,-0.206543,1.017578,0.140137
1519491507595,-0.174805,1.052979,0.119141
1519491507643,-0.227783,1.098633,0.041504
1519491507677,-0.200439,1.054932,0.024170
1519491507710,-0.203369,1.066650,0.030518
1519491507741,-0.205811,1.093750,0.078125
1519491507774,-0.199219,0.992432,0.237305
1519491507808,-0.185791,1.056396,0.250488
1519491507840,-0.199951,0.783203,0.181641
1519491507871,-0.226074,0.819580,0.225098
1519491507905,-0.217529,0.862061,0.280762
1519491507938,-0.246338,1.033936,0.401855
1519491507968,-0.135254,0.850342,0.420166
1519491508001,-0.231689,0.880859,0.273682
1519491508033,-0.187500,0.846191,0.293701
1519491508074,-0.176270,0.993164,0.254883
1519491508077,-0.219238,1.024902,0.241211
1519491508133,-0.203125,1.008057,0.286865
1519491508137,-0.203369,1.027344,0.302490
1519491508170,-0.157471,0.952637,0.292969
1519491508226,-0.198486,0.822754,0.319336
1519491508259,-0.242188,0.932373,-0.017822
1519491508291,-0.252930,1.092285,0.203857
1519491508323,-0.159668,0.849609,0.579590
1519491508357,-0.123535,0.528564,0.645996
1519491508388,-0.128174,0.707520,0.830811
1519491508419,-0.165527,1.046387,0.770020
1519491508452,-0.205078,0.766357,0.676514
1519491508465,-0.102539,0.850830,0.726074
1519491508526,-0.062012,0.676270,0.661865
1519491508558,-0.092529,0.915283,0.723633
1519491508567,-0.049072,0.839844,0.719727
1519491508621,-0.170166,0.723145,0.601563
1519491508653,-0.181885,0.723633,0.590332
1519491508661,-0.210938,0.773926,0.616211
1519491508713,-0.257080,0.769531,0.579346
1519491508721,-0.272949,0.648438,0.591553
1519491508749,-0.250732,0.668457,0.623047
1519491508808,-0.250732,0.695801,0.640381
1519491508816,-0.252197,0.677734,0.624512
1519491508871,-0.228760,0.759277,0.699463
1519491508885,-0.204102,0.778320,0.729492
1519491508918,-0.231201,0.748047,0.688965
1519491508952,-0.188232,0.748779,0.738037
1519491508985,-0.211914,0.732910,0.715820
1519491509018,-0.214111,0.704102,0.695313
1519491509051,-0.219238,0.783447,0.728027
1519491509084,-0.229004,0.697266,0.733887
1519491509141,-0.270752,0.691406,0.589600
1519491509149,-0.296387,0.676025,0.597412
1519491509201,-0.293213,0.686768,0.671143
1519491509232,-0.292725,0.674072,0.670410
1519491509240,-0.278320,0.738037,0.678711
1519491509291,-0.290527,0.698975,0.647217
1519491509305,-0.243164,0.622314,0.696533
1519491509337,-0.267822,0.667725,0.665527
1519491509383,-0.254150,0.662109,0.659180
1519491509416,-0.285156,0.542725,0.597900
1519491509452,-0.326416,0.693848,0.627197
1519491509477,-0.280273,0.938721,0.611816
1519491509510,-0.263428,1.196045,0.514404
1519491509544,-0.449951,0.999512,0.335938
1519491509576,-0.300049,0.895508,0.561035
1519491509608,-0.315186,0.810059,0.562744
1519491509640,-0.289551,0.722656,0.574219
1519491509673,-0.270996,0.795654,0.562012
1519491509706,-0.303955,0.799805,0.519043
1519491509738,-0.323242,0.717041,0.489746
1519491509771,-0.366211,0.797119,0.459961
1519491509803,-0.404297,0.849121,0.422852
1519491509874,-0.438965,0.865967,0.394287
1519491509879,-0.411377,0.798340,0.469727
1519491509941,-0.423584,0.869141,0.460205
1519491509950,-0.426514,0.814697,0.513428
1519491510009,-0.482422,0.790283,0.315430
1519491510014,-0.445801,0.787842,0.375732
1519491510076,-0.458008,0.806641,0.427734
1519491510081,-0.436279,0.827881,0.506836
1519491510143,-0.399170,0.780518,0.513428
1519491510214,-0.448730,0.773438,0.433594
1519491510278,-0.441162,0.783936,0.456787
1519491510281,-0.461670,0.817383,0.429443
1519491510346,-0.446289,0.809082,0.426025
1519491510351,-0.483154,0.834961,0.433105
1519491510365,-0.456543,0.763184,0.416992
1519491510372,-0.482666,0.763428,0.466309
1519491510381,-0.430664,0.855469,0.507568
1519491510384,-0.447266,0.849609,0.481201
1519491510409,-0.444092,0.779785,0.445313
1519491510443,-0.440674,0.769043,0.407227
1519491510474,-0.421143,0.731201,0.460205
1519491510507,-0.444336,0.795654,0.410889
1519491510539,-0.415283,0.811279,0.467285
1519491510572,-0.391846,0.801758,0.466064
1519491510605,-0.380371,0.702393,0.480225
1519491510638,-0.350098,0.755371,0.546143
1519491510671,-0.363037,0.793945,0.520996
1519491510703,-0.377930,0.767578,0.485107
1519491510758,-0.370850,0.706055,0.413818
1519491510767,-0.406006,0.819092,0.330322
1519491510791,-0.375977,0.761475,0.210449
1519491510824,-0.338867,1.013184,0.217041
1519491510881,-0.333984,1.046875,0.374512
1519491510887,-0.251709,0.993896,0.380859
1519491510941,-0.174072,1.054688,0.427979
1519491510972,-0.148438,1.087158,0.454590
1519491510975,-0.050293,1.006836,0.551270
1519491511018,-0.109619,0.932861,0.303223
1519491511050,-0.127686,1.056641,0.323486
1519491511084,-0.131592,0.958740,0.330566
1519491511116,-0.195557,0.967529,0.205078
1519491511150,-0.264893,1.025879,0.147949
1519491511182,-0.232666,0.991455,0.200439
1519491511215,-0.264893,0.996826,0.198486
1519491511247,-0.261475,1.023682,0.188477
1519491511280,-0.295898,1.011475,0.221924
1519491511311,-0.281250,1.011963,0.289795
1519491511344,-0.348145,0.988281,0.268311
1519491511381,-0.328857,0.920410,0.302734
1519491511422,-0.281494,0.849121,0.436279
1519491511454,-0.244873,0.785156,0.531006
1519491511460,-0.173584,0.682617,0.611328
1519491511512,-0.130615,0.636719,0.704346
1519491511546,-0.085205,0.675781,0.756104
1519491511554,-0.086670,0.726318,0.762207
1519491511608,-0.114990,0.756592,0.705811
1519491511642,-0.093262,0.715576,0.670166
1519491511675,-0.118164,0.747314,0.679443
1519491511707,-0.120361,0.690674,0.687256
1519491511740,-0.150391,0.678223,0.669189
1519491511772,-0.176025,0.687012,0.607178
1519491511786,-0.199951,0.639648,0.593750
1519491511844,-0.221680,0.691162,0.588379
1519491511875,-0.216553,0.826172,0.616211
1519491511907,-0.221436,0.837158,0.579102
1519491511913,-0.226807,0.771973,0.524170
1519491511967,-0.194824,0.838135,0.532715
1519491511999,-0.093750,0.930664,0.582520
1519491512004,-0.084473,0.809570,0.583008
1519491512038,-0.058838,0.888184,0.656494
1519491512096,-0.031006,0.707275,0.625732
1519491512129,-0.003662,0.632324,0.593506
1519491512137,0.008301,0.780762,0.644287
1519491512190,0.031006,0.844238,0.701172
1519491512204,0.009033,0.687012,0.606934
1519491512237,0.034180,0.780029,0.578857
1519491512295,0.013916,0.855469,0.611328
1519491512327,0.004639,0.816406,0.534912
1519491512336,0.019775,0.868652,0.502441
1519491512389,0.044922,0.942383,0.417969
1519491512421,0.072754,0.911865,0.396729
1519491512430,0.127197,0.951904,0.419189
1519491512479,0.149658,0.775635,0.229980
1519491512486,0.385742,0.744629,0.469482
1519491512544,0.385254,0.845703,0.534912
1519491512578,0.297363,1.280518,0.232178
1519491512586,0.270996,1.334961,0.105469
1519491512623,0.176758,1.103027,0.052979
1519491512657,0.163574,0.965820,0.100342
1519491512690,0.185303,0.952148,0.167969
1519491512722,0.199707,0.987061,0.246826
1519491512755,0.194824,0.992432,0.297119
1519491512787,0.169922,0.938477,0.290527
1519491512820,0.160400,0.935791,0.247314
1519491512852,0.142334,0.968018,0.202881
1519491512884,0.127686,0.994873,0.190674
1519491512917,0.119873,1.006348,0.181152
1519491512950,0.121338,1.003906,0.176270
1519491512982,0.135498,0.999268,0.174805
1519491513014,0.141357,0.997070,0.166992
1519491513072,0.144775,0.995605,0.151611
1519491513081,0.151123,1.001953,0.141113
1519491513104,0.154297,1.007080,0.133301
1519491513163,0.146729,0.997559,0.124756
1519491513171,0.131104,0.999268,0.121826
1519491513222,0.125000,1.003906,0.131348
1519491513255,0.124756,1.000488,0.138428
1519491513287,0.130615,0.998535,0.143066
1519491513319,0.138916,0.991699,0.141846
1519491513351,0.131104,0.993652,0.135742
1519491513385,0.128418,0.996582,0.127686
1519491513417,0.134766,1.007568,0.132080
1519491513431,0.143066,1.029297,0.143555
1519491513487,0.145752,0.993164,0.147461
1519491513492,0.130127,0.974609,0.153076
1519491513547,0.142090,1.024902,0.163574
1519491513580,0.126465,1.032959,0.156982
1519491513588,0.141846,1.038818,0.181152
1519491513640,0.183838,1.047363,0.172363
1519491513672,0.166504,1.010986,0.149170
1519491513704,0.112061,1.014404,0.127686
1519491513737,0.129150,0.983398,0.132080
1519491513769,0.114014,1.000488,0.117432
1519491513802,0.198242,0.967773,0.136963
1519491513834,0.348877,0.830566,0.210205
1519491513847,0.340820,0.884033,0.264404
1519491513904,0.283691,0.982422,0.294434
1519491513937,0.166748,0.935791,0.281250
1519491513947,0.167725,0.974609,0.321045
1519491513999,0.107666,0.939697,0.333252
1519491514033,0.126953,0.946533,0.337402
1519491514066,0.128906,0.959473,0.361084
1519491514074,0.137207,0.926270,0.418457
1519491514125,0.125732,0.881592,0.478516
1519491514157,0.116943,0.890869,0.475342
1519491514165,0.109619,0.903564,0.441406
1519491514215,0.093750,0.929932,0.395752
1519491514248,0.093506,0.953857,0.390381
1519491514262,0.087891,0.941650,0.395508
1519491514320,0.099854,0.927979,0.402344
1519491514328,0.127686,0.908447,0.423584
1519491514382,0.142578,0.902100,0.427734
1519491514416,0.152588,0.911377,0.426514
1519491514449,0.135498,0.917725,0.437988
1519491514481,0.104736,0.923828,0.438232
1519491514512,0.074707,0.909912,0.428955
1519491514544,0.079590,0.920898,0.420898
1519491514598,0.084473,0.893555,0.416992
1519491514606,0.075684,0.928223,0.403564
1519491514633,0.078125,0.922852,0.410645
1519491514667,0.048828,0.919678,0.389404
1519491514709,0.042236,0.969238,0.367676
1519491514717,0.029053,0.939941,0.360596
1519491514743,0.037842,0.918701,0.355957
1519491514802,0.019775,0.975342,0.361084
1519491514811,0.015137,0.968018,0.392090
1519491514878,0.020264,0.973877,0.439697
1519491514886,0.110107,0.884766,0.522705
1519491514944,0.195557,0.762207,0.648682
1519491514957,0.130859,0.885742,0.526855
1519491515011,0.112549,0.760498,0.530029
1519491515016,0.117676,0.758789,0.556396
1519491515080,0.074951,0.971680,0.394287
1519491515148,0.025879,1.070557,0.283691
1519491515213,0.040771,0.901611,0.354492
1519491515216,0.059570,0.882813,0.467773
1519491515282,0.061279,0.876709,0.535156
1519491515291,0.070557,0.858887,0.537354
1519491515348,0.064697,0.862793,0.504883
1519491515352,0.062744,0.887207,0.459473
1519491515362,0.064941,0.898193,0.456299
1519491515368,0.078125,0.897217,0.489990
1519491515394,0.097900,0.885986,0.520508
1519491515398,0.116455,0.878418,0.512207
1519491515429,0.123047,0.875244,0.508789
1519491515461,0.113525,0.854248,0.517822
1519491515493,0.102783,0.854492,0.508057
1519491515526,0.089844,0.875732,0.499756
1519491515558,0.076904,0.889404,0.501953
1519491515592,0.057373,0.887451,0.504395
1519491515625,0.051514,0.886719,0.503418
1519491515658,0.050049,0.879150,0.503906
1519491515692,0.050293,0.887207,0.502930
1519491515724,0.049072,0.892090,0.489746
1519491515758,0.038818,0.895020,0.474365
1519491515790,0.029785,0.912598,0.472900
1519491515823,0.007080,0.913818,0.463135
1519491515877,-0.006592,0.892578,0.464600
1519491515883,0.003662,0.898193,0.468262
1519491515924,0.011475,0.899902,0.482666
1519491515957,0.017822,0.906006,0.479248
1519491515989,0.029785,0.900635,0.474609
1519491516022,0.035889,0.904785,0.468994
1519491516054,0.056641,0.914795,0.473145
1519491516087,0.068604,0.884521,0.471924
1519491516119,0.081055,0.900391,0.498047
1519491516152,0.096191,0.882080,0.503662
1519491516186,0.110107,0.866943,0.519043
1519491516225,0.104492,0.864014,0.523926
1519491516258,0.095947,0.853027,0.533936
1519491516290,0.091797,0.864502,0.523438
1519491516298,0.089111,0.877197,0.506592
1519491516335,0.089844,0.885010,0.500977
1519491516367,0.080078,0.882080,0.494629
1519491516400,0.066895,0.883301,0.482910
1519491516459,0.054443,0.896729,0.472656
1519491516467,0.047607,0.904785,0.472900
1519491516492,0.044189,0.905762,0.475830
1519491516549,0.042969,0.890869,0.477783
1519491516554,0.039795,0.886230,0.481934
1519491516609,0.036377,0.904053,0.478027
1519491516641,0.039795,0.901367,0.478027
1519491516674,0.038818,0.887451,0.481689
1519491516707,0.044922,0.899414,0.479004
1519491516720,0.048828,0.896240,0.474365
1519491516751,0.044189,0.892822,0.472168
1519491516784,0.045166,0.902588,0.470947
1519491516843,0.047607,0.908936,0.477051
1519491516876,0.051025,0.906250,0.477295
1519491516883,0.058105,0.896973,0.479004
1519491516932,0.059082,0.888672,0.482178
1519491516965,0.057129,0.892090,0.483887
1519491516971,0.062012,0.878662,0.484375
1519491517024,0.065186,0.893799,0.489014
1519491517058,0.065186,0.904053,0.489258
1519491517090,0.065186,0.901855,0.489014
1519491517124,0.060547,0.927002,0.495850
1519491517159,0.055908,0.895020,0.487793
1519491517168,0.057617,0.854736,0.477295
1519491517223,0.081543,0.866699,0.477539
1519491517257,0.081787,0.879150,0.479980
1519491517288,0.064209,0.923096,0.493652
1519491517321,0.038574,0.913818,0.499268
1519491517354,0.037109,0.889648,0.489746
1519491517387,0.054688,0.871826,0.491455
1519491517419,0.086426,0.842285,0.494629
1519491517452,0.099609,0.871826,0.490723
1519491517460,0.096436,0.930176,0.479980
1519491517484,0.066162,0.908936,0.468750
1519491517552,0.053223,0.892822,0.484131
1519491517558,0.067139,0.881104,0.501221
1519491517586,0.086670,0.852295,0.505127
1519491517620,0.097656,0.894043,0.498047
1519491517652,0.089355,0.916992,0.472656
1519491517685,0.082764,0.897705,0.479004
1519491517717,0.081787,0.877441,0.498047
1519491517749,0.082764,0.856689,0.495850
1519491517781,0.084961,0.882813,0.503174
1519491517814,0.085938,0.882568,0.497314
1519491517873,0.084961,0.884521,0.484863
1519491517904,0.068115,0.883057,0.495850
1519491517910,0.055664,0.884277,0.505371
1519491517969,0.061768,0.894531,0.498047
1519491518000,0.070801,0.881348,0.491211
1519491518033,0.071045,0.888184,0.491455
1519491518045,0.075439,0.893555,0.487305
1519491518066,0.067383,0.909424,0.490234
1519491518101,0.071777,0.895752,0.492432
1519491518139,0.068604,0.870117,0.491211
1519491518172,0.065674,0.889160,0.494141
1519491518204,0.070313,0.893311,0.494385
1519491518236,0.067139,0.889893,0.484619
1519491518269,0.065186,0.891602,0.488770
1519491518302,0.058105,0.874756,0.489990
1519491518334,0.057373,0.882568,0.493164
1519491518367,0.060303,0.884766,0.488525
1519491518400,0.063477,0.889648,0.482910
1519491518440,0.063721,0.892090,0.483154
1519491518473,0.052490,0.907959,0.488281
1519491518506,0.053467,0.900635,0.490723
1519491518537,0.060791,0.884766,0.496582
1519491518570,0.080811,0.870117,0.520996
1519491518577,0.077881,0.846924,0.505127
1519491518635,0.097168,0.867920,0.486328
1519491518668,0.107666,0.897949,0.502930
1519491518701,0.097168,0.890625,0.517090
1519491518711,0.078369,0.866699,0.514648
1519491518746,0.075928,0.863037,0.510498
1519491518779,0.076904,0.875488,0.508057
1519491518811,0.077393,0.873779,0.505615
1519491518869,0.070068,0.879395,0.503418
1519491518900,0.064453,0.882324,0.501709
1519491518906,0.057617,0.874268,0.515381
1519491518960,0.064453,0.873535,0.524658
1519491518992,0.069336,0.876221,0.519287
1519491518997,0.070313,0.885254,0.507813
1519491519052,0.073486,0.876465,0.502686
1519491519084,0.064209,0.859131,0.507813
1519491519094,0.054443,0.849365,0.521484
1519491519152,0.038818,0.856201,0.529541
1519491519166,0.022705,0.908936,0.523682
1519491519199,0.001465,0.917725,0.516602
1519491519232,-0.018066,0.892578,0.492920
1519491519262,-0.041016,0.880127,0.470947
1519491519296,-0.028809,0.877441,0.465088
1519491519328,0.002197,0.884277,0.499268
1519491519361,0.017822,0.895020,0.510498
1519491519393,-0.005371,0.909668,0.496338
1519491519427,-0.015381,0.890625,0.498535
1519491519483,-0.018066,0.879395,0.519043
1519491519491,0.000244,0.864258,0.509033
1519491519541,-0.003662,0.898682,0.468506
1519491519575,0.006104,0.895264,0.459961
1519491519583,0.013428,0.901367,0.498779
1519491519647,0.022949,0.912598,0.495361
1519491519656,0.022949,0.922119,0.478027
1519491519681,0.057861,0.928955,0.487061
1519491519744,0.092773,0.863037,0.511719
1519491519753,0.104736,0.828125,0.511963
1519491519778,0.086182,0.823242,0.510010
1519491519808,0.032471,0.874023,0.527832
1519491519882,0.022461,0.917480,0.532471
1519491519891,0.032471,0.904053,0.508789
1519491519949,0.077148,0.859863,0.517334
1519491519957,0.089600,0.836914,0.521729
1519491520016,0.073730,0.832520,0.495605
1519491520086,0.048096,0.905029,0.498535
1519491520151,0.006592,0.959229,0.502197
1519491520156,-0.016846,0.923828,0.475586
1519491520220,-0.008301,0.875244,0.500732
1519491520228,0.013428,0.861328,0.512207
1519491520286,0.045410,0.835693,0.515137
1519491520289,0.079834,0.859375,0.499512
1519491520356,0.081543,0.900879,0.504883
1519491520364,0.076416,0.911377,0.500977
1519491520372,0.058350,0.886963,0.504639
1519491520375,0.039551,0.868896,0.519775
1519491520378,0.037842,0.874268,0.546875
1519491520400,0.070068,0.873291,0.549072
1519491520433,0.093994,0.877441,0.525635
1519491520466,0.095215,0.859619,0.505127
1519491520498,0.061768,0.864990,0.504639
1519491520530,0.046875,0.886719,0.521484
1519491520563,0.041992,0.865723,0.527100
1519491520596,0.053467,0.838135,0.521973
1519491520629,0.055908,0.851318,0.515381
1519491520638,0.052002,0.896484,0.508301
1519491520694,0.061768,0.895020,0.484619
1519491520727,0.041260,0.899170,0.453857
1519491520760,0.012451,0.890869,0.437012
1519491520791,-0.027588,0.915283,0.466064
1519491520822,-0.018066,0.935059,0.497314
1519491520838,0.005371,0.930664,0.500977
1519491520896,0.039063,0.919922,0.478271
1519491520903,0.049805,0.905518,0.469727
1519491520932,0.052979,0.887695,0.476074
1519491520998,0.036865,0.879883,0.481201
1519491521007,0.035400,0.875244,0.484619
1519491521035,0.030518,0.868652,0.489990
1519491521093,0.040039,0.881104,0.501465
1519491521102,0.041504,0.888672,0.496582
1519491521156,0.040039,0.897217,0.500244
1519491521189,0.039551,0.890869,0.499756
1519491521222,0.052490,0.907471,0.496094
1519491521236,0.039307,0.895996,0.490234
1519491521293,0.010986,0.900391,0.488281
1519491521302,0.013916,0.894043,0.480713
1519491521328,0.033203,0.808594,0.505127
1519491521386,0.111816,0.699951,0.683838
1519491521394,0.007324,0.927490,0.522949
1519491521419,0.105225,1.130859,0.392334
1519491521452,0.043457,0.901123,0.309570
1519491521510,0.035400,0.808350,0.366211
1519491521520,0.050049,0.957031,0.475342
1519491521571,0.021973,0.906494,0.536133
1519491521605,0.017090,0.798828,0.531494
1519491521638,0.015625,0.867920,0.512207
1519491521654,0.019287,0.936523,0.523193
1519491521687,0.021973,0.882080,0.514404
1519491521718,0.020264,0.844727,0.482422
1519491521752,0.038330,0.884277,0.479492
1519491521784,0.056396,0.912598,0.498047
1519491521815,0.054199,0.884277,0.496338
1519491521873,0.045410,0.873047,0.503174
1519491521882,0.046631,0.884277,0.525879
1519491521906,0.042236,0.879639,0.525635
1519491521965,0.030762,0.864990,0.511475
1519491521971,0.033936,0.874023,0.511963
1519491522001,0.039795,0.879639,0.508545
1519491522040,0.047363,0.883545,0.501221
1519491522074,0.045166,0.879883,0.496094
1519491522106,0.038818,0.881104,0.495850
1519491522139,0.035645,0.890869,0.501953
1519491522171,0.031494,0.885986,0.505615
1519491522204,0.031250,0.883301,0.502930
1519491522236,0.030762,0.880859,0.502686
1519491522279,0.030518,0.888916,0.502441
1519491522288,0.034424,0.888428,0.501953
1519491522341,0.039307,0.884277,0.502441
1519491522372,0.041016,0.878662,0.501953
1519491522381,0.034424,0.886963,0.502930
1519491522435,0.031494,0.886475,0.502441
1519491522450,0.031738,0.889893,0.503662
1519491522483,0.035156,0.882568,0.501221
1519491522538,0.035156,0.885742,0.504395
1519491522545,0.035889,0.894287,0.505859
1519491522602,0.044189,0.888184,0.502441
1519491522635,0.047852,0.873291,0.492432
1519491522667,0.047607,0.880615,0.502441
1519491522700,0.038086,0.883789,0.510498
1519491522733,0.034668,0.883545,0.514404
1519491522766,0.037354,0.868652,0.507324
1519491522797,0.044189,0.863281,0.508057
1519491522831,0.039063,0.879883,0.504883
1519491522862,0.038574,0.880127,0.504395
1519491522870,0.035156,0.882080,0.502930
1519491522921,0.042236,0.889648,0.506104
1519491522954,0.037842,0.891846,0.504150
1519491522960,0.033691,0.895508,0.499268
1519491523017,0.030762,0.885498,0.495850
1519491523049,0.028076,0.877930,0.493164
1519491523082,0.026367,0.884521,0.503662
1519491523115,0.023926,0.878418,0.513916
1519491523147,0.024902,0.886963,0.510498
1519491523180,0.028564,0.893555,0.510498
1519491523212,0.019531,0.896973,0.496582
1519491523245,0.018066,0.886475,0.496826
1519491523277,0.008301,0.884766,0.496826
1519491523310,0.007080,0.874268,0.499756
1519491523343,0.012207,0.890625,0.506592
1519491523376,0.030518,0.886230,0.517334
1519491523409,0.046387,0.873535,0.514404
1519491523439,0.059814,0.862305,0.522949
1519491523444,0.075195,0.857666,0.531738
1519491523501,0.089844,0.852295,0.549072
1519491523533,0.096924,0.843018,0.555908
1519491523557,0.099365,0.833496,0.564941
1519491523616,0.092285,0.825684,0.567139
1519491523625,0.103760,0.834473,0.571777
1519491523650,0.102783,0.844971,0.568848
1519491523682,0.090820,0.834961,0.558838
1519491523716,0.084961,0.839844,0.555908
1519491523747,0.074951,0.850342,0.552246
1519491523780,0.069092,0.854736,0.546631
1519491523813,0.069092,0.848877,0.541748
1519491523846,0.067139,0.849854,0.535645
1519491523878,0.063477,0.852051,0.538086
1519491523910,0.065186,0.858643,0.540283
1519491523947,0.066162,0.860352,0.552002
1519491523980,0.062256,0.856201,0.544189
1519491524012,0.057617,0.857422,0.539795
1519491524044,0.053955,0.860107,0.542480
1519491524077,0.044922,0.866943,0.533691
1519491524111,0.039307,0.871582,0.526123
1519491524144,0.034424,0.873779,0.520264
1519491524177,0.031738,0.876465,0.518066
1519491524208,0.031494,0.876953,0.519775
