1519491526051,0.031250,0.871582,0.516357
1519491526053,0.034180,0.884766,0.518311
1519491526117,0.030762,0.889160,0.520508
1519491526149,0.046387,0.898438,0.528809
1519491526152,0.051270,0.877197,0.519531
1519491526208,0.044434,0.862061,0.516846
1519491526214,0.041260,0.858398,0.523438
1519491526272,0.041260,0.853516,0.525391
1519491526305,0.037354,0.848877,0.528564
1519491526311,0.034912,0.866455,0.534180
1519491526370,0.026855,0.882324,0.525146
1519491526402,0.023438,0.884766,0.508057
1519491526436,0.030762,0.887939,0.503418
1519491526471,0.038086,0.888672,0.509521
1519491526479,0.033447,0.885010,0.525146
1519491526536,0.033203,0.880859,0.518799
1519491526568,0.041748,0.875488,0.516602
1519491526581,0.049316,0.857910,0.521729
1519491526613,0.045410,0.856689,0.523682
1519491526646,0.039307,0.861084,0.536133
1519491526678,0.044189,0.867188,0.536865
1519491526710,0.049805,0.867188,0.531250
1519491526742,0.053955,0.866699,0.527344
1519491526799,0.048828,0.867432,0.522949
1519491526801,0.046143,0.862549,0.525879
1519491526833,0.047119,0.860107,0.529297
1519491526865,0.050049,0.865723,0.524414
1519491526898,0.045654,0.870605,0.520264
1519491526930,0.037354,0.875977,0.520752
1519491526963,0.032471,0.874268,0.517334
1519491526997,0.029785,0.869141,0.517334
1519491527029,0.029297,0.874023,0.516846
1519491527087,0.034180,0.880127,0.511475
1519491527096,0.037109,0.882568,0.509033
1519491527149,0.033447,0.887207,0.506592
1519491527182,0.029297,0.877441,0.510010
1519491527214,0.026855,0.878662,0.516846
1519491527220,0.030518,0.874023,0.516846
1519491527274,0.034180,0.878418,0.515137
1519491527306,0.033203,0.882080,0.512695
1519491527315,0.031982,0.883789,0.515137
1519491527364,0.043213,0.877197,0.517578
1519491527399,0.044922,0.864258,0.518799
1519491527412,0.044922,0.863037,0.521729
1519491527468,0.045166,0.864990,0.517090
1519491527472,0.044678,0.868164,0.516113
1519491527531,0.040283,0.871338,0.521484
1519491527543,0.039063,0.869385,0.528320
1519491527599,0.041016,0.867188,0.521240
1519491527631,0.040771,0.876953,0.516846
1519491527663,0.042480,0.875977,0.518799
1519491527695,0.038574,0.874512,0.518799
1519491527728,0.035400,0.878662,0.516602
1519491527761,0.037354,0.875977,0.516357
1519491527793,0.037109,0.874268,0.516846
1519491527798,0.039795,0.874268,0.519287
1519491527864,0.035889,0.877441,0.520752
1519491527871,0.037598,0.875244,0.519043
1519491527898,0.036621,0.880371,0.517334
1519491527956,0.036377,0.876953,0.519775
1519491527964,0.035645,0.872070,0.517822
1519491528013,0.046143,0.868408,0.517090
1519491528047,0.061523,0.866455,0.518555
1519491528079,0.055420,0.869629,0.515625
1519491528112,0.042969,0.881592,0.511719
1519491528145,0.038574,0.881592,0.524414
1519491528177,0.043701,0.859863,0.526367
1519491528212,0.039795,0.855469,0.520508
1519491528226,0.044434,0.868164,0.522705
1519491528259,0.050049,0.876221,0.518066
1519491528294,0.045410,0.878662,0.516113
1519491528327,0.042480,0.875000,0.516846
1519491528360,0.041748,0.873779,0.517090
1519491528392,0.041748,0.873535,0.519531
1519491528425,0.046631,0.865723,0.522705
1519491528458,0.045166,0.862305,0.515381
1519491528490,0.042480,0.873779,0.515625
1519491528529,0.047363,0.879150,0.515381
1519491528561,0.047363,0.878174,0.516113
1519491528594,0.046143,0.887939,0.525879
1519491528626,0.051514,0.875000,0.537109
1519491528640,0.053467,0.848145,0.524902
1519491528678,0.044922,0.855469,0.513428
1519491528710,0.037354,0.881836,0.514404
1519491528743,0.044189,0.873535,0.509033
1519491528776,0.046631,0.872070,0.507324
1519491528809,0.051025,0.881836,0.510498
1519491528841,0.056396,0.871338,0.515869
1519491528872,0.048584,0.862549,0.513184
1519491528905,0.046387,0.877930,0.506348
1519491528937,0.045166,0.892334,0.507080
1519491528971,0.043701,0.901367,0.514648
1519491529029,0.042969,0.886963,0.514160
1519491529038,0.041748,0.875000,0.508545
1519491529068,0.041748,0.874512,0.506348
1519491529101,0.047363,0.877686,0.505127
1519491529134,0.049316,0.874756,0.508301
1519491529167,0.048584,0.870361,0.515869
1519491529200,0.056641,0.865967,0.523438
1519491529232,0.062256,0.866211,0.525146
1519491529264,0.057373,0.866211,0.520020
1519491529297,0.054932,0.876465,0.523682
1519491529330,0.056885,0.876709,0.526855
1519491529362,0.059814,0.871094,0.524170
1519491529394,0.058838,0.867676,0.518066
1519491529427,0.056641,0.870117,0.516846
1519491529461,0.053955,0.869873,0.519287
1519491529506,0.047363,0.873535,0.520264
1519491529538,0.047852,0.875488,0.519043
1519491529546,0.047607,0.875732,0.517334
1519491529596,0.049561,0.879639,0.516113
1519491529605,0.051514,0.876709,0.512939
1519491529661,0.050781,0.879639,0.511719
1519491529693,0.048340,0.876709,0.511963
1519491529701,0.048828,0.878418,0.514648
1519491529755,0.052490,0.874756,0.515381
1519491529789,0.052490,0.868164,0.520264
1519491529822,0.051270,0.874268,0.510742
1519491529893,0.049316,0.877441,0.511963
1519491529898,0.050781,0.878906,0.512451
1519491529961,0.052979,0.867920,0.514160
1519491529970,0.054688,0.875244,0.510254
1519491530030,0.048340,0.882324,0.505859
1519491530037,0.049072,0.882324,0.510010
1519491530096,0.051758,0.873779,0.512451
1519491530105,0.052490,0.876709,0.507568
1519491530164,0.054688,0.875977,0.507080
1519491530171,0.051025,0.873291,0.506104
1519491530231,0.053223,0.863037,0.504150
1519491530233,0.051025,0.887695,0.505371
1519491530236,0.052734,0.898193,0.511230
1519491530300,0.051758,0.878906,0.507080
1519491530369,0.055420,0.880371,0.505371
1519491530395,0.060547,0.885742,0.503662
1519491530404,0.056152,0.885986,0.503662
1519491530410,0.054199,0.879395,0.503418
1519491530439,0.055420,0.878174,0.503174
1519491530451,0.059570,0.882080,0.505615
1519491530480,0.057617,0.881348,0.505127
1519491530537,0.058105,0.879883,0.504395
1519491530570,0.057861,0.880859,0.503906
1519491530603,0.059326,0.876465,0.505615
1519491530614,0.060547,0.875244,0.501465
1519491530661,0.061523,0.887451,0.501953
1519491530697,0.060547,0.884033,0.505127
1519491530704,0.058105,0.882080,0.504395
1519491530766,0.058838,0.881836,0.496826
1519491530769,0.060059,0.883789,0.501709
1519491530800,0.059082,0.882080,0.500244
1519491530833,0.062256,0.877686,0.501221
1519491530867,0.060547,0.879395,0.501465
1519491530898,0.060791,0.884766,0.503174
1519491530930,0.058838,0.882568,0.501709
1519491530963,0.060059,0.882568,0.500732
1519491531022,0.063232,0.882568,0.499023
1519491531031,0.063721,0.882568,0.499756
1519491531064,0.063477,0.883545,0.501465
1519491531097,0.059570,0.884033,0.498535
1519491531138,0.059082,0.885498,0.497314
1519491531169,0.060303,0.881592,0.497070
1519491531202,0.058838,0.884766,0.499756
1519491531240,0.056152,0.885010,0.498291
1519491531270,0.059082,0.885742,0.495850
1519491531275,0.058594,0.890869,0.495850
1519491531335,0.058838,0.882568,0.498047
1519491531367,0.059814,0.888672,0.493164
1519491531398,0.058350,0.891357,0.495117
1519491531435,0.057373,0.892334,0.504639
1519491531468,0.058105,0.886719,0.501465
1519491531476,0.057617,0.878174,0.492920
1519491531513,0.061768,0.887207,0.494873
1519491531545,0.059814,0.884521,0.498535
1519491531579,0.058350,0.884277,0.497314
1519491531611,0.055664,0.888672,0.493408
1519491531669,0.056152,0.886230,0.499023
1519491531677,0.054688,0.884277,0.498779
1519491531731,0.057617,0.892090,0.498291
1519491531734,0.057373,0.886475,0.496094
1519491531765,0.054932,0.882324,0.498047
1519491531799,0.057861,0.885742,0.500732
1519491531831,0.058350,0.885498,0.502197
1519491531863,0.055176,0.883057,0.499023
1519491531896,0.055420,0.883301,0.496338
1519491531929,0.054199,0.884521,0.497559
1519491531962,0.052734,0.882080,0.498291
1519491531995,0.056152,0.886963,0.499512
1519491532027,0.057129,0.885254,0.502686
1519491532060,0.055176,0.885498,0.498047
1519491532092,0.060303,0.889160,0.501465
1519491532125,0.056152,0.887451,0.504883
1519491532182,0.057861,0.881592,0.500000
1519491532214,0.054199,0.882568,0.494141
1519491532227,0.051025,0.883789,0.498779
1519491532248,0.052979,0.881592,0.499756
1519491532305,0.056885,0.885742,0.501465
1519491532311,0.058105,0.882813,0.500488
1519491532340,0.060303,0.883301,0.500977
1519491532379,0.058105,0.886230,0.500000
1519491532409,0.055908,0.886963,0.500244
1519491532442,0.058350,0.890137,0.500977
1519491532473,0.061279,0.876953,0.500977
1519491532517,0.058350,0.879150,0.501465
1519491532549,0.057617,0.884766,0.499023
1519491532584,0.060791,0.881592,0.503662
1519491532617,0.060303,0.872070,0.504883
1519491532650,0.061768,0.870361,0.503174
1519491532682,0.064941,0.875488,0.503662
1519491532712,0.069092,0.883545,0.504150
1519491532745,0.062988,0.885986,0.505371
1519491532786,0.050537,0.887451,0.505615
1519491532793,0.049072,0.879395,0.506348
1519491532846,0.047607,0.874268,0.510010
1519491532879,0.050049,0.880615,0.509521
1519491532910,0.053467,0.879883,0.504883
1519491532945,0.053955,0.882568,0.496338
1519491532977,0.056152,0.894043,0.497559
1519491533009,0.054688,0.884521,0.504395
1519491533041,0.051270,0.880615,0.505371
1519491533072,0.049316,0.881836,0.502930
1519491533106,0.043457,0.881592,0.504395
1519491533139,0.043457,0.880127,0.505615
1519491533170,0.049072,0.882324,0.505127
1519491533212,0.052979,0.878662,0.504150
1519491533217,0.050537,0.879395,0.503418
1519491533271,0.048828,0.882080,0.501465
1519491533303,0.047852,0.886719,0.505615
1519491533308,0.047607,0.881348,0.506104
1519491533366,0.044189,0.881836,0.504150
1519491533375,0.044189,0.886475,0.503418
1519491533427,0.048096,0.881104,0.502930
1519491533461,0.049316,0.882080,0.500488
1519491533470,0.047119,0.885986,0.504395
1519491533523,0.044434,0.886475,0.504883
1519491533556,0.046631,0.880127,0.502686
1519491533590,0.044189,0.879150,0.505615
1519491533604,0.043213,0.880615,0.504395
1519491533661,0.043945,0.882813,0.504150
1519491533670,0.048096,0.881348,0.502930
1519491533722,0.047607,0.880859,0.504639
1519491533756,0.043701,0.881104,0.505371
1519491533799,0.043701,0.882080,0.505615
1519491533807,0.043945,0.882080,0.505615
1519491533857,0.042725,0.880859,0.505859
1519491533890,0.047119,0.880615,0.503174
1519491533899,0.048340,0.880615,0.503662
1519491533948,0.045898,0.880615,0.504883
1519491533953,0.041016,0.887207,0.505371
1519491534007,0.044434,0.886475,0.505615
1519491534021,0.041504,0.876465,0.505615
1519491534053,0.042725,0.883789,0.503906
1519491534086,0.043457,0.886963,0.504639
1519491534118,0.043945,0.875000,0.504639
1519491534150,0.046143,0.882080,0.504639
1519491534208,0.044434,0.886475,0.506104
1519491534241,0.045166,0.881104,0.508789
1519491534250,0.044922,0.876221,0.507080
1519491534304,0.048096,0.878906,0.506348
1519491534314,0.049072,0.879883,0.510742
1519491534372,0.050293,0.876953,0.508301
1519491534381,0.052246,0.875488,0.507813
1519491534430,0.051270,0.873291,0.511963
1519491534436,0.047119,0.875732,0.510254
1519491534468,0.045410,0.878906,0.506592
1519491534527,0.051025,0.879395,0.511230
1519491534536,0.050049,0.878418,0.513672
1519491534589,0.049561,0.879150,0.507080
1519491534621,0.047363,0.882813,0.506592
1519491534654,0.045654,0.879883,0.510742
1519491534685,0.047119,0.881836,0.515137
1519491534718,0.045654,0.880127,0.511963
1519491534752,0.044434,0.881348,0.505615
1519491534783,0.051758,0.877197,0.508057
1519491534815,0.054443,0.876221,0.502197
1519491534897,0.050781,0.875977,0.507080
1519491534965,0.048828,0.878906,0.512451
1519491534975,0.051758,0.878662,0.508789
1519491535033,0.052979,0.873291,0.510742
1519491535041,0.046875,0.876953,0.514648
1519491535099,0.052979,0.877930,0.508789
1519491535107,0.051758,0.873047,0.508789
1519491535167,0.047607,0.878174,0.514648
1519491535176,0.050537,0.885254,0.509766
1519491535234,0.053223,0.874512,0.509766
1519491535240,0.051758,0.869873,0.514648
1519491535301,0.054688,0.872559,0.510986
1519491535307,0.051514,0.872070,0.508301
1519491535370,0.050293,0.880127,0.516113
1519491535379,0.051270,0.879639,0.520020
1519491535388,0.053467,0.875977,0.512207
1519491535394,0.053223,0.876221,0.508301
1519491535397,0.048340,0.874512,0.505615
1519491535422,0.047119,0.874268,0.513184
1519491535430,0.049561,0.881348,0.519775
1519491535487,0.054443,0.879639,0.521484
1519491535520,0.051758,0.874512,0.507324
1519491535528,0.052734,0.862305,0.502441
1519491535584,0.048340,0.876221,0.497314
1519491535620,0.044678,0.888672,0.536865
1519491535653,0.039063,0.879639,0.536621
1519491535684,0.046143,0.875000,0.499023
1519491535698,0.057129,0.878174,0.492188
1519491535729,0.052490,0.885010,0.498779
1519491535762,0.048828,0.879150,0.513916
1519491535795,0.048828,0.881104,0.521973
1519491535852,0.052979,0.870850,0.524414
1519491535861,0.040527,0.884033,0.513428
1519491535892,0.040771,0.881592,0.504639
1519491535949,0.046143,0.863770,0.503906
1519491535982,0.044189,0.873047,0.505127
1519491536016,0.048584,0.881836,0.515137
1519491536024,0.042725,0.877197,0.521729
1519491536074,0.041016,0.873291,0.508057
1519491536115,0.044922,0.871094,0.514893
1519491536123,0.045654,0.876709,0.520264
1519491536174,0.045898,0.881836,0.515625
1519491536183,0.049316,0.882324,0.498779
1519491536233,0.053223,0.880859,0.496094
1519491536271,0.050781,0.881836,0.504883
1519491536280,0.049561,0.880859,0.514893
1519491536330,0.050049,0.878906,0.521240
1519491536358,0.048340,0.874512,0.517578
1519491536391,0.041748,0.873291,0.505127
1519491536423,0.042236,0.878418,0.502686
1519491536458,0.044189,0.877930,0.509033
1519491536490,0.042480,0.873779,0.522217
1519491536522,0.041504,0.873779,0.518799
1519491536553,0.041748,0.875977,0.505859
1519491536585,0.046143,0.872803,0.509521
1519491536596,0.046875,0.879150,0.518066
1519491536649,0.043701,0.884277,0.512695
1519491536682,0.045898,0.879883,0.504883
1519491536692,0.055664,0.882568,0.502686
1519491536746,0.052002,0.884033,0.512939
1519491536782,0.055420,0.887207,0.523438
1519491536814,0.053467,0.872070,0.519043
1519491536846,0.042725,0.859619,0.509033
1519491536877,0.025879,0.869873,0.507080
1519491536891,0.024902,0.892090,0.511719
1519491536923,0.052979,0.885010,0.518066
1519491536957,0.062988,0.868896,0.514648
1519491536991,0.052002,0.860596,0.504395
1519491537049,0.038086,0.876465,0.506592
1519491537057,0.033691,0.876953,0.518555
1519491537111,0.030029,0.878662,0.517822
1519491537145,0.043213,0.885986,0.509033
1519491537178,0.061523,0.886963,0.507324
1519491537187,0.068359,0.876953,0.507080
1519491537241,0.062744,0.881104,0.509521
1519491537272,0.046631,0.881592,0.508301
1519491537276,0.037842,0.875488,0.510498
1519491537331,0.028809,0.872070,0.508057
1519491537335,0.036865,0.881104,0.510254
1519491537393,0.045898,0.882324,0.513672
1519491537426,0.048584,0.878174,0.510986
1519491537434,0.045410,0.876709,0.506348
1519491537490,0.041504,0.870117,0.506104
1519491537523,0.037842,0.873535,0.512207
1519491537556,0.038330,0.886230,0.512451
1519491537589,0.043457,0.889404,0.505615
1519491537639,0.051514,0.883545,0.504639
1519491537647,0.053955,0.878662,0.507324
1519491537672,0.054688,0.875732,0.510742
1519491537711,0.050781,0.879395,0.510498
1519491537744,0.046875,0.885986,0.508545
1519491537775,0.044434,0.878418,0.505371
1519491537807,0.042236,0.876953,0.506836
1519491537840,0.041748,0.879150,0.509766
1519491537873,0.039307,0.876709,0.511475
1519491537905,0.034424,0.876465,0.505127
1519491537940,0.040527,0.883057,0.503418
1519491537973,0.041504,0.881592,0.504883
1519491538005,0.042236,0.881348,0.506592
1519491538038,0.042725,0.882568,0.504639
1519491538071,0.047119,0.882568,0.501221
1519491538104,0.053223,0.882324,0.504395
1519491538118,0.050049,0.881104,0.505859
1519491538150,0.048340,0.883057,0.510010
1519491538187,0.048096,0.886963,0.510742
1519491538220,0.048340,0.880859,0.508789
1519491538253,0.040527,0.876465,0.506836
1519491538287,0.038086,0.883057,0.503174
1519491538318,0.039551,0.889648,0.497803
1519491538351,0.044678,0.881104,0.500977
1519491538386,0.042480,0.876709,0.504883
1519491538417,0.041504,0.872559,0.506348
1519491538449,0.038086,0.883301,0.505371
1519491538484,0.037598,0.882568,0.507324
1519491538517,0.040527,0.888184,0.504395
1519491538557,0.044678,0.884766,0.493896
1519491538590,0.055176,0.879395,0.496094
1519491538622,0.048096,0.883301,0.504395
1519491538631,0.042236,0.888672,0.508789
1519491538685,0.042480,0.885742,0.510742
1519491538718,0.043213,0.874512,0.506348
1519491538751,0.040771,0.876221,0.504883
1519491538784,0.039551,0.884766,0.505371
1519491538792,0.041260,0.881836,0.500977
1519491538818,0.045410,0.878174,0.500244
1519491538874,0.040771,0.878418,0.505615
1519491538879,0.036621,0.879395,0.513184
1519491538918,0.037598,0.879883,0.510742
1519491538959,0.043213,0.886963,0.500488
1519491538992,0.046631,0.886475,0.498779
1519491539024,0.051270,0.879395,0.503174
1519491539058,0.049561,0.888428,0.503906
1519491539091,0.044189,0.885254,0.506104
1519491539123,0.044678,0.884766,0.510010
1519491539162,0.040283,0.881104,0.505615
1519491539195,0.039795,0.876709,0.504883
1519491539204,0.041992,0.875244,0.504150
1519491539257,0.042480,0.880859,0.501465
1519491539288,0.047119,0.880859,0.500732
1519491539296,0.043701,0.878418,0.507080
1519491539361,0.038574,0.877441,0.510010
1519491539370,0.032715,0.880859,0.506348
1519491539419,0.038086,0.885010,0.508545
1519491539452,0.041992,0.884033,0.505127
1519491539485,0.050537,0.880615,0.502197
1519491539518,0.051025,0.881104,0.498047
1519491539551,0.043213,0.884521,0.505859
1519491539583,0.040527,0.886719,0.508545
1519491539615,0.042236,0.884766,0.509521
1519491539648,0.041748,0.877930,0.506592
1519491539681,0.039307,0.878662,0.506592
1519491539713,0.038818,0.879883,0.507324
1519491539730,0.042236,0.880615,0.506104
1519491539785,0.046387,0.872070,0.501221
1519491539790,0.043701,0.873535,0.502930
1519491539886,0.044189,0.886719,0.511719
1519491539894,0.043701,0.886230,0.510010
1519491539953,0.043213,0.887695,0.502930
1519491539958,0.044434,0.877686,0.501709
1519491540021,0.046387,0.874268,0.508057
1519491540031,0.046631,0.878418,0.510010
1519491540087,0.041504,0.885986,0.505859
1519491540090,0.040527,0.885010,0.504639
1519491540154,0.041992,0.882813,0.504639
1519491540156,0.042725,0.885010,0.507568
1519491540223,0.042969,0.879639,0.506836
1519491540226,0.043945,0.878174,0.511719
1519491540291,0.046143,0.875977,0.509766
1519491540293,0.042236,0.875244,0.505615
1519491540359,0.039795,0.876465,0.506104
1519491540365,0.039307,0.884766,0.507080
1519491540390,0.040039,0.889893,0.503174
1519491540395,0.043457,0.886963,0.500244
1519491540423,0.047363,0.883545,0.499756
1519491540455,0.046143,0.883545,0.504883
1519491540461,0.046631,0.885010,0.508301
1519491540514,0.043701,0.880615,0.507568
1519491540548,0.042236,0.877441,0.505615
1519491540561,0.042480,0.880859,0.501221
1519491540595,0.044189,0.881836,0.503174
1519491540625,0.044189,0.881104,0.505615
1519491540659,0.047119,0.879639,0.506104
1519491540693,0.045166,0.874512,0.502686
1519491540724,0.040527,0.877930,0.508057
1519491540781,0.040527,0.882813,0.512207
1519491540815,0.041016,0.882324,0.503174
1519491540824,0.045410,0.887207,0.493896
1519491540877,0.050293,0.886719,0.491699
1519491540908,0.050293,0.888184,0.501709
1519491540941,0.043945,0.894043,0.505127
1519491540946,0.042969,0.886475,0.504883
1519491541015,0.040283,0.877686,0.505127
1519491541023,0.040283,0.878906,0.506592
1519491541048,0.038818,0.876953,0.506836
1519491541109,0.041992,0.883301,0.504395
1519491541112,0.048584,0.882568,0.500732
1519491541143,0.048096,0.881836,0.500488
1519491541176,0.045166,0.881836,0.506592
1519491541209,0.045898,0.884521,0.508789
1519491541241,0.038330,0.878906,0.505859
1519491541274,0.039063,0.889160,0.501465
1519491541305,0.044678,0.886963,0.502441
1519491541337,0.047363,0.887207,0.501221
1519491541396,0.047607,0.886230,0.500488
1519491541427,0.044189,0.884033,0.501709
1519491541436,0.040771,0.883057,0.505371
1519491541479,0.035400,0.876953,0.506104
1519491541511,0.035889,0.881348,0.507080
1519491541544,0.040527,0.877930,0.503174
1519491541576,0.049805,0.875244,0.507813
1519491541609,0.045898,0.893066,0.498047
1519491541641,0.042969,0.884033,0.495850
1519491541674,0.040283,0.892334,0.495361
1519491541706,0.040283,0.888916,0.501953
1519491541738,0.041748,0.877686,0.505615
1519491541771,0.042969,0.879639,0.502686
1519491541804,0.041016,0.892578,0.503174
1519491541836,0.039551,0.891602,0.500000
1519491541870,0.037842,0.879883,0.497559
1519491541900,0.037109,0.879639,0.500488
1519491541932,0.040039,0.889404,0.500488
1519491541966,0.036621,0.884766,0.501953
1519491541999,0.037354,0.893555,0.491699
1519491542009,0.040771,0.889160,0.490967
1519491542068,0.037109,0.891602,0.504883
1519491542100,0.042969,0.890381,0.501953
1519491542109,0.038330,0.881104,0.495850
1519491542158,0.034668,0.881348,0.489746
1519491542191,0.030762,0.891846,0.498047
1519491542224,0.036377,0.887207,0.504883
1519491542257,0.045166,0.876953,0.503174
1519491542290,0.046143,0.882324,0.500977
1519491542324,0.041016,0.888916,0.501221
1519491542357,0.044434,0.885986,0.501709
1519491542390,0.042725,0.879639,0.499268
1519491542422,0.041504,0.880859,0.500244
1519491542454,0.037109,0.883545,0.503662
1519491542488,0.037109,0.888428,0.499512
1519491542521,0.043457,0.892578,0.502197
1519491542553,0.052490,0.878906,0.502197
1519491542569,0.050293,0.879150,0.503174
1519491542595,0.041748,0.877686,0.505127
1519491542651,0.036377,0.876465,0.502686
1519491542685,0.039551,0.881104,0.504883
1519491542693,0.046631,0.883301,0.509277
1519491542759,0.043213,0.890869,0.506104
1519491542767,0.036621,0.885498,0.499023
1519491542791,0.038818,0.890381,0.497559
1519491542850,0.040771,0.889648,0.501221
1519491542858,0.037109,0.882324,0.497803
1519491542882,0.034912,0.881348,0.495117
1519491542917,0.034668,0.890381,0.499023
1519491542953,0.036621,0.887207,0.500244
1519491542997,0.039551,0.883789,0.500488
1519491543032,0.041016,0.884521,0.504395
1519491543065,0.040039,0.883057,0.503662
1519491543098,0.038574,0.881348,0.503418
1519491543130,0.039063,0.882813,0.504639
1519491543163,0.041992,0.880127,0.502686
1519491543172,0.041260,0.881348,0.502197
1519491543224,0.041016,0.884521,0.503662
1519491543256,0.039795,0.886475,0.501709
1519491543266,0.041504,0.888428,0.501465
1519491543319,0.040527,0.884521,0.502197
1519491543351,0.040771,0.885254,0.502441
1519491543366,0.037842,0.882568,0.502930
1519491543424,0.039063,0.884521,0.503662
1519491543432,0.040039,0.887451,0.500977
1519491543487,0.039063,0.884521,0.503418
1519491543519,0.040039,0.884277,0.503906
1519491543551,0.041016,0.881104,0.502686
1519491543585,0.040283,0.883789,0.502197
1519491543617,0.038330,0.888184,0.497314
1519491543648,0.038086,0.885498,0.503662
1519491543681,0.038330,0.881348,0.503174
1519491543714,0.041016,0.883789,0.501709
1519491543746,0.036865,0.881836,0.501221
1519491543756,0.036865,0.884033,0.501953
1519491543805,0.038818,0.882813,0.500244
1519491543838,0.038330,0.881592,0.500244
1519491543847,0.038086,0.885010,0.504639
1519491543900,0.038574,0.885986,0.501709
1519491543932,0.036865,0.886719,0.500000
1519491543965,0.034424,0.882813,0.500244
1519491544000,0.036133,0.884033,0.500977
1519491544039,0.038574,0.887695,0.500488
1519491544048,0.039307,0.885254,0.500000
1519491544078,0.039307,0.886230,0.501221
1519491544135,0.035645,0.885254,0.504883
1519491544168,0.037598,0.884277,0.503174
1519491544181,0.035400,0.882568,0.497559
1519491544212,0.039551,0.888184,0.501465
1519491544245,0.041260,0.886719,0.503174
1519491544278,0.040527,0.883301,0.501953
1519491544311,0.037354,0.883545,0.499756
1519491544343,0.037842,0.885254,0.502197
1519491544375,0.038574,0.878418,0.503418
1519491544409,0.038086,0.886230,0.501465
1519491544440,0.041260,0.887695,0.499023
1519491544473,0.036621,0.883789,0.504150
1519491544506,0.039551,0.888184,0.501709
1519491544540,0.039063,0.881836,0.500732
1519491544571,0.035400,0.880859,0.501465
1519491544613,0.037598,0.886719,0.503906
1519491544646,0.039307,0.882324,0.500000
1519491544678,0.040039,0.886719,0.500732
1519491544709,0.038574,0.885254,0.501221
1519491544742,0.038330,0.884277,0.502930
1519491544775,0.036621,0.886230,0.502441
1519491544784,0.037598,0.883057,0.501465
1519491544810,0.035400,0.884766,0.499756
1519491544882,0.037354,0.882813,0.499268
1519491544890,0.039795,0.887207,0.500000
1519491544947,0.038574,0.886230,0.500977
1519491544953,0.038086,0.886230,0.500000
1519491545017,0.036377,0.885986,0.498047
1519491545089,0.037598,0.886230,0.499268
1519491545155,0.036865,0.883545,0.499512
1519491545163,0.038330,0.885254,0.500000
1519491545221,0.037598,0.886719,0.498535
1519491545229,0.038330,0.883057,0.495361
1519491545287,0.038818,0.892334,0.495605
1519491545290,0.041016,0.889648,0.501221
1519491545355,0.040771,0.885742,0.503418
1519491545361,0.037354,0.881592,0.497559
1519491545390,0.034912,0.886719,0.495850
1519491545400,0.037354,0.886963,0.497803
1519491545407,0.037598,0.885986,0.498779
1519491545416,0.039063,0.883057,0.496094
1519491545450,0.036621,0.887451,0.498291
1519491545453,0.034180,0.887695,0.498779
1519491545511,0.033691,0.891113,0.499023
1519491545544,0.036621,0.887451,0.499023
1519491545576,0.037598,0.884766,0.498535
1519491545609,0.036621,0.885254,0.498535
1519491545641,0.039551,0.888184,0.496338
1519491545674,0.038086,0.888184,0.497070
1519491545705,0.037109,0.883789,0.500732
1519491545739,0.038818,0.885010,0.501709
1519491545771,0.037842,0.887207,0.496582
1519491545780,0.037354,0.887695,0.496338
1519491545829,0.038330,0.887695,0.497803
1519491545862,0.035889,0.879639,0.498535
1519491545871,0.034180,0.886963,0.497803
1519491545933,0.038330,0.890869,0.500488
1519491545941,0.039795,0.885986,0.502197
1519491545996,0.039551,0.885254,0.497803
1519491546030,0.037109,0.882080,0.494873
1519491546039,0.034424,0.887939,0.498535
1519491546092,0.037842,0.886719,0.500000
1519491546126,0.037598,0.880371,0.497070
1519491546158,0.035889,0.884766,0.499023
1519491546189,0.035400,0.887939,0.496826
1519491546222,0.037354,0.888672,0.497803
1519491546236,0.038574,0.886963,0.500244
1519491546271,0.038818,0.883789,0.502686
1519491546303,0.036377,0.884277,0.500000
1519491546359,0.037598,0.884766,0.500732
1519491546365,0.038330,0.886230,0.500732
1519491546420,0.040527,0.884766,0.502686
1519491546452,0.038818,0.884033,0.500977
1519491546457,0.037354,0.888184,0.498291
1519491546511,0.038574,0.885986,0.501465
1519491546520,0.033447,0.882568,0.500244
1519491546574,0.032959,0.886475,0.499512
1519491546599,0.037109,0.884033,0.498535
1519491546632,0.037842,0.882813,0.499756
1519491546673,0.039063,0.888672,0.497070
1519491546707,0.035889,0.885498,0.503906
1519491546739,0.034668,0.885254,0.504883
1519491546771,0.038086,0.884521,0.499268
1519491546805,0.036865,0.883789,0.498535
1519491546837,0.033447,0.883057,0.500000
1519491546868,0.036377,0.886719,0.501709
1519491546904,0.038086,0.884521,0.499512
1519491546937,0.037598,0.882813,0.497314
1519491546946,0.032715,0.882324,0.496094
1519491546995,0.038574,0.895508,0.500488
1519491547030,0.037842,0.887695,0.504150
1519491547038,0.033691,0.880127,0.501953
1519491547101,0.029053,0.881836,0.496826
1519491547109,0.036865,0.887207,0.495850
1519491547134,0.042480,0.888428,0.495605
1519491547191,0.036377,0.882813,0.497070
1519491547201,0.031982,0.887451,0.501709
1519491547253,0.033447,0.891846,0.504883
1519491547287,0.035645,0.882324,0.498047
1519491547321,0.035645,0.882813,0.496094
1519491547352,0.034424,0.885010,0.499268
1519491547384,0.040771,0.890869,0.501221
1519491547416,0.038574,0.883301,0.499512
1519491547448,0.033936,0.881348,0.496826
1519491547462,0.034424,0.893799,0.497314
1519491547521,0.036621,0.887207,0.500977
1519491547524,0.034668,0.885010,0.501709
1519491547580,0.037109,0.883789,0.494385
1519491547586,0.037598,0.884766,0.495605
1519491547614,0.033447,0.889160,0.494629
1519491547672,0.034424,0.889404,0.495605
1519491547681,0.035889,0.885986,0.499268
1519491547737,0.037354,0.885742,0.496826
1519491547770,0.035156,0.887207,0.495361
1519491547802,0.035400,0.895264,0.496094
1519491547834,0.034424,0.890137,0.497314
1519491547845,0.034912,0.885010,0.496338
1519491547880,0.036377,0.887939,0.493896
1519491547936,0.034912,0.890625,0.492920
1519491547968,0.035400,0.890869,0.490967
1519491548000,0.035889,0.888428,0.491455
1519491548033,0.036133,0.885986,0.496338
1519491548067,0.034180,0.890869,0.494141
1519491548099,0.036377,0.891113,0.493896
1519491548107,0.034912,0.888672,0.492188
1519491548158,0.037842,0.890625,0.493408
1519491548167,0.038574,0.889404,0.494385
1519491548196,0.035889,0.883057,0.492432
1519491548230,0.033447,0.896729,0.488525
1519491548262,0.036621,0.891357,0.496338
1519491548303,0.038574,0.888184,0.497070
1519491548334,0.034424,0.885010,0.491699
1519491548366,0.033691,0.890137,0.488525
1519491548400,0.032227,0.891846,0.495361
1519491548431,0.036621,0.885010,0.495361
1519491548464,0.036865,0.883545,0.494629
1519491548497,0.036133,0.888672,0.492676
1519491548529,0.035889,0.886719,0.494385
1519491548563,0.034424,0.890625,0.494141
1519491548595,0.031738,0.889893,0.498047
1519491548626,0.034668,0.887695,0.493408
1519491548659,0.032227,0.888672,0.490479
1519491548675,0.034912,0.887939,0.492920
1519491548731,0.032959,0.889404,0.494385
1519491548764,0.034180,0.890625,0.494385
1519491548797,0.036133,0.888672,0.494873
1519491548807,0.033447,0.891113,0.494385
1519491548865,0.033691,0.890137,0.495850
1519491548898,0.032227,0.887695,0.494629
1519491548930,0.035889,0.894043,0.493652
1519491548962,0.032227,0.888184,0.498291
1519491548994,0.032715,0.879150,0.494873
1519491549027,0.032227,0.896484,0.490723
1519491549059,0.034424,0.892578,0.495605
1519491549073,0.033936,0.889404,0.495850
1519491549131,0.032471,0.886475,0.495605
1519491549140,0.031006,0.886230,0.493896
1519491549159,0.030029,0.889160,0.492920
1519491549217,0.030762,0.888184,0.493164
1519491549226,0.031982,0.887207,0.495605
1519491549280,0.030273,0.889160,0.496826
1519491549311,0.029541,0.892090,0.497803
1519491549344,0.029541,0.889404,0.496826
1519491549377,0.031006,0.890869,0.495361
1519491549410,0.036133,0.886963,0.489258
1519491549441,0.034180,0.884766,0.489258
1519491549474,0.033691,0.890869,0.492920
1519491549488,0.035400,0.892090,0.498047
1519491549545,0.031982,0.885742,0.496826
1519491549551,0.028320,0.883057,0.496826
1519491549606,0.028564,0.885254,0.497314
1519491549638,0.035156,0.882568,0.493164
1519491549647,0.034424,0.885254,0.497803
1519491549696,0.037354,0.888428,0.502930
1519491549728,0.037842,0.887207,0.499756
1519491549761,0.035400,0.885498,0.497559
1519491549796,0.031494,0.885986,0.497314
1519491549802,0.034912,0.893555,0.495850
1519491549873,0.033203,0.889404,0.499268
1519491549876,0.034180,0.893555,0.497314
1519491549941,0.033936,0.894287,0.485596
1519491549943,0.028564,0.887695,0.488037
1519491550008,0.029297,0.883545,0.503906
1519491550010,0.033447,0.879883,0.503174
1519491550078,0.035889,0.878662,0.504395
1519491550082,0.039307,0.886475,0.504883
1519491550147,0.037598,0.884521,0.499512
1519491550152,0.038330,0.881836,0.496094
1519491550215,0.035889,0.881836,0.500244
1519491550224,0.035400,0.896484,0.504395
1519491550281,0.033691,0.885498,0.502441
1519491550351,0.032471,0.890137,0.497559
1519491550377,0.036621,0.887451,0.494141
1519491550384,0.034180,0.887695,0.492676
1519491550389,0.030762,0.889893,0.494629
1519491550397,0.030762,0.889648,0.495850
1519491550438,0.031006,0.887939,0.497070
1519491550471,0.032227,0.888672,0.493652
1519491550505,0.030762,0.882324,0.491943
1519491550539,0.028809,0.885254,0.497070
1519491550569,0.032227,0.890869,0.503174
1519491550602,0.035156,0.886475,0.502197
1519491550634,0.037354,0.883057,0.497803
1519491550667,0.043213,0.888184,0.493408
1519491550700,0.035156,0.891846,0.497070
1519491550703,0.031738,0.892578,0.497070
1519491550773,0.031006,0.885498,0.498779
1519491550782,0.031250,0.882568,0.498047
1519491550805,0.032959,0.887939,0.492920
1519491550862,0.034180,0.888672,0.488281
1519491550867,0.031738,0.894043,0.489014
1519491550923,0.032715,0.894531,0.488770
1519491550956,0.030029,0.892334,0.493164
1519491550988,0.028809,0.889893,0.495361
1519491551021,0.033691,0.886475,0.495361
1519491551054,0.034668,0.888428,0.492920
1519491551086,0.035400,0.889893,0.491943
1519491551119,0.034912,0.895752,0.487793
1519491551133,0.036133,0.894531,0.488770
1519491551190,0.035889,0.888184,0.489014
1519491551196,0.034912,0.888184,0.493408
1519491551253,0.032715,0.885498,0.502686
1519491551285,0.031006,0.890137,0.496826
1519491551288,0.039063,0.891357,0.491943
1519491551344,0.039551,0.892334,0.485596
1519491551351,0.034180,0.901123,0.480469
1519491551383,0.031494,0.895752,0.483887
1519491551442,0.030762,0.885986,0.500000
1519491551447,0.031250,0.885010,0.499023
1519491551504,0.032471,0.892822,0.488037
1519491551537,0.031494,0.894287,0.483887
1519491551551,0.033203,0.895264,0.483643
1519491551583,0.035889,0.890625,0.485107
1519491551615,0.036133,0.892578,0.487305
1519491551648,0.035889,0.888916,0.493164
1519491551681,0.032959,0.889404,0.496094
1519491551717,0.034180,0.892822,0.494629
1519491551751,0.035156,0.891357,0.489502
1519491551783,0.036377,0.891113,0.487305
1519491551815,0.034912,0.895020,0.484863
1519491551848,0.033691,0.895508,0.481934
1519491551881,0.031982,0.892822,0.487061
1519491551913,0.030518,0.891357,0.493896
1519491551946,0.031006,0.887207,0.493652
1519491551987,0.029541,0.885010,0.491943
1519491552019,0.033691,0.895264,0.489014
1519491552027,0.036133,0.891113,0.485352
1519491552083,0.034180,0.897949,0.480225
1519491552116,0.034912,0.898682,0.487305
1519491552148,0.030518,0.893066,0.496582
1519491552182,0.028809,0.883301,0.496826
1519491552214,0.031494,0.886719,0.494873
1519491552247,0.031982,0.890381,0.491455
1519491552279,0.035156,0.897217,0.487793
1519491552312,0.032471,0.892334,0.484375
1519491552344,0.031006,0.902344,0.494141
1519491552346,0.027100,0.905518,0.502441
1519491552412,0.030518,0.877686,0.467529
1519491552444,0.036377,0.878174,0.476318
1519491552447,0.031982,0.864014,0.501465
1519491552479,0.034180,0.874756,0.493896
1519491552512,0.020264,0.901367,0.468018
1519491552544,0.010010,0.919678,0.460449
1519491552578,0.013184,0.928467,0.468506
1519491552611,0.017090,0.911865,0.469971
1519491552643,0.027832,0.899414,0.474609
1519491552678,0.023193,0.897949,0.480469
1519491552787,0.021973,0.899414,0.483154
1519491552788,0.021729,0.888428,0.483154
1519491552789,0.019775,0.885498,0.477295
1519491552815,0.019043,0.899902,0.473633
1519491552847,0.021729,0.907959,0.471191
1519491552879,0.025146,0.902344,0.482178
1519491552912,0.025146,0.899170,0.484863
1519491552944,0.020508,0.895996,0.474854
1519491552998,0.017334,0.900146,0.475586
1519491553001,0.018799,0.898926,0.477783
1519491553032,0.020020,0.893555,0.480957
1519491553064,0.022949,0.898438,0.479736
1519491553097,0.025879,0.902832,0.479004
1519491553129,0.024414,0.903320,0.477051
1519491553163,0.023438,0.895752,0.478516
1519491553196,0.026611,0.896240,0.478516
1519491553229,0.020996,0.893555,0.481934
1519491553263,0.022949,0.898682,0.483887
1519491553296,0.022949,0.897949,0.481689
1519491553328,0.025146,0.897705,0.478516
1519491553361,0.024902,0.898193,0.478271
1519491553393,0.024414,0.897461,0.478271
1519491553425,0.023193,0.895020,0.481689
1519491553458,0.023926,0.899902,0.484131
1519491553491,0.023193,0.894531,0.480957
1519491553523,0.021729,0.889648,0.480713
1519491553556,0.021973,0.909180,0.481689
1519491553588,0.021973,0.895508,0.478027
1519491553606,0.022949,0.897705,0.481445
1519491553641,0.025146,0.897461,0.479248
1519491553673,0.025146,0.899414,0.479492
1519491553707,0.024170,0.898193,0.477295
1519491553739,0.024658,0.897461,0.479492
1519491553772,0.026367,0.896484,0.479004
1519491553804,0.024170,0.895020,0.479980
1519491553836,0.023682,0.897461,0.481201
1519491553894,0.023193,0.898438,0.480713
1519491553896,0.024170,0.899170,0.481201
1519491553954,0.024902,0.898193,0.478516
1519491553955,0.025391,0.895996,0.475830
1519491553989,0.021240,0.895752,0.474854
1519491554055,0.024170,0.896973,0.477783
1519491554057,0.021484,0.893555,0.478027
1519491554089,0.018799,0.904541,0.482422
1519491554122,0.030273,0.913330,0.474365
1519491554179,0.031982,0.899170,0.468506
1519491554184,0.025635,0.890869,0.477051
1519491554242,0.024658,0.885254,0.489746
1519491554277,0.013184,0.894043,0.472900
1519491554309,0.019043,0.894531,0.477539
1519491554341,0.021240,0.898682,0.469482
1519491554354,0.018799,0.906006,0.467041
1519491554393,0.027100,0.907471,0.478516
1519491554425,0.031250,0.900146,0.487549
1519491554458,0.026855,0.893799,0.473145
1519491554490,0.021973,0.897705,0.463867
1519491554523,0.023193,0.897461,0.478027
1519491554555,0.023438,0.894531,0.485352
1519491554588,0.030029,0.899658,0.485107
1519491554623,0.025391,0.899170,0.476807
1519491554658,0.024170,0.900391,0.475098
1519491554690,0.023682,0.901123,0.474365
1519491554723,0.026123,0.898926,0.476807
1519491554755,0.026855,0.899414,0.478027
1519491554788,0.026123,0.898193,0.478516
1519491554801,0.022705,0.898193,0.479736
1519491554873,0.024414,0.898438,0.476074
1519491554878,0.027344,0.898193,0.478271
1519491554940,0.027344,0.895752,0.477295
1519491554943,0.024658,0.899414,0.479248
1519491555008,0.022705,0.898193,0.479004
1519491555010,0.023682,0.902100,0.477783
1519491555077,0.027100,0.900391,0.479980
1519491555143,0.022705,0.893799,0.476563
1519491555211,0.021240,0.902588,0.473145
1519491555213,0.024658,0.904053,0.476318
1519491555278,0.023682,0.899170,0.479248
1519491555280,0.023193,0.898438,0.478027
1519491555346,0.024414,0.899902,0.478271
1519491555348,0.021484,0.899902,0.475586
1519491555376,0.023682,0.893799,0.471191
1519491555378,0.019531,0.893555,0.476807
1519491555382,0.019043,0.898438,0.484375
1519491555384,0.016357,0.900146,0.481445
1519491555438,0.020020,0.901855,0.473145
1519491555471,0.021729,0.900635,0.472656
1519491555503,0.025635,0.898438,0.476807
1519491555557,0.024414,0.897461,0.477295
1519491555560,0.024902,0.899170,0.480713
1519491555594,0.020996,0.898438,0.481201
1519491555627,0.020752,0.900146,0.482422
1519491555629,0.019775,0.891846,0.479248
1519491555686,0.022949,0.901367,0.476074
1519491555699,0.025635,0.901367,0.477783
1519491555733,0.022705,0.900391,0.481934
1519491555791,0.018311,0.896484,0.476074
1519491555796,0.019287,0.894775,0.474365
1519491555828,0.019531,0.888184,0.480713
1519491555886,0.011963,0.893555,0.497803
1519491555918,0.018066,0.896729,0.499268
1519491555951,0.030518,0.905762,0.489502
1519491555983,0.051025,0.893799,0.472656
1519491556018,0.050537,0.894043,0.465576
1519491556050,0.035889,0.892090,0.468262
1519491556083,0.018311,0.904785,0.483154
1519491556097,0.007080,0.904053,0.484863
1519491556129,0.010010,0.905762,0.476074
1519491556162,0.013672,0.902588,0.463623
1519491556195,0.011475,0.898682,0.461426
1519491556227,0.009766,0.899414,0.463623
1519491556286,0.013672,0.910156,0.476807
1519491556295,0.017578,0.911865,0.467285
1519491556319,0.016602,0.903564,0.458252
1519491556353,0.016113,0.898926,0.467773
1519491556387,0.015381,0.900635,0.477051
1519491556420,0.010742,0.904785,0.474854
1519491556452,0.021729,0.908447,0.469482
1519491556484,0.027100,0.900146,0.467041
1519491556526,0.032471,0.901611,0.470703
1519491556563,0.028564,0.907471,0.474121
1519491556595,0.027588,0.906494,0.478027
1519491556626,0.022461,0.901123,0.475586
1519491556658,0.017578,0.894775,0.467041
1519491556691,0.017822,0.906982,0.461914
1519491556695,0.018799,0.905518,0.467041
1519491556754,0.018555,0.901367,0.479980
1519491556786,0.014893,0.893555,0.473633
1519491556792,0.013672,0.903076,0.468506
1519491556839,0.020264,0.903076,0.478271
1519491556872,0.015869,0.888428,0.481445
1519491556912,0.033936,0.901367,0.471924
1519491556944,0.033691,0.895508,0.466553
1519491556977,0.027344,0.894531,0.456055
1519491557009,0.021484,0.904053,0.457764
1519491557044,0.016113,0.909180,0.481689
1519491557076,0.018555,0.910156,0.494141
1519491557107,0.014648,0.902588,0.481689
1519491557140,0.021729,0.901367,0.460205
1519491557145,0.030762,0.925049,0.451172
1519491557203,0.021240,0.910400,0.447021
1519491557236,-0.004395,0.894775,0.459473
1519491557246,-0.001221,0.915283,0.471680
1519491557300,0.001221,0.930176,0.474854
1519491557333,0.010254,0.877441,0.452637
1519491557364,0.030518,0.886719,0.471924
1519491557397,0.031006,0.897949,0.489746
1519491557430,0.036621,0.890381,0.488281
1519491557461,0.033691,0.905029,0.464355
1519491557494,0.039307,0.906250,0.457764
1519491557531,0.028320,0.900391,0.476074
1519491557564,0.016602,0.900146,0.490479
1519491557597,0.015381,0.902832,0.487061
1519491557629,0.014404,0.905518,0.473389
1519491557660,0.009033,0.903809,0.459229
1519491557665,0.006592,0.899658,0.450684
1519491557729,0.007080,0.896729,0.454590
1519491557737,0.005859,0.901367,0.456543
1519491557763,0.004395,0.915527,0.469482
1519491557821,0.005127,0.903076,0.470215
1519491557829,0.014648,0.896729,0.469971
1519491557879,0.022217,0.893066,0.473145
1519491557911,0.023926,0.898193,0.480713
1519491557944,0.025879,0.905273,0.471436
1519491557975,0.028320,0.906250,0.465088
1519491558009,0.036377,0.902100,0.471191
1519491558042,0.029053,0.895996,0.479980
1519491558074,0.022949,0.899902,0.481201
1519491558090,0.023926,0.902832,0.483154
1519491558148,0.022217,0.898682,0.478027
1519491558157,0.014404,0.902344,0.467041
1519491558207,0.011475,0.900635,0.457520
1519491558239,0.009277,0.901855,0.457520
1519491558247,0.005859,0.904785,0.461426
1519491558298,0.005859,0.910400,0.476807
1519491558331,0.011230,0.896484,0.469482
1519491558353,0.010010,0.899658,0.464355
1519491558407,0.016846,0.905273,0.463379
1519491558414,0.027344,0.911133,0.471191
1519491558440,0.029541,0.904053,0.470215
1519491558475,0.033203,0.907471,0.472412
1519491558517,0.029053,0.903809,0.472900
1519491558550,0.026367,0.903076,0.471924
1519491558583,0.023438,0.904541,0.475586
1519491558614,0.022461,0.897461,0.475586
1519491558646,0.021240,0.897217,0.468018
1519491558679,0.017822,0.908447,0.461426
1519491558713,0.014160,0.905029,0.461670
1519491558746,0.012939,0.894287,0.465576
1519491558779,0.013184,0.902832,0.475586
1519491558811,0.015625,0.900146,0.477051
1519491558843,0.020264,0.896729,0.468262
1519491558875,0.025879,0.906250,0.458008
1519491558906,0.031006,0.915527,0.467285
1519491558920,0.033203,0.897705,0.474365
1519491558977,0.025391,0.897949,0.479736
1519491558983,0.023193,0.907959,0.478027
1519491559041,0.023438,0.904297,0.474854
1519491559074,0.023438,0.898926,0.471680
1519491559089,0.022217,0.902832,0.474121
1519491559120,0.025146,0.901611,0.471924
1519491559153,0.018066,0.906006,0.467773
1519491559186,0.020020,0.911133,0.467773
1519491559219,0.019287,0.902588,0.474121
1519491559251,0.020264,0.894531,0.469727
1519491559307,0.018311,0.886719,0.461426
1519491559309,0.019287,0.904785,0.474121
1519491559353,0.034180,0.901123,0.474609
1519491559397,0.041504,0.892822,0.477539
1519491559399,0.036377,0.893066,0.479248
1519491559458,0.027588,0.903320,0.479736
1519491559466,0.021240,0.903564,0.472900
1519491559522,0.025391,0.898193,0.472412
1519491559554,0.028564,0.895996,0.477539
1519491559587,0.029297,0.899170,0.482422
1519491559619,0.026855,0.898682,0.476807
1519491559652,0.022949,0.901855,0.472900
1519491559685,0.024170,0.904785,0.473877
1519491559717,0.033691,0.898682,0.476807
1519491559734,0.037354,0.895264,0.477051
1519491559762,0.033203,0.904785,0.473633
1519491559820,0.033447,0.900146,0.475342
1519491559892,0.030518,0.895996,0.484131
1519491559894,0.030762,0.894531,0.482422
1519491559959,0.033691,0.896729,0.478271
1519491559961,0.030029,0.895996,0.478516
1519491560027,0.028076,0.903320,0.488037
1519491560029,0.031250,0.900146,0.485107
1519491560095,0.032959,0.893555,0.473145
1519491560096,0.029785,0.898438,0.477295
1519491560162,0.022949,0.895996,0.482910
1519491560164,0.031006,0.894043,0.480713
1519491560230,0.033447,0.895752,0.476318
1519491560232,0.032471,0.890869,0.486572
1519491560298,0.029297,0.892578,0.485596
1519491560304,0.029297,0.893311,0.482910
1519491560361,0.032715,0.892822,0.484131
1519491560366,0.033203,0.895264,0.490479
1519491560371,0.032471,0.894775,0.488525
1519491560396,0.032959,0.894287,0.478271
1519491560432,0.031006,0.893311,0.479980
1519491560464,0.028809,0.897217,0.480957
1519491560470,0.029541,0.898926,0.485107
1519491560525,0.031982,0.898682,0.481445
1519491560534,0.029541,0.891357,0.479248
1519491560560,0.024902,0.903076,0.479492
1519491560619,0.029541,0.894043,0.483154
1519491560651,0.025879,0.889404,0.484131
1519491560679,0.026367,0.898438,0.482910
1519491560712,0.026611,0.896729,0.481201
1519491560744,0.034668,0.893799,0.485596
1519491560776,0.035400,0.891357,0.484619
1519491560809,0.025635,0.894531,0.482910
1519491560843,0.031982,0.898682,0.478760
1519491560875,0.033447,0.895996,0.479492
1519491560908,0.029541,0.897217,0.486816
1519491560941,0.031006,0.892578,0.486572
1519491560973,0.031494,0.898193,0.484131
1519491561016,0.029297,0.887451,0.479736
1519491561049,0.025879,0.898438,0.478760
1519491561057,0.029297,0.894531,0.485840
1519491561083,0.031494,0.889160,0.486572
1519491561115,0.026855,0.890137,0.484619
1519491561148,0.023926,0.896240,0.481689
1519491561181,0.027344,0.897705,0.479980
1519491561214,0.029541,0.892822,0.478760
1519491561245,0.028809,0.893799,0.482422
1519491561278,0.031006,0.896484,0.484863
1519491561336,0.028076,0.897217,0.481934
1519491561345,0.024170,0.895264,0.482178
1519491561378,0.026367,0.895508,0.483643
1519491561411,0.030762,0.894531,0.484131
1519491561444,0.029785,0.892822,0.483887
1519491561500,0.029053,0.896973,0.483154
1519491561503,0.027100,0.895752,0.484619
1519491561534,0.027832,0.895264,0.484375
1519491561593,0.028076,0.890381,0.481689
1519491561601,0.026367,0.897949,0.476074
1519491561625,0.030029,0.897705,0.478271
1519491561658,0.027588,0.898682,0.481934
1519491561717,0.026855,0.899414,0.480713
1519491561749,0.031006,0.903809,0.479004
1519491561758,0.028564,0.885986,0.480225
1519491561811,0.024170,0.898438,0.481689
1519491561845,0.030762,0.895264,0.479248
1519491561878,0.031006,0.896484,0.478760
1519491561910,0.028320,0.893555,0.480469
1519491561918,0.025635,0.900146,0.481445
1519491561959,0.027100,0.899414,0.479004
1519491561991,0.028076,0.898926,0.476563
1519491562023,0.028809,0.897949,0.476807
1519491562083,0.029053,0.894531,0.479004
1519491562092,0.026367,0.896973,0.474365
1519491562115,0.027100,0.898193,0.474854
1519491562173,0.030029,0.898926,0.479004
1519491562182,0.029297,0.896973,0.476318
1519491562206,0.031738,0.900635,0.479004
1519491562264,0.027344,0.905273,0.474854
1519491562297,0.027100,0.900635,0.470703
1519491562328,0.027588,0.896973,0.472900
1519491562337,0.028320,0.898438,0.477051
1519491562381,0.027588,0.915283,0.469727
1519491562414,0.029541,0.917236,0.466309
1519491562446,0.030273,0.892090,0.475830
1519491562480,0.026855,0.892334,0.481934
1519491562512,0.029785,0.893799,0.469238
1519491562548,0.031738,0.889648,0.471924
1519491562580,0.031982,0.889404,0.479492
1519491562590,0.029053,0.899414,0.474609
1519491562644,0.031494,0.899414,0.477783
1519491562677,0.024658,0.897461,0.481445
1519491562709,0.028809,0.901367,0.483154
1519491562741,0.031250,0.898926,0.473389
1519491562774,0.028076,0.893066,0.470215
1519491562807,0.023438,0.903320,0.471191
1519491562839,0.024902,0.905273,0.478271
1519491562874,0.023438,0.895996,0.473389
1519491562906,0.025391,0.903320,0.472412
1519491562939,0.024902,0.897949,0.474609
1519491562971,0.026123,0.900879,0.479248
1519491563002,0.025391,0.903564,0.476807
1519491563036,0.027832,0.896240,0.476807
1519491563069,0.028564,0.884766,0.479004
1519491563077,0.029541,0.900635,0.476563
1519491563128,0.035156,0.904785,0.474365
1519491563161,0.035645,0.900391,0.479248
1519491563169,0.030273,0.902588,0.480469
1519491563240,0.022949,0.894287,0.476563
1519491563248,0.021240,0.894775,0.473389
1519491563275,0.025879,0.895508,0.477295
1519491563312,0.024170,0.894775,0.477783
1519491563345,0.025146,0.901611,0.478271
1519491563377,0.021484,0.899414,0.476318
1519491563408,0.023682,0.897949,0.470459
1519491563441,0.028320,0.898682,0.476563
1519491563472,0.026855,0.902588,0.477295
1519491563504,0.018799,0.902100,0.472412
1519491563537,0.017822,0.902588,0.473389
1519491563571,0.022461,0.901611,0.475586
1519491563605,0.028809,0.898926,0.476563
1519491563637,0.022949,0.900391,0.473877
1519491563670,0.025879,0.901123,0.474365
1519491563704,0.024658,0.900146,0.473145
1519491563737,0.025879,0.903076,0.478027
1519491563769,0.022217,0.891846,0.480225
1519491563801,0.021729,0.900146,0.472168
1519491563834,0.019531,0.901855,0.474854
1519491563867,0.024414,0.909424,0.477051
1519491563899,0.028809,0.891846,0.469971
1519491563932,0.021484,0.892578,0.475342
1519491563964,0.016602,0.904541,0.472900
1519491563997,0.019043,0.903320,0.472168
1519491564028,0.023682,0.895996,0.475342
1519491564061,0.028809,0.902588,0.479248
1519491564089,0.020752,0.894775,0.474609
1519491564122,0.018555,0.909424,0.473145
1519491564154,0.024170,0.904297,0.472900
1519491564187,0.021729,0.890381,0.480469
1519491564218,0.022949,0.898926,0.481201
1519491564251,0.021729,0.901855,0.473633
1519491564288,0.025391,0.902100,0.476318
1519491564321,0.024658,0.895264,0.473877
1519491564354,0.025635,0.897705,0.472412
1519491564386,0.019775,0.897949,0.474854
1519491564417,0.020752,0.900635,0.475586
1519491564450,0.026611,0.900879,0.477783
1519491564483,0.020020,0.894775,0.480713
1519491564518,0.020508,0.891846,0.471191
1519491564551,0.020264,0.896973,0.470947
1519491564584,0.021240,0.901367,0.476563
1519491564616,0.025391,0.904785,0.476318
1519491564648,0.022461,0.898193,0.475342
1519491564682,0.023438,0.897461,0.478027
1519491564714,0.022705,0.898682,0.476807
1519491564722,0.019531,0.897949,0.471924
1519491564773,0.024658,0.899658,0.477051
1519491564804,0.025391,0.898926,0.476563
1519491564812,0.024658,0.901367,0.478760
1519491564880,0.021240,0.902588,0.477051
1519491564889,0.020508,0.899902,0.475830
1519491564949,0.020752,0.896240,0.473877
1519491564957,0.020020,0.900146,0.476318
1519491565014,0.020752,0.902588,0.474365
1519491565017,0.023438,0.902832,0.469727
1519491565083,0.025635,0.902832,0.471191
1519491565152,0.025879,0.895508,0.471191
1519491565217,0.020752,0.900635,0.473633
1519491565225,0.020996,0.902344,0.470947
1519491565286,0.019775,0.902588,0.473145
1519491565294,0.021973,0.894531,0.472656
1519491565352,0.020508,0.904785,0.466064
1519491565357,0.024170,0.907715,0.468994
1519491565363,0.021240,0.904541,0.474365
1519491565368,0.021484,0.900879,0.470703
1519491565373,0.020020,0.901855,0.469482
1519491565398,0.017822,0.903076,0.468750
1519491565431,0.019287,0.904053,0.466797
1519491565463,0.020508,0.902832,0.466553
1519491565496,0.022217,0.899658,0.468262
1519491565528,0.020264,0.902344,0.469482
1519491565561,0.021240,0.908447,0.470215
1519491565595,0.018799,0.903809,0.467285
1519491565626,0.021240,0.903076,0.469238
1519491565683,0.020752,0.901123,0.468750
1519491565692,0.018799,0.900879,0.467041
1519491565744,0.020020,0.906494,0.466064
1519491565799,0.021240,0.903809,0.467529
1519491565807,0.022705,0.906006,0.468994
1519491565833,0.020508,0.903809,0.462646
1519491565866,0.021729,0.900146,0.462891
1519491565896,0.018311,0.903320,0.465576
1519491565910,0.021484,0.897217,0.471924
1519491565944,0.023682,0.909912,0.467773
1519491565976,0.023926,0.907227,0.467529
1519491566008,0.022705,0.902344,0.473145
1519491566066,0.023682,0.902832,0.470947
1519491566100,0.021484,0.900879,0.465820
1519491566133,0.017822,0.902832,0.466309
1519491566141,0.019775,0.903809,0.469238
1519491566196,0.024902,0.901855,0.470459
1519491566205,0.023193,0.905273,0.467041
1519491566265,0.022461,0.903076,0.468750
1519491566271,0.019531,0.905273,0.470459
1519491566332,0.017578,0.904541,0.467773
1519491566353,0.019531,0.902588,0.466064
1519491566378,0.020508,0.903076,0.466797
1519491566409,0.022705,0.901611,0.470459
1519491566442,0.022217,0.906738,0.466309
1519491566476,0.020996,0.903809,0.465088
1519491566509,0.021240,0.904297,0.468262
1519491566542,0.022217,0.901367,0.469482
1519491566575,0.019287,0.903320,0.468506
1519491566608,0.021484,0.903564,0.468994
1519491566641,0.022217,0.897949,0.469482
1519491566672,0.019775,0.906738,0.465820
1519491566704,0.024658,0.903809,0.468994
1519491566719,0.022949,0.900635,0.473145
1519491566778,0.016846,0.899902,0.468262
1519491566811,0.019287,0.903320,0.464355
1519491566843,0.026123,0.917480,0.468506
1519491566851,0.018555,0.899414,0.468018
1519491566900,0.022705,0.907227,0.468018
1519491566906,0.024170,0.908936,0.465332
1519491566940,0.020020,0.901123,0.465332
1519491566997,0.015869,0.902344,0.468994
1519491567004,0.018066,0.903809,0.470703
1519491567079,0.019531,0.899414,0.469482
1519491567087,0.018799,0.899170,0.467529
1519491567111,0.017578,0.903076,0.467041
1519491567153,0.020508,0.910889,0.468994
1519491567190,0.023682,0.907715,0.468506
1519491567223,0.021973,0.908691,0.466064
1519491567255,0.019043,0.906494,0.466797
1519491567288,0.022705,0.907471,0.463135
1519491567320,0.017090,0.898682,0.466309
1519491567353,0.014160,0.898193,0.468506
1519491567384,0.019775,0.905273,0.464844
1519491567416,0.019287,0.903076,0.465332
1519491567420,0.021484,0.904297,0.467041
1519491567475,0.021729,0.902344,0.468018
1519491567508,0.020508,0.904785,0.465332
1519491567522,0.018555,0.909424,0.468506
1519491567580,0.018066,0.906494,0.466309
1519491567588,0.017578,0.902100,0.468506
1519491567641,0.019775,0.903564,0.467529
1519491567675,0.016357,0.901123,0.465576
1519491567707,0.015381,0.905029,0.467285
1519491567716,0.019775,0.904785,0.469482
1519491567772,0.020020,0.897461,0.469971
1519491567805,0.021240,0.901367,0.470703
1519491567836,0.019287,0.903564,0.465332
1519491567874,0.017578,0.904541,0.464355
1519491567901,0.018311,0.909424,0.468750
1519491567906,0.017578,0.900879,0.468018
1519491567960,0.017334,0.902832,0.472412
1519491567993,0.023193,0.906494,0.477295
1519491568002,0.026367,0.901123,0.474365
1519491568055,0.030273,0.905029,0.461670
1519491568089,0.030273,0.906982,0.463135
1519491568122,0.022461,0.908447,0.467041
1519491568161,0.014160,0.903076,0.464355
1519491568169,0.012207,0.903076,0.462402
1519491568223,0.008545,0.906738,0.461182
1519491568255,0.010498,0.907471,0.462158
1519491568287,0.014160,0.898682,0.462891
1519491568320,0.015625,0.901123,0.466553
1519491568359,0.013184,0.904053,0.466797
1519491568367,0.013428,0.906738,0.468506
1519491568421,0.018311,0.911377,0.470215
1519491568453,0.021240,0.903076,0.464355
1519491568487,0.022461,0.903076,0.458008
1519491568495,0.026855,0.905762,0.460449
1519491568544,0.024658,0.907471,0.474854
1519491568577,0.020020,0.906494,0.473877
1519491568584,0.018555,0.908447,0.467529
1519491568637,0.019775,0.904785,0.459229
1519491568670,0.022217,0.903076,0.461914
1519491568701,0.021973,0.900635,0.460449
1519491568735,0.023926,0.905518,0.464600
1519491568767,0.023926,0.901367,0.471680
1519491568798,0.019775,0.898193,0.472412
1519491568831,0.014893,0.907471,0.465820
1519491568864,0.015381,0.905029,0.463379
1519491568897,0.016357,0.905518,0.460205
1519491568929,0.019775,0.903076,0.458740
1519491568962,0.018311,0.904785,0.462891
1519491568994,0.017334,0.910645,0.469727
1519491569025,0.014160,0.906250,0.459229
1519491569057,0.015137,0.902344,0.452637
1519491569063,0.018799,0.905762,0.462646
1519491569119,0.017334,0.909668,0.473877
1519491569161,0.017822,0.913330,0.465820
1519491569170,0.023682,0.907959,0.455811
1519491569195,0.024170,0.906982,0.459717
1519491569255,0.025879,0.905273,0.464355
1519491569288,0.023438,0.903809,0.469238
1519491569320,0.019531,0.905518,0.470703
1519491569325,0.016602,0.898438,0.466064
1519491569384,0.019043,0.898193,0.459473
1519491569416,0.013428,0.900635,0.467529
1519491569448,0.014404,0.899414,0.476318
1519491569482,0.014404,0.906982,0.473389
1519491569515,0.018066,0.905029,0.455322
1519491569527,0.019287,0.902588,0.457764
1519491569562,0.020508,0.915283,0.467529
1519491569593,0.016357,0.913330,0.472412
1519491569637,0.016113,0.908936,0.463867
1519491569644,0.017334,0.906982,0.457031
1519491569701,0.022949,0.903564,0.459961
1519491569706,0.024170,0.905518,0.471191
1519491569741,0.021729,0.901855,0.476563
1519491569799,0.022461,0.898438,0.474854
1519491569831,0.023438,0.896973,0.469727
1519491569901,0.024902,0.899170,0.466553
1519491569910,0.021484,0.890381,0.477051
1519491569967,0.020020,0.899658,0.485840
1519491570036,0.015625,0.903564,0.480469
1519491570103,0.015869,0.899902,0.460449
1519491570108,0.024414,0.898682,0.464844
1519491570170,0.027832,0.895996,0.470459
1519491570173,0.017578,0.905518,0.477539
1519491570239,0.008057,0.906738,0.473145
1519491570242,0.011230,0.904785,0.465088
1519491570307,0.016602,0.910400,0.452148
1519491570313,0.020020,0.914307,0.462891
1519491570357,0.018799,0.906006,0.469971
1519491570361,0.012451,0.913086,0.457031
1519491570375,0.010986,0.908203,0.448730
1519491570378,-0.000977,0.905273,0.449707
1519491570392,-0.003906,0.914307,0.457520
1519491570395,-0.001709,0.917725,0.455566
1519491570424,-0.003418,0.914063,0.454102
1519491570482,-0.000732,0.911133,0.453125
1519491570514,0.005859,0.918945,0.446289
1519491570521,0.013184,0.917236,0.447510
1519491570579,0.024170,0.913818,0.464844
1519491570612,0.028564,0.908691,0.482422
1519491570621,0.033447,0.901123,0.488525
1519491570669,0.033203,0.895752,0.487549
1519491570675,0.039795,0.889404,0.495361
1519491570708,0.043945,0.874512,0.502441
1519491570764,0.049072,0.866455,0.510986
1519491570778,0.056152,0.866943,0.518066
1519491570811,0.056885,0.865967,0.515625
1519491570844,0.056885,0.863037,0.515381
1519491570877,0.050049,0.861328,0.513916
1519491570919,0.049805,0.873535,0.508057
1519491570952,0.043945,0.867920,0.519043
1519491570987,0.035889,0.872559,0.510742
1519491571017,0.031006,0.875244,0.501953
1519491571053,0.025391,0.889648,0.483154
1519491571087,0.022461,0.899658,0.477783
1519491571095,0.016846,0.911377,0.470215
1519491571149,0.013428,0.907227,0.461182
1519491571181,0.005371,0.911865,0.452393
1519491571196,0.000977,0.920410,0.450928
1519491571252,-0.001953,0.924316,0.448242
1519491571261,-0.005371,0.924316,0.433594
1519491571313,-0.008789,0.926758,0.427490
1519491571345,-0.014648,0.932617,0.425781
1519491571351,-0.012695,0.933838,0.422119
1519491571410,-0.009766,0.930420,0.425781
1519491571442,-0.001221,0.925537,0.431885
1519491571475,-0.003418,0.919434,0.435791
1519491571508,-0.003418,0.925781,0.434326
1519491571539,0.000732,0.939209,0.443604
1519491571573,0.004883,0.915527,0.446045
1519491571587,0.012207,0.918945,0.453125
1519491571644,0.025146,0.910889,0.459473
1519491571677,0.030762,0.903076,0.462402
1519491571685,0.035645,0.897705,0.470215
1519491571735,0.038818,0.895264,0.478271
1519491571767,0.039795,0.887939,0.486328
1519491571773,0.041992,0.882080,0.489990
1519491571827,0.044678,0.878418,0.491943
1519491571858,0.045654,0.879639,0.493652
1519491571890,0.045410,0.879150,0.496826
1519491571922,0.047119,0.877441,0.496826
1519491571955,0.047119,0.894775,0.492188
1519491571989,0.044678,0.891846,0.491211
1519491572003,0.041748,0.883057,0.495850
1519491572034,0.034668,0.888428,0.488037
1519491572093,0.028564,0.892578,0.480225
1519491572101,0.021729,0.901611,0.470703
1519491572157,0.009766,0.905518,0.464600
1519491572199,0.007080,0.912109,0.464111
1519491572207,0.014648,0.916260,0.454834
1519491572258,0.011230,0.912842,0.445557
1519491572266,0.005371,0.915771,0.441650
1519491572316,-0.002441,0.923584,0.437500
1519491572349,-0.005615,0.924805,0.431152
1519491572357,-0.005859,0.926025,0.429443
1519491572408,-0.006592,0.926270,0.425537
1519491572440,-0.007813,0.927734,0.425293
1519491572473,-0.007324,0.925049,0.430908
1519491572505,-0.004150,0.948242,0.416016
1519491572537,-0.003174,0.923828,0.427979
1519491572570,0.000488,0.920898,0.430664
1519491572602,-0.002686,0.928467,0.425781
1519491572636,-0.003174,0.930908,0.429199
1519491572667,0.001709,0.930420,0.436279
1519491572700,0.012451,0.907227,0.442871
1519491572733,0.015381,0.902344,0.449219
1519491572766,0.018311,0.917480,0.453613
1519491572798,0.018066,0.922363,0.458740
1519491572840,0.026367,0.909424,0.469238
1519491572848,0.029297,0.889893,0.468994
1519491572897,0.020264,0.893066,0.465088
1519491572930,0.014648,0.897705,0.464844
1519491572938,0.020508,0.897949,0.463379
1519491572993,0.025391,0.904785,0.456787
1519491573002,0.027832,0.901367,0.460693
1519491573054,0.021729,0.904297,0.458008
1519491573087,0.013184,0.912109,0.457520
1519491573094,0.012939,0.909668,0.455811
1519491573152,0.010742,0.910400,0.452637
1519491573184,0.010742,0.913086,0.452393
1519491573217,0.012939,0.913818,0.450684
1519491573231,0.014648,0.919922,0.450195
1519491573288,0.014160,0.916016,0.448486
1519491573296,0.009766,0.914063,0.445068
1519491573352,0.008057,0.911621,0.442871
1519491573384,0.005127,0.916260,0.442627
1519491573417,0.006104,0.912842,0.441162
1519491573425,0.006592,0.914307,0.448242
1519491573450,0.008057,0.916992,0.451660
1519491573481,0.017090,0.916016,0.448486
1519491573514,0.013184,0.916016,0.451172
1519491573546,0.013916,0.916992,0.453369
1519491573578,0.016357,0.913086,0.447998
1519491573637,0.014404,0.911621,0.448242
1519491573652,0.012451,0.912842,0.449463
1519491573682,0.013672,0.912109,0.449219
1519491573715,0.015869,0.912598,0.449219
1519491573748,0.019287,0.911133,0.453369
1519491573780,0.019043,0.909912,0.457520
1519491573813,0.019531,0.906982,0.456787
1519491573844,0.016602,0.908936,0.458984
1519491573876,0.021240,0.905762,0.458740
1519491573910,0.024414,0.906738,0.463379
1519491573948,0.027832,0.910645,0.463867
1519491573980,0.025635,0.912598,0.460938
1519491574013,0.017578,0.910645,0.456787
1519491574044,0.022217,0.912354,0.456299
1519491574061,0.033447,0.904541,0.452393
1519491574089,0.034912,0.890137,0.455322
1519491574148,0.019531,0.912109,0.452881
1519491574180,0.020996,0.908203,0.457031
1519491574213,0.019531,0.911133,0.458740
1519491574245,0.019531,0.908691,0.462158
1519491574278,0.019043,0.905762,0.460449
1519491574286,0.020996,0.907959,0.458984
1519491574335,0.020996,0.908203,0.457520
1519491574358,0.019287,0.913330,0.459717
1519491574382,0.019775,0.908936,0.459961
1519491574440,0.020996,0.906738,0.455566
1519491574445,0.021729,0.909180,0.456055
1519491574500,0.019531,0.910400,0.457764
1519491574532,0.027832,0.906982,0.463135
1519491574563,0.025391,0.902344,0.458740
1519491574597,0.017090,0.903320,0.461426
1519491574630,0.025146,0.912842,0.465088
1519491574661,0.027588,0.902344,0.465820
1519491574694,0.024414,0.907471,0.467285
1519491574727,0.024414,0.916016,0.462891
1519491574759,0.028809,0.907471,0.463379
1519491574792,0.029785,0.898926,0.463379
1519491574824,0.025391,0.904785,0.458496
1519491574897,0.022217,0.913086,0.453857
1519491574906,0.018066,0.904785,0.458984
1519491574964,0.018555,0.915527,0.472412
1519491574973,0.015625,0.906250,0.454102
1519491575030,0.004639,0.912109,0.440918
1519491575034,0.003418,0.916992,0.452393
1519491575099,0.034180,0.918457,0.471680
1519491575107,0.067871,0.892578,0.504639
1519491575167,0.058594,0.871826,0.513184
1519491575175,0.037842,0.886963,0.484375
1519491575233,0.026123,0.898193,0.461914
1519491575236,0.031006,0.888428,0.484131
1519491575302,0.032471,0.878662,0.505859
1519491575310,0.040527,0.881104,0.504395
1519491575364,0.059082,0.896729,0.493408
1519491575373,0.062744,0.880127,0.492676
1519491575382,0.053467,0.876465,0.507568
1519491575397,0.046875,0.879639,0.505859
1519491575431,0.042969,0.880371,0.503906
1519491575438,0.047607,0.885986,0.501221
1519491575496,0.048584,0.881104,0.498291
1519491575527,0.057861,0.887207,0.504150
1519491575559,0.058350,0.884277,0.506592
1519491575592,0.053223,0.887207,0.493408
1519491575625,0.047607,0.885254,0.502686
1519491575658,0.029541,0.880859,0.492188
1519491575690,0.030029,0.899414,0.486328
1519491575723,0.032715,0.891113,0.460938
1519491575737,0.031006,0.887207,0.462646
1519491575793,0.025146,0.899658,0.505127
1519491575827,0.029785,0.887939,0.513428
1519491575859,0.042236,0.879883,0.495850
1519491575872,0.062012,0.892090,0.493652
1519491575901,0.068848,0.897949,0.507568
1519491575959,0.072754,0.876221,0.519287
1519491575991,0.061768,0.870117,0.510742
1519491576039,0.048096,0.876953,0.501953
1519491576048,0.027832,0.887451,0.486572
1519491576071,0.019775,0.903076,0.483398
1519491576104,0.030273,0.887695,0.495361
1519491576139,0.030029,0.883789,0.500244
1519491576180,0.022949,0.893066,0.477051
1519491576189,0.031006,0.903320,0.462891
1519491576243,0.047607,0.895508,0.485596
1519491576276,0.052979,0.882324,0.512695
1519491576285,0.057617,0.878906,0.511230
1519491576338,0.064209,0.867188,0.502686
1519491576371,0.056885,0.887207,0.499023
1519491576404,0.045654,0.885742,0.505615
1519491576436,0.044922,0.880371,0.506592
1519491576468,0.052246,0.880615,0.514893
1519491576502,0.053223,0.884521,0.509766
1519491576533,0.049561,0.888428,0.499512
1519491576548,0.041992,0.888184,0.483643
1519491576607,0.041260,0.891357,0.482178
1519491576615,0.027588,0.895752,0.481201
1519491576666,0.012207,0.885498,0.470703
1519491576676,0.014404,0.898682,0.479248
1519491576701,0.025391,0.900635,0.498779
1519491576759,0.036133,0.887939,0.502197
1519491576768,0.047119,0.884766,0.492432
1519491576821,0.055176,0.884277,0.482910
1519491576857,0.054443,0.893555,0.488281
1519491576890,0.051758,0.889404,0.508057
1519491576896,0.049316,0.882568,0.508789
1519491576953,0.043945,0.883545,0.505615
1519491576986,0.041504,0.889160,0.497070
1519491577019,0.039307,0.892334,0.490234
1519491577051,0.036865,0.886230,0.486572
1519491577083,0.030762,0.883545,0.487793
1519491577116,0.021973,0.894287,0.481689
1519491577149,0.019531,0.896729,0.469238
1519491577181,0.025635,0.904297,0.476807
1519491577186,0.024902,0.893066,0.492188
1519491577239,0.027588,0.890869,0.497314
1519491577272,0.033447,0.893066,0.485840
1519491577280,0.034912,0.895996,0.474121
1519491577344,0.041504,0.897949,0.488770
1519491577353,0.043701,0.891846,0.498779
1519491577403,0.040771,0.890381,0.497803
1519491577434,0.038818,0.891846,0.496582
1519491577467,0.030518,0.888672,0.487305
1519491577501,0.027344,0.893066,0.479004
1519491577534,0.029053,0.899414,0.483887
1519491577567,0.025879,0.898926,0.468262
1519491577600,0.024170,0.899414,0.474854
1519491577633,0.022461,0.891602,0.474121
1519491577665,0.027100,0.894043,0.477051
1519491577671,0.026123,0.897705,0.489014
1519491577725,0.029053,0.892822,0.494385
1519491577766,0.031250,0.893311,0.482910
1519491577774,0.035156,0.896484,0.474121
1519491577803,0.045898,0.900391,0.486816
1519491577836,0.041992,0.902588,0.472168
1519491577867,0.043457,0.897705,0.485107
1519491577899,0.032959,0.889404,0.491211
1519491577934,0.020264,0.878662,0.482910
1519491577966,0.010986,0.892822,0.475586
1519491577999,0.010010,0.907471,0.476318
1519491578031,0.012695,0.900146,0.469482
1519491578063,0.010254,0.908691,0.459717
1519491578096,0.013916,0.906738,0.451172
1519491578135,0.024902,0.903809,0.460449
1519491578168,0.031982,0.898438,0.473389
1519491578200,0.033936,0.891602,0.482666
1519491578233,0.035889,0.892822,0.486084
1519491578266,0.035645,0.900879,0.479492
1519491578297,0.047363,0.883789,0.508545
1519491578330,0.043945,0.889648,0.482910
1519491578351,0.044922,0.894043,0.481445
1519491578377,0.040283,0.899170,0.491211
1519491578434,0.036133,0.891113,0.487549
1519491578470,0.025391,0.888184,0.474609
1519491578474,0.009766,0.908447,0.468018
1519491578529,0.004150,0.911621,0.455322
1519491578543,-0.008301,0.909912,0.437988
1519491578600,0.007568,0.918945,0.445068
1519491578632,0.010742,0.923584,0.458496
1519491578640,0.019531,0.903320,0.465820
1519491578692,0.032959,0.901367,0.472168
1519491578724,0.039795,0.896484,0.471436
1519491578733,0.038330,0.903320,0.477539
1519491578787,0.045166,0.901611,0.499756
1519491578796,0.050781,0.880615,0.494141
1519491578850,0.044678,0.881348,0.482178
1519491578884,0.041992,0.900879,0.493164
1519491578893,0.032959,0.888916,0.488281
1519491578946,0.024658,0.892578,0.480957
1519491578961,0.012695,0.906494,0.462646
1519491578993,0.013916,0.901611,0.456055
1519491579026,0.012695,0.907471,0.455811
1519491579060,0.009033,0.909424,0.451416
1519491579091,0.008057,0.914795,0.442383
1519491579124,0.019531,0.914307,0.462891
1519491579156,0.020264,0.905273,0.484619
1519491579190,0.020264,0.897705,0.471680
1519491579223,0.030518,0.891113,0.461670
1519491579281,0.042480,0.905029,0.477051
1519491579290,0.041504,0.896484,0.497314
1519491579311,0.037109,0.886963,0.484863
1519491579370,0.039307,0.895020,0.485352
1519491579379,0.035156,0.900879,0.482178
1519491579429,0.034668,0.909668,0.481445
1519491579460,0.023193,0.901367,0.463379
1519491579468,0.015869,0.894287,0.447021
1519491579525,-0.006348,0.908203,0.442383
1519491579558,-0.010498,0.924805,0.450928
1519491579590,0.003906,0.918213,0.453613
1519491579623,0.015625,0.899658,0.450439
1519491579655,0.019531,0.900879,0.470215
1519491579689,0.024414,0.910645,0.475830
1519491579721,0.026123,0.910645,0.478027
1519491579759,0.035645,0.901123,0.470947
1519491579772,0.045166,0.897217,0.485596
1519491579805,0.036377,0.887451,0.474609
1519491579876,0.031494,0.902588,0.483398
1519491579884,0.023926,0.905273,0.479492
1519491579942,0.019531,0.898926,0.468506
1519491579947,0.015625,0.904297,0.456299
1519491580010,0.012451,0.910889,0.454590
1519491580015,0.006348,0.907471,0.454834
1519491580077,0.004395,0.914795,0.457275
1519491580083,0.009277,0.910645,0.460205
1519491580145,0.015625,0.900391,0.456543
1519491580154,0.020752,0.899658,0.467041
1519491580213,0.028320,0.899902,0.479980
1519491580282,0.031494,0.902588,0.477295
1519491580348,0.032227,0.897949,0.473633
1519491580356,0.036865,0.900146,0.477539
1519491580396,0.036377,0.899170,0.483643
1519491580400,0.027344,0.898682,0.474365
1519491580403,0.027832,0.902832,0.477539
1519491580406,0.024170,0.900146,0.480469
1519491580432,0.016357,0.903320,0.466553
1519491580437,0.012207,0.908203,0.457275
1519491580468,0.008545,0.913086,0.448486
1519491580526,0.010254,0.907715,0.453613
1519491580534,0.005859,0.907959,0.466553
1519491580592,0.011963,0.906250,0.472168
1519491580626,0.022217,0.897217,0.460693
1519491580639,0.031982,0.898926,0.463867
1519491580672,0.029785,0.900391,0.472900
1519491580709,0.029297,0.905273,0.473633
1519491580742,0.035400,0.904541,0.482910
1519491580774,0.034668,0.896729,0.471191
1519491580807,0.029785,0.901855,0.472412
1519491580838,0.024658,0.906982,0.477295
1519491580871,0.020264,0.901855,0.471924
1519491580904,0.015625,0.903564,0.459961
1519491580936,0.015869,0.906982,0.457764
1519491580968,0.012207,0.908203,0.454102
1519491581002,0.011719,0.905029,0.453613
1519491581033,0.011475,0.915527,0.461670
1519491581074,0.015137,0.912354,0.468262
1519491581107,0.019531,0.899658,0.459229
1519491581113,0.029541,0.899170,0.460205
1519491581159,0.028809,0.900146,0.468506
1519491581192,0.026855,0.910889,0.469971
1519491581223,0.027344,0.909424,0.474121
1519491581256,0.034668,0.903076,0.472900
1519491581289,0.030762,0.900635,0.466309
1519491581322,0.029541,0.906738,0.466309
1519491581354,0.027588,0.902588,0.470703
1519491581387,0.021484,0.901367,0.463135
1519491581418,0.020508,0.908691,0.454346
1519491581452,0.016113,0.912354,0.450684
1519491581492,0.010010,0.907227,0.451904
1519491581525,0.011230,0.908447,0.452393
1519491581531,0.019287,0.910400,0.455566
1519491581588,0.017334,0.914307,0.451172
1519491581622,0.023926,0.910889,0.447998
1519491581654,0.027100,0.912598,0.438477
1519491581691,0.023193,0.909668,0.447754
1519491581700,0.023926,0.915283,0.454346
1519491581751,0.018066,0.917236,0.447021
1519491581785,0.022461,0.919922,0.440186
1519491581819,0.020508,0.926758,0.438965
1519491581851,0.018066,0.921875,0.435059
1519491581865,0.018311,0.923096,0.428223
1519491581897,0.012451,0.918945,0.419678
1519491581930,0.011475,0.930420,0.415527
1519491581963,0.010254,0.935791,0.420410
1519491582020,0.012695,0.929199,0.424805
1519491582026,0.011963,0.922119,0.420166
1519491582053,0.017334,0.930420,0.415283
1519491582112,0.016113,0.933350,0.413818
1519491582120,0.019775,0.929443,0.414307
1519491582145,0.023193,0.925781,0.417236
1519491582179,0.020508,0.929932,0.419922
1519491582237,0.021484,0.926270,0.417480
1519491582270,0.019287,0.934326,0.416748
1519491582282,0.014404,0.920654,0.417236
1519491582315,0.008545,0.922119,0.423584
1519491582348,0.005371,0.930176,0.418213
1519491582385,0.011230,0.930908,0.410645
1519491582439,0.013672,0.925049,0.413818
1519491582448,0.015625,0.931641,0.419189
1519491582474,0.019775,0.931885,0.416504
1519491582532,0.016113,0.928223,0.412354
1519491582565,0.016113,0.925537,0.423096
1519491582570,0.012695,0.922852,0.423340
1519491582600,0.011230,0.930664,0.418213
1519491582636,0.015137,0.929932,0.422119
1519491582669,0.015869,0.930664,0.417725
1519491582702,0.012939,0.927734,0.410156
1519491582735,0.010010,0.929688,0.414307
1519491582767,0.008545,0.928467,0.413818
1519491582802,0.008301,0.929688,0.414063
1519491582833,0.010742,0.930664,0.416748
1519491582865,0.012451,0.927246,0.413818
1519491582898,0.014648,0.927002,0.414551
1519491582930,0.012939,0.930664,0.419189
1519491582962,0.011719,0.930908,0.417725
1519491582995,0.014404,0.927246,0.414551
1519491583030,0.011963,0.927979,0.416992
1519491583061,0.012207,0.928955,0.416016
1519491583093,0.010986,0.929443,0.414551
1519491583127,0.012207,0.930664,0.413818
1519491583161,0.011475,0.930176,0.414795
1519491583193,0.011719,0.932861,0.415283
1519491583225,0.010986,0.929443,0.412354
1519491583258,0.011963,0.929688,0.414795
1519491583291,0.010742,0.926514,0.415771
1519491583323,0.010010,0.932861,0.413330
1519491583355,0.013184,0.927490,0.414795
1519491583388,0.009521,0.932617,0.420654
1519491583419,0.012695,0.928467,0.414551
1519491583452,0.009766,0.926514,0.412109
1519491583484,0.009521,0.927734,0.414307
1519491583517,0.009521,0.932373,0.414795
1519491583560,0.009766,0.928711,0.413086
1519491583568,0.011230,0.927002,0.411865
1519491583620,0.011963,0.927002,0.415527
1519491583626,0.009521,0.931396,0.418457
1519491583655,0.010742,0.933838,0.415039
1519491583720,0.014648,0.923828,0.416016
1519491583727,0.014648,0.925781,0.416016
1519491583780,0.012695,0.929199,0.413818
1519491583810,0.013428,0.930420,0.416748
1519491583844,0.012695,0.929688,0.415283
1519491583852,0.012207,0.930176,0.415527
1519491583907,0.008301,0.929932,0.412354
1519491583921,0.008057,0.932861,0.413330
1519491583954,0.012939,0.929199,0.416260
1519491584011,0.010498,0.929199,0.414795
1519491584043,0.008789,0.934082,0.413330
1519491584049,0.011963,0.930908,0.415039
1519491584101,0.013184,0.924561,0.418701
1519491584135,0.009766,0.927002,0.416504
1519491584141,0.011230,0.934326,0.415039
1519491584194,0.012207,0.928711,0.412354
1519491584226,0.013184,0.930176,0.415771
1519491584258,0.013184,0.925781,0.416504
1519491584290,0.010498,0.928223,0.413330
1519491584323,0.010010,0.932129,0.415527
1519491584337,0.009521,0.929443,0.416504
1519491584371,0.011719,0.932129,0.416016
1519491584427,0.010010,0.926758,0.412354
1519491584461,0.009277,0.926025,0.413330
1519491584470,0.009033,0.934082,0.414795
1519491584523,0.009033,0.932861,0.416992
1519491584555,0.006836,0.928223,0.412354
1519491584592,0.008789,0.931396,0.413818
1519491584625,0.010742,0.928955,0.414551
1519491584633,0.008301,0.928467,0.412109
1519491584683,0.009277,0.935303,0.413818
1519491584716,0.011719,0.930664,0.416016
1519491584725,0.010498,0.927002,0.413086
1519491584776,0.008545,0.933594,0.414307
1519491584807,0.010254,0.933105,0.416748
1519491584881,0.008301,0.928223,0.412354
1519491584886,0.010254,0.927979,0.413086
1519491584947,0.011475,0.931152,0.415771
1519491584953,0.008301,0.931885,0.413818
1519491585014,0.010254,0.929688,0.414307
1519491585021,0.010986,0.932617,0.416260
1519491585083,0.008545,0.930908,0.414307
1519491585091,0.007324,0.931885,0.411377
1519491585150,0.008789,0.933594,0.410889
1519491585220,0.009277,0.931152,0.414307
1519491585286,0.011230,0.929932,0.416260
1519491585294,0.008057,0.932861,0.413330
1519491585353,0.005859,0.931152,0.412109
1519491585362,0.008545,0.929932,0.411621
1519491585386,0.009521,0.927246,0.414307
1519491585390,0.007324,0.928711,0.414063
1519491585393,0.010254,0.935303,0.410889
1519491585396,0.007568,0.932861,0.414063
1519491585423,0.010742,0.930176,0.414795
1519491585457,0.010254,0.927979,0.410156
1519491585469,0.006348,0.926514,0.410889
1519491585519,0.006348,0.932373,0.414551
1519491585556,0.006592,0.928467,0.412109
1519491585569,0.007568,0.927246,0.412109
1519491585600,0.011475,0.929199,0.415039
1519491585633,0.008057,0.929443,0.413330
1519491585666,0.006836,0.933838,0.411377
1519491585699,0.006836,0.932129,0.411621
1519491585732,0.007568,0.929688,0.411133
1519491585763,0.006592,0.928711,0.411377
1519491585796,0.006836,0.932373,0.413086
