1519425043017,0.018555,-0.316162,0.955566
1519425043048,0.019043,-0.312500,0.957275
1519425043082,0.015625,-0.318359,0.951660
1519425043115,0.016602,-0.320801,0.951172
1519425043148,0.022949,-0.318115,0.956787
1519425043180,0.019287,-0.317627,0.953857
1519425043211,0.015869,-0.318848,0.952148
1519425043244,0.020752,-0.314453,0.957520
1519425043278,0.016357,-0.314209,0.952881
1519425043309,0.011230,-0.316895,0.952881
1519425043329,0.015625,-0.314209,0.955078
1519425043362,0.015625,-0.316895,0.955322
1519425043419,0.017822,-0.311523,0.957520
1519425043426,0.015381,-0.313232,0.950928
1519425043478,0.017578,-0.323975,0.953613
1519425043493,0.022949,-0.308105,0.961670
1519425043526,0.018799,-0.316162,0.953857
1519425043583,0.017090,-0.314941,0.953125
1519425043592,0.021973,-0.309814,0.951660
1519425043615,0.017090,-0.309082,0.959473
1519425043675,0.016113,-0.316895,0.948730
1519425043685,0.016846,-0.317139,0.957764
1519425043711,0.015381,-0.314697,0.956543
1519425043743,0.018799,-0.320801,0.953857
1519425043802,0.015869,-0.314941,0.952393
1519425043834,0.011719,-0.309082,0.958496
1519425043840,0.011963,-0.326172,0.945313
1519425043898,0.022949,-0.314453,0.954834
1519425043912,0.018799,-0.307617,0.967529
1519425043945,0.019043,-0.322754,0.947266
1519425043979,0.032471,-0.320557,0.934570
1519425044010,0.027588,-0.327148,0.958008
1519425044042,0.026123,-0.321777,0.950439
1519425044074,0.031006,-0.302979,0.964111
1519425044108,0.015137,-0.314941,0.950439
1519425044165,0.009766,-0.299805,0.962891
1519425044173,0.017334,-0.305908,0.963867
1519425044200,0.013184,-0.319092,0.953857
1519425044257,0.006104,-0.318359,0.955322
1519425044265,0.012207,-0.312012,0.960693
1519425044296,0.010986,-0.313965,0.948730
1519425044339,0.009277,-0.313965,0.948975
1519425044372,0.024658,-0.318359,0.959717
1519425044404,0.024414,-0.318359,0.956787
1519425044436,0.020508,-0.316650,0.949463
1519425044469,0.023682,-0.314941,0.957275
1519425044502,0.020264,-0.313721,0.949219
1519425044537,0.016846,-0.316162,0.957764
1519425044567,0.019531,-0.322021,0.956543
1519425044575,0.015137,-0.321289,0.949707
1519425044631,0.013428,-0.317139,0.957764
1519425044669,0.020752,-0.322510,0.951660
1519425044677,0.019531,-0.318359,0.949463
1519425044735,0.018066,-0.314941,0.955078
1519425044744,0.016357,-0.314941,0.953613
1519425044797,0.017090,-0.315674,0.955811
1519425044830,0.013672,-0.312256,0.956055
1519425044842,0.009766,-0.313965,0.957520
1519425044893,0.015625,-0.309082,0.953857
1519425044926,0.014893,-0.326660,0.958740
1519425044959,0.013916,-0.317627,0.950684
1519425044991,0.017578,-0.314941,0.956543
1519425045024,0.021729,-0.314209,0.951904
1519425045056,0.020020,-0.311279,0.952637
1519425045088,0.012207,-0.313232,0.957764
1519425045104,0.004395,-0.304199,0.958008
1519425045136,0.015869,-0.307861,0.961182
1519425045170,0.016602,-0.319092,0.950195
1519425045202,0.016846,-0.319092,0.954590
1519425045234,0.015137,-0.312500,0.959229
1519425045267,0.010010,-0.319336,0.949707
1519425045300,0.009766,-0.312988,0.955811
1519425045332,0.016357,-0.312744,0.957031
1519425045363,0.010986,-0.329346,0.939697
1519425045396,0.011230,-0.312744,0.958740
1519425045428,0.009033,-0.315430,0.953125
1519425045461,0.012939,-0.319580,0.955811
1519425045493,0.019531,-0.311035,0.959717
1519425045535,0.020020,-0.312012,0.955322
1519425045544,0.019043,-0.313965,0.956543
1519425045603,0.025635,-0.309570,0.956543
1519425045612,0.016113,-0.303955,0.959961
1519425045641,0.012207,-0.307129,0.958496
1519425045698,0.017090,-0.317627,0.952637
1519425045707,0.013672,-0.318604,0.953369
1519425045774,0.013184,-0.314453,0.957031
1519425045841,0.014648,-0.317871,0.955566
1519425045848,0.016113,-0.312988,0.950928
1519425045908,0.018311,-0.312256,0.953857
1519425045915,0.012695,-0.314941,0.951172
1519425045977,0.010742,-0.315186,0.955811
1519425045986,0.011475,-0.312012,0.956543
1519425046043,0.009033,-0.314453,0.951416
1519425046049,0.011230,-0.313477,0.958496
1519425046111,0.012939,-0.309326,0.956299
1519425046119,0.013428,-0.313477,0.958740
1519425046178,0.016846,-0.318604,0.950684
1519425046181,0.017090,-0.319092,0.951416
1519425046246,0.017578,-0.309570,0.959473
1519425046254,0.020752,-0.309814,0.955566
1519425046274,0.017822,-0.309814,0.956543
1519425046279,0.014893,-0.304199,0.960938
1519425046284,0.014160,-0.306396,0.959473
1519425046319,0.010986,-0.308594,0.958252
1519425046354,0.015381,-0.308350,0.955566
1519425046384,0.016113,-0.309570,0.957275
1519425046416,0.014404,-0.313477,0.957275
1519425046448,0.015137,-0.312744,0.955811
1519425046482,0.015625,-0.312988,0.953125
1519425046540,0.015381,-0.310791,0.954346
1519425046572,0.015381,-0.309082,0.958740
1519425046584,0.016602,-0.315186,0.952637
1519425046609,0.010254,-0.312744,0.950684
1519425046666,0.011230,-0.310547,0.958740
1519425046699,0.013916,-0.313477,0.956543
1519425046710,0.013672,-0.318848,0.955078
1519425046757,0.016846,-0.309326,0.956787
1519425046766,0.017334,-0.311523,0.955322
1519425046822,0.018799,-0.310059,0.959473
1519425046858,0.017822,-0.311523,0.950928
1519425046864,0.013184,-0.323730,0.950684
1519425046921,0.016846,-0.307861,0.960449
1519425046954,0.014160,-0.308838,0.957764
1519425046987,0.011963,-0.316895,0.954590
1519425047020,0.019043,-0.307129,0.955566
1519425047051,0.020996,-0.312012,0.958496
1519425047085,0.016602,-0.313477,0.953369
1519425047117,0.013184,-0.316650,0.953613
1519425047130,0.018555,-0.306152,0.956787
1519425047187,0.015625,-0.315918,0.949463
1519425047194,0.014404,-0.312500,0.958496
1519425047246,0.016602,-0.311035,0.956787
1519425047279,0.015625,-0.310791,0.954346
1519425047287,0.014404,-0.312988,0.955322
1519425047337,0.012451,-0.312012,0.956787
1519425047369,0.010986,-0.311279,0.959473
1519425047411,0.015381,-0.313721,0.955322
1519425047433,0.017578,-0.310547,0.956543
1519425047466,0.015869,-0.310059,0.954346
1519425047500,0.015869,-0.319824,0.954834
1519425047533,0.016602,-0.299805,0.954834
1519425047547,0.014404,-0.318359,0.955811
1519425047605,0.015137,-0.316895,0.954590
1519425047614,0.014893,-0.305420,0.961914
1519425047666,0.013916,-0.313965,0.952881
1519425047700,0.016113,-0.314941,0.954102
1519425047731,0.017090,-0.307617,0.958252
1519425047763,0.015137,-0.312988,0.956299
1519425047768,0.014893,-0.317139,0.951416
1519425047796,0.020996,-0.306641,0.958252
1519425047828,0.015381,-0.312256,0.953857
1519425047863,0.017090,-0.312256,0.954590
1519425047894,0.017578,-0.303711,0.962646
1519425047927,0.015381,-0.310791,0.957275
1519425047970,0.015625,-0.314941,0.950439
1519425048001,0.013672,-0.309814,0.957520
1519425048041,0.014893,-0.309082,0.957031
1519425048073,0.014893,-0.311523,0.957764
1519425048105,0.013428,-0.312744,0.954346
1519425048138,0.014160,-0.312500,0.956787
1519425048147,0.018311,-0.311523,0.956055
1519425048201,0.016113,-0.312500,0.956299
1519425048234,0.020264,-0.315186,0.953613
1519425048243,0.018066,-0.311768,0.957520
1519425048298,0.014160,-0.303467,0.957764
1519425048331,0.016113,-0.308105,0.958008
1519425048343,0.016846,-0.305664,0.957031
1519425048401,0.010742,-0.311523,0.959717
1519425048413,0.016846,-0.315430,0.951660
1519425048463,0.014648,-0.312500,0.957275
1519425048496,0.019043,-0.315186,0.950684
1519425048507,0.018799,-0.315674,0.952637
1519425048566,0.016846,-0.310303,0.957520
1519425048582,0.017822,-0.315430,0.953125
1519425048615,0.018066,-0.310547,0.955078
1519425048647,0.012939,-0.319824,0.951416
1519425048680,0.016602,-0.313721,0.954590
1519425048711,0.016846,-0.315918,0.952881
1519425048745,0.014648,-0.311035,0.957275
1519425048786,0.016357,-0.307617,0.957275
1519425048795,0.013184,-0.313477,0.954102
1519425048828,0.019775,-0.312744,0.957764
1519425048880,0.018311,-0.309082,0.954590
1519425048912,0.013428,-0.316895,0.952148
1519425048945,0.018799,-0.305176,0.961182
1519425048978,0.013916,-0.313232,0.957275
1519425049011,0.013428,-0.314941,0.952637
1519425049042,0.015625,-0.311279,0.958496
1519425049074,0.016846,-0.311279,0.955566
1519425049106,0.015625,-0.314209,0.955078
1519425049140,0.019775,-0.310547,0.955566
1519425049157,0.020752,-0.312988,0.954590
1519425049212,0.014893,-0.312500,0.955811
1519425049221,0.016113,-0.312744,0.958252
1519425049276,0.023193,-0.309082,0.957031
1519425049310,0.017578,-0.311523,0.955322
1519425049318,0.011475,-0.312500,0.954102
1519425049368,0.020508,-0.305420,0.958984
1519425049373,0.018555,-0.307861,0.957520
1519425049418,0.010498,-0.314209,0.952393
1519425049474,0.020264,-0.308350,0.958252
1519425049480,0.018066,-0.310059,0.961670
1519425049511,0.014404,-0.314941,0.949463
1519425049546,0.014404,-0.311768,0.958740
1519425049586,0.017822,-0.309814,0.960938
1519425049619,0.018066,-0.309814,0.954834
1519425049652,0.017578,-0.308838,0.955811
1519425049684,0.019287,-0.308350,0.960205
1519425049717,0.019287,-0.314453,0.952148
1519425049751,0.018555,-0.316162,0.953613
1519425049781,0.021973,-0.307373,0.958496
1519425049788,0.019287,-0.311279,0.956543
1519425049845,0.017090,-0.301025,0.958740
1519425049878,0.020508,-0.304932,0.961914
1519425049910,0.016113,-0.307861,0.954590
1519425049942,0.017578,-0.309326,0.958252
1519425049956,0.015381,-0.311279,0.960449
1519425049989,0.013916,-0.310303,0.955811
1519425050047,0.018799,-0.306641,0.957764
1519425050056,0.019287,-0.310303,0.955322
1519425050110,0.016602,-0.307373,0.952881
1519425050141,0.016846,-0.311523,0.958740
1519425050175,0.020264,-0.309082,0.958008
1519425050207,0.019775,-0.310791,0.955811
1519425050240,0.015137,-0.307129,0.957520
1519425050273,0.015869,-0.309082,0.957275
1519425050305,0.017334,-0.310059,0.956055
1519425050338,0.018799,-0.308594,0.956543
1519425050370,0.013672,-0.311035,0.959961
1519425050375,0.020264,-0.306152,0.958008
1519425050415,0.017578,-0.318604,0.951172
1519425050450,0.018311,-0.308838,0.955566
1519425050482,0.022461,-0.304443,0.961426
1519425050517,0.019531,-0.306152,0.956299
1519425050549,0.015381,-0.306641,0.956543
1519425050583,0.016846,-0.302734,0.960693
1519425050614,0.014648,-0.313721,0.955566
1519425050648,0.011230,-0.308350,0.954834
1519425050698,0.016113,-0.314209,0.958008
1519425050707,0.020020,-0.308105,0.954834
1519425050799,0.017090,-0.313232,0.952637
1519425050809,0.017578,-0.312012,0.954102
1519425050865,0.015869,-0.312256,0.958008
1519425050867,0.017822,-0.316650,0.952393
1519425050933,0.015625,-0.309570,0.961426
1519425050936,0.015869,-0.306152,0.956787
1519425051002,0.014160,-0.319580,0.951660
1519425051010,0.019531,-0.311523,0.954102
1519425051068,0.017822,-0.315674,0.959229
1519425051074,0.013184,-0.313232,0.951416
1519425051136,0.018066,-0.309082,0.957520
1519425051145,0.021240,-0.310791,0.953857
1519425051203,0.013916,-0.305176,0.958252
1519425051212,0.014160,-0.305664,0.960205
1519425051271,0.018311,-0.309082,0.957031
1519425051274,0.014648,-0.310059,0.952393
1519425051277,0.016602,-0.312256,0.956787
1519425051284,0.015625,-0.315674,0.954590
1519425051337,0.018311,-0.312500,0.954834
1519425051342,0.019043,-0.313232,0.954346
1519425051396,0.016357,-0.313477,0.952637
1519425051432,0.013428,-0.312012,0.958496
1519425051437,0.016602,-0.311035,0.953857
1519425051491,0.019531,-0.312012,0.959717
1519425051496,0.019531,-0.306885,0.957031
1519425051555,0.014648,-0.310303,0.954590
1519425051587,0.019043,-0.308105,0.956299
1519425051596,0.018066,-0.308594,0.958252
1519425051651,0.018311,-0.313477,0.953125
1519425051682,0.015625,-0.312256,0.953613
1519425051715,0.020508,-0.316650,0.956299
1519425051747,0.020264,-0.308838,0.959229
1519425051779,0.015625,-0.305176,0.957031
1519425051811,0.016357,-0.307129,0.958740
1519425051844,0.017822,-0.308594,0.959717
1519425051877,0.016357,-0.310547,0.958252
1519425051911,0.013916,-0.312256,0.954834
1519425051919,0.009766,-0.325195,0.957275
1519425051979,0.022705,-0.299072,0.960938
1519425051988,0.023193,-0.302979,0.954834
1519425052012,0.021240,-0.309082,0.950439
1519425052070,0.022705,-0.301270,0.961914
1519425052082,0.020508,-0.311035,0.956299
1519425052115,0.017334,-0.307373,0.958008
1519425052148,0.019775,-0.304199,0.959229
1519425052180,0.017578,-0.308105,0.958008
1519425052213,0.015381,-0.308838,0.955566
1519425052245,0.013916,-0.307617,0.959961
1519425052279,0.025879,-0.288818,0.954834
1519425052316,0.021240,-0.298584,0.956299
1519425052368,0.020752,-0.296143,0.959961
1519425052379,0.023193,-0.299561,0.962402
1519425052411,0.022217,-0.290039,0.961670
1519425052443,0.021240,-0.292969,0.963867
1519425052477,0.019287,-0.300049,0.961670
1519425052509,0.018311,-0.290527,0.957031
1519425052568,0.019287,-0.293457,0.963135
1519425052577,0.020996,-0.293701,0.964600
1519425052601,0.016602,-0.298340,0.958008
1519425052660,0.022461,-0.296143,0.959961
1519425052668,0.022949,-0.298584,0.959717
1519425052693,0.020508,-0.301270,0.960693
1519425052751,0.021484,-0.305664,0.955322
1519425052783,0.022461,-0.305664,0.962402
1519425052797,0.020752,-0.294434,0.960449
1519425052834,0.018066,-0.293213,0.958984
1519425052860,0.021484,-0.298340,0.958984
1519425052894,0.018555,-0.299316,0.960693
1519425052926,0.018799,-0.303955,0.958740
1519425052958,0.020264,-0.305176,0.959473
1519425052993,0.022217,-0.298584,0.958984
1519425053026,0.021484,-0.297363,0.961670
1519425053058,0.023926,-0.293213,0.961670
1519425053088,0.023682,-0.296631,0.961182
1519425053121,0.020508,-0.303711,0.957031
1519425053154,0.021973,-0.301758,0.960449
1519425053187,0.024170,-0.297852,0.962158
1519425053204,0.021729,-0.296143,0.960205
1519425053259,0.021973,-0.302490,0.960449
1519425053290,0.026123,-0.295654,0.960693
1519425053323,0.022705,-0.301514,0.961426
1519425053363,0.012695,-0.299805,0.970947
1519425053393,0.023438,-0.296631,0.947998
1519425053426,0.025146,-0.305176,0.960693
1519425053458,0.024414,-0.293213,0.957520
1519425053464,0.018311,-0.296387,0.959229
1519425053517,0.020508,-0.301025,0.960449
1519425053523,0.025146,-0.294678,0.962402
1519425053581,0.018555,-0.298828,0.956543
1519425053614,0.018799,-0.301758,0.960449
1519425053622,0.020264,-0.300049,0.960449
1519425053677,0.019287,-0.295166,0.959473
1519425053710,0.020996,-0.292236,0.962891
1519425053741,0.020996,-0.294922,0.961182
1519425053774,0.018799,-0.301270,0.966064
1519425053807,0.024414,-0.292480,0.958252
1519425053838,0.018799,-0.301758,0.962891
1519425053871,0.018311,-0.292480,0.958496
1519425053904,0.023682,-0.296631,0.964111
1519425053937,0.021973,-0.297852,0.959473
1519425053944,0.019043,-0.302734,0.959717
1519425053996,0.019531,-0.297363,0.963135
1519425054029,0.023193,-0.301025,0.960449
1519425054038,0.023682,-0.293701,0.963623
1519425054093,0.022949,-0.293701,0.958740
1519425054124,0.027100,-0.296143,0.961914
1519425054157,0.023926,-0.292969,0.960938
1519425054190,0.018066,-0.297607,0.959717
1519425054225,0.018311,-0.294189,0.963867
1519425054253,0.022217,-0.293701,0.962646
1519425054285,0.018799,-0.299805,0.959717
1519425054322,0.017578,-0.301270,0.958496
1519425054355,0.020264,-0.298584,0.958740
1519425054388,0.022461,-0.296387,0.962646
1519425054420,0.020508,-0.293701,0.958740
1519425054434,0.023682,-0.297119,0.963379
1519425054490,0.019775,-0.292969,0.960693
1519425054538,0.020020,-0.300049,0.960449
1519425054543,0.019531,-0.296875,0.960938
1519425054573,0.019531,-0.298096,0.960449
1519425054604,0.020508,-0.293701,0.960938
1519425054638,0.022217,-0.294922,0.961914
1519425054669,0.020752,-0.295898,0.961670
1519425054702,0.024170,-0.295410,0.961182
1519425054735,0.020752,-0.297119,0.960449
1519425054769,0.017334,-0.303223,0.957520
1519425054799,0.022217,-0.301270,0.960205
1519425054837,0.020508,-0.285400,0.968262
1519425054873,0.012695,-0.291260,0.959961
1519425054905,0.016846,-0.291504,0.958496
1519425054940,0.025146,-0.286377,0.969971
1519425054971,0.023682,-0.300049,0.960693
1519425055003,0.021973,-0.296875,0.959473
1519425055037,0.029053,-0.296631,0.963135
1519425055069,0.023438,-0.299072,0.958008
1519425055102,0.022949,-0.291992,0.960938
1519425055109,0.021484,-0.292480,0.960938
1519425055160,0.024170,-0.294922,0.962402
1519425055166,0.016602,-0.296143,0.958496
1519425055198,0.017822,-0.296143,0.963135
1519425055262,0.019775,-0.293701,0.963623
1519425055264,0.021729,-0.296875,0.959961
1519425055297,0.017090,-0.294189,0.960449
1519425055356,0.021240,-0.302734,0.961914
1519425055388,0.023926,-0.301025,0.958984
1519425055396,0.024414,-0.293213,0.966309
1519425055452,0.020996,-0.294189,0.958740
1519425055485,0.025879,-0.294189,0.960449
1519425055517,0.020508,-0.289307,0.960693
1519425055550,0.003906,-0.301270,0.964844
1519425055583,0.014648,-0.284668,0.984863
1519425055615,0.024658,-0.275391,0.981445
1519425055648,0.015869,-0.289063,0.953857
1519425055664,0.013672,-0.296143,0.948975
1519425055694,0.020752,-0.300049,0.956055
1519425055728,0.024414,-0.299805,0.960693
1519425055800,0.015625,-0.312744,0.958984
1519425055809,0.017334,-0.291504,0.961426
1519425055866,0.014404,-0.305176,0.948486
1519425055870,0.009766,-0.299561,0.954102
1519425055934,0.005615,-0.278076,0.981934
1519425055941,0.010986,-0.333008,0.949463
1519425056002,0.022461,-0.327637,0.939453
1519425056005,0.016357,-0.299805,0.955078
1519425056082,0.018066,-0.294922,0.963623
1519425056087,0.022705,-0.304688,0.959229
1519425056148,0.028076,-0.304688,0.959717
1519425056153,0.029541,-0.296875,0.967529
1519425056216,0.019287,-0.277100,0.979980
1519425056218,0.023926,-0.307617,0.949951
1519425056285,0.028076,-0.296875,0.958008
1519425056291,0.030762,-0.286377,0.965576
1519425056313,0.024658,-0.302734,0.958740
1519425056319,0.010254,-0.303223,0.961670
1519425056347,0.010986,-0.291504,0.965088
1519425056379,0.020996,-0.288086,0.966309
1519425056417,0.003906,-0.302246,0.947266
1519425056444,-0.003174,-0.283447,0.968750
1519425056476,-0.000488,-0.288574,0.972412
1519425056493,0.001709,-0.298096,0.952881
1519425056551,-0.001221,-0.291748,0.961914
1519425056559,0.001221,-0.294434,0.958252
1519425056608,-0.000488,-0.300293,0.954834
1519425056642,0.004150,-0.295654,0.969238
1519425056651,0.006104,-0.303223,0.958008
1519425056699,0.005615,-0.312500,0.967529
1519425056733,0.004150,-0.302490,0.967041
1519425056765,0.017090,-0.310547,0.958740
1519425056797,0.009521,-0.306885,0.944336
1519425056836,0.016357,-0.298828,0.953369
1519425056862,0.011963,-0.308350,0.951904
1519425056895,0.006592,-0.302979,0.948730
1519425056909,-0.001465,-0.303955,0.939209
1519425056966,0.015869,-0.358154,1.009033
1519425056972,-0.032959,-0.267090,0.955078
1519425057029,0.009033,-0.330811,0.960449
1519425057062,0.025146,-0.285889,0.963867
1519425057098,0.020020,-0.308350,0.957275
1519425057131,0.026855,-0.302246,0.960938
1519425057140,0.026367,-0.308838,0.950195
1519425057189,0.026123,-0.305420,0.955566
1519425057225,0.019531,-0.308105,0.952393
1519425057234,0.017334,-0.301270,0.962158
1519425057285,0.010986,-0.307617,0.959961
1519425057294,0.010254,-0.305664,0.958008
1519425057332,0.008057,-0.311523,0.960938
1519425057366,0.010742,-0.296143,0.962158
1519425057398,0.010742,-0.291748,0.958008
1519425057430,0.015869,-0.301758,0.949219
1519425057462,0.022461,-0.299561,0.953125
1519425057494,0.028564,-0.322510,0.982422
1519425057527,0.019287,-0.268311,0.977051
1519425057561,0.010742,-0.329346,0.945313
1519425057594,0.017090,-0.295654,0.956299
1519425057625,0.015381,-0.315430,0.951904
1519425057659,0.009033,-0.307617,0.957520
1519425057690,0.003906,-0.311768,0.947021
1519425057723,-0.001709,-0.319336,0.946533
1519425057765,-0.000244,-0.309570,0.960205
1519425057796,-0.002197,-0.314453,0.946533
1519425057806,-0.001465,-0.338867,0.993164
1519425057859,-0.001465,-0.305664,0.932617
1519425057892,0.003418,-0.303467,0.943604
1519425057925,0.005127,-0.306152,0.972168
1519425057959,0.005859,-0.300049,0.957764
1519425057990,0.006592,-0.312256,0.957031
1519425058023,0.012695,-0.305420,0.953613
1519425058056,0.008301,-0.301025,0.950928
1519425058086,0.003662,-0.302734,0.945557
1519425058119,0.017090,-0.306641,0.991211
1519425058153,-0.002930,-0.311279,0.950684
1519425058190,0.007813,-0.296387,0.955566
1519425058221,0.013428,-0.304688,0.955811
1519425058255,0.012695,-0.305176,0.961914
1519425058388,0.006348,-0.313232,0.958984
1519425058389,0.007568,-0.312256,0.955322
1519425058390,0.011963,-0.307617,0.956543
1519425058391,0.015137,-0.310791,0.955322
1519425058391,0.011475,-0.299805,0.956299
1519425058440,0.012451,-0.305908,0.958740
1519425058472,0.015625,-0.312012,0.957520
1519425058506,0.014648,-0.310791,0.955566
1519425058538,0.012695,-0.311768,0.957275
1519425058554,0.013672,-0.308594,0.954834
1519425058587,0.012939,-0.305176,0.961914
1519425058618,0.007568,-0.304688,0.964355
1519425058652,0.007568,-0.309082,0.957031
1519425058708,0.010010,-0.312988,0.954346
1519425058741,0.020020,-0.327393,0.949951
1519425058747,0.018799,-0.307861,0.958740
1519425058774,0.009521,-0.306152,0.960693
1519425058833,0.013916,-0.313721,0.954102
1519425058838,0.020020,-0.311523,0.952881
1519425058891,0.016113,-0.311279,0.956787
1519425058923,0.010498,-0.310547,0.961426
1519425058958,0.008301,-0.310791,0.958740
1519425058970,0.013916,-0.309814,0.956055
1519425059003,0.016846,-0.309570,0.954834
1519425059035,0.014648,-0.304443,0.958496
1519425059069,0.012695,-0.305176,0.960938
1519425059111,0.012207,-0.305908,0.954590
1519425059148,0.014404,-0.311523,0.960449
1519425059158,0.009521,-0.305420,0.959961
1519425059210,0.005127,-0.298828,0.968262
1519425059243,0.013184,-0.313477,0.959717
1519425059251,0.006104,-0.313965,0.941895
1519425059307,0.006348,-0.310791,0.957031
1519425059338,0.002686,-0.302490,0.959229
1519425059370,0.000977,-0.309814,0.952148
1519425059412,0.007568,-0.314941,0.958008
1519425059417,0.005615,-0.317871,0.950928
1519425059471,0.002930,-0.313965,0.956055
1519425059503,0.009033,-0.308838,0.955078
1519425059535,0.009033,-0.307129,0.956055
1519425059569,0.009277,-0.311035,0.956787
1519425059602,0.012695,-0.313232,0.955566
1519425059633,0.011963,-0.310303,0.958008
1519425059658,0.010010,-0.312012,0.956787
1519425059690,0.013672,-0.313721,0.953369
1519425059723,0.016357,-0.308838,0.957520
1519425059756,0.014648,-0.312744,0.957275
1519425059789,0.008789,-0.315430,0.954102
1519425059830,0.011230,-0.312012,0.953857
1519425059838,0.011963,-0.308105,0.961182
1519425059886,0.008789,-0.310791,0.955811
1519425059920,0.008789,-0.310303,0.956787
1519425059953,0.012451,-0.313965,0.958252
1519425059984,0.013428,-0.315186,0.950928
1519425060018,0.016357,-0.316650,0.953857
1519425060048,0.015625,-0.313721,0.956299
1519425060081,0.013916,-0.312744,0.953369
1519425060116,0.012207,-0.315918,0.951904
1519425060148,0.011963,-0.312012,0.952393
1519425060181,0.009766,-0.307617,0.954834
1519425060214,0.007568,-0.311035,0.960693
1519425060227,0.007813,-0.309814,0.957031
1519425060260,0.009033,-0.306396,0.958496
1519425060320,0.005859,-0.307617,0.962646
1519425060328,0.006348,-0.313721,0.959229
1519425060379,0.015625,-0.311523,0.951660
1519425060410,0.018799,-0.313965,0.955322
1519425060419,0.019531,-0.311768,0.956543
1519425060469,0.018311,-0.315186,0.952881
1519425060501,0.016846,-0.312744,0.957764
1519425060533,0.019531,-0.311279,0.955811
1519425060567,0.016602,-0.316406,0.952148
1519425060597,0.013428,-0.310303,0.958008
1519425060630,0.010010,-0.311523,0.956787
1519425060644,0.010498,-0.310547,0.957764
1519425060678,0.010010,-0.305908,0.958252
1519425060776,0.009277,-0.309814,0.956543
1519425060781,0.013672,-0.311279,0.955811
1519425060847,0.010254,-0.310547,0.959473
1519425060856,0.013916,-0.314209,0.956299
1519425060910,0.014404,-0.314941,0.954102
1519425060913,0.017334,-0.311035,0.956055
1519425060978,0.016602,-0.308594,0.955566
1519425060984,0.013672,-0.308105,0.957764
1519425061046,0.016357,-0.308105,0.956299
1519425061055,0.010742,-0.308838,0.958496
1519425061113,0.009033,-0.311035,0.958252
1519425061120,0.010254,-0.310547,0.955566
1519425061182,0.010742,-0.308838,0.957520
1519425061190,0.012695,-0.311279,0.957275
1519425061249,0.012695,-0.312500,0.955078
1519425061254,0.012695,-0.310791,0.956543
1519425061296,0.013916,-0.311035,0.955322
1519425061302,0.016113,-0.313477,0.954590
1519425061312,0.012939,-0.309814,0.959717
1519425061348,0.013916,-0.313965,0.953613
1519425061356,0.014404,-0.312744,0.958740
1519425061404,0.013428,-0.310059,0.958252
1519425061437,0.012207,-0.312256,0.955322
1519425061451,0.012695,-0.312012,0.956787
1519425061482,0.011230,-0.309570,0.958008
1519425061514,0.011963,-0.313477,0.954590
1519425061548,0.013916,-0.314453,0.955322
1519425061579,0.016357,-0.311035,0.955566
1519425061613,0.013428,-0.312744,0.954834
1519425061646,0.012207,-0.309570,0.957764
1519425061679,0.013672,-0.312256,0.956787
1519425061710,0.016602,-0.309814,0.955322
1519425061744,0.012695,-0.312500,0.954834
1519425061775,0.013184,-0.312988,0.957520
1519425061808,0.013672,-0.312500,0.955811
1519425061846,0.016113,-0.312012,0.954834
1519425061858,0.014160,-0.312012,0.956299
1519425061912,0.012939,-0.311523,0.957275
1519425061947,0.014404,-0.312256,0.956787
1519425061952,0.014893,-0.315430,0.951172
1519425062009,0.015381,-0.312012,0.955078
1519425062046,0.014648,-0.312012,0.959717
1519425062078,0.010986,-0.311035,0.958740
1519425062111,0.012939,-0.314697,0.954834
1519425062145,0.013428,-0.314209,0.958496
1519425062154,0.010986,-0.309082,0.957031
1519425062218,0.011719,-0.312012,0.956299
1519425062226,0.013916,-0.316162,0.952393
1519425062257,0.014404,-0.315918,0.952881
1519425062291,0.014893,-0.315674,0.953857
1519425062323,0.016602,-0.312012,0.954346
1519425062356,0.015869,-0.312256,0.955078
1519425062388,0.014893,-0.312988,0.956543
1519425062421,0.013916,-0.310303,0.956543
1519425062452,0.017090,-0.309814,0.954834
1519425062517,0.013916,-0.322754,0.958008
1519425062520,0.011719,-0.316650,0.953369
1519425062543,0.011963,-0.315186,0.954590
1519425062601,0.009033,-0.312012,0.959229
1519425062608,0.013428,-0.315430,0.951416
1519425062634,0.015381,-0.318359,0.952393
1519425062693,0.015869,-0.310059,0.956787
1519425062726,0.011230,-0.309814,0.959717
1519425062759,0.010986,-0.310059,0.958252
1519425062791,0.014893,-0.319824,0.949463
1519425062823,0.025879,-0.326416,0.947754
1519425062855,0.020752,-0.307129,0.961426
1519425062887,0.010986,-0.306152,0.958008
1519425062919,0.009033,-0.310547,0.956543
1519425062924,0.010010,-0.312500,0.956787
1519425062979,0.015625,-0.313477,0.960449
1519425063014,0.012939,-0.326904,0.951416
1519425063017,0.021240,-0.311035,0.966797
1519425063075,0.030518,-0.314697,0.947998
1519425063088,0.016602,-0.320068,0.943115
1519425063121,0.010254,-0.311523,0.952148
1519425063179,0.015869,-0.311279,0.961182
1519425063188,0.003418,-0.309082,0.954834
1519425063240,-0.005371,-0.308838,0.956055
1519425063274,0.003418,-0.315918,0.959229
1519425063305,0.009277,-0.310791,0.961182
1519425063338,0.009277,-0.311279,0.952637
1519425063347,0.012451,-0.315186,0.954590
1519425063403,0.022705,-0.314941,0.955566
1519425063435,0.026611,-0.314453,0.953369
1519425063466,0.022705,-0.309570,0.958740
1519425063496,0.023682,-0.309082,0.956299
1519425063499,0.023926,-0.318848,0.952148
1519425063557,0.020752,-0.310547,0.959473
1519425063589,0.013428,-0.312500,0.957031
1519425063621,0.012207,-0.315186,0.953613
1519425063654,0.012695,-0.314209,0.955322
1519425063686,0.011475,-0.312744,0.954834
1519425063718,0.011230,-0.313721,0.957520
1519425063750,0.016846,-0.312500,0.954834
1519425063783,0.016357,-0.311279,0.952881
1519425063816,0.013184,-0.318359,0.949707
1519425063851,0.026855,-0.307373,0.958496
1519425063880,0.024170,-0.310547,0.958740
1519425063913,0.017090,-0.316406,0.952881
1519425063945,0.020020,-0.315918,0.955322
1519425063980,0.019531,-0.311279,0.955811
1519425064013,0.016357,-0.311279,0.955811
1519425064047,0.013428,-0.314941,0.954102
1519425064056,0.016846,-0.306641,0.959473
1519425064106,0.016113,-0.310791,0.954590
1519425064139,0.014893,-0.321777,0.951904
1519425064148,0.019043,-0.317871,0.957764
1519425064201,0.021729,-0.308838,0.953857
1519425064234,0.023682,-0.316406,0.951660
1519425064266,0.031250,-0.310547,0.958740
1519425064298,0.024902,-0.302246,0.963135
1519425064314,0.017334,-0.305908,0.956787
1519425064346,0.020264,-0.318115,0.950439
1519425064380,0.019775,-0.318359,0.953125
1519425064411,0.021484,-0.319336,0.957031
1519425064472,0.025146,-0.314697,0.951416
1519425064478,0.017578,-0.310059,0.957031
1519425064526,0.017578,-0.306396,0.958008
1519425064529,0.021240,-0.315186,0.955566
1519425064562,0.021484,-0.315430,0.953369
1519425064620,0.016113,-0.313721,0.953857
1519425064651,0.010742,-0.309570,0.958740
1519425064684,0.017090,-0.311279,0.955322
1519425064707,0.017090,-0.310547,0.956543
1519425064731,0.018799,-0.310059,0.954590
1519425064778,0.016113,-0.312012,0.957275
1519425064811,0.017578,-0.313232,0.951660
1519425064842,0.024170,-0.299072,0.962402
1519425064876,0.025146,-0.311279,0.955566
1519425064907,0.016357,-0.307373,0.952637
1519425064944,0.017822,-0.312256,0.961670
1519425064978,0.019531,-0.307617,0.956787
1519425065008,0.017334,-0.315918,0.955078
1519425065046,0.017578,-0.316162,0.954102
1519425065055,0.018066,-0.311279,0.954834
1519425065100,0.020020,-0.316162,0.956299
1519425065135,0.020020,-0.320801,0.947998
1519425065147,0.017822,-0.315186,0.954834
1519425065204,0.017578,-0.308350,0.953857
1519425065209,0.015625,-0.306885,0.958740
1519425065267,0.025635,-0.307129,0.955811
1519425065300,0.019775,-0.307861,0.959961
1519425065332,0.016846,-0.307129,0.953125
1519425065340,0.020508,-0.316895,0.956787
1519425065395,0.016113,-0.313232,0.952881
1519425065429,0.016846,-0.316162,0.953857
1519425065460,0.022461,-0.307617,0.961182
1519425065492,0.011963,-0.315918,0.947021
1519425065525,0.018311,-0.318848,0.952393
1519425065538,0.013672,-0.293701,0.977539
1519425065597,0.013428,-0.325684,0.941406
1519425065630,0.009521,-0.319824,0.960938
1519425065638,0.016846,-0.315430,0.952881
1519425065688,0.024414,-0.320313,0.954834
1519425065697,0.015137,-0.325928,0.944580
1519425065793,0.020264,-0.315430,0.950439
1519425065802,0.020996,-0.315918,0.956543
1519425065864,0.019287,-0.315918,0.952637
1519425065868,0.020752,-0.321289,0.953613
1519425065928,0.020264,-0.308105,0.958008
1519425065996,0.018066,-0.308594,0.960693
1519425066063,0.014648,-0.311523,0.955566
1519425066071,0.009766,-0.311035,0.960205
1519425066131,0.013184,-0.305664,0.963867
1519425066140,0.010986,-0.310303,0.963623
1519425066197,0.008789,-0.312988,0.953125
1519425066202,0.009766,-0.319092,0.949707
1519425066265,0.010498,-0.319092,0.957520
1519425066274,0.012695,-0.318848,0.956299
1519425066293,0.005127,-0.317871,0.951660
1519425066298,0.015625,-0.321045,0.962646
1519425066303,0.029541,-0.313721,0.966797
1519425066308,0.031494,-0.302979,0.957764
1519425066329,0.036377,-0.313721,0.949219
1519425066343,0.041260,-0.305420,0.954590
1519425066377,0.021484,-0.307617,0.960938
1519425066410,0.005127,-0.315186,0.953857
1519425066442,-0.007324,-0.347900,0.938721
1519425066488,-0.013184,-0.324219,0.929199
1519425066519,-0.023438,-0.307617,0.943604
1519425066552,-0.010498,-0.296143,0.975830
1519425066585,-0.011719,-0.292725,0.968506
1519425066619,-0.012451,-0.297852,0.973877
1519425066651,0.008545,-0.280029,0.976563
1519425066661,0.014648,-0.280273,0.980957
1519425066712,0.010742,-0.289551,0.981445
1519425066745,-0.003662,-0.303223,0.940918
1519425066758,-0.027344,-0.315186,0.925537
1519425066791,-0.042236,-0.305908,0.919434
1519425066824,-0.019775,-0.278809,0.959961
1519425066860,-0.003174,-0.283936,0.986572
1519425066894,-0.001465,-0.281006,0.972412
1519425066925,0.001465,-0.263428,0.957520
1519425066957,0.005371,-0.299561,0.968506
1519425066991,-0.003418,-0.307129,0.950195
1519425067022,-0.018799,-0.323975,0.938721
1519425067055,-0.015137,-0.325684,0.947510
1519425067088,-0.019287,-0.300781,0.946533
1519425067121,-0.028076,-0.274658,0.981201
1519425067154,-0.016357,-0.267822,1.005615
1519425067186,-0.008057,-0.261230,0.990723
1519425067217,-0.013184,-0.275635,0.958008
1519425067250,-0.014160,-0.285400,0.967041
1519425067283,-0.015625,-0.326172,0.954102
1519425067338,-0.045410,-0.331543,0.962402
1519425067347,-0.067627,-0.298096,0.987793
1519425067370,-0.076416,-0.292725,0.993408
1519425067403,-0.076416,-0.280518,0.995361
1519425067437,-0.066895,-0.261230,1.022217
1519425067470,-0.058105,-0.210205,1.023438
1519425067501,-0.058105,-0.226807,0.994629
1519425067533,-0.064697,-0.221191,1.007813
1519425067575,-0.082275,-0.225586,0.993652
1519425067608,-0.133057,-0.300537,0.941650
1519425067640,-0.139648,-0.394531,0.942139
1519425067675,-0.136963,-0.414551,0.929199
1519425067706,-0.122314,-0.420166,0.895752
1519425067739,-0.103516,-0.418213,0.883545
1519425067747,-0.104248,-0.396240,0.878418
1519425067802,-0.110107,-0.423340,0.879395
1519425067840,-0.114258,-0.433838,0.894287
1519425067871,-0.117920,-0.437744,0.907715
1519425067903,-0.137695,-0.417480,0.894775
1519425067936,-0.151855,-0.430664,0.877197
1519425067950,-0.149658,-0.423584,0.860840
1519425067984,-0.156982,-0.397461,0.855713
1519425068015,-0.186768,-0.403320,0.851318
1519425068073,-0.179443,-0.437012,0.862061
1519425068105,-0.175781,-0.482422,0.870605
1519425068137,-0.180908,-0.426758,0.856934
1519425068144,-0.187744,-0.521240,0.876953
1519425068201,-0.151611,-0.547607,0.859863
1519425068238,-0.139160,-0.505615,0.833252
1519425068246,-0.145508,-0.521484,0.808594
1519425068296,-0.140381,-0.581055,0.825684
1519425068305,-0.148193,-0.550049,0.817627
1519425068331,-0.162842,-0.533691,0.798584
1519425068389,-0.135742,-0.586670,0.805664
1519425068397,-0.145752,-0.660889,0.827881
1519425068454,-0.162109,-0.593506,0.809814
1519425068486,-0.154053,-0.603271,0.797363
1519425068515,-0.172852,-0.606934,0.789063
1519425068547,-0.183105,-0.587402,0.768066
1519425068581,-0.158936,-0.600830,0.766602
1519425068617,-0.145752,-0.650879,0.792969
1519425068650,-0.151855,-0.578125,0.808838
1519425068683,-0.140381,-0.522705,0.818115
1519425068715,-0.125488,-0.557373,0.809814
1519425068724,-0.105225,-0.569580,0.794189
1519425068781,-0.125732,-0.620117,0.798340
1519425068823,-0.122070,-0.552246,0.781738
1519425068831,-0.113770,-0.591064,0.780029
1519425068876,-0.090820,-0.652832,0.833984
1519425068881,-0.118408,-0.624268,0.796875
1519425068935,-0.109619,-0.623047,0.766846
1519425068942,-0.078125,-0.607666,0.769287
1519425068999,-0.068848,-0.640625,0.786621
1519425069031,-0.075928,-0.616943,0.781006
1519425069064,-0.083496,-0.606689,0.767334
1519425069097,-0.083740,-0.619629,0.763916
1519425069129,-0.068359,-0.661621,0.785156
1519425069161,-0.088379,-0.635986,0.778320
1519425069175,-0.091797,-0.622559,0.775146
1519425069233,-0.099121,-0.631592,0.774170
1519425069265,-0.083496,-0.634033,0.777588
1519425069274,-0.078613,-0.652100,0.767090
1519425069300,-0.075195,-0.641846,0.757324
1519425069357,-0.078125,-0.632324,0.763672
1519425069365,-0.070801,-0.646973,0.764648
1519425069414,-0.069824,-0.646484,0.756836
1519425069448,-0.078125,-0.659668,0.756348
1519425069482,-0.077393,-0.645508,0.748779
1519425069513,-0.083984,-0.632568,0.745605
1519425069545,-0.086670,-0.672363,0.770508
1519425069578,-0.105469,-0.608887,0.746582
1519425069591,-0.100830,-0.670410,0.762207
1519425069650,-0.084961,-0.647949,0.765381
1519425069682,-0.083984,-0.644043,0.759033
1519425069690,-0.069824,-0.625244,0.756836
1519425069740,-0.077881,-0.602295,0.784180
1519425069780,-0.084473,-0.592773,0.801025
1519425069788,-0.056152,-0.583252,0.831055
1519425069839,-0.054932,-0.560303,0.841064
1519425069844,-0.071289,-0.551514,0.845459
1519425069897,-0.076172,-0.558838,0.858398
1519425069929,-0.093262,-0.521973,0.848877
1519425069937,-0.088379,-0.515625,0.854980
1519425069994,-0.090576,-0.493164,0.851318
1519425070008,-0.126709,-0.440430,0.874756
1519425070040,-0.125244,-0.466797,0.887451
1519425070098,-0.092529,-0.480957,0.867188
1519425070131,0.041504,-0.535156,0.841309
1519425070140,0.131348,-0.587158,0.846436
1519425070194,0.137695,-0.535645,0.790283
1519425070227,0.102295,-0.544189,0.799316
1519425070260,0.147217,-0.589111,0.854980
1519425070268,0.104980,-0.519531,0.927490
1519425070318,0.118164,-0.444824,0.826660
1519425070351,0.110352,-0.520020,0.869873
1519425070361,0.120605,-0.614014,0.889160
1519425070412,0.077881,-0.661133,0.791260
1519425070445,0.104004,-0.607178,0.805176
1519425070478,0.093262,-0.541748,0.889893
1519425070509,0.029541,-0.568604,0.894043
1519425070540,-0.044678,-0.594971,0.860596
1519425070573,-0.110840,-0.526123,0.845459
1519425070607,-0.125732,-0.465820,0.875732
1519425070639,-0.183838,-0.427002,0.823975
1519425070673,-0.228027,-0.460938,0.832031
1519425070704,-0.227539,-0.385498,0.840088
1519425070782,-0.208740,-0.510498,1.000488
1519425070790,-0.185791,-0.568604,1.025635
1519425070849,-0.200928,-0.401123,0.833008
1519425070858,-0.192139,-0.533936,0.812256
1519425070916,-0.126221,-0.587402,0.857910
1519425070919,-0.057617,-0.533447,0.881348
1519425070984,-0.013672,-0.604004,0.939453
1519425070991,-0.073975,-0.493652,0.903564
1519425071050,-0.171387,-0.351318,0.866455
1519425071053,-0.177979,-0.429199,0.802734
1519425071120,-0.182861,-0.534912,0.688232
1519425071128,-0.117432,-0.594727,0.888672
1519425071185,-0.066406,-0.638672,0.966064
1519425071188,-0.116211,-0.628174,0.894775
1519425071253,-0.130127,-0.502197,0.893311
1519425071258,-0.104492,-0.473633,0.851807
1519425071298,-0.081787,-0.528320,0.865234
1519425071306,-0.061279,-0.640869,0.806152
1519425071315,-0.081055,-0.679932,0.799561
1519425071335,-0.106689,-0.608398,0.791992
1519425071368,-0.114258,-0.675293,0.698975
1519425071402,-0.156006,-0.713867,0.583740
1519425071434,-0.183594,-0.627930,0.526611
1519425071491,-0.224609,-0.770020,0.444092
1519425071500,-0.226807,-0.868896,0.390137
1519425071524,-0.253174,-0.961914,0.420898
1519425071582,-0.268799,-0.865479,0.502197
1519425071588,-0.260742,-0.906250,0.488525
1519425071629,-0.258301,-0.770020,0.586670
1519425071661,-0.245850,-0.773438,0.602539
1519425071697,-0.235352,-0.872803,0.583008
1519425071738,-0.280762,-0.666992,0.514893
1519425071771,-0.266602,-0.758545,0.429443
1519425071803,-0.274414,-0.613281,0.351563
1519425071835,-0.299805,-0.384033,0.396484
1519425071867,-0.143311,-0.531006,0.440430
1519425071899,-0.116943,-0.829590,0.230957
1519425071901,-0.140625,-0.916260,-0.018311
1519425071958,-0.115479,-1.095459,-0.252686
1519425071964,-0.061035,-1.289551,-0.283936
1519425072023,-0.083496,-1.287109,-0.295410
1519425072055,-0.037842,-1.068604,-0.233643
1519425072088,-0.056885,-1.094238,-0.157227
1519425072120,-0.095703,-1.155029,-0.142822
1519425072152,-0.140381,-1.090088,-0.138428
1519425072185,-0.162354,-1.116943,-0.055664
1519425072218,-0.141357,-1.115234,0.025635
1519425072251,-0.179688,-1.047607,0.066406
1519425072283,-0.254883,-1.132324,0.175293
1519425072292,-0.210693,-1.078369,0.314453
1519425072342,-0.268799,-0.936768,0.480713
1519425072374,-0.251221,-0.945068,0.510986
1519425072383,-0.233154,-0.854248,0.490479
1519425072457,-0.239258,-0.864746,0.470947
1519425072464,-0.219238,-0.900879,0.482910
1519425072490,-0.181641,-0.914795,0.490234
1519425072548,-0.044678,-0.626221,0.447510
1519425072551,0.062744,-0.383057,0.429932
1519425072582,0.202637,-0.194824,0.633301
1519425072616,0.315674,-0.286865,0.759766
1519425072653,0.351074,-0.309814,0.600586
1519425072685,0.421143,-0.328857,0.322510
1519425072719,0.392334,-0.917480,0.362061
1519425072751,0.122559,-1.529785,0.522217
1519425072783,-0.168701,-1.832764,0.501709
1519425072817,-0.197754,-1.367432,0.461670
1519425072849,0.064697,-0.820068,0.447510
1519425072882,0.059570,-0.625244,0.517090
1519425072913,-0.007324,-0.522705,0.591064
1519425072946,-0.114746,-0.692383,0.593506
1519425072980,-0.142334,-0.994873,0.609863
1519425073011,-0.066895,-0.876221,0.591797
1519425073044,-0.012939,-0.778076,0.555908
1519425073077,-0.008545,-0.738770,0.561279
1519425073110,-0.014160,-0.747559,0.603027
1519425073141,-0.010986,-0.810303,0.611328
1519425073174,-0.005127,-0.821045,0.582520
1519425073206,0.004395,-0.813477,0.596436
1519425073249,-0.000732,-0.786133,0.616211
1519425073281,-0.035400,-0.757080,0.606689
1519425073314,-0.031982,-0.775146,0.624023
1519425073346,-0.039551,-0.795654,0.621582
1519425073378,-0.055664,-0.810547,0.584229
1519425073410,-0.054199,-0.811768,0.568604
1519425073442,-0.051025,-0.804688,0.579590
1519425073447,-0.052002,-0.804199,0.578857
1519425073514,-0.064209,-0.817139,0.572998
1519425073545,-0.061523,-0.814941,0.569824
1519425073549,-0.060059,-0.801758,0.586182
1519425073605,-0.056152,-0.778076,0.594238
1519425073619,-0.050049,-0.777832,0.603271
1519425073652,-0.040771,-0.799072,0.601074
1519425073684,-0.037842,-0.795654,0.604248
1519425073739,-0.041016,-0.785889,0.607422
1519425073747,-0.038818,-0.787842,0.596191
1519425073796,-0.037354,-0.785889,0.602783
1519425073829,-0.039307,-0.786621,0.598877
1519425073870,-0.040527,-0.787354,0.598145
1519425073895,-0.041016,-0.786377,0.602295
1519425073926,-0.038574,-0.788818,0.596436
1519425073958,-0.046875,-0.800049,0.599365
1519425073992,-0.052002,-0.802734,0.598389
1519425074025,-0.041016,-0.794678,0.593018
1519425074033,-0.033203,-0.781006,0.594482
1519425074095,-0.024658,-0.762939,0.584717
1519425074103,-0.015137,-0.801270,0.554688
1519425074128,-0.002197,-0.823242,0.584229
1519425074187,-0.008301,-0.817627,0.597656
1519425074195,-0.059570,-0.829834,0.632324
1519425074249,-0.093994,-0.785156,0.647461
1519425074280,-0.071533,-0.715820,0.647461
1519425074313,-0.050293,-0.719238,0.677734
1519425074345,-0.040527,-0.717041,0.696289
1519425074378,-0.043213,-0.798096,0.624023
1519425074411,-0.021240,-0.778809,0.596436
1519425074443,-0.022461,-0.705811,0.702881
1519425074457,-0.041260,-0.757324,0.695801
1519425074513,-0.082275,-0.701416,0.668701
1519425074522,-0.124512,-0.654297,0.712646
1519425074576,-0.058105,-0.533203,0.714600
1519425074580,0.010254,-0.693604,0.750488
1519425074611,0.083252,-0.852051,0.807861
1519425074644,0.067871,-0.779297,0.782959
1519425074678,0.002197,-0.736816,0.692627
1519425074712,-0.041260,-0.595459,0.711182
1519425074743,-0.077637,-0.340332,0.802246
1519425074776,-0.079590,-0.427246,0.819092
1519425074808,-0.059082,-0.486084,0.892090
1519425074841,-0.027832,-0.477783,0.891357
1519425074872,-0.010742,-0.484863,0.848389
1519425074903,-0.000732,-0.480469,0.884277
1519425074936,0.011963,-0.472412,0.886963
1519425074969,0.011719,-0.475098,0.880127
1519425075016,0.004639,-0.480713,0.887939
1519425075049,-0.006348,-0.419678,0.927002
1519425075054,0.003174,-0.417725,0.945313
1519425075111,0.006104,-0.427246,0.933105
1519425075143,0.010498,-0.466553,0.914795
1519425075151,0.003906,-0.445801,0.913818
1519425075207,-0.006836,-0.422607,0.922852
1519425075240,-0.005859,-0.377441,0.953369
1519425075273,0.003174,-0.367432,0.978027
1519425075287,0.026855,-0.401123,1.000488
1519425075321,-0.003906,-0.406006,0.953369
1519425075353,-0.025391,-0.387451,0.914795
1519425075386,-0.026367,-0.399902,0.888916
1519425075443,-0.013672,-0.393311,0.907227
1519425075476,-0.025635,-0.419189,0.882324
1519425075484,-0.039063,-0.436768,0.850830
1519425075533,-0.025391,-0.414063,0.864990
1519425075569,-0.024170,-0.421875,0.899170
1519425075574,-0.028320,-0.423584,0.914551
1519425075629,-0.032715,-0.440918,0.912109
1519425075638,-0.039795,-0.421631,0.902344
1519425075692,-0.054443,-0.416748,0.901367
1519425075775,-0.066406,-0.415771,0.903809
1519425075784,-0.064941,-0.427979,0.903564
1519425075841,-0.062012,-0.445801,0.907715
1519425075846,-0.066162,-0.440186,0.895752
1519425075908,-0.064453,-0.447510,0.898193
1519425075914,-0.061279,-0.450195,0.907715
1519425075976,-0.068359,-0.440186,0.899658
1519425075981,-0.073975,-0.426514,0.897461
1519425076044,-0.074707,-0.433838,0.895508
1519425076050,-0.070313,-0.430176,0.906738
1519425076111,-0.068848,-0.426514,0.911377
1519425076117,-0.060547,-0.424561,0.906006
1519425076177,-0.050537,-0.435059,0.907471
1519425076181,-0.052002,-0.431396,0.908691
1519425076245,-0.049316,-0.428711,0.909912
1519425076247,-0.045410,-0.424316,0.898438
1519425076271,-0.043457,-0.425049,0.906982
1519425076273,-0.048340,-0.426270,0.912598
1519425076296,-0.052734,-0.427734,0.905762
1519425076329,-0.054688,-0.414063,0.912842
1519425076364,-0.052002,-0.422852,0.912109
1519425076396,-0.052734,-0.434082,0.903320
1519425076429,-0.061035,-0.428223,0.905518
1519425076461,-0.059814,-0.431396,0.905029
1519425076493,-0.052734,-0.437012,0.901123
1519425076531,-0.056396,-0.431641,0.907959
1519425076546,-0.054443,-0.423340,0.909180
1519425076602,-0.053955,-0.432617,0.905029
1519425076635,-0.049072,-0.430176,0.911865
1519425076644,-0.047363,-0.427246,0.908203
1519425076694,-0.049072,-0.429932,0.900146
1519425076727,-0.052490,-0.429688,0.901367
1519425076732,-0.048096,-0.440430,0.910400
1519425076786,-0.044189,-0.432373,0.909424
1519425076819,-0.047852,-0.431396,0.902588
1519425076851,-0.048584,-0.434814,0.899414
1519425076882,-0.056641,-0.432373,0.906006
1519425076914,-0.049072,-0.421387,0.911377
1519425076947,-0.049316,-0.419189,0.908203
1519425076961,-0.051514,-0.430176,0.914063
1519425077019,-0.049805,-0.427002,0.904297
1519425077051,-0.054199,-0.432129,0.885986
1519425077084,-0.052979,-0.429199,0.916016
1519425077117,-0.061523,-0.432373,0.901855
1519425077149,-0.060547,-0.435303,0.902100
1519425077181,-0.051025,-0.438965,0.908447
1519425077214,-0.054932,-0.432617,0.901123
1519425077222,-0.054199,-0.430420,0.899414
1519425077271,-0.044434,-0.444580,0.912842
1519425077279,-0.041748,-0.431641,0.910889
1519425077308,-0.043213,-0.418457,0.902100
1519425077366,-0.046875,-0.424072,0.901611
1519425077379,-0.061035,-0.408203,0.908936
1519425077412,-0.053467,-0.406250,0.909668
1519425077471,-0.045166,-0.438721,0.901855
1519425077481,-0.057861,-0.447510,0.895020
1519425077512,-0.052490,-0.475342,0.885742
1519425077544,-0.061035,-0.449951,0.895264
1519425077577,-0.054932,-0.433594,0.907715
1519425077617,-0.047607,-0.437744,0.898682
1519425077668,-0.049316,-0.439209,0.904541
1519425077700,-0.046143,-0.419189,0.912598
1519425077707,-0.044678,-0.425537,0.896729
1519425077766,-0.045166,-0.426758,0.899414
1519425077771,-0.049316,-0.439941,0.903076
1519425077799,-0.044922,-0.465332,0.903320
1519425077832,-0.041504,-0.452148,0.889160
1519425077864,-0.036377,-0.429932,0.900879
1519425077896,-0.034180,-0.418701,0.919922
1519425077928,-0.016113,-0.463379,0.896240
1519425077961,-0.013672,-0.466064,0.882813
1519425077995,-0.020996,-0.440918,0.893555
1519425078028,-0.031250,-0.444580,0.898438
1519425078083,-0.040771,-0.456299,0.885010
1519425078089,-0.043213,-0.451660,0.900391
1519425078148,-0.034912,-0.441895,0.913330
1519425078180,-0.032471,-0.455811,0.896240
1519425078188,-0.026611,-0.461426,0.893066
1519425078226,-0.020508,-0.448486,0.899170
1519425078261,-0.023926,-0.452637,0.888916
1519425078292,-0.034180,-0.452881,0.887451
1519425078323,-0.026123,-0.434326,0.907959
1519425078355,-0.028320,-0.450195,0.891846
1519425078388,-0.036133,-0.463867,0.880127
1519425078421,-0.032959,-0.447754,0.897949
1519425078458,-0.023193,-0.459229,0.906982
1519425078491,-0.020996,-0.472656,0.901367
1519425078523,-0.020264,-0.451172,0.893066
1519425078555,-0.022949,-0.448486,0.890625
1519425078587,-0.024170,-0.458496,0.889648
1519425078620,-0.015381,-0.458984,0.891846
1519425078653,-0.011719,-0.458496,0.891602
1519425078658,-0.019043,-0.461914,0.886475
1519425078716,-0.016113,-0.458740,0.900635
1519425078749,-0.020752,-0.458496,0.893799
1519425078758,-0.034180,-0.454102,0.886475
1519425078811,-0.040527,-0.447754,0.890869
1519425078859,-0.035889,-0.457275,0.896973
1519425078867,-0.026855,-0.460205,0.897461
1519425078916,-0.023926,-0.463867,0.885498
1519425078920,-0.031738,-0.451660,0.895996
1519425078977,-0.023926,-0.454834,0.897949
1519425078992,-0.021484,-0.459229,0.886719
1519425079024,-0.021729,-0.451660,0.895752
1519425079056,-0.019775,-0.452393,0.892090
1519425079089,-0.015381,-0.459229,0.891602
1519425079122,-0.014404,-0.453369,0.893799
1519425079154,-0.017090,-0.461914,0.894043
1519425079214,-0.017578,-0.463379,0.891357
1519425079243,-0.021729,-0.459229,0.895996
1519425079248,-0.020996,-0.455566,0.896240
1519425079302,-0.022217,-0.457520,0.889404
1519425079336,-0.024414,-0.457275,0.888672
1519425079345,-0.019287,-0.461670,0.898193
1519425079395,-0.018555,-0.462158,0.892090
1519425079404,-0.022705,-0.450684,0.891357
1519425079462,-0.023682,-0.456055,0.888916
1519425079495,-0.023926,-0.466064,0.889404
1519425079504,-0.021240,-0.465820,0.891113
1519425079557,-0.020752,-0.456787,0.895264
1519425079589,-0.027344,-0.458984,0.890869
1519425079623,-0.030762,-0.467529,0.887207
1519425079655,-0.028320,-0.460205,0.894531
1519425079688,-0.026611,-0.451904,0.895020
1519425079721,-0.020020,-0.460449,0.897461
1519425079753,-0.020996,-0.467041,0.895996
1519425079785,-0.017334,-0.453369,0.888916
1519425079827,-0.016846,-0.464600,0.885254
1519425079836,-0.026611,-0.469482,0.893311
1519425079886,-0.020264,-0.452393,0.900635
1519425079918,-0.021973,-0.448730,0.891846
1519425079923,-0.035889,-0.444336,0.891357
1519425079976,-0.048584,-0.448975,0.900391
1519425079983,-0.042725,-0.465088,0.893066
1519425080041,-0.032715,-0.468750,0.880371
1519425080072,-0.044434,-0.467285,0.861816
1519425080106,-0.053711,-0.467285,0.870605
1519425080137,-0.051758,-0.463867,0.890381
1519425080171,-0.039063,-0.463379,0.890625
1519425080202,-0.033447,-0.459961,0.885742
1519425080215,-0.032715,-0.457520,0.894287
1519425080274,-0.033691,-0.453613,0.903076
1519425080284,-0.030518,-0.459961,0.903564
1519425080337,-0.033203,-0.461426,0.894043
1519425080371,-0.034668,-0.446777,0.891846
1519425080408,-0.030762,-0.453857,0.892822
1519425080416,-0.020264,-0.459961,0.889893
1519425080466,-0.005615,-0.464355,0.887451
1519425080474,-0.004883,-0.475098,0.878418
1519425080498,-0.009766,-0.459961,0.881836
1519425080557,-0.004150,-0.454346,0.896240
1519425080588,-0.000732,-0.453369,0.896729
1519425080601,0.003662,-0.454590,0.887207
1519425080635,-0.009033,-0.461426,0.876221
1519425080668,-0.014893,-0.476318,0.883789
1519425080701,-0.015137,-0.493652,0.876953
1519425080775,-0.013184,-0.508789,0.871826
1519425080783,-0.010498,-0.500244,0.877197
1519425080841,-0.015137,-0.496826,0.876953
1519425080848,-0.015381,-0.498779,0.891357
1519425080908,-0.012695,-0.478271,0.914795
1519425080911,-0.037598,-0.469482,0.886230
1519425080976,-0.001953,-0.411133,0.967773
1519425080982,0.063965,-0.446777,1.060791
1519425081044,0.072754,-0.386963,1.087402
1519425081112,0.062500,-0.355713,1.024414
1519425081180,0.040771,-0.270996,0.920654
1519425081188,-0.007813,-0.440430,0.827148
1519425081197,-0.040039,-0.496094,0.905273
1519425081204,-0.034912,-0.505615,0.864990
1519425081207,-0.002441,-0.564941,0.826172
1519425081228,-0.026855,-0.559814,0.777100
1519425081261,-0.054199,-0.624268,0.650391
1519425081294,-0.072021,-0.635742,0.621338
1519425081329,-0.088379,-0.844238,0.474365
1519425081366,-0.154785,-0.804199,0.326660
1519425081419,-0.137451,-0.866211,0.191895
1519425081427,-0.129395,-0.907959,-0.030518
1519425081452,-0.176758,-1.058838,-0.117432
1519425081465,-0.147461,-1.083984,-0.093262
1519425081523,-0.235840,-1.073730,-0.253906
1519425081533,-0.248535,-1.077148,-0.319824
1519425081566,-0.187012,-1.057129,-0.191406
1519425081607,-0.262207,-0.812988,-0.236084
1519425081639,-0.249268,-1.035889,-0.125488
1519425081674,-0.183594,-0.875000,-0.009521
1519425081705,-0.203857,-0.911621,-0.048828
1519425081737,-0.226318,-1.090576,-0.019775
1519425081770,-0.214355,-1.026611,-0.063721
1519425081803,-0.163330,-0.826416,0.122070
1519425081834,-0.159180,-0.959229,0.056641
1519425081867,-0.102051,-1.108887,0.032715
1519425081907,-0.182373,-0.828369,-0.023682
1519425081940,-0.165771,-0.824951,-0.163574
1519425081942,-0.192383,-1.109375,-0.140625
1519425081999,-0.203125,-0.968506,-0.212891
1519425082032,-0.191895,-0.958740,-0.341309
1519425082064,-0.188232,-1.008057,-0.364014
1519425082097,-0.177246,-1.032959,-0.404297
1519425082132,-0.186523,-0.770752,-0.263672
1519425082163,-0.244629,-0.799805,-0.279541
1519425082194,-0.249512,-0.826172,-0.398682
1519425082209,-0.212646,-0.883545,-0.488770
1519425082268,-0.208496,-0.953125,-0.495850
1519425082282,-0.209717,-0.831299,-0.487793
1519425082318,-0.228271,-0.901367,-0.439453
1519425082351,-0.244629,-0.838135,-0.381836
1519425082384,-0.229980,-0.854492,-0.468506
1519425082416,-0.222168,-0.777588,-0.451660
1519425082447,-0.227539,-0.852783,-0.445557
1519425082480,-0.211182,-0.885498,-0.460449
1519425082513,-0.216064,-0.929932,-0.394043
1519425082545,-0.217285,-0.993896,-0.391602
1519425082577,-0.221680,-1.027100,-0.372559
1519425082609,-0.211182,-0.949951,-0.268555
1519425082643,-0.190430,-0.676758,-0.158691
1519425082697,-0.243408,-0.948242,-0.272461
1519425082703,-0.236084,-1.152100,-0.219482
1519425082731,-0.203857,-0.918213,-0.069336
1519425082765,-0.179932,-0.970459,0.115234
1519425082798,-0.212402,-0.927002,0.274658
1519425082830,-0.167480,-0.688721,0.498779
1519425082861,-0.189941,-1.062012,0.424805
1519425082895,-0.128174,-0.929199,0.475342
1519425082926,-0.165527,-0.641357,0.576660
1519425082962,-0.185059,-0.829346,0.677002
1519425082992,-0.193359,-0.681885,0.699951
1519425083026,-0.113525,-0.381104,0.706055
1519425083064,-0.159424,-0.712402,0.760986
1519425083096,-0.109863,-0.656250,0.754150
1519425083104,-0.143799,-0.635986,0.778320
1519425083160,-0.105469,-0.541260,0.908691
1519425083193,-0.085449,-0.535645,0.932617
1519425083225,-0.109619,-0.566162,0.880127
1519425083258,-0.107422,-0.496826,0.901611
1519425083269,-0.128174,-0.436523,0.894531
1519425083326,-0.118896,-0.439941,0.892822
1519425083359,-0.149170,-0.493652,0.857666
1519425083391,-0.130615,-0.443115,0.881104
1519425083425,-0.134277,-0.456543,0.913574
1519425083457,-0.156250,-0.433594,0.809326
1519425083471,-0.176025,-0.571045,0.765625
1519425083503,-0.166992,-0.559326,0.793457
1519425083561,-0.171875,-0.554688,0.743408
1519425083591,-0.166748,-0.639648,0.727051
1519425083595,-0.128662,-0.577637,0.889404
1519425083651,-0.110840,-0.530762,0.915283
1519425083660,-0.122559,-0.542725,0.827393
1519425083688,-0.137207,-0.504150,0.801758
1519425083745,-0.120117,-0.525146,0.862061
1519425083753,-0.107910,-0.589844,0.849365
1519425083810,-0.109619,-0.567139,0.856689
1519425083842,-0.119385,-0.520020,0.801025
1519425083875,-0.158203,-0.573730,0.727539
1519425083893,-0.153320,-0.562500,0.781250
1519425083919,-0.148438,-0.562012,0.810791
1519425083953,-0.121338,-0.631592,0.799316
1519425084007,-0.122559,-0.589111,0.847900
1519425084041,-0.127197,-0.524414,0.828613
1519425084072,-0.145752,-0.518799,0.834229
1519425084082,-0.141602,-0.545410,0.844727
1519425084139,-0.123535,-0.567627,0.823486
1519425084172,-0.117188,-0.562256,0.807861
1519425084178,-0.131348,-0.541992,0.832520
1519425084233,-0.148438,-0.560791,0.812256
1519425084243,-0.156982,-0.518555,0.784912
1519425084270,-0.137939,-0.625732,0.776367
1519425084337,-0.114502,-0.588867,0.803711
1519425084346,-0.130859,-0.636475,0.732422
1519425084371,-0.117920,-0.740967,0.715088
1519425084404,-0.118896,-0.705566,0.666260
1519425084435,-0.133057,-0.713867,0.626221
1519425084469,-0.145020,-0.788574,0.669189
1519425084501,-0.135254,-0.738525,0.630371
1519425084533,-0.157959,-0.793457,0.530762
1519425084589,-0.147217,-0.855957,0.555908
1519425084622,-0.148438,-0.771240,0.514404
1519425084656,-0.170410,-0.880371,0.446045
1519425084664,-0.156006,-0.921631,0.413574
1519425084715,-0.155518,-0.894043,0.414307
1519425084748,-0.161377,-0.934082,0.377686
1519425084756,-0.180176,-0.847656,0.313721
1519425084805,-0.169678,-0.937988,0.404785
1519425084838,-0.161621,-0.906982,0.423584
1519425084871,-0.175781,-0.889648,0.399902
1519425084902,-0.155762,-0.885010,0.438477
1519425084935,-0.172363,-0.867188,0.436035
1519425084967,-0.176758,-0.867676,0.393555
1519425084999,-0.151123,-0.905518,0.399902
1519425085033,-0.139893,-0.924805,0.414551
1519425085066,-0.154541,-0.895020,0.408447
1519425085097,-0.159912,-0.888184,0.384521
1519425085111,-0.159912,-0.875000,0.421875
1519425085169,-0.150146,-0.901367,0.440430
1519425085202,-0.152832,-0.897217,0.423584
1519425085210,-0.152588,-0.891602,0.418457
1519425085258,-0.148926,-0.889648,0.430664
1519425085291,-0.153320,-0.893799,0.430664
1519425085300,-0.158936,-0.886719,0.413574
1519425085354,-0.155762,-0.895752,0.414551
1519425085386,-0.158447,-0.868408,0.410156
1519425085419,-0.151367,-0.903564,0.432861
1519425085450,-0.152832,-0.887695,0.433350
1519425085483,-0.155762,-0.863770,0.439209
1519425085516,-0.152100,-0.889404,0.451172
1519425085529,-0.152832,-0.886230,0.468262
1519425085586,-0.137451,-0.901611,0.518799
1519425085619,-0.134766,-0.867676,0.553955
1519425085624,-0.158447,-0.844727,0.555908
1519425085679,-0.193359,-0.854492,0.495361
1519425085711,-0.143799,-0.681396,0.613281
1519425085719,-0.163086,-0.785889,0.651611
1519425085784,-0.190918,-0.506836,0.799072
1519425085793,-0.193848,-0.573242,0.822754
1519425085854,-0.206299,-0.532227,0.730225
1519425085863,-0.186768,-0.503662,0.809326
1519425085919,-0.210205,-0.639648,0.785400
1519425085988,-0.177490,-0.512451,0.742188
1519425086055,-0.016602,-0.516602,0.838379
1519425086063,-0.233887,-0.378418,0.887451
1519425086123,-0.113281,-0.623047,0.946289
1519425086190,-0.095703,-0.496338,0.951172
1519425086199,-0.131104,-0.537598,0.903076
1519425086256,-0.126465,-0.566650,0.847900
1519425086264,-0.171875,-0.307861,0.831055
1519425086282,-0.197754,-0.331787,0.863281
1519425086285,-0.220215,-0.270996,0.846436
1519425086288,-0.196289,-0.309814,0.927002
1519425086291,-0.158447,-0.233154,0.997803
1519425086295,-0.085693,-0.137451,1.078613
1519425086349,-0.102539,0.009766,1.026123
1519425086383,-0.147949,-0.087402,1.003906
1519425086414,-0.143555,-0.201904,0.968994
1519425086448,-0.119385,-0.176270,1.012939
1519425086480,-0.096436,-0.154785,0.953857
1519425086512,-0.093750,-0.172607,0.969971
1519425086537,-0.104980,-0.167725,0.943359
1519425086570,-0.100586,-0.144043,0.934326
1519425086602,-0.112549,-0.230713,0.953369
1519425086635,-0.040283,0.044678,1.012207
1519425086668,-0.026123,0.046143,0.968506
1519425086700,-0.025391,0.013916,0.978271
1519425086732,-0.004883,-0.152344,0.989502
1519425086766,0.036865,-0.128906,1.051270
1519425086798,0.017822,-0.153320,1.053467
1519425086833,0.039063,-0.122070,1.071533
1519425086864,0.027100,-0.174561,1.039795
1519425086871,0.120850,-0.237305,1.046875
1519425086931,0.182861,-0.251465,0.967529
1519425086961,0.197754,-0.221191,1.018311
1519425086992,0.258789,-0.212891,1.027344
1519425087025,0.200195,-0.185059,1.006592
1519425087058,0.174316,-0.207764,1.022461
1519425087090,0.175049,-0.205322,1.053223
1519425087123,0.148682,-0.183350,0.999023
1519425087139,0.096436,-0.146240,0.938232
1519425087197,0.102539,-0.144775,0.930908
1519425087228,0.138184,-0.148193,0.982666
1519425087261,0.162354,-0.144775,1.004150
1519425087294,0.135742,-0.124512,1.025146
1519425087326,0.158691,-0.138672,0.996338
1519425087359,0.141357,-0.135986,0.949463
1519425087367,0.149170,-0.085938,0.893555
1519425087418,0.130859,-0.131836,0.905762
1519425087427,0.121094,-0.103027,0.915771
1519425087456,0.166504,-0.146729,0.923096
1519425087515,0.945801,2.414795,-1.181396
1519425087528,-2.503662,1.944580,0.539063
1519425087559,0.991699,-1.717773,1.024658
1519425087592,0.601074,-0.322998,1.266357
1519425087625,0.016357,-0.519531,1.052490
1519425087658,0.299561,-0.277588,0.922363
1519425087691,0.471680,-0.500000,0.782227
1519425087723,0.286377,-0.832275,0.550537
1519425087755,0.128906,-0.829590,0.598633
1519425087786,-0.028320,-0.427490,0.782715
1519425087845,-0.121582,-0.448242,0.634766
1519425087854,-0.256348,-0.513672,0.501953
1519425087903,-0.088379,-0.671875,0.278809
1519425087938,-0.142578,-0.797852,-0.026855
1519425087946,-0.074951,-0.772461,-0.318848
1519425087994,-0.075195,-1.142822,-0.580078
1519425088026,-0.010742,-0.911865,-0.577393
1519425088060,-0.016846,-0.800049,-0.439453
1519425088105,0.087158,-0.478271,-0.329346
1519425088111,0.130859,-0.537842,-0.460693
1519425088141,0.114258,-0.593262,-0.496338
1519425088175,0.311279,-0.414795,-0.427246
1519425088205,0.296143,-0.336914,-0.462891
1519425088237,0.395752,-0.357422,-0.520996
1519425088273,0.606445,-0.470703,-0.523682
1519425088304,0.812744,-0.665527,-0.449463
1519425088340,0.986084,-0.664063,-0.567383
1519425088371,1.172119,-1.004395,-0.860107
1519425088403,1.049561,-0.814453,-0.827393
1519425088437,0.972168,-0.748779,-0.747803
1519425088467,0.862305,-1.094482,-0.927002
1519425088501,0.800781,-1.225342,-1.179199
1519425088533,0.807861,-1.220703,-1.173828
1519425088565,0.851563,-1.255615,-1.209961
1519425088597,0.910645,-1.259033,-1.246582
1519425088630,0.945313,-1.237793,-1.271484
1519425088662,1.059326,-1.236572,-1.302979
1519425088697,1.173828,-1.265869,-1.310303
1519425088728,1.387451,-1.182129,-1.170410
1519425088769,1.607178,-1.053711,-0.979980
1519425088804,1.855713,-0.787842,-0.566895
1519425088834,1.649170,-0.028564,0.168701
1519425088868,1.048828,0.831055,0.935547
1519425088899,0.750244,0.455566,0.209961
1519425088932,0.689209,0.042480,0.183105
1519425088968,0.428467,0.203369,0.259766
1519425088976,0.225098,-0.157471,-0.083984
1519425089023,-0.104980,-0.496338,-0.144287
1519425089055,-0.206543,-0.768311,-0.371826
1519425089064,-0.246094,-0.891357,-0.157471
1519425089097,-0.353760,-1.015625,-0.238525
1519425089156,-0.294189,-1.361328,-0.318359
1519425089169,-0.350830,-1.461426,-0.245361
1519425089203,-0.436768,-1.432617,-0.204102
1519425089234,-0.428467,-1.427979,-0.223877
1519425089268,-0.357422,-1.412842,-0.131592
1519425089300,-0.418213,-1.450928,-0.137451
1519425089332,-0.391846,-1.343750,-0.241211
1519425089364,-0.324463,-1.157959,-0.120117
1519425089398,-0.273438,-1.099609,-0.082764
1519425089454,-0.247803,-1.022461,-0.102295
1519425089487,-0.195557,-0.982178,-0.114258
1519425089496,-0.133057,-0.862305,-0.068848
1519425089521,-0.116455,-0.771729,-0.006592
1519425089564,-0.109619,-0.760498,0.035645
1519425089595,-0.060791,-0.801025,0.028809
1519425089628,-0.011475,-0.779541,0.058838
1519425089662,-0.020020,-0.750977,0.128418
1519425089694,-0.034912,-0.749756,0.163330
1519425089729,-0.154053,-0.827637,0.129395
1519425089758,-0.281982,-1.116699,0.046143
1519425089792,-0.420898,-1.549316,0.020508
1519425089824,-0.393799,-1.148193,0.223633
1519425089857,-0.327637,-0.734131,0.145508
1519425089889,-0.215576,-0.735107,0.201172
1519425089923,-0.120361,-0.854980,0.338867
1519425089954,-0.098389,-0.974854,0.252930
1519425089968,-0.052979,-1.074463,0.284668
1519425090026,-0.046875,-1.172363,0.381592
1519425090032,-0.053711,-1.075684,0.322754
1519425090063,-0.047852,-0.956543,0.288330
1519425090120,-0.046387,-0.921143,0.246582
1519425090128,-0.106445,-0.872559,0.203857
1519425090184,-0.162842,-0.926514,0.175049
1519425090216,-0.191650,-0.958252,0.135010
1519425090248,-0.210938,-0.989502,0.092041
1519425090282,-0.203125,-0.970459,0.079590
1519425090315,-0.173584,-0.966797,0.118652
1519425090348,-0.170410,-0.903564,0.169434
1519425090380,-0.187012,-0.977051,0.154297
1519425090396,-0.177002,-1.033203,0.122559
1519425090452,-0.187256,-1.012939,0.120361
1519425090461,-0.181885,-0.875488,0.150879
1519425090517,-0.224854,-0.966553,0.082275
1519425090549,-0.218994,-0.957520,0.084229
1519425090558,-0.201660,-0.993896,0.127197
1519425090605,-0.208984,-0.966553,0.165771
1519425090610,-0.212158,-0.951904,0.154297
1519425090644,-0.217041,-0.964355,0.081055
1519425090702,-0.225830,-1.000000,0.084229
1519425090711,-0.227295,-0.965332,0.075928
1519425090779,-0.212891,-0.970215,0.049561
1519425090785,-0.210449,-0.939453,0.091797
1519425090849,-0.211914,-0.932861,0.125000
1519425090917,-0.199951,-0.937744,0.121826
1519425090983,-0.196289,-0.916748,0.088135
1519425090989,-0.198975,-0.993896,0.092041
1519425091051,-0.210449,-1.072754,0.051270
1519425091062,-0.197266,-0.965332,0.077637
1519425091117,-0.237061,-1.061279,-0.023926
1519425091123,-0.232666,-0.960693,-0.033691
1519425091186,-0.242188,-0.908447,-0.039795
1519425091194,-0.261475,-0.932129,-0.043945
1519425091253,-0.258789,-0.909912,-0.019531
1519425091264,-0.245850,-0.944580,-0.027100
1519425091273,-0.232422,-0.978516,-0.065918
1519425091284,-0.228516,-0.976074,-0.080078
1519425091287,-0.242432,-0.971680,-0.031006
1519425091290,-0.248047,-1.002197,-0.020996
1519425091346,-0.256348,-1.002197,-0.043213
1519425091379,-0.253906,-0.976318,-0.056641
1519425091413,-0.256348,-0.945801,-0.009277
1519425091444,-0.266113,-0.965576,0.006348
1519425091478,-0.271240,-0.953857,0.000244
1519425091509,-0.263428,-0.935791,0.031738
1519425091542,-0.264893,-0.870850,0.041504
1519425091574,-0.257568,-0.897461,0.045166
1519425091605,-0.243408,-0.936035,0.024170
1519425091609,-0.239502,-0.935303,0.022949
1519425091657,-0.231201,-0.975586,0.044189
1519425091690,-0.227051,-0.914795,0.033691
1519425091723,-0.218018,-0.986572,0.006592
1519425091757,-0.215332,-1.041016,0.064209
1519425091788,-0.192871,-0.965088,0.096924
1519425091820,-0.188477,-0.955811,0.077637
1519425091863,-0.204834,-0.947510,0.023193
1519425091869,-0.219727,-0.979248,0.034668
1519425091926,-0.213135,-0.973877,0.065186
1519425091960,-0.192139,-0.977295,0.084473
1519425091972,-0.173584,-0.963135,0.081299
1519425092028,-0.169678,-0.986572,0.089355
1519425092034,-0.153076,-0.980225,0.125732
1519425092092,-0.156250,-0.987793,0.102539
1519425092106,-0.143799,-0.981201,0.102051
1519425092137,-0.143555,-0.989746,0.116699
1519425092170,-0.147705,-0.976074,0.116455
1519425092203,-0.149170,-0.990479,0.118164
1519425092237,-0.150391,-1.022461,0.121338
1519425092269,-0.161865,-1.061279,0.086182
1519425092301,-0.162598,-1.202393,0.099854
1519425092334,-0.141602,-1.011475,0.134277
1519425092366,-0.181152,-0.709473,0.203369
1519425092399,-0.194824,-0.545654,0.525635
1519425092430,-0.209961,-0.378662,0.869873
1519425092463,-0.191406,-0.344482,0.917969
1519425092497,-0.180176,-0.297119,0.868652
1519425092538,-0.201660,-0.199707,0.941895
1519425092568,-0.176025,-0.081055,1.083496
1519425092600,-0.184570,-0.061523,0.948242
1519425092633,-0.139648,-0.147461,1.000732
1519425092666,-0.112305,-0.224854,1.085449
1519425092699,-0.090576,-0.199463,0.930908
1519425092734,-0.024902,0.052734,0.960693
1519425092743,-0.134277,0.097656,1.024414
1519425092790,-0.016846,-0.029053,0.931885
1519425092823,-0.018311,-0.137207,1.013672
1519425092855,-0.038818,-0.042480,1.087402
1519425092888,-0.029053,-0.012695,0.951660
1519425092908,0.004150,-0.043701,0.926514
1519425092938,0.090088,-0.139893,0.912842
1519425092972,0.107422,-0.059570,0.998047
1519425093004,0.091064,-0.089355,1.085693
1519425093036,0.093750,-0.043945,1.088623
1519425093070,0.116211,-0.202637,1.011230
1519425093102,0.119629,-0.191650,1.027588
1519425093134,0.124023,-0.165283,0.978760
1519425093167,0.078857,-0.168213,0.866455
1519425093224,0.145996,-0.002197,0.972412
1519425093235,0.277344,-0.246094,1.096924
1519425093257,0.217041,-0.114746,1.019287
1519425093316,0.217285,-0.026123,0.921875
1519425093324,0.312988,-0.213135,0.997559
1519425093361,0.355469,-0.202637,1.035400
1519425093394,0.316650,-0.150879,0.902100
1519425093428,0.318115,-0.187012,0.960938
1519425093459,0.336914,-0.226318,1.000488
1519425093492,0.320557,-0.201660,1.000732
1519425093525,0.302002,-0.174316,0.951172
1519425093558,0.300537,-0.105469,0.926514
1519425093590,0.304688,-0.162842,0.926758
1519425093620,0.317871,-0.153320,0.955322
1519425093653,0.342529,-0.217285,0.992676
1519425093686,0.254883,-0.133545,0.904541
1519425093732,0.258789,-0.024414,0.919189
1519425093737,0.289307,-0.085693,0.964844
1519425093804,0.261963,-0.124268,0.960449
1519425093809,0.263184,-0.056885,0.937012
1519425093836,0.277100,-0.069580,0.870117
1519425093902,0.260742,-0.052734,0.925781
1519425093906,0.314697,-0.082275,0.950684
1519425093939,0.375732,-0.063232,0.902832
1519425093970,0.372070,-0.040039,0.920898
1519425094004,0.371582,-0.047852,0.952881
1519425094036,0.310059,-0.069580,0.950928
1519425094069,0.308594,-0.081543,0.947754
1519425094100,0.327148,-0.045654,0.887451
1519425094133,0.356689,-0.050049,0.849609
1519425094175,0.406982,-0.144775,0.988281
1519425094218,0.389404,-0.064453,1.021973
1519425094226,0.425049,-0.112549,0.860107
1519425094276,0.493164,-0.125244,0.801514
1519425094310,0.424805,-0.138672,0.933105
1519425094318,0.518066,-0.136475,1.048584
1519425094368,0.542480,-0.184814,0.729004
1519425094401,0.508301,-0.227539,0.753418
1519425094434,0.413574,-0.239746,1.020508
1519425094467,0.612305,-0.250244,0.839355
1519425094501,0.622559,-0.255127,0.738037
1519425094532,0.560059,-0.171875,0.741455
1519425094546,0.515137,-0.288086,0.922607
1519425094579,0.511719,-0.246582,1.016113
1519425094635,0.492432,-0.249512,0.879883
1519425094642,0.387695,0.133789,0.458496
1519425094699,0.500488,-0.240479,0.880127
1519425094733,0.531738,-0.264404,1.052002
1519425094765,0.737305,-0.343994,1.075928
1519425094798,0.648682,-0.010742,0.947998
1519425094807,0.513672,0.083252,0.928467
1519425094855,0.252441,0.039551,0.818848
1519425094892,0.225586,0.019531,0.941162
1519425094901,0.243896,-0.116943,0.935303
1519425094949,0.158936,-0.117188,0.832275
1519425094982,0.191895,0.045654,0.873535
1519425095016,0.205811,-0.038330,0.827148
1519425095047,0.180664,0.123047,0.981689
1519425095080,0.105957,0.108398,1.009277
1519425095113,0.056885,0.062500,1.065918
1519425095146,0.040283,-0.114990,0.971680
1519425095179,-0.031738,-0.184082,0.986084
1519425095211,-0.027100,-0.081055,1.117676
1519425095244,-0.039551,-0.062012,0.972412
1519425095276,-0.037109,0.123047,1.121826
1519425095309,-0.031982,0.022949,1.163330
1519425095341,-0.042969,-0.302246,0.826660
1519425095374,-0.121826,-0.525391,0.540039
1519425095383,-0.119629,-0.720459,0.307373
1519425095433,-0.128662,-0.935059,0.025879
1519425095464,-0.123535,-1.036377,-0.157959
1519425095474,-0.128662,-1.283936,-0.120361
1519425095529,-0.181152,-1.236084,-0.176758
1519425095562,-0.114258,-0.989258,0.002197
1519425095580,-0.160400,-0.904785,0.120850
1519425095612,-0.182861,-0.860596,0.194824
1519425095643,-0.238281,-0.910889,0.168701
1519425095676,-0.174316,-0.888184,0.074463
1519425095710,-0.244873,-1.028809,0.135986
1519425095782,-0.211914,-0.982910,-0.013916
1519425095790,-0.204102,-1.009521,0.014404
1519425095849,-0.224365,-1.056396,0.059326
1519425095855,-0.234375,-1.115234,0.120117
1519425095916,-0.246338,-1.165527,0.305176
1519425095919,-0.320557,-0.914795,0.288330
1519425095984,-0.344238,-1.212891,0.282715
1519425095991,-0.415283,-0.723389,0.453613
1519425096051,-0.571533,-0.880859,0.437500
1519425096054,-0.715820,-0.774414,0.493408
1519425096119,-0.639648,-0.725342,0.621826
1519425096126,-0.638916,-0.622314,0.645508
1519425096253,-0.757813,-0.571533,0.591797
1519425096256,-0.654297,-0.314697,0.533203
1519425096273,-0.611328,-0.282959,0.603516
1519425096276,-0.642334,-0.239258,0.508789
1519425096279,-0.544678,-0.258545,0.494629
1519425096307,-0.434326,-0.184570,0.532227
1519425096340,-0.444092,-0.169189,0.510986
1519425096373,-0.510986,-0.240723,0.541748
1519425096406,-0.740967,-0.143311,0.638428
1519425096410,-0.935059,-0.096191,0.717529
1519425096464,-0.993408,-0.178955,0.700439
1519425096497,-0.829590,-0.188232,0.709717
1519425096502,-0.753174,-0.113525,0.560059
1519425096560,-0.812012,-0.156006,0.453369
1519425096592,-0.830811,-0.012939,0.462158
1519425096606,-0.844482,-0.135498,0.481201
1519425096638,-0.841797,-0.169189,0.517334
1519425096671,-0.866455,-0.194824,0.528564
1519425096711,-0.854736,-0.159912,0.577881
1519425096736,-0.838867,-0.003662,0.548828
1519425096777,-0.841309,-0.105957,0.552246
1519425096814,-0.842529,-0.177246,0.634766
1519425096848,-0.833008,-0.195313,0.630371
1519425096878,-0.802002,-0.095703,0.634766
1519425096911,-0.809326,0.093750,0.583252
1519425096917,-0.879639,-0.173340,0.602295
1519425096975,-0.812744,-0.176270,0.527344
1519425097009,-0.848389,-0.118408,0.571045
1519425097021,-0.854736,-0.132568,0.557861
1519425097079,-0.855713,-0.168945,0.604248
1519425097094,-0.851807,-0.292236,0.661621
1519425097140,-0.805664,0.155518,0.452393
1519425097173,-0.899414,-0.158203,0.780518
1519425097204,-0.856689,-0.185303,0.564453
1519425097236,-0.855225,-0.116699,0.471680
1519425097269,-0.858643,-0.108398,0.491699
1519425097302,-0.822754,-0.147949,0.600342
1519425097334,-0.841309,-0.185059,0.538574
1519425097367,-0.799561,-0.170898,0.574219
1519425097400,-0.853271,-0.117920,0.611572
1519425097405,-0.829102,-0.177002,0.553955
1519425097461,-0.831055,-0.181396,0.617188
1519425097492,-0.847412,-0.080811,0.562500
1519425097501,-0.832275,-0.126709,0.555908
1519425097557,-0.864258,-0.132080,0.569580
1519425097589,-0.839844,-0.143555,0.542725
1519425097620,-0.830566,-0.119385,0.579834
1519425097652,-0.865479,-0.122559,0.511230
1519425097685,-0.844971,-0.143311,0.578857
1519425097718,-0.856934,-0.149170,0.562012
1519425097750,-0.452148,1.091064,0.305664
1519425097786,-0.483398,0.081299,0.708252
1519425097819,-0.376709,-1.252930,0.962891
1519425097833,-0.752197,-1.062744,0.737305
1519425097867,-0.734375,-0.394287,0.422363
1519425097898,-0.688232,-0.128174,0.463623
1519425097933,-0.668457,-0.523193,0.651367
1519425097988,-0.608643,-0.423828,0.338379
1519425097996,-0.417236,-0.523682,0.163330
1519425098058,-0.429688,-0.782471,-0.212891
1519425098065,-0.381836,-0.941162,-0.524658
1519425098093,-0.401611,-1.360840,-0.430420
1519425098151,-0.465332,-1.041016,-0.312012
1519425098157,-0.451172,-1.186523,-0.273193
1519425098186,-0.362305,-1.182861,-0.154297
1519425098230,-0.304688,-0.853027,-0.110107
1519425098263,-0.191895,-1.106201,0.192383
1519425098293,-0.234619,-1.278320,0.270752
1519425098325,-0.219727,-0.890869,0.425781
1519425098360,-0.244385,-1.041992,0.260254
1519425098394,-0.195313,-0.807373,0.304199
1519425098425,-0.282227,-0.748291,0.188965
1519425098458,-0.283936,-0.709717,0.235107
1519425098490,-0.278320,-0.726074,0.219727
1519425098523,-0.241943,-0.889404,0.075684
1519425098555,-0.184814,-1.093262,0.091064
1519425098588,-0.185303,-1.113525,0.196289
1519425098620,-0.220459,-1.111572,0.139160
1519425098659,-0.148926,-1.090088,0.038818
1519425098662,-0.089355,-0.966797,0.033936
1519425098719,-0.125244,-0.904541,0.107422
1519425098756,-0.214600,-0.946045,0.166992
1519425098788,-0.318604,-0.952637,0.188477
1519425098821,-0.374268,-1.003906,0.151611
1519425098830,-0.320801,-0.982666,0.186768
1519425098861,-0.295166,-0.995117,0.217285
1519425098917,-0.245361,-0.963867,0.238770
1519425098947,-0.217041,-0.951660,0.215332
1519425098981,-0.186035,-0.998291,0.215820
1519425099013,-0.182617,-0.938232,0.246094
1519425099045,-0.169434,-0.938477,0.244873
1519425099059,-0.139160,-0.925781,0.229492
1519425099092,-0.148438,-0.904053,0.231445
1519425099149,-0.149414,-0.904541,0.275146
1519425099155,-0.136230,-0.962158,0.281250
1519425099208,-0.132568,-0.952148,0.316895
1519425099240,-0.117676,-0.960205,0.319336
1519425099263,-0.102051,-0.955811,0.338135
1519425099298,-0.094482,-0.930908,0.335938
1519425099336,-0.074951,-0.925049,0.347168
1519425099354,-0.081055,-0.943848,0.340088
1519425099387,-0.085205,-0.945068,0.332764
1519425099420,-0.097656,-0.925537,0.337402
1519425099452,-0.101074,-0.933350,0.337402
1519425099493,-0.097168,-0.943848,0.328125
1519425099526,-0.092529,-0.941895,0.323486
1519425099560,-0.095947,-0.941406,0.324463
1519425099591,-0.102295,-0.929443,0.318359
1519425099624,-0.105957,-0.942383,0.312988
1519425099656,-0.125488,-0.939209,0.302246
1519425099689,-0.148926,-0.925049,0.306396
1519425099725,-0.141602,-0.914307,0.308105
1519425099731,-0.128418,-0.933350,0.312256
1519425099759,-0.106445,-0.933838,0.329102
1519425099794,-0.094727,-0.931885,0.346680
1519425099825,-0.100342,-0.925049,0.359131
1519425099858,-0.128174,-0.933105,0.356201
1519425099900,-0.123047,-0.927979,0.363037
1519425099930,-0.113770,-0.922852,0.362305
1519425099963,-0.118652,-0.916992,0.325928
1519425099996,-0.115479,-0.936035,0.340820
1519425100029,-0.111328,-0.924072,0.333496
1519425100060,-0.135254,-0.908936,0.333252
1519425100099,-0.157959,-0.897461,0.323975
1519425100131,-0.163574,-0.898682,0.333740
1519425100162,-0.145996,-0.924316,0.342529
1519425100195,-0.144531,-0.935547,0.339600
1519425100201,-0.157471,-0.940918,0.342529
1519425100258,-0.174072,-0.958740,0.353027
1519425100272,-0.177734,-0.929443,0.332520
1519425100304,-0.161133,-0.912109,0.315186
1519425100363,-0.168213,-0.918945,0.311035
1519425100396,-0.165771,-0.907959,0.306396
1519425100405,-0.163330,-0.909912,0.307373
1519425100459,-0.149414,-0.912842,0.327637
1519425100492,-0.144043,-0.915527,0.340332
1519425100525,-0.151855,-0.922852,0.350342
1519425100556,-0.150879,-0.917725,0.352295
1519425100590,-0.149170,-0.924316,0.354492
1519425100597,-0.141357,-0.926514,0.355957
1519425100644,-0.145508,-0.919678,0.346436
1519425100690,-0.147461,-0.929443,0.340332
1519425100698,-0.146729,-0.927246,0.338867
1519425100792,-0.147461,-0.923096,0.333252
1519425100801,-0.151367,-0.915771,0.339600
1519425100861,-0.149902,-0.909424,0.345459
1519425100868,-0.150635,-0.907715,0.351807
1519425100925,-0.155029,-0.919434,0.349121
1519425100929,-0.151123,-0.925537,0.347168
1519425100995,-0.147217,-0.924805,0.336914
1519425101003,-0.150879,-0.933838,0.334229
1519425101061,-0.149902,-0.933105,0.337646
1519425101066,-0.146729,-0.910889,0.345459
1519425101129,-0.148926,-0.924561,0.342773
1519425101138,-0.150391,-0.920410,0.340576
1519425101196,-0.145508,-0.907227,0.344482
1519425101203,-0.147949,-0.915771,0.343506
1519425101264,-0.148926,-0.923096,0.350342
1519425101267,-0.149902,-0.924561,0.342285
1519425101285,-0.164063,-0.902344,0.353271
1519425101289,-0.170654,-0.922363,0.341797
1519425101320,-0.166992,-0.928955,0.340088
1519425101353,-0.148926,-0.923584,0.344482
1519425101386,-0.169678,-0.922363,0.330566
1519425101418,-0.167725,-0.935303,0.325684
1519425101450,-0.145264,-0.926758,0.339355
1519425101483,-0.141846,-0.921143,0.329834
1519425101500,-0.156006,-0.915527,0.320801
1519425101557,-0.162354,-0.917969,0.326904
1519425101590,-0.154297,-0.920898,0.340332
1519425101598,-0.155029,-0.915527,0.344971
1519425101635,-0.165039,-0.919678,0.347168
1519425101667,-0.163574,-0.912842,0.354736
1519425101699,-0.165039,-0.923096,0.349609
1519425101734,-0.166504,-0.923340,0.341797
1519425101766,-0.167480,-0.916260,0.342529
1519425101799,-0.164307,-0.916992,0.340820
1519425101839,-0.166504,-0.915283,0.339355
1519425101865,-0.166748,-0.918457,0.338379
1519425101902,-0.168701,-0.914307,0.341309
1519425101934,-0.173340,-0.914307,0.339600
1519425101967,-0.174316,-0.917969,0.341553
1519425102000,-0.169678,-0.922852,0.340088
1519425102032,-0.170410,-0.910889,0.347900
1519425102064,-0.178223,-0.915283,0.341797
1519425102097,-0.179688,-0.922363,0.344482
1519425102130,-0.175537,-0.920654,0.352051
1519425102161,-0.181641,-0.911377,0.343262
1519425102194,-0.195313,-0.908203,0.334961
1519425102227,-0.195557,-0.913574,0.324463
1519425102258,-0.186035,-0.920410,0.321289
1519425102291,-0.178467,-0.930908,0.300781
1519425102333,-0.181152,-0.949219,0.255859
1519425102338,-0.192627,-0.948486,0.254883
