1519424786793,-0.059570,-0.569824,0.815674
1519424786797,-0.063232,-0.572998,0.817383
1519424786827,-0.067871,-0.566406,0.817871
1519424786884,-0.069580,-0.565430,0.817383
1519424786886,-0.072754,-0.570801,0.813965
1519424786918,-0.065674,-0.573486,0.814697
1519424786959,-0.069336,-0.574707,0.814697
1519424787020,-0.066895,-0.569580,0.815186
1519424787023,-0.065918,-0.577148,0.812744
1519424787060,-0.065186,-0.570313,0.816162
1519424787093,-0.067383,-0.566162,0.817871
1519424787125,-0.068115,-0.563232,0.818359
1519424787158,-0.072266,-0.575684,0.814697
1519424787193,-0.072754,-0.573486,0.814697
1519424787225,-0.071289,-0.576660,0.809814
1519424787258,-0.072510,-0.578857,0.809814
1519424787290,-0.071289,-0.579346,0.808838
1519424787304,-0.067383,-0.572510,0.813721
1519424787362,-0.066895,-0.564697,0.815186
1519424787367,-0.067627,-0.571533,0.817383
1519424787425,-0.062012,-0.570557,0.816162
1519424787458,-0.070557,-0.565674,0.814697
1519424787463,-0.068115,-0.566406,0.817139
1519424787521,-0.067871,-0.571289,0.810547
1519424787553,-0.072510,-0.580322,0.810303
1519424787586,-0.067627,-0.580078,0.809082
1519424787618,-0.064209,-0.573975,0.813477
1519424787653,-0.064941,-0.572266,0.814453
1519424787685,-0.063232,-0.569092,0.815918
1519424787718,-0.064697,-0.574219,0.817383
1519424787731,-0.066406,-0.569336,0.816406
1519424787788,-0.068604,-0.569336,0.816895
1519424787798,-0.067871,-0.564453,0.816406
1519424787847,-0.067871,-0.571045,0.814697
1519424787881,-0.064941,-0.580078,0.816162
1519424787890,-0.052979,-0.575684,0.811523
1519424787937,-0.074219,-0.581543,0.805176
1519424787970,-0.089600,-0.573486,0.812500
1519424788004,-0.066406,-0.565918,0.816162
1519424788037,-0.062988,-0.567139,0.820313
1519424788070,-0.079590,-0.561768,0.820068
1519424788100,-0.073975,-0.566650,0.818359
1519424788133,-0.073242,-0.575439,0.812256
1519424788148,-0.072754,-0.574707,0.816650
1519424788203,-0.066895,-0.569092,0.813477
1519424788238,-0.076172,-0.581299,0.808105
1519424788248,-0.066895,-0.584229,0.808350
1519424788303,-0.063965,-0.577881,0.813721
1519424788335,-0.068604,-0.561035,0.822998
1519424788367,-0.065430,-0.560059,0.820801
1519424788373,-0.065674,-0.567383,0.815918
1519424788428,-0.064453,-0.573242,0.815186
1519424788463,-0.062744,-0.567383,0.816406
1519424788467,-0.063232,-0.573242,0.816406
1519424788528,-0.066406,-0.571533,0.815674
1519424788536,-0.066162,-0.566162,0.815918
1519424788576,-0.071533,-0.570557,0.816895
1519424788618,-0.068359,-0.575684,0.812744
1519424788651,-0.071045,-0.578857,0.811523
1519424788683,-0.077148,-0.575684,0.815918
1519424788716,-0.070801,-0.569824,0.819824
1519424788746,-0.067383,-0.567627,0.811523
1519424788779,-0.069092,-0.570557,0.817627
1519424788812,-0.060791,-0.567627,0.815918
1519424788846,-0.067139,-0.571533,0.812256
1519424788879,-0.066162,-0.571777,0.814941
1519424788911,-0.064453,-0.569824,0.817383
1519424788944,-0.069824,-0.565674,0.818115
1519424788958,-0.069336,-0.564209,0.816650
1519424789014,-0.070801,-0.577148,0.813477
1519424789019,-0.072021,-0.572510,0.815430
1519424789049,-0.066162,-0.573486,0.813477
1519424789081,-0.067383,-0.570801,0.814697
1519424789119,-0.070801,-0.569092,0.817871
1519424789152,-0.063721,-0.566650,0.818359
1519424789183,-0.067139,-0.564697,0.814697
1519424789215,-0.071289,-0.566162,0.820557
1519424789249,-0.055176,-0.543701,0.838379
1519424789281,-0.061035,-0.557129,0.835938
1519424789312,-0.085693,-0.575195,0.817627
1519424789352,-0.092529,-0.613281,0.767822
1519424789384,-0.091797,-0.619385,0.777100
1519424789417,-0.093506,-0.586670,0.811035
1519424789448,-0.082031,-0.561279,0.814941
1519424789481,-0.072021,-0.589111,0.807617
1519424789514,-0.064453,-0.589111,0.805908
1519424789547,-0.060547,-0.574951,0.817627
1519424789567,-0.055420,-0.560791,0.822021
1519424789600,-0.059082,-0.562744,0.815674
1519424789632,-0.062500,-0.565674,0.816406
1519424789663,-0.060791,-0.576904,0.810547
1519424789696,-0.061523,-0.583252,0.810791
1519424789730,-0.061279,-0.578125,0.811279
1519424789761,-0.070068,-0.576904,0.810791
1519424789794,-0.066895,-0.576416,0.812500
1519424789826,-0.062988,-0.576172,0.811035
1519424789860,-0.066162,-0.580078,0.810303
1519424789891,-0.063477,-0.573242,0.812012
1519424789924,-0.060303,-0.574463,0.813477
1519424789980,-0.063721,-0.579834,0.810547
1519424789985,-0.063477,-0.575928,0.813477
1519424790013,-0.051514,-0.573730,0.815674
1519424790071,-0.054688,-0.565918,0.820801
1519424790075,-0.066895,-0.562256,0.818604
1519424790106,-0.071045,-0.575684,0.810547
1519424790139,-0.071777,-0.574219,0.811279
1519424790196,-0.091064,-0.589111,0.795166
1519424790229,-0.106445,-0.604004,0.785156
1519424790237,-0.104492,-0.625000,0.776855
1519424790295,-0.088623,-0.620850,0.792480
1519424790325,-0.076660,-0.581299,0.797852
1519424790358,-0.068115,-0.585693,0.808350
1519424790391,-0.057617,-0.575439,0.818604
1519424790407,-0.046875,-0.557129,0.812988
1519424790449,-0.060303,-0.583252,0.802979
1519424790481,-0.060547,-0.585205,0.803711
1519424790487,-0.040527,-0.581787,0.807129
1519424790545,-0.034912,-0.580322,0.811768
1519424790581,-0.048584,-0.578857,0.812744
1519424790590,-0.060547,-0.577148,0.813721
1519424790648,-0.068359,-0.579346,0.805176
1519424790658,-0.077637,-0.583984,0.805908
1519424790708,-0.078857,-0.584961,0.801758
1519424790787,-0.073486,-0.586670,0.802490
1519424790796,-0.071045,-0.583252,0.806885
1519424790849,-0.066650,-0.583008,0.808838
1519424790852,-0.062012,-0.585449,0.807861
1519424790917,-0.062256,-0.580566,0.806641
1519424790926,-0.061279,-0.574707,0.810791
1519424790983,-0.065674,-0.576660,0.809326
1519424791054,-0.066895,-0.582031,0.806885
1519424791121,-0.065674,-0.586182,0.804199
1519424791127,-0.066895,-0.582031,0.806885
1519424791188,-0.069824,-0.579590,0.809082
1519424791194,-0.068359,-0.582275,0.807373
1519424791256,-0.067627,-0.583008,0.805420
1519424791265,-0.069092,-0.580566,0.806885
1519424791305,-0.073975,-0.580811,0.805908
1519424791309,-0.071045,-0.581055,0.811768
1519424791322,-0.068848,-0.577881,0.809570
1519424791327,-0.070313,-0.574951,0.811279
1519424791333,-0.076172,-0.577881,0.807617
1519424791356,-0.073730,-0.582031,0.807861
1519424791389,-0.068115,-0.577148,0.805664
1519424791402,-0.068359,-0.581787,0.803955
1519424791438,-0.065918,-0.583496,0.816162
1519424791467,-0.064209,-0.568604,0.812988
1519424791500,-0.085205,-0.590088,0.811279
1519424791559,-0.071289,-0.566650,0.812744
1519424791568,-0.058594,-0.561035,0.813965
1519424791616,-0.051270,-0.595947,0.803955
1519424791649,-0.046143,-0.615234,0.798584
1519424791657,-0.075439,-0.601074,0.799805
1519424791682,-0.086182,-0.528320,0.841553
1519424791741,-0.083252,-0.507568,0.838379
1519424791774,-0.086182,-0.539307,0.824951
1519424791785,-0.073975,-0.606934,0.811035
1519424791826,-0.066895,-0.598877,0.802979
1519424791858,0.007813,-0.607910,0.833008
1519424791889,-0.063232,-0.552979,0.851807
1519424791923,-0.034668,-0.535889,0.853760
1519424791955,-0.046875,-0.541260,0.816895
1519424791991,-0.079346,-0.547607,0.827393
1519424792041,-0.096680,-0.541992,0.819336
1519424792083,-0.112061,-0.556396,0.819092
1519424792091,-0.118896,-0.562012,0.810303
1519424792116,-0.111572,-0.561279,0.810547
1519424792141,-0.115967,-0.560547,0.816895
1519424792175,-0.112061,-0.559814,0.829102
1519424792208,-0.094482,-0.566406,0.816895
1519424792248,-0.074219,-0.573730,0.819580
1519424792309,-0.063232,-0.585693,0.807129
1519424792325,-0.061768,-0.580322,0.805908
1519424792335,-0.066406,-0.586182,0.811768
1519424792388,-0.065430,-0.575928,0.812744
1519424792444,-0.062744,-0.571289,0.814209
1519424792448,-0.069092,-0.560791,0.821045
1519424792483,-0.069092,-0.549072,0.819824
1519424792516,-0.071045,-0.547607,0.818848
1519424792519,-0.071777,-0.581055,0.815186
1519424792576,-0.065186,-0.588867,0.805420
1519424792620,-0.062988,-0.609863,0.799805
1519424792628,-0.063965,-0.605957,0.798584
1519424792666,-0.068115,-0.580566,0.806152
1519424792713,-0.068359,-0.573730,0.808105
1519424792725,-0.070068,-0.584473,0.804199
1519424792768,-0.066162,-0.592773,0.802979
1519424792800,-0.060303,-0.581299,0.807129
1519424792808,-0.068115,-0.579590,0.807617
1519424792864,-0.072266,-0.581543,0.806885
1519424792897,-0.066895,-0.580566,0.807861
1519424792930,-0.063477,-0.580322,0.807129
1519424792963,-0.064941,-0.587891,0.805176
1519424792999,-0.067383,-0.589111,0.804443
1519424793004,-0.065430,-0.588379,0.800293
1519424793064,-0.068115,-0.595703,0.801025
1519424793097,-0.062744,-0.592041,0.797607
1519424793102,-0.066406,-0.592529,0.802734
1519424793156,-0.066895,-0.585938,0.799072
1519424793165,-0.067139,-0.584473,0.806885
1519424793219,-0.068115,-0.584229,0.803955
1519424793251,-0.066162,-0.593262,0.799316
1519424793260,-0.062500,-0.595215,0.797852
1519424793314,-0.061768,-0.591797,0.801270
1519424793348,-0.073242,-0.590088,0.801758
1519424793380,-0.066406,-0.586670,0.804688
1519424793421,-0.060547,-0.583252,0.802490
1519424793427,-0.065918,-0.587646,0.802734
1519424793468,-0.062988,-0.584961,0.805420
1519424793500,-0.066162,-0.589111,0.800537
1519424793533,-0.069580,-0.588623,0.796631
1519424793566,-0.073242,-0.593506,0.799805
1519424793597,-0.068604,-0.589111,0.799561
1519424793630,-0.067383,-0.589600,0.803711
1519424793664,-0.067871,-0.588623,0.799316
1519424793695,-0.061768,-0.587891,0.804688
1519424793728,-0.064697,-0.591553,0.800537
1519424793761,-0.068848,-0.587646,0.802734
1519424793794,-0.066162,-0.584473,0.803711
1519424793825,-0.068359,-0.590332,0.802002
1519424793859,-0.064453,-0.592529,0.799072
1519424793892,-0.060547,-0.590820,0.801514
1519424793924,-0.060791,-0.591797,0.802734
1519424793961,-0.065186,-0.589355,0.802490
1519424793993,-0.066650,-0.582275,0.806885
1519424794025,-0.064453,-0.586426,0.803711
1519424794058,-0.065430,-0.595215,0.798096
1519424794093,-0.067627,-0.588867,0.800293
1519424794122,-0.073242,-0.584717,0.803711
1519424794157,-0.071289,-0.589111,0.802002
1519424794165,-0.069336,-0.589844,0.801514
1519424794214,-0.068359,-0.586182,0.802002
1519424794248,-0.064941,-0.586426,0.802490
1519424794261,-0.063477,-0.586914,0.802246
1519424794318,-0.065674,-0.586914,0.804443
1519424794328,-0.070313,-0.588135,0.803467
1519424794379,-0.070313,-0.586914,0.802979
1519424794413,-0.071777,-0.585205,0.802002
1519424794421,-0.072021,-0.588623,0.802979
1519424794477,-0.069580,-0.590332,0.800781
1519424794509,-0.065430,-0.585938,0.800781
1519424794542,-0.064941,-0.588135,0.804688
1519424794575,-0.067383,-0.587402,0.803467
1519424794608,-0.064941,-0.583008,0.805908
1519424794639,-0.063965,-0.580566,0.805420
1519424794653,-0.069824,-0.586182,0.803467
1519424794704,-0.072021,-0.585449,0.802979
1519424794712,-0.062256,-0.591309,0.799316
1519424794762,-0.070313,-0.592285,0.804199
1519424794794,-0.073242,-0.580078,0.805176
1519424794827,-0.068115,-0.585449,0.804443
1519424794858,-0.067627,-0.588623,0.800049
1519424794892,-0.067139,-0.582275,0.805420
1519424794928,-0.065430,-0.584717,0.804688
1519424794961,-0.066162,-0.587158,0.805176
1519424794994,-0.065430,-0.583252,0.805176
1519424795000,-0.061768,-0.583740,0.805664
1519424795058,-0.065430,-0.585449,0.801514
1519424795072,-0.070801,-0.587158,0.803467
1519424795105,-0.069092,-0.588867,0.799072
1519424795137,-0.069092,-0.590088,0.802734
1519424795194,-0.074951,-0.588379,0.802734
1519424795201,-0.071289,-0.581299,0.806152
1519424795229,-0.067383,-0.583008,0.807861
1519424795287,-0.062744,-0.585938,0.803955
1519424795303,-0.062988,-0.583740,0.808350
1519424795320,-0.064209,-0.578125,0.807129
1519424795377,-0.064453,-0.583252,0.807617
1519424795409,-0.063477,-0.582764,0.804932
1519424795416,-0.063721,-0.592529,0.799561
1519424795474,-0.069580,-0.588135,0.803711
1519424795487,-0.072998,-0.583252,0.804199
1519424795519,-0.071777,-0.584961,0.805176
1519424795552,-0.072021,-0.585938,0.806641
1519424795609,-0.074951,-0.582520,0.804688
1519424795616,-0.070557,-0.583496,0.805176
1519424795674,-0.069336,-0.580078,0.806152
1519424795706,-0.068848,-0.581299,0.803955
1519424795712,-0.063965,-0.585205,0.805176
1519424795780,-0.059082,-0.588623,0.802002
1519424795793,-0.067139,-0.588135,0.804443
1519424795846,-0.070068,-0.580811,0.804199
1519424795849,-0.071045,-0.583496,0.805664
1519424795914,-0.072998,-0.586670,0.803955
1519424795982,-0.072266,-0.585938,0.803955
1519424796048,-0.067139,-0.584229,0.807373
1519424796053,-0.067871,-0.582764,0.805664
1519424796117,-0.068848,-0.581055,0.805420
1519424796126,-0.059326,-0.583740,0.807861
1519424796184,-0.059326,-0.585449,0.804443
1519424796192,-0.068848,-0.579834,0.806152
1519424796251,-0.071777,-0.581299,0.802490
1519424796260,-0.071289,-0.590332,0.802734
1519424796313,-0.070557,-0.586670,0.804199
1519424796322,-0.077393,-0.582764,0.803955
1519424796335,-0.071045,-0.586426,0.805176
1519424796338,-0.069824,-0.580078,0.804688
1519424796342,-0.069336,-0.580566,0.805176
1519424796363,-0.061035,-0.584229,0.807129
1519424796397,-0.058594,-0.586670,0.805420
1519424796436,-0.063232,-0.581055,0.807617
1519424796462,-0.067139,-0.578857,0.807373
1519424796495,-0.062012,-0.581299,0.805908
1519424796527,-0.069824,-0.585693,0.805176
1519424796561,-0.072754,-0.586426,0.802246
1519424796594,-0.073975,-0.588135,0.802979
1519424796625,-0.070068,-0.584473,0.805176
1519424796658,-0.070068,-0.581299,0.805420
1519424796691,-0.068848,-0.584961,0.806641
1519424796723,-0.063477,-0.579834,0.805420
1519424796757,-0.063232,-0.581787,0.804443
1519424796788,-0.065430,-0.583740,0.807129
1519424796820,-0.062256,-0.580566,0.806396
1519424796862,-0.065918,-0.587402,0.803223
1519424796865,-0.070557,-0.587158,0.806152
1519424796921,-0.074463,-0.579590,0.804688
1519424796954,-0.070801,-0.584473,0.804932
1519424796987,-0.068848,-0.586182,0.802246
1519424797017,-0.071045,-0.593018,0.801514
1519424797050,-0.066895,-0.590820,0.803223
1519424797084,-0.063965,-0.584717,0.802734
1519424797117,-0.065430,-0.584717,0.804932
1519424797129,-0.066406,-0.582031,0.807617
1519424797187,-0.061035,-0.578369,0.806396
1519424797196,-0.068359,-0.588379,0.801025
1519424797263,-0.070801,-0.588623,0.801514
1519424797272,-0.072998,-0.586914,0.802002
1519424797297,-0.069824,-0.588379,0.802002
1519424797330,-0.069336,-0.590332,0.802734
1519424797361,-0.068115,-0.587158,0.801514
1519424797394,-0.072998,-0.583496,0.803711
1519424797425,-0.069580,-0.585205,0.802002
1519424797458,-0.063721,-0.591553,0.800781
1519424797491,-0.066162,-0.588379,0.804443
1519424797524,-0.069336,-0.580566,0.805664
1519424797564,-0.072510,-0.583496,0.804688
1519424797600,-0.074707,-0.588135,0.801514
1519424797608,-0.073486,-0.590820,0.800781
1519424797663,-0.067627,-0.589111,0.802734
1519424797696,-0.065674,-0.588135,0.802002
1519424797730,-0.066895,-0.582275,0.804443
1519424797738,-0.065430,-0.583740,0.804199
1519424797788,-0.068115,-0.585693,0.807373
1519424797825,-0.066650,-0.582764,0.804932
1519424797834,-0.068848,-0.588379,0.801025
1519424797883,-0.072266,-0.586182,0.803467
1519424797915,-0.070557,-0.585693,0.803467
1519424797948,-0.071533,-0.589111,0.802002
1519424797961,-0.069580,-0.587402,0.800781
1519424797992,-0.070068,-0.588135,0.803223
1519424798025,-0.070068,-0.584961,0.805664
1519424798059,-0.065918,-0.585205,0.801025
1519424798117,-0.060303,-0.588623,0.807129
1519424798148,-0.069580,-0.586670,0.804199
1519424798182,-0.072754,-0.581787,0.804199
1519424798192,-0.068115,-0.582520,0.804688
1519424798222,-0.071533,-0.591064,0.804688
1519424798255,-0.072021,-0.586914,0.801758
1519424798316,-0.070801,-0.589111,0.802002
1519424798325,-0.067383,-0.588867,0.803223
1519424798381,-0.070068,-0.585205,0.804688
1519424798389,-0.072021,-0.581055,0.808105
1519424798413,-0.068115,-0.576660,0.808350
1519424798471,-0.064941,-0.587402,0.805908
1519424798480,-0.059814,-0.583740,0.806641
1519424798542,-0.064941,-0.586182,0.805664
1519424798548,-0.068359,-0.587402,0.802002
1519424798576,-0.069336,-0.589355,0.801025
1519424798609,-0.070068,-0.587158,0.801025
1519424798641,-0.069580,-0.585205,0.805664
1519424798674,-0.070313,-0.582275,0.803711
1519424798706,-0.066895,-0.582764,0.806641
1519424798750,-0.072021,-0.588623,0.804443
1519424798786,-0.069824,-0.578613,0.806396
1519424798819,-0.070801,-0.582031,0.803467
1519424798852,-0.074219,-0.589355,0.804688
1519424798885,-0.072266,-0.584717,0.803223
1519424798893,-0.072510,-0.585205,0.803223
1519424798946,-0.068604,-0.587891,0.802734
1519424798979,-0.067627,-0.583740,0.806641
1519424798988,-0.068848,-0.576660,0.808594
1519424799041,-0.068359,-0.574951,0.809326
1519424799075,-0.066650,-0.579102,0.808105
1519424799108,-0.065186,-0.588379,0.800537
1519424799140,-0.071533,-0.590820,0.804199
1519424799156,-0.073730,-0.581787,0.805664
1519424799186,-0.073486,-0.579590,0.807861
1519424799242,-0.071777,-0.583740,0.804932
1519424799274,-0.068848,-0.584961,0.805664
1519424799306,-0.068848,-0.581055,0.803955
1519424799340,-0.070068,-0.578613,0.808105
1519424799373,-0.067627,-0.580566,0.807861
1519424799382,-0.072754,-0.577881,0.809326
1519424799437,-0.070313,-0.578125,0.808105
1519424799466,-0.068115,-0.580811,0.807617
1519424799470,-0.070313,-0.581787,0.804688
1519424799527,-0.075439,-0.581543,0.809326
1519424799560,-0.066895,-0.577637,0.808105
1519424799574,-0.068604,-0.583496,0.806152
1519424799632,-0.068848,-0.579346,0.806152
1519424799642,-0.070313,-0.577393,0.811035
1519424799690,-0.066650,-0.580811,0.804932
1519424799723,-0.072021,-0.585938,0.808105
1519424799761,-0.071533,-0.579346,0.805908
1519424799792,-0.070557,-0.580322,0.807617
1519424799833,-0.070557,-0.581299,0.807617
1519424799855,-0.070801,-0.579590,0.806885
1519424799887,-0.066406,-0.581543,0.807129
1519424799920,-0.069824,-0.578857,0.810303
1519424799953,-0.067383,-0.577881,0.809814
1519424799962,-0.063477,-0.578857,0.806396
1519424799997,-0.075195,-0.580078,0.808105
1519424800029,-0.071533,-0.576904,0.809814
1519424800062,-0.069092,-0.579346,0.807861
1519424800095,-0.072998,-0.583252,0.807373
1519424800127,-0.072510,-0.580811,0.808105
1519424800159,-0.068359,-0.580078,0.806396
1519424800192,-0.069336,-0.578857,0.806152
1519424800224,-0.072754,-0.579590,0.810547
1519424800257,-0.071289,-0.573486,0.810791
1519424800289,-0.072998,-0.578857,0.810791
1519424800322,-0.071045,-0.580811,0.808350
1519424800356,-0.072754,-0.575928,0.809326
1519424800398,-0.072998,-0.581055,0.808594
1519424800429,-0.067627,-0.580078,0.806641
1519424800445,-0.067871,-0.580078,0.806396
1519424800488,-0.070801,-0.577881,0.809326
1519424800520,-0.069824,-0.579102,0.808594
1519424800552,-0.071289,-0.578857,0.810303
1519424800585,-0.071533,-0.578369,0.809814
1519424800618,-0.072510,-0.580811,0.808838
1519424800652,-0.074463,-0.573486,0.810303
1519424800684,-0.074951,-0.578613,0.806885
1519424800720,-0.073730,-0.580322,0.808350
1519424800795,-0.063965,-0.581787,0.805908
1519424800803,-0.068848,-0.580811,0.808350
1519424800815,-0.067139,-0.578125,0.810547
1519424800849,-0.066406,-0.575439,0.810059
1519424800880,-0.070313,-0.571289,0.814209
1519424800915,-0.072510,-0.571533,0.811768
1519424800924,-0.074707,-0.575684,0.812012
1519424801013,-0.073486,-0.583252,0.806885
1519424801017,-0.071289,-0.582275,0.807617
1519424801081,-0.067627,-0.579590,0.806396
1519424801085,-0.072266,-0.578613,0.810791
1519424801149,-0.072021,-0.578369,0.808105
1519424801154,-0.070557,-0.580566,0.808105
1519424801217,-0.068848,-0.580078,0.807617
1519424801285,-0.071289,-0.578369,0.807861
1519424801339,-0.072754,-0.581543,0.808350
1519424801349,-0.067383,-0.582520,0.808350
1519424801358,-0.068604,-0.580078,0.808838
1519424801367,-0.074463,-0.576660,0.811035
1519424801375,-0.074219,-0.574951,0.811035
1519424801378,-0.071289,-0.580322,0.807129
1519424801411,-0.071533,-0.578857,0.810303
1519424801444,-0.069092,-0.571533,0.811279
1519424801502,-0.071533,-0.577148,0.808350
1519424801511,-0.074951,-0.578857,0.810303
1519424801561,-0.069824,-0.575195,0.813477
1519424801571,-0.073242,-0.575195,0.810059
1519424801596,-0.075439,-0.578369,0.808350
1519424801664,-0.073486,-0.578369,0.809570
1519424801673,-0.074219,-0.575195,0.810303
1519424801702,-0.074463,-0.579346,0.809814
1519424801734,-0.073486,-0.579346,0.806885
1519424801767,-0.076172,-0.575928,0.809814
1519424801798,-0.079102,-0.576660,0.809326
1519424801832,-0.064453,-0.580566,0.808838
1519424801864,-0.070557,-0.583008,0.809082
1519424801897,-0.078369,-0.570313,0.815918
1519424801929,-0.073975,-0.567627,0.813477
1519424801986,-0.073975,-0.577637,0.810791
1519424801999,-0.074463,-0.579590,0.805908
1519424802048,-0.075439,-0.578125,0.809814
1519424802061,-0.073242,-0.577637,0.811768
1519424802094,-0.075928,-0.574463,0.810303
1519424802128,-0.071045,-0.570801,0.813232
1519424802160,-0.070801,-0.572266,0.813965
1519424802193,-0.071045,-0.573975,0.811035
1519424802224,-0.071533,-0.574463,0.810791
1519424802257,-0.071289,-0.577393,0.811279
1519424802288,-0.070557,-0.574463,0.811035
1519424802321,-0.074219,-0.577148,0.812256
1519424802355,-0.074463,-0.575439,0.811768
1519424802382,-0.073975,-0.580811,0.809570
1519424802414,-0.076416,-0.577148,0.810547
1519424802447,-0.073730,-0.575928,0.810303
1519424802483,-0.071533,-0.575928,0.811523
1519424802511,-0.074463,-0.572510,0.813232
1519424802544,-0.076904,-0.569580,0.814697
1519424802578,-0.073975,-0.573242,0.812012
1519424802609,-0.072266,-0.579102,0.808838
1519424802622,-0.073975,-0.578369,0.812012
1519424802679,-0.075684,-0.572754,0.811035
1519424802711,-0.071777,-0.574951,0.810059
1519424802743,-0.072510,-0.575439,0.813477
1519424802776,-0.074951,-0.568604,0.817139
1519424802810,-0.070801,-0.570557,0.812500
1519424802841,-0.070313,-0.578613,0.812744
1519424802874,-0.072754,-0.574707,0.810791
1519424802891,-0.073975,-0.574707,0.812256
1519424802946,-0.077148,-0.577881,0.811279
1519424802955,-0.077637,-0.578369,0.809326
1519424803005,-0.072998,-0.579102,0.812500
1519424803036,-0.070801,-0.571045,0.812744
1519424803039,-0.071289,-0.574219,0.812744
1519424803096,-0.075439,-0.572754,0.811523
1519424803129,-0.073975,-0.570801,0.813477
1519424803160,-0.070557,-0.571777,0.812988
1519424803191,-0.070313,-0.571533,0.814941
1519424803224,-0.070801,-0.571045,0.814453
1519424803257,-0.071289,-0.573975,0.810791
1519424803288,-0.072998,-0.577393,0.811523
1519424803330,-0.074951,-0.572754,0.811523
1519424803364,-0.077881,-0.572510,0.812988
1519424803374,-0.078613,-0.571045,0.814453
1519424803426,-0.078369,-0.568115,0.813232
1519424803458,-0.077637,-0.572998,0.812012
1519424803492,-0.078125,-0.572754,0.812744
1519424803523,-0.074219,-0.567871,0.813477
1519424803529,-0.073486,-0.570557,0.816162
1519424803583,-0.073486,-0.570557,0.813721
1519424803619,-0.067383,-0.571777,0.813721
1519424803625,-0.069336,-0.571533,0.814209
1519424803688,-0.076660,-0.571533,0.811768
1519424803693,-0.074463,-0.571289,0.812988
1519424803734,-0.078857,-0.572266,0.815186
1519424803767,-0.077637,-0.570313,0.813965
1519424803798,-0.074219,-0.570068,0.814941
1519424803833,-0.077393,-0.570557,0.815674
1519424803865,-0.073242,-0.572998,0.812256
1519424803897,-0.072266,-0.573975,0.812744
1519424803929,-0.069092,-0.566650,0.813965
1519424803962,-0.072266,-0.566895,0.817627
1519424803994,-0.075195,-0.570801,0.815918
1519424804025,-0.071777,-0.570068,0.814209
1519424804057,-0.076660,-0.569336,0.816895
1519424804092,-0.076416,-0.572754,0.812988
1519424804106,-0.079590,-0.573975,0.810547
1519424804162,-0.076172,-0.572021,0.812744
1519424804195,-0.073486,-0.571289,0.812744
1519424804206,-0.071289,-0.573730,0.814941
1519424804260,-0.069336,-0.570801,0.814209
1519424804266,-0.073730,-0.575684,0.812744
1519424804325,-0.071045,-0.573486,0.814209
1519424804357,-0.074219,-0.570068,0.816162
1519424804363,-0.077637,-0.566895,0.816650
1519424804404,-0.076416,-0.567383,0.813965
1519424804443,-0.075439,-0.577148,0.810303
1519424804468,-0.077637,-0.577637,0.811523
1519424804507,-0.076660,-0.574707,0.809570
1519424804539,-0.074707,-0.576416,0.812500
1519424804576,-0.073486,-0.573242,0.812500
1519424804608,-0.072266,-0.574951,0.812500
1519424804640,-0.071533,-0.574219,0.814697
1519424804674,-0.073975,-0.569092,0.815674
1519424804707,-0.072998,-0.572266,0.812256
1519424804738,-0.071777,-0.573486,0.812012
1519424804771,-0.073975,-0.572021,0.812012
1519424804802,-0.075684,-0.571045,0.812256
1519424804836,-0.081055,-0.580322,0.809814
1519424804869,-0.077881,-0.578613,0.811035
1519424804902,-0.075684,-0.573242,0.810303
1519424804915,-0.077393,-0.574951,0.810791
1519424804970,-0.074707,-0.574707,0.810303
1519424805003,-0.071533,-0.577637,0.812988
1519424805035,-0.069580,-0.571045,0.814697
1519424805067,-0.073975,-0.570313,0.814209
1519424805099,-0.074951,-0.572266,0.811279
1519424805133,-0.072021,-0.578369,0.811768
1519424805165,-0.076416,-0.580322,0.810059
1519424805198,-0.071777,-0.574463,0.812500
1519424805229,-0.074463,-0.575928,0.811523
1519424805262,-0.075928,-0.576904,0.811035
1519424805268,-0.076904,-0.575195,0.810791
1519424805320,-0.062256,-0.575439,0.815430
1519424805334,-0.062256,-0.591064,0.805908
1519424805367,-0.083008,-0.598145,0.798584
1519424805400,-0.052979,-0.566895,0.817871
1519424805432,-0.094971,-0.517090,0.857666
1519424805464,-0.078369,-0.504150,0.825684
1519424805497,-0.089111,-0.550293,0.835205
1519424805533,-0.080078,-0.535400,0.817139
1519424805565,-0.099854,-0.567871,0.816406
1519424805599,-0.090820,-0.587646,0.805420
1519424805632,-0.086914,-0.593750,0.802002
1519424805663,-0.084961,-0.579590,0.810059
1519424805695,-0.077637,-0.577148,0.809326
1519424805729,-0.075684,-0.584229,0.811523
1519424805797,-0.072266,-0.574463,0.812988
1519424805807,-0.075439,-0.576416,0.805664
1519424805862,-0.071777,-0.585205,0.809814
1519424805865,-0.070068,-0.574951,0.811768
1519424805930,-0.072021,-0.576416,0.810059
1519424805933,-0.072266,-0.577881,0.810547
1519424806067,-0.065430,-0.579102,0.811035
1519424806134,-0.064209,-0.573730,0.814941
1519424806143,-0.063232,-0.569092,0.811768
1519424806200,-0.075195,-0.576904,0.810547
1519424806206,-0.081543,-0.570801,0.812988
1519424806270,-0.078857,-0.564697,0.815430
1519424806277,-0.076172,-0.568848,0.816650
1519424806298,-0.079346,-0.578613,0.808350
1519424806304,-0.083008,-0.582031,0.811035
1519424806314,-0.079590,-0.574219,0.809814
1519424806320,-0.078369,-0.581299,0.810059
1519424806324,-0.068115,-0.579102,0.811768
1519424806349,-0.064453,-0.572021,0.810791
1519424806383,-0.070557,-0.579834,0.811523
1519424806416,-0.066406,-0.574219,0.812744
1519424806450,-0.068115,-0.570313,0.812988
1519424806479,-0.072998,-0.574707,0.809570
1519424806515,-0.073730,-0.577637,0.810547
1519424806547,-0.072266,-0.574463,0.810791
1519424806561,-0.077637,-0.570557,0.817383
1519424806594,-0.070068,-0.563965,0.814941
1519424806626,-0.079102,-0.579834,0.810547
1519424806660,-0.079834,-0.579834,0.805908
1519424806693,-0.077637,-0.574707,0.808594
1519424806724,-0.079346,-0.578613,0.813965
1519424806757,-0.077637,-0.568359,0.814941
1519424806791,-0.076416,-0.566650,0.815186
1519424806822,-0.079590,-0.575439,0.811279
1519424806880,-0.072754,-0.573730,0.814453
1519424806885,-0.069580,-0.566650,0.815186
1519424806914,-0.071533,-0.571533,0.815186
1519424806946,-0.073242,-0.571533,0.816406
1519424806988,-0.068604,-0.566895,0.813965
1519424807020,-0.072754,-0.569824,0.813965
1519424807052,-0.078857,-0.573730,0.812500
1519424807084,-0.075684,-0.570313,0.815918
1519424807118,-0.076660,-0.568359,0.815430
1519424807152,-0.080566,-0.577881,0.810547
1519424807185,-0.078613,-0.579102,0.809814
1519424807216,-0.079590,-0.568115,0.813477
1519424807248,-0.082031,-0.565186,0.819824
1519424807281,-0.070313,-0.564209,0.816406
1519424807315,-0.072998,-0.575928,0.815186
1519424807347,-0.077148,-0.565674,0.814697
1519424807380,-0.076904,-0.561279,0.816650
1519424807390,-0.081299,-0.569336,0.818359
1519424807450,-0.078613,-0.569824,0.814941
1519424807458,-0.076660,-0.569092,0.817871
1519424807501,-0.074951,-0.570801,0.813965
1519424807536,-0.076660,-0.574707,0.811768
1519424807567,-0.072510,-0.570068,0.815918
1519424807599,-0.076416,-0.567383,0.817383
1519424807632,-0.079346,-0.567139,0.815674
1519424807664,-0.072998,-0.571289,0.814453
1519424807697,-0.073486,-0.576172,0.815430
1519424807730,-0.076904,-0.570068,0.813721
1519424807762,-0.075684,-0.566162,0.813965
1519424807804,-0.076904,-0.572266,0.811279
1519424807836,-0.073730,-0.578613,0.815430
1519424807868,-0.070068,-0.559814,0.819092
1519424807877,-0.067871,-0.558350,0.822754
1519424807927,-0.071533,-0.572754,0.814453
1519424807960,-0.073730,-0.574219,0.819336
1519424807967,-0.079590,-0.568115,0.808594
1519424808024,-0.098389,-0.573730,0.808350
1519424808056,-0.086914,-0.578613,0.811035
1519424808088,-0.066162,-0.583984,0.812500
1519424808121,-0.062988,-0.567871,0.813965
1519424808154,-0.075684,-0.563721,0.815674
1519424808186,-0.074707,-0.565674,0.817871
1519424808199,-0.064697,-0.563721,0.818115
1519424808257,-0.072021,-0.572510,0.817871
1519424808262,-0.082764,-0.572510,0.814209
1519424808316,-0.071045,-0.557617,0.817627
1519424808324,-0.063721,-0.568604,0.835205
1519424808351,-0.057861,-0.571777,0.818115
1519424808414,-0.084473,-0.586182,0.786133
1519424808441,-0.089600,-0.552490,0.829346
1519424808452,-0.074463,-0.534912,0.839111
1519424808485,-0.053955,-0.554932,0.828125
1519424808517,-0.069824,-0.581787,0.817871
1519424808550,-0.088867,-0.587646,0.803467
1519424808582,-0.094727,-0.589355,0.805176
1519424808617,-0.094727,-0.578369,0.806152
1519424808673,-0.093506,-0.561768,0.818115
1519424808706,-0.084717,-0.566895,0.814941
1519424808739,-0.073730,-0.579590,0.808350
1519424808747,-0.064941,-0.580811,0.811035
1519424808782,-0.064453,-0.565186,0.818604
1519424808815,-0.061279,-0.558105,0.824463
1519424808848,-0.052490,-0.562012,0.822754
1519424808906,-0.063721,-0.561768,0.820557
1519424808915,-0.072998,-0.558594,0.823486
1519424808938,-0.073486,-0.554199,0.820557
1519424808996,-0.073975,-0.564697,0.822754
1519424809005,-0.076172,-0.568359,0.819824
1519424809042,-0.072266,-0.574707,0.815918
1519424809074,-0.072998,-0.576416,0.815674
1519424809106,-0.077637,-0.570068,0.817383
1519424809140,-0.070068,-0.559326,0.822266
1519424809172,-0.062744,-0.555420,0.828369
1519424809207,-0.063232,-0.551758,0.829346
1519424809239,-0.063965,-0.550537,0.826416
1519424809272,-0.061035,-0.550537,0.824707
1519424809304,-0.056396,-0.562256,0.824707
1519424809336,-0.059570,-0.556641,0.824463
1519424809368,-0.071289,-0.546143,0.827393
1519424809406,-0.069580,-0.544678,0.828125
1519424809416,-0.068848,-0.560303,0.824707
1519424809468,-0.078857,-0.575195,0.819580
1519424809501,-0.082275,-0.562012,0.822754
1519424809534,-0.090576,-0.549316,0.818604
1519424809566,-0.092773,-0.563721,0.821289
1519424809598,-0.086670,-0.567139,0.819092
1519424809632,-0.082764,-0.565674,0.819824
1519424809664,-0.079834,-0.559326,0.822266
1519424809697,-0.080811,-0.556641,0.822998
1519424809730,-0.081299,-0.557129,0.824951
1519424809763,-0.071777,-0.557373,0.824463
1519424809794,-0.071777,-0.555176,0.826416
1519424809834,-0.072266,-0.550781,0.827637
1519424809868,-0.076172,-0.551270,0.827881
1519424809900,-0.072998,-0.554199,0.827881
1519424809908,-0.074951,-0.552490,0.826904
1519424809958,-0.075195,-0.556152,0.823242
1519424809991,-0.072021,-0.559326,0.823975
1519424810002,-0.071533,-0.559570,0.822998
1519424810061,-0.069824,-0.553467,0.825684
1519424810064,-0.066162,-0.556152,0.824951
1519424810096,-0.064941,-0.556885,0.829834
1519424810154,-0.063232,-0.548096,0.828857
1519424810163,-0.065674,-0.552246,0.827637
1519424810216,-0.071777,-0.557861,0.823730
1519424810229,-0.077393,-0.554688,0.823486
1519424810261,-0.082275,-0.554688,0.822998
1519424810294,-0.084717,-0.558838,0.825195
1519424810353,-0.085449,-0.564209,0.818604
1519424810362,-0.086914,-0.565918,0.820801
1519424810414,-0.080811,-0.563477,0.819336
1519424810454,-0.075195,-0.560547,0.820068
1519424810479,-0.074463,-0.566895,0.821533
1519424810485,-0.070557,-0.561768,0.820313
1519424810517,-0.072266,-0.557129,0.824707
1519424810571,-0.068604,-0.559082,0.822754
1519424810576,-0.069336,-0.562012,0.819336
1519424810629,-0.069092,-0.566162,0.821777
1519424810643,-0.063232,-0.559814,0.822266
1519424810676,-0.066406,-0.553711,0.825684
1519424810733,-0.070557,-0.559326,0.823730
1519424810740,-0.074707,-0.565186,0.820313
1519424810807,-0.072266,-0.565186,0.818604
1519424810816,-0.073730,-0.567139,0.818359
1519424810873,-0.078369,-0.563965,0.818359
1519424810876,-0.073242,-0.560059,0.822021
1519424810940,-0.071289,-0.559082,0.822754
1519424810943,-0.074951,-0.566406,0.819580
1519424811009,-0.073730,-0.563232,0.820557
1519424811018,-0.072998,-0.558350,0.825439
1519424811075,-0.072510,-0.560059,0.823486
1519424811145,-0.074951,-0.556885,0.822266
1519424811211,-0.072021,-0.558838,0.821045
1519424811223,-0.075195,-0.564697,0.820313
1519424811272,-0.073242,-0.563965,0.819824
1519424811276,-0.072021,-0.558350,0.820801
1519424811279,-0.074219,-0.560303,0.822266
1519424811283,-0.072754,-0.561279,0.823242
1519424811309,-0.072998,-0.563721,0.820801
1519424811341,-0.074463,-0.560547,0.822998
1519424811375,-0.072266,-0.560059,0.822510
1519424811408,-0.076172,-0.558838,0.823486
1519424811440,-0.075439,-0.560059,0.820801
1519424811448,-0.073242,-0.560791,0.822998
1519424811498,-0.074219,-0.558350,0.821533
1519424811531,-0.073975,-0.557617,0.824219
1519424811543,-0.077881,-0.553711,0.825684
1519424811592,-0.077881,-0.557129,0.823730
1519424811627,-0.074707,-0.562744,0.822021
1519424811658,-0.074951,-0.564697,0.819092
1519424811691,-0.076172,-0.561279,0.823730
1519424811725,-0.076416,-0.554688,0.825439
1519424811756,-0.073242,-0.557373,0.822510
1519424811788,-0.073975,-0.562012,0.822266
1519424811820,-0.070313,-0.559082,0.822266
1519424811860,-0.070313,-0.561279,0.822754
1519424811893,-0.075195,-0.554688,0.825928
1519424811906,-0.075684,-0.550049,0.825928
1519424811938,-0.075195,-0.560303,0.823486
1519424811970,-0.078857,-0.566406,0.819580
1519424812005,-0.078857,-0.561279,0.821289
1519424812062,-0.076416,-0.558105,0.822998
1519424812103,-0.067871,-0.558594,0.822021
1519424812105,-0.071777,-0.560791,0.822021
1519424812137,-0.074951,-0.557373,0.824463
1519424812198,-0.073975,-0.556885,0.823486
1519424812239,-0.076172,-0.557617,0.820557
1519424812248,-0.079346,-0.562012,0.820801
1519424812272,-0.072266,-0.557617,0.823242
1519424812331,-0.073730,-0.561523,0.822266
1519424812375,-0.074707,-0.556885,0.823486
1519424812388,-0.074951,-0.562256,0.821533
1519424812394,-0.074707,-0.563232,0.822021
1519424812422,-0.072266,-0.558594,0.821777
1519424812465,-0.072266,-0.558350,0.824951
1519424812507,-0.075439,-0.560303,0.823975
1519424812513,-0.071777,-0.556885,0.820801
1519424812598,-0.073975,-0.562988,0.820801
1519424812641,-0.078369,-0.561035,0.822510
1519424812650,-0.075684,-0.555420,0.823242
1519424812672,-0.072998,-0.559326,0.820068
1519424812676,-0.071777,-0.562256,0.822266
1519424812734,-0.074707,-0.558838,0.823486
1519424812763,-0.077148,-0.559326,0.824463
1519424812766,-0.077637,-0.558350,0.822021
1519424812811,-0.072021,-0.562256,0.821777
1519424812842,-0.072021,-0.560059,0.823975
1519424812874,-0.069824,-0.555420,0.822754
1519424812907,-0.070313,-0.560303,0.822266
1519424812939,-0.075439,-0.559082,0.823242
1519424812972,-0.076416,-0.557373,0.821045
1519424813004,-0.078857,-0.559570,0.824951
1519424813037,-0.078613,-0.557617,0.822021
1519424813070,-0.073975,-0.558838,0.823242
1519424813102,-0.079102,-0.562500,0.822266
1519424813135,-0.080811,-0.552734,0.826416
1519424813167,-0.079834,-0.552246,0.825928
1519424813181,-0.076172,-0.559326,0.823242
1519424813213,-0.074219,-0.560791,0.822021
1519424813248,-0.073730,-0.559326,0.822266
1519424813306,-0.079834,-0.558838,0.825195
1519424813338,-0.071777,-0.556641,0.822266
1519424813344,-0.074951,-0.560547,0.824951
1519424813402,-0.075928,-0.553955,0.827881
1519424813434,-0.084717,-0.549561,0.823975
1519424813467,-0.083740,-0.555420,0.826172
1519424813500,-0.073730,-0.562988,0.820313
1519424813532,-0.078369,-0.568604,0.822998
1519424813565,-0.079834,-0.550049,0.825684
1519424813567,-0.073730,-0.548828,0.827881
1519424813612,-0.067627,-0.556885,0.826904
1519424813645,-0.067383,-0.553467,0.823730
1519424813677,-0.075439,-0.554443,0.824707
1519424813710,-0.074951,-0.557373,0.821777
1519424813742,-0.074219,-0.554443,0.824707
1519424813780,-0.075195,-0.552002,0.826660
1519424813810,-0.090820,-0.556885,0.826904
1519424813842,-0.095215,-0.564209,0.820557
1519424813874,-0.089844,-0.570068,0.816650
1519424813903,-0.092773,-0.565674,0.819580
1519424813935,-0.086426,-0.559814,0.824707
1519424813967,-0.062744,-0.548584,0.822754
1519424814010,-0.060303,-0.555420,0.833740
1519424814041,-0.051514,-0.539551,0.838135
1519424814052,-0.057373,-0.535400,0.834229
1519424814102,-0.060791,-0.536377,0.832275
1519424814135,-0.067383,-0.548584,0.823242
1519424814142,-0.075439,-0.563721,0.821533
1519424814200,-0.089111,-0.555908,0.824707
1519424814214,-0.092773,-0.548096,0.825195
1519424814268,-0.092285,-0.549316,0.827148
1519424814300,-0.090820,-0.557129,0.822754
1519424814333,-0.090820,-0.561523,0.819824
1519424814367,-0.101074,-0.564453,0.815430
1519424814399,-0.100830,-0.573486,0.817383
1519424814413,-0.102295,-0.555176,0.832764
1519424814445,-0.072021,-0.541992,0.817383
1519424814501,-0.052734,-0.554199,0.833496
1519424814538,-0.054199,-0.557129,0.828369
1519424814548,-0.061035,-0.540039,0.826660
1519424814597,-0.070313,-0.544922,0.829346
1519424814630,-0.074463,-0.569092,0.822510
1519424814633,-0.082031,-0.570557,0.818359
1519424814690,-0.080078,-0.550537,0.825928
1519424814700,-0.078613,-0.541260,0.832275
1519424814729,-0.076904,-0.542236,0.833740
1519424814785,-0.073975,-0.554932,0.824463
1519424814794,-0.081299,-0.558350,0.822266
1519424814850,-0.088867,-0.564209,0.818359
1519424814881,-0.083008,-0.581787,0.811768
1519424814914,-0.074219,-0.562988,0.819580
1519424814948,-0.072266,-0.542480,0.827393
1519424814980,-0.066650,-0.549805,0.828125
1519424815013,-0.062988,-0.562500,0.824707
1519424815045,-0.060303,-0.561523,0.826416
1519424815078,-0.063965,-0.558105,0.826416
1519424815109,-0.078613,-0.558594,0.821533
1519424815116,-0.082764,-0.562744,0.817871
1519424815182,-0.074951,-0.562744,0.819580
1519424815202,-0.074463,-0.556885,0.826904
1519424815210,-0.074219,-0.551270,0.827881
1519424815263,-0.071045,-0.552002,0.825928
1519424815296,-0.070313,-0.556641,0.823975
1519424815328,-0.072510,-0.558838,0.825928
1519424815363,-0.077637,-0.554688,0.822998
1519424815395,-0.079834,-0.556885,0.824707
1519424815429,-0.076416,-0.558105,0.823486
1519424815465,-0.075195,-0.558105,0.823730
1519424815492,-0.078125,-0.552490,0.827881
1519424815524,-0.075439,-0.555908,0.823242
1519424815558,-0.078125,-0.560547,0.826172
1519424815579,-0.072266,-0.550781,0.826904
1519424815603,-0.075684,-0.553711,0.825928
1519424815648,-0.077393,-0.562256,0.823730
1519424815681,-0.074707,-0.558838,0.823975
1519424815714,-0.077148,-0.555664,0.825439
1519424815786,-0.076904,-0.556152,0.824463
1519424815792,-0.078369,-0.556641,0.827393
1519424815854,-0.072998,-0.552490,0.825928
1519424815863,-0.074463,-0.562500,0.822754
1519424815920,-0.075195,-0.552490,0.829590
1519424815926,-0.075439,-0.544189,0.831299
1519424815990,-0.077881,-0.550293,0.828125
1519424816000,-0.077393,-0.552734,0.828369
1519424816055,-0.076904,-0.556396,0.822510
1519424816124,-0.076904,-0.565674,0.816895
1519424816192,-0.075928,-0.564209,0.824707
1519424816201,-0.071533,-0.548584,0.826172
1519424816257,-0.076172,-0.547363,0.829834
1519424816261,-0.075195,-0.551758,0.830078
1519424816276,-0.074707,-0.553467,0.828369
1519424816280,-0.079346,-0.559570,0.824219
1519424816283,-0.077881,-0.553223,0.828125
1519424816286,-0.074707,-0.551758,0.826904
1519424816312,-0.075439,-0.557861,0.825928
1519424816346,-0.076172,-0.555664,0.823486
1519424816379,-0.078857,-0.553955,0.825684
1519424816413,-0.077393,-0.558594,0.821777
1519424816471,-0.076904,-0.558350,0.823975
1519424816480,-0.077393,-0.554932,0.825195
1519424816508,-0.070557,-0.551025,0.827881
1519424816540,-0.071289,-0.552490,0.829346
1519424816573,-0.079834,-0.554932,0.825439
1519424816606,-0.076904,-0.551758,0.830566
1519424816638,-0.078369,-0.547852,0.828125
1519424816671,-0.077637,-0.554688,0.825439
1519424816703,-0.075195,-0.564453,0.821533
1519424816738,-0.078613,-0.558350,0.825684
1519424816770,-0.077637,-0.549805,0.826416
1519424816801,-0.078369,-0.553711,0.828613
1519424816836,-0.076416,-0.554932,0.827393
1519424816870,-0.080566,-0.555176,0.824219
1519424816911,-0.078125,-0.556152,0.822998
1519424816920,-0.078613,-0.558105,0.825684
1519424816973,-0.079346,-0.554932,0.827148
1519424817004,-0.078613,-0.554932,0.826416
1519424817037,-0.076660,-0.557373,0.824463
1519424817070,-0.078369,-0.558594,0.823486
1519424817101,-0.080078,-0.552734,0.827637
1519424817136,-0.069824,-0.552734,0.830322
1519424817171,-0.072266,-0.550049,0.827637
1519424817202,-0.086670,-0.548340,0.827393
1519424817235,-0.075439,-0.558838,0.826660
1519424817243,-0.068359,-0.558350,0.820313
1519424817293,-0.080566,-0.568359,0.821777
1519424817300,-0.088623,-0.567383,0.822754
1519424817329,-0.101318,-0.537598,0.839844
1519424817388,-0.072998,-0.540039,0.832520
1519424817421,-0.062744,-0.570313,0.821777
1519424817452,-0.065918,-0.569580,0.823486
1519424817485,-0.073242,-0.551758,0.825195
1519424817517,-0.072266,-0.554199,0.826416
1519424817551,-0.083984,-0.561523,0.825684
1519424817592,-0.085205,-0.549561,0.828369
1519424817615,-0.075928,-0.548096,0.829102
1519424817648,-0.076416,-0.561035,0.822998
1519424817681,-0.073730,-0.562256,0.822510
1519424817744,-0.073242,-0.550293,0.826416
1519424817752,-0.071777,-0.550781,0.831543
1519424817776,-0.076904,-0.549072,0.829590
1519424817808,-0.083008,-0.549316,0.826416
1519424817817,-0.081055,-0.556641,0.826172
1519424817873,-0.082764,-0.554443,0.825928
1519424817904,-0.083496,-0.552002,0.828125
1519424817913,-0.083008,-0.553223,0.826416
1519424817968,-0.080322,-0.554199,0.826416
1519424818000,-0.077637,-0.550781,0.827637
1519424818032,-0.076904,-0.545654,0.832764
1519424818065,-0.072998,-0.553467,0.828613
1519424818100,-0.074951,-0.555664,0.826660
1519424818114,-0.079346,-0.555420,0.826416
1519424818146,-0.078369,-0.558838,0.824707
1519424818180,-0.078857,-0.554443,0.827637
1519424818213,-0.081543,-0.555664,0.826172
1519424818269,-0.075195,-0.557373,0.826172
1519424818304,-0.071777,-0.554688,0.827637
1519424818312,-0.074951,-0.551514,0.827881
1519424818360,-0.077148,-0.545166,0.831787
1519424818394,-0.076416,-0.547119,0.828125
1519424818403,-0.075439,-0.553955,0.828125
1519424818453,-0.079590,-0.552490,0.828125
1519424818485,-0.081543,-0.551758,0.827148
1519424818517,-0.077881,-0.552246,0.830078
1519424818531,-0.076904,-0.549316,0.829102
1519424818563,-0.075195,-0.552979,0.831787
1519424818595,-0.075684,-0.549805,0.829346
1519424818628,-0.080322,-0.553223,0.825928
1519424818687,-0.078613,-0.556641,0.827637
1519424818719,-0.074951,-0.549805,0.829590
1519424818727,-0.078613,-0.545898,0.830078
1519424818783,-0.079834,-0.551025,0.828369
1519424818815,-0.077148,-0.553955,0.828613
1519424818847,-0.077148,-0.555176,0.827148
1519424818853,-0.072998,-0.553711,0.829102
1519424818881,-0.075195,-0.549316,0.828369
1519424818939,-0.077393,-0.547607,0.831543
1519424818947,-0.079834,-0.549072,0.830566
1519424818986,-0.080566,-0.551514,0.828125
1519424819023,-0.077393,-0.551758,0.828369
1519424819059,-0.079834,-0.548828,0.826904
1519424819092,-0.079346,-0.553467,0.828857
1519424819124,-0.074951,-0.551025,0.829834
1519424819157,-0.075439,-0.549805,0.828613
1519424819190,-0.075928,-0.547607,0.832275
1519424819223,-0.074219,-0.547363,0.829834
1519424819255,-0.074707,-0.547607,0.829590
1519424819266,-0.077637,-0.549805,0.828125
1519424819318,-0.077881,-0.552734,0.830078
1519424819362,-0.079346,-0.551758,0.828125
1519424819371,-0.081055,-0.552490,0.828369
1519424819408,-0.078613,-0.553711,0.829102
1519424819440,-0.076904,-0.552002,0.829102
1519424819472,-0.074951,-0.549072,0.828857
1519424819504,-0.076904,-0.546631,0.833252
1519424819537,-0.076172,-0.549072,0.827637
1519424819571,-0.072998,-0.551270,0.830566
1519424819602,-0.081543,-0.546143,0.832275
1519424819635,-0.080811,-0.545166,0.830078
1519424819669,-0.080078,-0.555420,0.826660
1519424819702,-0.079346,-0.555176,0.827393
1519424819734,-0.081543,-0.550537,0.828613
1519424819765,-0.079346,-0.552002,0.828613
1519424819807,-0.072510,-0.552490,0.829346
1519424819840,-0.074463,-0.551025,0.829102
1519424819848,-0.078125,-0.547607,0.832275
1519424819899,-0.075928,-0.544189,0.832031
1519424819932,-0.075439,-0.548828,0.829102
1519424819941,-0.081299,-0.553223,0.828369
1519424819995,-0.080078,-0.550537,0.827881
1519424820006,-0.079102,-0.553955,0.827637
1519424820061,-0.078613,-0.552734,0.829346
1519424820093,-0.078125,-0.550537,0.827148
1519424820101,-0.077393,-0.551270,0.827637
1519424820157,-0.076660,-0.550781,0.829590
1519424820171,-0.076904,-0.550781,0.829102
1519424820205,-0.077637,-0.551758,0.828125
1519424820238,-0.076660,-0.549072,0.829590
1519424820301,-0.076904,-0.554932,0.828369
1519424820305,-0.078369,-0.554688,0.828857
1519424820335,-0.078857,-0.549072,0.828857
1519424820394,-0.081787,-0.552734,0.827393
1519424820427,-0.076172,-0.558350,0.824463
1519424820437,-0.073486,-0.559082,0.825928
1519424820484,-0.078125,-0.552246,0.827637
1519424820487,-0.078125,-0.549561,0.830566
1519424820520,-0.078857,-0.552490,0.827881
1519424820578,-0.078125,-0.555664,0.827393
1519424820586,-0.077148,-0.547119,0.832275
1519424820645,-0.077393,-0.548096,0.828125
1519424820675,-0.079102,-0.555908,0.826416
1519424820707,-0.080811,-0.555420,0.824707
1519424820779,-0.082031,-0.556152,0.826660
1519424820787,-0.082031,-0.556885,0.822998
1519424820847,-0.083008,-0.557617,0.826172
1519424820855,-0.081787,-0.552734,0.825928
1519424820915,-0.076416,-0.550781,0.827637
1519424820924,-0.073730,-0.551270,0.829590
1519424820980,-0.073975,-0.552490,0.828613
1519424821051,-0.067383,-0.551514,0.830322
1519424821115,-0.071777,-0.556641,0.828857
1519424821119,-0.083008,-0.550293,0.826660
1519424821183,-0.082031,-0.552979,0.826416
1519424821186,-0.081543,-0.555420,0.825928
1519424821251,-0.086914,-0.555420,0.825684
1519424821267,-0.071777,-0.559570,0.824463
1519424821277,-0.073730,-0.558594,0.828369
1519424821281,-0.080078,-0.552734,0.828369
1519424821293,-0.073486,-0.545654,0.830566
1519424821297,-0.073486,-0.551025,0.831299
1519424821300,-0.076660,-0.546631,0.829102
1519424821355,-0.078369,-0.550537,0.826172
1519424821388,-0.078857,-0.556885,0.825684
1519424821402,-0.076416,-0.550781,0.828857
1519424821432,-0.077881,-0.551270,0.827881
1519424821473,-0.076416,-0.555176,0.828857
1519424821498,-0.076660,-0.552490,0.828369
1519424821530,-0.074707,-0.551025,0.829346
1519424821582,-0.079590,-0.551758,0.828125
1519424821585,-0.080078,-0.551514,0.827393
1519424821615,-0.073242,-0.552246,0.830322
1519424821674,-0.075928,-0.547607,0.830811
1519424821707,-0.081055,-0.549316,0.828125
1519424821716,-0.068604,-0.559082,0.825195
1519424821770,-0.073486,-0.558350,0.826416
1519424821803,-0.087891,-0.551025,0.827637
1519424821815,-0.078369,-0.543701,0.830811
1519424821874,-0.077148,-0.548584,0.829834
1519424821883,-0.081543,-0.549805,0.827637
1519424821932,-0.082031,-0.552979,0.828125
1519424821970,-0.074219,-0.553467,0.830566
1519424821979,-0.071777,-0.548340,0.832764
1519424822027,-0.078369,-0.551514,0.827148
1519424822031,-0.081787,-0.552734,0.830566
1519424822089,-0.079834,-0.552002,0.826660
1519424822120,-0.081787,-0.551758,0.827881
1519424822128,-0.083496,-0.550781,0.826416
1519424822185,-0.080811,-0.555420,0.826904
1519424822218,-0.075195,-0.556396,0.827148
1519424822232,-0.080811,-0.550293,0.827393
1519424822288,-0.075195,-0.552490,0.828369
1519424822293,-0.075684,-0.558594,0.826660
1519424822352,-0.079346,-0.552246,0.829590
1519424822384,-0.077637,-0.543213,0.829834
1519424822416,-0.076416,-0.551270,0.829346
1519424822449,-0.082031,-0.556152,0.827148
1519424822458,-0.078369,-0.556396,0.826416
1519424822507,-0.077148,-0.556885,0.825195
1519424822539,-0.073242,-0.554443,0.828857
1519424822545,-0.076416,-0.552490,0.827148
1519424822603,-0.076416,-0.551270,0.828125
1519424822633,-0.072510,-0.552734,0.829834
1519424822647,-0.073975,-0.556396,0.828613
1519424822681,-0.080811,-0.555420,0.827393
1519424822713,-0.078369,-0.554932,0.825928
1519424822746,-0.078857,-0.552734,0.828613
1519424822777,-0.078857,-0.558105,0.823975
1519424822835,-0.076660,-0.559570,0.826660
1519424822863,-0.074463,-0.555176,0.825195
1519424822894,-0.078857,-0.554688,0.825684
1519424822932,-0.082275,-0.559570,0.825195
1519424822964,-0.079102,-0.558594,0.823730
1519424822996,-0.079834,-0.554443,0.827393
1519424823030,-0.076172,-0.554199,0.829590
1519424823038,-0.077881,-0.554932,0.828857
1519424823098,-0.082520,-0.552734,0.825439
1519424823107,-0.077881,-0.557861,0.823242
1519424823133,-0.072754,-0.560547,0.822754
1519424823190,-0.076172,-0.560059,0.824951
1519424823196,-0.078125,-0.552734,0.828613
1519424823247,-0.081787,-0.550781,0.826416
1519424823280,-0.080811,-0.558350,0.826660
1519424823312,-0.080078,-0.552734,0.826416
1519424823345,-0.080811,-0.552490,0.827148
1519424823378,-0.081787,-0.557129,0.824463
1519424823411,-0.077148,-0.557373,0.826416
1519424823443,-0.074463,-0.555176,0.824463
1519424823461,-0.077881,-0.554199,0.829590
1519424823488,-0.077148,-0.551514,0.825928
1519424823548,-0.075195,-0.556641,0.826660
1519424823580,-0.077637,-0.556885,0.826660
1519424823611,-0.080322,-0.553955,0.826660
1519424823617,-0.078369,-0.553711,0.828125
1519424823670,-0.078125,-0.557373,0.826416
1519424823680,-0.083984,-0.556885,0.824463
1519424823708,-0.082031,-0.556152,0.825195
1519424823767,-0.080566,-0.556396,0.826660
1519424823773,-0.083008,-0.555908,0.824219
1519424823832,-0.076416,-0.555420,0.826416
1519424823863,-0.078125,-0.557617,0.826416
1519424823877,-0.076660,-0.552490,0.827148
1519424823910,-0.076904,-0.549561,0.825195
1519424823942,-0.080322,-0.551758,0.829834
1519424823975,-0.081787,-0.550293,0.828125
1519424824007,-0.080078,-0.557129,0.826416
1519424824065,-0.079102,-0.555664,0.825439
1519424824098,-0.078857,-0.555420,0.829102
1519424824104,-0.080566,-0.552490,0.826416
1519424824141,-0.077393,-0.558594,0.825684
1519424824174,-0.077881,-0.555420,0.826660
1519424824208,-0.075928,-0.553711,0.827637
1519424824241,-0.071533,-0.553955,0.829834
1519424824272,-0.075684,-0.551270,0.827393
1519424824286,-0.073730,-0.556885,0.827637
1519424824318,-0.078857,-0.555420,0.826660
1519424824378,-0.084961,-0.551025,0.828125
1519424824411,-0.083008,-0.554443,0.826172
1519424824443,-0.081543,-0.557861,0.826172
1519424824479,-0.082275,-0.551514,0.827637
1519424824482,-0.081299,-0.551270,0.828369
1519424824533,-0.074463,-0.555420,0.826172
1519424824565,-0.075439,-0.555420,0.824707
1519424824572,-0.076172,-0.552246,0.830078
1519424824627,-0.079834,-0.547607,0.829590
1519424824660,-0.081055,-0.551758,0.830078
1519424824693,-0.081543,-0.553467,0.827148
1519424824736,-0.081787,-0.552002,0.829590
1519424824739,-0.082275,-0.551025,0.826904
1519424824768,-0.079834,-0.556641,0.828613
1519424824826,-0.077393,-0.550537,0.827637
1519424824836,-0.075928,-0.552979,0.827881
1519424824894,-0.078613,-0.554688,0.827148
1519424824903,-0.076416,-0.552734,0.830322
1519424824958,-0.076904,-0.550537,0.827148
1519424824990,-0.081787,-0.553467,0.828857
1519424825024,-0.076904,-0.549805,0.829834
1519424825055,-0.082275,-0.550293,0.827881
1519424825064,-0.080811,-0.553467,0.827393
1519424825113,-0.077637,-0.553467,0.829590
1519424825146,-0.079346,-0.549805,0.826904
1519424825152,-0.076904,-0.553223,0.827637
1519424825210,-0.073486,-0.558350,0.824707
1519424825242,-0.073242,-0.549805,0.829590
1519424825274,-0.079102,-0.548828,0.828613
1519424825305,-0.078369,-0.552490,0.831299
1519424825339,-0.081055,-0.550537,0.826172
1519424825373,-0.080078,-0.558350,0.824951
1519424825423,-0.081543,-0.558838,0.825439
1519424825432,-0.082520,-0.553467,0.826660
1519424825456,-0.082520,-0.554443,0.828125
1519424825489,-0.075684,-0.551514,0.827881
1519424825520,-0.076416,-0.557373,0.824707
1519424825553,-0.074463,-0.553955,0.826416
1519424825587,-0.075684,-0.555420,0.827148
1519424825619,-0.075439,-0.557861,0.825195
1519424825650,-0.074707,-0.556885,0.822998
1519424825683,-0.080322,-0.557861,0.826904
1519424825716,-0.084717,-0.553955,0.827393
1519424825789,-0.079590,-0.551758,0.827393
1519424825797,-0.080566,-0.564453,0.824219
1519424825856,-0.076904,-0.556885,0.823975
1519424825865,-0.073730,-0.556152,0.822266
1519424825923,-0.079590,-0.560791,0.825684
1519424825993,-0.074707,-0.552490,0.826660
1519424826058,-0.077881,-0.557129,0.823975
1519424826061,-0.083496,-0.554443,0.827148
1519424826126,-0.078369,-0.551758,0.830566
1519424826133,-0.078613,-0.557861,0.823730
1519424826194,-0.078613,-0.560303,0.823242
1519424826203,-0.081055,-0.557129,0.825195
1519424826260,-0.077148,-0.559326,0.822754
1519424826277,-0.074463,-0.562012,0.822998
1519424826282,-0.073730,-0.558105,0.822998
1519424826285,-0.077148,-0.558350,0.824463
1519424826288,-0.076172,-0.556641,0.824707
1519424826314,-0.072510,-0.561768,0.822998
1519424826317,-0.080811,-0.559326,0.826660
1519424826387,-0.082520,-0.554688,0.823242
1519424826396,-0.080811,-0.556885,0.824707
1519424826423,-0.072754,-0.561768,0.821777
1519424826456,-0.081299,-0.560547,0.826172
1519424826489,-0.076660,-0.553223,0.825195
1519424826520,-0.070557,-0.558350,0.821533
1519424826553,-0.075195,-0.558350,0.822021
1519424826587,-0.076904,-0.552490,0.828125
1519424826617,-0.081787,-0.551270,0.826904
1519424826651,-0.084229,-0.553711,0.827881
1519424826701,-0.077393,-0.557617,0.822266
1519424826709,-0.078613,-0.559570,0.825439
1519424826747,-0.079590,-0.553711,0.825439
1519424826784,-0.077637,-0.554932,0.824463
1519424826815,-0.077881,-0.559082,0.824707
1519424826831,-0.075195,-0.558838,0.825684
1519424826863,-0.075928,-0.559570,0.826416
1519424826896,-0.074951,-0.557861,0.822754
1519424826930,-0.080078,-0.548340,0.825684
1519424826962,-0.077881,-0.552246,0.828125
1519424827018,-0.082764,-0.556641,0.826416
1519424827050,-0.077881,-0.556885,0.824951
1519424827082,-0.081543,-0.558105,0.825928
1519424827090,-0.080078,-0.558594,0.825928
1519424827146,-0.074951,-0.556641,0.824707
1519424827160,-0.075684,-0.558350,0.825439
1519424827193,-0.074951,-0.552490,0.826416
1519424827250,-0.075928,-0.556885,0.824707
1519424827252,-0.080078,-0.556885,0.826416
1519424827283,-0.076904,-0.549316,0.827637
1519424827341,-0.083252,-0.554688,0.824951
1519424827343,-0.082031,-0.553223,0.827637
1519424827375,-0.079102,-0.551270,0.828369
1519424827432,-0.080322,-0.556641,0.825439
1519424827465,-0.080078,-0.557129,0.826904
1519424827479,-0.077393,-0.557373,0.824463
1519424827528,-0.069092,-0.553467,0.829346
1519424827561,-0.071777,-0.557129,0.823975
1519424827575,-0.077393,-0.555908,0.826172
1519424827610,-0.078125,-0.552246,0.826416
1519424827643,-0.071045,-0.560303,0.822266
1519424827676,-0.077881,-0.560791,0.822510
1519424827707,-0.082764,-0.550537,0.830322
1519424827743,-0.069580,-0.534424,0.826416
1519424827775,-0.083008,-0.546631,0.828857
1519424827807,-0.085205,-0.556885,0.824707
1519424827840,-0.082764,-0.561035,0.824951
1519424827873,-0.088135,-0.564697,0.822754
1519424827908,-0.087646,-0.560059,0.821045
1519424827939,-0.087402,-0.565918,0.819824
1519424827983,-0.084961,-0.562744,0.820557
1519424828015,-0.081787,-0.557861,0.822998
1519424828048,-0.077637,-0.556396,0.824219
1519424828081,-0.075928,-0.555664,0.826904
1519424828093,-0.069336,-0.556396,0.824951
1519424828142,-0.064697,-0.557373,0.827881
1519424828176,-0.069580,-0.554199,0.826416
1519424828209,-0.076660,-0.555908,0.824707
1519424828242,-0.074219,-0.559814,0.823486
1519424828250,-0.080322,-0.560547,0.824951
1519424828299,-0.087402,-0.560547,0.821777
1519424828332,-0.084473,-0.565674,0.819824
1519424828338,-0.084717,-0.565918,0.819092
1519424828396,-0.082275,-0.561523,0.820801
1519424828429,-0.074463,-0.560059,0.823242
1519424828462,-0.074463,-0.561279,0.823730
1519424828498,-0.076172,-0.555176,0.826904
1519424828527,-0.074219,-0.551758,0.828857
1519424828559,-0.075928,-0.550537,0.828613
1519424828596,-0.077637,-0.559814,0.822754
1519424828625,-0.082031,-0.563721,0.819336
1519424828657,-0.083984,-0.564697,0.819336
1519424828690,-0.082275,-0.562744,0.822266
1519424828706,-0.081299,-0.562500,0.822266
1519424828738,-0.079590,-0.562012,0.823242
1519424828773,-0.072754,-0.560059,0.823486
1519424828828,-0.071533,-0.557373,0.823486
1519424828834,-0.070313,-0.558350,0.822754
1519424828889,-0.077637,-0.562256,0.824951
1519424828921,-0.081299,-0.558594,0.822510
1519424828929,-0.083984,-0.557617,0.822998
1519424828978,-0.082764,-0.565918,0.820068
1519424829011,-0.081299,-0.563477,0.818848
1519424829045,-0.076172,-0.559326,0.822754
1519424829076,-0.076172,-0.559082,0.823486
1519424829084,-0.072754,-0.557129,0.823975
1519424829138,-0.074951,-0.557373,0.823730
1519424829171,-0.063721,-0.558105,0.816650
1519424829185,-0.079346,-0.565430,0.822266
1519424829262,-0.099609,-0.568359,0.823242
1519424829268,-0.086426,-0.546875,0.830566
1519424829295,-0.065186,-0.550049,0.832031
1519424829327,-0.080078,-0.581543,0.808838
1519424829361,-0.096680,-0.591309,0.807129
1519424829393,-0.068848,-0.558350,0.816162
1519424829427,-0.055420,-0.562012,0.821289
1519424829459,-0.071777,-0.579590,0.813721
1519424829491,-0.069824,-0.555908,0.823242
1519424829523,-0.069336,-0.541992,0.828369
1519424829556,-0.070557,-0.559082,0.820313
1519424829588,-0.072266,-0.566895,0.819092
1519424829604,-0.075439,-0.569092,0.814209
1519424829660,-0.082031,-0.571533,0.814453
1519424829665,-0.093506,-0.565430,0.813477
1519424829721,-0.101563,-0.571289,0.815430
1519424829755,-0.086914,-0.585205,0.807129
1519424829787,-0.087891,-0.590820,0.802979
1519424829820,-0.091797,-0.582031,0.808838
1519424829852,-0.077881,-0.569336,0.812988
1519424829858,-0.076172,-0.576416,0.809814
1519424829912,-0.072998,-0.583252,0.808838
1519424829945,-0.068359,-0.566895,0.815674
1519424829951,-0.073242,-0.568115,0.814453
1519424830014,-0.070801,-0.573975,0.811035
1519424830021,-0.061523,-0.578125,0.814453
1519424830052,-0.065186,-0.570801,0.811768
1519424830085,-0.069092,-0.560547,0.813232
1519424830118,-0.072021,-0.566162,0.818848
1519424830148,-0.064209,-0.571533,0.818359
1519424830182,-0.062012,-0.571777,0.814453
1519424830240,-0.075684,-0.576904,0.830078
1519424830272,-0.081543,-0.574707,0.804932
1519424830277,-0.084473,-0.586914,0.814941
1519424830335,-0.068604,-0.579834,0.800293
1519424830368,-0.064453,-0.596191,0.811768
1519424830375,-0.058838,-0.574951,0.808594
1519424830428,-0.068359,-0.591064,0.804443
1519424830435,-0.067383,-0.586670,0.798340
1519424830465,-0.060547,-0.577881,0.808350
1519424830541,-0.063477,-0.572754,0.804199
1519424830545,-0.063232,-0.565430,0.792480
1519424830578,-0.086426,-0.604492,0.824707
1519424830613,-0.091309,-0.584717,0.798340
1519424830648,-0.084229,-0.579346,0.805420
1519424830681,-0.094482,-0.585205,0.808350
1519424830713,-0.011963,-0.597900,0.800537
1519424830787,-0.084473,-0.615234,0.813721
1519424830794,-0.090576,-0.567871,0.802002
1519424830853,-0.107666,-0.582520,0.826172
1519424830923,-0.106689,-0.564453,0.860107
1519424830989,-0.085205,-0.534912,0.792236
1519424830995,-0.100830,-0.589355,0.831543
1519424831057,-0.091797,-0.560059,0.819580
1519424831065,-0.080078,-0.541016,0.818115
1519424831123,-0.088135,-0.583740,0.818359
1519424831134,-0.093506,-0.586914,0.810303
1519424831190,-0.096680,-0.572754,0.808350
1519424831192,-0.084473,-0.558594,0.819580
1519424831257,-0.083740,-0.570068,0.810791
1519424831261,-0.078857,-0.584473,0.805664
1519424831278,-0.086426,-0.561279,0.797607
1519424831281,-0.083740,-0.562988,0.837891
1519424831293,-0.070801,-0.562012,0.833496
1519424831298,-0.072754,-0.566650,0.808105
1519424831326,-0.080566,-0.583008,0.827881
1519424831360,-0.083496,-0.581787,0.832520
1519424831393,-0.071289,-0.541504,0.813965
1519424831426,-0.065430,-0.570313,0.808105
1519424831435,-0.071533,-0.589355,0.811523
1519424831488,-0.075195,-0.579102,0.807861
1519424831518,-0.068848,-0.544678,0.799805
1519424831526,-0.087891,-0.628906,0.847412
1519424831583,-0.081299,-0.554443,0.788818
1519424831594,-0.067383,-0.578369,0.823730
1519424831649,-0.068848,-0.568359,0.810303
1519424831682,-0.075684,-0.568604,0.807373
1519424831696,-0.084229,-0.564453,0.787842
1519424831728,-0.078125,-0.590088,0.850342
1519424831762,-0.068359,-0.519531,0.800537
1519424831793,-0.079346,-0.572510,0.809814
1519424831851,-0.084473,-0.580322,0.822266
1519424831856,-0.085205,-0.572510,0.806152
1519424831914,-0.073975,-0.548584,0.824219
1519424831947,-0.068848,-0.566406,0.826904
1519424831979,-0.070313,-0.583252,0.802490
1519424832011,-0.086182,-0.565674,0.812744
1519424832017,-0.078857,-0.555420,0.810303
1519424832202,-0.093750,-0.597900,0.814697
1519424832203,-0.101074,-0.568115,0.802979
1519424832203,-0.105957,-0.555908,0.817871
1519424832204,-0.075928,-0.620117,0.802490
1519424832204,-0.060059,-0.621826,0.794922
1519424832227,-0.061523,-0.584473,0.804443
1519424832261,-0.068359,-0.548584,0.822998
1519424832292,-0.082520,-0.543457,0.827637
1519424832325,-0.080322,-0.539551,0.842773
1519424832358,-0.054688,-0.548584,0.827637
1519424832393,-0.051514,-0.589111,0.804932
1519424832425,-0.077637,-0.603760,0.801758
1519424832458,-0.096436,-0.567871,0.809082
1519424832492,-0.103516,-0.561768,0.823242
1519424832508,-0.099365,-0.562988,0.817627
1519424832561,-0.084229,-0.593262,0.802002
1519424832573,-0.083984,-0.594238,0.801025
1519424832597,-0.081055,-0.568359,0.815674
1519424832630,-0.084717,-0.549316,0.819580
1519424832662,-0.088379,-0.554443,0.829590
1519424832695,-0.090820,-0.551025,0.826660
1519424832726,-0.085449,-0.579102,0.808838
1519424832759,-0.075439,-0.604736,0.805908
1519424832792,-0.076660,-0.586182,0.802979
1519424832825,-0.068848,-0.552002,0.819580
1519424832858,-0.072998,-0.558594,0.815918
1519424832892,-0.074463,-0.563477,0.817871
1519424832922,-0.067139,-0.543457,0.815918
1519424832955,-0.079346,-0.628906,0.829834
1519424832989,-0.081299,-0.583984,0.783447
1519424833046,-0.081055,-0.564941,0.825928
1519424833055,-0.083252,-0.540283,0.825195
1519424833079,-0.084473,-0.561768,0.814941
1519424833134,-0.082520,-0.568115,0.820557
1519424833142,-0.082520,-0.568115,0.819336
1519424833193,-0.069824,-0.578857,0.805176
1519424833224,-0.078369,-0.599365,0.800537
1519424833257,-0.085938,-0.575684,0.812256
1519424833290,-0.084229,-0.552979,0.821777
1519424833325,-0.078857,-0.567139,0.818115
1519424833336,-0.077637,-0.570557,0.816895
1519424833394,-0.075439,-0.566162,0.814941
1519424833427,-0.078613,-0.569824,0.814697
1519424833459,-0.077393,-0.578613,0.814453
1519424833468,-0.078613,-0.573486,0.812256
1519424833525,-0.086670,-0.565430,0.813232
1519424833534,-0.084229,-0.572510,0.812988
1519424833567,-0.080078,-0.577393,0.812256
1519424833628,-0.079834,-0.576172,0.812500
1519424833638,-0.077637,-0.571289,0.814941
1519424833661,-0.079834,-0.572998,0.814209
1519424833720,-0.078613,-0.573730,0.812988
1519424833728,-0.077881,-0.573242,0.809326
1519424833763,-0.074951,-0.575439,0.813477
1519424833795,-0.072998,-0.578857,0.813721
1519424833828,-0.079346,-0.573730,0.810547
1519424833860,-0.080078,-0.571777,0.815186
1519424833893,-0.082764,-0.573730,0.810791
1519424833926,-0.078857,-0.568604,0.807373
1519424833958,-0.085449,-0.566895,0.805420
1519424833991,-0.083740,-0.587891,0.833008
1519424834024,-0.080322,-0.569336,0.811523
1519424834055,-0.077148,-0.565674,0.820313
1519424834087,-0.083252,-0.569092,0.818604
1519424834119,-0.073242,-0.568848,0.819092
1519424834151,-0.074463,-0.571533,0.812256
1519424834195,-0.076660,-0.575928,0.808838
1519424834201,-0.077637,-0.575684,0.814697
1519424834256,-0.078613,-0.571289,0.809082
1519424834289,-0.079590,-0.575684,0.812744
1519424834322,-0.083496,-0.576904,0.804199
1519424834332,-0.084961,-0.575928,0.803955
1519424834383,-0.066650,-0.546387,0.801025
1519424834415,-0.071289,-0.568848,0.840332
1519424834448,-0.070801,-0.566895,0.796875
1519424834482,-0.084473,-0.590332,0.810791
1519424834517,-0.076660,-0.550049,0.813721
1519424834549,-0.072998,-0.567627,0.805420
1519424834565,-0.082764,-0.600586,0.824951
1519424834622,-0.084229,-0.553467,0.805908
1519424834627,-0.076172,-0.573975,0.816162
1519424834681,-0.074463,-0.579590,0.810791
1519424834714,-0.089111,-0.577637,0.811279
1519424834719,-0.089111,-0.569092,0.819092
1519424834774,-0.070313,-0.574463,0.807373
1519424834805,-0.074219,-0.583496,0.816406
1519424834837,-0.078857,-0.571777,0.807129
1519424834869,-0.081543,-0.563721,0.814697
1519424834901,-0.078613,-0.574951,0.812012
1519424834934,-0.074219,-0.570313,0.802490
1519424834966,-0.083984,-0.588867,0.830322
1519424834980,-0.088623,-0.571777,0.797119
1519424835037,-0.077881,-0.572510,0.818604
1519424835042,-0.074219,-0.580078,0.805908
1519424835100,-0.087402,-0.564209,0.796875
1519424835132,-0.082520,-0.580078,0.833008
1519424835165,-0.073486,-0.538574,0.802490
1519424835197,-0.078613,-0.573730,0.816406
1519424835200,-0.079346,-0.582031,0.810303
1519424835256,-0.079102,-0.575195,0.816406
1519424835289,-0.082275,-0.552490,0.819336
1519424835293,-0.078857,-0.577881,0.816650
1519424835354,-0.075195,-0.573730,0.807373
1519424835384,-0.074707,-0.565918,0.812744
1519424835398,-0.079346,-0.567627,0.819824
1519424835431,-0.083252,-0.574463,0.821045
1519424835468,-0.076416,-0.557373,0.816650
1519424835501,-0.069824,-0.559082,0.833740
1519424835531,-0.088135,-0.591309,0.810791
1519424835564,-0.086670,-0.584961,0.805176
1519424835599,-0.082275,-0.561035,0.819092
1519424835631,-0.072510,-0.574951,0.811768
1519424835662,-0.074463,-0.571289,0.814209
1519424835695,-0.079346,-0.566650,0.819092
1519424835737,-0.077637,-0.565674,0.813721
1519424835800,-0.075439,-0.567383,0.815186
1519424835803,-0.070068,-0.565430,0.804688
1519424835867,-0.098877,-0.621338,0.851807
1519424835871,-0.096436,-0.545654,0.794434
1519424835935,-0.080811,-0.593262,0.836670
1519424835938,-0.064209,-0.580566,0.805420
1519424836003,-0.067627,-0.558350,0.815430
1519424836011,-0.071777,-0.567139,0.821045
1519424836070,-0.076172,-0.563721,0.820313
1519424836075,-0.083740,-0.552734,0.816162
1519424836136,-0.082520,-0.564209,0.817627
1519424836141,-0.083252,-0.568115,0.811768
1519424836205,-0.083740,-0.563721,0.802002
1519424836272,-0.084717,-0.577637,0.835693
1519424836286,-0.083252,-0.558350,0.804199
1519424836289,-0.079346,-0.551025,0.816162
1519424836292,-0.081299,-0.554932,0.825928
1519424836322,-0.074707,-0.552002,0.821777
1519424836330,-0.074951,-0.544678,0.824951
1519424836381,-0.071533,-0.545654,0.812256
1519424836413,-0.088379,-0.604492,0.853027
1519424836451,-0.084473,-0.517090,0.803711
1519424836459,-0.080811,-0.576904,0.826172
1519424836514,-0.085693,-0.559570,0.820313
1519424836544,-0.085938,-0.562256,0.817627
1519424836577,-0.092529,-0.563232,0.833984
1519424836610,-0.084961,-0.570557,0.810547
1519424836625,-0.083984,-0.565674,0.822510
1519424836657,-0.079102,-0.563232,0.817627
1519424836690,-0.083252,-0.559570,0.822754
1519424836723,-0.089844,-0.568115,0.821533
1519424836756,-0.077881,-0.563721,0.820313
1519424836812,-0.073486,-0.559326,0.824219
1519424836817,-0.079590,-0.566895,0.823730
1519424836846,-0.084961,-0.562012,0.820313
1519424836904,-0.083740,-0.562988,0.821289
1519424836913,-0.081299,-0.561523,0.824951
1519424836943,-0.081543,-0.554443,0.817139
1519424836975,-0.088623,-0.563477,0.827637
1519424837008,-0.084473,-0.569580,0.816406
1519424837048,-0.085938,-0.559570,0.824707
1519424837082,-0.084473,-0.552979,0.822754
1519424837114,-0.080078,-0.561279,0.821045
1519424837145,-0.084473,-0.555664,0.829834
1519424837177,-0.090088,-0.555908,0.818848
1519424837210,-0.084961,-0.559082,0.824951
1519424837243,-0.084717,-0.556396,0.825928
1519424837275,-0.090576,-0.551025,0.827393
1519424837307,-0.087158,-0.562744,0.822266
1519424837340,-0.088623,-0.558594,0.820557
1519424837373,-0.092285,-0.554688,0.828125
1519424837409,-0.087891,-0.569092,0.818359
1519424837425,-0.074707,-0.556152,0.832520
1519424837481,-0.068115,-0.544189,0.821777
1519424837488,-0.104248,-0.551025,0.831299
1519424837542,-0.095215,-0.539795,0.819824
1519424837575,-0.088135,-0.583984,0.826416
1519424837608,-0.086670,-0.563232,0.818359
1519424837640,-0.096436,-0.564209,0.823730
1519424837672,-0.091797,-0.541016,0.825195
1519424837705,-0.087402,-0.545654,0.824463
1519424837737,-0.088379,-0.567871,0.819336
1519424837770,-0.087646,-0.568359,0.817871
1519424837802,-0.090332,-0.560059,0.820068
1519424837808,-0.090332,-0.557373,0.821289
1519424837862,-0.089844,-0.563477,0.821045
1519424837893,-0.090820,-0.561523,0.818115
1519424837901,-0.087891,-0.569336,0.820313
1519424837958,-0.092529,-0.569824,0.819092
1519424837991,-0.090088,-0.567139,0.816162
1519424838023,-0.081787,-0.560059,0.822998
1519424838055,-0.080078,-0.568848,0.823242
1519424838089,-0.084717,-0.563477,0.818604
1519424838121,-0.084717,-0.552490,0.826416
1519424838153,-0.082764,-0.551270,0.824219
1519424838184,-0.080566,-0.564941,0.824951
1519424838222,-0.074951,-0.566895,0.822754
1519424838236,-0.074219,-0.560791,0.822266
1519424838267,-0.080078,-0.562012,0.822266
1519424838303,-0.089111,-0.562500,0.816895
1519424838334,-0.083496,-0.562500,0.820313
1519424838373,-0.083984,-0.553955,0.823730
1519424838403,-0.083984,-0.554199,0.824219
1519424838436,-0.081543,-0.567871,0.820557
1519424838469,-0.080811,-0.567383,0.817627
1519424838501,-0.083252,-0.559570,0.819092
1519424838533,-0.079346,-0.558594,0.823486
1519424838566,-0.081299,-0.565918,0.819824
1519424838599,-0.089355,-0.567627,0.819336
1519424838631,-0.082275,-0.559326,0.819092
1519424838646,-0.083008,-0.566895,0.814453
1519424838705,-0.091064,-0.570801,0.816650
1519424838736,-0.085693,-0.564209,0.820801
1519424838779,-0.081299,-0.568115,0.818359
1519424838806,-0.084229,-0.564453,0.819092
1519424838834,-0.082764,-0.559814,0.827148
1519424838868,-0.074951,-0.555908,0.820801
1519424838876,-0.075928,-0.556641,0.828125
1519424838926,-0.072021,-0.570557,0.828857
1519424838935,-0.072510,-0.574707,0.809814
1519424838990,-0.073730,-0.569580,0.822510
1519424839022,-0.082764,-0.540771,0.844482
1519424839030,-0.093750,-0.564453,0.822998
1519424839085,-0.081787,-0.570557,0.796631
1519424839117,-0.081299,-0.584717,0.788818
1519424839149,-0.101074,-0.604492,0.801758
1519424839183,-0.084473,-0.571289,0.777832
1519424839216,-0.094727,-0.584229,0.756592
1519424839249,-0.067383,-0.642334,0.782959
1519424839281,-0.065430,-0.635010,0.781982
1519424839313,-0.076660,-0.604980,0.740479
1519424839348,-0.072266,-0.610840,0.774170
1519424839353,-0.065674,-0.625488,0.807617
1519424839408,-0.112549,-0.548096,0.822754
1519424839417,-0.097412,-0.591064,0.814697
1519424839452,-0.077881,-0.588867,0.846680
1519424839502,-0.077148,-0.572998,0.805420
1519424839535,-0.081055,-0.559814,0.812500
1519424839567,-0.075684,-0.593018,0.823975
1519424839601,-0.056885,-0.582764,0.806885
1519424839632,-0.075928,-0.534668,0.848145
1519424839665,-0.084229,-0.448242,0.879150
1519424839697,-0.070557,-0.472900,0.879639
1519424839730,-0.065918,-0.538330,0.830322
1519424839763,-0.061035,-0.518555,0.855957
1519424839795,-0.070801,-0.523682,0.858643
1519424839827,-0.092041,-0.455078,0.865479
1519424839860,-0.073975,-0.485840,0.863281
1519424839875,-0.075928,-0.496826,0.880127
1519424839934,-0.065674,-0.502197,0.885010
1519424839942,-0.070068,-0.495117,0.858398
1519424839980,-0.060791,-0.505371,0.864014
1519424840012,-0.063232,-0.495605,0.858154
1519424840046,-0.066162,-0.514404,0.850098
1519424840077,-0.065918,-0.520752,0.849121
1519424840110,-0.065430,-0.527344,0.854248
1519424840142,-0.067627,-0.510010,0.856201
1519424840174,-0.064697,-0.512695,0.854736
1519424840207,-0.065674,-0.514893,0.855469
1519424840241,-0.070313,-0.513428,0.858154
1519424840273,-0.070557,-0.514160,0.854004
1519424840308,-0.067871,-0.510742,0.853760
1519424840342,-0.067139,-0.513428,0.854492
1519424840374,-0.072998,-0.520996,0.850342
1519424840406,-0.075439,-0.529053,0.849609
1519424840410,-0.066650,-0.522461,0.860107
1519424840470,-0.071045,-0.511230,0.848877
1519424840507,-0.072510,-0.513672,0.857178
1519424840514,-0.068359,-0.511719,0.853760
1519424840564,-0.072266,-0.510254,0.847168
1519424840597,-0.079346,-0.518066,0.848145
1519424840631,-0.079834,-0.527100,0.847656
1519424840664,-0.074219,-0.529541,0.846924
1519424840677,-0.071045,-0.532227,0.846436
1519424840710,-0.070801,-0.527344,0.848145
1519424840783,-0.068604,-0.515625,0.852783
1519424840792,-0.069824,-0.515381,0.848389
1519424840851,-0.072021,-0.521484,0.848145
1519424840859,-0.076660,-0.522461,0.850830
1519424840917,-0.079590,-0.518066,0.850098
1519424840926,-0.077881,-0.522949,0.851318
1519424840987,-0.076416,-0.519775,0.847656
1519424840995,-0.077393,-0.521240,0.846436
1519424841052,-0.079102,-0.526367,0.849365
1519424841055,-0.083984,-0.518799,0.851074
1519424841119,-0.086670,-0.508057,0.856445
1519424841125,-0.068604,-0.509033,0.851563
1519424841186,-0.072754,-0.534912,0.846436
1519424841255,-0.077637,-0.525391,0.847900
1519424841265,-0.067139,-0.521484,0.847168
1519424841298,-0.073975,-0.523682,0.852539
1519424841301,-0.073486,-0.515381,0.854980
1519424841304,-0.072754,-0.515869,0.849854
1519424841333,-0.070313,-0.523926,0.850830
1519424841366,-0.065430,-0.524902,0.846680
1519424841399,-0.069336,-0.518555,0.845459
1519424841433,-0.075195,-0.521484,0.852783
1519424841465,-0.072510,-0.519043,0.849854
1519424841508,-0.076660,-0.517090,0.849365
1519424841538,-0.076416,-0.512451,0.855957
1519424841546,-0.076660,-0.505859,0.854736
1519424841596,-0.078613,-0.514404,0.856445
1519424841629,-0.077881,-0.516113,0.851074
1519424841638,-0.080811,-0.515381,0.850098
1519424841692,-0.087158,-0.515625,0.853271
1519424841725,-0.069092,-0.519531,0.854004
1519424841757,-0.067383,-0.523438,0.851563
1519424841791,-0.071045,-0.517090,0.850342
1519424841822,-0.074219,-0.514648,0.851563
1519424841833,-0.072266,-0.518311,0.852783
1519424841873,-0.073486,-0.514404,0.852051
1519424841907,-0.075684,-0.514648,0.851074
1519424841939,-0.074219,-0.520264,0.852295
1519424841972,-0.070557,-0.521729,0.851074
1519424842028,-0.073975,-0.517578,0.849365
1519424842037,-0.075195,-0.519531,0.850830
1519424842062,-0.071045,-0.516846,0.852783
1519424842119,-0.074951,-0.512451,0.851318
1519424842122,-0.075195,-0.513428,0.854980
1519424842153,-0.072266,-0.516846,0.852783
1519424842185,-0.075928,-0.518066,0.849854
1519424842221,-0.074463,-0.515869,0.853760
1519424842253,-0.073975,-0.513428,0.853760
1519424842287,-0.074951,-0.516357,0.853271
1519424842321,-0.072998,-0.515381,0.850830
1519424842354,-0.080811,-0.515625,0.853271
1519424842409,-0.072021,-0.518066,0.851318
1519424842412,-0.060791,-0.520752,0.849121
1519424842470,-0.073242,-0.520020,0.852295
1519424842506,-0.080322,-0.505859,0.854492
1519424842535,-0.070068,-0.513428,0.853760
1519424842538,-0.069092,-0.519043,0.852051
1519424842595,-0.079834,-0.514893,0.849854
1519424842603,-0.076660,-0.519287,0.850342
1519424842632,-0.073486,-0.522461,0.850830
1519424842690,-0.068848,-0.515137,0.852295
1519424842723,-0.066650,-0.518555,0.853516
1519424842756,-0.068359,-0.514648,0.854004
1519424842789,-0.069336,-0.509766,0.853271
1519424842821,-0.072510,-0.516357,0.847656
1519424842853,-0.071777,-0.521973,0.852295
1519424842885,-0.080322,-0.521729,0.846191
1519424842918,-0.082275,-0.523193,0.851563
1519424842951,-0.080078,-0.519043,0.849121
1519424842984,-0.080322,-0.522461,0.848877
1519424843015,-0.091064,-0.529541,0.847168
1519424843049,-0.078613,-0.522217,0.849365
1519424843081,-0.067139,-0.516846,0.850586
1519424843123,-0.072510,-0.517578,0.854004
1519424843132,-0.068604,-0.511719,0.852539
1519424843181,-0.060547,-0.519043,0.847656
1519424843186,-0.068848,-0.523438,0.853027
1519424843216,-0.068848,-0.509766,0.853271
1519424843274,-0.067627,-0.516602,0.848633
1519424843283,-0.074707,-0.527344,0.850342
1519424843343,-0.075928,-0.521973,0.850830
1519424843351,-0.073242,-0.515137,0.853027
1519424843406,-0.076172,-0.517578,0.850342
1519424843415,-0.078613,-0.518555,0.851074
1519424843469,-0.072510,-0.523438,0.855957
1519424843482,-0.072998,-0.530029,0.849121
1519424843514,-0.077881,-0.510498,0.849854
1519424843570,-0.075928,-0.506104,0.859863
1519424843603,-0.075195,-0.512939,0.850098
1519424843609,-0.073242,-0.524170,0.847168
1519424843663,-0.070068,-0.526123,0.844727
1519424843695,-0.075195,-0.522217,0.849365
1519424843701,-0.071289,-0.516357,0.853760
1519424843763,-0.073730,-0.515869,0.852295
1519424843771,-0.069336,-0.517822,0.850098
1519424843822,-0.068604,-0.519531,0.851318
1519424843854,-0.072754,-0.515381,0.852539
1519424843863,-0.073486,-0.512695,0.851318
1519424843918,-0.075439,-0.517822,0.853027
1519424843951,-0.071533,-0.516113,0.852783
1519424843983,-0.070557,-0.512939,0.851807
1519424844016,-0.072998,-0.517578,0.854248
1519424844048,-0.078613,-0.516602,0.855225
1519424844081,-0.073975,-0.511475,0.852783
1519424844112,-0.072510,-0.511230,0.853760
1519424844145,-0.079590,-0.519287,0.853760
1519424844182,-0.072266,-0.516602,0.855469
1519424844192,-0.071045,-0.511475,0.852783
1519424844239,-0.074463,-0.510986,0.849854
1519424844273,-0.072021,-0.525635,0.851318
1519424844276,-0.074219,-0.522949,0.850830
1519424844320,-0.065674,-0.504639,0.863525
1519424844352,-0.058105,-0.492188,0.854248
1519424844385,-0.049316,-0.505859,0.859619
1519424844418,-0.095215,-0.540771,0.840820
1519424844450,-0.104492,-0.522461,0.850098
1519424844482,-0.097412,-0.495117,0.860840
1519424844515,-0.105225,-0.511963,0.850098
1519424844548,-0.094482,-0.535889,0.849365
1519424844581,-0.073486,-0.532959,0.846191
1519424844622,-0.064209,-0.517090,0.850342
1519424844656,-0.061523,-0.502441,0.860596
1519424844664,-0.056885,-0.501709,0.857422
1519424844714,-0.065430,-0.515869,0.852295
1519424844747,-0.080566,-0.519531,0.848877
1519424844780,-0.080078,-0.520264,0.854248
1519424844813,-0.075684,-0.510986,0.854492
1519424844845,-0.076172,-0.509033,0.855957
1519424844879,-0.075195,-0.507080,0.858398
1519424844909,-0.074707,-0.517578,0.851563
1519424844942,-0.075195,-0.515137,0.856445
1519424844975,-0.071777,-0.503906,0.858643
1519424845008,-0.072266,-0.512451,0.855713
1519424845040,-0.073975,-0.519287,0.853271
1519424845072,-0.076416,-0.512939,0.855225
1519424845114,-0.072998,-0.514404,0.854736
1519424845124,-0.073486,-0.508545,0.855469
1519424845156,-0.080322,-0.509033,0.855225
1519424845213,-0.075684,-0.512939,0.855469
1519424845219,-0.073975,-0.514893,0.853760
1519424845252,-0.072266,-0.512451,0.854980
1519424845310,-0.076904,-0.508057,0.854980
1519424845314,-0.077881,-0.508789,0.857178
1519424845344,-0.074951,-0.511230,0.858154
1519424845377,-0.076904,-0.515381,0.854492
1519424845410,-0.079102,-0.509033,0.856445
1519424845442,-0.080566,-0.513428,0.853271
1519424845474,-0.080566,-0.513672,0.851563
1519424845516,-0.080811,-0.513672,0.858398
1519424845547,-0.077881,-0.512939,0.854736
1519424845581,-0.080811,-0.511963,0.857178
1519424845614,-0.074707,-0.508545,0.854980
1519424845647,-0.076172,-0.511230,0.854004
1519424845683,-0.072021,-0.512695,0.854248
1519424845713,-0.075928,-0.513672,0.854004
1519424845721,-0.080078,-0.513428,0.856934
1519424845790,-0.076172,-0.506348,0.855225
1519424845798,-0.078857,-0.511963,0.855225
1519424845856,-0.079102,-0.516602,0.854248
