1519488622764,0.355713,0.613037,0.091064
1519488622823,0.486816,0.811768,0.204102
1519488622856,0.656250,0.993164,0.194092
1519488622887,0.840820,1.155029,0.216309
1519488622919,0.896729,1.290527,0.225586
1519488622953,0.835205,1.294189,0.110840
1519488622985,0.655762,1.032715,0.063477
1519488623018,0.631836,0.792480,-0.076904
1519488623062,0.750732,0.907227,-0.077881
1519488623067,0.794678,0.927734,-0.086426
1519488623100,0.661865,0.659668,-0.056152
1519488623132,0.540283,0.569580,-0.044678
1519488623164,0.426514,0.581299,-0.015869
1519488623223,0.328125,0.529541,0.019531
1519488623253,0.296875,0.562012,-0.002686
1519488623257,0.297119,0.608154,-0.033447
1519488623288,0.399902,0.717529,-0.034668
1519488623330,0.522949,1.013916,-0.027100
1519488623360,0.680420,1.179443,0.068115
1519488623393,0.849609,1.183350,0.130127
1519488623426,0.846680,1.045654,0.112793
1519488623498,0.864746,0.988770,0.111328
1519488623503,0.785156,1.061523,0.006104
1519488623566,0.641357,0.805664,-0.068359
1519488623576,0.701660,0.640381,-0.118896
1519488623634,0.918457,0.624268,-0.190674
1519488623642,0.882813,0.594482,-0.173828
1519488623701,0.845703,0.509033,-0.082520
1519488623769,0.711670,0.420898,0.016357
1519488623836,0.602295,0.371826,0.035645
1519488623845,0.499023,0.424805,0.039307
1519488623902,0.416260,0.482666,0.004150
1519488623905,0.446289,0.600342,-0.054932
1519488623970,0.482910,0.728516,0.018799
1519488623973,0.503662,0.816406,0.144287
1519488623985,0.553711,0.939941,0.217529
1519488623996,0.634766,1.051758,0.345215
1519488623999,0.664063,1.213867,0.310303
1519488624002,0.826904,1.287354,0.084473
1519488624051,0.823975,1.190186,-0.015625
1519488624084,0.685059,0.885010,-0.038086
1519488624092,0.659912,0.700928,-0.123291
1519488624128,0.699951,0.713623,-0.136719
1519488624163,0.659912,0.775635,-0.162109
1519488624195,0.584473,0.803467,-0.187012
1519488624228,0.475342,0.791748,-0.158691
1519488624285,0.363281,0.603271,-0.091309
1519488624294,0.322021,0.517334,-0.054932
1519488624341,0.319336,0.506836,-0.041260
1519488624375,0.378418,0.595459,-0.050293
1519488624383,0.467285,0.665039,-0.087402
1519488624433,0.620850,0.833740,-0.059570
1519488624465,0.798340,0.952881,-0.080811
1519488624497,1.000244,1.089355,-0.040771
1519488624531,1.124268,1.228516,0.106934
1519488624547,0.977051,1.033203,0.290771
1519488624577,0.773926,0.968750,-0.004639
1519488624609,0.558350,0.750244,-0.225098
1519488624666,0.729248,0.628906,-0.139893
1519488624699,0.836914,0.740967,-0.067139
1519488624706,0.786377,0.711914,-0.079834
1519488624765,0.718994,0.649658,-0.015137
1519488624797,0.617920,0.548584,-0.006592
1519488624802,0.497314,0.418945,-0.013916
1519488624856,0.404297,0.348877,-0.024170
1519488624865,0.392334,0.399902,-0.036621
1519488624893,0.414063,0.547852,-0.034424
1519488624952,0.542236,0.794678,-0.028564
1519488624960,0.548584,0.814941,0.003662
1519488625013,0.581787,0.910156,0.079834
1519488625046,0.673828,1.194092,0.226318
1519488625078,0.789063,1.348389,0.211182
1519488625111,0.852051,1.154541,0.048828
1519488625145,0.688721,0.932861,-0.059570
1519488625176,0.726318,0.741699,-0.134766
1519488625208,0.846680,0.791992,-0.146240
1519488625240,0.800781,0.756348,-0.190674
1519488625273,0.655273,0.727295,-0.155762
1519488625275,0.536133,0.678223,-0.111816
1519488625333,0.391113,0.423584,-0.092041
1519488625365,0.374023,0.551025,-0.070557
1519488625372,0.388184,0.553467,-0.066162
1519488625434,0.444092,0.635010,-0.094238
1519488625440,0.519287,0.711670,-0.108643
1519488625497,0.634521,0.781006,-0.097656
1519488625502,0.843262,0.916992,-0.045410
1519488625561,0.961426,0.999756,0.016602
1519488625593,1.015625,1.019287,0.151367
1519488625622,0.933838,1.037842,-0.061279
1519488625653,0.727051,0.916748,-0.200195
1519488625688,0.805176,0.800049,-0.179688
1519488625721,0.981445,0.689209,-0.110840
1519488625753,0.884033,0.553467,-0.071777
1519488625770,0.737549,0.475342,-0.013184
1519488625826,0.590088,0.489014,-0.000488
1519488625832,0.517578,0.403809,-0.025391
1519488625859,0.467041,0.363037,-0.025391
1519488625917,0.442871,0.409668,0.011719
1519488625919,0.415527,0.472656,0.010742
1519488625976,0.423096,0.596680,0.014160
1519488626010,0.538086,0.779541,0.085205
1519488626043,0.695801,0.910645,0.102539
1519488626074,0.811035,1.041504,0.169922
1519488626107,0.699707,1.133789,0.240967
1519488626140,0.585938,1.156250,0.239014
1519488626172,0.802490,1.243408,0.140381
1519488626186,0.629639,0.828613,-0.108154
1519488626244,0.796387,0.822266,-0.123535
1519488626247,0.880859,0.903076,-0.129150
1519488626303,0.810547,0.777588,-0.199707
1519488626335,0.696533,0.730957,-0.176270
1519488626340,0.573975,0.631104,-0.157227
1519488626393,0.442627,0.566406,-0.047607
1519488626427,0.400879,0.511963,-0.018799
1519488626459,0.422607,0.529297,-0.045410
1519488626491,0.478516,0.601074,-0.069092
1519488626524,0.541504,0.650879,-0.053223
1519488626557,0.664063,0.738525,-0.034668
1519488626589,0.872070,0.910156,-0.029053
1519488626603,0.964355,0.981689,-0.040283
1519488626649,0.912354,0.934570,-0.002441
1519488626682,0.794678,0.929688,0.252197
1519488626715,0.770996,0.899414,0.143066
1519488626747,0.825928,0.972412,-0.162842
1519488626780,0.833008,0.763672,-0.089844
1519488626814,0.830078,0.683105,0.068359
1519488626823,0.758545,0.597900,0.048584
1519488626875,0.565674,0.495850,0.068604
1519488626902,0.487549,0.450195,0.109375
1519488626935,0.446289,0.416016,0.083740
1519488626966,0.435791,0.438721,0.032959
1519488626998,0.432373,0.478516,0.031006
1519488627040,0.500977,0.578369,0.047363
1519488627073,0.535645,0.646240,0.088379
1519488627082,0.571533,0.725830,0.095215
1519488627136,0.696045,0.895752,0.124756
1519488627170,0.856934,1.190430,0.251953
1519488627201,0.773682,1.167236,0.285156
1519488627234,0.709961,1.012939,0.266846
1519488627267,0.624756,0.875000,0.123291
1519488627300,0.718262,0.790527,0.020996
1519488627331,0.941406,0.948975,-0.007813
1519488627364,0.946777,0.853027,-0.212646
1519488627396,0.842041,0.667969,-0.240967
1519488627409,0.699219,0.649414,-0.138916
1519488627469,0.538574,0.570801,-0.071533
1519488627478,0.456787,0.480225,0.023438
1519488627503,0.396240,0.407715,0.064697
1519488627561,0.424561,0.405762,0.072021
1519488627569,0.504639,0.432373,0.066406
1519488627603,0.638916,0.479492,0.025879
1519488627635,0.944580,0.770020,-0.033203
1519488627667,1.116211,0.972656,-0.031250
1519488627700,1.174072,1.072754,-0.047119
1519488627731,0.941162,1.029785,-0.002686
1519488627764,0.846924,0.869629,0.023926
1519488627805,0.729004,0.684814,-0.058838
1519488627844,0.725586,0.761475,-0.227539
1519488627876,0.747070,0.885010,-0.164063
1519488627909,0.793213,0.869629,-0.008545
1519488627943,0.618896,0.673828,0.077881
1519488627950,0.471924,0.557129,0.039795
1519488628001,0.395020,0.530762,0.023438
1519488628035,0.355225,0.539063,0.040039
1519488628070,0.298828,0.450439,-0.000977
1519488628084,0.357422,0.443604,-0.007813
1519488628131,0.473145,0.453613,-0.043457
1519488628183,0.532227,0.592529,-0.046631
1519488628191,0.703369,0.843750,0.009033
1519488628223,0.990234,1.096436,0.046875
1519488628255,0.951904,1.137939,0.126709
1519488628286,1.012207,1.207520,0.210693
1519488628320,0.860352,0.807373,-0.096680
1519488628351,1.137695,0.929443,-0.294434
1519488628384,1.326660,0.881104,-0.351074
1519488628416,1.063721,0.736572,-0.369141
1519488628449,0.877686,0.623291,-0.187988
1519488628522,0.690674,0.668457,-0.087402
1519488628530,0.462402,0.501709,-0.008057
1519488628588,0.374512,0.346191,0.018311
1519488628592,0.331299,0.240723,0.014893
1519488628658,0.316650,0.253418,-0.074951
1519488628726,0.331299,0.374268,-0.123047
1519488628792,0.475098,0.563721,-0.116455
1519488628797,0.915039,0.864258,-0.142334
1519488628859,1.155762,1.102783,-0.230957
1519488628866,1.152100,1.145996,-0.253174
1519488628927,0.922607,1.192139,-0.027100
1519488628936,0.678711,0.990479,0.027832
1519488628982,0.808105,0.745850,0.076660
1519488628987,1.027588,0.715576,0.015137
1519488628992,0.920654,0.691895,0.055420
1519488628997,0.753174,0.587402,0.076904
1519488629002,0.556396,0.499512,0.054443
1519488629023,0.473633,0.355713,0.038818
1519488629057,0.467529,0.315674,-0.004639
1519488629099,0.490967,0.257080,-0.066895
1519488629132,0.478027,0.321777,-0.157227
1519488629163,0.451172,0.382080,-0.090820
1519488629196,0.453613,0.564453,0.019287
1519488629230,0.572754,0.681641,0.027832
1519488629262,0.849854,0.876465,0.057129
1519488629294,1.004150,1.079590,0.113770
1519488629326,0.920166,1.498047,0.151611
1519488629357,0.878906,1.541992,0.351563
1519488629389,0.641846,0.784180,-0.034180
1519488629424,0.767090,0.759033,-0.202393
1519488629432,0.885986,0.964600,-0.312500
1519488629487,0.881836,0.875732,-0.319824
1519488629520,0.805664,0.825928,-0.206055
1519488629523,0.707031,0.624512,-0.172607
1519488629582,0.536377,0.396973,-0.138916
1519488629615,0.419922,0.331787,-0.113037
1519488629648,0.401611,0.349854,-0.177979
1519488629680,0.439697,0.456299,-0.177246
1519488629689,0.417969,0.474609,-0.141357
1519488629745,0.412598,0.551025,-0.104736
1519488629775,0.558594,0.756104,-0.113281
1519488629809,0.798828,0.926270,-0.093018
1519488629842,1.030518,1.036377,-0.059326
1519488629873,1.075195,1.113281,-0.171387
1519488629905,0.989258,1.238770,-0.083984
1519488629937,0.853271,0.991699,-0.104980
1519488629969,0.975342,0.725830,-0.211182
1519488630002,1.046875,0.723633,-0.350342
1519488630005,0.931396,0.645752,-0.362061
1519488630063,0.631592,0.538330,-0.274658
1519488630096,0.438477,0.512451,-0.234375
1519488630105,0.312744,0.504639,-0.181152
1519488630160,0.309814,0.407715,-0.098877
1519488630192,0.315918,0.328125,-0.014648
1519488630225,0.312500,0.305420,-0.041260
1519488630257,0.425049,0.442383,-0.052002
1519488630270,0.608887,0.635986,0.002930
1519488630304,0.811035,0.866211,0.052490
1519488630360,1.013672,1.175293,0.094238
1519488630391,0.940186,1.392334,0.141113
1519488630423,0.949463,1.500732,0.028320
1519488630456,0.707764,1.158203,-0.094238
1519488630462,0.625000,0.754395,-0.156982
1519488630492,0.715820,0.398438,-0.271729
1519488630549,0.821533,0.784668,-0.380127
1519488630552,0.786377,0.953613,-0.387695
1519488630609,0.674805,0.880371,-0.319092
1519488630622,0.475830,0.633057,-0.173584
1519488630655,0.416016,0.528320,-0.111328
1519488630696,0.356934,0.446289,-0.080078
1519488630743,0.357178,0.506104,-0.185547
1519488630775,0.386230,0.525635,-0.227051
1519488630807,0.458740,0.577637,-0.255859
1519488630839,0.616943,0.685547,-0.250977
1519488630871,0.856201,0.858154,-0.205566
1519488630903,1.137451,0.983887,-0.166748
1519488630938,1.347900,0.999756,-0.160156
1519488630969,1.227783,1.125732,-0.167969
1519488630974,0.870605,1.087158,-0.183838
1519488631027,0.637207,0.591797,-0.194336
1519488631035,0.845459,0.510010,-0.297119
1519488631073,0.972168,0.628906,-0.376953
1519488631130,0.883057,0.616455,-0.362549
1519488631135,0.765869,0.558350,-0.249023
1519488631190,0.641602,0.481934,-0.099854
1519488631223,0.492920,0.350586,-0.031494
1519488631254,0.443604,0.362793,-0.014404
1519488631287,0.421143,0.356445,0.024170
1519488631320,0.382324,0.353271,0.035400
1519488631353,0.337646,0.379639,-0.023193
1519488631385,0.322998,0.406006,-0.078125
1519488631416,0.420654,0.535400,-0.064453
1519488631449,0.550293,0.797607,-0.044189
1519488631452,0.767578,1.034912,-0.090332
1519488631510,0.928955,1.409912,0.018555
1519488631543,1.068359,1.584717,0.106934
1519488631552,0.959229,1.367188,-0.002930
1519488631607,0.861572,0.808105,-0.098145
1519488631637,1.045166,0.471680,-0.214844
1519488631670,1.034668,0.620361,-0.161865
1519488631704,0.797852,0.861816,-0.240479
1519488631736,0.604004,0.730957,-0.165771
1519488631769,0.465820,0.541992,-0.139648
1519488631800,0.419189,0.360107,-0.156006
1519488631833,0.388916,0.291260,-0.171387
1519488631866,0.367676,0.282471,-0.219727
1519488631880,0.391113,0.405762,-0.266602
1519488631912,0.466064,0.596191,-0.258301
1519488631970,0.589111,0.812256,-0.216309
1519488632022,0.886475,1.113037,-0.118408
1519488632027,1.133545,1.269531,-0.040771
1519488632056,1.281738,1.210938,0.019775
1519488632089,1.063721,1.010254,0.071045
1519488632119,0.765869,0.713867,-0.059570
1519488632128,0.919678,0.584473,-0.213623
1519488632185,1.026367,0.630371,-0.397461
1519488632218,0.763672,0.580078,-0.357422
1519488632251,0.564697,0.532715,-0.166260
1519488632283,0.388916,0.400391,-0.046875
1519488632296,0.312500,0.281006,-0.000732
1519488632330,0.304688,0.308105,-0.050049
1519488632385,0.345703,0.295654,-0.111816
1519488632417,0.458984,0.367188,-0.132568
1519488632453,0.566895,0.637207,-0.197510
1519488632458,0.724121,1.110596,0.023682
1519488632516,0.872803,1.431885,0.302490
1519488632549,0.817383,1.356934,0.349121
1519488632582,0.846436,1.208252,-0.104004
1519488632590,0.848877,0.984375,-0.146484
1519488632615,0.863525,0.735840,-0.235352
1519488632647,0.888428,0.786133,-0.244385
1519488632685,0.780029,0.828857,-0.172119
1519488632719,0.668701,0.736816,-0.089600
1519488632750,0.521240,0.645752,-0.083496
1519488632782,0.437744,0.464844,-0.136475
1519488632816,0.388916,0.305664,-0.214600
1519488632849,0.374023,0.347900,-0.261963
1519488632883,0.384277,0.445557,-0.255615
1519488632916,0.428955,0.581787,-0.183594
1519488632950,0.677246,0.860352,-0.159668
1519488632983,0.968018,1.019043,-0.175537
1519488633014,1.179688,1.095215,-0.141357
1519488633047,1.087891,1.034424,0.153809
1519488633079,0.853760,1.030762,0.342773
1519488633094,0.595703,0.869385,0.029785
1519488633152,0.769043,0.948486,-0.138916
1519488633182,0.987061,1.054199,-0.199219
1519488633215,0.836670,0.767090,-0.215576
1519488633247,0.586670,0.405029,-0.108887
1519488633255,0.439697,0.270508,-0.112061
1519488633301,0.365967,0.308105,-0.114990
1519488633334,0.375000,0.345947,-0.128174
1519488633368,0.395508,0.369629,-0.164307
1519488633404,0.434814,0.437012,-0.175537
1519488633437,0.492920,0.527100,-0.144043
1519488633511,0.622559,0.645264,-0.128418
1519488633519,0.841797,0.931396,-0.128418
1519488633578,0.979736,1.177246,-0.109619
1519488633587,0.937744,1.269775,-0.116699
1519488633646,0.825928,1.519775,0.376709
1519488633655,0.767090,0.916016,0.117432
1519488633711,1.046143,1.069824,-0.088623
1519488633714,1.027832,0.939941,-0.272217
1519488633778,0.751465,0.685059,-0.280273
1519488633782,0.533447,0.598633,-0.139893
1519488633847,0.407959,0.457031,-0.112793
1519488633856,0.304199,0.291748,-0.145752
1519488633914,0.286377,0.300049,-0.173584
1519488633920,0.305176,0.392090,-0.214355
1519488633983,0.375244,0.623047,-0.280273
1519488633991,0.529297,0.692627,-0.295654
1519488633999,0.786133,0.866455,-0.218994
1519488634017,1.139160,1.109375,-0.150635
1519488634049,1.437256,1.376709,0.015869
1519488634082,1.127441,1.114014,0.093506
1519488634113,0.841797,0.619873,-0.068115
1519488634146,1.245117,0.382080,-0.152832
1519488634154,1.222168,0.558838,-0.244141
1519488634210,0.872070,0.550781,-0.218018
1519488634243,0.650391,0.593018,-0.092529
1519488634275,0.452637,0.506348,-0.095215
1519488634308,0.291016,0.397949,-0.011963
1519488634341,0.248047,0.370117,-0.086182
1519488634355,0.255615,0.418457,0.019531
1519488634411,0.291992,0.369629,0.018555
1519488634444,0.318115,0.389404,0.061279
1519488634452,0.454102,0.525146,0.172852
1519488634509,0.777588,0.862549,0.433105
1519488634541,0.977051,1.187256,0.293457
1519488634583,0.951904,1.393311,0.220703
1519488634592,1.082764,1.341553,0.012939
1519488634645,0.953857,1.325928,0.034912
1519488634654,0.816895,0.870361,-0.075439
1519488634705,1.044678,0.541748,-0.245605
1519488634736,1.041748,0.829590,-0.328857
1519488634746,0.830566,0.974365,-0.223389
1519488634782,0.436768,0.859863,-0.003174
1519488634814,0.270508,0.665527,0.105225
1519488634847,0.238770,0.470947,0.130859
1519488634879,0.264893,0.305664,0.034180
1519488634911,0.379150,0.247559,-0.043945
1519488634945,0.464600,0.312744,-0.134033
1519488634976,0.644775,0.637451,-0.191895
1519488635010,0.802246,0.831299,-0.059082
1519488635042,0.964355,1.016602,0.064697
1519488635074,1.130859,1.101807,0.221924
1519488635106,1.154541,1.073730,0.251221
1519488635138,0.942627,1.166992,0.097412
1519488635179,0.628906,0.888916,-0.146240
1519488635184,0.875488,0.754639,-0.174072
1519488635242,0.992920,0.645508,-0.226318
1519488635274,0.829102,0.478760,-0.197998
1519488635280,0.690430,0.459717,-0.119629
1519488635316,0.542236,0.437744,-0.044678
1519488635374,0.380127,0.335693,0.006592
1519488635406,0.295166,0.259766,0.018799
1519488635438,0.293701,0.305176,-0.005615
1519488635447,0.378906,0.572998,-0.054932
1519488635503,0.489502,0.717285,-0.040039
1519488635536,0.630615,0.787842,-0.018555
1519488635570,0.909180,1.092285,0.024414
1519488635584,0.949219,1.389648,0.250977
1519488635615,0.943848,1.318359,0.520020
1519488635648,0.806885,1.158936,0.181152
1519488635681,0.708496,0.910400,-0.104980
1519488635713,0.819336,0.768066,-0.223877
1519488635771,0.816895,0.834717,-0.244873
1519488635776,0.712402,0.774414,-0.224365
1519488635803,0.589600,0.718262,-0.167480
1519488635837,0.465332,0.540283,-0.121338
1519488635864,0.410400,0.389648,-0.120605
1519488635920,0.381592,0.358643,-0.125732
1519488635953,0.341064,0.473389,-0.126953
1519488635987,0.364502,0.571289,-0.148193
1519488636000,0.433594,0.643799,-0.134033
1519488636057,0.744385,0.907227,-0.050781
1519488636066,1.007324,1.128174,0.038818
1519488636120,1.094482,1.285889,0.325684
1519488636153,0.916992,0.981689,0.417236
1519488636184,0.756592,0.876709,-0.153809
1519488636190,0.949463,0.886963,-0.322266
1519488636245,1.141846,0.994629,-0.281738
1519488636275,0.988281,0.818604,-0.246582
1519488636280,0.741943,0.640137,-0.136719
1519488636337,0.425537,0.445557,-0.020752
1519488636370,0.266357,0.315918,0.016113
1519488636403,0.141113,0.281494,0.006836
1519488636415,0.106445,0.284912,0.005615
1519488636448,0.127197,0.358398,-0.006836
1519488636480,0.234375,0.502441,-0.077393
1519488636514,0.614746,0.784668,-0.156006
1519488636547,0.945068,1.131348,-0.099365
1519488636603,1.060547,1.349365,0.038574
1519488636637,1.138428,1.592773,0.388428
1519488636646,0.935791,1.483887,0.309814
1519488636701,0.694336,0.989014,0.083740
1519488636733,0.874512,0.658691,-0.186279
1519488636764,0.907959,0.731201,-0.256592
1519488636773,0.776123,0.837402,-0.309082
1519488636829,0.579102,0.803467,-0.245361
1519488636835,0.424805,0.655762,-0.144043
1519488636862,0.313477,0.445313,-0.096924
1519488636895,0.272217,0.272705,-0.061035
1519488636928,0.268066,0.296387,-0.025635
1519488636961,0.325928,0.438232,-0.074707
1519488637018,0.494141,0.651367,-0.121582
1519488637051,0.660645,0.818848,-0.097412
1519488637059,0.906982,1.046875,-0.075195
1519488637115,1.101563,1.237061,0.107910
1519488637144,1.067871,1.155029,0.354980
1519488637175,0.922363,1.061035,0.208740
1519488637206,0.639893,0.794678,-0.233154
1519488637211,0.918701,0.842773,-0.247314
1519488637273,1.143066,0.821045,-0.285400
1519488637304,0.869873,0.545654,-0.237305
1519488637310,0.660156,0.463379,-0.106201
1519488637366,0.442627,0.454590,-0.032715
1519488637399,0.234863,0.358154,-0.013428
1519488637430,0.206299,0.333984,0.039307
1519488637463,0.222412,0.340088,0.041016
1519488637497,0.354736,0.517578,-0.056641
1519488637528,0.513184,0.716553,-0.104980
1519488637561,0.690918,0.878418,-0.093262
1519488637593,1.007080,1.144531,0.083252
1519488637626,0.964111,1.512939,0.512207
1519488637635,0.857666,1.267334,0.448242
1519488637684,0.623535,1.014404,-0.020508
1519488637718,0.600342,0.895264,-0.205322
1519488637728,0.795898,0.915283,-0.215088
1519488637780,0.829834,0.955811,-0.343994
1519488637813,0.652832,0.811279,-0.303711
1519488637845,0.509277,0.751221,-0.240967
1519488637878,0.413086,0.600342,-0.100830
1519488637910,0.381836,0.410889,-0.060791
1519488637943,0.365967,0.282227,-0.059326
1519488637976,0.388184,0.354004,-0.086426
1519488638009,0.439453,0.495117,-0.121338
1519488638042,0.522461,0.749023,-0.105713
1519488638072,0.732178,0.952881,-0.061035
1519488638106,1.015381,1.100830,0.126709
1519488638140,1.258057,1.219238,0.164063
1519488638172,0.983887,1.273682,-0.164063
1519488638204,0.566406,0.868408,-0.281006
1519488638213,0.766846,0.659668,-0.174316
1519488638265,0.992188,0.711426,-0.237061
1519488638298,0.839111,0.606934,-0.265381
1519488638306,0.677734,0.661377,-0.195068
1519488638362,0.487549,0.608398,-0.054688
1519488638393,0.391602,0.526123,-0.021973
1519488638421,0.339111,0.438721,0.032959
1519488638453,0.295166,0.350830,-0.015869
1519488638525,0.305664,0.333984,-0.061279
1519488638534,0.399902,0.482422,-0.061279
1519488638591,0.605469,0.659424,0.035156
1519488638594,0.791260,0.894043,0.180664
1519488638660,0.978271,1.289795,0.143555
1519488638668,1.093994,1.413818,-0.025635
1519488638728,1.026855,1.377197,-0.061523
1519488638736,0.768555,0.993652,-0.097168
1519488638794,0.734619,0.583008,-0.291504
1519488638799,0.724365,0.755127,-0.293701
1519488638863,0.656494,0.934326,-0.267578
1519488638870,0.626221,0.975342,-0.193604
1519488638929,0.489746,0.786133,-0.156494
1519488638932,0.382080,0.517822,-0.062988
1519488638981,0.326172,0.266113,-0.005127
1519488638983,0.326660,0.131592,-0.009521
1519488638997,0.371094,0.329834,-0.049805
1519488639030,0.512695,0.604492,-0.151367
1519488639064,0.671875,0.744873,-0.142578
1519488639096,0.914551,0.936035,-0.075195
1519488639129,1.156982,1.249756,0.035156
1519488639160,1.184326,1.194824,0.049072
1519488639195,0.941406,1.071045,-0.096924
1519488639228,0.636230,0.757568,-0.250732
1519488639259,0.871094,0.662842,-0.120117
1519488639292,1.018799,0.679932,-0.253662
1519488639325,0.804443,0.572998,-0.312988
1519488639359,0.610107,0.563965,-0.138428
1519488639367,0.470947,0.483398,-0.027588
1519488639424,0.281250,0.385010,0.038330
1519488639432,0.276367,0.380127,0.047607
1519488639488,0.324951,0.436035,-0.047607
1519488639522,0.447021,0.496826,-0.059814
1519488639554,0.553955,0.590820,0.089355
1519488639586,0.753906,0.838623,0.250244
1519488639619,1.000488,1.332031,0.080566
1519488639652,0.960938,1.356934,0.110840
1519488639703,0.998047,1.279053,-0.015137
1519488639710,0.729736,1.042725,-0.128906
1519488639737,0.589844,0.760742,-0.240234
1519488639768,0.704834,0.672852,-0.266357
1519488639800,0.744873,0.848877,-0.250000
1519488639832,0.627197,0.907227,-0.259033
1519488639865,0.460938,0.745850,-0.185303
1519488639898,0.377686,0.381104,-0.048096
1519488639931,0.341064,0.270752,-0.019287
1519488639962,0.327148,0.337891,-0.077393
1519488639995,0.431152,0.490967,-0.186279
1519488640029,0.515625,0.601807,-0.223877
1519488640062,0.685059,0.863770,-0.173584
1519488640094,0.941650,1.076904,-0.080322
1519488640126,1.153809,1.244629,0.093750
1519488640163,1.076660,1.173584,0.047119
1519488640195,0.821777,1.001465,-0.130615
1519488640228,0.773438,0.811768,-0.248535
1519488640261,1.003662,0.722412,-0.246094
1519488640292,1.087646,0.649902,-0.286621
1519488640324,0.828369,0.536621,-0.256592
1519488640332,0.572021,0.524414,-0.131104
1519488640389,0.302979,0.458008,-0.022461
1519488640419,0.201416,0.409668,0.029297
1519488640426,0.176025,0.381592,0.012207
1519488640485,0.245850,0.406738,-0.025146
1519488640518,0.367920,0.464355,0.004639
1519488640549,0.560303,0.586182,0.042480
1519488640583,0.850830,0.846191,0.046387
1519488640615,1.051514,1.198730,0.013428
1519488640648,1.039795,1.364014,0.260010
1519488640681,0.938965,1.495117,0.230713
1519488640713,0.558350,1.006104,-0.068848
1519488640746,0.668701,0.827637,-0.305664
1519488640778,0.889648,0.861328,-0.242920
1519488640809,0.756104,0.834473,-0.229980
1519488640815,0.618652,0.844482,-0.190430
1519488640872,0.411133,0.613525,-0.020264
1519488640905,0.371582,0.369141,0.014404
1519488640918,0.326660,0.222412,-0.015625
1519488640981,0.333740,0.359375,-0.071045
1519488640985,0.385986,0.406494,-0.154053
1519488641015,0.489746,0.604248,-0.151611
1519488641075,0.785889,0.915039,-0.035645
1519488641084,1.089600,1.163086,0.066895
1519488641112,1.255371,1.170410,0.088623
1519488641144,1.034180,0.966797,0.203369
1519488641203,0.642334,0.868652,0.000488
1519488641236,0.714111,0.762939,-0.285889
1519488641245,1.102783,0.993652,-0.322021
1519488641300,1.090332,0.846436,-0.372314
1519488641313,0.857178,0.643799,-0.284180
1519488641343,0.469971,0.502930,-0.087402
1519488641400,0.272949,0.422363,-0.052490
1519488641403,0.250244,0.346924,0.019531
1519488641459,0.229004,0.273193,0.030518
1519488641493,0.211182,0.240723,0.036621
1519488641497,0.229492,0.344727,-0.033447
1519488641526,0.502930,0.706543,-0.010254
1519488641585,0.783203,0.916992,-0.030518
1519488641618,1.100342,1.228027,-0.019775
1519488641627,1.049805,1.398193,0.379150
1519488641681,0.967041,0.997559,0.509766
1519488641714,0.807373,1.012939,0.083496
1519488641728,0.680420,0.776855,-0.132568
1519488641760,0.971680,0.816650,-0.260986
1519488641817,1.006104,0.940430,-0.319580
1519488641823,0.828857,0.856689,-0.403320
1519488641878,0.610352,0.821533,-0.357422
1519488641882,0.443359,0.658203,-0.249756
1519488641937,0.333008,0.382568,-0.132813
1519488641942,0.313477,0.273193,-0.146729
1519488641996,0.306641,0.239502,-0.168457
1519488642029,0.419922,0.353760,-0.169189
1519488642062,0.563965,0.529541,-0.174805
1519488642072,0.769043,0.709473,-0.184814
1519488642129,1.107666,1.038574,-0.179199
1519488642163,1.288086,1.281738,-0.159668
1519488642194,1.080811,1.152832,-0.117188
1519488642227,0.685303,0.965088,0.005127
1519488642263,0.636719,0.924561,-0.139160
1519488642295,0.867188,0.903564,-0.245117
1519488642326,1.028809,0.869873,-0.141602
1519488642358,0.840332,0.612305,-0.176270
1519488642362,0.558350,0.463135,-0.153076
1519488642417,0.257324,0.399414,-0.086426
1519488642450,0.249268,0.333984,-0.104736
1519488642452,0.344971,0.276855,-0.162842
1519488642513,0.430664,0.299805,-0.224609
1519488642521,0.463135,0.321777,-0.148193
1519488642577,0.483154,0.320801,-0.038086
1519488642610,0.794922,0.662109,0.003662
1519488642619,1.013428,1.019775,-0.050781
1519488642675,1.001709,1.317383,-0.051758
1519488642707,1.187988,1.833740,0.138184
1519488642740,0.812744,1.139160,0.016846
1519488642773,0.854004,0.513428,-0.216064
1519488642804,1.063477,0.504639,-0.270996
1519488642837,0.969727,0.808350,-0.400879
1519488642870,0.779297,0.934570,-0.331787
1519488642901,0.555420,0.734863,-0.167236
1519488642942,0.408691,0.468750,-0.080078
1519488642946,0.288574,0.327637,-0.056885
1519488643001,0.249756,0.165283,-0.134033
1519488643005,0.196045,0.222656,-0.157959
1519488643040,0.218750,0.558105,-0.262451
1519488643098,0.634521,0.781982,-0.372070
1519488643107,1.050049,0.824951,-0.323486
1519488643162,1.415771,0.954834,-0.106934
1519488643194,1.427979,1.068115,0.158447
1519488643226,1.113037,1.081543,0.172363
1519488643235,0.632813,0.746582,-0.120850
1519488643290,0.971191,0.587646,-0.264404
1519488643323,1.125977,0.756348,-0.441406
1519488643336,0.825439,0.775391,-0.481445
1519488643399,0.547119,0.444580,-0.281006
1519488643425,0.419922,0.354492,-0.191895
1519488643433,0.281738,0.322266,-0.095703
1519488643501,0.236084,0.333252,-0.015869
1519488643509,0.249512,0.270508,-0.008057
1519488643567,0.368652,0.323242,-0.024414
1519488643571,0.672852,0.651123,0.005615
1519488643636,0.904053,0.987305,0.140381
1519488643640,1.143066,1.385254,0.104980
1519488643704,0.999512,1.366211,-0.072998
1519488643712,1.070801,1.249512,-0.256104
1519488643772,0.884521,1.041504,-0.264404
1519488643839,0.789063,0.495361,-0.364746
1519488643907,0.869385,0.564453,-0.420654
1519488643916,0.841064,0.665527,-0.388428
1519488643973,0.684326,0.847656,-0.296875
1519488643981,0.536133,0.814453,-0.191650
1519488644007,0.387451,0.565430,-0.074463
1519488644011,0.239502,0.237061,-0.050049
1519488644015,0.254883,0.194336,-0.059082
1519488644020,0.308105,0.328857,-0.112061
1519488644069,0.508789,0.547852,-0.230713
1519488644072,0.733398,0.785889,-0.166748
1519488644104,1.073730,1.149414,-0.052979
1519488644137,1.257080,1.387207,0.058838
1519488644169,1.057861,1.033447,0.053467
1519488644203,0.806885,0.958740,-0.232910
1519488644235,0.858887,0.749512,-0.497070
1519488644268,1.115723,0.778809,-0.488770
1519488644300,1.042480,0.793457,-0.455078
1519488644332,0.648193,0.454102,-0.181885
1519488644389,0.371094,0.313965,0.015137
1519488644395,0.239502,0.269531,0.055420
1519488644447,0.212402,0.185547,0.051270
1519488644484,0.281494,0.260742,-0.023682
1519488644490,0.384033,0.401855,-0.113281
1519488644539,0.564941,0.580078,-0.078857
1519488644571,0.792969,0.798096,-0.021973
1519488644604,1.004395,1.143555,0.006836
1519488644645,0.923096,1.463379,0.466553
1519488644651,1.004883,1.250488,0.110596
1519488644679,0.802979,1.146973,-0.262695
1519488644738,0.802246,0.780029,-0.438721
1519488644770,0.884521,0.773193,-0.368408
1519488644822,0.744629,0.762939,-0.217285
1519488644827,0.574463,0.861328,-0.103027
1519488644856,0.443848,0.728760,-0.071533
1519488644889,0.342773,0.467041,-0.064453
1519488644920,0.276367,0.309082,-0.068359
1519488644953,0.270264,0.309326,-0.091553
1519488644965,0.311768,0.399414,-0.138672
1519488645020,0.508057,0.630371,-0.241455
1519488645053,0.708496,0.918457,-0.218262
1519488645061,1.000244,1.198730,-0.184570
1519488645116,1.183350,1.330322,0.021729
1519488645149,1.074219,1.143799,0.062012
1519488645183,0.708008,0.815430,-0.199219
1519488645215,0.854736,0.766602,-0.191895
1519488645247,1.114990,0.718018,-0.307617
1519488645279,0.946045,0.654053,-0.348389
1519488645312,0.660645,0.572266,-0.047363
1519488645345,0.486572,0.456787,0.000977
1519488645378,0.371826,0.329346,-0.026611
1519488645409,0.292725,0.168213,0.012451
1519488645425,0.297363,0.229492,-0.036377
1519488645482,0.336182,0.436523,-0.089600
1519488645514,0.512451,0.785645,-0.055420
1519488645547,0.742676,0.933105,-0.043945
1519488645553,0.958984,1.292969,0.092041
1519488645606,1.134277,1.426758,0.082275
1519488645639,1.135010,1.483398,-0.073730
1519488645644,0.963867,0.970215,-0.134277
1519488645698,0.836670,0.551514,-0.273682
1519488645730,0.719971,0.669678,-0.310547
1519488645763,0.625000,0.835693,-0.200928
1519488645795,0.605469,0.817871,-0.038818
1519488645827,0.503662,0.518066,-0.000488
1519488645841,0.404785,0.333252,-0.038574
1519488645899,0.293701,0.336670,-0.045410
1519488645931,0.233398,0.407471,-0.113525
1519488645967,0.261963,0.615967,-0.175537
1519488646000,0.578613,0.907959,-0.277832
1519488646006,0.880615,1.064941,-0.223145
1519488646062,1.176025,1.000732,-0.009766
1519488646103,1.210938,0.978760,0.150146
1519488646108,0.980957,1.053711,-0.036865
1519488646140,0.695068,0.856201,-0.269775
1519488646174,0.837646,0.750000,-0.294434
1519488646205,1.034180,0.837646,-0.381836
1519488646239,0.909424,0.765137,-0.316406
1519488646280,0.660645,0.480469,-0.136719
1519488646313,0.471924,0.420898,-0.046631
1519488646345,0.357178,0.297119,0.003906
1519488646378,0.250977,0.216553,0.023682
1519488646409,0.237793,0.287354,-0.012695
1519488646442,0.287109,0.417725,-0.083984
1519488646474,0.537109,0.755615,-0.106201
1519488646507,0.791016,0.925537,-0.050781
1519488646513,1.043457,1.160889,0.032715
1519488646566,1.011963,1.317871,0.161133
1519488646598,1.048096,1.103516,0.115234
1519488646604,0.864258,1.238525,0.043457
1519488646662,0.756348,0.702393,-0.142334
1519488646694,0.842041,0.690430,-0.228027
1519488646727,0.776611,0.931152,-0.195068
1519488646759,0.569824,0.797607,-0.157227
1519488646793,0.433838,0.628418,-0.102295
1519488646824,0.374512,0.376465,-0.101318
1519488646857,0.303467,0.293945,-0.130615
1519488646889,0.314697,0.317871,-0.186279
1519488646926,0.379150,0.439941,-0.210449
1519488646958,0.558105,0.713135,-0.209473
1519488646991,0.860596,0.929932,-0.027100
1519488646997,1.121094,1.127197,0.079346
1519488647052,1.211182,1.137695,0.020264
1519488647069,1.072754,0.976074,0.097900
1519488647094,0.756836,0.954346,-0.152100
1519488647151,0.682373,0.816162,-0.348389
1519488647154,0.938477,0.905273,-0.365479
1519488647210,0.952881,0.804443,-0.317383
1519488647243,0.702148,0.537109,-0.091309
1519488647276,0.574951,0.505371,0.032227
1519488647308,0.453125,0.324463,0.091797
1519488647341,0.273682,0.110352,0.017334
1519488647382,0.189209,0.166992,-0.051270
1519488647388,0.221924,0.319336,-0.122803
1519488647420,0.445313,0.692871,-0.154541
1519488647453,0.649902,0.937500,-0.121094
1519488647486,0.975586,1.130859,-0.117432
1519488647544,1.073975,1.491943,0.062012
1519488647576,1.092529,1.463379,0.343262
1519488647580,0.871338,1.304932,0.271240
1519488647635,0.694580,0.754883,-0.170898
1519488647668,0.803223,0.770020,-0.294678
1519488647676,0.714844,0.876221,-0.298584
1519488647725,0.504395,0.700439,-0.165039
1519488647758,0.421875,0.593994,-0.114258
1519488647790,0.358887,0.480713,-0.048828
1519488647824,0.344727,0.288330,-0.092041
1519488647856,0.382324,0.357422,-0.139648
1519488647867,0.419434,0.406738,-0.212891
1519488647905,0.527344,0.653564,-0.237305
1519488647937,0.729004,0.841797,-0.115479
1519488647969,0.964111,0.959229,-0.192383
1519488648003,1.123047,1.208740,-0.141602
1519488648036,1.168701,1.335449,0.189941
1519488648068,0.837158,1.002686,0.169189
1519488648100,0.720947,0.751221,-0.187988
1519488648157,0.998047,0.808594,-0.250732
1519488648160,1.077881,0.770264,-0.306641
1519488648191,0.786133,0.509277,-0.176514
1519488648247,0.522705,0.432617,-0.087158
1519488648254,0.378174,0.343262,-0.015137
1519488648282,0.299072,0.195313,-0.037842
1519488648340,0.280518,0.237793,-0.072754
1519488648373,0.295166,0.332520,-0.045410
1519488648405,0.477539,0.603516,-0.017334
1519488648437,0.600830,0.745850,-0.000244
1519488648510,0.758057,0.940186,0.008057
1519488648518,0.982910,1.306152,0.019531
1519488648579,0.927002,1.639893,0.089844
1519488648587,1.074463,1.478271,0.129639
1519488648644,0.701904,1.078125,-0.040039
1519488648647,0.627197,0.643311,-0.196045
1519488648715,0.752686,0.679932,-0.211426
1519488648718,0.692627,0.821045,-0.195801
1519488648780,0.638428,0.761719,-0.178467
1519488648789,0.501465,0.705566,-0.135742
1519488648847,0.395508,0.473877,-0.126709
1519488648852,0.361084,0.322266,-0.106689
1519488648915,0.360352,0.378906,-0.034424
1519488648923,0.387451,0.354248,-0.101318
1519488648982,0.507080,0.520264,-0.191162
1519488648987,0.722900,0.931396,-0.187500
1519488649014,1.015625,1.163818,-0.204346
1519488649022,1.095947,1.174316,-0.115723
1519488649048,1.105469,1.088867,-0.035645
1519488649081,0.860840,1.024902,-0.008057
1519488649113,0.644775,0.802979,0.004395
1519488649121,0.843018,0.799805,-0.089111
1519488649182,1.006836,0.832764,-0.249756
1519488649186,0.785645,0.571777,-0.206543
1519488649218,0.566406,0.385010,-0.118408
1519488649274,0.346191,0.365723,-0.003906
1519488649277,0.264160,0.332764,-0.047607
1519488649336,0.239746,0.245361,-0.105957
1519488649370,0.344482,0.326660,-0.131836
1519488649401,0.496094,0.547119,-0.156982
1519488649433,0.606934,0.665527,-0.189209
1519488649466,0.762451,0.870361,-0.081787
1519488649498,0.980225,1.132568,-0.048584
1519488649532,1.029053,1.405762,0.032959
1519488649545,0.973389,1.644531,0.113037
1519488649603,0.753174,1.397949,0.217773
1519488649611,0.588135,0.662842,0.037109
1519488649665,0.673340,0.612793,-0.197510
1519488649700,0.675781,0.781982,-0.235352
1519488649705,0.628174,0.863525,-0.241211
1519488649757,0.497803,0.764893,-0.162354
1519488649762,0.393311,0.642578,-0.094971
1519488649799,0.302490,0.509766,0.000488
1519488649856,0.295410,0.390869,-0.044434
1519488649862,0.337402,0.393799,-0.180664
1519488649915,0.387451,0.551270,-0.201660
1519488649942,0.571289,0.717041,-0.255615
1519488649983,0.757813,0.914307,-0.259521
1519488649990,0.946533,1.079346,-0.247559
1519488650048,1.121338,1.233154,-0.191406
1519488650083,1.133301,1.186279,-0.152344
1519488650111,0.835938,1.021240,-0.077393
1519488650144,0.678955,0.778564,0.070313
1519488650177,0.848877,0.667236,-0.139160
1519488650182,0.889160,0.655518,-0.295898
1519488650236,0.722656,0.548828,-0.292725
1519488650269,0.653076,0.483643,-0.191162
1519488650277,0.527100,0.408203,-0.091309
1519488650332,0.369141,0.245605,-0.007324
1519488650365,0.346924,0.137695,-0.027344
1519488650379,0.351807,0.171631,-0.066650
1519488650412,0.406250,0.520020,-0.115967
1519488650444,0.555176,0.837402,-0.088379
1519488650476,0.763672,1.000977,-0.083008
1519488650508,0.968018,1.549072,0.174805
1519488650566,1.106689,1.631592,0.301758
1519488650602,1.136475,1.345215,0.003662
1519488650611,0.844482,0.866455,-0.031494
1519488650661,0.704834,0.445068,-0.236572
1519488650694,0.714111,0.463135,-0.251465
1519488650727,0.646484,0.732910,-0.289063
1519488650730,0.521240,0.945068,-0.211670
1519488650764,0.436523,0.838867,-0.108887
1519488650822,0.352295,0.558350,-0.008301
1519488650830,0.362061,0.343018,-0.053467
1519488650856,0.351563,0.317139,-0.095459
1519488650914,0.348877,0.433838,-0.164551
1519488650946,0.489746,0.553467,-0.166260
1519488650978,0.648438,0.726074,-0.144531
1519488650994,1.036377,1.073730,-0.133545
1519488651028,1.159912,1.192383,-0.114746
1519488651061,1.062012,1.255859,0.075684
1519488651094,0.739258,1.190186,0.263184
1519488651125,0.590576,0.897461,-0.113281
1519488651158,0.866699,0.815918,-0.299316
1519488651190,1.071045,0.816162,-0.353516
1519488651223,0.816406,0.670166,-0.294189
1519488651255,0.625000,0.570313,-0.190918
1519488651313,0.362305,0.406494,-0.057861
1519488651317,0.299072,0.256836,-0.041748
1519488651344,0.226074,0.209229,-0.024414
1519488651377,0.237061,0.225098,-0.121094
1519488651411,0.317139,0.362793,-0.213379
1519488651444,0.442871,0.530518,-0.222168
1519488651475,0.734619,1.099609,0.217041
1519488651507,1.104736,1.441650,0.554688
1519488651541,1.169922,1.299072,0.183594
1519488651575,1.188232,1.205566,-0.119141
1519488651607,0.927734,1.130127,-0.235107
1519488651639,0.613037,0.781494,-0.260986
1519488651671,0.851318,0.509033,-0.285156
1519488651703,0.774902,0.762695,-0.274170
1519488651739,0.660889,0.947754,-0.247803
1519488651771,0.430664,0.731689,-0.097656
1519488651805,0.324707,0.554199,0.001465
1519488651838,0.266846,0.478027,0.057373
1519488651870,0.264160,0.402588,0.032959
1519488651902,0.318115,0.434326,-0.063477
1519488651935,0.471436,0.626709,-0.148193
1519488651967,0.688477,0.856445,-0.181396
1519488651999,0.835205,0.947266,-0.209717
1519488652017,0.981689,1.059814,-0.180420
1519488652074,1.056885,1.060547,-0.115234
1519488652105,1.042236,1.013916,-0.062988
1519488652138,0.765137,1.007080,0.079102
1519488652171,0.738525,0.713623,-0.135010
1519488652203,1.013184,0.737793,-0.269287
1519488652234,1.079590,0.739502,-0.273193
1519488652268,0.725342,0.538330,-0.138916
1519488652299,0.460449,0.463867,-0.034424
1519488652302,0.295654,0.358643,0.036865
1519488652359,0.233887,0.258789,0.039795
1519488652392,0.241699,0.254395,-0.020508
1519488652401,0.346680,0.440430,-0.063721
1519488652462,0.548584,0.716064,-0.076660
1519488652466,0.678955,0.852295,-0.003418
1519488652502,0.922119,1.020508,0.046875
1519488652535,0.979980,1.369873,0.156982
1519488652593,1.031738,1.502441,0.145508
1519488652603,0.847900,1.266357,0.072754
1519488652654,0.666748,0.773193,-0.241943
1519488652687,0.790527,0.738525,-0.280518
1519488652700,0.751953,0.794678,-0.312500
1519488652757,0.588623,0.777344,-0.219727
1519488652789,0.472168,0.693115,-0.059814
1519488652798,0.359619,0.406738,-0.061279
1519488652851,0.307373,0.409912,-0.034180
1519488652865,0.298096,0.389893,-0.045898
1519488652899,0.338135,0.479736,-0.089844
1519488652932,0.441162,0.630859,-0.156494
1519488652963,0.602539,0.864502,-0.132324
1519488652996,0.786621,0.998047,-0.155273
1519488653029,0.950928,1.081299,-0.136963
1519488653061,0.970947,1.125977,-0.068604
1519488653095,0.984619,1.347168,0.206055
1519488653126,0.568848,0.927246,0.188232
1519488653160,0.582764,0.709961,-0.077393
1519488653169,0.893799,0.764648,-0.245850
1519488653223,1.033447,0.710693,-0.295166
1519488653256,0.829102,0.484619,-0.202881
1519488653268,0.620850,0.422119,-0.095459
1519488653325,0.397705,0.364502,0.002686
1519488653330,0.274170,0.378662,0.008545
1519488653388,0.210205,0.338867,-0.015137
1519488653422,0.264404,0.403076,-0.026611
1519488653432,0.427246,0.612061,-0.038330
1519488653524,0.658447,0.866455,-0.071533
1519488653532,0.913086,0.937012,-0.093506
1519488653590,0.989746,1.231201,-0.021973
1519488653595,0.921143,1.508301,0.213379
1519488653660,0.947510,1.305908,0.106689
1519488653729,0.799561,0.952637,-0.078613
1519488653794,0.807129,0.647461,-0.204834
1519488653804,0.799561,0.719238,-0.293457
1519488653860,0.706543,0.769531,-0.280762
1519488653863,0.560303,0.774414,-0.154053
1519488653929,0.390137,0.633057,-0.059326
1519488653938,0.322021,0.479004,-0.012451
1519488653996,0.297363,0.371338,-0.007324
1519488654001,0.382568,0.501221,-0.061768
1519488654008,0.492188,0.601318,-0.104980
1519488654014,0.684814,0.675781,-0.125732
1519488654017,0.919434,0.848633,-0.161621
1519488654020,0.983643,0.953369,-0.128662
1519488654044,1.010010,0.919922,-0.092041
1519488654077,0.915039,0.989502,-0.067383
1519488654119,0.716797,0.880859,-0.048584
1519488654152,0.766846,0.819336,-0.062500
1519488654184,1.202637,0.960205,-0.182129
1519488654217,1.140625,0.905518,-0.151367
1519488654249,0.863525,0.674561,-0.041016
1519488654281,0.482422,0.502441,0.036621
1519488654314,0.289063,0.287598,0.052246
1519488654345,0.186279,0.150146,0.069092
1519488654378,0.183105,0.172852,0.064453
1519488654410,0.278076,0.312256,0.058350
1519488654442,0.468506,0.546631,0.045166
1519488654475,0.780273,0.773682,0.053223
1519488654492,1.054443,0.970947,0.092529
1519488654549,1.148438,1.158936,0.217773
1519488654582,1.156250,1.308594,0.299072
1519488654614,0.947998,1.329346,0.364990
1519488654623,0.658203,0.974121,0.261963
1519488654681,0.607178,0.674805,-0.043945
1519488654715,0.736572,0.775879,-0.059326
1519488654747,0.690674,0.776123,-0.146973
1519488654778,0.567383,0.716553,-0.160156
1519488654811,0.444092,0.633789,-0.123291
1519488654843,0.370605,0.498779,-0.126709
1519488654875,0.345703,0.443848,-0.039551
1519488654888,0.358398,0.516113,0.106689
1519488654936,0.433105,0.582764,0.078125
1519488654979,0.562744,0.708252,0.013184
1519488654996,0.755615,0.788818,-0.019531
1519488655027,1.027344,1.058838,0.008545
1519488655061,1.114014,1.103271,-0.061768
1519488655095,1.004150,1.002686,-0.024902
1519488655127,0.890625,0.997559,0.077637
1519488655160,0.671387,0.822266,-0.037842
1519488655193,0.852539,0.739258,-0.187500
1519488655225,0.976563,0.797119,-0.220459
1519488655256,0.790039,0.622314,-0.188965
1519488655289,0.639404,0.590576,-0.097168
1519488655305,0.489990,0.440430,-0.049072
1519488655363,0.348145,0.306641,-0.018066
1519488655371,0.296387,0.268311,-0.016357
1519488655420,0.324951,0.270996,-0.026855
1519488655453,0.449951,0.473633,-0.041016
1519488655460,0.545898,0.691406,-0.031250
1519488655511,0.700439,0.898193,0.000244
1519488655544,0.972656,1.212646,0.130859
1519488655577,0.950928,1.346436,0.361328
1519488655586,0.969971,1.234131,0.293945
1519488655643,0.980957,1.420166,0.063232
1519488655676,0.775391,0.783203,-0.048828
1519488655709,0.656738,0.520996,-0.195068
1519488655723,0.671875,0.657715,-0.239258
1519488655780,0.710938,0.808594,-0.177979
1519488655789,0.674561,0.932617,-0.057617
1519488655841,0.535889,0.674072,-0.049072
1519488655874,0.394043,0.425293,-0.032227
1519488655880,0.349365,0.276611,-0.056396
1519488655934,0.334229,0.311523,-0.114990
1519488655938,0.428223,0.373779,-0.210938
1519488655970,0.636475,0.604980,-0.235107
1519488656027,0.951904,1.016357,-0.119385
1519488656034,1.141357,1.184326,-0.048584
1519488656091,1.147705,1.077881,0.030762
1519488656125,0.990234,0.971924,0.114014
1519488656139,0.708008,0.922119,0.109619
1519488656172,0.677734,0.882324,0.144043
1519488656205,1.051758,0.829346,-0.075439
1519488656237,1.016357,0.702393,-0.039551
1519488656270,0.785400,0.695313,0.010498
1519488656343,0.522461,0.533447,0.009277
1519488656351,0.360107,0.376221,-0.028564
1519488656377,0.277344,0.254883,0.005859
1519488656410,0.272705,0.185303,-0.010498
1519488656441,0.353516,0.322754,-0.001709
1519488656473,0.457275,0.434570,0.047852
1519488656505,0.650879,0.696777,0.000977
1519488656537,0.849365,1.042236,-0.024414
1519488656551,1.010498,1.113770,0.081543
1519488656609,0.940674,1.254395,0.231934
1519488656615,0.946533,1.486084,0.292725
1519488656673,0.735596,1.339355,0.329590
1519488656707,0.562744,0.730957,0.131348
1519488656739,0.643799,0.663574,0.039307
1519488656772,0.625000,0.725830,-0.002197
1519488656804,0.546875,0.754150,-0.002930
1519488656835,0.454590,0.722412,0.005859
1519488656868,0.399902,0.595703,0.050049
1519488656901,0.324219,0.481445,0.062744
1519488656934,0.283936,0.512939,-0.001221
1519488656942,0.335693,0.553955,-0.003418
1519488656992,0.542725,0.684326,0.039063
1519488657024,0.718018,0.921387,0.135254
1519488657030,0.907471,1.099609,0.206299
1519488657088,0.974609,1.144287,0.214600
1519488657121,0.963623,1.096436,0.200439
1519488657154,0.905273,1.174072,0.222412
1519488657187,0.605713,0.821045,-0.005371
1519488657219,0.785400,0.640137,-0.037109
1519488657251,0.947021,0.661865,0.045654
1519488657284,0.799561,0.608643,0.112305
1519488657317,0.672119,0.517822,0.122803
1519488657348,0.505371,0.425049,0.119873
1519488657381,0.328613,0.350586,0.052002
1519488657395,0.269287,0.416992,0.004883
1519488657453,0.269775,0.380371,0.011963
1519488657484,0.383789,0.601807,-0.050537
1519488657516,0.518311,0.651611,0.017822
1519488657519,0.660400,0.783203,0.152832
1519488657551,0.893311,1.106201,0.361816
1519488657583,0.878662,1.370850,0.398682
1519488657621,0.962158,1.338379,0.078369
1519488657654,0.740479,1.357666,-0.155518
1519488657686,0.662109,0.983154,-0.164063
1519488657719,0.725830,0.554932,-0.199951
1519488657751,0.754150,0.652832,-0.200928
1519488657784,0.788086,0.715088,-0.013672
1519488657825,0.574463,0.755371,0.021973
1519488657857,0.468018,0.682373,-0.083008
1519488657889,0.365967,0.498047,-0.015869
1519488657895,0.322021,0.376221,-0.034912
1519488657954,0.314941,0.374756,-0.032715
1519488657986,0.360596,0.537109,-0.139893
1519488657994,0.529785,0.675049,-0.116455
1519488658049,0.813477,0.952148,-0.199951
1519488658082,1.035156,1.147217,-0.157471
1519488658114,1.170654,1.237305,-0.120605
1519488658148,1.132324,1.102295,-0.191895
1519488658180,0.892578,1.173340,0.103027
1519488658214,0.689697,0.817383,-0.019043
1519488658227,1.040527,0.657959,-0.296631
1519488658285,1.031494,0.497314,-0.274902
1519488658317,0.865479,0.384521,-0.207764
1519488658349,0.620117,0.399170,-0.151123
1519488658382,0.507813,0.376953,-0.041504
1519488658415,0.398438,0.343750,-0.026123
1519488658447,0.269531,0.288574,-0.033691
1519488658517,0.272461,0.363770,-0.047119
1519488658520,0.380371,0.515869,-0.077881
1519488658586,0.562012,0.746826,-0.045898
1519488658595,0.758057,0.956055,0.069336
1519488658653,0.901611,1.023193,-0.296631
1519488658656,0.839355,1.225098,-0.067871
1519488658720,0.935791,1.292725,-0.366699
1519488658723,0.850098,1.386719,-0.424561
1519488658787,0.769775,0.837158,-0.334717
1519488658791,0.888672,0.565430,-0.267334
1519488658857,0.804688,0.551025,-0.223633
1519488658865,0.650635,0.692627,-0.218262
1519488658922,0.558105,0.743896,-0.174805
1519488658926,0.509766,0.636963,-0.130859
1519488658990,0.343506,0.410400,-0.082275
1519488658996,0.272461,0.307373,-0.104980
1519488659018,0.307861,0.300049,-0.083740
1519488659024,0.467529,0.514893,-0.169678
1519488659056,0.668701,0.684326,-0.191650
1519488659065,0.919434,0.957764,-0.183105
1519488659126,1.080566,1.225586,-0.221191
1519488659129,1.105225,1.225342,-0.240967
1519488659160,0.978027,1.009521,-0.172363
1519488659218,0.723145,0.646729,-0.371826
1519488659224,0.802734,0.688477,-0.512207
1519488659279,0.889648,0.741455,-0.538818
1519488659312,0.785645,0.553467,-0.303223
1519488659345,0.657471,0.536377,-0.150146
1519488659378,0.561279,0.459229,-0.112793
1519488659409,0.339355,0.427490,0.085205
1519488659442,0.257080,0.403564,0.134521
1519488659456,0.253174,0.351563,0.027588
1519488659501,0.375244,0.507568,-0.011963
1519488659535,0.478516,0.603516,-0.025391
1519488659540,0.578613,0.761475,-0.094238
1519488659599,1.004150,1.187988,-0.219971
1519488659632,1.016846,1.437500,-0.269287
1519488659640,1.015625,1.400391,-0.358154
1519488659697,0.739502,1.177490,-0.264893
1519488659728,0.647949,0.844482,-0.285645
1519488659760,0.764404,0.622314,-0.355713
1519488659793,0.724854,0.604492,-0.288818
1519488659824,0.634521,0.668701,-0.253174
1519488659857,0.482910,0.728760,-0.304932
1519488659871,0.335938,0.596924,-0.248779
1519488659928,0.297119,0.437988,-0.210693
1519488659962,0.302246,0.295654,-0.239746
1519488659969,0.346680,0.366455,-0.241211
1519488660025,0.476074,0.474121,-0.280029
1519488660056,0.652344,0.864746,-0.421631
1519488660088,0.951660,1.110352,-0.331299
1519488660092,1.033447,1.149902,-0.505615
1519488660122,1.039063,1.060303,-0.428711
1519488660181,0.969482,0.933594,-0.088623
1519488660183,0.571533,0.762939,-0.103516
1519488660240,0.562256,0.619385,-0.223389
1519488660273,0.981201,0.718994,-0.149414
1519488660286,0.963135,0.708252,-0.165283
1519488660343,0.767334,0.641113,-0.095459
1519488660348,0.543213,0.535645,-0.017334
1519488660406,0.386475,0.358887,0.062500
1519488660416,0.313232,0.264404,0.029297
1519488660472,0.310547,0.320557,0.008057
1519488660505,0.337402,0.319092,-0.033936
1519488660507,0.484863,0.594482,-0.030762
1519488660564,0.680908,0.774414,0.026611
1519488660598,0.754395,0.964111,0.045410
1519488660603,0.855713,1.270752,0.069336
1519488660659,0.771240,1.487549,0.239990
1519488660691,0.767090,1.342529,0.243896
1519488660707,0.641846,1.156494,0.160889
1519488660740,0.583740,0.648682,-0.123047
1519488660770,0.764648,0.665527,-0.225830
1519488660803,0.794678,0.935791,-0.294189
1519488660842,0.624268,0.887695,-0.200684
1519488660875,0.467285,0.676270,-0.150879
1519488660907,0.375000,0.578369,-0.074219
1519488660941,0.285156,0.538818,-0.033936
1519488660974,0.262207,0.452393,0.064697
1519488661012,0.292480,0.413330,0.020508
1519488661047,0.449463,0.558350,-0.023438
1519488661080,0.665039,0.840576,-0.098633
1519488661088,0.932617,1.107666,-0.110107
1519488661140,1.064697,1.267334,-0.108643
1519488661174,0.975830,1.117432,-0.046631
1519488661183,0.909668,1.095215,0.029785
1519488661236,0.583496,0.927979,0.067871
1519488661269,0.524658,0.842773,0.062988
1519488661302,0.755127,0.706299,-0.145264
1519488661335,0.879639,0.770020,-0.192627
1519488661368,0.796631,0.729492,-0.201904
1519488661403,0.673828,0.642578,-0.104248
1519488661436,0.507324,0.472412,-0.082031
1519488661463,0.422852,0.367676,-0.066406
1519488661494,0.346436,0.311768,-0.022949
1519488661536,0.297363,0.287598,-0.115234
1519488661569,0.392822,0.408691,-0.203857
1519488661602,0.557861,0.571777,-0.251709
1519488661634,0.675537,0.965576,-0.234619
1519488661667,0.860840,0.963867,-0.080811
1519488661675,0.792969,1.064941,0.078613
1519488661724,0.929688,1.399170,0.148193
1519488661733,0.692139,1.529297,-0.226074
1519488661762,0.492188,1.189697,-0.344971
1519488661819,0.659424,0.792236,-0.325195
1519488661852,0.781738,0.808594,-0.312988
1519488661883,0.863770,0.682373,-0.356689
1519488661916,0.723145,0.711426,-0.374512
1519488661931,0.556885,0.748047,-0.227295
1519488661962,0.346680,0.563232,-0.142334
1519488661995,0.238281,0.417969,-0.150635
1519488662028,0.252441,0.321045,-0.103516
1519488662087,0.322754,0.406738,-0.137451
1519488662120,0.478516,0.620605,-0.137939
1519488662152,0.585693,0.770996,-0.121094
1519488662184,0.750488,0.857422,-0.203857
1519488662217,0.983154,1.151855,-0.083496
1519488662222,1.084961,1.260498,-0.048828
1519488662252,1.026855,1.197998,-0.045410
1519488662283,0.652344,0.821533,-0.184814
1519488662316,0.742676,0.746338,-0.259277
1519488662362,0.977295,0.766113,-0.366699
1519488662394,0.952393,0.604248,-0.296875
1519488662427,0.790283,0.489990,-0.230957
1519488662460,0.667480,0.481689,-0.160645
1519488662493,0.492676,0.407715,-0.074951
1519488662524,0.351074,0.327637,-0.031738
1519488662529,0.293213,0.368896,0.013428
1519488662588,0.329590,0.541992,-0.058594
1519488662621,0.447998,0.672119,0.024414
1519488662629,0.590088,0.760742,-0.008789
1519488662685,0.669678,0.936279,0.050293
1519488662717,0.837646,1.271484,0.051758
1519488662742,0.855225,1.484863,0.015381
1519488662784,0.842041,1.405762,-0.113525
1519488662792,0.694824,1.140625,-0.114258
1519488662848,0.638672,0.684326,-0.207520
1519488662879,0.805664,0.589355,-0.178955
1519488662911,0.698730,0.747070,-0.183105
1519488662944,0.607422,0.863770,-0.289063
1519488662977,0.429688,0.788330,-0.266357
1519488662994,0.340332,0.559570,-0.164795
1519488663027,0.277100,0.407715,-0.127441
1519488663061,0.299561,0.344971,-0.090332
1519488663093,0.359131,0.397705,-0.114990
1519488663124,0.466064,0.511719,-0.197998
1519488663163,0.621338,0.785400,-0.216553
1519488663196,0.716553,0.936523,-0.216064
1519488663230,0.852783,1.085205,-0.194580
1519488663263,0.980713,1.199463,-0.179199
1519488663293,1.003174,1.190430,-0.111328
1519488663330,0.743896,1.062988,0.006104
1519488663364,0.622559,0.660889,-0.172852
1519488663394,0.819092,0.690186,-0.184326
1519488663428,0.928467,0.719727,-0.185303
1519488663497,0.836426,0.640381,-0.180420
1519488663501,0.713135,0.636475,-0.131592
1519488663566,0.582520,0.601807,-0.080566
1519488663635,0.497559,0.576172,-0.075928
1519488663702,0.465332,0.585205,-0.056152
1519488663710,0.445557,0.595703,-0.064697
1519488663770,0.447510,0.598877,-0.068359
1519488663778,0.477295,0.661865,-0.067627
1519488663837,0.448975,0.688721,-0.081543
1519488663846,0.481934,0.856445,-0.072021
1519488663903,0.541992,1.089844,-0.071289
1519488663909,0.608887,1.269775,0.031250
1519488663972,0.893555,1.324707,-0.078125
1519488663980,0.523193,0.897949,-0.194580
1519488663989,0.483643,0.786865,-0.232422
1519488663997,0.577881,1.057617,-0.238770
1519488664022,0.554199,0.997559,-0.320801
1519488664026,0.539307,0.831299,-0.362549
1519488664029,0.502197,0.851074,-0.328369
1519488664058,0.466064,0.843750,-0.314209
1519488664099,0.482666,0.802979,-0.331055
1519488664132,0.540283,0.775635,-0.293457
1519488664165,0.565186,0.718750,-0.257080
1519488664198,0.607666,0.686523,-0.247559
1519488664230,0.732666,0.839600,-0.293213
1519488664263,0.891846,1.015869,-0.376953
1519488664270,0.834229,0.989990,-0.347412
1519488664329,0.578613,0.522705,-0.229492
1519488664360,0.623291,0.637939,-0.096680
1519488664369,0.632324,0.759033,-0.003174
1519488664407,0.555176,0.701660,-0.040771
1519488664439,0.505371,0.591064,-0.064697
1519488664472,0.509766,0.626221,-0.042480
1519488664528,0.600342,0.754395,-0.063232
1519488664535,0.629639,0.768066,-0.078125
1519488664589,0.676270,0.702148,-0.115723
1519488664621,0.767090,0.691406,-0.174072
1519488664654,0.744141,0.655762,-0.167480
1519488664689,0.687012,0.604248,-0.117920
1519488664721,0.648193,0.646484,-0.125732
1519488664729,0.645020,0.790039,-0.109863
1519488664754,0.576660,0.786133,-0.031006
1519488664813,0.567627,0.980957,-0.030029
1519488664822,0.625977,1.350830,-0.067871
1519488664875,0.521729,1.185303,-0.106689
1519488664906,0.658936,1.053223,-0.248779
1519488664939,0.695557,1.067627,-0.281982
1519488664973,0.564941,0.832275,-0.312744
1519488665004,0.403076,0.724854,-0.285889
1519488665036,0.324707,0.720215,-0.257813
1519488665071,0.282471,0.681396,-0.261475
1519488665102,0.314453,0.688232,-0.257080
1519488665134,0.379639,0.714355,-0.302734
1519488665166,0.473389,0.719971,-0.325195
1519488665198,0.676758,0.831787,-0.458984
1519488665215,0.857666,1.021729,-0.478027
1519488665252,0.929688,1.042969,-0.436279
1519488665302,0.914063,0.846924,-0.315674
1519488665307,0.849854,0.758789,-0.192383
1519488665336,0.863770,0.654541,-0.048828
1519488665394,1.118408,0.554443,0.093018
1519488665404,1.082275,0.538086,0.058105
1519488665456,0.871826,0.530029,0.005859
1519488665489,0.489502,0.648926,0.019775
1519488665520,0.351807,0.623779,0.042236
1519488665528,0.254150,0.611572,0.044922
1519488665585,0.256348,0.614990,-0.046875
1519488665617,0.302002,0.535400,-0.007568
1519488665631,0.322021,0.505127,0.027100
1519488665690,0.416992,0.583740,0.081787
1519488665721,0.706543,0.851563,0.064941
1519488665726,0.886230,1.353760,0.171875
1519488665779,0.727051,1.121826,0.171143
1519488665811,0.883301,1.280273,0.179199
1519488665815,0.813721,1.152588,-0.001953
1519488665870,0.787842,0.923828,-0.199951
1519488665904,0.750488,0.812500,-0.183350
1519488665936,0.710938,0.974609,-0.225586
1519488665969,0.635498,1.011719,-0.255127
1519488666000,0.483887,0.860352,-0.129639
1519488666032,0.323486,0.578125,0.006592
1519488666046,0.257080,0.362793,0.119385
1519488666103,0.236328,0.299316,0.146240
1519488666138,0.241699,0.427002,0.093018
1519488666147,0.292969,0.634521,0.037842
1519488666202,0.367676,0.770752,0.204590
1519488666213,0.660156,0.981445,0.129150
1519488666271,1.035889,1.181641,0.079590
1519488666304,1.207764,1.313477,0.066406
1519488666313,0.997314,1.165527,-0.295410
1519488666360,0.792969,0.805420,-0.146484
1519488666394,1.099609,0.857422,-0.075439
1519488666405,1.210693,0.905518,-0.199707
1519488666453,0.733398,0.733643,-0.113770
1519488666485,0.387939,0.589355,0.016357
1519488666516,0.166016,0.432861,0.113770
1519488666524,0.118164,0.398193,0.157471
1519488666583,0.200684,0.375488,0.115479
1519488666615,0.184814,0.461182,0.051514
1519488666648,0.270264,0.561523,0.062012
1519488666681,0.283447,0.610352,0.125244
1519488666714,0.559570,0.865479,0.130615
1519488666725,0.802734,1.399658,0.222900
1519488666783,0.724854,1.457520,0.256836
1519488666815,0.780029,1.521729,0.010742
1519488666846,0.771973,1.169189,-0.174805
1519488666850,0.819092,1.079102,-0.230469
1519488666894,0.778076,0.960449,-0.214355
1519488666925,0.645752,0.985107,-0.175049
1519488666958,0.517334,0.839355,-0.089600
1519488666990,0.360840,0.674316,-0.042480
1519488667026,0.231201,0.374756,0.058838
1519488667060,0.217773,0.250244,0.008789
1519488667093,0.231201,0.242432,0.013184
1519488667126,0.297852,0.495605,-0.068115
1519488667157,0.460693,0.809326,0.002686
1519488667194,0.702881,1.132813,0.140869
1519488667227,0.899414,1.187256,0.061279
1519488667260,0.996582,1.154785,-0.102783
1519488667268,1.022461,1.158447,-0.401123
1519488667330,0.997070,0.843262,-0.307373
1519488667362,1.208008,0.884766,-0.146240
1519488667367,1.151123,0.953857,-0.191895
1519488667429,0.718750,0.843018,0.002930
1519488667436,0.416504,0.694336,0.086670
1519488667461,0.204102,0.466064,0.100342
1519488667495,0.124268,0.337646,0.025391
1519488667526,0.085205,0.366943,-0.006348
1519488667560,0.042969,0.382568,0.003662
1519488667593,0.115967,0.546631,0.091064
1519488667625,0.299561,0.807617,0.147705
1519488667658,0.662354,1.003418,0.063477
1519488667700,0.950439,1.415771,0.259033
1519488667732,0.881104,1.333008,0.110596
1519488667764,0.871826,1.402344,-0.075195
1519488667796,0.713867,0.937012,-0.252686
1519488667829,0.956055,1.053711,-0.376465
1519488667862,0.992676,1.235352,-0.408691
1519488667894,0.736084,1.020752,-0.236328
1519488667926,0.504639,0.624756,-0.139648
1519488667959,0.449463,0.546875,0.001709
1519488667991,0.301758,0.293213,0.073242
1519488668024,0.224609,0.227783,0.061279
1519488668058,0.192871,0.271729,0.018799
1519488668075,0.235107,0.352783,-0.080078
1519488668131,0.384521,0.645264,-0.043213
1519488668140,0.604004,0.964844,0.036133
1519488668194,0.880371,1.288330,-0.049561
1519488668227,0.875732,1.235840,0.149414
1519488668260,0.994141,1.296875,0.027588
1519488668292,0.834961,0.972900,-0.489502
1519488668325,0.987793,0.912354,-0.209473
1519488668355,1.176025,0.978760,-0.191895
1519488668387,0.959229,0.812256,-0.273926
1519488668420,0.616211,0.598145,-0.134277
1519488668423,0.286377,0.374268,-0.026855
1519488668521,0.042725,0.337158,0.007080
1519488668524,0.054688,0.407959,0.005371
1519488668590,0.096436,0.497803,0.078369
1519488668599,0.166992,0.544678,0.215820
1519488668659,0.377197,0.785156,0.266113
1519488668667,0.710449,0.957764,0.052246
1519488668725,1.068848,0.972168,-0.173340
1519488668734,0.975342,0.962158,0.176758
1519488668793,0.939697,1.172607,-0.123047
1519488668801,0.835938,1.272705,-0.405762
1519488668859,0.858643,1.173096,-0.354980
1519488668863,0.891846,1.131348,-0.333984
1519488668926,0.822266,1.010986,-0.174805
1519488668930,0.745361,0.867432,-0.071289
1519488668981,0.520508,0.446289,-0.074463
1519488668984,0.370850,0.455566,-0.016113
1519488668986,0.257324,0.317383,0.031250
1519488669016,0.197021,0.279053,0.050537
1519488669049,0.078613,0.244141,-0.091797
1519488669081,0.103516,0.441406,-0.091797
1519488669117,0.303955,0.764160,-0.022705
1519488669141,0.728271,1.006348,-0.130615
1519488669174,1.019043,0.966797,0.026367
1519488669207,1.201660,1.267578,0.298828
1519488669239,1.084961,1.043457,-0.526367
1519488669272,1.158203,0.875977,-0.253418
1519488669304,1.453125,0.987305,-0.240479
1519488669336,1.077637,0.828613,-0.361816
1519488669368,0.709229,0.690186,-0.092041
1519488669401,0.432861,0.623779,0.047119
1519488669434,0.067627,0.427979,0.033447
1519488669467,-0.036621,0.370850,0.026855
1519488669501,0.037842,0.413818,-0.034424
1519488669531,0.170654,0.404785,-0.074951
1519488669564,0.220459,0.446533,0.053955
1519488669598,0.419678,0.599854,0.135010
1519488669631,0.804199,0.961182,0.059814
1519488669663,0.979980,1.170898,0.106934
1519488669696,0.967041,1.195068,0.178467
1519488669729,1.039063,1.252930,-0.339600
1519488669760,0.908203,1.041748,-0.554443
1519488669793,0.942139,1.099365,-0.539795
1519488669824,0.906006,1.176270,-0.416016
1519488669858,0.702637,1.000488,-0.225830
1519488669889,0.577148,0.914795,-0.042969
1519488669921,0.408447,0.483887,0.083008
1519488669954,0.290039,0.339111,0.051270
1519488669988,0.269043,0.217041,0.037598
1519488670019,0.198242,0.238037,0.012451
1519488670053,0.155029,0.282471,-0.038330
1519488670089,0.273193,0.522217,-0.092529
1519488670123,0.608643,0.885010,-0.154297
1519488670129,0.895264,1.059082,-0.163818
1519488670185,0.993408,1.284912,0.246338
1519488670218,1.051758,1.374023,-0.228271
1519488670251,1.004150,1.071289,-0.453857
1519488670284,1.188965,0.925537,-0.198975
1519488670316,1.200684,0.933838,-0.227295
1519488670346,0.889160,0.761719,-0.182373
1519488670379,0.548096,0.604736,-0.041992
1519488670421,0.278809,0.484131,0.075684
1519488670429,0.139404,0.340576,0.014893
1519488670453,0.101807,0.326172,-0.006592
1519488670511,0.166016,0.381836,0.034668
1519488670545,0.121582,0.405762,0.019043
1519488670548,0.269775,0.659912,0.075195
1519488670602,0.599854,0.974365,0.162354
1519488670635,1.031738,1.044678,-0.054443
1519488670667,1.099365,1.223633,0.049805
1519488670700,0.909180,1.079346,0.099609
1519488670708,0.723389,1.118896,-0.118896
1519488670764,0.748779,0.969971,-0.261230
1519488670796,0.965576,1.077637,-0.370605
1519488670828,0.998779,1.142334,-0.482910
1519488670861,0.794678,0.954590,-0.374512
1519488670893,0.550049,0.715576,-0.234619
1519488670926,0.401855,0.562012,-0.090576
1519488670959,0.303711,0.420410,0.071045
1519488670992,0.241211,0.283691,0.092285
1519488671027,0.202637,0.269531,0.071777
1519488671033,0.205811,0.369629,0.036133
1519488671089,0.336670,0.567383,0.019775
1519488671098,0.635254,0.825928,-0.090820
1519488671126,0.962402,1.126953,-0.166748
1519488671184,1.105957,1.261963,0.034424
1519488671215,1.091064,1.311768,-0.204346
1519488671249,0.858398,1.001465,-0.359863
1519488671280,1.157959,0.958496,-0.224854
1519488671313,1.228027,0.964111,-0.238281
1519488671345,0.895020,0.771240,-0.172852
1519488671378,0.478760,0.502686,0.062988
1519488671410,0.303467,0.419434,0.113281
1519488671442,0.208008,0.379395,0.077637
1519488671475,0.135986,0.272461,0.023682
1519488671477,0.070068,0.340576,0.030273
1519488671508,0.127197,0.499512,0.057129
1519488671566,0.404053,0.682373,0.093994
1519488671572,0.696533,0.962646,0.039063
1519488671630,1.010254,1.254150,0.070557
1519488671662,0.979736,1.219727,0.087646
1519488671701,0.941406,1.250000,-0.251709
1519488671703,0.847900,1.075195,-0.496582
1519488671760,1.058350,1.133545,-0.473877
1519488671792,1.095215,1.099121,-0.423828
1519488671825,0.862305,0.879639,-0.292236
1519488671857,0.593262,0.686523,-0.042480
1519488671889,0.427979,0.519287,0.062744
1519488671892,0.328125,0.358154,0.115234
1519488671949,0.256348,0.193115,0.088135
1519488671981,0.245361,0.205566,0.006592
1519488671989,0.250732,0.348145,-0.030762
1519488672046,0.405518,0.609131,-0.087158
1519488672078,0.709229,0.902588,-0.133057
1519488672111,0.977539,1.168945,-0.197998
1519488672143,0.958496,1.177490,0.055420
1519488672176,0.876953,1.179932,0.018311
1519488672208,0.897949,0.959473,-0.245850
1519488672241,1.218506,1.005127,-0.212891
1519488672274,1.291748,0.953369,-0.215576
1519488672309,1.001953,0.710693,-0.128418
1519488672341,0.523682,0.528076,-0.031738
1519488672373,0.287109,0.445801,-0.048096
1519488672407,0.132813,0.428467,-0.066895
1519488672440,0.063232,0.439453,-0.055420
1519488672472,0.075684,0.476074,0.000244
1519488672478,0.115234,0.403809,0.027832
1519488672531,0.303223,0.552734,0.136963
1519488672563,0.655029,0.826660,0.144531
1519488672569,1.173340,1.198730,0.042969
1519488672628,1.287598,1.197021,0.023193
1519488672660,1.119141,1.311523,-0.056885
1519488672693,0.823730,1.086670,-0.073242
1519488672725,0.782227,0.935547,-0.406982
1519488672757,0.932617,1.166992,-0.472900
1519488672790,0.727295,0.836670,-0.464355
1519488672823,0.557617,0.673828,-0.221436
1519488672854,0.503662,0.629883,-0.073486
1519488672887,0.454834,0.493652,0.018555
1519488672919,0.397461,0.320068,0.053223
1519488672952,0.379639,0.331299,0.104736
1519488672983,0.367188,0.433350,0.148682
1519488673015,0.341064,0.553467,0.030518
1519488673047,0.385010,0.645508,-0.007324
1519488673053,0.614746,0.830566,-0.053223
1519488673112,0.932373,1.109863,-0.119385
1519488673145,0.920654,1.165039,0.133301
1519488673151,0.941162,1.123535,-0.189209
1519488673208,0.960693,0.869873,-0.375732
1519488673240,1.218018,0.911621,-0.333984
1519488673273,1.362061,1.044678,-0.296387
1519488673305,0.952393,0.897461,-0.078613
1519488673337,0.614258,0.804199,0.093750
1519488673370,0.364502,0.624756,0.126221
1519488673383,0.195557,0.386230,0.088867
1519488673441,0.108398,0.264893,0.021484
1519488673513,0.082520,0.244629,0.006592
1519488673519,0.078857,0.223389,-0.031738
1519488673581,0.206787,0.424561,-0.020996
1519488673586,0.438232,0.700928,-0.008545
1519488673649,1.000244,1.240967,0.039063
1519488673654,1.113281,1.330322,0.364258
1519488673717,1.145752,1.321289,0.303223
1519488673722,0.893555,0.993164,-0.261475
1519488673784,0.974854,1.099121,-0.327637
1519488673789,1.099121,1.130371,-0.465820
1519488673851,0.965088,0.999268,-0.286621
1519488673856,0.797852,0.880127,-0.098389
1519488673918,0.566162,0.676270,0.056152
1519488673922,0.353271,0.437744,0.114502
1519488673982,0.253662,0.309814,0.086670
1519488673989,0.211670,0.306641,0.007324
1519488673994,0.191895,0.319580,-0.058350
1519488674018,0.180908,0.359131,-0.117188
1519488674021,0.295898,0.484375,-0.145264
1519488674077,0.640137,0.847656,-0.170166
1519488674083,0.878662,1.050293,-0.200439
1519488674117,1.134277,1.400879,0.145996
1519488674173,1.095947,1.538574,-0.152100
1519488674181,0.986572,0.993408,-0.138672
1519488674219,1.173828,1.028320,-0.082520
1519488674263,1.092529,0.901367,-0.122070
1519488674304,0.801758,0.727539,-0.116211
1519488674311,0.455811,0.540039,-0.060303
1519488674367,0.163330,0.337402,-0.025391
1519488674400,0.076904,0.254150,-0.036865
1519488674432,0.049561,0.226563,-0.032471
1519488674465,0.034180,0.349854,-0.041016
1519488674498,0.158203,0.639404,-0.083008
1519488674530,0.402832,0.833008,-0.083252
1519488674562,1.012207,1.199219,-0.006592
1519488674595,1.321289,1.373779,0.409180
1519488674601,1.271729,1.011230,0.520264
1519488674663,0.965820,1.139404,-0.062256
1519488674669,0.558350,0.781738,-0.206543
1519488674697,0.572021,0.824463,-0.145020
1519488674753,0.884033,1.106445,-0.360107
1519488674761,0.806152,0.825928,-0.486328
1519488674817,0.754639,0.884033,-0.291504
1519488674849,0.525146,0.664063,-0.093750
1519488674881,0.361328,0.479736,-0.011230
1519488674892,0.180908,0.317139,0.011963
1519488674949,0.180664,0.323486,-0.060059
1519488674980,0.272461,0.365967,-0.077637
1519488674997,0.354736,0.516602,-0.045410
1519488675038,0.540283,0.680664,-0.012939
1519488675072,0.810791,0.949219,0.130371
1519488675104,0.929199,1.241699,0.153320
1519488675137,1.171875,1.571045,-0.117188
1519488675168,0.992676,1.317627,-0.458252
1519488675200,0.751709,0.850342,-0.292969
1519488675232,1.130615,0.879639,-0.222412
1519488675269,1.113037,0.685547,-0.237793
1519488675302,0.875244,0.559814,-0.170166
1519488675341,0.503662,0.616211,-0.052734
1519488675348,0.280762,0.472656,0.005859
1519488675380,0.111572,0.369385,0.043457
1519488675413,0.069824,0.305176,0.004639
1519488675446,0.103516,0.405273,-0.010498
1519488675478,0.190430,0.505615,-0.006836
1519488675511,0.386230,0.709229,0.083496
1519488675543,0.639404,0.863037,0.085938
1519488675576,1.024170,1.128906,0.039307
1519488675634,1.020264,1.222412,0.091064
1519488675666,1.101074,1.389648,-0.157471
1519488675671,0.870361,1.169922,-0.282959
1519488675726,0.842285,0.847656,-0.361084
1519488675759,0.973145,0.960693,-0.428467
1519488675767,0.942871,0.989746,-0.423340
1519488675796,0.693604,0.631836,-0.307617
1519488675829,0.624023,0.632813,-0.068359
1519488675864,0.466064,0.407715,0.068604
1519488675897,0.341797,0.313721,0.085938
1519488675929,0.252930,0.262695,0.041016
1519488675962,0.204346,0.286621,-0.008301
1519488675995,0.236328,0.469482,-0.059814
1519488676029,0.332764,0.602295,-0.115723
1519488676060,0.555176,0.841064,-0.181641
1519488676092,0.856445,1.159912,-0.048828
1519488676125,0.851807,1.489502,0.463379
1519488676159,1.021973,1.570068,-0.190918
1519488676192,0.948730,0.955811,-0.512207
1519488676233,1.191162,0.888672,-0.260986
1519488676264,1.331543,0.926270,-0.229492
1519488676297,0.904785,0.597656,-0.092285
1519488676305,0.584473,0.557861,-0.009521
1519488676360,0.343994,0.455566,0.037598
1519488676392,0.175049,0.393555,0.048828
1519488676425,0.128418,0.301514,0.028564
1519488676456,0.097900,0.318359,-0.002686
1519488676489,0.118408,0.458252,0.028564
1519488676525,0.250488,0.669678,0.084229
1519488676557,0.479492,0.862549,0.172852
1519488676590,0.977051,0.989258,-0.155762
1519488676621,1.119629,1.105469,-0.024414
1519488676624,1.205078,1.109863,-0.031006
1519488676695,0.926025,1.205566,-0.196289
1519488676727,0.896729,0.996582,-0.342529
1519488676736,0.994629,1.060791,-0.404785
1519488676785,0.978027,1.006592,-0.447510
1519488676794,0.811279,0.887207,-0.302002
1519488676822,0.651855,0.767578,-0.110352
1519488676855,0.412598,0.472168,0.049805
1519488676887,0.299316,0.347656,0.055664
1519488676921,0.225342,0.269043,0.041504
1519488676953,0.206055,0.243164,0.015869
1519488676986,0.228271,0.339844,-0.035889
1519488677026,0.322998,0.533691,-0.126953
1519488677057,0.468018,0.895020,-0.205322
1519488677090,0.741943,1.164551,-0.030029
1519488677124,0.942139,1.337891,0.351318
1519488677154,1.142822,1.465820,-0.050293
1519488677188,0.873291,1.133057,-0.403320
1519488677221,0.898193,0.732178,-0.349609
1519488677278,1.296875,0.914063,-0.294678
1519488677286,1.159424,0.708496,-0.329834
1519488677312,0.851074,0.591309,-0.184326
1519488677369,0.462646,0.582764,0.006104
1519488677372,0.280273,0.521973,0.052246
1519488677402,0.197021,0.493164,0.046387
1519488677443,0.187744,0.387451,0.055664
1519488677476,0.203369,0.337402,0.030518
1519488677508,0.223877,0.367432,0.005127
1519488677540,0.434570,0.653809,0.143066
1519488677573,0.754395,0.891602,0.023682
1519488677608,1.111084,1.170898,-0.169434
1519488677639,0.888916,1.100342,0.206055
1519488677671,0.913818,1.265137,0.086670
1519488677704,0.803955,1.131348,-0.219238
1519488677737,0.832275,0.935791,-0.371338
1519488677769,0.988281,1.053223,-0.469482
1519488677807,0.908447,1.060059,-0.420898
1519488677849,0.698242,0.798828,-0.212402
1519488677852,0.679199,0.726563,-0.079346
1519488677884,0.468750,0.390137,0.085205
1519488677941,0.320068,0.306885,0.053223
1519488677947,0.257813,0.351563,0.031250
1519488678007,0.206787,0.373535,0.007813
1519488678040,0.219727,0.501709,-0.012939
1519488678071,0.356934,0.671631,-0.024414
1519488678104,0.594971,0.835693,-0.002686
1519488678137,0.995605,1.093506,0.007568
1519488678170,1.072021,1.284668,0.236816
1519488678202,1.005615,1.300781,-0.185547
1519488678234,0.982422,0.951172,-0.335693
1519488678243,1.198975,0.956055,-0.232666
1519488678279,1.216309,0.861084,-0.238770
1519488678313,0.894531,0.651367,-0.127686
1519488678346,0.607910,0.571533,-0.050293
1519488678376,0.365234,0.501953,0.007080
1519488678409,0.154053,0.441895,0.059326
1519488678442,0.104004,0.393555,0.062744
1519488678514,0.096680,0.346680,0.041016
1519488678517,0.141113,0.392090,0.070313
1519488678581,0.257813,0.594482,0.092285
1519488678585,0.517822,0.839600,0.087891
1519488678651,1.023682,1.065186,-0.085449
1519488678718,1.056152,1.110840,0.068604
1519488678786,1.128906,1.322266,0.068848
1519488678795,0.875732,1.200439,-0.077637
1519488678852,0.790283,0.941650,-0.256104
1519488678856,1.069336,1.028320,-0.321289
1519488678919,1.071777,1.020752,-0.333496
1519488678924,0.801025,0.804932,-0.236572
1519488678981,0.607422,0.578857,-0.193604
1519488678985,0.392578,0.419678,-0.016846
1519488678998,0.323730,0.307373,0.025391
1519488679003,0.260986,0.187744,0.013672
1519488679008,0.229736,0.214844,0.005127
1519488679033,0.231201,0.402832,0.004883
1519488679065,0.325439,0.631348,-0.030029
1519488679079,0.602539,0.955322,-0.000488
1519488679113,0.837402,1.267822,0.198242
1519488679146,0.875000,1.503418,0.429932
1519488679203,0.985596,1.402832,-0.182861
1519488679236,0.850342,0.995850,-0.336914
1519488679244,1.033203,0.754639,-0.256592
1519488679293,1.282959,0.865723,-0.256348
1519488679326,1.082275,0.703613,-0.251465
1519488679332,0.787109,0.566162,-0.131348
1519488679383,0.407959,0.410645,-0.033691
1519488679415,0.217773,0.358643,0.041260
1519488679446,0.145508,0.349121,0.050537
1519488679480,0.121582,0.339111,0.060059
1519488679493,0.134521,0.406250,0.050781
1519488679525,0.206299,0.615479,0.076904
1519488679559,0.469482,0.956299,0.162842
1519488679618,0.885498,1.141113,0.013672
1519488679651,1.063721,1.204834,-0.005371
1519488679683,1.268555,1.327881,-0.180664
1519488679692,1.096680,1.363281,-0.081055
1519488679729,0.980713,0.929932,-0.205078
1519488679763,0.999512,0.822510,-0.445801
1519488679794,0.928223,0.900879,-0.455322
1519488679825,0.772461,0.841553,-0.311523
1519488679883,0.535645,0.680420,-0.112549
1519488679889,0.392090,0.504150,-0.028809
1519488679905,0.299316,0.387207,0.018799
1519488679962,0.225586,0.288086,0.006104
1519488679995,0.234863,0.298340,0.009277
1519488680029,0.268311,0.431396,0.007568
1519488680060,0.425537,0.638916,-0.057129
1519488680092,0.624512,0.840088,-0.016113
1519488680126,0.904541,1.067627,-0.022949
1519488680158,0.956787,1.255615,0.135010
1519488680191,1.021240,1.364502,0.062500
1519488680222,0.871826,1.068359,-0.381104
1519488680255,0.991211,0.823975,-0.283936
1519488680288,1.255859,0.852539,-0.286133
1519488680329,1.138428,0.690674,-0.309814
1519488680360,0.739014,0.535645,-0.105713
1519488680393,0.501221,0.489502,-0.019531
1519488680395,0.311768,0.428467,0.016113
1519488680426,0.194092,0.407471,0.032715
1519488680458,0.174805,0.429932,0.024170
1519488680493,0.166260,0.490234,0.008789
1519488680524,0.303955,0.646240,0.041016
1519488680556,0.441162,0.750488,0.131836
1519488680589,0.612061,0.789551,0.089844
1519488680663,0.892578,0.968750,-0.049561
1519488680678,0.904785,1.173828,-0.123291
1519488680700,0.970215,1.461914,-0.136719
1519488680740,0.834473,1.132080,-0.160889
1519488680775,0.893799,0.823242,-0.299072
1519488680784,0.967773,0.867920,-0.417969
1519488680832,0.970703,0.984863,-0.325439
1519488680842,0.842285,0.876465,-0.215088
1519488680868,0.676758,0.664795,-0.119629
1519488680925,0.445068,0.420166,-0.035645
1519488680958,0.327637,0.267090,-0.002686
1519488680992,0.254883,0.210449,0.009033
1519488681024,0.258789,0.316406,0.002441
1519488681056,0.284912,0.506592,-0.055908
1519488681089,0.399414,0.622070,-0.051758
1519488681122,0.731445,0.900391,0.007813
1519488681136,0.968750,1.075684,0.036377
1519488681193,0.966553,1.175293,0.236328
1519488681226,0.993164,1.287842,0.077881
1519488681258,0.873047,1.131592,-0.367676
1519488681263,0.904053,0.812744,-0.343994
1519488681317,1.067871,0.835449,-0.259521
1519488681349,0.954102,0.706787,-0.245117
1519488681358,0.769531,0.571289,-0.142822
1519488681410,0.444824,0.454834,-0.014893
1519488681441,0.250488,0.467285,0.020020
1519488681475,0.200439,0.506348,0.041016
1519488681506,0.211182,0.601563,0.067139
1519488681539,0.201660,0.650879,0.134277
1519488681553,0.260498,0.633545,0.172119
1519488681585,0.438965,0.634277,0.047852
1519488681644,0.664307,0.709961,-0.098389
1519488681654,1.045654,1.085205,-0.123535
1519488681686,0.900146,1.238525,0.066162
1519488681719,0.957275,1.337402,0.004395
1519488681752,0.811768,1.194580,-0.048340
1519488681809,0.847168,0.924316,-0.235352
1519488681843,0.976318,0.882568,-0.362061
1519488681851,0.953613,0.797119,-0.365967
1519488681899,0.784424,0.755127,-0.231445
1519488681941,0.609863,0.700439,-0.058594
1519488681946,0.471191,0.527832,0.048340
1519488681986,0.329834,0.390137,0.001709
1519488682021,0.267334,0.412109,0.000244
1519488682053,0.274170,0.462646,0.020508
1519488682085,0.307861,0.500977,0.140137
1519488682118,0.335449,0.525146,0.106201
1519488682150,0.464844,0.689209,-0.006348
1519488682183,0.909424,1.019043,-0.004395
1519488682216,1.029785,1.193359,0.122803
1519488682248,1.142090,1.239746,0.257324
1519488682280,0.895508,0.899658,-0.329346
