1518877021673,1.072998,0.464111,0.053711
1518877021730,1.621094,0.467285,0.217285
1518877021733,1.664551,0.571533,0.064941
1518877021765,1.416260,0.533447,-0.022217
1518877021823,1.140625,0.523438,0.053955
1518877021826,0.986084,0.522949,0.044922
1518877021859,0.844482,0.535645,0.008789
1518877021892,0.680420,0.524414,0.010010
1518877021925,0.572021,0.500244,0.048584
1518877021959,0.489990,0.463867,0.048096
1518877021989,0.458984,0.458984,0.056641
1518877022021,0.638916,0.468994,0.082520
1518877022055,0.928467,0.502930,0.098633
1518877022112,1.192139,0.511230,0.035645
1518877022144,1.285400,0.424561,-0.025146
1518877022152,1.610352,0.452393,0.069092
1518877022189,1.450928,0.458008,-0.047607
1518877022221,1.149658,0.364746,-0.099365
1518877022254,1.197754,0.432617,-0.096680
1518877022312,1.171875,0.515137,-0.202393
1518877022315,1.228516,0.466309,-0.228760
1518877022345,1.159668,0.329834,-0.156494
1518877022404,0.984863,0.308594,-0.098145
1518877022412,0.795166,0.272461,-0.078613
1518877022437,0.758789,0.221924,-0.041260
1518877022492,0.644287,0.184814,-0.039551
1518877022525,0.610596,0.216553,-0.007813
1518877022557,0.582275,0.209961,0.043457
1518877022588,0.582520,0.183838,0.063232
1518877022601,0.605225,0.186279,0.089844
1518877022659,0.654053,0.210449,0.124512
1518877022692,0.760742,0.275391,0.137451
1518877022723,0.759766,0.336426,0.156982
1518877022727,0.962646,0.368896,0.095703
1518877022783,1.443115,0.456543,0.069580
1518877022816,1.125488,0.546875,0.045410
1518877022819,1.114258,0.375977,0.085449
1518877022852,1.629150,0.407959,0.075928
1518877022910,1.593506,0.584961,-0.080322
1518877022943,1.259766,0.482422,-0.042969
1518877022951,0.968994,0.446289,0.058838
1518877023020,0.832031,0.475586,0.027832
1518877023023,0.734375,0.486084,0.044189
1518877023089,0.622803,0.475586,0.070068
1518877023100,0.526855,0.463135,0.115479
1518877023155,0.474365,0.479736,0.138184
1518877023158,0.536377,0.492920,0.126465
1518877023225,0.729004,0.506348,0.135742
1518877023234,0.916992,0.507568,0.121094
1518877023290,1.080566,0.468994,0.043701
1518877023294,1.277832,0.447998,0.034668
1518877023358,1.680664,0.537109,0.106445
1518877023362,1.326416,0.548584,-0.002930
1518877023425,1.500977,0.375732,-0.025635
1518877023431,1.731201,0.261475,0.014893
1518877023494,1.563721,0.251465,-0.029541
1518877023499,1.340576,0.226074,-0.015381
1518877023506,1.145752,0.194824,0.012939
1518877023537,0.928467,0.155762,-0.003662
1518877023571,0.817383,0.141846,-0.024902
1518877023603,0.728027,0.117188,-0.017090
1518877023635,0.622803,0.100342,0.020752
1518877023666,0.545410,0.108643,0.042236
1518877023700,0.447266,0.110596,0.025391
1518877023733,0.427490,0.121826,0.043945
1518877023771,0.511963,0.194336,0.100098
1518877023780,0.618652,0.271973,0.107178
1518877023836,0.683594,0.321045,0.174316
1518877023869,0.933350,0.444092,0.213379
1518877023901,1.157227,0.472656,0.209229
1518877023934,1.133057,0.462891,0.155518
1518877023968,1.374023,0.398193,0.189941
1518877023999,1.491211,0.511475,0.226318
1518877024032,1.402588,0.552490,0.191406
1518877024064,1.262451,0.487305,0.170410
1518877024097,1.162842,0.491211,0.130127
1518877024129,0.980469,0.505127,0.109131
1518877024162,0.830322,0.508057,0.079834
1518877024194,0.679932,0.519775,0.075195
1518877024228,0.551514,0.499512,0.076660
1518877024268,0.504150,0.510254,0.077637
1518877024275,0.502441,0.509766,0.082031
1518877024327,0.661621,0.502686,0.087646
1518877024359,0.950684,0.505371,0.111084
1518877024363,1.061035,0.512695,0.079102
1518877024418,1.077881,0.437500,0.049072
1518877024450,1.492920,0.519531,0.173584
1518877024482,1.520264,0.582520,0.097412
1518877024515,1.190186,0.335449,0.010254
1518877024548,1.381592,0.319580,0.067871
1518877024580,1.444824,0.333984,0.082031
1518877024614,1.306885,0.315674,0.010010
1518877024647,1.168945,0.197021,0.023193
1518877024678,1.138184,0.189941,0.078125
1518877024710,1.026123,0.193359,0.036133
1518877024744,0.897217,0.167725,0.007568
1518877024781,0.763428,0.151367,0.019775
1518877024812,0.655273,0.179443,0.086914
1518877024844,0.578125,0.187988,0.089111
1518877024847,0.486572,0.157471,0.058350
1518877024903,0.456543,0.194092,0.036865
1518877024937,0.556396,0.239014,0.070313
1518877024946,0.687988,0.298096,0.112305
1518877024998,0.729980,0.273682,0.114258
1518877025050,0.993896,0.302002,0.107178
1518877025053,1.309814,0.339844,0.166016
1518877025097,1.204346,0.437744,0.155518
1518877025131,1.256592,0.389160,0.238281
1518877025163,1.460693,0.427246,0.293701
1518877025195,1.486328,0.424561,0.139404
1518877025226,1.265137,0.368896,0.114258
1518877025260,1.038330,0.375244,0.116455
1518877025292,0.835693,0.381836,0.068604
1518877025324,0.755615,0.436523,0.070313
1518877025357,0.689697,0.458496,0.077393
1518877025389,0.608887,0.434570,0.094238
1518877025421,0.563965,0.426025,0.111084
1518877025425,0.542725,0.419922,0.116211
1518877025466,0.637695,0.397949,0.122314
1518877025499,0.790039,0.383789,0.124023
1518877025532,1.010742,0.385986,0.127197
1518877025564,1.030518,0.381836,0.097168
1518877025597,1.209961,0.423340,0.116455
1518877025629,1.306152,0.504639,0.198486
1518877025661,1.141113,0.382813,0.096436
1518877025694,1.567139,0.289307,0.104248
1518877025729,1.597656,0.276611,0.118164
1518877025762,1.448486,0.255127,0.073730
1518877025795,1.281250,0.234375,0.071533
1518877025826,1.146729,0.233154,0.071777
1518877025863,0.921143,0.229736,0.052490
1518877025895,0.763184,0.209961,0.045898
1518877025929,0.650146,0.193359,0.056641
1518877025960,0.553223,0.184814,0.061768
1518877025993,0.485596,0.186768,0.050537
1518877026006,0.457764,0.157471,0.037109
1518877026062,0.507080,0.143066,0.059570
1518877026094,0.660889,0.168213,0.088623
1518877026126,0.786377,0.214844,0.089600
1518877026159,0.812988,0.182617,0.117920
1518877026191,1.203369,0.198486,0.154541
1518877026224,1.463867,0.319092,0.173828
1518877026257,1.292236,0.351318,0.187500
1518877026271,1.479492,0.288086,0.319824
1518877026331,1.634033,0.343750,0.310791
1518877026339,1.394287,0.351318,0.087402
1518877026392,1.087402,0.334961,0.101807
1518877026395,0.903564,0.379150,0.125977
1518877026452,0.728027,0.438232,0.104248
1518877026455,0.652588,0.505859,0.105957
1518877026512,0.591553,0.514893,0.137451
1518877026544,0.527100,0.456787,0.135742
1518877026552,0.574707,0.421875,0.133545
1518877026607,0.684570,0.395996,0.115967
1518877026640,0.916748,0.441406,0.141846
1518877026653,1.094482,0.463135,0.157959
1518877026698,1.010986,0.415283,0.078613
1518877026730,1.236572,0.411621,0.115234
1518877026762,1.432373,0.478760,0.155273
1518877026795,1.397705,0.434082,0.091064
1518877026828,1.539795,0.296387,0.051025
1518877026860,1.583984,0.268066,0.079346
1518877026893,1.463379,0.231445,0.062012
1518877026927,1.246094,0.178711,0.043457
1518877026959,1.049561,0.190674,0.036133
1518877026990,0.895996,0.208252,0.027100
1518877027022,0.797607,0.177002,0.059326
1518877027056,0.768799,0.146729,0.056641
1518877027070,0.644531,0.137207,0.030518
1518877027127,0.504639,0.133057,0.019287
1518877027131,0.457520,0.142090,0.036621
1518877027189,0.508545,0.163818,0.064941
1518877027222,0.682617,0.222168,0.090332
1518877027254,0.747070,0.250000,0.077881
1518877027286,0.794678,0.259277,0.108887
1518877027319,1.228760,0.289551,0.168457
1518877027351,1.393066,0.353271,0.135742
1518877027384,1.191406,0.351074,0.128662
1518877027417,1.554688,0.201172,0.247559
1518877027450,1.688477,0.311279,0.146729
1518877027455,1.435791,0.370850,-0.009521
1518877027508,1.067383,0.386230,0.038574
1518877027541,0.933350,0.426758,0.033447
1518877027549,0.853516,0.505127,-0.013428
1518877027611,0.766846,0.564941,0.001221
1518877027617,0.662354,0.513428,0.005127
1518877027652,0.586670,0.489990,-0.002686
1518877027685,0.553467,0.505371,0.013672
1518877027717,0.578857,0.488281,0.015381
1518877027751,0.705322,0.464111,0.036133
1518877027782,1.053467,0.476074,0.030762
1518877027840,1.069824,0.451660,-0.049316
1518877027872,1.182129,0.449951,-0.030029
1518877027886,1.570557,0.530762,0.020264
1518877027918,1.354004,0.455811,-0.048828
1518877027950,1.304688,0.275391,-0.106201
1518877028023,1.583740,0.211182,-0.008545
1518877028026,1.514648,0.199707,-0.036377
1518877028092,1.397949,0.190918,-0.095947
1518877028097,1.173828,0.108154,-0.073486
1518877028158,0.972656,0.156006,-0.045654
1518877028165,0.816650,0.209473,-0.023682
1518877028227,0.649658,0.227539,-0.000244
1518877028294,0.617432,0.209961,0.008057
1518877028302,0.581787,0.199707,0.010010
1518877028360,0.528564,0.193115,0.013428
1518877028363,0.538818,0.194824,0.025391
1518877028428,0.558838,0.207031,0.027588
1518877028490,0.687988,0.246582,0.034180
1518877028493,0.800537,0.333252,0.064941
1518877028497,0.903564,0.326904,0.083984
1518877028500,1.356445,0.303955,0.076172
1518877028503,1.378418,0.407227,0.091553
1518877028527,1.194824,0.445557,0.190674
1518877028561,1.531738,0.360107,0.345947
1518877028594,1.545166,0.349854,0.183594
1518877028629,1.260010,0.305664,0.077393
1518877028661,1.010498,0.326660,0.158936
1518877028694,0.839355,0.339600,0.139160
1518877028727,0.681885,0.350586,0.114014
1518877028762,0.577637,0.382324,0.109131
1518877028793,0.543457,0.400391,0.111572
1518877028825,0.559326,0.441650,0.116699
1518877028858,0.556641,0.448242,0.125977
1518877028891,0.615723,0.454834,0.130615
1518877028901,0.721436,0.486084,0.139160
1518877028954,0.998047,0.569336,0.170654
1518877028986,1.139648,0.568359,0.168945
1518877028993,1.201416,0.506836,0.151367
1518877029050,1.407471,0.530762,0.194092
1518877029084,1.209717,0.538086,0.156494
1518877029117,1.037109,0.364258,0.044922
1518877029158,1.745117,0.388184,0.091797
1518877029167,1.631104,0.325195,-0.044434
1518877029217,1.493896,0.216797,-0.098389
1518877029250,1.242432,0.181641,0.020752
1518877029282,0.970459,0.308594,0.141846
1518877029315,0.748779,0.297852,0.180176
1518877029347,0.539307,0.277100,0.183105
1518877029380,0.371338,0.220947,0.168945
1518877029411,0.289795,0.137939,0.107666
1518877029446,0.490234,0.177002,0.039307
1518877029480,0.546143,0.225098,0.057617
1518877029488,0.640869,0.314453,0.106201
1518877029537,0.821533,0.311279,0.154785
1518877029570,0.889404,0.383789,0.221924
1518877029576,0.778809,0.445801,0.363281
1518877029632,0.942139,0.368896,0.124756
1518877029665,1.058350,0.485352,0.111816
1518877029698,0.943115,0.503662,0.250488
1518877029730,1.531250,0.585693,0.249756
1518877029750,1.478760,0.670654,0.319824
1518877029782,1.135742,0.534668,0.207031
1518877029814,0.977295,0.510742,0.066162
1518877029848,0.911865,0.588135,0.065186
1518877029879,0.801025,0.594727,0.174805
1518877029911,0.635254,0.452881,0.132080
1518877029953,0.627197,0.429932,0.069580
1518877029986,0.624512,0.438965,0.090088
1518877030017,0.543213,0.448730,0.021973
1518877030049,0.549316,0.483398,0.003906
1518877030083,0.723633,0.527832,0.029053
1518877030116,1.136475,0.650635,-0.021973
1518877030170,1.208252,0.674805,-0.022705
1518877030173,1.399658,0.681396,0.011963
1518877030229,1.583496,0.751953,0.088379
1518877030232,1.292725,0.630859,-0.004395
1518877030264,1.124756,0.454590,0.032715
1518877030298,1.414795,0.459961,0.113037
1518877030330,1.473389,0.482910,0.058350
1518877030363,1.371826,0.386230,0.078857
1518877030396,1.174561,0.119385,0.110352
1518877030427,1.016846,0.130859,0.060059
1518877030459,0.924316,0.209229,0.041748
1518877030492,0.827148,0.224854,0.036133
1518877030524,0.752686,0.184814,0.031494
1518877030559,0.683594,0.143799,0.024414
1518877030592,0.586182,0.137451,0.007080
1518877030624,0.542236,0.146729,-0.008789
1518877030657,0.549316,0.167969,-0.012695
1518877030689,0.634521,0.251953,0.043457
1518877030721,0.716309,0.302979,0.135254
1518877030754,0.726074,0.265381,0.124756
1518877030786,1.029297,0.406738,0.089355
1518877030819,1.127930,0.577881,0.183350
1518877030851,1.100098,0.517090,0.263916
1518877030884,1.396240,0.344971,0.354492
1518877030918,1.593262,0.420410,0.233643
1518877030951,1.416260,0.481689,0.148926
1518877030984,1.012939,0.458496,0.190186
1518877031016,0.868408,0.432617,0.155762
1518877031047,0.765625,0.435791,0.108887
1518877031080,0.724609,0.504639,0.107666
1518877031113,0.678467,0.499023,0.116943
1518877031126,0.612549,0.499512,0.112305
1518877031184,0.657227,0.493652,0.098145
1518877031187,0.767822,0.481201,0.100098
1518877031243,0.965088,0.452148,0.095947
1518877031275,1.197021,0.488525,0.071777
1518877031308,1.145752,0.482422,0.032959
1518877031316,1.445068,0.489502,0.078857
1518877031372,1.398682,0.556641,0.072510
1518877031404,0.969238,0.471680,-0.001465
1518877031450,1.120605,0.381592,0.038574
1518877031453,1.519287,0.331543,0.086182
1518877031515,1.515381,0.330811,0.070801
1518877031523,1.425537,0.228760,0.027588
1518877031578,1.131836,0.122314,0.042480
1518877031583,1.043945,0.165283,0.060303
1518877031637,0.924805,0.194580,0.035400
1518877031691,0.784180,0.156982,0.041260
1518877031697,0.702637,0.125488,0.073975
1518877031741,0.617920,0.128906,0.108643
1518877031748,0.503906,0.154541,0.082275
1518877031775,0.442871,0.153320,0.057129
1518877031823,0.446777,0.202148,0.065430
1518877031857,0.615234,0.305420,0.096680
1518877031903,0.722900,0.357178,0.133789
1518877031906,0.852783,0.406982,0.180664
1518877031940,1.341064,0.400635,0.154785
1518877031985,1.226563,0.453613,0.174561
1518877032022,1.150879,0.469238,0.262207
1518877032067,1.336426,0.474121,0.326660
1518877032072,1.479492,0.513428,0.191650
1518877032102,1.324707,0.439209,0.160400
1518877032150,0.997559,0.387451,0.187988
1518877032187,0.816650,0.378174,0.161865
1518877032233,0.712646,0.407227,0.109619
1518877032243,0.652100,0.474365,0.078369
1518877032265,0.612549,0.446045,0.083496
1518877032314,0.592041,0.423340,0.088623
1518877032328,0.653320,0.440430,0.108154
1518877032350,0.791992,0.437988,0.131348
1518877032396,0.908447,0.415771,0.109619
1518877032430,1.110596,0.437256,0.119873
1518877032466,1.190918,0.472168,0.135986
1518877032501,1.080811,0.417725,0.092041
1518877032534,1.226074,0.448486,0.123535
1518877032566,1.173584,0.507324,0.105957
1518877032598,0.910645,0.481689,0.071045
1518877032631,1.124268,0.364502,0.022217
1518877032663,1.609863,0.473633,0.139160
1518877032666,1.679199,0.521729,0.079834
1518877032731,1.349365,0.258057,-0.028076
1518877032744,1.137695,0.168701,0.027832
1518877032778,1.023926,0.208984,0.070557
1518877032836,0.878174,0.257813,0.060791
1518877032844,0.788086,0.227783,0.058594
1518877032868,0.679199,0.196777,0.063721
1518877032927,0.579834,0.190674,0.069092
1518877032939,0.518311,0.166260,0.065430
1518877033029,0.491211,0.182373,0.067139
1518877033032,0.574463,0.213135,0.090332
1518877033094,0.686523,0.236084,0.105469
1518877033098,0.731934,0.266846,0.142822
1518877033162,0.854492,0.231201,0.176025
1518877033230,1.081787,0.248291,0.187744
1518877033300,1.130371,0.294922,0.160156
1518877033308,1.238281,0.325439,0.203125
1518877033366,1.446777,0.317139,0.224121
1518877033374,1.620117,0.384033,0.175293
1518877033432,1.441162,0.431396,0.078369
1518877033437,1.054443,0.433105,0.071289
1518877033491,0.811768,0.391846,0.079834
1518877033494,0.696777,0.425781,0.032959
1518877033497,0.677490,0.486572,0.025391
1518877033508,0.651855,0.492188,0.036865
1518877033511,0.662598,0.445313,0.054199
1518877033514,0.721680,0.464844,0.074463
1518877033544,0.767578,0.480713,0.086426
1518877033580,0.962402,0.547363,0.167969
1518877033613,1.125732,0.556152,0.145508
1518877033644,1.316650,0.505127,0.087891
1518877033702,1.596680,0.569824,0.134521
1518877033708,1.301514,0.398682,-0.020020
1518877033763,1.574707,0.324951,0.008545
1518877033797,1.637207,0.240723,0.020264
1518877033805,1.562988,0.215576,-0.010498
1518877033831,1.429443,0.153809,-0.021240
1518877033864,1.124268,0.165771,-0.027832
1518877033896,1.033936,0.158691,-0.022705
1518877033928,1.010986,0.132568,-0.053467
1518877033961,0.841797,0.090088,-0.055908
1518877034011,0.705811,0.087158,-0.017090
1518877034043,0.579834,0.085205,-0.001221
1518877034075,0.428711,0.087891,0.025391
1518877034108,0.426025,0.086914,0.078125
1518877034140,0.443604,0.104248,0.085205
1518877034173,0.544434,0.184814,0.036133
1518877034205,0.645996,0.262939,0.069092
1518877034208,1.068115,0.278809,0.083740
1518877034265,1.277832,0.414551,0.039307
1518877034297,1.383545,0.394287,0.133545
1518877034304,1.695068,0.371094,0.298340
1518877034360,1.686523,0.510254,0.167236
1518877034374,1.392822,0.499756,0.090820
1518877034409,1.121094,0.456543,0.130127
1518877034442,0.895996,0.446045,0.086670
1518877034475,0.810303,0.484619,0.060547
1518877034507,0.780762,0.576172,0.072998
1518877034540,0.700684,0.620117,0.118652
1518877034572,0.644775,0.552979,0.119385
1518877034631,0.648926,0.487793,0.098389
1518877034664,0.869385,0.447998,0.096924
1518877034695,1.071777,0.454102,0.073730
1518877034703,1.126465,0.463135,0.035889
1518877034758,1.339600,0.466797,0.058105
1518877034773,1.326416,0.530762,0.098389
1518877034805,1.195313,0.447266,0.045898
1518877034863,1.531494,0.379150,0.050293
1518877034871,1.689941,0.327637,0.012451
1518877034897,1.557617,0.255127,-0.062744
1518877034955,1.306641,0.208740,-0.000732
1518877034963,1.084961,0.181641,0.011230
1518877034987,0.897217,0.202881,-0.019287
1518877035046,0.790771,0.210938,-0.010498
1518877035077,0.794189,0.197266,0.031982
1518877035083,0.727295,0.196533,0.047852
1518877035142,0.589111,0.151855,0.027344
1518877035174,0.511963,0.146729,0.045898
1518877035205,0.532227,0.171387,0.085205
1518877035238,0.612061,0.214355,0.093506
1518877035290,0.691895,0.230225,0.090332
1518877035294,0.760742,0.284180,0.139648
1518877035324,1.068115,0.354980,0.148193
1518877035357,1.212402,0.390381,0.137939
1518877035393,1.148438,0.505371,0.149658
1518877035428,1.017090,0.402100,0.173584
1518877035459,1.214600,0.374023,0.167480
1518877035493,1.365967,0.420654,0.143311
1518877035526,1.277832,0.415283,0.144775
1518877035558,1.064209,0.378174,0.150635
1518877035571,0.904297,0.391602,0.095703
1518877035604,0.781006,0.481201,0.073242
1518877035636,0.734375,0.530273,0.086670
1518877035692,0.694336,0.539307,0.117920
1518877035701,0.666260,0.477539,0.163330
1518877035757,0.733154,0.455811,0.185791
1518877035789,0.847412,0.419434,0.173828
1518877035822,1.071289,0.427246,0.149170
1518877035853,1.165527,0.474609,0.141113
1518877035857,1.078613,0.461182,0.119385
1518877035912,1.284424,0.453857,0.145264
1518877035944,1.341797,0.499512,0.167725
1518877035949,1.069092,0.416748,0.086426
1518877035992,1.450195,0.334961,0.079834
1518877036024,1.581543,0.335205,0.076172
1518877036056,1.403809,0.331543,0.008545
1518877036088,1.135498,0.258789,0.011719
1518877036122,0.983154,0.247314,0.012939
1518877036154,0.869873,0.250000,-0.010742
1518877036186,0.806885,0.204590,-0.006348
1518877036220,0.774658,0.161133,-0.018311
1518877036253,0.733643,0.152100,-0.007813
1518877036286,0.720703,0.158936,0.028320
1518877036317,0.661133,0.181152,0.027588
1518877036353,0.632080,0.175537,0.019531
1518877036398,0.658447,0.205078,0.044434
1518877036402,0.740723,0.266602,0.100098
1518877036455,0.796387,0.295898,0.158691
1518877036490,1.084961,0.365723,0.213867
1518877036498,1.203369,0.321289,0.189941
1518877036571,1.075439,0.331543,0.180420
1518877036577,1.322754,0.334229,0.355225
1518877036606,1.503662,0.337891,0.306152
1518877036642,1.418701,0.348389,0.109375
1518877036674,1.218994,0.373535,0.150146
1518877036706,0.987061,0.450928,0.148193
1518877036739,0.780518,0.461182,0.082520
1518877036770,0.694092,0.476807,0.044434
1518877036804,0.724365,0.484131,0.052246
1518877036836,0.707520,0.478027,0.045654
1518877036867,0.721436,0.477539,0.042725
1518877036906,0.743164,0.481445,0.045654
1518877036915,0.860352,0.452637,0.038574
1518877036969,1.120605,0.466797,0.036621
1518877037001,1.176270,0.473877,0.035889
1518877037032,1.132813,0.419434,0.003174
1518877037065,1.363281,0.485840,0.088379
1518877037098,1.345947,0.506836,0.126709
1518877037131,1.105957,0.378418,0.096436
1518877037163,1.436035,0.238770,0.102539
1518877037178,1.484375,0.219971,0.101074
1518877037237,1.376465,0.245605,0.071045
1518877037268,1.136475,0.236084,0.029785
1518877037277,1.013184,0.220947,0.044922
1518877037313,0.911133,0.216064,0.044434
1518877037346,0.829102,0.210693,0.013184
1518877037379,0.764404,0.187500,0.015625
1518877037413,0.717285,0.166260,0.016602
1518877037468,0.592529,0.185791,0.027100
1518877037474,0.550781,0.195557,0.036621
1518877037504,0.549561,0.216064,0.039551
1518877037560,0.669678,0.263428,0.047607
1518877037566,0.710938,0.272705,0.052002
1518877037592,0.733154,0.290771,0.106445
1518877037650,1.038818,0.366943,0.135498
1518877037684,1.208008,0.427979,0.171143
1518877037692,1.092041,0.434082,0.209961
1518877037748,1.235107,0.371826,0.325684
1518877037781,1.439941,0.409180,0.311035
1518877037812,1.505127,0.358643,0.142334
1518877037851,1.190918,0.332764,0.114746
1518877037883,0.948975,0.372314,0.142822
1518877037889,0.781006,0.384521,0.122070
1518877037948,0.682129,0.432129,0.070801
1518877038022,0.659180,0.444336,0.060303
1518877038030,0.630371,0.454346,0.095947
1518877038088,0.607178,0.421875,0.093994
1518877038093,0.712891,0.428955,0.091309
1518877038156,0.867432,0.433105,0.106934
1518877038163,1.080811,0.443115,0.105469
1518877038222,1.173340,0.478760,0.115234
1518877038225,1.139648,0.437012,0.062744
1518877038290,1.368164,0.507324,0.154541
1518877038295,1.326172,0.525879,0.144287
1518877038359,1.101318,0.431152,0.082031
1518877038367,1.380127,0.345947,0.092529
1518877038427,1.570801,0.303467,0.101074
1518877038436,1.469238,0.265137,0.072266
1518877038491,1.216309,0.191895,0.045654
1518877038496,1.062500,0.225342,0.035156
1518877038501,0.939209,0.236572,0.027100
1518877038527,0.849365,0.209961,0.034668
1518877038560,0.772949,0.170166,0.029785
1518877038569,0.679443,0.185303,0.018311
1518877038618,0.571777,0.201172,0.031738
1518877038625,0.504150,0.212646,0.061768
1518877038682,0.519775,0.232666,0.081299
1518877038691,0.601807,0.247559,0.103271
1518877038744,0.662354,0.242188,0.110840
1518877038777,0.701172,0.246582,0.161621
1518877038809,1.108887,0.225342,0.188965
1518877038842,1.256348,0.279785,0.154053
1518877038859,1.099609,0.328857,0.152832
1518877038890,1.391846,0.251953,0.227295
1518877038923,1.573486,0.314209,0.168945
1518877038955,1.495850,0.377930,0.054932
1518877039013,1.250244,0.398682,0.113037
1518877039024,1.027588,0.441895,0.139648
1518877039048,0.818359,0.458984,0.099609
1518877039106,0.687500,0.469727,0.083252
1518877039111,0.657959,0.477051,0.120361
1518877039139,0.656250,0.465088,0.173340
1518877039195,0.629395,0.463623,0.162598
1518877039229,0.697021,0.470215,0.144043
1518877039240,0.841797,0.490967,0.128906
1518877039277,1.083740,0.515869,0.191406
1518877039310,1.222656,0.503906,0.186279
1518877039340,1.328613,0.439453,0.148193
1518877039373,1.506348,0.459717,0.218018
1518877039405,1.361328,0.388428,0.196777
1518877039438,1.131348,0.307129,0.105469
1518877039470,1.282715,0.326904,0.086426
1518877039504,1.395996,0.328369,0.097168
1518877039536,1.334473,0.282471,0.031738
1518877039570,1.165527,0.253906,0.001221
1518877039603,1.069580,0.278809,0.006592
1518877039635,0.928955,0.258789,-0.000244
1518877039668,0.792969,0.225342,-0.022461
1518877039708,0.716797,0.193848,-0.022949
1518877039742,0.641113,0.204346,-0.003906
1518877039772,0.559326,0.182129,0.029297
1518877039805,0.491699,0.205566,0.052490
1518877039838,0.470459,0.207031,0.055176
1518877039869,0.558594,0.255127,0.091309
1518877039902,0.637207,0.271973,0.131592
1518877039934,0.711914,0.270020,0.175049
1518877039967,1.033691,0.293945,0.182861
1518877039999,1.192383,0.281006,0.136230
1518877040002,1.168213,0.375244,0.170898
1518877040060,1.329834,0.423096,0.321777
1518877040090,1.554932,0.459717,0.331543
1518877040099,1.543945,0.379883,0.147949
1518877040155,1.242188,0.376709,0.084229
1518877040188,1.109131,0.421875,0.120361
1518877040227,0.928467,0.445801,0.103271
1518877040259,0.773193,0.458008,0.111572
1518877040268,0.694824,0.444336,0.095215
1518877040320,0.658691,0.446777,0.127441
1518877040354,0.625000,0.432861,0.129639
1518877040386,0.641357,0.427490,0.141357
1518877040410,0.731934,0.406006,0.128906
1518877040444,0.971680,0.419189,0.134521
1518877040476,1.170654,0.447021,0.134766
1518877040517,1.136719,0.442139,0.096436
1518877040550,1.298096,0.461426,0.084229
1518877040582,1.303223,0.515869,0.105957
1518877040589,1.277832,0.539307,0.081299
1518877040642,1.075439,0.389648,0.016602
1518877040674,1.369873,0.367432,0.075439
1518877040680,1.459473,0.319092,0.048340
1518877040737,1.318359,0.240967,-0.030029
1518877040769,1.129150,0.205566,-0.011963
1518877040801,0.995850,0.212158,0.020752
1518877040834,0.902100,0.227295,0.020020
1518877040867,0.844971,0.187500,0.011475
1518877040900,0.790527,0.140869,0.016113
1518877040912,0.718994,0.108154,0.036865
1518877040971,0.634277,0.130127,0.052002
1518877041004,0.583740,0.126953,0.037598
1518877041036,0.574463,0.160889,0.057861
1518877041067,0.688721,0.221191,0.103760
1518877041099,0.794434,0.236328,0.104736
1518877041132,0.893066,0.227539,0.133301
1518877041164,1.201904,0.268066,0.173340
1518877041168,1.344971,0.319580,0.180420
1518877041224,1.167725,0.408691,0.171631
1518877041230,1.189453,0.355469,0.247070
1518877041263,1.395264,0.393066,0.257324
1518877041296,1.483398,0.410889,0.098633
1518877041338,1.193115,0.395996,0.079346
1518877041371,0.960205,0.368896,0.123047
1518877041403,0.794189,0.373047,0.084961
1518877041438,0.710449,0.433105,0.060547
1518877041470,0.658936,0.466064,0.046875
1518877041503,0.569336,0.456543,0.093262
1518877041536,0.572021,0.436523,0.096191
1518877041567,0.650635,0.430664,0.071533
1518877041599,0.834961,0.418701,0.059082
1518877041632,0.964600,0.451660,0.064453
1518877041664,1.133057,0.484619,0.081787
1518877041692,1.141846,0.436768,0.024414
1518877041725,1.423828,0.464111,0.074463
1518877041758,1.393066,0.529785,0.110840
1518877041790,0.959473,0.389648,0.015381
1518877041824,1.292969,0.328857,0.065674
1518877041857,1.533691,0.345459,0.132080
1518877041887,1.498535,0.315674,0.038330
1518877041921,1.344238,0.194824,0.006348
1518877041954,1.215576,0.181641,0.040771
1518877041987,1.043701,0.212646,0.032471
1518877042017,0.927246,0.223633,0.006836
1518877042054,0.825684,0.200439,0.015137
1518877042082,0.680908,0.164551,0.036865
1518877042115,0.586670,0.188477,0.045166
1518877042125,0.549072,0.205322,0.025635
1518877042182,0.502930,0.236816,0.006836
1518877042214,0.584961,0.301025,0.033691
1518877042246,0.662354,0.347656,0.058105
1518877042278,0.669189,0.338867,0.064941
1518877042310,0.803467,0.435059,0.114990
1518877042344,1.029053,0.435547,0.167725
1518877042376,1.054688,0.448486,0.179932
1518877042409,1.006836,0.430420,0.223389
1518877042441,1.138428,0.432373,0.281982
1518877042473,1.431885,0.446533,0.256104
1518877042506,1.515137,0.387451,0.195801
1518877042548,1.319824,0.370850,0.170898
1518877042580,0.984131,0.380859,0.115479
1518877042613,0.852539,0.396240,0.111084
1518877042618,0.760010,0.442871,0.086670
1518877042673,0.689941,0.481201,0.051270
1518877042706,0.647461,0.465332,0.058594
1518877042714,0.617432,0.460205,0.070068
1518877042763,0.632080,0.467773,0.061768
1518877042796,0.708496,0.458008,0.050049
1518877042828,0.854736,0.469727,0.068848
1518877042859,1.152100,0.487061,0.080078
1518877042892,1.156250,0.447266,0.044678
1518877042924,1.256592,0.419189,0.062500
1518877042998,1.455566,0.493652,0.148438
1518877043007,1.141602,0.455566,0.095215
1518877043065,0.989746,0.337646,0.077637
1518877043071,1.395264,0.343018,0.179932
1518877043132,1.480469,0.296631,0.141846
1518877043135,1.340576,0.229248,0.051270
1518877043201,1.111328,0.185303,0.070313
1518877043207,1.003174,0.247559,0.098633
1518877043270,0.918701,0.257568,0.073975
1518877043278,0.804932,0.228760,0.062988
1518877043338,0.715332,0.199951,0.069580
1518877043406,0.630371,0.196777,0.066895
1518877043471,0.531738,0.224365,0.064453
1518877043474,0.504395,0.204590,0.052979
1518877043497,0.518311,0.240723,0.057373
1518877043501,0.650391,0.282471,0.081055
1518877043505,0.741699,0.317139,0.102783
1518877043508,0.801270,0.371826,0.139160
1518877043533,1.132080,0.348633,0.169922
1518877043565,1.202881,0.361572,0.166016
1518877043599,1.086914,0.390381,0.177979
1518877043631,1.165527,0.316406,0.237549
1518877043665,1.468506,0.397217,0.260254
1518877043698,1.507324,0.400146,0.158691
1518877043729,1.191650,0.358154,0.098633
1518877043772,1.009521,0.369873,0.117676
1518877043780,0.836426,0.401123,0.083008
1518877043829,0.713379,0.471924,0.038574
1518877043862,0.679199,0.489990,0.047852
1518877043871,0.658691,0.481934,0.071533
1518877043926,0.643311,0.446289,0.071045
1518877043959,0.707031,0.448730,0.086670
1518877043992,0.790771,0.439209,0.083984
1518877044023,0.973389,0.446533,0.077148
1518877044055,1.116699,0.464355,0.086670
1518877044065,1.030518,0.430664,0.050537
1518877044110,1.333496,0.471191,0.109619
1518877044143,1.383301,0.520264,0.135254
1518877044185,1.039063,0.413574,0.048828
1518877044218,1.359619,0.320801,0.097168
1518877044252,1.565918,0.322510,0.128662
1518877044284,1.514893,0.291748,0.031006
1518877044314,1.221436,0.202637,-0.001709
1518877044317,1.104980,0.238525,0.033936
1518877044373,0.950439,0.248291,0.029541
1518877044405,0.820068,0.251953,0.005859
1518877044438,0.757324,0.206543,0.012207
1518877044471,0.717041,0.205322,0.044678
1518877044503,0.625732,0.178955,0.026611
1518877044537,0.575928,0.173584,0.010254
1518877044570,0.563965,0.193115,0.011963
1518877044601,0.686523,0.253906,0.061035
1518877044633,0.765381,0.305664,0.097900
1518877044636,0.763916,0.295654,0.129639
1518877044692,1.016846,0.334473,0.197510
1518877044725,1.140137,0.295410,0.186523
1518877044733,1.064209,0.344238,0.181396
1518877044789,1.011719,0.334961,0.256348
1518877044823,1.389648,0.341553,0.277344
1518877044856,1.601074,0.358887,0.178711
1518877044886,1.334717,0.351074,0.114258
1518877044919,1.145508,0.370361,0.186768
1518877044952,0.971436,0.379883,0.132080
1518877044966,0.816895,0.440674,0.061279
1518877045023,0.736084,0.475586,0.070557
1518877045035,0.651367,0.490234,0.095215
1518877045063,0.543701,0.493896,0.080078
1518877045119,0.568604,0.511719,0.085938
1518877045152,0.675049,0.490479,0.097900
1518877045184,0.953613,0.480957,0.094238
1518877045218,1.121094,0.482666,0.086670
1518877045221,1.101563,0.458008,0.062500
1518877045276,1.367676,0.468750,0.107666
1518877045308,1.318359,0.489014,0.139648
1518877045312,1.097168,0.444092,0.121094
1518877045372,1.288574,0.357422,0.088623
1518877045405,1.521484,0.357178,0.112305
1518877045436,1.447266,0.343750,0.095947
1518877045469,1.255859,0.233398,0.080566
1518877045501,1.116455,0.229736,0.090576
1518877045531,0.974365,0.249756,0.084717
1518877045564,0.820801,0.257568,0.107910
1518877045596,0.749756,0.230713,0.130615
1518877045629,0.661865,0.223877,0.115479
1518877045662,0.562744,0.225830,0.124756
1518877045694,0.500488,0.224365,0.143799
1518877045728,0.461670,0.212891,0.123047
1518877045759,0.551514,0.271729,0.115234
1518877045799,0.658447,0.326904,0.137451
1518877045804,0.772949,0.403076,0.186035
1518877045858,0.929688,0.327393,0.162354
1518877045891,0.999756,0.320557,0.160400
1518877045896,1.027344,0.364014,0.176758
1518877045951,1.075684,0.326660,0.179199
1518877045982,1.419434,0.372070,0.213135
1518877046018,1.651855,0.424561,0.213623
1518877046052,1.439941,0.394043,0.133545
1518877046061,1.128906,0.375244,0.154297
1518877046114,0.917236,0.401367,0.154541
1518877046147,0.756104,0.437744,0.080566
1518877046161,0.684082,0.468994,0.073486
1518877046219,0.619141,0.469727,0.084961
1518877046253,0.551270,0.481934,0.095459
1518877046262,0.558105,0.494629,0.080566
1518877046316,0.675537,0.495850,0.084229
1518877046348,0.943848,0.504150,0.114258
1518877046379,1.151855,0.483887,0.107910
1518877046383,1.118408,0.436523,0.051025
1518877046438,1.411865,0.432861,0.085938
1518877046470,1.519043,0.484619,0.116211
1518877046473,1.166992,0.453613,0.065918
1518877046529,1.285645,0.303467,0.062988
1518877046563,1.482422,0.324463,0.100342
1518877046575,1.470459,0.370361,0.079590
1518877046633,1.287354,0.224854,0.025635
1518877046639,1.125977,0.184082,0.045898
1518877046697,1.024170,0.206543,0.065430
1518877046730,0.883545,0.229492,0.040283
1518877046763,0.775391,0.186768,0.032715
1518877046811,0.685791,0.161621,0.031738
1518877046817,0.588135,0.171875,0.039307
1518877046845,0.534912,0.177734,0.059326
1518877046878,0.539795,0.175781,0.062988
1518877046911,0.613525,0.228516,0.066650
1518877046942,0.703857,0.289063,0.082031
1518877046977,0.737305,0.329590,0.132813
1518877046990,1.014160,0.411133,0.156982
1518877047048,1.136230,0.415039,0.198486
1518877047053,1.058838,0.494873,0.243896
1518877047111,0.962646,0.407715,0.244629
1518877047144,1.256592,0.463623,0.293701
1518877047177,1.432129,0.503662,0.255615
1518877047209,1.327637,0.454834,0.165039
1518877047243,1.185547,0.416992,0.196777
1518877047275,1.000488,0.411621,0.161133
1518877047308,0.839600,0.431152,0.096436
1518877047340,0.760742,0.457764,0.082275
1518877047349,0.691650,0.465088,0.087891
1518877047410,0.615479,0.456787,0.097168
1518877047418,0.576172,0.441162,0.075684
1518877047443,0.618652,0.445557,0.070313
1518877047500,0.819580,0.462646,0.095703
1518877047506,1.000244,0.474609,0.105957
1518877047560,1.034668,0.469971,0.069824
1518877047593,1.362549,0.470947,0.101563
1518877047626,1.497803,0.529541,0.161621
1518877047658,1.145996,0.444336,0.093994
1518877047692,1.171387,0.324219,0.084717
1518877047725,1.400391,0.330322,0.175781
1518877047758,1.426514,0.305908,0.156250
1518877047789,1.267578,0.191162,0.067627
1518877047807,1.118164,0.122803,0.061523
1518877047832,0.995361,0.152344,0.058105
1518877047888,0.949951,0.195801,0.051025
1518877047922,0.873047,0.201660,0.031494
1518877047930,0.773193,0.173340,0.026855
1518877048027,0.690186,0.170654,0.035156
1518877048035,0.663818,0.203613,0.059814
1518877048091,0.632324,0.254150,0.066895
1518877048095,0.596924,0.282227,0.068604
1518877048160,0.628906,0.293701,0.077148
1518877048164,0.677002,0.335693,0.105713
1518877048229,0.765625,0.436523,0.139404
1518877048236,0.966553,0.438721,0.121094
1518877048295,1.097656,0.442627,0.144775
1518877048302,1.024414,0.448242,0.156982
1518877048364,1.029541,0.424805,0.177246
1518877048373,1.097412,0.444580,0.190674
1518877048432,1.244873,0.452393,0.207031
1518877048440,1.225342,0.419434,0.216553
1518877048497,1.124268,0.406494,0.221436
1518877048500,0.938477,0.391113,0.207520
1518877048521,0.844238,0.417480,0.201904
1518877048524,0.758545,0.428223,0.201416
1518877048555,0.711670,0.433105,0.202881
1518877048588,0.680176,0.430176,0.192627
1518877048620,0.677490,0.426270,0.193359
1518877048654,0.740234,0.406982,0.217773
1518877048687,0.860352,0.365234,0.199219
1518877048718,1.089111,0.340576,0.202637
1518877048750,1.138672,0.312500,0.144775
1518877048782,1.107666,0.311279,0.123047
1518877048814,1.253906,0.344971,0.144043
1518877048847,1.268555,0.405518,0.166504
1518877048880,0.918457,0.342529,0.104492
1518877048918,0.979492,0.306885,0.078857
1518877048949,1.360107,0.336182,0.106201
1518877048983,1.295898,0.354980,0.088867
1518877048991,1.195068,0.277588,0.057373
1518877049042,1.031250,0.246826,0.058350
1518877049083,0.931641,0.269531,0.075439
1518877049092,0.833740,0.295166,0.067139
1518877049140,0.729492,0.256592,0.076416
1518877049173,0.658691,0.248047,0.084717
1518877049206,0.601318,0.260254,0.105225
1518877049238,0.548340,0.291504,0.090820
1518877049271,0.539063,0.316406,0.053955
1518877049304,0.622803,0.356689,0.062988
1518877049336,0.771484,0.418701,0.064209
1518877049371,0.836914,0.499512,0.078613
1518877049403,0.870117,0.508057,0.100830
1518877049436,0.995605,0.455322,0.099121
1518877049450,1.107178,0.460449,0.190186
1518877049482,1.015625,0.474854,0.232178
1518877049515,1.002686,0.354736,0.197021
1518877049547,1.177979,0.401123,0.269775
1518877049581,1.280762,0.400146,0.300537
1518877049612,1.215820,0.318115,0.251709
1518877049645,1.039063,0.303467,0.244873
1518877049678,0.880127,0.344971,0.227051
1518877049711,0.704834,0.361816,0.186768
1518877049744,0.642822,0.362305,0.169189
1518877049776,0.632080,0.377441,0.160645
1518877049808,0.620117,0.409424,0.161865
1518877049841,0.704346,0.406738,0.158691
1518877049862,0.777344,0.396240,0.143799
1518877049917,0.935303,0.371338,0.157471
1518877049949,1.116211,0.362793,0.153564
1518877049954,1.134033,0.342285,0.111084
1518877050007,1.246582,0.335205,0.114746
1518877050013,1.489014,0.443115,0.218262
1518877050047,1.057617,0.448730,0.157471
1518877050104,1.022461,0.263184,0.085205
1518877050113,1.453857,0.298096,0.170166
1518877050167,1.404297,0.352295,0.156982
1518877050201,1.156982,0.233398,0.080322
1518877050234,1.084717,0.191895,0.129639
1518877050267,1.033447,0.237793,0.131348
1518877050299,0.882080,0.268555,0.102783
1518877050332,0.774170,0.231445,0.135498
1518877050364,0.696289,0.229736,0.153564
1518877050397,0.608154,0.220947,0.128174
1518877050427,0.544434,0.246094,0.123047
1518877050461,0.521973,0.268066,0.120850
1518877050492,0.575195,0.318604,0.105469
1518877050524,0.672607,0.333740,0.088867
1518877050532,0.746338,0.399414,0.135254
1518877050583,0.847412,0.438965,0.145020
1518877050616,1.086182,0.430176,0.128418
1518877050627,1.158936,0.448486,0.213623
1518877050681,1.011475,0.424316,0.254883
1518877050715,1.112549,0.416016,0.301514
1518877050748,1.299316,0.437744,0.319580
1518877050780,1.242188,0.342529,0.274170
1518877050812,1.107422,0.301758,0.244629
1518877050823,0.942383,0.304932,0.230225
1518877050881,0.792236,0.343262,0.203125
1518877050914,0.734131,0.378174,0.205078
1518877050947,0.690918,0.375977,0.182861
1518877050979,0.684814,0.397705,0.184326
1518877051011,0.706055,0.407227,0.175537
1518877051019,0.710938,0.391602,0.146729
1518877051070,0.790527,0.357422,0.125000
1518877051102,0.947998,0.370850,0.140625
1518877051110,1.065186,0.400391,0.150146
1518877051164,0.997070,0.348633,0.111084
1518877051197,1.168701,0.358154,0.106689
1518877051231,1.212646,0.418945,0.144531
1518877051262,0.871826,0.414307,0.090088
1518877051297,0.894287,0.353760,0.065674
1518877051327,1.328125,0.430908,0.135010
1518877051360,1.617676,0.453125,0.104492
1518877051392,1.429443,0.335693,0.041504
1518877051424,1.191650,0.212402,0.046387
1518877051438,1.017822,0.233154,0.081543
1518877051470,0.960449,0.271240,0.068115
1518877051529,0.863037,0.291504,0.077881
1518877051551,0.734863,0.228271,0.103760
1518877051605,0.664307,0.190430,0.102539
1518877051609,0.612549,0.182373,0.088135
1518877051661,0.600830,0.201660,0.066895
1518877051715,0.605225,0.248779,0.068115
1518877051723,0.671631,0.298340,0.081543
1518877051767,0.715820,0.346191,0.103760
1518877051770,0.746582,0.362305,0.112793
1518877051803,0.975830,0.494873,0.141602
1518877051849,1.011963,0.471436,0.162842
1518877051863,0.899658,0.418213,0.174316
1518877051887,1.004639,0.361816,0.218750
1518877051932,1.337646,0.395020,0.204590
1518877051969,1.408447,0.395996,0.136475
1518877052018,1.191162,0.356934,0.140381
1518877052026,0.970215,0.366943,0.178711
1518877052050,0.863525,0.389160,0.131348
1518877052181,0.807373,0.441895,0.093750
1518877052183,0.714844,0.428467,0.096436
1518877052185,0.639893,0.417480,0.097168
1518877052187,0.557617,0.431152,0.100098
1518877052216,0.602051,0.442139,0.093506
1518877052264,0.764160,0.411377,0.057861
1518877052277,1.023438,0.392578,0.055664
1518877052343,1.040771,0.419922,0.023926
1518877052347,1.142334,0.427490,-0.018555
1518877052380,1.448242,0.514404,0.045410
1518877052426,1.280273,0.544922,0.018799
1518877052434,1.102539,0.432129,-0.012207
1518877052468,1.436523,0.370850,0.057861
1518877052524,1.500244,0.316895,0.016357
1518877052556,1.442627,0.250488,-0.010986
1518877052559,1.259033,0.168457,0.000000
1518877052615,1.050781,0.193359,0.008301
1518877052648,0.940186,0.200684,-0.017822
1518877052651,0.834473,0.203613,-0.033203
1518877052708,0.690430,0.175293,-0.011963
1518877052742,0.630615,0.166504,0.004639
1518877052752,0.566650,0.156982,0.005859
1518877052810,0.512939,0.166260,0.002686
1518877052818,0.536621,0.194580,0.002441
1518877052873,0.609131,0.210205,0.016113
1518877052904,0.747314,0.266602,0.046631
1518877052937,0.800049,0.337646,0.094971
1518877053010,1.005859,0.356934,0.112305
1518877053015,1.183105,0.391357,0.135742
1518877053077,1.016113,0.424805,0.170898
1518877053146,1.240967,0.355469,0.275635
1518877053214,1.640137,0.398682,0.236328
1518877053222,1.503906,0.375732,0.068604
1518877053281,1.268311,0.373047,0.121826
1518877053285,1.043457,0.410889,0.135986
1518877053349,0.893555,0.434570,0.073730
1518877053357,0.801514,0.496338,0.081055
1518877053415,0.673828,0.496582,0.120117
1518877053418,0.534668,0.433350,0.087158
1518877053484,0.462402,0.419189,0.078125
1518877053492,0.504883,0.435303,0.107910
1518877053519,0.727051,0.445068,0.128174
1518877053523,1.066895,0.415039,0.123047
1518877053526,1.180664,0.314209,0.021973
1518877053535,1.410889,0.370117,0.066895
1518877053539,1.443848,0.457764,0.087158
1518877053569,1.139160,0.392822,0.043945
1518877053602,1.303223,0.340088,0.072754
1518877053635,1.417236,0.336426,0.082275
1518877053667,1.334717,0.273193,0.014893
1518877053701,1.182129,0.190918,0.033447
1518877053739,1.015869,0.208496,0.051270
1518877053771,0.841553,0.263184,0.044434
1518877053804,0.744873,0.255371,0.042480
1518877053813,0.679688,0.240723,0.047363
1518877053867,0.602783,0.229004,0.060059
1518877053880,0.561279,0.223633,0.047852
1518877053937,0.536133,0.248535,0.030762
1518877053951,0.570313,0.284180,0.023682
1518877053987,0.663574,0.317871,0.031738
1518877054017,0.795410,0.360596,0.045654
1518877054049,0.917725,0.383789,0.080322
1518877054082,1.117920,0.359619,0.121582
1518877054115,1.308350,0.394287,0.179932
1518877054147,1.062988,0.384766,0.156250
1518877054180,1.054199,0.355957,0.201416
1518877054213,1.262939,0.370361,0.245361
1518877054245,1.343506,0.381592,0.166992
1518877054278,1.183350,0.326904,0.165283
1518877054311,1.027832,0.349854,0.163086
1518877054345,0.862305,0.369873,0.109863
1518877054379,0.782471,0.385742,0.107178
1518877054411,0.730225,0.386230,0.109619
1518877054446,0.678467,0.375488,0.098389
1518877054491,0.663574,0.385010,0.106934
1518877054497,0.677002,0.376221,0.101318
1518877054551,0.698730,0.359863,0.117920
1518877054583,0.799072,0.356201,0.114990
1518877054615,1.012451,0.343506,0.124756
1518877054647,1.093506,0.353271,0.099121
1518877054679,1.148926,0.345703,0.096924
1518877054714,1.389893,0.446045,0.157471
1518877054748,1.084717,0.488037,0.123047
1518877054780,0.931152,0.358398,0.052979
1518877054783,1.288086,0.386963,0.143555
1518877054840,1.360352,0.354248,0.113770
1518877054849,1.191650,0.290283,0.067139
1518877054899,1.098877,0.287842,0.119629
1518877054931,1.022217,0.308838,0.097656
1518877054963,0.945313,0.276855,0.087891
1518877054995,0.868896,0.231934,0.111084
1518877055029,0.784180,0.197998,0.158936
1518877055062,0.709961,0.190918,0.142334
1518877055094,0.653564,0.188232,0.130371
1518877055132,0.562256,0.175537,0.121094
1518877055166,0.544678,0.188232,0.125977
1518877055171,0.597656,0.238770,0.140137
1518877055224,0.666748,0.297363,0.165527
1518877055257,0.693359,0.303467,0.159912
1518877055260,0.972412,0.378662,0.168213
1518877055317,1.273193,0.378174,0.211426
1518877055349,1.179688,0.393555,0.223389
1518877055383,1.184082,0.368408,0.267334
1518877055414,1.355957,0.402344,0.238281
1518877055422,1.340576,0.376709,0.165039
1518877055478,1.198486,0.366211,0.167480
1518877055512,0.967529,0.384521,0.147461
1518877055543,0.857178,0.412598,0.115723
1518877055575,0.801025,0.444092,0.099609
1518877055608,0.731689,0.454590,0.102051
1518877055641,0.684570,0.442139,0.096436
1518877055677,0.651367,0.453857,0.091553
1518877055709,0.633545,0.466797,0.115723
1518877055741,0.666016,0.453857,0.109375
1518877055746,0.868652,0.440430,0.128662
1518877055801,1.102539,0.424805,0.102783
1518877055833,1.007080,0.367188,0.036377
1518877055838,1.227051,0.400391,0.081543
1518877055895,1.392334,0.496338,0.138428
1518877055928,1.134277,0.412598,0.051758
1518877055941,1.249023,0.313232,0.026367
1518877055975,1.416016,0.311035,0.043213
1518877056008,1.473145,0.318359,0.038330
1518877056040,1.312012,0.289551,0.025879
1518877056071,1.054199,0.239502,0.018311
1518877056104,0.907715,0.254395,0.014648
1518877056161,0.819092,0.259277,0.004150
1518877056194,0.727295,0.238037,0.006348
1518877056203,0.670410,0.220947,0.042969
1518877056258,0.628662,0.215820,0.053467
1518877056291,0.571289,0.208496,0.015869
1518877056324,0.593750,0.225098,0.003174
1518877056332,0.680908,0.275391,0.025391
1518877056381,0.705078,0.329590,0.069824
1518877056389,0.744141,0.335693,0.117676
1518877056417,0.956299,0.419434,0.117188
1518877056475,1.021973,0.444336,0.177979
1518877056507,0.893555,0.440430,0.263428
1518877056539,0.940918,0.343994,0.310547
1518877056572,1.502441,0.398926,0.286133
1518877056606,1.489258,0.364990,0.146973
1518877056619,1.355713,0.254395,0.084229
1518877056672,1.179932,0.361816,0.162842
1518877056706,0.995605,0.430176,0.148682
1518877056738,0.852539,0.460205,0.123535
1518877056753,0.699219,0.475098,0.125977
1518877056810,0.610840,0.429932,0.127686
1518877056819,0.562500,0.401367,0.124512
1518877056875,0.590332,0.387451,0.114746
1518877056907,0.739502,0.389648,0.146484
1518877056916,0.933350,0.432373,0.156738
1518877056964,1.051758,0.443115,0.108154
1518877056970,1.044678,0.437988,0.064697
1518877057002,1.147949,0.459473,0.079834
1518877057051,1.227295,0.516846,0.119873
1518877057084,1.158203,0.468018,0.067871
1518877057117,0.949219,0.364990,0.016357
1518877057157,1.145996,0.454346,0.079590
1518877057170,1.305908,0.438721,0.070801
1518877057202,1.267090,0.386475,-0.008301
1518877057236,1.115723,0.362305,0.016846
1518877057269,1.027344,0.342529,0.035156
1518877057302,0.927979,0.321045,0.038574
1518877057359,0.852051,0.275146,0.034180
1518877057392,0.784668,0.250000,0.062988
1518877057400,0.724365,0.220947,0.077393
1518877057451,0.604492,0.198242,0.052002
1518877057459,0.568359,0.194336,0.057129
1518877057484,0.565674,0.211914,0.082764
1518877057541,0.714600,0.287109,0.124268
1518877057572,0.772949,0.296143,0.148438
1518877057585,0.830078,0.272705,0.166504
1518877057618,1.177002,0.306885,0.226563
1518877057651,1.242432,0.382080,0.218018
1518877057683,1.102783,0.365967,0.173340
1518877057717,1.240967,0.328369,0.303711
1518877057750,1.427002,0.419678,0.288574
1518877057783,1.390137,0.398682,0.147705
1518877057815,1.132813,0.364990,0.143066
1518877057848,0.907471,0.374512,0.124023
1518877057879,0.785889,0.402832,0.069824
1518877057938,0.690918,0.487305,0.040527
1518877057946,0.618896,0.508057,0.058105
1518877058011,0.574951,0.479004,0.085938
1518877058020,0.713623,0.444092,0.072021
1518877058079,0.826416,0.451904,0.088867
1518877058088,0.941162,0.467041,0.120361
1518877058144,1.181152,0.483154,0.141357
1518877058148,1.135498,0.468018,0.119873
1518877058213,1.151367,0.386963,0.074951
1518877058218,1.271729,0.461426,0.150146
1518877058281,1.123047,0.480225,0.150146
1518877058289,0.976318,0.346191,0.062744
1518877058349,1.282471,0.353516,0.144775
1518877058358,1.396973,0.342529,0.154541
1518877058417,1.345215,0.299561,0.106689
1518877058483,1.184326,0.195557,0.098145
1518877058525,1.083496,0.153320,0.091064
1518877058533,0.994141,0.142090,0.085938
1518877058542,0.914795,0.135254,0.065186
1518877058549,0.850830,0.115967,0.062988
1518877058563,0.705566,0.122559,0.077148
1518877058596,0.620605,0.095215,0.080811
1518877058629,0.544189,0.076416,0.062988
1518877058662,0.568115,0.067139,0.061279
1518877058694,0.688965,0.113525,0.072754
1518877058726,0.751221,0.173828,0.091309
1518877058758,0.862549,0.229492,0.132568
1518877058791,1.269043,0.352295,0.161133
1518877058824,1.311035,0.406250,0.119141
1518877058866,1.150391,0.441650,0.148926
1518877058898,1.327881,0.554932,0.336182
1518877058931,1.423584,0.635010,0.284424
1518877058940,1.309814,0.511230,0.180176
1518877058989,1.085938,0.362061,0.185547
1518877059020,0.952148,0.390869,0.194580
1518877059024,0.792725,0.429932,0.180420
1518877059080,0.689941,0.467529,0.167725
1518877059113,0.634033,0.471924,0.197754
1518877059145,0.561035,0.450928,0.204102
1518877059178,0.517578,0.439453,0.191406
1518877059211,0.561768,0.443115,0.193359
1518877059244,0.805420,0.469482,0.222168
1518877059276,1.146484,0.478760,0.192627
1518877059307,1.174316,0.396240,0.111328
1518877059339,1.352051,0.401855,0.136475
1518877059372,1.572510,0.556885,0.193115
1518877059404,1.151367,0.443359,0.075684
1518877059437,0.977539,0.269531,0.030762
1518877059471,1.291748,0.353027,0.130127
1518877059504,1.284912,0.427490,0.100830
1518877059515,1.193604,0.378662,0.069092
1518877059564,1.008545,0.221680,0.076904
1518877059612,0.872803,0.209717,0.081055
1518877059622,0.783447,0.218750,0.077637
1518877059670,0.658203,0.204834,0.105469
1518877059676,0.604980,0.227051,0.106445
1518877059729,0.612549,0.215820,0.098145
1518877059762,0.586182,0.215088,0.086182
1518877059794,0.583496,0.232178,0.079834
1518877059826,0.664795,0.270752,0.085938
1518877059859,0.795898,0.312500,0.114990
1518877059891,0.812988,0.376221,0.177490
1518877059923,0.791504,0.388672,0.204834
1518877059957,1.101074,0.394043,0.167969
1518877059990,1.140625,0.398193,0.200195
1518877060023,1.161865,0.391846,0.232178
1518877060039,1.080322,0.395020,0.249023
1518877060096,1.224121,0.459473,0.286621
1518877060103,1.359619,0.446289,0.263672
1518877060133,1.197510,0.386230,0.252441
1518877060161,0.969482,0.354248,0.228027
1518877060192,0.838867,0.349854,0.183105
1518877060224,0.784668,0.401367,0.177490
1518877060258,0.728271,0.425293,0.184814
1518877060292,0.686523,0.423096,0.193604
1518877060323,0.637207,0.412354,0.192871
1518877060382,0.631592,0.408203,0.176514
1518877060391,0.660400,0.416504,0.166016
1518877060444,0.906738,0.434082,0.190430
1518877060457,1.080078,0.436768,0.196289
1518877060496,1.010986,0.384277,0.108154
1518877060526,1.264893,0.416748,0.110596
1518877060558,1.285156,0.512207,0.160889
1518877060591,1.049316,0.461182,0.101074
1518877060624,1.278564,0.394287,0.102783
1518877060657,1.459473,0.402588,0.131836
1518877060689,1.436279,0.360596,0.102295
1518877060722,1.291016,0.211914,0.082031
1518877060755,1.159912,0.167236,0.104736
1518877060788,1.041992,0.180176,0.092773
1518877060820,0.916016,0.167480,0.120117
1518877060853,0.823730,0.158691,0.165283
1518877060893,0.718750,0.138184,0.152588
1518877060927,0.578613,0.130127,0.145020
1518877060959,0.489746,0.123047,0.153076
1518877060967,0.461670,0.151611,0.143066
1518877061017,0.514404,0.198730,0.109131
1518877061049,0.626221,0.258057,0.132813
1518877061058,0.712646,0.330078,0.191650
1518877061107,1.039551,0.426025,0.134033
1518877061139,1.288574,0.430176,0.158203
1518877061172,1.135498,0.453857,0.227295
1518877061204,1.184570,0.393311,0.318848
1518877061238,1.384521,0.457275,0.304443
1518877061272,1.405518,0.420166,0.241943
1518877061304,1.120850,0.340576,0.196777
1518877061337,1.001221,0.343994,0.208984
1518877061369,0.903809,0.372559,0.206055
1518877061401,0.755615,0.402588,0.165527
1518877061433,0.668701,0.410645,0.160156
1518877061470,0.623779,0.420898,0.158691
1518877061502,0.620850,0.454346,0.163574
1518877061536,0.626221,0.457031,0.158447
1518877061544,0.651611,0.438477,0.154541
1518877061592,0.923096,0.439209,0.168457
1518877061624,1.122070,0.453125,0.155518
1518877061631,1.033203,0.437500,0.094238
1518877061688,1.387451,0.477539,0.153809
1518877061721,1.439453,0.562744,0.219971
1518877061754,1.125000,0.485840,0.107666
1518877061788,1.323730,0.338135,0.066895
1518877061820,1.531006,0.349854,0.104492
1518877061853,1.490234,0.376709,0.097900
1518877061885,1.246338,0.261719,0.078613
1518877061918,1.124512,0.185303,0.064941
1518877061951,1.001709,0.188965,0.062256
1518877061983,0.903076,0.181396,0.066162
1518877062016,0.811768,0.165527,0.094482
1518877062048,0.717285,0.157715,0.122314
1518877062089,0.557861,0.124023,0.097168
1518877062100,0.453369,0.148682,0.085938
1518877062133,0.399658,0.184082,0.097412
1518877062173,0.455566,0.262207,0.096436
1518877062203,0.512939,0.322998,0.104248
1518877062211,0.593018,0.349854,0.139893
1518877062268,0.949707,0.452393,0.088867
1518877062300,1.111328,0.474121,0.122803
1518877062333,1.058594,0.537842,0.202881
1518877062366,1.189209,0.479004,0.279785
1518877062398,1.408936,0.452637,0.182129
1518877062437,1.413818,0.408691,0.078857
1518877062469,1.209229,0.396973,0.154053
1518877062502,1.116699,0.440430,0.188721
1518877062534,1.028320,0.463623,0.146729
1518877062564,0.858154,0.461426,0.117920
1518877062597,0.759277,0.415283,0.131104
1518877062630,0.676514,0.386963,0.124268
1518877062663,0.601807,0.397949,0.127686
1518877062695,0.614746,0.412598,0.147461
1518877062700,0.642090,0.401611,0.152588
1518877062755,0.903320,0.393555,0.199219
1518877062787,1.144775,0.403320,0.171387
1518877062796,1.139648,0.352295,0.074707
1518877062849,1.356201,0.372803,0.077148
1518877062863,1.415283,0.442139,0.107910
1518877062896,1.233398,0.477295,0.056641
1518877062929,1.037354,0.386719,0.041016
1518877063031,1.181152,0.380615,0.051758
1518877063039,1.340820,0.342041,0.056641
1518877063096,1.281494,0.271973,-0.000732
1518877063099,1.147461,0.223633,-0.007568
1518877063164,1.034424,0.239258,-0.010742
1518877063170,0.950928,0.265381,-0.001465
1518877063232,0.868408,0.249023,-0.000732
1518877063241,0.794189,0.221680,0.003174
1518877063301,0.689941,0.233887,0.024902
1518877063309,0.642578,0.270508,0.079590
1518877063367,0.589355,0.282471,0.104492
1518877063375,0.535400,0.285156,0.100098
1518877063433,0.591309,0.311279,0.129883
1518877063436,0.676514,0.346680,0.150635
1518877063503,0.741943,0.365479,0.191162
1518877063506,0.900391,0.386475,0.173096
1518877063524,1.063477,0.359131,0.150879
1518877063527,1.020508,0.426270,0.240234
1518877063558,0.927002,0.364014,0.214355
1518877063561,1.131348,0.332520,0.201660
1518877063617,1.436768,0.379883,0.166748
1518877063657,1.349121,0.368164,0.120605
1518877063664,1.172119,0.339844,0.134766
1518877063719,0.977051,0.370117,0.106689
1518877063727,0.851074,0.400146,0.051270
1518877063783,0.743408,0.392578,0.029297
1518877063817,0.654541,0.365723,0.016846
1518877063826,0.621338,0.384277,0.041748
1518877063878,0.621826,0.433838,0.083252
1518877063912,0.681641,0.439453,0.092041
1518877063945,0.845459,0.431641,0.122803
1518877063978,1.092773,0.433105,0.149170
1518877064010,1.162109,0.440186,0.133057
1518877064041,1.163086,0.403809,0.117676
1518877064073,1.367188,0.475342,0.169434
1518877064106,1.256592,0.502441,0.138672
1518877064138,0.983643,0.401611,0.074707
1518877064141,1.043457,0.378418,0.092041
1518877064197,1.325928,0.387451,0.127930
1518877064231,1.322998,0.371826,0.053955
1518877064240,1.249268,0.284912,0.038818
1518877064296,1.154541,0.268311,0.045898
1518877064328,1.045166,0.254395,0.024902
1518877064364,0.926514,0.250000,0.007813
1518877064398,0.831543,0.239258,0.006104
1518877064407,0.772705,0.218750,0.020752
1518877064459,0.716064,0.212158,0.036865
1518877064493,0.634521,0.203613,0.039307
1518877064526,0.590820,0.195313,0.033936
1518877064540,0.614258,0.222900,0.054199
1518877064571,0.739990,0.270264,0.085449
1518877064604,0.728760,0.272217,0.112793
1518877064637,0.795410,0.281738,0.157715
1518877064693,1.099121,0.422607,0.230713
1518877064731,1.095703,0.418945,0.225586
1518877064734,0.997070,0.334717,0.204346
1518877064792,1.200439,0.277588,0.230957
1518877064825,1.353027,0.360840,0.224365
1518877064833,1.319580,0.367432,0.174561
1518877064882,1.149170,0.344238,0.150146
1518877064891,0.997803,0.370605,0.139893
1518877064945,0.856445,0.403320,0.099121
1518877064958,0.768799,0.458984,0.064209
1518877064990,0.721436,0.473389,0.078613
1518877065023,0.710693,0.500977,0.109131
1518877065057,0.738281,0.492676,0.108398
1518877065088,0.708252,0.478760,0.101074
1518877065123,0.714111,0.492188,0.114014
1518877065158,0.947510,0.543213,0.151611
1518877065186,1.109131,0.518799,0.137451
1518877065218,1.027344,0.416992,0.049805
1518877065251,1.353027,0.489014,0.169922
1518877065309,1.391113,0.523682,0.182129
1518877065312,1.141602,0.386475,0.097900
1518877065346,1.435059,0.290527,0.095947
1518877065387,1.676514,0.243408,0.124512
1518877065421,1.628662,0.211670,0.083252
1518877065452,1.308350,0.106934,0.041016
1518877065484,1.037598,0.119629,0.050781
1518877065518,0.881104,0.129395,0.041260
1518877065551,0.750488,0.153809,0.026123
1518877065583,0.645020,0.168213,0.062256
1518877065614,0.576660,0.169189,0.087891
1518877065647,0.528809,0.146240,0.082520
1518877065679,0.526123,0.157471,0.072998
1518877065711,0.570557,0.169922,0.098145
1518877065743,0.726563,0.202881,0.129395
1518877065757,0.864014,0.292725,0.181152
1518877065789,0.951660,0.305176,0.192139
1518877065847,1.151367,0.243652,0.137939
1518877065850,1.217041,0.304199,0.155273
1518877065907,1.214844,0.387939,0.227783
1518877065941,1.215820,0.418945,0.271973
1518877065973,1.282471,0.391602,0.230713
1518877066013,1.297852,0.363770,0.146729
1518877066021,1.172119,0.352539,0.093750
1518877066072,1.094727,0.445801,0.147461
1518877066104,0.941406,0.492432,0.117432
1518877066135,0.761475,0.469727,0.061279
1518877066168,0.711426,0.436523,0.066162
1518877066200,0.656982,0.448730,0.076172
1518877066233,0.618652,0.468018,0.104980
1518877066265,0.663574,0.475342,0.141846
1518877066271,0.686035,0.427246,0.160400
1518877066328,0.827881,0.397461,0.183594
1518877066337,1.125732,0.389648,0.204834
1518877066367,1.140869,0.333496,0.101074
1518877066425,1.141357,0.312012,0.066650
1518877066433,1.234863,0.389893,0.151367
1518877066486,1.177734,0.497559,0.173096
1518877066519,1.009521,0.335693,0.067627
1518877066551,1.292236,0.257080,-0.007568
1518877066565,1.483887,0.288574,-0.004883
1518877066598,1.496094,0.262695,-0.021240
1518877066631,1.333984,0.212891,-0.075928
1518877066663,1.115479,0.209229,-0.066162
1518877066720,0.887207,0.247559,0.002930
1518877066754,0.763428,0.279297,0.004395
1518877066762,0.697754,0.256104,0.016846
1518877066812,0.596924,0.206787,-0.006104
1518877066844,0.546875,0.215332,0.005127
1518877066853,0.529053,0.228516,0.032715
1518877066903,0.610352,0.278809,0.055420
1518877066937,0.700684,0.299805,0.071045
1518877066969,0.772217,0.309814,0.126953
1518877067008,0.830322,0.340088,0.213135
1518877067011,1.132080,0.401367,0.206543
1518877067067,1.122803,0.393799,0.138916
1518877067100,1.011719,0.312744,0.131592
1518877067132,1.233154,0.354980,0.180664
1518877067166,1.335449,0.458252,0.141846
1518877067198,1.202393,0.456787,0.058594
1518877067230,1.070801,0.411621,0.047119
1518877067267,0.978516,0.405518,0.031006
1518877067293,0.919922,0.447754,0.009521
1518877067325,0.856445,0.499756,0.038574
1518877067334,0.795898,0.490234,0.062744
1518877067395,0.710938,0.447266,0.062256
1518877067425,0.652832,0.424805,0.065674
1518877067430,0.704102,0.437744,0.095215
1518877067485,0.838623,0.450684,0.098389
1518877067517,0.897217,0.426758,0.083008
1518877067551,0.870605,0.400635,0.042969
1518877067584,0.996338,0.459717,0.087646
1518877067592,1.156982,0.492432,0.124023
1518877067646,1.056152,0.474854,0.066406
1518877067679,1.504150,0.424072,0.140869
1518877067711,1.727783,0.359863,0.101074
1518877067743,1.648193,0.237793,-0.004639
1518877067777,1.394287,0.151123,0.037109
1518877067810,1.297607,0.185059,0.035889
1518877067843,1.200684,0.273926,0.010986
1518877067875,0.911865,0.248779,-0.020996
1518877067906,0.755127,0.192627,0.005371
1518877067909,0.650635,0.195313,0.053467
1518877067966,0.565186,0.205322,0.064697
1518877068035,0.569092,0.187744,0.024414
1518877068038,0.520996,0.157715,0.006104
1518877068103,0.553711,0.201416,0.050049
1518877068113,0.586670,0.272705,0.091309
1518877068170,0.572021,0.313721,0.118164
1518877068238,0.672607,0.389404,0.134521
1518877068305,0.814941,0.346680,0.097168
1518877068308,1.110596,0.289307,0.048096
1518877068374,1.095947,0.504395,0.232422
1518877068383,0.994141,0.473145,0.290527
1518877068441,1.397461,0.390625,0.340332
1518877068450,1.598633,0.428467,0.141602
1518877068492,1.291748,0.437500,0.075928
1518877068501,1.080566,0.473389,0.165771
1518877068509,0.895996,0.454102,0.162598
1518877068517,0.818848,0.560547,0.166260
1518877068522,0.685059,0.553955,0.157471
1518877068529,0.556152,0.470459,0.076416
1518877068572,0.569092,0.461182,0.076904
1518877068588,0.649658,0.511230,0.157959
1518877068644,0.876709,0.511719,0.229980
1518877068678,1.087158,0.394043,0.151367
1518877068709,1.183838,0.205566,-0.025635
1518877068740,1.441162,0.441650,0.063965
1518877068773,1.135010,0.501709,0.045898
1518877068805,1.226074,0.413330,0.048096
1518877068838,1.595459,0.365723,0.135498
1518877068872,1.538818,0.298096,0.048584
1518877068881,1.461914,0.184082,-0.013428
1518877068930,1.227539,0.151611,0.024414
1518877068963,1.107178,0.180664,0.050537
1518877068977,0.939453,0.225098,0.047607
1518877069035,0.735107,0.229980,0.070557
1518877069044,0.654541,0.189941,0.079102
1518877069071,0.571289,0.195557,0.067871
1518877069131,0.494385,0.229248,0.081055
1518877069163,0.468262,0.225830,0.047607
1518877069172,0.502197,0.270264,0.036621
1518877069225,0.627197,0.356689,0.077637
1518877069257,0.660400,0.396729,0.104736
1518877069290,0.854492,0.457275,0.095703
1518877069322,1.188965,0.454102,0.088135
1518877069355,1.010010,0.504883,0.191895
1518877069389,0.980713,0.470215,0.348389
1518877069422,1.305420,0.284180,0.234375
1518877069455,1.342041,0.241211,0.041504
1518877069463,1.209229,0.288574,0.098877
1518877069511,1.203369,0.433105,0.237305
1518877069545,1.030273,0.458008,0.215576
1518877069553,0.856445,0.436523,0.157227
1518877069606,0.702637,0.408936,0.138428
1518877069638,0.668213,0.424805,0.119873
1518877069671,0.650879,0.464355,0.119629
1518877069704,0.606201,0.492188,0.145752
1518877069736,0.631592,0.486328,0.167480
1518877069770,0.788086,0.449707,0.154053
1518877069784,1.087891,0.420166,0.129395
1518877069851,1.101074,0.399658,0.079590
1518877069857,1.077881,0.402832,0.065430
1518877069884,1.392090,0.482178,0.172607
1518877069942,1.327637,0.465088,0.135254
1518877069946,1.036377,0.311523,0.033203
1518877070002,1.350342,0.267822,0.060059
1518877070036,1.487793,0.333252,0.121338
1518877070043,1.396729,0.367188,0.106201
1518877070093,1.139404,0.247803,0.076172
1518877070101,0.972900,0.214600,0.074951
1518877070153,0.880127,0.211914,0.073975
1518877070185,0.729736,0.226807,0.064941
1518877070216,0.625732,0.211426,0.064697
1518877070249,0.574219,0.202393,0.066406
1518877070282,0.543701,0.196777,0.052002
1518877070314,0.524658,0.203369,0.022705
1518877070348,0.558594,0.229980,0.022949
1518877070380,0.725342,0.273438,0.046631
1518877070411,0.834229,0.298584,0.052002
1518877070443,1.037354,0.307373,0.032227
1518877070476,1.404785,0.303711,0.029053
1518877070508,1.239746,0.447998,0.143555
1518877070516,1.146729,0.498779,0.350342
1518877070573,1.406738,0.245850,0.261719
1518877070610,1.487061,0.090576,-0.024414
1518877070616,1.157715,0.170898,0.031250
1518877070670,1.042969,0.329590,0.183105
1518877070703,0.899902,0.401611,0.170898
1518877070733,0.769043,0.415527,0.133057
1518877070766,0.690186,0.356934,0.079590
1518877070801,0.667725,0.379395,0.070068
1518877070831,0.660645,0.425293,0.049805
1518877070863,0.641602,0.467041,0.075439
1518877070896,0.628174,0.467773,0.123779
1518877070928,0.675781,0.426270,0.117188
1518877070962,1.025879,0.405762,0.142822
1518877070996,1.197266,0.379639,0.074951
1518877071037,1.129883,0.339355,0.027588
1518877071069,1.469238,0.438965,0.133545
1518877071077,1.407959,0.502686,0.065918
1518877071107,1.052002,0.423584,-0.009521
1518877071133,1.068604,0.396973,0.054932
1518877071166,1.343506,0.472900,0.112305
1518877071197,1.392578,0.466309,0.067627
1518877071229,1.283203,0.274414,0.021729
1518877071261,1.147705,0.205322,0.039551
1518877071320,0.968506,0.204346,0.045166
1518877071353,0.822021,0.218750,0.047607
1518877071361,0.730713,0.243164,0.045898
1518877071414,0.681396,0.262207,0.042480
1518877071429,0.613037,0.186279,0.043701
1518877071460,0.530029,0.186523,0.025146
1518877071493,0.542480,0.177979,0.007568
1518877071557,0.640381,0.231689,0.006104
1518877071561,0.767822,0.289063,0.032471
1518877071575,0.786133,0.326172,0.085449
1518877071631,0.927490,0.363525,0.132568
1518877071686,1.136475,0.384277,0.216309
1518877071690,1.166504,0.429688,0.254150
1518877071740,1.009033,0.325928,0.185303
1518877071746,1.232910,0.398438,0.250000
1518877071790,1.464600,0.495117,0.314697
1518877071828,1.244629,0.438965,0.184570
1518877071875,1.086426,0.390137,0.161621
1518877071889,0.978516,0.401855,0.147461
1518877071957,0.823242,0.458496,0.107910
1518877071965,0.714600,0.451660,0.098877
1518877071991,0.641113,0.456299,0.119873
1518877072038,0.565918,0.452881,0.102051
1518877072048,0.545410,0.454590,0.096680
1518877072100,0.582520,0.456299,0.108398
1518877072153,0.867920,0.459717,0.135010
1518877072160,1.101563,0.489258,0.115723
1518877072164,1.072510,0.429688,0.041260
1518877072206,1.384277,0.434570,0.072754
1518877072260,1.388428,0.496338,0.063232
1518877072263,1.185791,0.432617,0.022949
1518877072322,1.215820,0.363281,0.062500
1518877072369,1.377197,0.330322,0.116455
1518877072377,1.392822,0.297607,0.064941
1518877072411,1.338867,0.234619,0.038330
1518877072471,1.187988,0.206055,0.041992
1518877072479,1.028076,0.198242,0.038330
1518877072493,0.926514,0.175781,0.011963
1518877072548,0.844971,0.181152,0.002686
1518877072554,0.717041,0.167725,0.005127
1518877072610,0.602051,0.176758,0.022705
1518877072643,0.570068,0.177979,0.026855
1518877072645,0.557129,0.175293,0.019531
1518877072701,0.597656,0.202148,0.019287
1518877072707,0.666992,0.254150,0.035400
1518877072739,0.686768,0.285156,0.067627
1518877072797,0.865723,0.369385,0.105469
1518877072803,1.121582,0.360840,0.156982
1518877072861,1.143066,0.348145,0.148193
1518877072893,1.088867,0.313232,0.128418
1518877072926,1.183838,0.351318,0.206787
1518877072958,1.407715,0.459717,0.293945
1518877073030,1.508057,0.403076,0.204346
1518877073032,1.252930,0.345459,0.190674
1518877073098,1.031006,0.348633,0.173340
1518877073167,0.849854,0.385986,0.129639
1518877073233,0.770508,0.419922,0.126221
1518877073236,0.693115,0.446289,0.134033
1518877073302,0.607666,0.438232,0.129639
1518877073307,0.615479,0.437988,0.114746
1518877073370,0.649658,0.460205,0.114014
1518877073379,0.702637,0.429443,0.098877
1518877073436,0.859619,0.426025,0.114502
1518877073439,1.018555,0.427734,0.116943
1518877073492,1.022217,0.381104,0.062744
1518877073495,1.131104,0.385010,0.082520
1518877073500,1.251221,0.412354,0.107178
1518877073509,1.043945,0.353271,0.064941
1518877073523,1.282227,0.312500,0.105225
1518877073528,1.545410,0.295898,0.125488
1518877073557,1.498779,0.216309,0.046875
1518877073589,1.311279,0.152832,0.048096
1518877073621,1.169189,0.166260,0.073486
1518877073654,1.063232,0.208496,0.060547
1518877073690,0.979492,0.193604,0.039551
1518877073723,0.884033,0.151611,0.030762
1518877073755,0.748535,0.149170,0.027832
