1519487758740,0.847656,0.689453,0.153320
1519487758773,0.860840,0.778809,0.201416
1519487758805,0.798828,0.883301,0.236328
1519487758839,1.136230,1.392822,0.491943
1519487758872,1.070557,1.366699,0.615723
1519487758906,0.794434,0.978027,0.692871
1519487758938,0.446045,0.779541,0.671387
1519487758969,0.240234,0.715576,0.476807
1519487759001,-0.011719,0.623291,0.210449
1519487759035,-0.419922,0.561279,-0.040771
1519487759066,-0.723877,0.599854,0.016357
1519487759098,-0.807129,0.709717,0.208252
1519487759131,-0.492432,0.553711,0.242188
1519487759165,-0.262451,0.811035,0.150879
1519487759196,0.209473,2.664307,0.041260
1519487759232,2.480713,3.797363,0.852295
1519487759266,2.593994,1.586426,1.317139
1519487759278,1.576660,1.597900,0.369385
1519487759336,0.765869,0.967285,-0.137207
1519487759344,0.346680,0.396484,-0.125732
1519487759396,0.105957,0.133789,-0.032715
1519487759429,0.162842,0.007080,-0.033936
1519487759461,0.202881,-0.240234,-0.189453
1519487759495,0.124023,-0.483398,-0.244385
1519487759527,0.239990,-0.391357,-0.198242
1519487759560,0.626709,-0.090332,-0.095215
1519487759591,0.601318,1.081543,0.389160
1519487759624,0.915771,3.277588,0.680664
1519487759657,1.224365,2.690918,1.244629
1519487759690,0.349365,2.486572,0.777588
1519487759703,-0.052734,0.984619,0.421143
1519487759760,-0.453125,0.646240,0.409180
1519487759765,-0.711426,0.202881,0.386475
1519487759821,-1.092285,0.235107,0.170410
1519487759824,-1.059326,0.050537,-0.005859
1519487759855,-0.780518,-0.175293,-0.147461
1519487759887,-0.533203,-0.014648,-0.147705
1519487759922,-0.436035,0.938232,-0.050537
1519487759978,-0.500732,3.557129,-0.152832
1519487760011,1.756104,3.969482,1.154053
1519487760043,1.453125,2.291016,1.270020
1519487760050,0.686279,2.031494,0.203613
1519487760105,0.270508,0.791260,0.286133
1519487760119,0.340576,0.168701,0.211670
1519487760151,0.646240,-0.108643,0.057617
1519487760186,0.645508,-0.773926,0.115479
1519487760219,0.048096,-1.261963,0.291016
1519487760252,0.319336,-0.610596,0.011963
1519487760284,0.629150,0.015625,0.134277
1519487760317,0.646973,0.771484,0.113525
1519487760344,0.938721,4.699707,-0.668213
1519487760376,1.467041,3.350342,1.749023
1519487760409,0.376465,2.867676,0.691650
1519487760442,-0.375000,1.668701,0.010986
1519487760475,-0.952637,0.667480,-0.102539
1519487760507,-0.931396,0.086914,-0.052490
1519487760550,-1.001953,-0.262939,0.011475
1519487760581,-1.080078,-0.527832,0.019287
1519487760614,-0.795166,-0.381836,-0.003418
1519487760620,-0.610840,-0.092285,-0.024414
1519487760679,-0.602051,0.457520,0.076416
1519487760710,-0.930176,4.664307,-0.321777
1519487760717,1.472168,5.973145,1.359375
1519487760775,1.490723,1.648438,0.554199
1519487760807,0.681396,1.564453,-0.047852
1519487760839,0.468506,0.939209,0.336426
1519487760871,0.654541,0.024414,0.551025
1519487760903,0.823486,-0.538574,0.199951
1519487760935,0.596191,-1.417480,0.130615
1519487760949,0.205078,-0.656250,0.083496
1519487761006,0.381592,-0.204834,0.148438
1519487761041,0.581787,-0.107666,0.022217
1519487761048,0.296387,4.035400,-0.355957
1519487761103,0.621582,4.111816,0.521729
1519487761135,1.637207,3.321533,2.059814
1519487761170,-0.150146,1.243652,0.488525
1519487761203,-0.343262,0.668945,0.102783
1519487761205,-0.845703,0.552979,0.084473
1519487761261,-0.870605,0.114990,0.037598
1519487761294,-1.010742,-0.029053,0.036133
1519487761296,-0.930664,-0.170898,0.021240
1519487761353,-0.626953,-0.239990,-0.012939
1519487761385,-0.563232,-0.060059,-0.045410
1519487761418,-0.812988,1.526611,-0.013916
1519487761450,0.246338,6.064453,0.495117
1519487761483,2.310547,1.709473,2.143066
1519487761515,0.704590,1.722656,0.524902
1519487761548,0.469971,1.420898,-0.036377
1519487761581,0.428467,0.645752,0.250732
1519487761624,0.633057,0.083984,0.260742
1519487761632,0.740723,-0.875000,0.121338
1519487761660,0.295166,-1.380859,0.138184
1519487761720,0.091553,-0.583008,-0.013916
1519487761750,0.549805,-0.161377,0.124512
1519487761753,0.534180,-0.010986,0.149658
1519487761796,1.002197,4.830566,-0.009521
1519487761830,2.576172,3.532227,1.813721
1519487761863,0.971191,2.968506,1.227295
1519487761895,-0.055176,1.386963,0.265625
1519487761928,-0.735352,0.814941,-0.041992
1519487761960,-1.207764,0.548828,-0.095947
1519487761993,-1.043457,0.052246,-0.073242
1519487762025,-0.961426,-0.324219,-0.086914
1519487762058,-0.726318,-0.379639,-0.062256
1519487762090,-0.600586,-0.300049,-0.067383
1519487762125,-0.504639,-0.124512,-0.060791
1519487762158,-0.687988,0.783691,0.073486
1519487762160,-0.961182,5.479492,-0.038086
1519487762229,2.137451,4.052246,1.405273
1519487762232,1.375732,1.276123,0.491699
1519487762263,0.615234,1.433594,0.086670
1519487762320,0.487061,0.665771,0.461670
1519487762330,0.735107,0.110107,0.458496
1519487762383,0.771729,-0.860596,0.458984
1519487762415,0.747070,-1.187744,0.001221
1519487762448,0.652588,-0.655762,0.177979
1519487762481,0.239014,-0.367920,0.122803
1519487762513,0.837646,0.260010,0.075928
1519487762525,0.837402,3.982178,0.190674
1519487762565,1.212646,4.485840,1.329590
1519487762597,0.852051,2.405029,1.801758
1519487762631,0.227295,1.569336,0.855225
1519487762664,-0.526123,0.932373,0.813477
1519487762695,-0.841797,0.232422,0.117432
1519487762727,-0.835449,0.075928,0.017090
1519487762759,-1.004150,-0.175537,0.042480
1519487762817,-0.677490,-0.259277,-0.004395
1519487762819,-0.641113,-0.239746,0.014404
1519487762851,-0.532471,-0.037354,-0.012451
1519487762905,-1.087646,1.472412,0.456055
1519487762910,-0.798340,6.058838,0.920410
1519487762964,2.508545,2.979736,2.607422
1519487762978,0.988281,1.721680,1.033691
1519487763011,0.769775,1.435303,0.274170
1519487763042,0.732178,0.697998,0.083252
1519487763077,0.770264,0.007813,0.023682
1519487763109,0.788574,-1.058105,-0.219971
1519487763143,0.319580,-1.530762,-0.238770
1519487763174,0.492432,-0.329834,-0.049561
1519487763233,0.492920,-0.536133,-0.043701
1519487763238,0.549805,0.049561,0.080322
1519487763292,0.737549,4.467529,2.013672
1519487763324,2.111084,4.237793,2.214844
1519487763330,0.682373,2.563232,1.050781
1519487763358,-0.233398,1.172119,0.553223
1519487763400,-0.790771,1.068848,0.350830
1519487763432,-1.062988,0.388184,0.522461
1519487763504,-0.977295,-0.709717,0.113525
1519487763510,-0.942383,-0.584961,-0.117432
1519487763571,-0.837402,-0.431152,-0.186768
1519487763576,-0.512451,-0.145508,-0.200928
1519487763638,-0.689209,0.794922,0.258301
1519487763642,-1.110107,5.286621,1.397949
1519487763706,2.469238,4.029297,2.207764
1519487763709,1.242676,2.061523,0.637451
1519487763731,0.540283,1.361084,0.301514
1519487763770,0.468262,0.069092,0.397705
1519487763776,0.687744,-0.289795,0.176758
1519487763816,0.829834,-1.313477,0.897461
1519487763874,0.580811,-0.905518,-0.354004
1519487763881,0.357422,-0.753418,-0.066406
1519487763907,0.556396,-0.068604,-0.101074
1519487763941,0.566650,0.199463,0.056641
1519487763972,0.539307,5.255127,0.263428
1519487764030,1.302246,5.454102,1.520264
1519487764036,1.566406,0.115967,1.510498
1519487764094,0.261475,0.700928,0.532715
1519487764126,-0.508057,0.953125,0.180176
1519487764158,-1.245850,0.950684,0.454834
1519487764185,-1.046387,0.042480,0.141846
1519487764193,-0.863281,-0.566895,0.018311
1519487764256,-0.732910,-0.560547,-0.161377
1519487764288,-0.586182,-0.596436,-0.156006
1519487764293,-0.534424,-0.320068,-0.131836
1519487764347,-1.057373,2.602051,0.188965
1519487764352,-0.327637,7.754150,0.788330
1519487764411,2.143555,1.686279,2.542725
1519487764444,0.462891,1.998291,0.352783
1519487764451,0.454590,1.290527,0.078125
1519487764507,0.679688,0.311035,0.254639
1519487764540,0.822266,-0.213135,0.248779
1519487764571,0.658203,-0.807129,0.411133
1519487764603,0.282715,-0.813965,0.532959
1519487764620,0.433594,-0.260010,0.141113
1519487764648,0.616211,-0.388916,-0.273193
1519487764706,0.651611,-0.027344,-0.146973
1519487764739,0.646729,5.929688,-0.174316
1519487764772,1.857666,3.751221,2.831299
1519487764777,0.025146,2.765137,0.998047
1519487764829,0.056152,0.651123,0.270020
1519487764861,-0.332275,0.365234,0.192139
1519487764864,-0.826660,0.361084,0.043701
1519487764920,-1.376709,0.151123,0.057617
1519487764953,-1.222900,-0.220947,-0.066406
1519487764985,-0.904297,-0.418457,-0.179443
1519487765021,-0.520264,-0.347168,-0.185547
1519487765035,-0.426514,-0.084961,-0.114258
1519487765067,-0.887207,3.496826,0.114014
1519487765100,1.664551,6.021729,1.725830
1519487765133,2.216553,0.838867,2.255615
1519487765190,0.852051,1.685547,0.418945
1519487765223,0.576660,0.944824,0.140137
1519487765228,0.717529,0.169678,0.182861
1519487765256,0.801025,-0.092041,0.155273
1519487765314,0.718506,-1.074951,0.175781
1519487765319,0.274902,-1.112549,0.163574
1519487765373,0.523193,-0.291016,0.182373
1519487765405,0.285156,-0.183838,0.427002
1519487765437,-0.147217,0.334229,0.495850
1519487765465,0.742676,6.153320,1.614014
1519487765498,2.585449,-0.993652,2.824463
1519487765530,1.149658,0.205811,1.417969
1519487765563,-0.257080,1.805664,0.328857
1519487765596,-1.013916,1.077393,0.063477
1519487765629,-1.316162,0.810059,-0.058594
1519487765662,-1.309326,0.043457,-0.169678
1519487765694,-1.096680,-0.878418,-0.318359
1519487765726,-0.770020,-0.813965,-0.217285
1519487765731,-0.642578,-0.574463,-0.104980
1519487765789,-1.151611,1.472900,0.386230
1519487765821,-0.660156,7.990234,1.045410
1519487765827,3.116943,2.935059,2.295654
1519487765894,0.998291,0.984619,0.936035
1519487765901,0.358154,1.284180,0.192627
1519487765952,0.361572,0.386230,0.120605
1519487765987,0.691162,0.166992,0.030518
1519487766019,0.754639,-0.960693,-0.136963
1519487766026,0.254395,-1.709473,-0.177246
1519487766085,0.794678,-0.788086,0.166016
1519487766116,0.735596,-0.480225,0.402100
1519487766149,0.756836,1.022705,0.761963
1519487766181,0.626709,3.979492,2.053711
1519487766213,1.777588,3.859619,1.692627
1519487766216,0.710693,1.446533,1.065674
1519487766280,-0.384277,0.624756,0.396240
1519487766312,-0.786865,1.000977,0.083008
1519487766321,-0.956299,0.531006,0.198730
1519487766372,-1.076416,-0.119385,0.324219
1519487766404,-0.982422,-0.331787,0.126221
1519487766435,-0.799805,-0.443848,-0.083984
1519487766468,-0.638428,-0.226074,-0.157715
1519487766501,-0.864014,0.480957,0.078613
1519487766533,-0.933105,6.073975,0.265625
1519487766564,2.863037,2.677246,2.208496
1519487766597,1.401611,0.542969,1.194336
1519487766630,0.528320,1.018066,0.017578
1519487766664,0.416260,0.446289,0.071533
1519487766677,0.711182,0.133789,0.197998
1519487766746,0.922119,-0.581543,0.253174
1519487766754,0.628418,-1.044678,0.430908
1519487766781,1.062988,-0.800049,0.604980
1519487766812,0.779541,-0.318115,0.215820
1519487766843,0.428467,1.854004,0.239746
1519487766877,-0.100830,6.735840,0.576416
1519487766908,0.652832,2.329590,2.230957
1519487766944,0.912354,0.625000,1.115479
1519487766977,-0.312744,1.473633,0.243408
1519487767014,-0.749268,1.067383,0.119629
1519487767046,-0.831055,0.456055,-0.131592
1519487767080,-0.881104,-0.299072,-0.123779
1519487767092,-0.879883,-1.003906,-0.048584
1519487767150,-0.686035,-0.682617,-0.036133
1519487767182,-0.536621,-0.238037,-0.116211
1519487767191,-0.615967,0.142334,-0.047607
1519487767240,-0.526855,6.900879,0.950195
1519487767272,2.697998,5.177979,1.700684
1519487767275,1.560303,1.359375,0.686279
1519487767332,0.497070,1.585938,0.211670
1519487767365,0.702148,0.462158,0.478760
1519487767396,0.909180,-0.307617,0.414063
1519487767428,0.740479,-1.222412,0.025879
1519487767461,0.904541,-1.181396,0.012695
1519487767493,0.593262,-0.852295,0.196777
1519487767506,0.707764,-0.216553,0.177734
1519487767539,0.778076,0.662109,0.310059
1519487767596,1.057373,4.844971,0.103516
1519487767629,-0.052246,2.730469,2.651123
1519487767637,1.828857,-0.090576,1.567383
1519487767693,-0.203613,1.479004,0.513184
1519487767725,-0.885986,1.375732,0.294434
1519487767758,-0.895996,0.521729,0.293213
1519487767765,-0.986572,0.147217,0.194336
1519487767816,-0.922852,-0.499268,0.037109
1519487767849,-0.763916,-0.457764,-0.094971
1519487767855,-0.635010,-0.265869,-0.113525
1519487767913,-0.621582,0.027344,-0.050537
1519487767926,-0.985352,3.160889,0.346191
1519487767959,0.104004,7.691162,0.590820
1519487767991,2.843750,-0.249512,2.963623
1519487768024,0.917969,0.897705,0.799805
1519487768056,0.279785,0.895264,0.179443
1519487768089,0.525391,0.352051,0.204346
1519487768122,0.723877,-0.402344,-0.135254
1519487768154,0.535400,-1.477051,-0.243164
1519487768212,0.306885,-0.923340,-0.222412
1519487768216,0.498535,-0.389648,-0.047363
1519487768274,0.522461,-0.442871,0.064941
1519487768306,0.653320,1.833252,1.032959
1519487768321,1.158936,5.369873,2.360596
1519487768353,1.492920,4.874512,2.544922
1519487768385,0.741211,0.123047,0.899902
1519487768418,-0.119629,0.285400,0.629150
1519487768451,-1.025635,0.592285,0.330078
1519487768523,-1.529541,0.916260,-0.004395
1519487768527,-1.211182,0.235107,-0.126221
1519487768592,-0.851318,-0.434082,-0.114990
1519487768595,-0.606201,-0.492432,-0.184082
1519487768660,-0.549805,-0.111816,-0.120605
1519487768663,-0.898438,1.970703,0.472168
1519487768728,1.160400,5.064209,2.517334
1519487768796,1.750977,2.002441,2.205322
1519487768863,0.879395,1.606445,0.911621
1519487768865,0.481445,0.737305,0.654297
1519487768931,0.570557,0.010986,0.277588
1519487768935,0.801514,-0.346191,-0.097656
1519487768987,0.689453,-0.333252,-0.155029
1519487768995,0.440674,-1.151367,0.005859
1519487768999,0.370605,-0.907715,0.061035
1519487769003,0.569580,-0.226563,0.012939
1519487769009,0.521729,0.072754,0.145264
1519487769024,0.964600,5.059082,-0.078613
1519487769057,2.532227,4.471924,3.191895
1519487769090,0.635254,2.770996,1.150391
1519487769122,0.246826,0.911377,0.197754
1519487769164,-0.604980,0.630859,0.076416
1519487769197,-0.878174,0.468506,0.007080
1519487769207,-0.831299,0.227783,0.105957
1519487769259,-1.059326,-0.239746,-0.155273
1519487769307,-0.903809,-0.386230,-0.336182
1519487769315,-0.836914,-0.217041,-0.309082
1519487769366,-0.626221,0.171875,0.020996
1519487769375,-1.097656,1.633301,0.472412
1519487769425,-0.236816,5.449463,1.759521
1519487769459,1.497314,3.319336,1.086914
1519487769471,0.792236,1.834961,0.268799
1519487769521,0.514404,0.995605,0.208252
1519487769535,0.529785,0.228760,0.313477
1519487769568,0.750977,-0.069092,-0.021240
1519487769625,0.806152,-0.408203,-0.083984
1519487769630,0.250732,-0.756104,0.004883
1519487769687,0.417480,-0.590820,-0.105713
1519487769720,0.516846,-0.317627,-0.129639
1519487769753,0.518311,0.180908,0.440918
1519487769785,0.068359,4.160156,-0.461914
1519487769790,0.478027,4.918457,-0.178711
1519487769847,1.087402,3.304688,1.415283
1519487769880,-0.300293,1.312012,0.162109
1519487769883,-0.596436,0.355469,-0.206787
1519487769913,-1.089111,0.028809,-0.261475
1519487769972,-1.045898,-0.402832,-0.064697
1519487770005,-0.918213,-0.363037,0.005371
1519487770015,-0.675781,-0.318848,0.052490
1519487770069,-0.503662,-0.092041,0.042480
1519487770101,-0.437256,0.330078,0.080811
1519487770133,-0.456543,4.070557,0.020996
1519487770165,1.468262,5.680664,1.546875
1519487770198,1.472168,1.764648,1.344971
1519487770232,0.707520,1.272217,0.237061
1519487770262,0.256104,0.674561,0.258057
1519487770265,0.223633,0.179443,0.355713
1519487770321,0.454346,-0.262451,0.209961
1519487770354,0.395264,-0.668213,-0.135010
1519487770369,-0.033203,-1.211670,-0.165283
1519487770400,0.421875,-0.239990,-0.177734
1519487770432,0.504883,-0.216064,-0.005371
1519487770466,0.505127,-0.247314,0.120117
1519487770499,0.630615,4.288818,0.302246
1519487770530,2.166016,4.378174,1.175781
1519487770585,1.079834,3.538574,2.160889
1519487770617,0.080566,1.136963,0.450684
1519487770626,-0.151367,0.612793,0.055908
1519487770682,-0.583496,0.500977,-0.048096
1519487770715,-0.987061,0.226318,0.095947
1519487770746,-0.986816,-0.132813,0.059814
1519487770753,-0.853271,-0.237549,-0.020508
1519487770807,-0.629883,-0.328125,-0.105225
1519487770840,-0.584473,-0.200928,-0.105713
1519487770843,-0.818359,0.711670,0.221924
1519487770898,0.195801,6.642334,1.060303
1519487770933,1.503174,3.088135,1.341064
1519487770965,0.823486,1.808594,0.171387
1519487770996,0.411865,0.903320,0.091064
1519487771028,0.421631,0.233887,0.314209
1519487771061,0.692627,-0.224365,0.197021
1519487771093,0.607666,-0.825439,0.061279
1519487771125,0.206787,-1.033447,0.025146
1519487771158,0.426025,-0.446533,0.060791
1519487771190,0.663086,-0.147705,0.167480
1519487771223,0.804443,0.647949,0.731201
1519487771255,1.790527,5.387451,0.861084
1519487771288,0.608643,0.474854,2.073730
1519487771320,1.927979,-0.350830,2.030029
1519487771325,0.087646,1.311279,0.895020
1519487771384,-1.117676,1.559570,0.020020
1519487771416,-1.517822,1.118408,-0.375244
1519487771422,-1.563965,0.651855,-0.590332
1519487771479,-0.935791,-0.150879,-0.486816
1519487771512,-0.738770,-0.232422,-0.228027
1519487771544,-0.563965,0.042236,-0.098877
1519487771577,-0.524902,2.224365,0.900879
1519487771592,1.064453,6.262207,2.185303
1519487771624,2.965820,3.140137,2.051514
1519487771657,1.294434,1.662842,0.868164
1519487771690,0.854492,0.878662,0.426758
1519487771747,0.651367,0.109619,0.299072
1519487771782,0.713379,-0.253662,0.235840
1519487771784,0.809326,-0.466553,0.150146
1519487771840,0.286621,-1.053467,-0.052490
1519487771864,0.680664,-0.712158,0.066895
1519487771872,0.607422,-0.563477,0.046875
1519487771928,0.728760,-0.081055,0.069336
1519487771961,1.114014,5.358154,0.059082
1519487771993,1.785156,4.023926,2.882324
1519487772007,0.309570,2.493652,1.363037
1519487772040,0.230957,0.621582,0.619873
1519487772072,-0.473145,0.530029,0.306641
1519487772106,-1.025391,0.387451,0.173096
1519487772162,-1.255371,0.298096,0.033203
1519487772196,-1.044678,-0.145752,-0.059326
1519487772205,-0.812744,-0.540039,-0.149414
1519487772253,-0.582520,-0.433105,-0.164063
1519487772285,-0.615234,0.039307,-0.093994
1519487772288,-0.966553,4.905029,0.133789
1519487772345,2.504150,4.437500,2.166016
1519487772378,1.851074,0.858643,1.098633
1519487772411,0.532959,1.277100,0.198242
1519487772451,0.511475,0.323486,0.602783
1519487772454,0.657471,0.140625,0.326416
1519487772510,0.696777,-0.371582,0.046387
1519487772542,0.593262,-1.043213,0.429199
1519487772574,0.675781,-0.888184,0.061768
1519487772607,0.475830,-0.458252,-0.052002
1519487772640,0.459229,-0.178467,-0.209717
1519487772674,0.318115,2.807617,0.127197
1519487772706,0.254150,5.641846,0.063721
1519487772743,0.695801,2.532227,1.851563
1519487772775,0.575684,0.674072,0.761719
1519487772782,-0.107178,0.799561,0.511963
1519487772833,-0.921631,1.056885,0.812256
1519487772866,-1.131836,0.146240,0.292236
1519487772869,-1.125977,-0.625977,0.170898
1519487772925,-0.827637,-0.553711,-0.171387
1519487772959,-0.627686,-0.410889,-0.137939
1519487772991,-0.532227,-0.109863,-0.038818
1519487773024,-0.392090,1.464844,0.352295
1519487773056,0.804199,7.188477,1.000000
1519487773089,2.828857,2.316162,2.561768
1519487773119,0.498535,1.466797,0.912354
1519487773145,0.126221,1.266602,0.332275
1519487773177,0.234863,0.452637,0.690918
1519487773209,0.595215,-0.066895,0.430908
1519487773241,0.665283,-0.847168,0.144775
1519487773274,0.477539,-1.310547,0.057373
1519487773307,0.711426,-0.426025,-0.056396
1519487773340,0.590088,-0.212402,0.068359
1519487773373,0.398193,-0.141602,0.259277
1519487773406,-0.080078,3.755615,-0.017334
1519487773439,0.973145,5.075439,1.478760
1519487773511,1.424561,3.316406,2.775635
1519487773520,0.821289,0.887939,0.568359
1519487773577,-0.267578,0.732910,0.577148
1519487773581,-0.812500,0.216797,0.502197
1519487773645,-1.007080,-0.100342,0.080078
1519487773714,-1.104980,-0.360352,-0.031982
1519487773781,-0.884521,-0.429932,0.031494
1519487773790,-0.619873,-0.188232,0.093018
1519487773849,-0.449463,0.272461,0.173828
1519487773856,-0.674805,2.171143,0.446533
1519487773916,0.593018,5.053223,1.511230
1519487773925,1.734863,2.181396,1.343018
1519487773983,0.502441,1.730225,0.430908
1519487773986,0.112305,1.321777,0.630127
1519487773995,0.104004,0.334229,0.309082
1519487773999,0.613037,-0.079834,-0.046143
1519487774002,0.581055,-0.903320,0.344727
1519487774005,0.663330,-1.065186,0.089600
1519487774031,0.491211,-0.397217,0.184570
1519487774064,0.451660,-0.143311,0.049316
1519487774122,0.635498,-0.069580,0.100586
1519487774154,0.358643,3.195557,-0.191650
1519487774187,1.190186,5.518066,1.235840
1519487774196,0.215576,2.543457,2.106445
1519487774250,0.876953,0.021240,1.159424
1519487774283,-0.225342,0.760742,0.419189
1519487774315,-0.614746,0.532227,0.076416
1519487774321,-1.164307,0.484619,0.115234
1519487774375,-1.395020,0.381836,-0.078125
1519487774426,-1.088623,-0.138428,-0.231445
1519487774435,-0.905273,-0.414307,-0.280273
1519487774472,-0.656982,-0.223877,-0.245850
1519487774479,-0.836182,1.053467,-0.015625
1519487774524,-0.604980,5.686768,0.429688
1519487774556,2.087402,2.281494,2.499268
1519487774590,1.081055,1.596680,1.051270
1519487774621,0.644531,1.712891,0.257568
1519487774657,0.479492,0.571289,0.414551
1519487774689,0.570313,0.047852,0.336426
1519487774721,0.768066,-0.478760,0.224609
1519487774753,0.398438,-0.844727,0.340820
1519487774786,0.564209,-0.572754,0.254883
1519487774819,0.544678,-0.106201,0.141357
1519487774860,0.439941,-0.207031,0.045166
1519487774895,0.269775,3.765869,-0.236816
1519487774903,0.700195,5.413574,0.443604
1519487774955,0.041016,2.289063,1.068604
1519487774987,0.833252,-0.226563,0.835205
1519487774996,-0.305420,0.813721,0.373779
1519487775050,-0.906006,0.565430,-0.165527
1519487775082,-1.459229,0.549072,-0.146484
1519487775114,-1.626709,0.178711,0.006348
1519487775147,-1.056152,-0.284180,0.002930
1519487775180,-0.708008,-0.396484,-0.093750
1519487775212,-0.510986,-0.054443,-0.127686
1519487775245,-0.904053,4.700928,-0.087646
1519487775276,0.856445,5.346436,1.714355
1519487775279,1.944580,1.151123,2.627686
1519487775337,0.463623,1.746094,0.429443
1519487775370,0.401367,1.088135,0.085693
1519487775400,0.553467,0.118408,0.064697
1519487775433,0.823486,0.006592,-0.069580
1519487775465,0.829346,-0.438477,0.123535
1519487775497,0.543701,-1.330811,0.745605
1519487775530,0.728271,-0.486084,0.141113
1519487775563,0.489502,-0.483398,-0.061523
1519487775597,0.588379,0.018799,-0.037109
1519487775608,0.561523,5.235107,0.398682
1519487775641,2.096924,4.294678,2.750977
1519487775706,0.326660,2.899170,1.021729
1519487775715,0.093018,0.753662,0.523682
1519487775764,-0.422852,0.572998,0.235352
1519487775770,-0.645752,0.388428,0.075684
1519487775824,-0.985352,0.175049,0.095703
1519487775855,-1.226318,0.007568,0.098877
1519487775858,-1.152588,-0.118408,0.031494
1519487775914,-0.861816,-0.205566,-0.098389
1519487775947,-0.608398,0.011230,-0.134277
1519487775981,-0.826904,1.324219,-0.072998
1519487776015,-0.403564,6.697754,0.772217
1519487776047,2.581543,2.972900,2.367188
1519487776080,1.477295,1.637695,1.039063
1519487776110,0.724854,1.017090,0.125000
1519487776144,0.510498,0.213867,0.116211
1519487776176,0.584229,-0.013916,0.117676
1519487776207,0.586182,-0.468262,0.161377
1519487776239,0.245850,-0.863037,0.283936
1519487776272,0.733398,-0.454346,0.289307
1519487776304,0.578369,-0.555664,0.004639
1519487776337,0.693604,-0.030273,-0.042969
1519487776339,0.147217,3.919189,0.118408
1519487776396,1.166748,3.849854,2.606201
1519487776433,0.404541,3.005859,1.309814
1519487776439,0.475342,0.405762,0.854004
1519487776497,-0.514893,0.505615,0.329590
1519487776530,-1.120361,0.424805,0.334473
1519487776562,-1.435059,0.272461,0.322510
1519487776597,-1.078369,-0.194580,0.028564
1519487776602,-0.792969,-0.336914,-0.255615
1519487776660,-0.636963,-0.244629,-0.379150
1519487776693,-0.564697,0.656738,-0.124268
1519487776725,-0.736572,4.832764,0.310547
1519487776758,1.820557,4.619141,2.483154
1519487776791,1.029541,1.002197,1.278320
1519487776823,0.505127,1.173828,0.327881
1519487776856,0.329590,0.656738,0.080566
1519487776890,0.690430,0.202393,0.099854
1519487776897,0.874023,0.038818,0.165771
1519487776922,0.595459,-0.289063,0.220215
1519487776984,0.301270,-0.801270,0.357666
1519487776988,0.620117,-0.486328,-0.114746
1519487777018,0.458984,-0.271240,-0.126709
1519487777051,-0.168701,2.101318,0.137695
1519487777108,0.077393,5.708740,0.480957
1519487777141,0.126709,3.666260,2.056152
1519487777173,1.294922,-0.457520,1.826904
1519487777205,-0.106934,0.767578,1.055908
1519487777241,-0.722168,0.440918,0.272949
1519487777273,-1.129883,0.284424,-0.078125
1519487777305,-1.506592,0.285889,-0.148193
1519487777308,-1.076172,-0.211914,-0.198242
1519487777364,-0.668213,-0.508301,-0.128662
1519487777369,-0.568115,-0.364746,-0.097900
1519487777402,-0.823730,0.829834,0.280029
1519487777460,-0.305664,6.891357,1.484375
1519487777467,2.906738,2.811768,3.064697
1519487777524,1.288818,1.405762,1.178711
1519487777559,0.407715,0.890137,0.088623
1519487777591,0.209473,0.191650,0.100342
1519487777599,0.381592,-0.132080,0.084229
1519487777655,0.810303,-0.201172,0.235596
1519487777687,0.664063,-0.436279,0.687500
1519487777721,0.574219,-0.540527,0.421631
1519487777754,0.657227,-0.644043,-0.159912
1519487777786,0.188721,-0.284424,-0.315674
1519487777820,0.092041,5.116943,-1.204590
1519487777853,1.064209,4.474854,2.880615
1519487777888,-0.060059,0.714111,0.564209
1519487777897,1.288086,-0.650146,0.451904
1519487777948,-0.365967,1.158936,0.479004
1519487777957,-1.089111,0.443115,-0.235840
1519487777986,-1.626465,0.790039,-0.619141
1519487778042,-1.332520,0.103027,-0.664063
1519487778051,-0.958496,-0.366699,-0.350098
1519487778105,-0.798096,-0.405273,-0.149170
1519487778137,-0.867920,0.174072,0.174805
1519487778170,-1.034668,3.984131,0.476807
1519487778202,1.280273,6.256348,1.090088
1519487778234,1.400635,1.885254,1.368164
1519487778264,0.798096,1.351318,0.122803
1519487778297,0.583740,0.649902,-0.116699
1519487778330,0.422119,0.173096,-0.132324
1519487778362,0.559814,-0.125732,0.047852
1519487778366,0.414307,-0.470215,0.013184
1519487778424,0.261963,-0.583740,0.120850
1519487778430,0.417969,-0.184570,0.211914
1519487778501,0.381592,-0.238525,0.090820
1519487778503,0.473389,2.376709,0.782227
1519487778568,0.853760,4.332764,2.809570
1519487778571,0.624268,2.277832,1.772705
1519487778637,0.325439,0.741455,1.179688
1519487778642,-0.687500,1.225586,0.482178
1519487778706,-1.041260,0.989258,0.159180
1519487778772,-1.074219,0.336914,-0.160645
1519487778777,-1.364990,-0.035645,-0.164551
1519487778840,-1.055420,-0.400879,-0.188477
1519487778850,-0.846924,-0.424316,-0.197998
1519487778906,-0.843994,0.060547,-0.059814
1519487778909,-1.382568,4.629395,-0.058594
1519487778973,1.932129,5.383057,1.967773
1519487778976,1.723389,1.441162,1.342285
1519487779001,0.663818,1.673340,0.173340
1519487779003,0.443359,0.538574,0.252197
1519487779010,0.628906,-0.043457,0.158203
1519487779067,0.797852,-0.401855,0.312500
1519487779101,1.000732,-1.500977,0.184570
1519487779134,0.688232,-0.737305,0.326904
1519487779165,0.572021,-0.289063,0.084229
1519487779197,0.706543,-0.020264,-0.049316
1519487779230,0.174561,2.257080,-0.340820
1519487779262,0.122314,6.871582,-0.745605
1519487779295,0.907227,0.402100,2.243896
1519487779329,0.780029,-0.128662,0.824707
1519487779336,-0.266357,2.069824,0.537109
1519487779387,-0.943848,0.578857,0.555664
1519487779421,-1.112305,0.213379,0.511475
1519487779430,-1.245361,-0.084473,0.247314
1519487779489,-0.847412,-0.412109,-0.159424
1519487779498,-0.746826,-0.555664,-0.245361
1519487779544,-0.738770,-0.357178,-0.100098
1519487779577,-1.291504,-0.028076,0.184082
1519487779610,-1.715576,6.125244,0.380371
1519487779642,1.489258,7.955078,1.046387
1519487779674,1.609375,-0.459717,2.216064
1519487779708,0.373535,1.799072,0.497314
1519487779740,0.770508,0.731445,0.736816
1519487779773,1.330078,0.045166,-0.266846
1519487779806,1.205811,-2.419922,-0.857666
1519487779840,0.546875,-1.993896,-0.607422
1519487779872,0.914063,0.033936,-0.213379
1519487779904,0.544922,-0.422607,0.013184
1519487779909,0.751709,0.004883,0.251221
1519487779966,0.073975,6.217041,2.476563
1519487779999,1.753418,0.864990,4.008057
1519487780008,2.141602,0.634033,2.318848
1519487780063,-0.331787,1.729980,0.292969
1519487780097,-1.014160,1.868652,0.252441
1519487780129,-1.059082,0.732910,-0.096191
1519487780142,-1.056641,-0.498047,-0.307129
1519487780175,-0.961670,-0.799561,-0.378662
1519487780208,-0.960938,-0.635986,-0.407715
1519487780264,-0.748291,-0.250244,-0.310059
1519487780297,-0.678467,0.037842,-0.248779
1519487780302,-1.296143,4.432129,-0.312012
1519487780355,1.841309,6.000000,1.944092
1519487780359,1.647949,1.037354,1.648682
1519487780391,0.594727,1.696289,0.296143
1519487780452,0.458008,0.761963,0.487305
1519487780461,0.634766,0.260986,0.372559
1519487780515,0.816895,-0.160645,0.264160
1519487780548,0.744873,-1.041992,0.304688
1519487780562,0.661133,-0.840332,0.016846
1519487780594,0.470459,-0.391357,-0.043945
1519487780627,0.548096,-0.216064,-0.037842
1519487780659,0.355469,0.168945,0.297363
1519487780690,0.656982,4.589600,-0.268555
1519487780722,1.895508,5.107666,1.547607
1519487780780,0.201172,2.194336,1.091064
1519487780786,0.034424,0.384033,0.945557
1519487780826,-0.583496,0.652588,0.140625
1519487780858,-1.486084,0.615967,0.093018
1519487780891,-1.737793,0.508057,-0.056641
1519487780924,-1.279053,-0.101074,-0.233398
1519487780957,-0.830566,-0.333496,-0.181641
1519487780970,-0.650146,-0.310791,-0.110596
1519487781028,-0.672363,0.473877,0.063721
1519487781059,-0.675049,5.495361,0.074463
1519487781091,1.743896,5.393555,2.200684
1519487781123,1.293945,1.791748,1.093994
1519487781157,0.541748,1.783691,0.129150
1519487781189,0.666992,0.822754,0.120361
1519487781223,0.680176,0.050537,0.274170
1519487781257,1.013916,-0.158936,0.124023
1519487781288,0.827393,-1.281006,0.276611
1519487781321,0.560547,-1.161865,0.062012
1519487781354,0.969971,-0.054932,0.095215
1519487781362,0.513672,-0.079346,0.088867
1519487781424,0.279297,4.804199,-0.279785
1519487781456,0.296387,6.890869,0.073730
1519487781460,0.489502,2.706055,1.315674
1519487781515,0.482178,0.526367,0.616943
1519487781520,-0.635254,1.408691,0.053223
1519487781578,-0.809082,1.157959,0.018799
1519487781583,-1.079590,0.324707,-0.195313
1519487781641,-1.110840,-0.611328,-0.393066
1519487781674,-1.144775,-1.024902,-0.633301
1519487781707,-0.825195,-0.767578,-0.685059
1519487781741,-0.714600,-0.359375,-0.245605
1519487781772,-1.072754,0.325928,0.208008
1519487781786,-0.319580,7.999023,0.013672
1519487781819,2.004150,4.165527,1.665039
1519487781851,1.039551,0.623535,1.183350
1519487781884,0.114746,1.016357,0.189697
1519487781916,0.405762,0.616455,0.317139
1519487781948,0.386963,0.066162,0.968994
1519487781982,1.271240,-0.879883,-0.238281
1519487782015,0.870850,-0.990967,-0.013672
1519487782047,0.474609,-0.324219,-0.224854
1519487782080,0.730957,0.141846,-0.452393
1519487782107,0.137939,0.983154,0.168213
1519487782139,-0.374268,3.642822,0.666016
1519487782170,-0.042725,4.422363,1.787354
1519487782212,0.291016,1.256836,2.070801
1519487782244,-0.065430,0.973389,1.270752
1519487782276,-0.469971,0.813477,0.253418
1519487782309,-0.753662,0.885742,-0.187988
1519487782317,-1.191162,0.277832,-0.256348
1519487782379,-1.041504,-0.708252,-0.336914
1519487782411,-0.763184,-1.188721,-0.549072
1519487782420,-0.599609,-0.804443,-0.586182
1519487782473,-0.978271,0.049805,-0.076416
1519487782505,-1.751465,5.133301,0.405273
1519487782537,0.405762,6.029541,1.702148
1519487782569,0.937256,1.681641,1.406738
1519487782584,0.344482,1.478271,0.615234
1519487782615,0.510742,0.833496,0.382080
1519487782648,0.930664,0.115967,0.425049
1519487782706,0.496338,-0.237305,1.218018
1519487782740,1.377197,-0.973145,-0.145752
1519487782771,0.493896,-0.364746,-0.081055
1519487782803,0.532715,-0.056641,-0.167480
1519487782836,0.637939,0.303955,-0.029541
1519487782869,-0.086426,2.311523,-0.019531
1519487782900,-0.829102,5.136230,0.637451
1519487782905,0.382813,4.088867,1.836426
1519487782960,-0.264893,1.215820,0.568115
1519487783000,-0.487793,0.780029,0.407471
1519487783005,-0.682373,0.384033,0.178955
1519487783060,-1.022461,-0.098145,-0.062500
1519487783063,-1.067383,-0.784180,-0.117432
1519487783121,-0.998047,-0.955322,-0.240967
1519487783155,-0.652832,-0.431152,-0.211914
1519487783164,-0.520264,-0.098389,-0.172363
1519487783218,-0.790039,0.671387,-0.053223
1519487783249,-0.896484,6.699219,0.613037
1519487783281,1.404785,5.228760,0.948486
1519487783314,0.931885,2.253906,0.288818
1519487783350,0.464600,1.035156,0.161865
1519487783385,0.311768,0.481689,0.318848
1519487783400,0.455078,0.207764,0.052734
1519487783432,0.727051,-0.463135,-0.383301
1519487783505,0.810303,-0.990723,-0.461426
1519487783514,0.594238,-0.573975,-0.337158
1519487783572,0.715820,0.061035,-0.143799
1519487783581,0.596924,0.111816,0.178467
1519487783640,-0.035889,2.424561,0.564209
1519487783649,0.122314,4.632568,1.920898
1519487783706,-0.063965,3.498291,1.337891
1519487783710,0.154053,1.113281,0.795898
1519487783773,-0.518066,0.840088,0.532471
1519487783776,-0.532227,0.407227,0.112549
1519487783842,-0.744629,0.230225,-0.257568
1519487783912,-1.297363,-0.270264,-0.469727
1519487783978,-1.254639,-0.626709,-0.415527
1519487783984,-1.124756,-0.608154,-0.390381
1519487783988,-1.042725,-0.024170,-0.268799
1519487783992,-1.337402,3.041260,-0.034180
1519487783995,0.093506,7.152344,0.753418
1519487784024,1.229492,3.328125,1.159912
1519487784027,1.091797,1.122559,0.392822
1519487784082,0.570068,0.693604,0.165771
1519487784116,0.700195,0.043701,0.308350
1519487784149,0.459229,-0.131592,0.516357
1519487784157,0.986084,-0.642334,-0.198730
1519487784214,0.533936,-0.461426,-0.365234
1519487784245,0.431641,-0.234619,-0.384033
1519487784259,0.440674,-0.230957,-0.349609
1519487784295,0.125244,0.643066,0.413574
1519487784328,-0.386475,4.236084,0.599365
1519487784361,0.307861,5.114014,1.663574
1519487784393,0.359375,1.028564,1.669189
1519487784426,0.310547,0.669678,1.253906
1519487784457,-0.303711,0.529785,0.364014
1519487784516,-1.028809,0.324707,-0.196533
1519487784524,-1.601563,0.398193,-0.378174
1519487784551,-1.266357,-0.269531,-0.246338
1519487784608,-0.814941,-0.486084,-0.167236
1519487784616,-0.637939,-0.355469,-0.172119
1519487784642,-0.714844,0.166992,0.063477
1519487784695,-0.560059,5.905762,0.685547
1519487784728,2.051270,4.648193,2.319824
1519487784760,1.499023,1.990479,2.070557
1519487784793,0.862305,0.958740,0.369629
1519487784825,0.503906,0.325439,0.066895
1519487784859,0.476563,-0.014160,0.098389
1519487784892,0.709717,0.012939,0.367188
1519487784925,0.926514,-0.637939,0.033691
1519487784933,0.855713,-0.745850,-0.244385
1519487784982,0.653809,-0.397705,-0.098877
1519487785017,0.620361,-0.213623,0.125732
1519487785026,-0.139893,3.659424,0.890381
1519487785080,-0.050537,4.551025,2.466064
1519487785111,0.766113,1.279785,1.196533
1519487785144,0.958740,0.544434,1.479736
1519487785151,-0.528564,0.933594,0.474854
1519487785208,-0.998779,1.377197,-0.102783
1519487785241,-1.247559,0.355225,-0.164551
1519487785277,-1.203613,-0.780029,-0.445313
1519487785311,-0.991699,-0.940186,-0.636719
1519487785316,-0.852051,-0.623047,-0.620117
1519487785370,-0.883789,0.435791,-0.065918
1519487785403,-1.264404,5.229004,-0.459473
1519487785411,0.341064,5.205322,1.159424
1519487785460,0.931885,1.863525,1.504395
1519487785494,0.385010,1.583008,0.642090
1519487785525,0.309570,1.103516,0.639160
1519487785558,0.611084,0.454102,0.269287
1519487785591,0.758057,-0.052979,0.156250
1519487785625,0.645264,-0.574951,0.212891
1519487785658,0.689209,-0.719238,0.008789
1519487785689,0.450928,-0.270264,-0.092285
1519487785723,0.295898,-0.212402,-0.043213
1519487785755,0.455811,0.846191,0.266602
1519487785786,-0.286133,3.946777,0.384033
1519487785819,0.592041,4.432861,1.687988
1519487785851,-0.119141,2.662598,0.639893
1519487785893,-0.250488,0.489746,0.352539
1519487785896,-0.541016,0.282471,0.290771
1519487785946,-0.598389,0.142090,0.061035
1519487785979,-0.986816,0.239014,-0.212402
1519487785988,-1.285400,-0.173828,-0.230225
1519487786041,-1.032471,-0.774170,-0.191650
1519487786075,-0.787354,-0.704346,-0.226563
1519487786107,-0.759766,-0.308105,-0.250244
1519487786138,-1.618652,5.019287,-0.350830
1519487786171,0.836670,7.006836,0.989502
1519487786202,1.572021,3.589355,0.886963
1519487786238,0.731445,1.181396,0.159424
1519487786270,0.434814,0.699707,0.320068
1519487786283,0.697510,0.239502,0.320557
1519487786341,0.706299,0.097656,0.074219
1519487786349,0.591553,-0.380371,0.051270
1519487786405,0.654297,-0.922607,-0.123291
1519487786438,0.532471,-0.423340,-0.175049
1519487786470,0.566162,-0.243896,-0.108154
1519487786473,0.159424,0.298828,0.286133
1519487786529,0.143799,4.571045,0.021484
1519487786535,0.595459,4.921143,0.732422
1519487786567,0.678223,3.054443,1.005615
1519487786599,-0.169189,-0.023438,0.519043
1519487786631,-0.122803,0.000977,0.213623
1519487786690,-0.835449,0.209717,-0.014404
1519487786706,-1.691650,0.290283,-0.248779
1519487786739,-1.402344,-0.119385,-0.140381
1519487786771,-0.954590,-0.330322,-0.122314
1519487786803,-0.550537,-0.076660,-0.116943
1519487786836,-0.660400,1.593750,0.223389
1519487786868,0.029541,5.402588,1.382080
1519487786900,1.586182,2.939941,2.247314
1519487786933,0.787598,1.889160,0.708252
1519487786966,0.352539,1.220947,0.288086
1519487786998,0.300781,0.127441,0.254883
1519487787030,0.478760,-0.335449,0.220459
1519487787064,0.761963,-0.664063,0.054688
1519487787096,0.562256,-0.543457,-0.106201
1519487787138,0.751709,-0.240479,0.070068
1519487787146,0.846680,-0.222656,0.142090
1519487787182,0.711670,0.221924,0.147949
1519487787227,0.454590,4.265381,0.474609
1519487787257,1.041016,4.993896,0.976074
1519487787290,0.617432,1.006104,1.237549
1519487787323,0.700928,0.241699,0.976074
1519487787355,-0.415771,0.867676,0.383789
1519487787388,-1.078369,0.815430,-0.060303
1519487787421,-1.161133,0.511475,-0.217773
1519487787430,-1.229736,0.066650,-0.316162
1519487787485,-0.993652,-0.449219,-0.187744
1519487787518,-0.837402,-0.530762,-0.180176
1519487787531,-0.777832,-0.256592,-0.158447
1519487787590,-1.131592,4.541992,0.096924
1519487787598,2.073486,7.043213,1.950928
1519487787652,1.701416,2.545410,2.338135
1519487787683,0.958252,1.522461,0.411865
1519487787717,0.591553,0.902100,0.162354
1519487787750,0.700195,0.186035,0.212402
1519487787782,0.770508,-0.218750,-0.129639
1519487787814,0.635010,-0.937256,-0.292236
1519487787848,0.382813,-1.145508,0.087158
1519487787879,0.585938,-0.001953,0.055664
1519487787912,0.378418,-0.224121,-0.044434
1519487787915,0.256348,-0.350098,0.026367
1519487787958,0.728027,4.711670,0.387451
1519487788015,1.220215,4.843750,1.538818
1519487788018,-0.073242,2.895264,1.193359
1519487788074,0.520264,0.015381,1.086426
1519487788077,-0.240967,0.451904,0.536865
1519487788134,-0.717529,0.401123,0.004883
1519487788142,-1.323975,0.349854,-0.290283
1519487788199,-1.420410,0.266846,-0.361572
1519487788231,-0.968750,-0.121338,-0.283936
1519487788264,-0.531982,-0.333008,-0.115967
1519487788295,-0.453613,-0.024902,-0.068848
1519487788328,-0.698486,3.238525,0.229004
1519487788342,2.519287,5.537354,2.398682
1519487788374,1.476807,1.857666,1.651123
1519487788431,0.662354,1.590332,0.277100
1519487788506,0.213379,0.636475,0.037842
1519487788515,0.413818,-0.023193,0.085205
1519487788573,0.600098,-0.055664,-0.017578
1519487788581,0.551514,-1.048340,-0.269287
1519487788640,0.313721,-1.038086,-0.204834
1519487788648,0.450684,-0.423584,0.021484
1519487788707,0.479004,-0.195068,0.166260
1519487788714,0.136963,0.383057,0.480957
1519487788775,0.492676,4.380615,0.051270
1519487788783,1.808105,4.123291,1.215820
1519487788841,0.880615,3.095459,1.064453
1519487788844,0.298096,1.384521,0.392822
1519487788910,-0.878174,0.743896,-0.140625
1519487788980,-1.394531,0.547852,-0.147461
1519487789019,-1.583496,0.354980,-0.072266
1519487789024,-1.115479,-0.143066,-0.265625
1519487789029,-0.886230,-0.275391,-0.354980
1519487789034,-0.545166,-0.149902,-0.306152
1519487789038,-0.462891,2.167969,-0.040771
1519487789056,0.151123,6.536621,0.752197
1519487789090,2.509277,2.905518,1.996582
1519487789125,1.209473,1.438721,0.461182
1519487789157,0.571045,0.946777,-0.004150
1519487789190,0.296631,0.560059,0.098145
1519487789204,0.516602,0.164307,0.207520
1519487789263,0.534424,0.003906,0.368164
1519487789294,0.043701,-0.356445,0.895020
1519487789327,0.473145,-0.606934,-0.073242
1519487789360,0.420654,-0.329590,-0.066895
1519487789392,0.402588,-0.197754,-0.041260
1519487789427,-0.111328,3.919434,-0.500244
1519487789456,0.256104,4.313477,0.662109
1519487789460,0.815918,3.281982,1.812012
1519487789516,-0.447021,1.089111,0.300049
1519487789523,-0.347900,0.311523,0.010986
1519487789551,-0.833984,0.353271,-0.097656
1519487789609,-1.462158,0.028320,-0.032471
1519487789641,-1.332031,-0.284180,-0.100098
1519487789675,-0.921631,-0.426514,-0.116699
1519487789707,-0.565186,-0.226563,-0.136475
1519487789740,-0.494141,0.259277,0.062988
1519487789785,-0.937988,4.415771,0.286865
1519487789791,2.077637,4.777344,2.307129
1519487789819,1.777100,1.866943,1.759033
1519487789876,0.869629,1.474609,0.400879
1519487789909,0.469238,0.623047,0.076172
1519487789943,0.515869,0.102051,0.189697
1519487789975,0.739990,-0.044678,0.159180
1519487790007,0.490479,-0.945313,-0.010010
1519487790013,0.260498,-0.961426,0.121094
1519487790054,0.649902,-0.268555,0.071533
1519487790089,0.125977,-0.301514,0.205566
1519487790122,0.090576,2.364746,0.143799
1519487790153,0.222168,5.160156,1.036133
1519487790186,0.601807,3.120605,1.649414
1519487790219,0.181641,0.375977,0.534668
1519487790252,-0.035889,0.454346,0.284180
1519487790283,-0.711426,0.671631,-0.055420
1519487790316,-1.075684,0.438477,-0.236816
1519487790319,-1.400391,-0.027100,-0.205078
1519487790376,-1.112305,-0.352051,-0.180908
1519487790410,-0.848145,-0.311523,-0.200928
1519487790422,-0.701904,0.026855,-0.054443
1519487790480,-1.192871,4.352051,-0.369385
1519487790489,1.260498,6.084961,0.495605
1519487790542,1.945068,2.411865,1.588135
1519487790575,0.652832,1.506592,0.435059
1519487790581,0.313232,0.835449,0.068604
1519487790641,0.401367,0.236816,-0.039795
1519487790671,0.528076,0.044922,-0.125977
1519487790704,0.543457,-0.705322,-0.093994
1519487790738,0.504395,-1.409668,-0.151367
1519487790770,0.513916,-0.350098,-0.179199
1519487790802,0.624756,-0.044434,-0.076416
1519487790835,0.461182,0.360596,0.263916
1519487790848,0.130859,4.441895,0.412354
1519487790905,1.362305,4.332275,1.366943
1519487790909,0.251953,3.240967,0.805420
1519487790964,-0.221680,0.878418,0.253174
1519487790997,-0.521729,0.319092,0.083252
1519487791006,-0.953369,0.101318,-0.046875
1519487791067,-1.283691,-0.410645,-0.103516
1519487791073,-1.195801,-0.591553,0.012939
1519487791099,-0.905518,-0.395752,0.014404
1519487791157,-0.631348,-0.078857,-0.095459
1519487791166,-0.749756,0.921875,0.127197
1519487791221,-0.223145,5.193359,0.513184
1519487791253,2.351807,3.328613,1.383057
1519487791266,0.981201,2.373291,0.449707
1519487791299,0.726807,1.458496,0.467529
1519487791331,0.418701,0.443848,0.464600
1519487791364,0.579346,-0.057617,0.188721
1519487791397,0.540771,-0.341309,0.047607
1519487791431,0.371826,-1.318115,0.165771
1519487791487,0.494629,-0.680664,-0.148926
1519487791492,0.297363,-0.432861,-0.143311
1519487791521,0.424072,0.020020,0.040527
1519487791578,0.061035,3.313477,0.137695
1519487791582,0.416504,3.227783,1.113037
1519487791610,0.929443,4.054688,1.159668
1519487791670,0.137939,1.892334,0.619629
1519487791683,-0.219238,0.624268,0.553955
1519487791716,-0.685303,0.267334,0.407471
1519487791748,-1.197510,0.126953,0.406738
1519487791781,-1.354492,-0.003174,0.236572
1519487791814,-1.029053,-0.018311,-0.197510
1519487791846,-0.819824,-0.043701,-0.225830
1519487791879,-0.690186,0.138916,-0.076172
1519487791936,-0.735596,3.137207,0.182129
1519487791941,0.558838,5.926025,1.171143
1519487791973,1.867188,3.077637,1.288818
1519487792034,0.922852,2.032227,0.227051
1519487792037,0.788574,0.946045,0.181152
1519487792067,0.670410,0.327393,0.277832
1519487792110,0.796875,-0.313232,0.264893
1519487792142,0.680664,-1.090088,0.268066
1519487792174,0.470703,-1.224121,0.591064
1519487792206,0.601807,0.003174,0.215576
1519487792239,0.801025,-0.245361,0.036621
1519487792273,0.797607,-0.063721,0.169922
1519487792304,1.451660,4.061035,0.244629
1519487792345,2.041016,4.693604,2.203369
1519487792378,0.700684,2.843018,1.965332
1519487792411,0.519287,0.523193,0.335449
1519487792445,-0.415527,0.659668,0.182861
1519487792448,-1.155029,0.552979,0.036377
1519487792511,-1.721191,0.403076,-0.245605
1519487792520,-1.440186,0.125977,-0.401123
1519487792546,-0.968018,0.074463,-0.354980
1519487792603,-0.614502,0.403076,-0.054199
1519487792612,-0.626709,3.422607,0.475342
1519487792665,1.666992,5.903076,2.107910
1519487792698,2.222900,1.932129,2.050537
1519487792732,1.241211,1.668945,0.504150
1519487792741,0.739746,0.922363,0.162842
1519487792795,0.551758,0.112793,0.080811
1519487792827,1.026123,-0.226318,-0.022705
1519487792861,0.782959,-0.941162,0.337158
1519487792894,0.620361,-0.983398,0.134277
1519487792910,0.788330,-0.761475,0.052246
1519487792939,0.667725,-0.588867,-0.041260
1519487792977,0.469482,2.533203,0.007568
1519487793009,0.150635,5.355225,0.325684
1519487793043,2.030273,3.789307,2.865967
1519487793075,0.936279,0.829346,0.982422
1519487793107,0.183105,0.894287,0.365723
1519487793141,-0.467773,0.802002,0.176270
1519487793174,-1.369629,0.437988,0.228516
1519487793207,-1.504150,0.107910,0.039551
1519487793240,-1.200928,-0.266602,-0.077637
1519487793274,-0.812988,-0.448242,-0.039551
1519487793306,-0.667236,-0.223877,0.028320
1519487793319,-0.896240,0.531982,0.147705
1519487793376,-0.172852,7.824951,0.104004
1519487793409,3.058105,3.481201,2.104492
1519487793414,1.881836,1.113525,0.864258
1519487793511,0.704834,1.500977,0.123535
1519487793516,0.685303,0.527100,0.154541
1519487793579,0.899170,-0.108398,0.073242
1519487793587,0.648438,-1.207275,-0.209717
1519487793646,0.117432,-1.449707,-0.201416
1519487793655,0.791504,-0.955566,0.595459
1519487793713,0.672119,-0.573975,0.160645
1519487793719,0.439209,0.311279,0.096680
1519487793781,1.515381,4.930908,0.793457
1519487793784,2.857178,4.324951,2.609131
1519487793850,1.048340,1.391357,1.056152
1519487793920,0.202393,0.707520,0.552490
1519487793928,-0.701172,0.572266,0.106689
1519487793986,-1.351807,0.692871,0.006104
1519487793989,-1.512207,0.333496,-0.097656
1519487794015,-1.192871,-0.275146,-0.142090
1519487794024,-0.828857,-0.496338,-0.136230
1519487794031,-0.642334,-0.328613,-0.135254
1519487794049,-0.774658,0.492920,0.211914
1519487794054,-0.281982,6.457031,0.479980
1519487794111,3.002197,5.635498,1.509277
1519487794152,1.369629,1.389404,0.439453
1519487794155,0.533447,1.031982,-0.070068
1519487794186,0.365723,0.514404,0.105225
1519487794219,0.801025,0.295898,0.079346
1519487794283,0.752930,-1.532471,-0.243408
1519487794310,0.556396,-2.064941,-0.371826
1519487794315,0.905029,-0.445068,-0.160645
1519487794374,0.648926,-0.719482,0.024902
1519487794407,0.714111,-0.219482,0.168213
1519487794438,1.776367,4.207764,2.390137
1519487794470,3.156738,6.450439,2.747070
1519487794473,1.312500,1.946777,1.388672
1519487794529,0.239258,0.470703,0.785156
1519487794570,-0.403809,0.626465,0.554688
1519487794574,-0.907471,0.345215,0.334473
1519487794629,-1.282471,0.035889,0.165527
1519487794635,-1.350586,-0.265625,0.058105
1519487794693,-1.209473,-0.498535,-0.066895
1519487794724,-0.758789,0.021484,-0.174561
1519487794732,-0.633545,0.350830,-0.265381
1519487794789,-1.153564,2.955322,-0.677002
1519487794820,2.343994,7.003418,0.455811
1519487794852,2.955811,0.496582,2.106445
1519487794905,0.914551,1.707764,0.187988
1519487794909,0.461426,1.013428,0.380615
1519487794934,0.727783,0.239502,0.292480
1519487794968,1.024902,-0.758057,-0.043701
1519487794999,0.573242,-1.809082,-0.305664
1519487795033,0.736328,-0.997070,0.282471
1519487795066,0.607910,-0.617920,0.319336
1519487795098,0.785645,-0.101807,0.255127
1519487795132,1.004150,5.109375,0.671387
1519487795162,0.705322,4.277588,2.203857
1519487795194,2.555664,0.145020,2.520752
1519487795227,0.467285,1.679199,0.854248
1519487795260,-0.377441,1.565918,0.275879
1519487795292,-1.031006,0.898926,0.259277
1519487795325,-1.166260,0.420410,-0.057129
1519487795367,-1.324463,-0.340088,-0.222168
1519487795401,-1.132813,-0.840576,-0.288574
1519487795432,-0.731934,-0.499023,-0.372559
1519487795441,-0.593750,-0.127441,-0.299072
1519487795491,-0.586426,4.325439,0.605469
1519487795523,1.387207,6.280762,2.221924
1519487795532,2.811523,1.498291,1.961670
1519487795585,0.683594,2.086914,0.616455
1519487795619,0.196533,0.951660,0.444336
1519487795650,0.398926,-0.287598,0.047852
1519487795683,0.817383,-0.568115,-0.405518
1519487795716,0.747070,-0.829102,-0.111328
1519487795748,0.436523,-1.349854,0.211670
1519487795763,0.672607,-0.490967,-0.030518
1519487795820,0.729980,-0.223145,-0.057617
1519487795852,1.031494,1.848633,0.489990
1519487795889,1.171875,4.555176,2.302979
1519487795920,1.402588,2.469238,2.199463
1519487795926,0.639160,1.700928,0.343506
1519487795984,-0.287109,1.081787,0.255615
1519487796016,-0.752197,0.498291,0.302490
1519487796022,-1.124268,0.258545,0.290039
1519487796078,-1.305420,-0.288086,0.053955
1519487796086,-1.098389,-0.650391,-0.124023
1519487796111,-0.945313,-0.438232,-0.125977
1519487796187,-0.692627,-0.024414,-0.113770
1519487796195,-0.740723,1.229980,0.405518
1519487796231,0.058594,5.858398,1.546875
1519487796264,3.662354,2.081055,1.956787
1519487796296,2.029541,1.137695,1.204834
1519487796329,0.662842,0.996094,0.621338
1519487796362,0.416016,0.367188,0.541260
1519487796395,0.744629,-0.052246,0.139893
1519487796428,0.826172,-0.699463,-0.394531
1519487796461,0.192383,-2.152588,-0.378906
1519487796493,0.579834,-0.608887,-0.185059
1519487796503,0.688232,-0.260254,-0.020508
1519487796552,0.754883,-0.061768,0.128906
1519487796558,1.682861,5.319824,1.106689
1519487796616,1.837646,4.784180,3.068115
1519487796630,1.986084,-0.223633,1.987061
1519487796661,0.196533,0.677490,0.649902
1519487796694,-0.412354,1.051025,0.274658
1519487796726,-1.421387,1.030518,0.405518
1519487796759,-1.515625,0.531738,0.036133
1519487796792,-1.424316,-0.122070,-0.302734
1519487796830,-0.902100,-0.456299,-0.415039
1519487796863,-0.782471,-0.321289,-0.294922
1519487796897,-0.776367,0.444580,0.122559
1519487796930,0.272949,6.184326,1.535156
1519487796962,2.982910,2.923828,3.059082
1519487796994,1.576172,0.971191,1.766602
1519487797032,0.624756,0.969238,0.132568
1519487797066,0.380859,0.439453,-0.024414
1519487797099,0.541260,0.437256,0.089111
1519487797131,0.855469,-0.726807,0.020996
1519487797164,0.316650,-1.367432,-0.049316
1519487797196,0.629150,-1.177979,0.382813
1519487797230,0.775391,-0.248047,0.477295
1519487797260,0.912109,0.875000,0.622314
1519487797293,1.142822,4.183105,0.629639
1519487797325,0.718262,2.529541,2.027100
1519487797357,1.281494,1.257813,2.183350
1519487797392,0.423828,0.771729,1.534912
1519487797425,-0.255615,0.377930,0.360596
1519487797467,-0.757813,0.152588,-0.011230
1519487797470,-1.511719,0.216309,-0.033691
1519487797527,-1.485107,-0.189697,-0.267334
1519487797560,-1.202637,-0.366699,-0.268066
1519487797568,-0.867676,-0.098145,-0.345947
1519487797617,-0.720215,0.737061,-0.236816
1519487797626,-0.577393,4.269287,-0.245850
1519487797683,1.145508,5.362793,1.194092
1519487797712,1.453125,0.402588,2.495361
1519487797719,0.660645,1.473389,0.606934
1519487797776,0.318359,1.032471,0.035156
1519487797812,0.151611,0.283936,0.098389
1519487797844,0.465088,0.025635,0.099609
1519487797858,0.650391,-0.325439,0.111572
1519487797891,0.373779,-0.666260,0.387451
1519487797925,0.484131,-0.569092,0.403809
1519487797957,0.900391,-0.032227,0.255127
1519487797990,0.849609,0.865479,-0.635986
1519487798047,0.827393,5.297852,-3.914307
1519487798056,-0.551025,5.543457,-1.442627
1519487798080,-0.055176,-0.498779,1.649902
1519487798139,0.982422,-0.641846,0.980469
1519487798145,0.126709,0.538086,0.221924
1519487798172,-0.850098,0.728760,-0.684082
1519487798206,-1.495117,1.036621,-0.834717
1519487798248,-1.193359,0.541016,-0.783447
1519487798282,-0.720215,-0.119385,-0.488281
1519487798313,-0.537109,-0.209961,-0.258057
1519487798344,-0.652100,0.798340,0.202881
1519487798377,-0.512939,6.168701,0.933594
1519487798410,2.166992,3.012207,1.919922
1519487798441,0.716064,1.713135,1.354736
1519487798514,0.326904,1.113525,0.399414
1519487798520,0.503906,0.395020,0.322998
1519487798582,0.703125,-0.011230,0.347412
1519487798587,0.636475,-1.255371,0.225830
1519487798650,0.514893,-1.021973,0.254883
1519487798719,0.793213,-0.494385,-0.049316
1519487798726,0.559814,-0.008789,-0.204834
1519487798788,0.561035,1.338135,0.072754
1519487798796,0.040771,4.898682,0.250732
1519487798854,0.508301,1.472656,2.721924
1519487798921,1.262939,0.198242,2.864990
1519487798925,0.326172,0.920166,1.281738
1519487798990,-0.567383,1.286377,0.104004
1519487798998,-1.444092,1.131836,-0.147705
1519487799019,-1.632080,0.694580,-0.407227
1519487799027,-1.026367,-0.022461,-0.657959
1519487799035,-0.559814,-0.381348,-0.574951
1519487799042,-0.503906,-0.468506,-0.354980
1519487799064,-0.681152,0.532471,0.623535
1519487799078,-0.725830,3.618408,1.854248
1519487799111,1.034424,4.129150,2.835205
1519487799169,0.528564,1.717041,1.485352
1519487799177,0.356445,1.431641,0.659424
1519487799202,0.313721,0.831055,0.315674
1519487799235,0.576172,-0.443604,-0.043701
1519487799291,0.738770,-0.739746,-0.184326
1519487799296,0.006348,-1.136475,0.886963
1519487799354,0.720703,-0.136719,0.411133
1519487799387,0.280762,0.067139,0.135498
1519487799422,0.644043,0.073730,-0.189453
1519487799454,1.322021,3.885498,-0.191650
1519487799486,-0.063965,4.335205,1.149658
1519487799495,1.609863,-0.355469,2.728760
1519487799530,1.116943,0.676514,1.437988
1519487799589,-0.038086,1.139404,0.464111
1519487799597,-0.725830,1.094238,0.035889
1519487799647,-1.450928,0.765869,0.063477
1519487799650,-1.405029,0.269531,-0.001221
1519487799706,-0.907227,-0.071777,-0.103271
1519487799715,-0.562988,-0.313232,-0.159912
1519487799770,-0.524414,-0.097656,-0.151367
1519487799804,-0.651123,1.398682,0.320557
1519487799835,0.716064,5.558350,1.918701
1519487799867,1.438965,1.881104,2.314941
1519487799899,0.554199,1.633057,1.015137
1519487799912,0.176270,0.989502,0.074951
1519487799946,0.313232,0.255859,-0.037598
1519487800026,0.595947,-0.153076,0.027100
1519487800031,0.515137,-1.267822,0.146729
1519487800036,0.669189,-0.407959,0.767822
1519487800089,0.663086,-0.173828,0.646729
1519487800121,0.575928,-0.251953,0.017578
1519487800130,0.631836,2.706787,0.077148
1519487800186,0.290771,5.885010,1.721680
1519487800217,2.958252,-0.511230,3.126221
1519487800251,1.533203,0.488525,1.247559
1519487800283,0.160645,0.694824,0.335205
1519487800315,-0.586914,1.014404,-0.337646
1519487800327,-1.392578,1.229248,-0.310059
1519487800360,-1.670654,0.764893,-0.322021
1519487800417,-1.080566,-0.093506,-0.261230
1519487800451,-0.567139,-0.348389,-0.216064
1519487800456,-0.311523,-0.456787,-0.158447
1519487800510,-0.885742,1.672607,0.846436
1519487800544,0.855225,5.597656,3.198486
1519487800552,1.933105,2.576904,2.634033
1519487800601,0.525879,1.460693,0.508789
1519487800634,0.203613,0.919434,0.220703
1519487800667,0.246582,0.242188,0.223145
1519487800701,0.451172,-0.245117,0.075684
1519487800707,0.533447,-0.437256,0.247070
1519487800765,0.431152,-0.416992,0.218994
1519487800799,0.437500,-0.234863,-0.139648
1519487800831,0.502441,-0.684082,-0.127930
1519487800863,0.414795,-0.000732,0.074707
1519487800897,0.401367,5.616699,1.894043
1519487800930,-0.561279,2.439209,1.305176
1519487800961,2.420898,-0.594727,2.383057
1519487800995,0.665527,0.585205,1.479248
1519487801025,-0.416504,0.767090,0.409180
1519487801028,-1.119141,1.005615,0.108398
1519487801086,-1.513184,0.598633,-0.043457
1519487801120,-1.172119,0.156494,-0.340576
1519487801129,-0.735352,-0.087402,-0.468506
1519487801181,-0.429688,-0.246338,-0.368164
1519487801213,-0.517822,0.381104,0.188721
1519487801247,-0.744385,3.582520,1.801270
1519487801280,2.411133,3.352051,3.604736
1519487801306,0.770996,2.009277,1.613037
1519487801339,0.447998,1.440430,0.668945
1519487801371,0.340088,0.021729,0.193115
1519487801403,0.438965,-0.717285,-0.246338
1519487801435,0.742920,-1.061035,-0.127930
1519487801468,0.532227,-0.227051,0.537354
1519487801500,0.738770,-0.128662,1.108643
1519487801534,0.668945,-0.690918,0.050537
1519487801575,0.876221,1.282227,-0.648438
1519487801584,1.038086,4.459473,-1.203125
1519487801612,-0.359375,4.379883,0.405029
1519487801650,1.633545,-1.010986,2.979492
1519487801682,0.892090,-0.295410,1.054443
1519487801714,-0.068848,1.072754,-0.185791
1519487801746,-0.913330,1.447754,-0.675049
1519487801782,-1.183350,0.833740,-0.659668
1519487801818,-1.264893,0.178467,-0.582275
1519487801846,-0.888672,-0.320801,-0.377686
1519487801879,-0.598389,-0.486328,-0.317627
1519487801911,-0.478760,-0.306885,-0.245850
1519487801944,-1.133545,1.801025,0.286865
1519487801987,-0.811035,6.802734,0.648438
1519487801995,2.539063,4.041016,1.963379
1519487802046,0.874268,1.449463,1.272949
1519487802079,0.361572,0.936279,0.387939
1519487802112,0.383545,0.114014,0.065430
1519487802143,0.638672,-0.156250,-0.183350
1519487802174,0.645020,-0.562988,-0.174805
1519487802207,0.517822,-0.751953,0.233398
1519487802239,0.696045,-0.141357,0.673584
1519487802272,0.603271,-0.514404,0.379883
1519487802305,0.583740,0.981934,0.497559
1519487802338,-0.227783,5.573486,1.461914
1519487802354,0.345703,2.601074,1.804443
1519487802409,1.529297,0.478516,2.402832
1519487802443,0.040527,0.544434,0.968994
1519487802475,-0.510742,0.612793,-0.015869
1519487802484,-1.435791,0.878906,-0.296143
1519487802532,-1.592285,0.163086,-0.499756
1519487802586,-1.099121,-0.288330,-0.468018
1519487802589,-0.680176,-0.460938,-0.187256
1519487802622,-0.455078,-0.191650,0.062256
1519487802654,-0.933105,2.013428,0.656494
1519487802688,-0.642822,6.487061,1.828125
1519487802722,1.489990,1.634766,2.284668
1519487802752,0.921143,1.383789,1.109131
1519487802769,0.492432,0.976074,0.316406
1519487802824,0.298828,0.247070,0.104248
1519487802857,0.621826,0.046631,0.098389
1519487802889,0.770752,-0.301025,0.096191
1519487802922,0.486328,-0.935059,0.320801
1519487802954,0.970459,-0.413330,0.658447
1519487802986,0.945801,-0.307129,0.518066
1519487803021,0.803223,3.807129,-0.549561
1519487803056,-0.089111,7.501953,-0.497070
1519487803064,-0.635742,0.755615,0.517090
1519487803115,0.725830,0.093262,2.469971
1519487803123,-0.174072,0.517578,0.927002
1519487803149,-0.754395,1.024170,-0.174805
1519487803192,-1.361816,1.006348,-0.721680
1519487803224,-1.600830,0.458984,-0.690918
1519487803257,-0.957031,-0.233398,-0.389893
1519487803289,-0.595215,-0.434570,-0.111328
1519487803323,-0.473389,-0.218994,-0.059082
1519487803354,-0.793701,1.366211,0.465576
1519487803386,0.084717,6.926758,1.611816
1519487803420,1.917236,2.360596,2.448730
1519487803453,1.012695,1.262695,1.452148
1519487803525,0.462402,0.837891,0.240234
1519487803534,0.382324,0.191650,0.113037
1519487803594,0.644531,-0.216309,0.027344
1519487803662,0.689209,-0.768311,0.060059
1519487803726,0.602051,-0.396729,0.362549
1519487803730,0.804932,-0.640381,0.737061
1519487803794,0.939697,-0.060547,0.113037
1519487803862,0.582520,3.223633,0.238281
1519487803930,-0.572998,5.825195,0.739014
1519487803938,0.931396,-0.471924,2.496582
1519487803999,0.880127,0.574463,2.778076
1519487804007,0.103516,0.704102,1.191162
1519487804021,-0.788818,1.211670,-0.282715
1519487804024,-1.287842,0.936523,-0.743164
1519487804027,-1.261963,-0.126221,-0.842285
1519487804030,-0.879150,-0.846924,-0.546387
1519487804038,-0.539795,-0.632568,-0.386719
1519487804041,-0.514160,-0.403320,-0.270264
1519487804072,-0.973877,3.489746,1.288818
1519487804105,-0.085449,5.919189,2.373779
1519487804111,2.928467,2.825684,2.851318
1519487804169,0.900635,1.176758,1.200928
1519487804203,0.550537,0.668945,0.410889
1519487804237,0.283691,0.151367,0.292480
1519487804269,0.475342,0.182861,0.155273
1519487804302,0.455566,-0.551025,-0.029785
1519487804334,0.283691,-1.395264,-0.104736
1519487804365,0.876953,-0.561523,0.199463
1519487804397,0.648926,-0.486572,0.675049
1519487804431,0.695557,0.757080,0.240967
1519487804446,1.144775,5.854736,-1.294678
1519487804476,-0.035645,4.560547,0.521973
1519487804534,1.735840,-2.418945,2.419922
1519487804544,0.202637,0.871826,0.790527
1519487804603,-0.688477,1.072998,0.037598
1519487804611,-1.042969,0.732666,-0.360596
1519487804637,-1.391602,0.548828,-0.462158
1519487804671,-1.055908,0.051270,-0.387939
1519487804706,-0.739014,-0.209229,-0.212891
1519487804739,-0.455566,-0.007080,-0.026611
1519487804771,-0.668945,1.908203,0.586914
1519487804803,0.029541,4.909668,1.694824
1519487804835,1.103271,2.380859,2.302734
1519487804877,0.948242,2.133789,1.336914
1519487804910,0.603271,1.267578,0.492188
1519487804941,0.392822,0.105957,0.114014
1519487804975,0.505371,-0.080811,-0.097168
1519487804984,0.645020,-0.167480,0.076416
1519487805032,0.480469,-1.443604,0.145264
1519487805065,0.620850,-1.038818,0.176270
1519487805099,0.953369,-0.347168,0.014648
1519487805146,1.036377,1.736816,0.448730
1519487805154,0.426758,5.866455,0.670410
1519487805180,0.525391,1.428711,2.327881
1519487805212,1.190186,0.600098,1.817139
1519487805251,0.086182,1.283691,0.571289
1519487805285,-0.626953,1.534668,0.164795
1519487805317,-1.108154,0.730469,-0.280762
1519487805351,-1.167480,-0.057617,-0.445313
1519487805383,-1.062012,-0.605469,-0.497803
1519487805416,-0.855713,-0.370361,-0.316650
1519487805448,-0.609863,0.003418,-0.134277
1519487805481,-0.617432,2.048828,0.337158
1519487805521,0.840576,5.174072,1.768066
1519487805551,1.611084,2.019531,2.325439
1519487805557,0.739746,1.992920,1.079346
1519487805615,0.389648,1.059570,0.169189
1519487805648,0.333496,0.168701,0.053711
1519487805663,0.567627,-0.123535,-0.062744
1519487805722,0.620361,-0.804688,-0.114258
1519487805730,0.611572,-1.077393,0.148682
1519487805777,0.743164,-0.544434,0.094971
1519487805811,0.828613,-0.103027,0.091553
1519487805844,0.821045,2.875732,0.386475
1519487805876,0.362061,4.546143,1.163086
1519487805908,0.642578,1.672119,2.188232
1519487805940,0.681396,1.279297,1.603271
1519487805973,0.143066,1.099854,0.835205
1519487806006,-0.702393,0.556152,0.320068
1519487806038,-1.158203,0.184570,0.122070
1519487806046,-1.207275,-0.021729,-0.156250
1519487806111,-0.974365,-0.335449,-0.252441
1519487806143,-0.810791,-0.319092,-0.173828
1519487806151,-0.642578,-0.178955,-0.091553
1519487806202,-0.550537,1.058594,0.407715
1519487806211,-0.284912,5.410889,1.168945
1519487806264,2.061768,4.428711,2.074951
1519487806273,1.146240,1.800293,1.294678
1519487806326,0.581543,1.381592,0.383789
1519487806358,0.430908,0.727783,0.206543
1519487806383,0.632813,0.062012,0.236328
1519487806416,0.812988,-0.205811,0.165283
1519487806450,0.469238,-1.226074,0.011963
1519487806487,0.614258,-0.869629,0.509766
1519487806519,0.601807,-0.211914,0.493896
1519487806524,0.677734,-0.127441,0.438721
1519487806580,1.132568,4.079346,0.032959
1519487806611,0.939453,4.535156,1.732910
1519487806642,0.418945,1.727295,1.680664
1519487806675,0.642334,0.646729,1.137939
1519487806684,-0.105713,0.767090,0.606201
1519487806741,-0.724854,0.606445,0.259521
1519487806775,-1.360840,0.265381,0.065674
1519487806808,-1.244141,0.121094,-0.212158
1519487806841,-0.876465,-0.160156,-0.341797
1519487806855,-0.605713,-0.242188,-0.248047
1519487806888,-0.632568,0.099609,-0.057373
1519487806921,-0.909424,3.292969,0.169434
1519487806954,1.421631,4.436035,2.180420
1519487806987,1.240479,1.702393,1.899902
1519487807017,0.775879,1.779053,0.580811
1519487807054,0.393066,0.908691,0.131348
1519487807087,0.427979,0.328369,0.115967
1519487807121,0.699463,-0.040527,0.101074
1519487807153,0.563965,-1.324951,-0.000244
1519487807186,0.265869,-0.820313,0.153320
1519487807219,0.753418,-0.186523,0.724609
1519487807250,0.786865,-0.072754,0.419189
1519487807266,0.756836,3.275879,0.195068
1519487807322,0.480225,5.666504,1.200439
1519487807353,0.814941,0.527832,1.641602
1519487807390,0.992432,0.430664,1.436523
1519487807422,0.088867,0.756592,0.773438
1519487807456,-0.849854,0.711182,-0.026367
1519487807464,-1.433105,0.558594,-0.128174
1519487807521,-1.327881,0.132568,-0.316895
1519487807532,-0.874756,-0.282959,-0.388916
1519487807588,-0.611328,-0.282227,-0.268311
1519487807593,-0.474854,-0.145752,-0.160400
1519487807648,-0.650879,3.158203,0.237549
1519487807662,0.749756,6.097900,1.622070
1519487807707,1.717285,2.010498,2.683594
1519487807737,0.865723,1.925781,0.912354
1519487807770,0.465576,1.603027,0.302246
1519487807802,0.417969,0.613525,0.112061
1519487807835,0.768799,-0.329590,-0.010010
1519487807867,0.747070,-0.748535,-0.103027
1519487807900,0.186035,-1.338379,-0.187988
1519487807932,0.927002,-0.402100,0.223389
1519487807965,0.778809,-0.771729,0.541504
1519487807998,0.873291,0.723877,0.563477
1519487808031,0.758301,4.331299,0.904297
1519487808036,1.383301,4.745361,1.542480
1519487808096,1.429443,0.868652,1.535645
1519487808129,0.284912,0.578613,1.270264
1519487808137,-0.343994,0.687256,0.561035
1519487808186,-0.925537,0.831299,0.102783
1519487808219,-1.231201,0.598145,-0.083008
1519487808253,-0.959961,0.088135,-0.155762
1519487808285,-0.755859,-0.236572,-0.187988
1519487808317,-0.559814,-0.320557,-0.167236
1519487808350,-0.513672,-0.112061,-0.035156
1519487808382,-0.856934,2.347168,0.265869
1519487808419,1.672363,5.891846,1.964111
1519487808450,1.608887,1.771484,1.937744
1519487808454,0.872559,1.396240,0.668701
1519487808519,0.557861,0.776855,0.148682
1519487808585,0.497559,0.172607,0.127441
1519487808588,0.659424,-0.129639,0.037842
1519487808654,0.752686,-0.983887,-0.290039
1519487808663,0.297119,-1.328369,-0.196777
1519487808721,1.052979,-0.352783,0.373779
1519487808727,0.819092,-0.239014,0.406006
1519487808788,0.909668,3.386963,0.721191
1519487808793,0.750488,4.372803,1.689697
1519487808855,0.600830,2.423584,0.774902
1519487808858,0.751221,0.472412,0.963623
1519487808924,-0.028809,0.800537,0.808105
1519487808993,-0.838135,0.680908,0.162842
1519487809012,-1.403320,0.514893,-0.102051
1519487809017,-1.527344,0.299072,-0.303223
1519487809022,-0.881104,-0.145508,-0.311279
1519487809026,-0.512939,-0.137451,-0.125244
1519487809047,-0.539063,1.070801,0.382813
1519487809080,0.846436,5.290039,2.080566
1519487809114,1.663574,2.196777,2.322510
1519487809145,1.031494,1.876953,0.944092
1519487809178,0.583984,1.225098,0.182373
1519487809211,0.366455,0.500977,0.177979
1519487809244,0.454590,0.040283,0.063721
1519487809277,0.541016,-0.471191,-0.126465
1519487809309,0.461426,-0.946533,-0.182129
1519487809341,0.385742,-0.341553,-0.092041
1519487809376,0.714844,-0.260010,0.102539
1519487809409,0.660889,0.029785,0.188232
1519487809443,0.727295,2.066650,0.602539
1519487809475,2.014648,4.370117,2.264404
1519487809507,0.507080,3.129883,1.375732
1519487809540,0.785400,0.682129,1.138672
1519487809573,0.309570,0.598389,0.925049
1519487809578,-0.439453,0.430176,0.378418
1519487809633,-0.899902,0.381104,0.088623
1519487809666,-1.000732,0.185059,-0.248779
1519487809681,-0.870850,0.018799,-0.343262
1519487809713,-0.682861,-0.019775,-0.265137
1519487809744,-0.426514,0.103027,-0.071533
1519487809777,-0.404785,0.948730,0.345215
1519487809810,0.068848,4.191650,1.229248
1519487809866,2.074463,2.909912,2.526855
1519487809871,1.007080,1.447510,1.262695
1519487809928,0.406250,1.495605,0.244385
1519487809961,0.250244,0.994873,0.155029
1519487809994,0.494385,0.252441,0.113525
1519487810000,0.671631,-0.478027,0.005127
1519487810054,0.450928,-1.305908,-0.079346
1519487810088,0.468262,-0.517334,-0.192383
1519487810095,0.573730,-0.055908,-0.184570
1519487810145,0.124756,0.576660,0.224854
1519487810178,0.459717,4.065430,0.586914
1519487810209,1.020020,3.940674,1.998779
1519487810242,0.329346,1.330566,0.781738
1519487810265,0.243652,0.653564,0.465088
1519487810298,-0.281250,0.852295,0.303711
1519487810335,-0.699707,0.582275,-0.031738
1519487810367,-0.753906,0.014893,-0.218506
1519487810399,-0.975586,-0.360107,-0.144775
1519487810431,-0.831543,-0.258789,-0.130859
1519487810465,-0.609863,-0.184326,-0.072021
1519487810505,-0.514160,0.813477,0.227539
1519487810538,-0.285889,5.919922,1.135498
1519487810570,1.557617,2.903076,1.436035
1519487810575,1.084717,1.498291,0.958252
1519487810629,0.385742,1.474609,0.335938
1519487810662,0.328369,0.685547,0.272949
1519487810671,0.521973,0.246582,0.070313
1519487810725,0.679688,-0.255859,-0.270996
1519487810757,0.646973,-0.878662,-0.321777
1519487810773,0.470703,-0.622559,-0.253662
1519487810806,0.720703,-0.134033,-0.016357
1519487810839,0.566650,0.048828,0.173340
1519487810877,0.243652,2.548096,0.525635
1519487810910,1.159668,3.910645,1.549316
1519487810942,0.291016,2.772461,1.313721
1519487810976,0.397705,1.365723,0.801270
1519487811008,-0.156738,1.138184,0.504639
1519487811041,-0.627441,0.566406,0.247559
1519487811075,-0.856689,0.263428,0.017334
1519487811106,-1.049561,-0.403320,-0.062500
1519487811137,-0.872314,-0.512207,-0.004639
1519487811171,-0.625732,-0.156494,0.123047
1519487811205,-0.451172,0.323975,0.208984
1519487811237,-0.430176,3.700439,0.695557
1519487811270,1.216309,5.211426,1.000244
1519487811284,1.382324,2.334961,0.582520
1519487811340,0.683838,1.864746,0.250977
1519487811373,0.511230,0.999512,0.034668
1519487811405,0.577637,-0.005127,-0.045166
1519487811439,0.552002,-0.390137,-0.021729
1519487811444,0.581543,-0.802002,-0.155029
1519487811498,0.292236,-0.774170,-0.112061
1519487811548,0.424561,-0.323730,-0.030518
1519487811555,0.581543,-0.029785,0.030029
1519487811604,0.385254,1.950684,0.418701
1519487811607,0.859375,3.993408,1.245850
1519487811637,1.329102,3.222168,1.587158
1519487811696,0.381104,1.416016,0.535645
1519487811709,0.013428,1.128174,0.413574
1519487811741,-0.374268,0.787354,0.347900
1519487811774,-0.630615,0.181396,0.103027
1519487811807,-0.968018,-0.213379,0.160889
1519487811841,-1.060547,-0.464111,0.194336
1519487811872,-0.666992,-0.156738,0.095459
1519487811905,-0.491943,0.051025,0.114014
1519487811938,-0.434570,1.020752,0.333984
1519487811970,0.564209,5.268799,1.115479
1519487812005,2.314453,3.245850,1.168213
1519487812037,1.291992,1.902832,0.190674
1519487812071,0.593750,1.345215,0.455322
1519487812103,0.399170,0.552002,0.133301
1519487812117,0.575928,0.070801,-0.143066
1519487812175,0.526123,-0.773926,-0.222656
1519487812209,0.380615,-1.012451,-0.317139
1519487812241,0.257813,-0.462891,-0.145020
1519487812277,0.462891,-0.157471,0.049561
1519487812286,0.580078,0.313477,0.165527
1519487812336,1.139404,3.916016,0.515381
1519487812367,1.483887,2.839600,2.062012
1519487812401,0.710938,1.573242,1.212158
1519487812436,0.315186,1.511719,0.696289
1519487812466,-0.445313,1.182373,0.522461
1519487812500,-0.714844,0.434082,0.235352
1519487812532,-0.744629,-0.023926,0.023682
1519487812564,-0.889893,-0.426270,-0.086670
1519487812581,-0.723633,-0.405273,-0.047607
1519487812605,-0.560791,-0.174316,0.014648
1519487812637,-0.467285,0.286865,0.142090
1519487812694,-0.858887,3.950195,0.354492
1519487812699,1.043701,5.586670,1.067871
1519487812728,1.292480,2.150391,0.622070
1519487812786,0.792725,1.875244,0.318359
1519487812825,0.533936,0.931885,0.347412
1519487812831,0.546387,0.066162,0.177979
1519487812864,0.687500,-0.406738,-0.048340
1519487812896,0.672119,-0.994629,-0.194336
1519487812928,0.142578,-0.612793,-0.100098
1519487812961,0.645996,0.001465,0.131592
1519487812994,0.583984,-0.115234,0.198242
1519487813051,0.649658,3.281982,0.187744
1519487813059,0.877930,3.950928,1.376953
1519487813084,0.810791,3.362549,1.501709
1519487813141,0.512939,1.072998,0.579346
1519487813144,-0.027588,0.858398,0.308594
1519487813200,-0.673340,0.728516,0.187256
1519487813235,-1.103516,0.373535,0.062744
1519487813241,-1.024414,0.039307,0.056152
1519487813299,-0.764160,-0.341309,-0.004883
1519487813331,-0.530029,-0.393799,-0.085205
1519487813363,-0.398682,-0.005371,-0.011963
1519487813396,-0.879883,2.523193,0.149414
1519487813410,0.932617,5.517334,1.184570
1519487813442,1.481934,1.994141,1.067871
1519487813515,0.681152,1.726074,0.059326
1519487813517,0.130127,1.182129,0.063232
1519487813583,0.183350,0.568359,0.333496
1519487813598,0.288818,0.203369,0.127686
1519487813650,0.599365,-0.315186,-0.294434
1519487813653,0.568115,-0.793457,-0.373535
1519487813717,0.572021,-0.601807,-0.354492
1519487813721,0.692627,0.135010,-0.026367
1519487813784,0.179443,0.844238,0.539551
1519487813786,-0.036377,3.530273,0.705811
1519487813852,0.646729,4.094238,1.612793
1519487813921,-0.200195,2.595703,0.779297
1519487813987,0.063477,0.682861,0.487061
1519487813994,-0.598633,0.530762,0.043213
1519487814007,-0.845459,0.262451,-0.156494
1519487814012,-0.945313,-0.091309,-0.096436
1519487814015,-0.894043,-0.582031,-0.124268
1519487814030,-0.667236,-0.406006,-0.104736
1519487814063,-0.473877,-0.044922,-0.029541
1519487814105,-0.674561,0.810791,0.325684
1519487814137,-1.004883,4.262695,0.758301
1519487814141,1.082520,5.139648,1.185303
1519487814198,0.851807,1.727295,0.399902
1519487814231,0.468506,1.218262,0.164795
1519487814236,0.273438,0.815430,0.260498
1519487814296,0.434082,0.040039,0.314697
1519487814328,0.600098,-0.215576,0.174072
1519487814361,0.502930,-0.708496,-0.040039
1519487814394,0.353027,-0.565674,-0.168945
1519487814426,0.661133,-0.135498,-0.063477
1519487814458,0.483154,0.568604,0.235352
1519487814491,0.210449,3.455811,0.509277
1519487814523,0.963867,3.731689,1.484619
1519487814526,-0.162842,2.982178,0.884521
1519487814581,-0.105713,1.041504,0.254150
1519487814614,-0.324951,0.620117,0.123535
1519487814647,-0.549072,0.235352,-0.007324
1519487814679,-0.911377,-0.242920,-0.092773
1519487814694,-0.974365,-0.261963,-0.074219
1519487814726,-0.756836,-0.264160,-0.075195
1519487814757,-0.458740,0.022217,-0.015137
1519487814791,-0.499268,0.834717,0.104980
1519487814823,-0.981689,3.354248,0.052734
1519487814856,1.384277,3.863525,1.205078
1519487814888,0.588867,2.462646,0.750732
1519487814920,0.491211,1.811768,0.239990
1519487814978,0.329346,0.681641,0.204590
1519487815010,0.432617,0.124512,0.173096
1519487815013,0.580811,-0.271729,0.154785
1519487815069,0.551270,-0.861084,-0.047119
1519487815103,0.438965,-0.415527,-0.027588
1519487815112,0.582520,-0.145752,0.008545
1519487815174,0.559570,0.714844,0.206055
1519487815183,0.513916,3.371826,-0.053223
1519487815210,0.596924,3.496826,1.049072
1519487815265,-0.052734,2.567139,1.100586
1519487815272,0.259766,0.889893,0.633057
1519487815325,-0.103271,0.841309,0.366699
1519487815357,-0.590576,0.393066,0.065918
1519487815385,-0.916016,-0.079346,-0.039063
1519487815418,-1.171875,-0.294434,-0.117188
1519487815451,-0.848877,-0.313721,-0.180664
1519487815483,-0.601074,-0.225586,-0.134521
1519487815516,-0.484375,0.239746,0.036133
1519487815548,-0.710205,4.070313,0.489014
1519487815581,0.948730,3.995117,1.739502
1519487815590,0.826416,2.104492,1.293945
1519487815644,0.330811,1.645264,0.281494
1519487815676,0.127686,0.993652,0.155518
1519487815683,0.260986,0.507080,0.234375
1519487815741,0.607666,0.106201,0.160889
1519487815774,0.677734,-0.396729,0.010010
1519487815806,0.458740,-0.762939,0.005127
1519487815839,0.466064,-0.522217,-0.160889
1519487815872,0.707031,0.226074,-0.385254
1519487815904,0.264648,0.706055,-0.163574
1519487815917,0.041016,4.020508,-0.403564
1519487815976,0.025635,2.948730,1.562744
1519487816007,0.242920,2.555420,1.589844
1519487816039,-0.082764,0.972900,0.281982
1519487816072,-0.331055,0.853760,0.049316
1519487816106,-0.618408,0.386963,-0.109619
1519487816117,-0.919434,-0.101807,-0.189453
1519487816149,-0.968262,-0.339355,-0.098633
1519487816181,-0.813721,-0.433105,-0.111816
1519487816214,-0.570068,-0.269043,-0.071045
1519487816246,-0.502197,0.603516,0.145020
1519487816279,-0.823730,4.104004,-0.031982
1519487816312,1.877441,4.564941,0.958252
1519487816344,0.985596,1.191406,0.725830
1519487816376,0.465820,0.984375,0.167725
1519487816408,0.040039,0.617920,0.123047
1519487816441,0.281250,0.217285,0.146973
1519487816473,0.401855,0.088135,0.243652
1519487816506,0.387207,-0.795166,0.080322
1519487816539,0.143799,-0.517578,-0.166260
1519487816571,0.365723,-0.330811,-0.162354
1519487816603,0.255371,1.028320,0.280518
1519487816636,0.339111,4.182617,0.424805
1519487816664,0.885254,2.735596,2.251465
1519487816703,0.355713,1.926025,1.020508
1519487816736,-0.047607,1.302979,0.646240
1519487816768,-0.396484,1.208496,0.353027
1519487816801,-0.737793,0.577148,-0.028564
1519487816833,-1.087158,0.091064,-0.098145
1519487816866,-1.178467,-0.466064,-0.064941
1519487816898,-0.859863,-0.586182,-0.130859
1519487816931,-0.649902,-0.355713,-0.134033
1519487816963,-0.514893,0.238037,-0.072754
1519487816996,-1.189209,4.237061,-0.041504
1519487817028,0.994141,4.970215,1.053711
1519487817061,1.373779,2.035400,0.839355
1519487817097,0.623047,0.999023,0.131104
1519487817111,0.439941,0.700439,0.068848
1519487817143,0.329834,0.374512,0.075684
1519487817202,0.515381,-0.012939,0.103271
1519487817205,0.472168,-0.486084,0.232422
1519487817234,0.278076,-0.622070,0.261963
1519487817294,0.517822,0.049072,0.172363
1519487817302,0.252930,0.566406,0.049561
1519487817352,0.557617,3.519043,-0.208252
1519487817382,1.055908,3.468506,1.487305
1519487817415,0.161133,2.119629,0.872070
1519487817447,0.081787,0.738525,0.212158
1519487817480,-0.614502,0.610107,-0.003418
1519487817513,-0.836670,0.426270,-0.011475
1519487817526,-0.939453,0.112549,0.047363
1519487817584,-0.916504,-0.331299,0.322998
1519487817619,-0.651611,-0.294678,0.162598
1519487817627,-0.458252,-0.224121,0.089111
1519487817676,-0.504639,0.577393,0.070557
1519487817684,-0.808105,3.658203,-0.440430
1519487817710,0.444824,4.947754,0.156494
1519487817768,0.730713,1.614746,1.020264
1519487817799,0.681641,1.358398,0.403564
1519487817832,0.370117,0.853516,0.037109
1519487817864,0.309814,0.408691,0.020264
1519487817896,0.473633,-0.024414,0.066895
1519487817945,0.536133,-0.594238,0.169189
1519487817949,0.138184,-0.388916,0.241211
1519487817991,0.504150,0.026123,0.205566
1519487817994,0.475830,0.067139,0.137451
1519487818053,0.453125,3.316406,-0.397461
1519487818087,0.759033,3.449219,0.966797
1519487818095,0.427490,2.622314,1.576172
