1519491180452,-0.217529,0.977295,0.037842
1519491180485,-0.214844,0.993408,0.066162
1519491180536,-0.214111,1.003174,0.068359
1519491180537,-0.214844,1.000488,0.041504
1519491180595,-0.220703,0.989746,0.043701
1519491180627,-0.219238,0.987793,0.064453
1519491180629,-0.212646,0.935547,0.072998
1519491180661,-0.214600,1.023682,0.080566
1519491180719,-0.214111,1.019287,0.006348
1519491180720,-0.219482,0.988525,0.042236
1519491180778,-0.225830,0.992188,0.049805
1519491180813,-0.214111,0.943359,0.114258
1519491180845,-0.159912,0.905273,0.246582
1519491180851,-0.195068,0.946045,0.205566
1519491180909,-0.185303,1.066406,0.202881
1519491180941,-0.202148,0.937988,0.064453
1519491180974,-0.205566,1.052490,0.064209
1519491180988,-0.156982,0.935547,0.168945
1519491181045,-0.245605,1.020020,0.110107
1519491181050,-0.230225,1.005859,-0.006592
1519491181108,-0.209473,0.938232,-0.016846
1519491181140,-0.235840,1.024902,0.036133
1519491181141,-0.189209,1.002686,0.088379
1519491181199,-0.234131,1.062500,0.031006
1519491181204,-0.189209,1.003662,0.026855
1519491181236,-0.184082,0.971436,0.019531
1519491181294,-0.228516,0.987305,0.023926
1519491181302,-0.188965,0.973633,0.054688
1519491181358,-0.197266,0.999512,0.046387
1519491181390,-0.215576,0.998291,0.044678
1519491181404,-0.183105,1.003418,0.047607
1519491181436,-0.215576,1.003906,0.052490
1519491181469,-0.205322,0.959229,0.032471
1519491181501,-0.209473,1.016602,0.035156
1519491181534,-0.205566,1.034912,0.005127
1519491181592,-0.219482,0.989014,-0.056885
1519491181624,-0.221436,0.995117,-0.036377
1519491181625,-0.214355,1.005127,-0.014160
1519491181683,-0.209717,1.003906,-0.035156
1519491181715,-0.218506,0.995361,-0.048096
1519491181716,-0.221680,0.968018,-0.044922
1519491181776,-0.224365,0.989746,-0.053711
1519491181816,-0.216797,0.997803,-0.051270
1519491181818,-0.219238,0.993896,-0.034424
1519491181888,-0.219971,0.995605,-0.029785
1519491181889,-0.217529,0.976807,-0.040039
1519491181921,-0.218018,0.996826,-0.033447
1519491181954,-0.210693,0.995117,-0.027588
1519491181986,-0.214355,0.990234,-0.033691
1519491182019,-0.221680,0.986572,-0.035645
1519491182051,-0.218994,0.977051,-0.032715
1519491182084,-0.220947,1.004150,-0.057373
1519491182116,-0.216553,1.000977,-0.066650
1519491182149,-0.213379,0.994629,-0.056152
1519491182206,-0.217529,0.988281,-0.050049
1519491182207,-0.219482,0.996826,-0.054199
1519491182265,-0.212158,0.990967,-0.044922
1519491182297,-0.226563,1.009521,-0.056885
1519491182299,-0.217285,1.004883,-0.067139
1519491182356,-0.212158,0.989502,-0.060547
1519491182389,-0.221680,0.994629,-0.056641
1519491182421,-0.215088,0.971680,-0.042480
1519491182454,-0.216797,1.007080,-0.045898
1519491182464,-0.215576,1.012939,-0.042236
1519491182496,-0.210449,1.007080,-0.048584
1519491182554,-0.221924,0.985352,-0.062256
1519491182586,-0.221436,0.984375,-0.074219
1519491182619,-0.213623,0.975830,-0.055908
1519491182633,-0.221191,0.967773,-0.024170
1519491182665,-0.213135,0.984863,-0.025146
1519491182698,-0.214844,0.999023,-0.068359
1519491182733,-0.197754,0.988770,-0.020508
1519491182765,-0.219482,0.984375,-0.010986
1519491182798,-0.204590,0.978516,-0.091309
1519491182830,-0.166992,1.026123,-0.077393
1519491182863,-0.229004,1.023193,-0.026367
1519491182895,-0.218018,0.974365,-0.036133
1519491182953,-0.150146,0.970459,-0.030273
1519491182954,-0.203613,1.049561,0.016846
1519491182986,-0.181885,1.007813,0.021973
1519491183019,-0.205566,1.040771,-0.069824
1519491183060,-0.165039,0.998291,-0.047607
1519491183096,-0.166260,1.022461,-0.008545
1519491183129,-0.209473,0.955566,-0.115967
1519491183161,-0.179443,0.947021,-0.062012
1519491183194,-0.205322,0.985352,-0.044434
1519491183226,-0.207275,1.000488,-0.167725
1519491183259,-0.165283,0.964355,-0.085449
1519491183291,-0.189941,0.934814,-0.064209
1519491183324,-0.185547,0.863281,-0.103516
1519491183356,-0.144043,0.827393,-0.059326
1519491183361,-0.089600,1.017090,-0.013428
1519491183419,-0.330078,2.368408,-0.103271
1519491183460,0.149414,1.088379,-0.041992
1519491183461,-0.028809,1.028564,-0.073486
1519491183519,0.012451,1.005615,-0.183838
1519491183527,-0.021973,1.003174,-0.094727
1519491183583,-0.093262,1.036621,0.065186
1519491183615,-0.020264,1.001953,0.021729
1519491183623,-0.287354,1.090088,0.088623
1519491183679,-0.248047,1.009277,0.125000
1519491183714,-0.119385,0.946045,0.090332
1519491183746,-0.345703,1.043701,0.083496
1519491183779,-0.269531,0.990723,0.034180
1519491183811,-0.321533,1.000244,0.014893
1519491183844,-0.305420,0.979980,0.066406
1519491183858,-0.244629,0.988037,0.084229
1519491183890,-0.165771,0.998535,0.095947
1519491183948,-0.183105,1.021973,0.037598
1519491183949,-0.075439,0.992188,0.002197
1519491184006,-0.054932,1.013916,0.010254
1519491184010,-0.186768,1.080078,0.063232
1519491184043,-0.140137,0.999268,0.013184
1519491184100,-0.050049,1.064209,-0.012939
1519491184108,-0.473389,1.035889,0.054199
1519491184164,-0.119873,1.025635,-0.011719
1519491184196,-0.517822,0.978271,0.100830
1519491184229,0.385254,0.803223,-0.237305
1519491184261,-1.322266,0.491211,-0.223145
1519491184275,-0.184326,1.537354,-0.256348
1519491184308,-0.187744,0.982178,-0.391113
1519491184340,-0.251953,0.970947,-0.270508
1519491184376,-0.281494,0.752930,-0.196289
1519491184409,-0.346680,0.685791,0.048584
1519491184441,-0.331543,0.854248,0.093750
1519491184474,-0.434326,1.002686,0.138428
1519491184506,-0.465820,0.928223,-0.039551
1519491184539,-0.418213,0.833252,-0.117188
1519491184596,-0.453369,1.250977,0.040039
1519491184598,-0.328125,1.303711,0.213867
1519491184630,-0.460449,1.107422,0.072754
1519491184690,-0.443115,1.019043,-0.159180
1519491184692,-0.306885,1.217285,-0.353271
1519491184736,-0.240723,1.114014,-0.290527
1519491184769,-0.327881,0.964600,-0.296631
1519491184801,-0.288574,1.080811,-0.276367
1519491184834,-0.136230,1.134277,-0.287842
1519491184906,-0.022949,1.235596,-0.256836
1519491184908,-0.007813,1.250488,-0.203369
1519491184974,-0.064209,1.109375,-0.129883
1519491184975,-0.140625,1.071289,-0.030029
1519491185041,-0.243896,0.929688,0.018311
1519491185043,-0.362549,0.847412,-0.026367
1519491185109,-0.396240,0.760254,-0.107666
1519491185178,-0.386230,0.861084,-0.086182
1519491185244,-0.364502,0.768799,-0.152344
1519491185245,-0.423096,0.705322,-0.260498
1519491185311,-0.438965,0.673584,-0.229736
1519491185313,-0.434814,0.746582,-0.128174
1519491185379,-0.441895,0.779785,-0.145996
1519491185380,-0.440430,0.927002,-0.166504
1519491185406,-0.391357,1.002930,-0.165283
1519491185407,-0.394531,0.916260,-0.223877
1519491185409,-0.403076,0.907227,-0.278564
1519491185410,-0.407471,0.923584,-0.304932
1519491185454,-0.433594,0.868408,-0.298584
1519491185486,-0.462646,0.864014,-0.264160
1519491185519,-0.442871,0.907959,-0.239014
1519491185536,-0.447510,0.929443,-0.242432
1519491185592,-0.481934,0.925537,-0.262939
1519491185593,-0.467285,0.878906,-0.269043
1519491185657,-0.419922,0.926025,-0.307129
1519491185689,-0.400635,0.874512,-0.310303
1519491185690,-0.384277,0.864990,-0.241943
1519491185723,-0.373535,0.848877,-0.233887
1519491185755,-0.364258,0.852783,-0.238037
1519491185788,-0.369385,0.880127,-0.233887
1519491185820,-0.392334,0.902832,-0.240234
1519491185853,-0.395508,0.876709,-0.266846
1519491185885,-0.393066,0.880127,-0.283447
1519491185924,-0.408447,0.906738,-0.290771
1519491185956,-0.443115,0.941406,-0.297363
1519491185989,-0.470703,0.921143,-0.307861
1519491186021,-0.455322,0.898682,-0.259521
1519491186054,-0.479004,0.904541,-0.259766
1519491186086,-0.465332,0.939697,-0.222900
1519491186119,-0.558838,0.887695,-0.264648
1519491186151,-0.592529,0.912598,-0.202148
1519491186184,-0.593994,1.009521,-0.253418
1519491186216,-0.532227,0.995850,-0.294922
1519491186249,-0.497559,0.925781,-0.309326
1519491186281,-0.506592,0.719727,-0.342285
1519491186314,-0.583740,0.840088,-0.321533
1519491186336,-0.572998,0.831055,-0.262451
1519491186369,-0.641357,0.710938,-0.201172
1519491186401,-0.653564,0.787109,-0.128174
1519491186434,-0.716797,0.797119,-0.109131
1519491186466,-0.696045,0.644775,-0.031982
1519491186499,-0.667725,0.720947,-0.114746
1519491186532,-0.623047,0.752930,-0.196533
1519491186589,-0.533447,0.755127,-0.252197
1519491186624,-0.409180,0.737793,-0.104248
1519491186629,-0.414551,0.823730,-0.096436
1519491186686,-0.434814,0.769531,-0.218262
1519491186719,-0.526855,0.691406,-0.242432
1519491186720,-0.600342,0.724121,-0.055176
1519491186765,-0.697510,0.765381,-0.040283
1519491186798,-0.855225,0.667480,-0.141602
1519491186830,-0.961426,0.612305,-0.181396
1519491186864,-0.923096,0.670166,-0.116211
1519491186896,-0.869873,0.604004,-0.118896
1519491186936,-0.811035,0.613525,-0.160156
1519491186969,-0.733154,0.627441,-0.199219
1519491187002,-0.677246,0.707520,-0.170654
1519491187034,-0.699463,0.654541,-0.204346
1519491187066,-0.748779,0.662109,-0.209717
1519491187099,-0.763672,0.673584,-0.182617
1519491187131,-0.762451,0.661133,-0.157715
1519491187133,-0.737793,0.636719,-0.118896
1519491187203,-0.748535,0.705078,-0.131348
1519491187204,-0.761719,0.681152,-0.178223
1519491187236,-0.754883,0.666748,-0.189453
1519491187294,-0.761475,0.643555,-0.187256
1519491187295,-0.773682,0.636230,-0.174561
1519491187353,-0.777832,0.678955,-0.188232
1519491187385,-0.758057,0.661133,-0.171631
1519491187418,-0.759521,0.639160,-0.198975
1519491187426,-0.757324,0.641357,-0.216309
1519491187481,-0.758789,0.633789,-0.156982
1519491187514,-0.776123,0.535645,-0.178711
1519491187546,-0.774170,0.528809,-0.113525
1519491187562,-0.758789,0.720459,-0.127930
1519491187619,-0.732422,0.772217,-0.167480
1519491187625,-0.749512,0.734863,-0.148438
1519491187683,-0.757813,0.645508,-0.062256
1519491187715,-0.787842,0.614014,-0.105225
1519491187716,-0.778076,0.684570,-0.181885
1519491187774,-0.689697,0.729492,-0.206299
1519491187779,-0.723633,0.688721,-0.198730
1519491187814,-0.725830,0.662598,-0.120361
1519491187871,-0.708984,0.670410,-0.058105
1519491187875,-0.712646,0.732910,-0.035645
1519491187933,-0.721191,0.755615,-0.070557
1519491187965,-0.743652,0.625732,-0.062988
1519491187979,-0.674072,0.611084,-0.087158
1519491188012,-0.616211,0.768311,-0.078613
1519491188044,-0.680908,0.780029,-0.046631
1519491188076,-0.645020,0.667725,-0.039551
1519491188109,-0.645996,0.759033,-0.146973
1519491188166,-0.786865,0.804932,-0.306396
1519491188216,-0.703125,0.653564,-0.301758
1519491188217,-0.704346,0.697510,-0.205566
1519491188250,-0.740479,0.740234,-0.240723
1519491188283,-0.716797,0.762939,-0.245850
1519491188291,-0.667725,0.618164,-0.153809
1519491188346,-0.659668,0.745850,-0.151855
1519491188379,-0.665283,0.800781,-0.138184
1519491188393,-0.668457,0.784180,-0.196777
1519491188450,-0.633789,0.744629,-0.147217
1519491188455,-0.532959,0.815186,-0.063721
1519491188513,-0.486084,0.816650,-0.046631
1519491188548,-0.567139,1.049805,-0.152344
1519491188580,-0.623535,0.865967,-0.144775
1519491188613,-0.676270,0.758057,-0.169922
1519491188645,-0.682129,0.805176,-0.085449
1519491188678,-0.686035,0.764404,-0.069092
1519491188710,-0.672363,0.783203,-0.063965
1519491188742,-0.673584,0.837402,-0.047119
1519491188775,-0.703369,0.841064,-0.134766
1519491188776,-0.676758,0.773438,-0.208252
1519491188821,-0.654541,0.733398,-0.177490
1519491188854,-0.619385,0.748779,-0.102051
1519491188886,-0.624268,0.778809,-0.075928
1519491188944,-0.616699,0.793945,-0.059082
1519491188945,-0.608154,0.797119,-0.056641
1519491188978,-0.601807,0.799316,-0.041992
1519491189035,-0.631836,0.813232,-0.015381
1519491189036,-0.643311,0.776367,-0.017334
1519491189094,-0.646729,0.778320,-0.020508
1519491189126,-0.655273,0.772705,-0.065918
1519491189159,-0.670410,0.812256,-0.108154
1519491189192,-0.675293,0.786133,-0.122070
1519491189205,-0.657471,0.733154,-0.052979
1519491189238,-0.649902,0.762695,-0.006592
1519491189270,-0.663086,0.806885,-0.009766
1519491189328,-0.665039,0.770264,-0.003174
1519491189360,-0.662842,0.785400,0.015137
1519491189361,-0.653320,0.784668,0.005127
1519491189419,-0.669434,0.810547,-0.022949
1519491189452,-0.618164,0.818604,0.027832
1519491189453,-0.606934,0.833252,0.165039
1519491189522,-0.661133,0.809814,0.202393
1519491189523,-0.647705,0.753174,0.203857
1519491189555,-0.616455,0.656006,0.275879
1519491189588,-0.658691,0.762207,0.190674
1519491189629,-0.699219,0.785889,0.054932
1519491189662,-0.674072,0.796875,0.036377
1519491189694,-0.646729,0.750732,0.049561
1519491189726,-0.651123,0.714355,-0.002930
1519491189759,-0.655762,0.725342,-0.071289
1519491189791,-0.661865,0.747070,-0.097900
1519491189824,-0.665527,0.746582,-0.056396
1519491189896,-0.691895,0.716553,0.010010
1519491189898,-0.831787,0.728760,0.045166
1519491189964,-0.841553,0.729736,0.045410
1519491189965,-0.787109,0.639160,0.056152
1519491190031,-0.665283,0.872314,-0.132324
1519491190100,-0.615234,1.043213,-0.249268
1519491190166,-0.639404,0.836426,-0.240234
1519491190167,-0.549316,0.692139,-0.062012
1519491190234,-0.507568,0.914307,-0.134766
1519491190235,-0.452148,0.931641,-0.156738
1519491190301,-0.414307,0.815674,-0.143555
1519491190303,-0.384033,0.925537,-0.193359
1519491190369,-0.399170,1.030273,-0.246826
1519491190370,-0.430420,0.961914,-0.194336
1519491190396,-0.447754,0.871338,-0.192383
1519491190398,-0.386230,0.873291,-0.182129
1519491190399,-0.292236,0.893311,-0.127441
1519491190400,-0.196289,0.897217,-0.126465
1519491190433,-0.146484,0.934814,-0.153564
1519491190478,-0.094482,1.012939,-0.237061
1519491190510,-0.045410,0.957520,-0.251709
1519491190516,-0.058594,0.836670,-0.322021
1519491190574,0.029053,0.912109,-0.401123
1519491190608,0.081543,1.017334,-0.513184
1519491190613,-0.062744,0.953369,-0.347412
1519491190670,-0.199219,0.933105,-0.342041
1519491190703,-0.207275,0.962646,-0.457764
1519491190735,-0.156494,1.071045,-0.397217
1519491190776,-0.088135,1.147705,-0.198730
1519491190784,0.090576,0.957764,-0.004639
1519491190812,-0.048584,0.995117,-0.091553
1519491190846,-0.106934,0.988770,-0.074463
1519491190904,-0.016113,0.934814,0.096924
1519491190936,-0.095215,0.991699,-0.043701
1519491190969,0.083496,0.983643,-0.196533
1519491191002,-0.267578,0.969727,-0.145264
1519491191034,-0.147705,0.984863,-0.178467
1519491191066,-0.138184,1.001709,-0.269531
1519491191099,-0.123291,0.991455,-0.272461
1519491191100,-0.120361,0.982666,-0.268799
1519491191159,-0.116455,0.968018,-0.234375
1519491191165,-0.125000,0.969727,-0.248291
1519491191198,-0.126709,0.966309,-0.272705
1519491191261,-0.125000,0.967285,-0.293213
1519491191263,-0.123779,0.954834,-0.273682
1519491191320,-0.117188,0.948730,-0.278076
1519491191353,-0.099854,0.965820,-0.342529
1519491191385,-0.103027,0.962402,-0.352051
1519491191393,-0.102783,0.958252,-0.356445
1519491191429,-0.099365,0.958496,-0.325439
1519491191462,-0.088135,0.945801,-0.300049
1519491191519,-0.085205,0.962402,-0.334961
1519491191552,-0.090332,0.964600,-0.334473
1519491191584,-0.095703,0.958252,-0.304443
1519491191585,-0.103271,0.963623,-0.291504
1519491191643,-0.124756,0.960205,-0.293213
1519491191684,-0.115479,0.962158,-0.262695
1519491191685,-0.123291,0.958984,-0.264160
1519491191742,-0.114014,0.972900,-0.294434
1519491191744,-0.106934,0.976318,-0.289063
1519491191801,-0.107178,0.971191,-0.258301
1519491191808,-0.118164,0.970703,-0.254395
1519491191865,-0.101074,0.978760,-0.246094
1519491191898,-0.092285,0.992676,-0.263428
1519491191930,-0.144287,0.979492,-0.226318
1519491191963,-0.113770,0.961670,-0.149170
1519491191995,-0.083008,1.061035,-0.169678
1519491192028,-0.152832,0.989990,-0.249756
1519491192056,-0.105469,0.983887,-0.177979
1519491192098,-0.120361,1.000000,-0.200439
1519491192130,-0.140137,1.021973,-0.237061
1519491192163,-0.125732,0.987305,-0.151367
1519491192164,-0.087891,0.963379,-0.017822
1519491192221,-0.113525,0.926758,-0.029297
1519491192254,-0.136963,0.998779,-0.173096
1519491192257,-0.140137,1.007813,-0.226318
1519491192315,-0.089355,0.977783,-0.174316
1519491192348,-0.115723,0.998535,-0.274658
1519491192380,-0.112061,1.000977,-0.300537
1519491192389,-0.128174,0.986084,-0.262695
1519491192446,-0.122070,0.969482,-0.204346
1519491192479,-0.120850,0.975342,-0.223389
1519491192493,-0.133789,0.996094,-0.262939
1519491192525,-0.136230,0.982910,-0.228271
1519491192583,-0.122070,0.974121,-0.183838
1519491192588,-0.121338,0.983643,-0.210693
1519491192645,-0.127197,0.986816,-0.226318
1519491192678,-0.131348,0.994385,-0.221680
1519491192710,-0.132568,1.011475,-0.252686
1519491192712,-0.125244,1.018066,-0.242432
1519491192744,-0.111572,1.012451,-0.164795
1519491192776,-0.060059,0.971924,-0.011963
1519491192809,-0.050781,1.035889,-0.083496
1519491192842,-0.096680,1.091553,-0.130615
1519491192874,-0.023926,0.909180,0.185059
1519491192907,-0.040771,1.009766,0.098633
1519491192964,-0.117432,1.081055,-0.037354
1519491192997,-0.090332,0.948975,0.184814
1519491193004,-0.028809,0.921387,0.288330
1519491193060,-0.079102,0.998535,0.136963
1519491193093,-0.102783,1.031250,0.053223
1519491193125,-0.123291,1.030273,0.042236
1519491193127,-0.104736,0.997803,0.069092
1519491193184,-0.109131,1.016602,0.025635
1519491193217,-0.099365,1.010254,0.040771
1519491193220,-0.113770,1.035889,-0.010498
1519491193278,-0.094971,1.014893,0.018555
1519491193310,-0.081055,1.027344,0.011475
1519491193337,-0.073975,1.037109,0.038330
1519491193372,-0.072754,1.034912,0.043457
1519491193404,-0.135498,0.991455,0.072021
1519491193436,-0.102051,1.020996,0.079590
1519491193469,-0.074707,0.964111,0.168457
1519491193502,-0.096436,1.011475,0.099365
1519491193534,-0.101807,0.993652,0.084473
1519491193566,-0.113525,1.020996,0.031982
1519491193599,-0.114746,0.986084,0.040527
1519491193631,0.000977,1.072510,-0.020752
1519491193664,-0.170410,1.025635,-0.080811
1519491193696,-0.132568,1.008057,-0.052979
1519491193704,-0.125244,0.971680,-0.034424
1519491193769,-0.141846,1.014404,-0.139404
1519491193773,-0.135010,1.027344,-0.180176
1519491193805,-0.148682,0.994385,-0.142090
1519491193863,-0.135010,0.987549,-0.116699
1519491193869,-0.135498,1.004150,-0.168457
1519491193926,-0.133789,1.001953,-0.163086
1519491193959,-0.132324,0.993164,-0.137451
1519491193992,-0.144775,0.999023,-0.170654
1519491194024,-0.138672,0.993896,-0.156982
1519491194056,-0.132813,0.989990,-0.139648
1519491194089,-0.134033,0.996094,-0.161377
1519491194121,-0.141846,1.035156,-0.177490
1519491194135,-0.131104,0.998535,-0.163330
1519491194193,-0.136230,0.993408,-0.158447
1519491194212,-0.140625,0.993408,-0.162109
1519491194244,-0.131348,0.986816,-0.154297
1519491194276,-0.136963,0.997803,-0.168457
1519491194284,-0.136719,0.992920,-0.163818
1519491194345,-0.134277,0.993652,-0.167480
1519491194353,-0.134766,0.995361,-0.164063
1519491194382,-0.135010,0.989502,-0.159180
1519491194439,-0.138672,0.993896,-0.168945
1519491194472,-0.134521,0.992432,-0.165771
1519491194504,-0.132568,0.988525,-0.153076
1519491194537,-0.139648,0.992920,-0.173340
1519491194550,-0.132568,0.995605,-0.166504
1519491194583,-0.128174,0.990967,-0.167480
1519491194617,-0.135010,0.994629,-0.167969
1519491194649,-0.129639,0.992920,-0.163330
1519491194707,-0.128418,0.994629,-0.161621
1519491194739,-0.130859,0.990967,-0.159424
1519491194771,-0.124268,0.989502,-0.160156
1519491194773,-0.126953,0.994873,-0.164063
1519491194830,-0.129639,0.991699,-0.165283
1519491194903,-0.130371,0.996338,-0.158447
1519491194904,-0.129150,0.989502,-0.161133
1519491194970,-0.132568,0.998779,-0.171387
1519491195039,-0.131836,0.989990,-0.157227
1519491195105,-0.128418,0.993164,-0.165771
1519491195107,-0.129639,0.996094,-0.162842
1519491195173,-0.126221,0.992432,-0.162842
1519491195174,-0.131836,0.991699,-0.166992
1519491195240,-0.132080,0.996094,-0.162598
1519491195241,-0.122803,0.991455,-0.156738
1519491195308,-0.128418,0.991699,-0.163818
1519491195309,-0.132324,0.994873,-0.163574
1519491195375,-0.128906,0.993164,-0.162109
1519491195376,-0.129639,0.990479,-0.165283
1519491195388,-0.127197,0.990479,-0.159668
1519491195389,-0.132080,0.993164,-0.160156
1519491195403,-0.130615,0.993652,-0.167725
1519491195404,-0.128418,0.991455,-0.164307
1519491195436,-0.126709,0.989258,-0.160156
1519491195469,-0.128418,0.994141,-0.169189
1519491195502,-0.129150,0.991699,-0.161621
1519491195534,-0.131348,0.992920,-0.163574
1519491195567,-0.127197,0.992676,-0.161621
1519491195599,-0.124756,0.992920,-0.161865
1519491195632,-0.124268,0.989746,-0.166992
1519491195664,-0.134766,0.997559,-0.166504
1519491195697,-0.128906,0.988770,-0.156250
1519491195729,-0.121338,0.994385,-0.169678
1519491195762,-0.128418,0.995117,-0.162842
1519491195794,-0.130615,0.988525,-0.151855
1519491195809,-0.125977,0.994141,-0.166748
1519491195867,-0.130371,0.999268,-0.172363
1519491195896,-0.127197,0.989502,-0.157959
1519491195929,-0.127686,0.994873,-0.165039
1519491195930,-0.125977,0.993164,-0.161377
1519491195988,-0.129150,0.993164,-0.159912
1519491196020,-0.130127,0.998047,-0.167725
1519491196026,-0.126465,0.991699,-0.155762
1519491196084,-0.127197,0.992676,-0.163818
1519491196116,-0.129150,1.000488,-0.162598
1519491196149,-0.136963,0.994629,-0.159424
1519491196182,-0.116699,0.993652,-0.163330
1519491196214,-0.133545,0.998047,-0.166016
1519491196227,-0.133301,0.990967,-0.158936
1519491196262,-0.126953,0.990234,-0.163574
1519491196294,-0.127197,0.996094,-0.164795
1519491196352,-0.124756,0.994385,-0.159912
1519491196384,-0.124512,0.988525,-0.162598
1519491196390,-0.128418,0.999023,-0.156006
1519491196448,-0.129639,0.992676,-0.158447
1519491196480,-0.128662,0.996338,-0.159912
1519491196513,-0.128662,0.988770,-0.156982
1519491196514,-0.126709,0.994385,-0.165039
1519491196572,-0.124512,0.993164,-0.155518
1519491196604,-0.130859,0.990479,-0.155762
1519491196605,-0.132568,0.995605,-0.163330
1519491196663,-0.128906,0.993408,-0.158936
1519491196695,-0.125244,0.996338,-0.160645
1519491196728,-0.128662,0.996094,-0.161377
1519491196760,-0.125732,0.990479,-0.159912
1519491196793,-0.123535,0.989990,-0.161377
1519491196825,-0.124756,0.995117,-0.162354
1519491196858,-0.127197,0.991699,-0.155029
1519491196890,-0.126953,0.996826,-0.159424
1519491196923,-0.125488,0.992920,-0.161621
1519491196955,-0.125732,0.993896,-0.162842
1519491196988,-0.126221,0.990967,-0.156982
1519491197020,-0.127930,0.994873,-0.157959
1519491197053,-0.128906,0.993164,-0.158936
1519491197085,-0.128418,0.994873,-0.158447
1519491197090,-0.125488,0.991943,-0.161133
1519491197148,-0.127441,0.994385,-0.159424
1519491197177,-0.125977,0.993408,-0.158936
1519491197209,-0.126465,0.995605,-0.160889
1519491197244,-0.129639,0.992676,-0.158447
1519491197276,-0.126953,0.993408,-0.161621
1519491197309,-0.124023,0.992432,-0.159912
1519491197342,-0.127930,0.993164,-0.164063
1519491197374,-0.127441,0.998047,-0.164307
1519491197406,-0.125732,0.994385,-0.159668
1519491197439,-0.123535,0.990723,-0.163330
1519491197454,-0.127930,0.999756,-0.162354
1519491197512,-0.128174,0.996338,-0.160889
1519491197544,-0.124023,0.993896,-0.161133
1519491197577,-0.131836,0.991455,-0.158203
1519491197609,-0.127441,0.995850,-0.157959
1519491197642,-0.123779,0.994141,-0.164795
1519491197674,-0.125732,0.991943,-0.160889
1519491197675,-0.127930,0.990479,-0.161865
1519491197733,-0.123779,0.994873,-0.161621
1519491197739,-0.125488,0.993408,-0.164551
1519491197771,-0.125244,0.995117,-0.163574
1519491197829,-0.127686,0.993164,-0.161133
1519491197843,-0.127441,0.992676,-0.160889
1519491197875,-0.129883,0.995361,-0.164307
1519491197908,-0.120361,0.993652,-0.158203
1519491197940,-0.128418,0.996826,-0.164795
1519491197973,-0.130615,0.993896,-0.158203
1519491198005,-0.122070,0.994385,-0.160889
1519491198038,-0.121826,0.993652,-0.161621
1519491198070,-0.122070,0.995605,-0.162598
1519491198117,-0.127686,0.993164,-0.162842
1519491198149,-0.126953,0.995361,-0.156738
1519491198155,-0.124023,0.994873,-0.163086
1519491198215,-0.125977,0.993164,-0.162109
1519491198248,-0.125488,0.992676,-0.153809
1519491198261,-0.121826,0.993164,-0.161377
1519491198294,-0.130371,0.996094,-0.161133
1519491198327,-0.128174,0.992920,-0.156250
1519491198359,-0.114746,0.987549,-0.163818
1519491198392,-0.132324,1.005615,-0.169678
1519491198424,-0.131104,0.989746,-0.153809
1519491198457,-0.125977,0.993164,-0.165771
1519491198489,-0.120605,0.995117,-0.163330
1519491198522,-0.125488,0.993164,-0.160889
1519491198554,-0.127197,0.990967,-0.160400
1519491198587,-0.127441,0.996094,-0.166992
1519491198619,-0.124512,0.992920,-0.162354
1519491198652,-0.125000,0.993652,-0.163574
1519491198693,-0.125244,0.991455,-0.158936
1519491198725,-0.125732,0.993652,-0.166992
1519491198758,-0.125977,0.992920,-0.158691
1519491198790,-0.127686,0.991455,-0.164063
1519491198798,-0.126221,0.994141,-0.165527
1519491198854,-0.123291,0.993896,-0.158447
1519491198887,-0.125244,0.992188,-0.161377
1519491198919,-0.125977,0.994385,-0.163574
1519491198952,-0.123779,0.995117,-0.163086
1519491198984,-0.126465,0.992676,-0.161621
1519491199017,-0.126953,0.993164,-0.164551
1519491199049,-0.126465,0.992432,-0.161621
1519491199082,-0.124512,0.992676,-0.162842
1519491199114,-0.123535,0.991455,-0.165039
1519491199146,-0.124512,0.994385,-0.161377
1519491199182,-0.126709,0.993896,-0.163330
1519491199214,-0.125488,0.995117,-0.164063
1519491199215,-0.127441,0.991211,-0.164551
1519491199273,-0.127686,0.994873,-0.165527
1519491199305,-0.126709,0.992676,-0.161377
1519491199338,-0.126953,0.993652,-0.164307
1519491199370,-0.126221,0.990967,-0.163330
1519491199403,-0.126221,0.993408,-0.164307
1519491199435,-0.128174,0.991943,-0.163086
1519491199468,-0.127686,0.991699,-0.160889
1519491199482,-0.124756,0.993164,-0.165527
1519491199539,-0.125000,0.993408,-0.166504
1519491199571,-0.126465,0.993652,-0.162842
1519491199578,-0.127930,0.993652,-0.164063
1519491199632,-0.124512,0.990967,-0.165283
1519491199685,-0.123291,0.993896,-0.162109
1519491199686,-0.127197,0.993896,-0.165527
1519491199719,-0.127686,0.992920,-0.164063
1519491199748,-0.125977,0.991211,-0.160400
1519491199801,-0.130615,0.990479,-0.165771
1519491199803,-0.125000,0.993164,-0.164063
1519491199875,-0.122070,0.984863,-0.156006
1519491199876,-0.131592,0.988770,-0.172607
1519491199988,-0.132813,0.989258,-0.180176
1519491200070,-0.130127,0.995850,-0.189697
1519491200071,-0.126709,0.990967,-0.184082
1519491200138,-0.130371,0.989502,-0.183594
1519491200139,-0.123047,0.989502,-0.178467
1519491200235,-0.127441,0.993408,-0.183350
1519491200236,-0.129639,0.990967,-0.181641
1519491200305,-0.130615,0.991943,-0.182373
1519491200306,-0.122803,0.987793,-0.180664
1519491200400,-0.123047,0.990234,-0.184814
1519491200402,-0.126953,0.988770,-0.179688
1519491200468,-0.129883,0.984619,-0.177979
1519491200469,-0.128906,0.989990,-0.192383
1519491200502,-0.121582,0.988037,-0.198242
1519491200503,-0.124268,0.990234,-0.204834
1519491200504,-0.127197,0.989258,-0.212402
1519491200505,-0.122314,0.986572,-0.198486
1519491200506,-0.121582,0.990479,-0.209473
1519491200507,-0.122559,0.986084,-0.199707
1519491200554,-0.127441,0.984375,-0.200439
1519491200555,-0.123291,0.987793,-0.201416
1519491200609,-0.122070,0.985352,-0.202393
1519491200610,-0.125977,0.984619,-0.205566
1519491200648,-0.125488,0.988037,-0.203857
1519491200680,-0.125977,0.984619,-0.200684
1519491200721,-0.120850,0.986816,-0.199951
1519491200754,-0.125000,0.986816,-0.207764
1519491200786,-0.125488,0.985840,-0.203369
1519491200819,-0.122070,0.986816,-0.191406
1519491200852,-0.125000,0.988037,-0.203613
1519491200860,-0.123047,0.991455,-0.205322
1519491200915,-0.119385,0.985596,-0.191162
1519491200948,-0.118896,0.984375,-0.195068
1519491200956,-0.121582,0.991699,-0.202148
1519491201017,-0.120605,0.989014,-0.191406
1519491201024,-0.119141,0.982910,-0.173584
1519491201080,-0.118896,0.991699,-0.188965
1519491201094,-0.121582,0.991211,-0.189941
1519491201127,-0.115723,0.990479,-0.176514
1519491201159,-0.111572,0.986816,-0.168945
1519491201192,-0.118896,0.991699,-0.184814
1519491201224,-0.111572,0.987061,-0.169434
1519491201256,-0.118652,0.992188,-0.185059
1519491201314,-0.114990,0.988525,-0.180908
1519491201347,-0.118164,0.988525,-0.176270
1519491201348,-0.119141,0.987061,-0.180420
1519491201405,-0.119629,0.989258,-0.191650
1519491201438,-0.118896,0.988770,-0.191162
1519491201439,-0.114746,0.990234,-0.183594
1519491201497,-0.124268,0.989746,-0.188477
1519491201510,-0.120850,0.992432,-0.198730
1519491201543,-0.116699,0.988037,-0.187012
1519491201600,-0.121582,0.988037,-0.189941
1519491201604,-0.124512,0.989746,-0.199707
1519491201662,-0.122803,0.990479,-0.196777
1519491201694,-0.118164,0.987793,-0.193848
1519491201726,-0.118652,0.988281,-0.188965
1519491201759,-0.118652,0.989746,-0.194580
1519491201792,-0.119629,0.986328,-0.190674
1519491201824,-0.119873,0.987549,-0.190430
1519491201857,-0.120850,0.988770,-0.192383
1519491201889,-0.119629,0.987549,-0.191650
1519491201922,-0.117676,0.985840,-0.192383
1519491201923,-0.121582,0.991455,-0.197998
1519491201980,-0.117676,0.988037,-0.189697
1519491202013,-0.120605,0.990967,-0.194092
1519491202019,-0.117920,0.984863,-0.189209
1519491202079,-0.115479,0.990723,-0.193359
1519491202088,-0.124023,0.989502,-0.194336
1519491202145,-0.121338,0.989746,-0.193115
1519491202178,-0.119873,0.988770,-0.188965
1519491202186,-0.116455,0.987549,-0.189697
1519491202241,-0.124023,0.993652,-0.194824
1519491202296,-0.121582,0.988525,-0.188477
1519491202298,-0.119385,0.991455,-0.192383
1519491202330,-0.116211,0.990234,-0.185303
1519491202363,-0.126221,1.011475,-0.210205
1519491202395,-0.125000,1.002930,-0.181885
1519491202428,-0.108398,0.987549,-0.129395
1519491202460,-0.110107,0.992432,-0.105225
1519491202493,-0.110596,0.992676,-0.093506
1519491202525,-0.113281,0.992188,-0.087402
1519491202558,-0.115967,1.005615,-0.121582
1519491202590,-0.101807,1.011475,-0.124023
1519491202623,-0.112305,1.001221,-0.116943
1519491202655,-0.113525,1.000488,-0.134521
1519491202688,-0.111084,1.009033,-0.131836
1519491202720,-0.110596,1.009521,-0.121826
1519491202753,-0.115479,1.011230,-0.099854
1519491202785,-0.092041,0.986572,-0.112305
1519491202818,-0.098389,1.010254,-0.117920
1519491202850,-0.125732,1.008057,-0.118408
1519491202883,-0.125244,1.012451,-0.117676
1519491202915,-0.106445,1.007324,-0.116699
1519491202948,-0.110352,1.012207,-0.098145
1519491202964,-0.115234,1.015625,-0.089844
1519491203022,-0.125977,1.010498,-0.101318
1519491203057,-0.083496,1.020508,-0.070313
1519491203089,-0.077148,1.013428,-0.036621
1519491203090,-0.074951,0.996826,0.004150
1519491203148,-0.091553,0.966797,0.046387
1519491203180,-0.104736,0.996094,-0.002930
1519491203181,-0.111816,1.033203,-0.083252
1519491203239,-0.114502,1.023193,-0.082031
1519491203272,-0.101563,1.021729,-0.063477
1519491203304,-0.105957,0.988037,-0.042480
1519491203337,-0.116455,0.995605,-0.047607
1519491203369,-0.127930,1.010498,-0.100586
1519491203402,-0.127197,1.012207,-0.121826
1519491203434,-0.116943,1.009033,-0.102051
1519491203467,-0.124512,1.009521,-0.110352
1519491203499,-0.123779,1.006348,-0.108154
1519491203532,-0.120850,0.997559,-0.093262
1519491203577,-0.123535,1.001221,-0.096436
1519491203578,-0.129639,1.006836,-0.113525
1519491203635,-0.113770,1.005127,-0.100586
1519491203668,-0.120605,1.003662,-0.103516
1519491203669,-0.125732,1.002441,-0.105957
1519491203726,-0.125244,0.998047,-0.095459
1519491203733,-0.127197,1.001465,-0.103027
1519491203765,-0.123779,1.002930,-0.097168
1519491203823,-0.125977,1.004395,-0.110352
1519491203831,-0.128662,1.005127,-0.106934
1519491203887,-0.125000,1.000000,-0.095703
1519491203919,-0.123535,1.003174,-0.093506
1519491203952,-0.126709,1.005615,-0.100342
1519491203984,-0.129883,1.003662,-0.104736
1519491204019,-0.127441,1.007324,-0.104248
1519491204052,-0.131836,1.006348,-0.109131
1519491204084,-0.121338,1.001953,-0.081299
1519491204117,-0.118164,1.009033,-0.091553
1519491204149,-0.125244,1.011230,-0.101318
1519491204182,-0.138184,1.007813,-0.087646
1519491204214,-0.119629,0.990723,-0.059326
1519491204246,-0.128418,0.999268,-0.082031
1519491204247,-0.135742,1.006104,-0.090088
1519491204280,-0.119873,1.011719,-0.095215
1519491204313,-0.118164,1.012695,-0.103516
1519491204345,-0.119629,1.011963,-0.105957
1519491204378,-0.120605,1.000488,-0.092285
1519491204410,-0.121826,1.014648,-0.097656
1519491204468,-0.119141,1.002441,-0.092041
1519491204500,-0.124512,1.003662,-0.100098
1519491204533,-0.128174,1.004639,-0.094482
1519491204565,-0.122314,1.001465,-0.099609
1519491204598,-0.125488,1.006836,-0.097412
1519491204630,-0.125977,1.007080,-0.094238
1519491204663,-0.121582,0.997803,-0.093018
1519491204695,-0.128906,1.006348,-0.099854
1519491204728,-0.130615,1.011230,-0.099121
1519491204729,-0.122803,1.007813,-0.100098
1519491204786,-0.131348,1.007813,-0.097656
1519491204792,-0.123535,1.008057,-0.089600
1519491204892,-0.120605,0.996338,-0.075439
1519491204893,-0.123291,1.004883,-0.084229
1519491204959,-0.125488,1.012207,-0.101074
1519491204960,-0.120605,1.012207,-0.104004
1519491205027,-0.121582,1.002441,-0.086670
1519491205028,-0.125000,1.005615,-0.091553
1519491205094,-0.119873,1.004395,-0.088867
1519491205095,-0.117920,1.012207,-0.098877
1519491205162,-0.123047,1.020996,-0.113281
1519491205163,-0.122803,0.999023,-0.060791
1519491205229,-0.116699,0.989258,-0.028076
1519491205230,-0.126709,1.008789,-0.069336
1519491205296,-0.118652,0.996582,-0.051270
1519491205297,-0.115967,1.016357,-0.068604
1519491205364,-0.116943,1.017334,-0.082764
1519491205365,-0.116699,1.010986,-0.068359
1519491205400,-0.117920,1.025879,-0.080811
1519491205401,-0.117920,1.051514,-0.120850
1519491205408,-0.099854,1.035156,-0.069580
1519491205440,-0.105225,1.009521,0.032959
1519491205498,-0.110107,0.970703,0.122314
1519491205530,-0.115723,0.981201,0.134766
1519491205538,-0.089600,0.939697,0.198975
1519491205594,-0.088623,0.984375,0.131592
1519491205627,-0.111572,0.979248,0.055420
1519491205659,-0.108154,0.975830,-0.023682
1519491205692,-0.128906,0.985352,-0.125244
1519491205693,-0.129150,1.016113,-0.278320
1519491205750,-0.143066,1.022705,-0.383301
1519491205783,-0.173828,0.989502,-0.351074
1519491205788,-0.124268,0.965820,-0.260986
1519491205845,-0.125732,0.967773,-0.257324
1519491205878,-0.129639,0.968750,-0.271729
1519491205910,-0.122070,0.966553,-0.267578
1519491205945,-0.120605,0.964844,-0.270508
1519491205953,-0.126465,0.966309,-0.283447
1519491206009,-0.125244,0.966797,-0.291504
1519491206042,-0.123779,0.965088,-0.292480
1519491206074,-0.119385,0.956787,-0.285156
1519491206107,-0.114502,0.957520,-0.273438
1519491206136,-0.128418,0.967285,-0.335449
1519491206169,-0.125000,0.963867,-0.331787
1519491206202,-0.128906,0.954102,-0.295654
1519491206234,-0.128174,0.959473,-0.300293
1519491206266,-0.131104,0.958496,-0.298584
1519491206272,-0.127441,0.956787,-0.291748
1519491206329,-0.123779,0.965088,-0.301025
1519491206362,-0.126953,0.965088,-0.299805
1519491206368,-0.129883,0.965576,-0.287842
1519491206425,-0.121094,0.956055,-0.249268
1519491206458,-0.123047,0.963867,-0.267334
1519491206490,-0.129639,0.971924,-0.284912
1519491206523,-0.124268,0.968506,-0.280273
1519491206555,-0.126953,0.972900,-0.282959
1519491206588,-0.121338,0.980225,-0.286133
1519491206620,-0.130371,0.983887,-0.288086
1519491206653,-0.120850,0.980225,-0.229980
1519491206685,-0.122070,0.986328,-0.206543
1519491206718,-0.118896,1.024902,-0.237549
1519491206750,-0.115723,1.058105,-0.245605
1519491206783,-0.123047,1.036865,-0.129639
1519491206815,-0.051270,1.043213,0.135254
1519491206848,-0.079102,0.922363,0.227051
1519491206852,-0.108398,0.893799,0.201660
1519491206912,-0.109619,0.959473,0.195068
1519491206944,-0.073242,0.945557,0.133301
1519491206949,-0.108643,1.041748,0.018066
1519491207007,-0.141357,1.000244,-0.020508
1519491207039,-0.137207,1.000488,-0.056152
1519491207072,-0.129639,1.027100,-0.115723
1519491207104,-0.122559,1.015869,-0.163086
1519491207137,-0.132324,1.016602,-0.190186
1519491207150,-0.126709,1.010742,-0.197266
1519491207183,-0.132568,1.002930,-0.185547
1519491207240,-0.121338,0.989258,-0.155273
1519491207273,-0.125732,0.992920,-0.166504
1519491207305,-0.123535,0.993652,-0.168701
1519491207338,-0.125000,0.992432,-0.173584
1519491207370,-0.124023,0.990479,-0.174561
1519491207417,-0.122803,0.994629,-0.185059
1519491207418,-0.124756,0.985107,-0.189697
1519491207450,-0.123779,0.993164,-0.177246
1519491207508,-0.115967,0.983398,-0.193604
1519491207509,-0.123779,0.989502,-0.197021
1519491207542,-0.119385,0.988037,-0.200439
1519491207583,-0.124023,0.990479,-0.221436
1519491207615,-0.121094,0.985840,-0.205322
1519491207648,-0.121338,0.986816,-0.198975
1519491207680,-0.119873,0.988037,-0.209229
1519491207713,-0.115723,0.980957,-0.189697
1519491207745,-0.120850,0.988525,-0.197998
1519491207778,-0.119141,0.987061,-0.206787
1519491207810,-0.120850,0.990723,-0.206787
1519491207843,-0.118408,0.986816,-0.190430
1519491207878,-0.114990,0.985596,-0.177979
1519491207910,-0.120117,0.989014,-0.194092
1519491207916,-0.119141,0.989258,-0.189453
1519491207974,-0.120361,0.989990,-0.192383
1519491208006,-0.118164,0.985840,-0.182861
1519491208013,-0.120605,0.991699,-0.190674
1519491208070,-0.124268,0.999023,-0.205811
1519491208103,-0.112061,0.988281,-0.182617
1519491208135,-0.083496,0.984619,-0.149170
1519491208168,-0.113037,0.997070,-0.198242
1519491208200,-0.117676,0.982910,-0.187988
1519491208233,-0.120361,0.979248,-0.191650
1519491208265,-0.116455,0.991699,-0.229980
1519491208298,-0.126221,0.988037,-0.242920
1519491208330,-0.096924,0.968262,-0.189453
1519491208363,-0.125000,0.986084,-0.271484
1519491208377,-0.125732,0.992432,-0.309326
1519491208434,-0.127686,0.985352,-0.282959
1519491208467,-0.125977,0.962891,-0.212891
1519491208499,-0.118896,0.971436,-0.221436
1519491208500,-0.124268,0.985107,-0.254883
1519491208558,-0.123535,0.976563,-0.226074
1519491208590,-0.127441,0.994141,-0.257080
1519491208592,-0.121338,0.981201,-0.213135
1519491208649,-0.111084,0.977539,-0.178955
1519491208697,-0.072998,0.973877,-0.142090
1519491208698,-0.107178,0.988281,-0.200195
1519491208755,-0.128418,1.021484,-0.318115
1519491208756,-0.117920,0.989014,-0.224609
1519491208814,-0.114990,0.979004,-0.165771
1519491208849,-0.110840,0.966797,-0.145264
1519491208882,-0.117920,0.988770,-0.190430
1519491208914,-0.130371,1.000000,-0.227783
1519491208947,-0.138672,1.014648,-0.247314
1519491208979,-0.122559,0.998291,-0.186279
1519491209012,-0.102783,0.984375,-0.134277
1519491209044,-0.119629,1.004639,-0.156250
1519491209077,-0.078369,0.966309,-0.027344
1519491209078,-0.147217,0.939209,-0.034180
1519491209135,-0.138428,1.043701,-0.244629
1519491209168,-0.135986,1.010254,-0.187012
1519491209182,-0.090332,0.961426,-0.050293
1519491209239,-0.091797,0.991211,-0.127930
1519491209240,-0.119873,0.987305,-0.194336
1519491209298,-0.111328,0.992188,-0.212646
1519491209330,-0.111572,0.992920,-0.268799
1519491209339,-0.097168,1.009766,-0.286865
1519491209396,-0.108154,1.008789,-0.299072
1519491209429,-0.096436,1.021729,-0.286377
1519491209462,-0.090332,1.046387,-0.274414
1519491209495,-0.098389,1.044434,-0.165283
1519491209528,-0.082520,0.975098,0.109375
1519491209560,-0.044189,0.916748,0.136230
1519491209593,-0.123291,0.965576,0.092529
1519491209606,-0.122559,0.966064,0.152100
1519491209664,-0.213379,0.966064,0.143311
1519491209665,-0.174561,1.025391,0.156982
1519491209723,-0.072021,1.077148,0.096436
1519491209755,0.163330,1.034180,0.036865
1519491209756,0.085938,0.966309,0.081299
1519491209817,-0.120850,1.026855,0.151367
1519491209823,-0.204834,1.165771,0.198486
1519491209895,-0.175293,1.006836,0.277588
1519491209896,-0.261963,0.907715,0.310303
1519491209963,-0.389648,0.953125,0.396973
1519491209964,-0.289307,0.882813,0.600586
1519491210030,-0.065674,0.526611,0.753662
1519491210099,-0.114014,0.689697,0.761963
1519491210165,-0.071045,0.558105,0.705811
1519491210166,-0.131592,0.709229,0.656982
1519491210233,-0.031250,0.770020,0.629639
1519491210234,-0.033936,0.808350,0.608887
1519491210300,-0.021729,0.854492,0.559814
1519491210302,-0.024902,0.804688,0.581787
1519491210368,0.008301,0.829346,0.608398
1519491210369,-0.043213,0.919678,0.478516
1519491210415,-0.006104,0.910889,0.522949
1519491210416,-0.058105,0.999268,0.489746
1519491210418,-0.051025,0.822998,0.536133
1519491210419,-0.064941,0.863770,0.561523
1519491210452,-0.048828,0.809570,0.608887
1519491210493,-0.067871,0.890381,0.541992
1519491210525,-0.065186,0.869629,0.557861
1519491210558,-0.136475,0.906494,0.503418
1519491210590,-0.162598,0.884766,0.554199
1519491210623,-0.128662,0.805420,0.587891
1519491210655,-0.108398,0.747314,0.633301
1519491210688,-0.050781,0.786621,0.627441
1519491210720,-0.092041,0.840088,0.644287
1519491210753,-0.121338,0.797852,0.673828
1519491210788,-0.121826,0.772705,0.634521
1519491210820,-0.135498,0.738770,0.643311
1519491210821,-0.176270,0.750488,0.626709
1519491210860,-0.247314,0.795410,0.605957
1519491210893,-0.157227,0.813477,0.631348
1519491210925,-0.099854,0.856445,0.621826
1519491210958,-0.044922,0.866211,0.610596
1519491210991,-0.093506,0.781982,0.686035
1519491211023,-0.067627,0.820557,0.635986
1519491211055,-0.249756,0.769775,0.700439
1519491211088,-0.377441,0.701904,0.627930
1519491211120,-0.344238,0.363525,0.651855
1519491211153,-0.249512,0.583008,0.744629
1519491211185,-0.239014,0.694092,0.710938
1519491211218,-0.254395,0.758789,0.699951
1519491211262,-0.292236,0.681641,0.719238
1519491211270,-0.327637,0.680908,0.691162
1519491211327,-0.399414,0.845459,0.808594
1519491211367,-0.266602,0.742676,0.759277
1519491211368,-0.266357,0.696533,0.852783
1519491211400,-0.224121,0.601563,0.715332
1519491211458,-0.211426,0.578613,0.611816
1519491211490,-0.244873,0.472168,0.641846
1519491211523,-0.291748,0.742188,0.785645
1519491211531,-0.321045,0.581543,0.739258
1519491211587,-0.390625,0.579102,0.654785
1519491211619,-0.342773,0.644287,0.665771
1519491211652,-0.066162,1.019531,0.805176
1519491211667,0.148682,0.638916,0.872070
1519491211724,-0.011230,0.547852,0.703369
1519491211730,0.031982,0.605225,0.813721
1519491211788,0.019287,0.638916,0.770020
1519491211789,0.124023,0.651611,0.750732
1519491211847,0.122314,0.698975,0.705322
1519491211848,-0.050049,0.756592,0.634766
1519491211905,0.000000,0.871338,0.704346
1519491211938,-0.003906,0.699707,0.644287
1519491211970,0.113525,0.879883,0.684814
1519491212003,0.110352,0.712891,0.710693
1519491212035,0.148193,0.751709,0.677734
1519491212068,0.143555,0.803955,0.624756
1519491212082,0.170166,0.820557,0.674561
1519491212114,0.111572,0.618164,0.761230
1519491212146,0.209961,0.626465,0.819824
1519491212179,0.240723,0.750732,0.689697
1519491212236,0.029053,0.661621,0.702393
1519491212269,-0.166504,0.775391,0.678711
1519491212270,-0.161865,0.696045,0.673584
1519491212328,-0.157471,1.217529,0.575684
1519491212360,-0.050293,0.585693,0.541748
1519491212362,-0.154053,0.901367,0.451904
1519491212419,-0.138428,0.684570,0.186523
1519491212452,-0.105713,0.994385,0.271240
1519491212484,-0.076416,0.893555,0.194580
1519491212498,-0.150146,1.228516,-0.140381
1519491212537,0.019287,1.007080,-0.057861
1519491212569,0.050537,1.164551,-0.256104
1519491212602,-0.144043,1.030762,-0.348633
1519491212634,-0.156494,0.902588,-0.444824
1519491212667,-0.247070,0.806641,-0.085693
1519491212702,0.040283,0.983398,-0.190674
1519491212734,-0.076172,0.993408,-0.369873
1519491212767,-0.029053,0.980469,-0.559082
1519491212799,-0.071045,0.909424,-0.283447
1519491212832,-0.115723,1.024658,-0.176758
1519491212864,-0.145996,1.113037,-0.312744
1519491212897,-0.010742,0.851318,-0.413574
1519491212929,-0.062500,0.808105,-0.425049
1519491212962,-0.116455,0.985840,-0.421143
1519491212994,-0.069580,0.865234,-0.447021
1519491213027,-0.156738,0.802734,-0.459229
1519491213059,-0.065186,0.683350,-0.654053
1519491213092,-0.072021,0.702148,-0.696533
1519491213124,-0.019775,0.511230,-0.757568
1519491213157,-0.122314,0.630859,-0.873535
1519491213189,-0.086914,0.572021,-0.911377
1519491213221,-0.038330,0.512939,-0.801025
1519491213254,-0.003906,0.629883,-0.556396
1519491213286,-0.204834,0.733643,-1.100342
1519491213328,-0.011719,0.580566,-0.757813
1519491213340,-0.008301,0.546387,-0.817871
1519491213398,-0.046387,0.571533,-0.934570
1519491213430,-0.028564,0.559326,-0.878906
1519491213432,-0.063965,0.612793,-0.866211
1519491213489,-0.036133,0.695801,-0.691406
1519491213494,-0.018066,0.732910,-0.642334
1519491213527,-0.002686,0.812500,-0.773682
1519491213584,-0.007813,0.848633,-0.558594
1519491213592,0.104248,0.888916,-0.347168
1519491213648,0.063965,0.905029,-0.289551
1519491213683,0.093994,0.938477,-0.170898
1519491213715,0.043213,1.031738,-0.013428
1519491213729,-0.021729,0.954590,-0.060303
1519491213762,-0.010986,0.998535,-0.160645
1519491213817,0.008057,0.972412,-0.041992
1519491213824,-0.001953,0.965088,-0.107178
1519491213880,-0.026611,0.989990,-0.197266
1519491213913,-0.053223,0.753174,-0.182373
1519491213945,-0.031982,1.052002,-0.274902
1519491213978,-0.109619,0.982422,-0.275635
1519491214010,-0.069336,0.948975,-0.445557
1519491214012,-0.133545,0.814941,-0.628906
1519491214069,-0.126221,0.921631,-0.623535
1519491214075,-0.122559,0.919678,-0.485107
1519491214108,-0.085449,0.981201,-0.460693
1519491214174,-0.099854,0.781250,-0.433350
1519491214175,-0.128662,0.588867,-0.514160
1519491214208,-0.128662,0.861572,-0.522949
1519491214240,-0.079102,1.302246,-0.430420
1519491214298,-0.104004,0.760254,-0.375732
1519491214303,-0.052490,1.105713,-0.294922
1519491214360,0.061768,1.046387,-0.132568
1519491214393,-0.180908,1.116211,0.068604
1519491214425,-0.047852,1.018555,0.213135
1519491214458,-0.105713,1.062988,0.137451
1519491214490,-0.072266,1.070557,0.213379
1519491214492,-0.068604,0.990234,0.169922
1519491214555,-0.138428,0.914795,0.101563
1519491214588,-0.071045,1.092041,0.311523
1519491214589,-0.136963,1.015625,0.259766
1519491214649,-0.123047,0.947754,0.183350
1519491214655,-0.113281,0.947754,0.106689
1519491214713,-0.175049,1.009033,0.156006
1519491214745,-0.072998,1.019775,0.303223
1519491214753,-0.088379,1.062500,0.399658
1519491214809,-0.137207,0.981445,0.366211
1519491214842,-0.124512,0.941406,0.368408
1519491214914,-0.117188,0.904053,0.435547
1519491214916,-0.147705,0.738770,0.596680
1519491214982,-0.211182,0.780273,0.474854
1519491214983,-0.175049,0.670410,0.415283
1519491215049,-0.179688,0.858154,0.256348
1519491215050,-0.190674,1.139648,0.131592
1519491215117,-0.100586,1.096191,0.061523
1519491215118,-0.101563,1.090576,0.215576
1519491215184,-0.092773,0.977051,0.224365
1519491215185,-0.130371,1.052734,0.084717
1519491215252,-0.106689,1.042236,0.102295
1519491215253,-0.147949,0.943359,0.064697
1519491215319,-0.139648,1.016846,-0.032715
1519491215320,-0.139893,1.028320,-0.105469
1519491215387,-0.116455,1.032471,-0.086914
1519491215388,-0.115479,1.020508,-0.080322
1519491215406,-0.139893,1.029297,-0.087646
1519491215408,-0.124023,1.064209,-0.064697
1519491215440,-0.129150,0.965820,-0.065674
1519491215473,-0.158691,0.906006,-0.060791
1519491215505,-0.131592,1.020996,-0.093018
1519491215538,-0.119385,1.016357,-0.135254
1519491215570,-0.124023,1.024902,-0.164063
1519491215605,-0.121094,1.023193,-0.195557
1519491215638,-0.162354,0.957275,-0.222168
1519491215670,-0.149658,0.938721,-0.209229
1519491215703,-0.117432,1.054443,-0.223389
1519491215742,-0.105713,0.982666,-0.239502
1519491215748,-0.131348,0.955566,-0.197510
1519491215805,-0.124756,0.995605,-0.201660
1519491215838,-0.135986,1.020020,-0.224365
1519491215870,-0.126465,0.953125,-0.226563
1519491215903,-0.124756,0.966064,-0.195068
1519491215935,-0.145264,0.982910,-0.193848
1519491215968,-0.133057,0.984131,-0.187988
1519491216000,-0.123047,0.996094,-0.195068
1519491216033,-0.127930,0.963379,-0.186768
1519491216065,-0.140625,1.011963,-0.183594
1519491216098,-0.127930,1.002197,-0.215820
1519491216130,-0.131592,0.970947,-0.205566
1519491216147,-0.124756,1.000977,-0.191162
1519491216203,-0.140381,0.975586,-0.201172
1519491216235,-0.126953,0.951904,-0.195313
1519491216236,-0.130615,0.982910,-0.206055
1519491216294,-0.133545,1.017822,-0.208252
1519491216327,-0.129639,0.995361,-0.207764
1519491216328,-0.119629,0.969482,-0.213379
1519491216402,-0.139648,0.977295,-0.200684
1519491216403,-0.129150,0.974854,-0.197021
1519491216435,-0.125732,0.980225,-0.194824
1519491216468,-0.123535,0.998291,-0.199951
1519491216500,-0.130127,1.005127,-0.195557
1519491216533,-0.120850,0.987549,-0.184326
1519491216578,-0.124268,1.018311,-0.169189
1519491216610,-0.138916,1.039551,-0.158691
1519491216643,-0.144287,1.027100,-0.153564
1519491216675,-0.127441,1.002441,-0.143066
1519491216708,-0.158691,0.909424,-0.171631
1519491216740,-0.149658,0.929443,-0.172607
1519491216773,-0.150635,0.960693,-0.142090
1519491216805,-0.133301,0.951660,-0.131348
1519491216813,-0.139893,1.027832,-0.078125
1519491216869,-0.121826,1.084717,-0.133789
1519491216902,-0.114258,0.985840,-0.144287
1519491216910,-0.097168,0.907959,-0.043457
1519491216947,-0.152344,1.135742,-0.143066
1519491216979,-0.111572,0.992432,-0.124268
1519491217012,-0.133545,0.958008,-0.152100
1519491217069,-0.164063,1.003418,-0.167969
1519491217102,-0.127441,0.953613,-0.126465
1519491217110,-0.125244,0.998535,-0.108154
1519491217165,-0.125977,1.029541,-0.128662
1519491217198,-0.120117,1.013672,-0.165527
1519491217230,-0.132324,1.028809,-0.150391
1519491217263,-0.123047,1.000977,-0.147705
1519491217295,-0.120117,0.973389,-0.136475
1519491217328,-0.164307,1.001465,-0.139160
1519491217342,-0.127197,0.975342,-0.088379
1519491217383,-0.129150,0.998047,-0.105469
1519491217415,-0.137695,1.007568,-0.132813
1519491217448,-0.128174,0.997559,-0.142578
1519491217480,-0.134521,0.996582,-0.143799
1519491217513,-0.147217,1.017578,-0.142090
1519491217548,-0.136230,0.981934,-0.167969
1519491217580,-0.134521,0.980469,-0.141113
1519491217613,-0.136475,1.018799,-0.130371
1519491217657,-0.146240,0.974365,-0.176025
1519491217660,-0.132324,0.979980,-0.160645
1519491217693,-0.137939,1.027588,-0.125977
1519491217725,-0.125244,1.045410,-0.154053
1519491217758,-0.129395,0.991699,-0.140381
1519491217815,-0.136475,0.938965,-0.110840
1519491217848,-0.145996,1.006836,-0.131348
1519491217849,-0.142090,0.996582,-0.174316
1519491217882,-0.137451,0.969238,-0.175537
1519491217939,-0.152832,0.998291,-0.183838
1519491217940,-0.145020,0.989014,-0.192871
1519491217998,-0.143799,0.971680,-0.209229
1519491218030,-0.137695,0.993164,-0.237305
1519491218063,-0.149658,0.986084,-0.234131
1519491218095,-0.125488,0.972900,-0.229736
1519491218128,-0.133301,1.000977,-0.217773
1519491218161,-0.148682,0.989014,-0.222412
1519491218174,-0.149170,0.977539,-0.238770
1519491218232,-0.117432,1.010010,-0.165771
1519491218264,-0.153320,1.013184,-0.163330
1519491218265,-0.147217,0.894043,-0.234131
1519491218323,-0.125488,0.979248,-0.193359
1519491218355,-0.147949,0.986328,-0.205322
1519491218357,-0.144531,0.984863,-0.190186
1519491218414,-0.142822,0.959717,-0.208496
1519491218447,-0.140137,1.015869,-0.196533
1519491218479,-0.135742,0.993408,-0.202148
1519491218514,-0.143066,1.015137,-0.236084
1519491218520,-0.140869,0.991211,-0.209961
1519491218578,-0.129150,0.935059,-0.182129
1519491218592,-0.150635,0.989746,-0.228760
1519491218624,-0.130615,1.025391,-0.218994
1519491218657,-0.141113,0.968506,-0.238525
1519491218689,-0.138672,0.960449,-0.218262
1519491218722,-0.141846,0.999512,-0.199951
1519491218754,-0.151123,0.976807,-0.243652
1519491218812,-0.132324,0.955811,-0.257813
1519491218844,-0.146973,1.012207,-0.241699
1519491218845,-0.147217,0.982178,-0.232422
1519491218903,-0.127197,0.969238,-0.240234
1519491218937,-0.139648,0.960938,-0.211182
1519491218938,-0.156738,0.971436,-0.227051
1519491218995,-0.130127,0.983643,-0.279297
1519491219028,-0.153809,0.971924,-0.281738
1519491219060,-0.145264,0.954834,-0.283447
1519491219093,-0.162109,0.985352,-0.213379
1519491219101,-0.139404,0.968506,-0.224854
1519491219157,-0.144531,0.977051,-0.258057
1519491219189,-0.121582,0.932373,-0.194336
1519491219222,-0.177979,0.948975,-0.257324
1519491219254,-0.158203,0.960938,-0.319092
1519491219287,-0.140869,0.952148,-0.326172
1519491219319,-0.135254,0.903809,-0.316650
1519491219352,-0.137695,0.950928,-0.277100
1519491219384,-0.150635,1.061768,-0.288330
1519491219425,-0.113770,0.945557,-0.341553
1519491219427,-0.141602,0.913574,-0.330322
1519491219487,-0.160400,0.988037,-0.302490
1519491219519,-0.160645,0.985596,-0.317871
1519491219520,-0.143555,0.865967,-0.367432
1519491219578,-0.156250,0.883301,-0.316895
1519491219586,-0.173828,0.965088,-0.322510
1519491219642,-0.158447,0.928955,-0.399170
1519491219674,-0.171387,0.947754,-0.366455
1519491219682,-0.172119,0.910889,-0.373291
1519491219738,-0.168213,0.943848,-0.359375
1519491219770,-0.151123,0.957764,-0.324951
1519491219803,-0.166992,0.968994,-0.341064
1519491219817,-0.171875,0.920898,-0.357178
1519491219917,-0.181152,0.904297,-0.343506
1519491219918,-0.160400,0.933105,-0.332520
1519491219984,-0.166260,0.951904,-0.317383
1519491219985,-0.161621,0.951416,-0.352783
1519491220052,-0.155518,0.934570,-0.340088
1519491220053,-0.170410,0.946045,-0.295654
1519491220119,-0.159668,0.968750,-0.306885
1519491220120,-0.156006,0.966797,-0.329346
1519491220187,-0.175781,0.902832,-0.342285
1519491220188,-0.171387,0.942139,-0.299316
1519491220254,-0.162109,0.969971,-0.306396
1519491220255,-0.161865,0.968018,-0.340820
1519491220322,-0.170898,0.950195,-0.328613
1519491220323,-0.161865,0.935791,-0.313477
1519491220389,-0.170410,0.915283,-0.320068
1519491220391,-0.170410,0.961426,-0.324219
1519491220405,-0.166748,0.953125,-0.328857
1519491220407,-0.159424,0.933105,-0.337158
1519491220442,-0.162598,0.950684,-0.342285
1519491220474,-0.161133,0.937500,-0.323486
1519491220507,-0.168213,0.947510,-0.322998
1519491220539,-0.164063,0.943359,-0.337402
1519491220572,-0.166504,0.932617,-0.345703
1519491220604,-0.161133,0.933105,-0.338867
1519491220637,-0.163330,0.946045,-0.335205
1519491220669,-0.161621,0.940674,-0.331055
1519491220683,-0.161377,0.940918,-0.351318
1519491220740,-0.161133,0.945557,-0.336426
1519491220745,-0.158691,0.945557,-0.330566
1519491220803,-0.160156,0.944580,-0.333008
1519491220835,-0.160645,0.954590,-0.312256
1519491220868,-0.163818,0.927979,-0.309814
1519491220900,-0.158691,0.939941,-0.328857
1519491220933,-0.166016,0.941162,-0.337158
1519491220965,-0.165039,0.943604,-0.335693
1519491220998,-0.163818,0.924316,-0.345215
1519491221030,-0.172119,0.910156,-0.323730
1519491221063,-0.160156,0.916016,-0.320801
1519491221064,-0.140625,0.916992,-0.329102
1519491221122,-0.161865,1.004883,-0.271973
1519491221154,-0.146240,1.009521,-0.288330
1519491221162,-0.123779,0.952393,-0.338867
1519491221218,-0.156006,0.925781,-0.420654
1519491221250,-0.153564,0.953857,-0.416992
1519491221283,-0.142090,0.949707,-0.397217
1519491221315,-0.155029,1.023682,-0.285645
1519491221337,-0.146973,0.933594,-0.282227
1519491221362,-0.143311,0.843994,-0.293457
1519491221397,-0.171631,0.912354,-0.375732
1519491221429,-0.164795,0.964355,-0.345459
1519491221497,-0.123291,0.956543,-0.291260
1519491221498,-0.158447,0.951660,-0.303223
1519491221543,-0.150146,0.933594,-0.319824
1519491221575,-0.140869,0.914795,-0.322998
1519491221608,-0.142578,0.983887,-0.321533
1519491221641,-0.145752,0.983643,-0.321289
1519491221645,-0.144287,0.966309,-0.317871
1519491221703,-0.152344,0.936768,-0.316162
1519491221735,-0.150146,0.963379,-0.303223
1519491221742,-0.131592,0.955322,-0.303223
1519491221799,-0.128906,0.939697,-0.292236
1519491221832,-0.141113,0.945068,-0.280029
1519491221864,-0.156006,0.937500,-0.291016
1519491221897,-0.120605,1.015137,-0.347412
1519491221929,-0.144287,1.194092,-0.339600
1519491221943,-0.104736,0.873535,-0.168945
1519491221975,-0.136719,0.991211,-0.077393
1519491222033,-0.169189,0.835449,-0.031982
1519491222065,-0.128174,0.865479,0.007080
1519491222072,-0.115967,1.114746,-0.200439
1519491222129,-0.106689,0.986084,-0.272217
1519491222162,-0.148926,0.935791,-0.301758
1519491222194,-0.176270,0.988037,-0.299561
1519491222227,-0.129883,0.961426,-0.345459
1519491222228,-0.109619,0.969727,-0.349121
1519491222285,-0.146973,0.994629,-0.374268
1519491222318,-0.130127,0.908936,-0.402344
1519491222323,-0.121338,0.919922,-0.383545
1519491222393,-0.154053,0.978271,-0.344727
1519491222394,-0.131104,0.958740,-0.337158
1519491222427,-0.129395,0.940430,-0.333252
1519491222459,-0.139648,0.929688,-0.334473
1519491222492,-0.131348,0.930176,-0.277344
1519491222524,-0.126709,0.947021,-0.247559
1519491222557,-0.140137,1.003906,-0.305420
1519491222614,-0.138916,0.969971,-0.266602
1519491222647,-0.141846,0.913086,-0.281250
1519491222679,-0.131592,1.065674,-0.294922
1519491222687,-0.145508,1.046143,-0.250488
1519491222743,-0.169678,0.903564,-0.260986
1519491222777,-0.133545,0.928711,-0.213379
1519491222809,-0.150391,0.985352,-0.125732
1519491222810,-0.201904,0.859375,-0.178955
1519491222868,-0.132813,1.059326,-0.134521
1519491222900,-0.076172,0.996826,-0.181152
1519491222902,-0.137451,0.995117,-0.265137
1519491222959,-0.127686,1.028564,-0.244873
1519491222992,-0.159668,0.943604,-0.332764
1519491223024,-0.179443,0.972412,-0.305176
1519491223057,-0.132568,1.030518,-0.272705
1519491223089,-0.149170,0.994873,-0.290527
1519491223122,-0.149170,0.935059,-0.250244
1519491223154,-0.127441,0.909912,-0.208008
1519491223171,-0.165283,0.980225,-0.245850
1519491223227,-0.108643,0.974121,-0.225098
1519491223259,-0.146240,0.947021,-0.299561
1519491223292,-0.130127,0.973877,-0.241455
1519491223324,-0.125732,1.022461,-0.239502
1519491223359,-0.200439,1.008301,-0.227295
1519491223392,-0.089355,0.900146,-0.188965
1519491223393,-0.131836,0.996826,-0.258057
1519491223425,-0.158691,0.969482,-0.241455
1519491223458,-0.127686,0.980957,-0.201416
1519491223491,-0.120361,1.016113,-0.171875
1519491223523,-0.144287,0.968506,-0.180176
1519491223556,-0.132324,0.964111,-0.185059
1519491223597,-0.144531,1.033691,-0.244141
1519491223629,-0.159424,0.951172,-0.180420
1519491223662,-0.134277,0.987305,-0.138916
1519491223694,-0.129395,1.000488,-0.122070
1519491223727,-0.103516,1.071533,0.009521
1519491223759,-0.123291,0.963867,-0.033447
1519491223792,-0.146729,0.993652,-0.120850
1519491223824,-0.134766,1.009033,-0.075684
1519491223857,-0.100830,0.937500,-0.046631
1519491223889,-0.113770,0.986816,-0.028809
1519491223922,-0.133545,1.016357,-0.110107
1519491223954,-0.113037,1.040771,-0.136719
1519491223968,-0.148193,1.003906,-0.207520
1519491224026,-0.148926,1.012207,-0.198486
1519491224058,-0.149658,1.017578,-0.184326
1519491224064,-0.135254,0.974365,-0.132813
1519491224122,-0.140381,0.970703,-0.169922
1519491224154,-0.150879,0.976563,-0.177734
1519491224187,-0.143311,0.972656,-0.164063
1519491224219,-0.126465,0.994141,-0.119629
1519491224252,-0.142822,0.989746,-0.162109
1519491224284,-0.149902,1.010498,-0.182373
1519491224319,-0.148438,0.992920,-0.177734
1519491224352,-0.143799,0.984863,-0.176758
1519491224353,-0.148926,0.947998,-0.167725
1519491224423,-0.147461,0.995850,-0.148193
1519491224424,-0.148682,0.997070,-0.164307
1519491224457,-0.146729,0.976807,-0.174072
1519491224514,-0.140625,0.969238,-0.161621
1519491224515,-0.155518,1.014160,-0.149170
1519491224548,-0.147949,1.001221,-0.157959
1519491224605,-0.145020,0.980225,-0.153564
1519491224638,-0.144775,1.002930,-0.163574
1519491224671,-0.132813,0.994141,-0.150391
1519491224703,-0.139404,1.024658,-0.135254
1519491224735,-0.143311,0.977051,-0.165039
1519491224768,-0.144775,0.970459,-0.168945
1519491224782,-0.157959,0.943359,-0.151611
1519491224839,-0.143799,0.983887,-0.116211
1519491224840,-0.135010,1.050781,-0.150146
1519491224913,-0.125488,1.004395,-0.217773
1519491224914,-0.158203,0.987793,-0.196289
1519491224981,-0.153809,0.985596,-0.183594
1519491224982,-0.121338,0.996338,-0.157471
1519491225048,-0.135986,1.034180,-0.177246
1519491225049,-0.167725,0.971924,-0.179199
1519491225115,-0.129150,0.970215,-0.153076
1519491225116,-0.157471,1.020020,-0.167236
1519491225183,-0.146973,0.975342,-0.147217
1519491225252,-0.146240,0.999756,-0.154297
1519491225318,-0.145020,0.999023,-0.149902
1519491225319,-0.140869,0.989746,-0.161865
1519491225385,-0.135986,0.996338,-0.157715
1519491225387,-0.140625,0.990967,-0.166504
1519491225413,-0.141357,0.980469,-0.167480
1519491225415,-0.128418,1.032227,-0.132080
1519491225427,-0.132324,1.007813,-0.133057
1519491225428,-0.140625,0.972412,-0.130127
1519491225461,-0.141602,0.983643,-0.134033
1519491225493,-0.140869,1.000244,-0.132568
1519491225525,-0.133301,1.017090,-0.127197
1519491225583,-0.131348,1.001709,-0.145020
1519491225584,-0.139648,0.989990,-0.145264
1519491225617,-0.137939,0.992676,-0.128174
1519491225649,-0.137207,0.966797,-0.133301
1519491225682,-0.137695,0.992920,-0.145752
1519491225714,-0.125732,1.016846,-0.132080
1519491225747,-0.127930,0.994385,-0.139404
1519491225779,-0.133545,0.972900,-0.143555
1519491225812,-0.135010,0.965332,-0.135986
1519491225869,-0.143311,1.006348,-0.149658
1519491225874,-0.130127,1.020020,-0.180176
1519491225932,-0.132813,1.002930,-0.183838
1519491225964,-0.130127,0.999512,-0.168701
1519491225997,-0.132324,0.989014,-0.165283
1519491225998,-0.135742,1.011963,-0.173828
1519491226055,-0.127197,0.970703,-0.167969
1519491226088,-0.137939,0.991455,-0.182373
1519491226089,-0.139648,0.969238,-0.165771
1519491226147,-0.132813,0.982178,-0.187256
1519491226179,-0.130859,1.002197,-0.177734
1519491226212,-0.124512,0.974121,-0.182617
1519491226247,-0.136963,1.004639,-0.184570
1519491226279,-0.129639,0.979980,-0.196045
1519491226312,-0.136719,1.013184,-0.189941
1519491226344,-0.128174,0.975830,-0.196289
1519491226377,-0.131592,0.978516,-0.189453
1519491226409,-0.136963,0.989746,-0.197998
1519491226442,-0.120117,0.990723,-0.200439
1519491226474,-0.132568,0.986328,-0.218750
1519491226507,-0.138916,0.971680,-0.209717
1519491226539,-0.127686,0.993408,-0.213135
1519491226572,-0.138184,0.987305,-0.206787
1519491226573,-0.131104,0.973877,-0.203369
1519491226642,-0.132568,0.971436,-0.212402
1519491226643,-0.121094,0.979736,-0.200195
1519491226675,-0.143311,0.989502,-0.244629
1519491226733,-0.122803,0.969971,-0.219727
1519491226739,-0.121094,0.996582,-0.219238
1519491226796,-0.135742,0.990479,-0.216064
1519491226829,-0.120361,0.987549,-0.213379
1519491226844,-0.134521,0.985352,-0.224365
1519491226884,-0.124268,0.986816,-0.221680
1519491226917,-0.125488,0.988525,-0.215820
1519491226949,-0.121826,0.970703,-0.213623
1519491226982,-0.128662,0.993408,-0.215088
1519491227014,-0.123047,0.974121,-0.219971
1519491227047,-0.123535,0.982178,-0.217529
1519491227079,-0.123779,0.955566,-0.205566
1519491227112,-0.129883,0.999512,-0.223633
1519491227144,-0.121826,0.964111,-0.222168
1519491227177,-0.122314,0.987793,-0.229736
1519491227212,-0.118896,0.972412,-0.214355
1519491227244,-0.123291,0.994141,-0.234131
1519491227258,-0.120605,0.984863,-0.249512
1519491227315,-0.117676,0.990234,-0.236084
1519491227322,-0.110596,0.997803,-0.225830
1519491227378,-0.111084,0.969238,-0.224854
1519491227410,-0.136475,0.994873,-0.222900
1519491227443,-0.108398,0.982910,-0.216797
1519491227451,-0.102539,0.966553,-0.239258
1519491227507,-0.118408,1.004639,-0.175781
1519491227539,-0.121826,0.996826,-0.189453
1519491227572,-0.117432,0.940918,-0.223145
1519491227604,-0.147217,1.035156,-0.209961
1519491227637,-0.119141,1.000244,-0.193359
1519491227638,-0.127197,0.993896,-0.233154
1519491227695,-0.146729,0.923340,-0.264893
1519491227728,-0.126709,0.970215,-0.217773
1519491227736,-0.175049,1.024902,-0.170654
1519491227792,-0.079590,0.788818,-0.334473
1519491227824,-0.109375,1.195557,0.135498
1519491227857,-0.072510,1.112061,-0.158691
1519491227897,-0.079102,0.794678,-0.426025
1519491227900,-0.088135,0.860596,-0.465332
1519491227958,-0.122070,0.920410,-0.356934
1519491227990,-0.077393,0.770996,-0.527832
1519491228023,-0.089355,0.807861,-0.671143
1519491228055,-0.065430,0.998779,-0.725586
1519491228069,0.044922,0.507568,-0.757813
1519491228102,-0.016846,0.640869,-0.676514
1519491228143,0.022705,1.067139,-0.622314
1519491228184,0.188232,0.805664,-0.662842
1519491228217,0.312256,0.654785,-0.873047
1519491228218,0.031006,0.597412,-0.908447
1519491228285,-0.583740,0.389893,-0.896240
1519491228318,-0.086914,0.590576,-0.864990
1519491228319,-0.174805,0.572510,-0.819336
1519491228376,-0.090088,0.741699,-0.660645
1519491228385,-0.178955,0.722412,-0.640137
1519491228440,-0.048340,0.769531,-0.579590
1519491228473,-0.291748,0.696045,-0.580078
1519491228487,-0.070313,0.754150,-0.690186
1519491228519,0.844482,0.709229,-0.737549
1519491228552,-0.689697,0.731445,-0.614990
1519491228584,0.144043,0.588135,-0.755859
1519491228642,-0.014160,0.595459,-0.940918
1519491228647,0.002441,0.714600,-0.725342
1519491228704,-0.118408,0.340820,-0.873779
1519491228737,-0.157715,0.407471,-0.885498
1519491228769,-0.245605,0.733398,-0.925049
1519491228802,-0.274902,0.515381,-0.928955
1519491228803,-0.256348,0.655762,-0.597900
1519491228860,-0.316650,0.558838,-0.746582
1519491228893,-0.386230,0.572754,-0.714844
1519491228907,-0.525635,0.599609,-0.717529
1519491228964,-0.639160,0.690430,-0.749512
1519491228965,-0.600586,0.748291,-0.709717
1519491229023,-0.539063,0.729248,-0.669922
1519491229055,-0.522705,0.811279,-0.528076
1519491229062,-0.450928,0.739014,-0.543945
1519491229119,-0.436279,0.730957,-0.728516
1519491229177,-0.281982,0.727539,-0.507813
1519491229178,-0.317139,0.761475,-0.496582
1519491229210,-0.321777,0.631104,-0.497803
1519491229243,-0.212402,0.788086,-0.468994
1519491229275,-0.163330,0.891357,-0.542480
1519491229308,-0.118164,0.760742,-0.450439
1519491229336,-0.690430,0.958008,-0.565918
1519491229369,0.065186,1.073975,-0.493652
1519491229402,0.516602,0.633057,-0.515137
1519491229434,-0.114746,1.020752,-0.436523
1519491229467,0.325195,0.644531,-0.512939
1519491229499,0.337646,0.937256,-0.496582
1519491229532,0.263916,0.898193,-0.362793
1519491229565,0.392578,0.865723,-0.388184
1519491229597,0.208252,0.855469,-0.411865
1519491229629,0.134521,0.875488,-0.476807
1519491229662,0.040771,0.878174,-0.579834
1519491229694,0.097412,0.833984,-0.606689
1519491229727,0.265869,0.608643,-0.716797
1519491229762,0.058105,0.792236,-0.710938
1519491229792,-0.004883,0.809570,-0.772217
1519491229826,-0.020264,1.007568,-0.518555
1519491229832,-0.083496,0.568359,-0.586914
1519491229904,-0.088135,0.887695,-0.518799
1519491229973,-0.070557,0.929199,-0.418457
1519491229981,-0.084473,0.875732,-0.332764
1519491230038,-0.086914,0.990234,-0.276611
1519491230040,-0.063477,0.900635,-0.205078
1519491230106,-0.059814,0.977539,-0.199219
1519491230108,-0.067871,0.998535,-0.243896
1519491230173,-0.043213,0.957031,-0.211670
1519491230175,-0.061279,1.002686,-0.208740
1519491230241,-0.070313,0.985840,-0.211914
1519491230243,-0.070068,0.974854,-0.175293
1519491230308,-0.081543,0.980713,-0.221924
1519491230310,-0.088867,0.981689,-0.252441
1519491230376,-0.093994,0.967773,-0.255859
1519491230378,-0.076416,0.967529,-0.254883
1519491230387,-0.076416,0.968506,-0.283936
1519491230393,-0.061279,0.984863,-0.341309
1519491230426,-0.058594,0.968994,-0.300781
1519491230458,-0.063477,0.949951,-0.262207
1519491230491,-0.077881,0.969238,-0.320068
1519491230523,-0.066650,0.980225,-0.321045
1519491230564,-0.060547,0.941406,-0.262451
1519491230597,-0.069580,0.946777,-0.277100
1519491230629,-0.058594,0.951416,-0.349365
1519491230662,-0.053955,0.948975,-0.379395
1519491230694,-0.069580,0.925781,-0.360840
1519491230727,-0.068115,0.907715,-0.363281
1519491230760,-0.068359,0.900391,-0.407471
1519491230792,-0.064453,0.882080,-0.481934
1519491230824,-0.042969,0.868652,-0.529297
1519491230826,-0.035400,0.849365,-0.573242
1519491230883,-0.049072,0.822266,-0.611328
1519491230916,-0.043457,0.809082,-0.610352
1519491230924,-0.039307,0.796143,-0.599365
1519491230988,-0.035156,0.800781,-0.635986
1519491230990,-0.049316,0.796143,-0.648926
1519491231049,-0.037109,0.760010,-0.632324
1519491231086,-0.038330,0.794189,-0.644775
1519491231095,-0.040527,0.759277,-0.630615
1519491231147,-0.058350,0.782227,-0.628906
1519491231180,-0.036621,0.770996,-0.629639
1519491231212,-0.055664,0.779541,-0.640137
1519491231244,-0.052002,0.777588,-0.627930
1519491231277,-0.050781,0.775146,-0.638672
1519491231310,-0.049316,0.779785,-0.630127
1519491231343,-0.044922,0.772949,-0.635986
1519491231374,-0.042725,0.786133,-0.623779
1519491231391,-0.044922,0.780762,-0.623535
1519491231416,-0.055420,0.787354,-0.624268
1519491231474,-0.050781,0.785156,-0.607178
1519491231507,-0.048828,0.788330,-0.612793
1519491231516,-0.050293,0.791748,-0.617920
1519491231564,-0.056641,0.790527,-0.610840
1519491231597,-0.055176,0.793945,-0.610352
1519491231630,-0.061279,0.794678,-0.609131
1519491231663,-0.057373,0.797119,-0.604736
1519491231696,-0.062988,0.796875,-0.608887
1519491231738,-0.068848,0.798096,-0.601563
1519491231744,-0.063232,0.798828,-0.596191
1519491231777,-0.064941,0.799805,-0.600586
1519491231812,-0.063232,0.801758,-0.597656
1519491231843,-0.071533,0.802246,-0.595459
1519491231876,-0.073486,0.804443,-0.597900
1519491231907,-0.071533,0.806152,-0.594971
1519491231941,-0.069824,0.808838,-0.588867
1519491231974,-0.067139,0.809570,-0.591064
1519491232007,-0.065430,0.807129,-0.582275
1519491232044,-0.067139,0.811035,-0.588135
1519491232077,-0.065430,0.808105,-0.591309
1519491232109,-0.068359,0.812012,-0.585693
1519491232142,-0.068604,0.814941,-0.592529
1519491232174,-0.061279,0.825684,-0.623047
1519491232188,-0.072021,0.825684,-0.582031
1519491232244,-0.077393,0.824463,-0.517822
1519491232250,-0.069092,0.835449,-0.524658
1519491232309,-0.079102,0.841064,-0.559570
1519491232342,-0.086426,0.845703,-0.558350
1519491232374,-0.083496,0.844238,-0.511963
1519491232406,-0.066895,0.851318,-0.510986
1519491232439,-0.064453,0.855225,-0.526123
1519491232472,-0.074463,0.856689,-0.524170
1519491232504,-0.070313,0.852783,-0.511475
1519491232536,-0.067139,0.851563,-0.522461
1519491232568,-0.063721,0.851318,-0.537598
1519491232574,-0.061279,0.848877,-0.541748
1519491232640,-0.068359,0.847168,-0.542236
1519491232672,-0.071289,0.842773,-0.542725
1519491232678,-0.074219,0.841797,-0.547363
1519491232731,-0.074219,0.841309,-0.542480
1519491232740,-0.067383,0.847412,-0.560303
1519491232793,-0.048828,0.842529,-0.529541
1519491232825,-0.078369,0.842041,-0.539551
1519491232830,-0.071289,0.840332,-0.526855
1519491232889,-0.066650,0.846924,-0.549805
1519491232921,-0.072510,0.841309,-0.551758
1519491232954,-0.071533,0.838867,-0.524902
1519491232987,-0.067627,0.841309,-0.537354
1519491233020,-0.072510,0.842285,-0.561768
1519491233051,-0.069092,0.836914,-0.537842
1519491233085,-0.078125,0.835693,-0.554932
1519491233117,-0.092041,0.829102,-0.529053
1519491233150,-0.080566,0.832520,-0.559326
1519491233158,-0.071289,0.830566,-0.542236
1519491233208,-0.099365,0.826416,-0.564697
1519491233239,-0.102539,0.828125,-0.599609
1519491233247,-0.071289,0.829834,-0.557617
1519491233304,-0.078125,0.827393,-0.546631
1519491233336,-0.108398,0.826660,-0.587891
1519491233371,-0.090820,0.829590,-0.578369
1519491233403,-0.082275,0.832275,-0.557861
1519491233417,-0.087158,0.837402,-0.559082
1519491233450,-0.078125,0.841064,-0.529785
1519491233483,-0.085938,0.839600,-0.515625
1519491233516,-0.098389,0.844971,-0.532715
1519491233572,-0.090576,0.845215,-0.538330
1519491233604,-0.087891,0.847656,-0.541016
1519491233637,-0.088135,0.852783,-0.534668
1519491233669,-0.083496,0.852539,-0.518311
1519491233703,-0.090576,0.854492,-0.531982
1519491233734,-0.091064,0.860596,-0.529541
1519491233740,-0.077881,0.908447,-0.465576
1519491233793,-0.093506,0.855713,-0.506836
1519491233807,-0.097900,0.850586,-0.514893
1519491233840,-0.086182,0.878418,-0.478027
1519491233897,-0.099121,0.947266,-0.453125
1519491233903,-0.092041,0.870850,-0.466064
1519491233931,-0.108887,0.892090,-0.473877
1519491233969,-0.095703,0.884277,-0.475830
1519491233999,-0.082520,0.879150,-0.447754
1519491234032,-0.102539,0.865234,-0.460449
1519491234065,-0.102539,0.904541,-0.469238
1519491234099,-0.097900,0.928711,-0.456299
1519491234129,-0.105469,0.925781,-0.480225
1519491234187,-0.108887,0.872070,-0.490479
1519491234220,-0.117676,0.890381,-0.448486
1519491234225,-0.116943,0.921143,-0.463867
1519491234266,-0.129150,0.832031,-0.471436
1519491234299,-0.127197,0.903076,-0.469971
1519491234331,-0.125488,0.928955,-0.469971
1519491234365,-0.135742,0.881592,-0.462402
1519491234395,-0.131348,0.898926,-0.483154
1519491234427,-0.127197,0.921631,-0.448730
1519491234460,-0.139893,0.931152,-0.408691
1519491234493,-0.143311,0.916504,-0.434326
1519491234527,-0.152832,0.938232,-0.430664
1519491234559,-0.142334,0.969727,-0.376709
1519491234591,-0.166016,0.886963,-0.466064
1519491234623,-0.191162,0.841309,-0.441162
1519491234666,-0.188232,0.893799,-0.453369
1519491234698,-0.225586,0.861572,-0.456543
1519491234729,-0.197266,0.810303,-0.454102
1519491234762,-0.207031,0.823486,-0.460938
1519491234795,-0.230469,0.835205,-0.436035
1519491234804,-0.206299,0.846436,-0.421143
1519491234852,-0.202637,0.885986,-0.460693
1519491234922,-0.209229,0.864502,-0.469238
1519491234930,-0.210449,0.818604,-0.450439
1519491234987,-0.188721,0.879639,-0.457031
1519491234991,-0.173096,0.905762,-0.407959
1519491235057,-0.188477,0.851318,-0.462646
1519491235125,-0.181152,0.867432,-0.493652
1519491235192,-0.156982,0.903809,-0.423584
1519491235202,-0.188721,0.912109,-0.509521
1519491235258,-0.115234,0.926025,-0.397217
1519491235262,-0.160400,0.914307,-0.524170
1519491235327,-0.157715,0.820068,-0.442139
1519491235336,-0.120850,0.963623,-0.346436
1519491235386,-0.141846,0.913086,-0.446533
1519491235394,-0.170410,0.878174,-0.564453
1519491235403,-0.137451,0.856689,-0.469238
1519491235411,-0.154541,0.799561,-0.488281
1519491235419,-0.171143,0.868896,-0.551270
1519491235424,-0.159180,0.848145,-0.510254
1519491235462,-0.144043,0.840820,-0.481445
1519491235494,-0.149658,0.845215,-0.517578
1519491235527,-0.147949,0.837402,-0.510010
1519491235579,-0.143311,0.852051,-0.483398
1519491235587,-0.152344,0.872070,-0.475342
1519491235613,-0.124756,0.920654,-0.498047
1519491235643,-0.129883,0.842285,-0.502686
1519491235677,-0.148193,0.853271,-0.485840
1519491235709,-0.152588,0.945313,-0.482910
1519491235741,-0.128662,0.874512,-0.486572
1519491235773,-0.140869,0.865967,-0.485840
1519491235831,-0.146484,0.855957,-0.480469
1519491235840,-0.138672,0.824219,-0.509766
1519491235894,-0.139160,0.876709,-0.493896
1519491235905,-0.136963,0.831787,-0.428467
1519491235929,-0.134277,0.878418,-0.491455
1519491235962,-0.124756,0.928711,-0.461426
1519491235996,-0.138672,0.871338,-0.431152
1519491236029,-0.140625,0.877930,-0.438965
1519491236059,-0.138672,0.906982,-0.423340
1519491236093,-0.129883,0.939697,-0.419434
1519491236126,-0.128906,0.876953,-0.483887
1519491236157,-0.135498,0.846191,-0.495117
1519491236190,-0.126465,0.920410,-0.458984
1519491236223,-0.133057,0.909180,-0.466064
1519491236254,-0.134277,0.852295,-0.500977
1519491236287,-0.135986,0.881836,-0.489014
1519491236346,-0.138916,0.889648,-0.453613
1519491236379,-0.138672,0.851318,-0.466064
1519491236409,-0.144775,0.869873,-0.517334
1519491236414,-0.155029,0.894775,-0.458008
1519491236444,-0.128662,0.884521,-0.428223
1519491236502,-0.138428,0.864258,-0.501709
1519491236510,-0.158447,0.867188,-0.467773
1519491236561,-0.137695,0.910156,-0.443359
1519491236594,-0.139648,0.889160,-0.479736
1519491236625,-0.134521,0.862305,-0.471436
1519491236657,-0.135010,0.899902,-0.457031
1519491236691,-0.149414,0.928711,-0.436279
1519491236703,-0.152832,0.873291,-0.437744
1519491236735,-0.157715,0.892578,-0.490234
1519491236793,-0.149414,0.876709,-0.464600
1519491236824,-0.157959,0.842285,-0.485596
1519491236831,-0.167480,0.855713,-0.494385
1519491236887,-0.147949,0.881836,-0.452148
1519491236920,-0.161133,0.867188,-0.493408
1519491236923,-0.173096,0.870361,-0.494873
1519491236980,-0.187500,0.865723,-0.468994
1519491236988,-0.172607,0.841797,-0.421387
1519491237020,-0.134521,0.810059,-0.459717
1519491237077,-0.163330,0.893799,-0.503906
1519491237086,-0.175049,0.913818,-0.471191
1519491237122,-0.143066,0.941406,-0.471680
1519491237155,-0.139648,0.892090,-0.474609
1519491237187,-0.145020,0.895264,-0.452393
1519491237296,-0.150146,0.884033,-0.466064
1519491237297,-0.164795,0.845947,-0.477295
1519491237298,-0.160156,0.906250,-0.463379
1519491237315,-0.158203,0.898682,-0.435303
1519491237371,-0.163330,0.868164,-0.466553
1519491237403,-0.161865,0.869141,-0.489502
1519491237406,-0.148926,0.879883,-0.490234
1519491237462,-0.184082,0.853516,-0.491699
1519491237495,-0.176270,0.850342,-0.485352
1519491237501,-0.156738,0.874023,-0.461182
1519491237559,-0.163330,0.848389,-0.465820
1519491237592,-0.176514,0.872803,-0.497559
1519491237624,-0.171875,0.890381,-0.459473
1519491237656,-0.154785,0.875732,-0.450195
1519491237663,-0.155273,0.833252,-0.478027
1519491237721,-0.161133,0.867432,-0.484619
1519491237752,-0.164307,0.903320,-0.484619
1519491237784,-0.158447,0.900391,-0.497314
1519491237818,-0.154785,0.886719,-0.496094
1519491237831,-0.160400,0.908203,-0.453369
1519491237887,-0.160156,0.891602,-0.457520
1519491237920,-0.147461,0.870605,-0.495605
1519491237933,-0.159424,0.878174,-0.474365
1519491237990,-0.164063,0.873291,-0.458740
1519491237999,-0.167480,0.834961,-0.494629
1519491238049,-0.187500,0.823975,-0.507324
1519491238080,-0.161865,0.870605,-0.466797
1519491238085,-0.167969,0.875488,-0.457520
1519491238138,-0.184082,0.857910,-0.475342
1519491238171,-0.160400,0.882080,-0.447998
1519491238202,-0.160645,0.881104,-0.474609
1519491238233,-0.171143,0.848389,-0.483398
1519491238266,-0.133301,0.864746,-0.486084
1519491238299,-0.145752,0.900391,-0.500732
1519491238332,-0.171631,0.878662,-0.503662
1519491238347,-0.138428,0.893799,-0.494141
1519491238404,-0.156738,0.907715,-0.494873
1519491238413,-0.173096,0.881104,-0.453613
1519491238467,-0.156738,0.851074,-0.491699
1519491238499,-0.170166,0.814941,-0.476318
1519491238533,-0.136963,0.847900,-0.477051
1519491238566,-0.201416,0.862549,-0.520752
1519491238574,-0.182373,0.838867,-0.496094
1519491238624,-0.136230,0.878662,-0.483154
1519491238656,-0.180176,0.888184,-0.455811
1519491238662,-0.179932,0.879639,-0.456787
1519491238718,-0.172607,0.849365,-0.449707
1519491238750,-0.146484,0.889404,-0.479248
1519491238763,-0.167969,0.850342,-0.471924
1519491238799,-0.163818,0.889893,-0.477539
1519491238833,-0.149902,0.893555,-0.502930
1519491238864,-0.136230,0.872314,-0.506348
1519491238898,-0.136719,0.872803,-0.479492
1519491238930,-0.148193,0.883789,-0.485107
1519491238962,-0.147461,0.892334,-0.472168
1519491239020,-0.145020,0.870605,-0.479980
1519491239029,-0.142578,0.871826,-0.485107
1519491239082,-0.143799,0.894531,-0.465332
1519491239114,-0.149658,0.890381,-0.477539
1519491239147,-0.143311,0.903564,-0.434814
1519491239155,-0.128418,0.940186,-0.370117
1519491239217,-0.165771,0.947266,-0.416748
1519491239223,-0.168945,0.927246,-0.421631
1519491239256,-0.160889,0.931152,-0.399658
1519491239313,-0.160645,0.921387,-0.369385
1519491239321,-0.183105,0.925293,-0.395508
1519491239346,-0.175049,0.942383,-0.421875
1519491239379,-0.161865,0.825684,-0.364258
1519491239418,-0.230713,0.725830,-0.288086
1519491239449,-0.230225,0.923096,-0.444580
1519491239481,-0.189209,0.948242,-0.297852
1519491239515,-0.180664,1.009521,-0.278320
1519491239548,-0.143799,0.968018,-0.309814
1519491239589,-0.175049,1.023193,-0.213379
1519491239622,-0.119141,1.169434,0.002441
1519491239653,-0.149902,0.863281,-0.151611
1519491239686,-0.090088,1.169922,0.109619
1519491239719,-0.120605,0.722656,0.154053
1519491239727,-0.107666,1.114746,0.072510
1519491239787,-0.055176,1.081055,0.093018
1519491239792,-0.114014,1.026123,0.093262
1519491239825,-0.163818,0.949707,0.124756
1519491239897,-0.261719,0.978760,0.163574
1519491239902,-0.250488,1.095947,0.062500
1519491239965,-0.143066,1.123779,0.073975
1519491240032,-0.088379,0.964355,0.101807
