1519423784409,0.755371,-0.554688,0.258789
1519423784436,0.753418,-0.558838,0.260498
1519423784440,0.752930,-0.561035,0.275146
1519423784506,0.742920,-0.593750,0.249512
1519423784529,0.726074,-0.610107,0.234619
1519423784556,0.723145,-0.612549,0.232178
1519423784585,0.720703,-0.571777,0.229736
1519423784637,0.740723,-0.566406,0.220703
1519423784641,0.761475,-0.574219,0.210693
1519423784694,0.778564,-0.571289,0.195068
1519423784720,0.786133,-0.551270,0.180176
1519423784742,0.800293,-0.544434,0.172119
1519423784810,0.795410,-0.553711,0.171387
1519423784817,0.791992,-0.545654,0.176514
1519423784851,0.778564,-0.546143,0.167725
1519423784874,0.766846,-0.559326,0.166260
1519423784929,0.769043,-0.576416,0.176514
1519423784941,0.771973,-0.585693,0.170166
1519423784991,0.767334,-0.583740,0.160645
1519423785016,0.779053,-0.580811,0.165771
1519423785040,0.794678,-0.590088,0.188477
1519423785068,0.806396,-0.572754,0.193359
1519423785116,0.807373,-0.551025,0.187012
1519423785140,0.797119,-0.552979,0.168213
1519423785188,0.775391,-0.560791,0.162598
1519423785225,0.767578,-0.572754,0.158691
1519423785255,0.761230,-0.606445,0.161621
1519423785282,0.748779,-0.621582,0.173096
1519423785309,0.740723,-0.616943,0.167236
1519423785332,0.730469,-0.621094,0.153320
1519423785378,0.727783,-0.635986,0.152832
1519423785399,0.713135,-0.638916,0.154053
1519423785423,0.703369,-0.645264,0.148926
1519423785471,0.695557,-0.651611,0.148193
1519423785498,0.693848,-0.662842,0.160645
1519423785524,0.707764,-0.673340,0.177734
1519423785572,0.702881,-0.694824,0.157227
1519423785601,0.702637,-0.682861,0.149658
1519423785625,0.573486,-0.692627,0.157715
1519423785676,0.614014,-0.697754,0.132080
1519423785703,0.604736,-0.710449,0.139404
1519423785729,0.621582,-0.716553,0.148926
1519423785752,0.652588,-0.706787,0.150391
1519423785783,0.672607,-0.703857,0.159912
1519423785833,0.671143,-0.704590,0.155273
1519423785860,0.673584,-0.710205,0.140137
1519423785901,0.684326,-0.711914,0.143799
1519423785927,0.682861,-0.720459,0.148438
1519423785951,0.669189,-0.734131,0.150879
1519423785994,0.637939,-0.725342,0.148438
1519423786021,0.615479,-0.726563,0.141113
1519423786052,0.591797,-0.744873,0.121826
1519423786103,0.595703,-0.758057,0.116211
1519423786108,0.590576,-0.758545,0.123291
1519423786152,0.603516,-0.756836,0.130859
1519423786201,0.601318,-0.751465,0.133789
1519423786204,0.590332,-0.750977,0.132080
1519423786262,0.585449,-0.757568,0.134766
1519423786266,0.587891,-0.758057,0.130859
1519423786306,0.582520,-0.750977,0.129639
1519423786336,0.588867,-0.754639,0.129150
1519423786384,0.590332,-0.768555,0.128906
1519423786408,0.592773,-0.768311,0.135010
1519423786455,0.590820,-0.773438,0.136475
1519423786477,0.586670,-0.779297,0.138184
1519423786506,0.594971,-0.768311,0.141602
1519423786536,0.618408,-0.758545,0.158936
1519423786581,0.621826,-0.754150,0.167725
1519423786607,0.614258,-0.748779,0.155273
1519423786634,0.598145,-0.764160,0.144287
1519423786684,0.595703,-0.753906,0.156494
1519423786713,0.597656,-0.737549,0.166992
1519423786738,0.626221,-0.726807,0.172852
1519423786764,0.646240,-0.719238,0.186035
1519423786818,0.653809,-0.719971,0.205566
1519423786844,0.633301,-0.712891,0.203125
1519423786872,0.607178,-0.723389,0.213135
1519423786878,0.580078,-0.733154,0.233398
1519423786961,0.562988,-0.726807,0.246338
1519423787005,0.580566,-0.715088,0.242188
1519423787029,0.600342,-0.718018,0.231445
1519423787057,0.611816,-0.712646,0.250732
1519423787081,0.619385,-0.695068,0.287598
1519423787108,0.602783,-0.693848,0.299072
1519423787136,0.590576,-0.720703,0.286621
1519423787197,0.573486,-0.744873,0.303223
1519423787222,0.562012,-0.740967,0.325928
1519423787248,0.585938,-0.704590,0.319580
1519423787276,0.601563,-0.677734,0.296875
1519423787302,0.621094,-0.652100,0.304199
1519423787329,0.647461,-0.635742,0.328125
1519423787354,0.659180,-0.639404,0.334473
1519423787379,0.661621,-0.643066,0.332031
1519423787408,0.646240,-0.638916,0.336426
1519423787462,0.639404,-0.643555,0.357910
1519423787489,0.640381,-0.650391,0.360107
1519423787512,0.642822,-0.637939,0.338135
1519423787561,0.649658,-0.610352,0.344238
1519423787588,0.659912,-0.604736,0.362549
1519423787617,0.666748,-0.604004,0.353516
1519423787644,0.660645,-0.604248,0.347168
1519423787722,0.646240,-0.625732,0.370117
1519423787726,0.638672,-0.642578,0.360596
1519423787748,0.648926,-0.627197,0.369629
1519423787808,0.651855,-0.604736,0.367920
1519423787813,0.652832,-0.595947,0.357910
1519423787907,0.660400,-0.620850,0.362549
1519423787910,0.667969,-0.623047,0.354492
1519423787914,0.673828,-0.603516,0.344482
1519423788000,0.679443,-0.604248,0.334229
1519423788011,0.687256,-0.600098,0.335693
1519423788084,0.702148,-0.596191,0.345703
1519423788088,0.705811,-0.584229,0.325928
1519423788092,0.718262,-0.575439,0.319824
1519423788096,0.716064,-0.571533,0.338867
1519423788150,0.715576,-0.578125,0.349609
1519423788172,0.714355,-0.582031,0.341553
1519423788203,0.703613,-0.583984,0.319824
1519423788227,0.698975,-0.586914,0.322510
1519423788273,0.703857,-0.586670,0.337646
1519423788299,0.706787,-0.584473,0.334717
1519423788329,0.699463,-0.583740,0.329346
1519423788353,0.695313,-0.589844,0.327393
1519423788409,0.690430,-0.619141,0.332520
1519423788436,0.686768,-0.627441,0.346436
1519423788464,0.675781,-0.626709,0.336914
1519423788508,0.661133,-0.626465,0.321289
1519423788528,0.665283,-0.626709,0.327881
1519423788556,0.666260,-0.614746,0.318359
1519423788604,0.670166,-0.619385,0.311279
1519423788632,0.668701,-0.620605,0.311523
1519423788659,0.665039,-0.635742,0.305908
1519423788692,0.664307,-0.656250,0.296875
1519423788716,0.657715,-0.665283,0.292236
1519423788763,0.654297,-0.667236,0.279297
1519423788791,0.643555,-0.656982,0.278076
1519423788815,0.643555,-0.651855,0.271484
1519423788844,0.645508,-0.659424,0.260498
1519423788888,0.650391,-0.671387,0.254639
1519423788913,0.651611,-0.671875,0.245605
1519423788943,0.650635,-0.670166,0.233887
1519423788973,0.654297,-0.688721,0.242432
1519423789012,0.655762,-0.694824,0.236816
1519423789065,0.654785,-0.679932,0.229736
1519423789070,0.674316,-0.668701,0.226807
1519423789122,0.680420,-0.677490,0.224854
1519423789141,0.664795,-0.691162,0.215576
1519423789168,0.646240,-0.713379,0.207031
1519423789213,0.633057,-0.720459,0.202393
1519423789246,0.617920,-0.729492,0.203613
1519423789276,0.616943,-0.745117,0.204834
1519423789305,0.618896,-0.739014,0.200195
1519423789337,0.614014,-0.735107,0.197510
1519423789381,0.598633,-0.733154,0.193115
1519423789412,0.593750,-0.734619,0.189453
1519423789434,0.593994,-0.746094,0.190674
1519423789484,0.597656,-0.749756,0.188477
1519423789489,0.599365,-0.745117,0.189941
1519423789535,0.600830,-0.745605,0.187012
1519423789565,0.593994,-0.752686,0.192627
1519423789595,0.595947,-0.751221,0.194580
1519423789625,0.593994,-0.756104,0.187012
1519423789658,0.584229,-0.756592,0.187012
1519423789760,0.585449,-0.753906,0.187500
1519423789763,0.576416,-0.745117,0.192139
1519423789774,0.576416,-0.745117,0.188232
1519423789783,0.578857,-0.754395,0.195557
1519423789842,0.584473,-0.753662,0.202148
1519423789849,0.590820,-0.750000,0.195801
1519423789894,0.592529,-0.748047,0.195557
1519423789941,0.598145,-0.739258,0.209473
1519423789962,0.595459,-0.743164,0.216797
1519423789990,0.594238,-0.742676,0.210693
1519423790076,0.593994,-0.742676,0.213379
1519423790081,0.598389,-0.737793,0.229980
1519423790158,0.607178,-0.728271,0.232910
1519423790162,0.609863,-0.722412,0.226074
1519423790172,0.606445,-0.725342,0.235107
1519423790179,0.599121,-0.728027,0.244385
1519423790203,0.587891,-0.727783,0.247314
1519423790252,0.589355,-0.722900,0.255127
1519423790279,0.600586,-0.717041,0.257813
1519423790305,0.605469,-0.715820,0.257080
1519423790344,0.616455,-0.699463,0.255859
1519423790376,0.626953,-0.674561,0.266357
1519423790402,0.631592,-0.677246,0.275635
1519423790432,0.632813,-0.701416,0.281250
1519423790488,0.625000,-0.694336,0.294189
1519423790514,0.623535,-0.682373,0.295166
1519423790542,0.634033,-0.689209,0.297852
1519423790570,0.639893,-0.672852,0.295898
1519423790599,0.642334,-0.664551,0.296631
1519423790654,0.636475,-0.664307,0.319580
1519423790681,0.631348,-0.670898,0.326416
1519423790704,0.625488,-0.672607,0.326660
1519423790744,0.628418,-0.661133,0.328613
1519423790771,0.633545,-0.648682,0.339111
1519423790811,0.645020,-0.633301,0.349609
1519423790841,0.650879,-0.622803,0.352539
1519423790865,0.656738,-0.622070,0.352539
1519423790892,0.656738,-0.623291,0.360107
1519423790939,0.645752,-0.606689,0.356689
1519423790967,0.646973,-0.606934,0.349609
1519423790980,0.653809,-0.614502,0.365967
1519423791045,0.673096,-0.623779,0.376953
1519423791049,0.672607,-0.614014,0.373779
1519423791101,0.666992,-0.610840,0.370117
1519423791129,0.671143,-0.594482,0.377441
1519423791156,0.671387,-0.590576,0.375000
1519423791181,0.669434,-0.588623,0.375732
1519423791212,0.668701,-0.592041,0.377441
1519423791255,0.664551,-0.585693,0.377441
1519423791283,0.664063,-0.579834,0.381348
1519423791326,0.665283,-0.605713,0.383301
1519423791353,0.668457,-0.619141,0.373291
1519423791381,0.662109,-0.603271,0.364258
1519423791421,0.658203,-0.586182,0.365234
1519423791445,0.659668,-0.587402,0.369385
1519423791495,0.666992,-0.596191,0.362793
1519423791523,0.672119,-0.597900,0.360596
1519423791552,0.669189,-0.599365,0.358398
1519423791598,0.667480,-0.609619,0.360107
1519423791626,0.661621,-0.617676,0.349609
1519423791650,0.662598,-0.619385,0.343994
1519423791676,0.666260,-0.629395,0.337402
1519423791721,0.665283,-0.635498,0.316650
1519423791752,0.669922,-0.622559,0.308594
1519423791796,0.666504,-0.627686,0.305176
1519423791822,0.663330,-0.654053,0.304443
1519423791849,0.655029,-0.653076,0.297363
1519423791888,0.660156,-0.652100,0.287598
1519423791934,0.654053,-0.657471,0.282227
1519423791961,0.655762,-0.666016,0.278809
1519423791987,0.657715,-0.666748,0.270996
1519423792012,0.646240,-0.672607,0.262207
1519423792060,0.642822,-0.686035,0.254639
1519423792087,0.646729,-0.689209,0.251709
1519423792115,0.644775,-0.683838,0.247070
1519423792138,0.650391,-0.680176,0.245117
1519423792167,0.652344,-0.685303,0.242188
1519423792192,0.643799,-0.698975,0.227783
1519423792243,0.641846,-0.700684,0.224365
1519423792272,0.648682,-0.697998,0.240479
1519423792296,0.640625,-0.698730,0.240967
1519423792348,0.633545,-0.707275,0.222412
1519423792371,0.631836,-0.724365,0.211670
1519423792397,0.635254,-0.713623,0.214111
1519423792424,0.641357,-0.705811,0.218750
1519423792448,0.636719,-0.709229,0.215332
1519423792503,0.632568,-0.703857,0.212891
1519423792523,0.630371,-0.700439,0.215820
1519423792554,0.631836,-0.697754,0.214844
1519423792606,0.642822,-0.704346,0.212158
1519423792611,0.649170,-0.697021,0.214600
1519423792665,0.654297,-0.688721,0.215088
1519423792686,0.642578,-0.695068,0.205566
1519423792707,0.627686,-0.720215,0.200195
1519423792755,0.625244,-0.725098,0.206543
1519423792788,0.645752,-0.693115,0.206787
1519423792810,0.658447,-0.680420,0.212891
1519423792840,0.654297,-0.682861,0.222900
1519423792894,0.633301,-0.703613,0.226074
1519423792906,0.623779,-0.713623,0.216797
1519423792934,0.620117,-0.711914,0.214600
1519423792989,0.634521,-0.705811,0.221436
1519423793012,0.640869,-0.702881,0.220215
1519423793039,0.635254,-0.696289,0.225342
1519423793087,0.622803,-0.703369,0.224609
1519423793108,0.617676,-0.709961,0.223877
1519423793134,0.623047,-0.713135,0.219727
1519423793179,0.628418,-0.707031,0.223877
1519423793225,0.629883,-0.706543,0.220703
1519423793229,0.636719,-0.705811,0.218994
1519423793277,0.635986,-0.699707,0.223633
1519423793308,0.633545,-0.698730,0.222412
1519423793338,0.631592,-0.703369,0.221436
1519423793371,0.635010,-0.703613,0.220947
1519423793399,0.637939,-0.695313,0.220459
1519423793429,0.636963,-0.698242,0.219971
1519423793453,0.632568,-0.705322,0.221191
1519423793496,0.628662,-0.704590,0.220947
1519423793539,0.632080,-0.706543,0.218506
1519423793581,0.628662,-0.702637,0.221680
1519423793588,0.633545,-0.699463,0.219727
1519423793636,0.636963,-0.707031,0.220947
1519423793653,0.634033,-0.707520,0.225342
1519423793703,0.624512,-0.707031,0.217041
1519423793733,0.621094,-0.711426,0.218750
1519423793763,0.625977,-0.712158,0.225342
1519423793791,0.625732,-0.708740,0.221924
1519423793832,0.625000,-0.708252,0.218018
1519423793851,0.619629,-0.714844,0.222900
1519423793895,0.618896,-0.712402,0.223389
1519423793918,0.618896,-0.710449,0.222168
1519423793967,0.618408,-0.717041,0.224854
1519423793996,0.618408,-0.714355,0.222168
1519423794000,0.620605,-0.708740,0.224121
1519423794068,0.621582,-0.714355,0.224609
1519423794073,0.620605,-0.720215,0.218750
1519423794119,0.618164,-0.716064,0.218750
1519423794175,0.623535,-0.707031,0.219971
1519423794186,0.622314,-0.706787,0.218994
1519423794213,0.624512,-0.704102,0.219238
1519423794242,0.631592,-0.711914,0.219238
1519423794270,0.629150,-0.706299,0.218262
1519423794318,0.628906,-0.703369,0.213867
1519423794351,0.628662,-0.706543,0.210449
1519423794375,0.632568,-0.710205,0.210449
1519423794406,0.634521,-0.710693,0.211670
1519423794447,0.634033,-0.715332,0.201904
1519423794475,0.633057,-0.723145,0.194336
1519423794525,0.630127,-0.719727,0.198486
1519423794532,0.630615,-0.706299,0.202637
1519423794569,0.628174,-0.708008,0.195313
1519423794617,0.634766,-0.703125,0.187500
1519423794633,0.638672,-0.685547,0.199463
1519423794674,0.644287,-0.677002,0.203857
1519423794702,0.646729,-0.670654,0.190918
1519423794733,0.655518,-0.677246,0.177979
1519423794778,0.657471,-0.695313,0.173584
1519423794783,0.650635,-0.703857,0.171631
1519423794847,0.659424,-0.743164,0.172852
1519423794854,0.680664,-0.789795,0.186279
1519423794887,0.659180,-0.789551,0.174805
1519423794917,0.628418,-0.729004,0.176514
1519423794972,0.632324,-0.759521,0.201416
1519423794990,0.661133,-0.800781,0.211426
1519423795041,0.626465,-0.725830,0.241699
1519423795050,0.575439,-0.699951,0.245850
1519423795105,0.602783,-0.570801,0.241455
1519423795137,0.594727,-0.581299,0.232422
1519423795157,0.634033,-0.534912,0.233887
1519423795182,0.620850,-0.563721,0.223389
1519423795230,0.635498,-0.669922,0.225342
1519423795255,0.614990,-0.768311,0.226563
1519423795280,0.576904,-0.826660,0.222900
1519423795329,0.535156,-0.799561,0.190918
1519423795357,0.514648,-0.761230,0.162842
1519423795378,0.505859,-0.738770,0.145752
1519423795424,0.518555,-0.744141,0.136719
1519423795454,0.534668,-0.749512,0.168457
1519423795468,0.557617,-0.787109,0.182373
1519423795516,0.641846,-0.966797,0.215576
1519423795555,0.686523,-0.959961,0.162109
1519423795582,0.628174,-0.805664,0.112549
1519423795611,0.573486,-0.728271,0.095459
1519423795656,0.549561,-0.740723,0.140625
1519423795686,0.524902,-0.735352,0.149414
1519423795733,0.545410,-0.776367,0.147217
1519423795756,0.553711,-0.787842,0.161133
1519423795763,0.549316,-0.780273,0.180664
1519423795816,0.537354,-0.763916,0.185791
1519423795838,0.549805,-0.778320,0.194580
1519423795863,0.551270,-0.778320,0.195801
1519423795911,0.534180,-0.759277,0.181396
1519423795939,0.589111,-0.793457,0.142334
1519423795962,0.603760,-0.861084,0.089355
1519423795991,0.558350,-0.798096,0.108398
1519423796090,0.531982,-0.744141,0.185059
1519423796095,0.544434,-0.737549,0.187012
1519423796099,0.573486,-0.752441,0.166992
1519423796182,0.615479,-0.683105,0.191162
1519423796185,0.662842,-0.678467,0.196777
1519423796264,0.676270,-0.700439,0.175781
1519423796268,0.640381,-0.715820,0.201660
1519423796278,0.611572,-0.736816,0.215820
1519423796364,0.591797,-0.730225,0.204102
1519423796368,0.595703,-0.718262,0.192139
1519423796371,0.612061,-0.703613,0.187744
1519423796444,0.627686,-0.699951,0.168701
1519423796448,0.647461,-0.721436,0.174072
1519423796452,0.659668,-0.740967,0.193359
1519423796524,0.640137,-0.745850,0.220459
1519423796528,0.622070,-0.735107,0.203613
1519423796605,0.614990,-0.721191,0.178711
1519423796609,0.637207,-0.666748,0.211426
1519423796614,0.645508,-0.686279,0.202393
1519423796655,0.643311,-0.714844,0.183350
1519423796685,0.641357,-0.729248,0.187012
1519423796718,0.642334,-0.744385,0.200195
1519423796761,0.636963,-0.750488,0.203125
1519423796788,0.613037,-0.737793,0.195557
1519423796815,0.599854,-0.712402,0.199707
1519423796840,0.590576,-0.711182,0.211914
1519423796887,0.579834,-0.733643,0.216797
1519423796912,0.574707,-0.736572,0.211182
1519423796944,0.574707,-0.749268,0.210205
1519423796990,0.585938,-0.762939,0.232910
1519423797017,0.584229,-0.738037,0.236084
1519423797043,0.579590,-0.721436,0.231201
1519423797090,0.576416,-0.739014,0.231201
1519423797116,0.575928,-0.749268,0.237305
1519423797142,0.572754,-0.747559,0.241455
1519423797170,0.573975,-0.733398,0.243896
1519423797240,0.583496,-0.729492,0.238037
1519423797248,0.595215,-0.736084,0.236328
1519423797276,0.605957,-0.722656,0.254883
1519423797304,0.605957,-0.724121,0.259521
1519423797333,0.596191,-0.725342,0.259277
1519423797379,0.590820,-0.746582,0.255127
1519423797400,0.588867,-0.736816,0.258057
1519423797427,0.579590,-0.710449,0.253906
1519423797455,0.581055,-0.708008,0.252686
1519423797510,0.588623,-0.712158,0.253418
1519423797523,0.592285,-0.728027,0.250488
1519423797558,0.590088,-0.736816,0.251953
1519423797596,0.593262,-0.723145,0.255371
1519423797626,0.597412,-0.722900,0.259033
1519423797703,0.603760,-0.721924,0.262939
1519423797709,0.599609,-0.724121,0.260010
1519423797781,0.592529,-0.720947,0.266357
1519423797786,0.587646,-0.728271,0.271484
1519423797792,0.583984,-0.722656,0.271484
1519423797862,0.587402,-0.724121,0.280029
1519423797865,0.577393,-0.723633,0.283691
1519423797943,0.578613,-0.720703,0.286865
1519423797947,0.575195,-0.717773,0.284912
1519423797957,0.594727,-0.719971,0.289307
1519423798040,0.602783,-0.714600,0.288330
1519423798044,0.605469,-0.708984,0.293457
1519423798069,0.602539,-0.714600,0.291260
1519423798073,0.596924,-0.713623,0.286377
1519423798119,0.597412,-0.712402,0.288574
1519423798151,0.590332,-0.709229,0.293213
1519423798177,0.583984,-0.702637,0.291992
1519423798204,0.585449,-0.707275,0.295410
1519423798236,0.583984,-0.715820,0.299316
1519423798286,0.580566,-0.714600,0.301270
1519423798317,0.582764,-0.703857,0.295410
1519423798337,0.589600,-0.708984,0.300293
1519423798381,0.599365,-0.706543,0.299561
1519423798403,0.604004,-0.700439,0.289795
1519423798439,0.597656,-0.690430,0.301025
1519423798488,0.587402,-0.683838,0.306885
1519423798517,0.587402,-0.723877,0.295898
1519423798536,0.582520,-0.760498,0.276855
1519423798585,0.583008,-0.739502,0.307373
1519423798611,0.583252,-0.717529,0.302734
1519423798640,0.587402,-0.692627,0.312988
1519423798743,0.592529,-0.676758,0.313721
1519423798747,0.587891,-0.695557,0.298584
1519423798752,0.588135,-0.718018,0.284668
1519423798822,0.589111,-0.714844,0.288818
1519423798826,0.600342,-0.708740,0.291748
1519423798912,0.612061,-0.716309,0.282959
1519423798916,0.613037,-0.715088,0.284424
1519423798919,0.608887,-0.707031,0.297852
1519423798990,0.601074,-0.701904,0.292236
1519423798993,0.601318,-0.723145,0.294678
1519423798998,0.607178,-0.713379,0.300049
1519423799079,0.590088,-0.697510,0.292969
1519423799081,0.579102,-0.706787,0.296631
1519423799082,0.578125,-0.707520,0.302979
1519423799167,0.574219,-0.705322,0.312500
1519423799169,0.568848,-0.703613,0.311279
1519423799182,0.577393,-0.719482,0.303467
1519423799242,0.581543,-0.724609,0.317871
1519423799264,0.581055,-0.714600,0.312988
1519423799333,0.568848,-0.725586,0.307129
1519423799335,0.568848,-0.739014,0.311768
1519423799360,0.570313,-0.714111,0.315430
1519423799389,0.571045,-0.690430,0.305176
1519423799414,0.579590,-0.717041,0.302002
1519423799465,0.588379,-0.743408,0.294678
1519423799467,0.582764,-0.730225,0.292236
1519423799512,0.594727,-0.705078,0.297363
1519423799553,0.602051,-0.706299,0.294678
1519423799575,0.602295,-0.718750,0.297119
1519423799633,0.593018,-0.717285,0.292480
1519423799636,0.590820,-0.702637,0.289551
1519423799713,0.589355,-0.709717,0.287598
1519423799717,0.590576,-0.708740,0.287842
1519423799803,0.588379,-0.714355,0.280518
1519423799806,0.590332,-0.713379,0.282471
1519423799809,0.594727,-0.700439,0.284180
1519423799884,0.612549,-0.727295,0.295410
1519423799888,0.597656,-0.719727,0.276611
1519423799972,0.599365,-0.705322,0.281982
1519423799977,0.594238,-0.701660,0.274170
1519423799983,0.592285,-0.716797,0.275879
1519423800035,0.592529,-0.731201,0.273682
1519423800037,0.588867,-0.720947,0.273193
1519423800062,0.588135,-0.716553,0.275879
1519423800105,0.589111,-0.726318,0.269775
1519423800131,0.592285,-0.718262,0.268555
1519423800178,0.593506,-0.712402,0.267090
1519423800212,0.596924,-0.722900,0.266846
1519423800237,0.600342,-0.724609,0.262451
1519423800265,0.597656,-0.722168,0.257813
1519423800312,0.604492,-0.712646,0.256836
1519423800339,0.607422,-0.715576,0.261230
1519423800345,0.612061,-0.722412,0.255127
1519423800399,0.607178,-0.712402,0.257813
1519423800423,0.604004,-0.713867,0.256592
1519423800451,0.605225,-0.713379,0.257813
1519423800481,0.605469,-0.711426,0.256348
1519423800514,0.606934,-0.730469,0.252930
1519423800560,0.611328,-0.729492,0.255859
1519423800574,0.603516,-0.708252,0.254883
1519423800606,0.600098,-0.714844,0.252686
1519423800662,0.596436,-0.721191,0.254150
1519423800687,0.603760,-0.716309,0.256104
1519423800717,0.608398,-0.713623,0.256592
1519423800746,0.605957,-0.715820,0.251953
1519423800778,0.604004,-0.716309,0.257324
1519423800823,0.606689,-0.715088,0.257080
1519423800846,0.605469,-0.718018,0.255371
1519423800893,0.601074,-0.712891,0.254150
1519423800920,0.603760,-0.724609,0.250244
1519423800948,0.608154,-0.717285,0.257324
1519423800976,0.604248,-0.712402,0.254150
1519423801019,0.605469,-0.711914,0.250488
1519423801049,0.605225,-0.713379,0.253906
1519423801078,0.606689,-0.716797,0.250977
1519423801100,0.605469,-0.716797,0.246826
1519423801129,0.608643,-0.717041,0.251221
1519423801186,0.604248,-0.722168,0.253906
1519423801207,0.604248,-0.719238,0.252197
1519423801222,0.604248,-0.714355,0.253662
1519423801259,0.602539,-0.720459,0.254883
1519423801308,0.601074,-0.726318,0.254639
1519423801332,0.599121,-0.714111,0.254883
1519423801357,0.602783,-0.719727,0.253174
1519423801404,0.603027,-0.718994,0.253418
1519423801435,0.603271,-0.712891,0.253662
1519423801517,0.604004,-0.715088,0.251221
1519423801520,0.603027,-0.712158,0.253906
1519423801524,0.606689,-0.711182,0.247314
1519423801579,0.612793,-0.717773,0.245117
1519423801602,0.609863,-0.711670,0.240967
1519423801664,0.605469,-0.702637,0.234619
1519423801666,0.607178,-0.709961,0.237549
1519423801693,0.613525,-0.736572,0.246338
1519423801721,0.615234,-0.747803,0.251465
1519423801753,0.606689,-0.720215,0.255859
1519423801807,0.602783,-0.715088,0.248047
1519423801815,0.602295,-0.722168,0.241699
1519423801877,0.594971,-0.729736,0.241211
1519423801904,0.588867,-0.731445,0.240479
1519423801927,0.586426,-0.723877,0.238770
1519423801969,0.604248,-0.720459,0.241211
1519423801998,0.613281,-0.715088,0.247070
1519423802023,0.612549,-0.710449,0.246338
1519423802049,0.605469,-0.720947,0.246582
1519423802078,0.601807,-0.730713,0.245850
1519423802101,0.598633,-0.725586,0.240723
1519423802154,0.598633,-0.722168,0.242432
1519423802183,0.597900,-0.723145,0.243408
1519423802249,0.595215,-0.720215,0.245361
1519423802302,0.599365,-0.721924,0.243408
1519423802318,0.602783,-0.729980,0.247803
1519423802322,0.601563,-0.724609,0.246094
1519423802340,0.599121,-0.720215,0.245850
1519423802369,0.600586,-0.723389,0.244629
1519423802419,0.598389,-0.722168,0.249756
1519423802493,0.598389,-0.724121,0.247803
1519423802496,0.595947,-0.725586,0.244873
1519423802500,0.599121,-0.720947,0.247314
1519423802587,0.600830,-0.722656,0.250000
1519423802590,0.599854,-0.721680,0.249756
1519423802594,0.597412,-0.723389,0.249756
1519423802664,0.602295,-0.720703,0.251953
1519423802668,0.601074,-0.721436,0.248291
1519423802688,0.598145,-0.718506,0.247803
1519423802736,0.600586,-0.719238,0.248779
1519423802767,0.599854,-0.717529,0.249023
1519423802786,0.601074,-0.722900,0.250000
1519423802854,0.602295,-0.717285,0.247559
1519423802860,0.603271,-0.713623,0.252197
1519423802905,0.605957,-0.718506,0.252930
1519423802930,0.607178,-0.722412,0.250244
1519423802957,0.599854,-0.719482,0.254883
1519423802986,0.597168,-0.718750,0.253418
1519423803027,0.599365,-0.728516,0.253906
1519423803053,0.595947,-0.723633,0.253662
1519423803105,0.590332,-0.720215,0.248047
1519423803146,0.591309,-0.719482,0.251709
1519423803153,0.596680,-0.716553,0.247314
1519423803199,0.603027,-0.711182,0.247070
1519423803215,0.606201,-0.721924,0.243896
1519423803268,0.610352,-0.725098,0.248047
1519423803274,0.614014,-0.712158,0.248535
1519423803316,0.613281,-0.706299,0.251709
1519423803364,0.606689,-0.713379,0.252197
1519423803393,0.605225,-0.720215,0.247314
1519423803416,0.605469,-0.722412,0.243652
1519423803518,0.604492,-0.717529,0.248047
1519423803522,0.603760,-0.710693,0.251709
1519423803524,0.604004,-0.719727,0.253174
1519423803581,0.607422,-0.731934,0.244141
1519423803584,0.611816,-0.733398,0.235596
1519423803616,0.608398,-0.720703,0.248291
1519423803630,0.601074,-0.714844,0.246338
1519423803667,0.597412,-0.719727,0.243896
1519423803718,0.605469,-0.718994,0.241455
1519423803743,0.603027,-0.719238,0.241211
1519423803764,0.598145,-0.721436,0.239746
1519423803813,0.598145,-0.728027,0.244141
1519423803833,0.595947,-0.725830,0.244873
1519423803885,0.596436,-0.729248,0.242920
1519423803913,0.594971,-0.725098,0.240967
1519423803940,0.598145,-0.718018,0.244141
1519423803962,0.597900,-0.718994,0.244385
1519423804014,0.597412,-0.729980,0.244141
1519423804031,0.597656,-0.737305,0.243652
1519423804078,0.599365,-0.733154,0.239990
1519423804109,0.595947,-0.723389,0.237305
1519423804133,0.597900,-0.723389,0.238037
1519423804192,0.597656,-0.728760,0.239746
1519423804201,0.593506,-0.732422,0.232178
1519423804294,0.594238,-0.722900,0.234619
1519423804298,0.594238,-0.725342,0.238281
1519423804302,0.595459,-0.729004,0.238281
1519423804374,0.601563,-0.731689,0.232910
1519423804378,0.607422,-0.727539,0.229980
1519423804395,0.610596,-0.719238,0.231689
1519423804425,0.605957,-0.721436,0.234619
1519423804445,0.604004,-0.725830,0.235840
1519423804482,0.594727,-0.728027,0.237305
1519423804547,0.597900,-0.727539,0.235596
1519423804552,0.604980,-0.731201,0.234131
1519423804649,0.603271,-0.727295,0.233643
1519423804656,0.602539,-0.719971,0.232910
1519423804662,0.599121,-0.721191,0.236084
1519423804679,0.601563,-0.734131,0.232910
1519423804710,0.600830,-0.729980,0.230469
1519423804747,0.599854,-0.723145,0.230469
1519423804798,0.601074,-0.728271,0.229980
1519423804878,0.598877,-0.727539,0.229492
1519423804882,0.600342,-0.728760,0.233398
1519423804892,0.597900,-0.727051,0.231689
1519423804984,0.599854,-0.727295,0.231689
1519423804988,0.602051,-0.726563,0.233154
1519423804992,0.602539,-0.728516,0.233154
1519423805062,0.600098,-0.723877,0.231689
1519423805069,0.599365,-0.724121,0.230225
1519423805091,0.600830,-0.730713,0.232422
1519423805119,0.597656,-0.727783,0.232178
1519423805127,0.596191,-0.728027,0.229492
1519423805188,0.601807,-0.728027,0.230713
1519423805210,0.601807,-0.732910,0.230225
1519423805240,0.598145,-0.725342,0.228271
1519423805262,0.601074,-0.722412,0.224609
1519423805320,0.603760,-0.727539,0.229004
1519423805327,0.599854,-0.729492,0.231689
1519423805407,0.601074,-0.726318,0.227783
1519423805411,0.596680,-0.730713,0.229736
1519423805432,0.597412,-0.732422,0.229004
1519423805493,0.597168,-0.729736,0.229004
1519423805498,0.599854,-0.728760,0.231689
1519423805545,0.598145,-0.735596,0.229980
1519423805571,0.595459,-0.733154,0.228027
1519423805597,0.595703,-0.730957,0.230957
1519423805631,0.595215,-0.733887,0.230713
1519423805658,0.597656,-0.732178,0.227783
1519423805697,0.596436,-0.729492,0.230225
1519423805736,0.595459,-0.728516,0.229980
1519423805765,0.597656,-0.729248,0.230957
1519423805793,0.597900,-0.729492,0.229492
1519423805820,0.596924,-0.729004,0.229004
1519423805867,0.597900,-0.728027,0.231689
1519423805896,0.599365,-0.729492,0.228027
1519423805916,0.595459,-0.731445,0.228027
1519423805968,0.594971,-0.730469,0.229248
1519423805994,0.598389,-0.736084,0.228516
1519423806014,0.599609,-0.733398,0.229004
1519423806044,0.601807,-0.720947,0.227539
1519423806082,0.602539,-0.726074,0.227539
1519423806103,0.602783,-0.728271,0.226318
1519423806146,0.599121,-0.726074,0.228516
1519423806173,0.596191,-0.729492,0.226563
1519423806220,0.601074,-0.729492,0.227295
1519423806251,0.606445,-0.726318,0.226318
1519423806276,0.608887,-0.721680,0.225098
1519423806299,0.612549,-0.721436,0.224854
1519423806342,0.617676,-0.715576,0.221191
1519423806369,0.614502,-0.717773,0.224121
1519423806414,0.607910,-0.726807,0.230469
1519423806445,0.601807,-0.738037,0.223145
1519423806487,0.599365,-0.732422,0.222168
1519423806500,0.602783,-0.730469,0.227539
1519423806537,0.606934,-0.727295,0.223877
1519423806578,0.604248,-0.715088,0.221924
1519423806605,0.608887,-0.715088,0.224121
1519423806649,0.613525,-0.726318,0.225586
1519423806653,0.610596,-0.717285,0.227539
1519423806692,0.613770,-0.718018,0.224609
1519423806735,0.615723,-0.718750,0.227295
1519423806765,0.616211,-0.717773,0.226318
1519423806796,0.614746,-0.712891,0.228760
1519423806828,0.612061,-0.719238,0.225342
1519423806856,0.602295,-0.725586,0.229492
1519423806914,0.598633,-0.728760,0.233643
1519423806936,0.603760,-0.728760,0.231934
1519423806966,0.605469,-0.721924,0.228516
1519423806999,0.609131,-0.727539,0.229492
1519423807028,0.611572,-0.722412,0.227783
1519423807055,0.615723,-0.718018,0.228760
1519423807097,0.612793,-0.719238,0.228271
1519423807147,0.601807,-0.719971,0.229248
1519423807169,0.599854,-0.720947,0.229736
1519423807197,0.599609,-0.723633,0.229004
1519423807235,0.601074,-0.726318,0.230469
1519423807261,0.604492,-0.726318,0.232178
1519423807287,0.602295,-0.724609,0.233398
1519423807314,0.601563,-0.725586,0.229004
1519423807375,0.605957,-0.728271,0.232910
1519423807395,0.604492,-0.724609,0.231201
1519423807433,0.603271,-0.713867,0.231689
1519423807440,0.606445,-0.716797,0.232910
1519423807479,0.611328,-0.722168,0.230469
1519423807537,0.616211,-0.717773,0.227295
1519423807544,0.610596,-0.723877,0.229248
1519423807580,0.605713,-0.723633,0.229492
1519423807603,0.604004,-0.723145,0.229980
1519423807635,0.603027,-0.724365,0.231934
1519423807681,0.600830,-0.721436,0.235596
1519423807700,0.599854,-0.725830,0.229736
1519423807745,0.601318,-0.726563,0.232910
1519423807764,0.602295,-0.723145,0.230957
1519423807808,0.609619,-0.724609,0.227295
1519423807844,0.610352,-0.730225,0.233154
1519423807879,0.606445,-0.723145,0.233154
1519423807904,0.606201,-0.719238,0.233154
1519423807929,0.603760,-0.726563,0.232666
1519423807974,0.599854,-0.729004,0.230957
1519423807996,0.597656,-0.728027,0.234619
1519423808049,0.598633,-0.725342,0.234863
1519423808057,0.599121,-0.728516,0.236572
1519423808117,0.600586,-0.723877,0.233887
1519423808148,0.598877,-0.721191,0.238281
1519423808154,0.599121,-0.725098,0.232178
1519423808202,0.599854,-0.725586,0.232422
1519423808224,0.599854,-0.725342,0.237549
1519423808269,0.597412,-0.721680,0.237305
1519423808294,0.604980,-0.724121,0.233887
1519423808320,0.600586,-0.720703,0.237305
1519423808345,0.600586,-0.721436,0.237061
1519423808379,0.601807,-0.732910,0.231445
1519423808427,0.603027,-0.727295,0.235840
1519423808447,0.599365,-0.718262,0.232910
1519423808492,0.602051,-0.726807,0.236816
1519423808515,0.597900,-0.733398,0.234619
1519423808560,0.593750,-0.730957,0.234863
1519423808589,0.595215,-0.730469,0.233643
1519423808613,0.596924,-0.731934,0.236084
1519423808664,0.596191,-0.729492,0.231445
1519423808694,0.597168,-0.727051,0.234619
1519423808724,0.596191,-0.732422,0.234375
1519423808747,0.596436,-0.734131,0.230225
1519423808793,0.597656,-0.730225,0.227783
1519423808816,0.595703,-0.729248,0.227783
1519423808835,0.591797,-0.729736,0.229736
1519423808892,0.592285,-0.733398,0.229492
1519423808915,0.590576,-0.733643,0.228516
1519423808943,0.596680,-0.733887,0.227783
1519423808984,0.599609,-0.737305,0.231445
1519423809008,0.596924,-0.729736,0.230225
1519423809028,0.595459,-0.727539,0.228271
1519423809080,0.592773,-0.732666,0.228516
1519423809105,0.594482,-0.732666,0.228271
1519423809130,0.597168,-0.734863,0.227539
1519423809158,0.596436,-0.735352,0.229980
1519423809204,0.598633,-0.732910,0.229736
1519423809226,0.596924,-0.731445,0.229004
1519423809281,0.593994,-0.729004,0.231934
1519423809303,0.589111,-0.737061,0.231445
1519423809328,0.583740,-0.735107,0.230713
1519423809379,0.592041,-0.736572,0.237061
1519423809399,0.592529,-0.730469,0.234131
1519423809427,0.590820,-0.729248,0.235107
1519423809467,0.592285,-0.730713,0.237061
1519423809489,0.595215,-0.737305,0.232666
1519423809546,0.591064,-0.734131,0.231934
1519423809632,0.596436,-0.739014,0.235840
1519423809636,0.597168,-0.741943,0.233154
1519423809640,0.592529,-0.738525,0.231201
1519423809708,0.593750,-0.731201,0.234375
1519423809711,0.591309,-0.729980,0.237061
1519423809713,0.592773,-0.732178,0.235107
1519423809815,0.584229,-0.731201,0.233154
1519423809819,0.583984,-0.739746,0.233887
1519423809822,0.582764,-0.739990,0.237305
1519423809903,0.582520,-0.738525,0.239258
1519423809906,0.583740,-0.739258,0.238037
1519423809909,0.583496,-0.737061,0.238037
1519423809965,0.584717,-0.736084,0.238770
1519423809985,0.587158,-0.740723,0.239990
1519423810065,0.581787,-0.739990,0.237549
1519423810072,0.578857,-0.740967,0.236572
1519423810078,0.580566,-0.740723,0.236328
1519423810114,0.582031,-0.735352,0.239014
1519423810145,0.583496,-0.734619,0.237793
1519423810184,0.583740,-0.734131,0.239502
1519423810234,0.586914,-0.742920,0.236328
1519423810259,0.587402,-0.740723,0.240723
1519423810273,0.587158,-0.731445,0.241943
1519423810338,0.584473,-0.733887,0.241943
1519423810342,0.579346,-0.740967,0.244385
1519423810433,0.579590,-0.740234,0.249023
1519423810437,0.579346,-0.738525,0.245850
1519423810441,0.587891,-0.732178,0.245361
1519423810517,0.594238,-0.733398,0.248779
1519423810521,0.588379,-0.731201,0.247803
1519423810547,0.587402,-0.730469,0.247559
1519423810572,0.585205,-0.734131,0.247070
1519423810595,0.583984,-0.737061,0.245117
1519423810641,0.584473,-0.732422,0.241455
1519423810662,0.582275,-0.732666,0.244873
1519423810692,0.584717,-0.735352,0.241455
1519423810755,0.583008,-0.736572,0.246826
1519423810762,0.583984,-0.732910,0.248047
1519423810814,0.588623,-0.734375,0.244141
1519423810826,0.584473,-0.731445,0.247559
1519423810855,0.583740,-0.732422,0.250488
1519423810886,0.585449,-0.741455,0.249268
1519423810932,0.583984,-0.731689,0.251709
1519423810953,0.584961,-0.732422,0.250244
1519423810996,0.582764,-0.735107,0.252930
1519423811027,0.584473,-0.731689,0.252930
1519423811054,0.583740,-0.732422,0.251221
1519423811100,0.583740,-0.731934,0.249512
1519423811114,0.587646,-0.730957,0.253906
1519423811162,0.588867,-0.722900,0.252686
1519423811187,0.591797,-0.725342,0.254150
1519423811243,0.596924,-0.729004,0.255615
1519423811262,0.596680,-0.731934,0.257324
1519423811286,0.595459,-0.731201,0.256348
1519423811315,0.592529,-0.722900,0.258301
1519423811364,0.589355,-0.722900,0.259277
1519423811368,0.586670,-0.727539,0.261230
1519423811473,0.587158,-0.730957,0.260254
1519423811480,0.585205,-0.728760,0.264160
1519423811490,0.583984,-0.728516,0.263916
1519423811563,0.580566,-0.729736,0.259277
1519423811567,0.576172,-0.729492,0.263184
1519423811571,0.584229,-0.725098,0.258301
1519423811663,0.593018,-0.724854,0.257324
1519423811667,0.596436,-0.725342,0.263428
1519423811671,0.592041,-0.721436,0.260498
1519423811730,0.591797,-0.722656,0.261230
1519423812122,0.588867,-0.722656,0.264160
1519423812146,0.586670,-0.725342,0.267578
1519423812174,0.580322,-0.731689,0.263428
1519423812185,0.582031,-0.730957,0.265381
1519423812188,0.584717,-0.730713,0.265869
1519423812191,0.586182,-0.724609,0.266602
1519423812193,0.585449,-0.726074,0.266602
1519423812195,0.586426,-0.728027,0.265625
1519423812197,0.588623,-0.728027,0.264160
1519423812199,0.587646,-0.729004,0.263916
1519423812201,0.584229,-0.726807,0.267090
1519423812203,0.584473,-0.727539,0.265381
1519423812204,0.582764,-0.729980,0.266602
1519423812206,0.584229,-0.728760,0.263428
1519423812211,0.585938,-0.732422,0.263184
1519423812213,0.586914,-0.732422,0.267334
1519423812257,0.585449,-0.726807,0.267334
1519423812307,0.589844,-0.728027,0.266357
1519423812311,0.583252,-0.720703,0.268311
1519423812365,0.583740,-0.722168,0.269043
1519423812391,0.588867,-0.726074,0.264648
1519423812421,0.590332,-0.728271,0.267334
1519423812448,0.593018,-0.723145,0.265137
1519423812492,0.593506,-0.721191,0.267090
1519423812515,0.594727,-0.717285,0.262695
1519423812564,0.594727,-0.712891,0.262207
1519423812589,0.594482,-0.721436,0.270752
1519423812614,0.590820,-0.726074,0.261230
1519423812656,0.586426,-0.729736,0.255371
1519423812679,0.595459,-0.731445,0.276367
1519423812733,0.605713,-0.729248,0.285645
1519423812758,0.610107,-0.714844,0.258789
1519423812787,0.604004,-0.705566,0.256592
1519423812817,0.600342,-0.686035,0.266602
1519423812847,0.596924,-0.694824,0.254639
1519423812875,0.595703,-0.730713,0.256104
1519423812914,0.600342,-0.725342,0.264404
1519423812943,0.592773,-0.721680,0.256836
1519423812991,0.590332,-0.717041,0.249268
1519423812995,0.587891,-0.716309,0.260498
1519423813040,0.581787,-0.717773,0.261475
1519423813086,0.596436,-0.724854,0.234863
1519423813110,0.602051,-0.729980,0.233643
1519423813131,0.601807,-0.738525,0.251465
1519423813163,0.597412,-0.751709,0.226807
1519423813196,0.595215,-0.738770,0.230957
1519423813228,0.599609,-0.725098,0.240479
1519423813269,0.602051,-0.724121,0.220947
1519423813292,0.605225,-0.726318,0.218262
1519423813349,0.601807,-0.734375,0.232666
1519423813385,0.602051,-0.732178,0.209717
1519423813415,0.599609,-0.730957,0.215820
1519423813440,0.605713,-0.722656,0.229980
1519423813467,0.611084,-0.730713,0.212891
1519423813490,0.613770,-0.723389,0.212646
1519423813533,0.618408,-0.715820,0.222900
1519423813580,0.599365,-0.731934,0.222656
1519423813605,0.590820,-0.733154,0.223633
1519423813608,0.600586,-0.730469,0.222412
1519423813660,0.612549,-0.721680,0.206055
1519423813705,0.612793,-0.732666,0.205566
1519423813710,0.604248,-0.724121,0.213135
1519423813760,0.602539,-0.727539,0.222900
1519423813788,0.624512,-0.715820,0.213135
1519423813810,0.625977,-0.711426,0.203857
1519423813846,0.633545,-0.699463,0.207275
1519423813876,0.619385,-0.716309,0.217285
1519423813920,0.616699,-0.719482,0.223389
1519423813948,0.627686,-0.742676,0.202881
1519423814034,0.628418,-0.710205,0.202637
1519423814039,0.628418,-0.702148,0.208984
1519423814050,0.614502,-0.713867,0.217041
1519423814115,0.610107,-0.699707,0.216309
1519423814119,0.625000,-0.732910,0.200439
1519423814140,0.644531,-0.717773,0.204834
1519423814192,0.638428,-0.718750,0.219971
1519423814220,0.622559,-0.701660,0.223877
1519423814242,0.606445,-0.686523,0.221924
1519423814290,0.639893,-0.719971,0.197998
1519423814315,0.648193,-0.749023,0.184570
1519423814343,0.650391,-0.678711,0.201416
1519423814372,0.639160,-0.686523,0.217529
1519423814395,0.621094,-0.692627,0.221436
1519423814447,0.635010,-0.710449,0.208984
1519423814483,0.646973,-0.728516,0.198242
1519423814491,0.631592,-0.690186,0.188721
1519423814551,0.639893,-0.691406,0.206543
1519423814556,0.635986,-0.723389,0.209717
1519423814602,0.625000,-0.716064,0.213867
1519423814629,0.656982,-0.712646,0.192871
1519423814665,0.662598,-0.693115,0.200439
1519423814694,0.652588,-0.670898,0.211182
1519423814721,0.641357,-0.709717,0.217773
1519423814767,0.627686,-0.726563,0.214355
1519423814791,0.635010,-0.702148,0.199463
1519423814833,0.645020,-0.689941,0.208008
1519423814848,0.645996,-0.687500,0.220947
1519423814903,0.654053,-0.686279,0.222656
1519423814932,0.656494,-0.696289,0.218506
1519423814955,0.651855,-0.691650,0.222900
1519423814985,0.650635,-0.680908,0.224609
1519423815027,0.657227,-0.672607,0.237549
1519423815055,0.644287,-0.685547,0.237305
1519423815098,0.628418,-0.685303,0.229492
1519423815126,0.641846,-0.684326,0.232178
1519423815153,0.641357,-0.696289,0.240479
1519423815182,0.642822,-0.688965,0.241943
1519423815257,0.667969,-0.686523,0.244385
1519423815260,0.648926,-0.702637,0.248535
1519423815272,0.632080,-0.688232,0.244385
1519423815350,0.632080,-0.684570,0.245361
1519423815352,0.622314,-0.698242,0.261230
1519423815433,0.618408,-0.692627,0.258057
1519423815436,0.618164,-0.705811,0.270020
1519423815437,0.609375,-0.731934,0.270996
1519423815478,0.597412,-0.737793,0.273438
1519423815525,0.597168,-0.714600,0.281982
1519423815551,0.603271,-0.706543,0.284912
1519423815581,0.616943,-0.711914,0.280762
1519423815603,0.643555,-0.729004,0.251221
1519423815654,0.614746,-0.694092,0.248779
1519423815667,0.627441,-0.677002,0.288086
1519423815705,0.613770,-0.709473,0.298584
1519423815736,0.568604,-0.680664,0.295898
1519423815789,0.487061,-0.733398,0.344238
1519423815816,0.534912,-0.750977,0.348145
1519423815898,0.603027,-0.700195,0.318848
1519423815902,0.666748,-0.656738,0.268066
1519423815908,0.605469,-0.677002,0.275391
1519423815968,0.578857,-0.683838,0.313477
1519423815973,0.538330,-0.713135,0.342529
1519423816063,0.539307,-0.774170,0.316650
1519423816067,0.550781,-0.773438,0.320313
1519423816077,0.573242,-0.709473,0.318115
1519423816116,0.583496,-0.676025,0.320557
1519423816122,0.575439,-0.725830,0.306396
1519423816151,0.569336,-0.739502,0.312012
1519423816194,0.568115,-0.714355,0.307129
1519423816232,0.570557,-0.697266,0.321289
1519423816253,0.587158,-0.707520,0.295410
1519423816318,0.614990,-0.718750,0.298096
1519423816321,0.630127,-0.703125,0.298584
1519423816346,0.613037,-0.693359,0.279785
1519423816389,0.613770,-0.681396,0.305908
1519423816421,0.593750,-0.707275,0.325439
1519423816447,0.580566,-0.736328,0.287109
1519423816499,0.579346,-0.705078,0.294922
1519423816521,0.596191,-0.686523,0.304443
1519423816547,0.569824,-0.716553,0.298584
1519423816588,0.581055,-0.719482,0.285645
1519423816616,0.589111,-0.715576,0.302490
1519423816697,0.581787,-0.724609,0.286621
1519423816701,0.593994,-0.725586,0.260498
1519423816710,0.638672,-0.713135,0.246338
1519423816789,0.618652,-0.728271,0.260254
1519423816793,0.601563,-0.702148,0.254883
1519423816866,0.594238,-0.703857,0.260986
1519423816870,0.595215,-0.714844,0.265869
1519423816878,0.593262,-0.718506,0.254395
1519423816913,0.586182,-0.729004,0.251953
1519423816940,0.577637,-0.738525,0.239990
1519423816988,0.561279,-0.755371,0.223877
1519423817010,0.568115,-0.767334,0.219727
1519423817039,0.580322,-0.752197,0.217041
1519423817092,0.597656,-0.702637,0.212158
1519423817095,0.626709,-0.690186,0.218506
1519423817143,0.650146,-0.692871,0.224121
1519423817172,0.663086,-0.694824,0.216064
1519423817203,0.663086,-0.699951,0.203613
1519423817240,0.666260,-0.707031,0.213135
1519423817266,0.646484,-0.717041,0.211914
1519423817293,0.637207,-0.728760,0.207031
1519423817344,0.635010,-0.734375,0.203613
1519423817371,0.634033,-0.692139,0.203613
1519423817416,0.641357,-0.675537,0.196045
1519423817442,0.647217,-0.701660,0.186279
1519423817468,0.626709,-0.736084,0.194580
1519423817494,0.615234,-0.741943,0.190186
1519423817555,0.613281,-0.752197,0.179199
1519423817579,0.631348,-0.735352,0.192627
1519423817606,0.622070,-0.708740,0.192627
1519423817632,0.610352,-0.719482,0.199219
1519423817658,0.615479,-0.739746,0.198242
1519423817705,0.608887,-0.729248,0.198975
1519423817709,0.604980,-0.721924,0.207520
1519423817781,0.611572,-0.726074,0.204590
1519423817785,0.612305,-0.729980,0.197510
1519423817810,0.608398,-0.722412,0.200684
1519423817869,0.610352,-0.685791,0.218750
1519423817874,0.624023,-0.681152,0.217041
1519423817907,0.641846,-0.686279,0.207031
1519423817949,0.660645,-0.695557,0.210693
1519423817976,0.652344,-0.703125,0.215820
1519423818025,0.648438,-0.710205,0.212891
1519423818054,0.648438,-0.700195,0.213867
1519423818082,0.654053,-0.697266,0.218994
1519423818110,0.648438,-0.693848,0.211914
1519423818140,0.645508,-0.697754,0.218506
1519423818192,0.642578,-0.707520,0.222656
1519423818195,0.635986,-0.702637,0.223877
1519423818239,0.631592,-0.696777,0.215332
1519423818269,0.637207,-0.696045,0.211914
1519423818319,0.643799,-0.698730,0.218506
1519423818344,0.643066,-0.693604,0.211182
1519423818393,0.643311,-0.690186,0.214844
1519423818405,0.643311,-0.690186,0.214111
1519423818445,0.644287,-0.693359,0.211670
1519423818471,0.646484,-0.688965,0.218506
1519423818505,0.643066,-0.697266,0.220947
1519423818558,0.640625,-0.697510,0.223633
1519423818561,0.642822,-0.697998,0.227051
1519423818601,0.637451,-0.694580,0.225830
1519423818629,0.641113,-0.698975,0.220703
1519423818655,0.638428,-0.698486,0.222412
1519423818704,0.640381,-0.697754,0.225098
1519423818726,0.633789,-0.705811,0.226318
1519423818773,0.626953,-0.707520,0.230469
1519423818793,0.623535,-0.711670,0.231201
1519423818845,0.624756,-0.713623,0.233398
1519423818854,0.617676,-0.710938,0.233398
1519423818901,0.612549,-0.707520,0.235596
1519423818926,0.611328,-0.713867,0.234863
1519423818976,0.609131,-0.721924,0.236084
1519423818998,0.607910,-0.720947,0.236572
1519423819021,0.604248,-0.718994,0.238037
1519423819049,0.614258,-0.717773,0.241455
1519423819089,0.625244,-0.719482,0.247314
1519423819132,0.619629,-0.702148,0.239258
1519423819154,0.604248,-0.697021,0.238525
1519423819176,0.604248,-0.700928,0.247559
1519423819226,0.614502,-0.714111,0.241699
1519423819255,0.604492,-0.724609,0.237793
1519423819280,0.600586,-0.718018,0.240967
1519423819319,0.598389,-0.715576,0.253662
1519423819333,0.603516,-0.725342,0.248779
1519423819383,0.605225,-0.726563,0.247559
1519423819410,0.602295,-0.719727,0.249023
1519423819438,0.599365,-0.712646,0.244873
1519423819469,0.600586,-0.720703,0.246826
1519423819512,0.602783,-0.729248,0.249756
1519423819537,0.600342,-0.725342,0.245605
1519423819576,0.603271,-0.723145,0.246826
1519423819617,0.603027,-0.718750,0.246094
1519423819643,0.603760,-0.716553,0.246582
1519423819670,0.607178,-0.720703,0.247803
1519423819718,0.602783,-0.717773,0.244873
1519423819742,0.602051,-0.716064,0.242920
1519423819773,0.600586,-0.721191,0.244873
1519423819810,0.607422,-0.718750,0.245361
1519423819835,0.608643,-0.712402,0.246094
1519423819885,0.611328,-0.711914,0.247314
1519423819906,0.612549,-0.716553,0.244141
1519423819933,0.609619,-0.714600,0.244385
1519423819959,0.611328,-0.715820,0.248291
1519423820012,0.609863,-0.714355,0.242920
1519423820022,0.611084,-0.715332,0.246094
1519423820047,0.606934,-0.717529,0.244873
1519423820116,0.604004,-0.724121,0.241699
1519423820121,0.604004,-0.724121,0.245117
1519423820164,0.603760,-0.723389,0.246094
1519423820186,0.601563,-0.721191,0.244629
1519423820233,0.601074,-0.717529,0.245605
1519423820313,0.600586,-0.718750,0.245850
1519423820316,0.600830,-0.721924,0.244385
1519423820318,0.598877,-0.722900,0.245605
1519423820389,0.604980,-0.719238,0.242432
1519423820391,0.605469,-0.720947,0.240234
1519423820483,0.602295,-0.724854,0.245117
1519423820485,0.604492,-0.723877,0.246582
1519423820487,0.609863,-0.722412,0.242920
1519423820561,0.605469,-0.723145,0.247314
1519423820562,0.602295,-0.720703,0.248291
1519423820587,0.596924,-0.720215,0.241211
1519423820615,0.600830,-0.719727,0.242432
1519423820656,0.607422,-0.722168,0.248535
1519423820678,0.601563,-0.704590,0.244873
1519423820723,0.608887,-0.705322,0.241699
1519423820728,0.609375,-0.713623,0.245850
1519423820786,0.616211,-0.716309,0.249023
1519423820812,0.614258,-0.714844,0.250977
1519423820842,0.606201,-0.719971,0.247314
1519423820941,0.605713,-0.718262,0.244385
1519423820944,0.607666,-0.710938,0.244873
1519423820947,0.610352,-0.711182,0.243164
1519423821040,0.612061,-0.711914,0.246338
1519423821044,0.614746,-0.712402,0.248779
1519423821108,0.614990,-0.714600,0.249023
1519423821113,0.610107,-0.713379,0.244873
1519423821116,0.606934,-0.712891,0.246826
1519423821136,0.606445,-0.717041,0.246582
1519423821181,0.606445,-0.715820,0.241211
1519423821206,0.605469,-0.716553,0.245605
1519423821236,0.607910,-0.717041,0.245117
1519423821263,0.616455,-0.718506,0.250244
1519423821300,0.611816,-0.715576,0.240967
1519423821328,0.602295,-0.711182,0.246826
1519423821415,0.601563,-0.723145,0.243652
1519423821418,0.604980,-0.728760,0.243896
1519423821421,0.604004,-0.717285,0.242188
1519423821485,0.604736,-0.712402,0.244385
1519423821514,0.609131,-0.721924,0.249268
1519423821518,0.607178,-0.717285,0.240967
1519423821578,0.606689,-0.717041,0.244385
1519423821581,0.606689,-0.713867,0.244629
1519423821667,0.605957,-0.714844,0.233887
1519423821672,0.604004,-0.716064,0.235352
1519423821748,0.600098,-0.718506,0.237549
1519423821753,0.601074,-0.727295,0.238037
1519423821757,0.608398,-0.724365,0.239502
1519423821801,0.614014,-0.718018,0.239502
1519423821827,0.613525,-0.715576,0.238037
1519423821853,0.610352,-0.716309,0.237305
1519423821874,0.612549,-0.717041,0.235352
1519423821923,0.610840,-0.719482,0.235596
1519423821964,0.611084,-0.722412,0.236328
1519423821991,0.614258,-0.717773,0.233887
1519423822017,0.613281,-0.713135,0.235596
1519423822043,0.613525,-0.714111,0.232666
1519423822109,0.614502,-0.718994,0.230225
1519423822137,0.615967,-0.722656,0.230469
1519423822161,0.609619,-0.718506,0.229736
1519423822186,0.607178,-0.716797,0.230225
1519423822216,0.607422,-0.719238,0.226807
1519423822241,0.607178,-0.724121,0.228516
1519423822294,0.605957,-0.722900,0.226318
1519423822320,0.602539,-0.728271,0.227295
1519423822350,0.602051,-0.728516,0.225098
1519423822377,0.606689,-0.724365,0.230957
1519423822423,0.608887,-0.722168,0.225830
1519423822457,0.605469,-0.726074,0.218750
1519423822465,0.608154,-0.721191,0.219971
1519423822503,0.613770,-0.720459,0.219727
1519423822525,0.612549,-0.714600,0.219238
1519423822566,0.616455,-0.717041,0.218018
1519423822592,0.620117,-0.727783,0.218018
1519423822650,0.613525,-0.724609,0.222412
1519423822655,0.611328,-0.722656,0.218018
1519423822701,0.611572,-0.723877,0.219971
1519423822721,0.608887,-0.725830,0.221924
1519423822819,0.607910,-0.727295,0.220947
1519423822820,0.608643,-0.724365,0.219971
1519423822826,0.610840,-0.720703,0.220703
1519423822865,0.611084,-0.722412,0.218994
1519423822892,0.610352,-0.726563,0.221436
1519423822922,0.611572,-0.729980,0.220459
1519423822978,0.608154,-0.717529,0.219238
1519423822982,0.608398,-0.716309,0.220703
1519423823020,0.608887,-0.729004,0.221924
1519423823068,0.606201,-0.727295,0.223145
1519423823078,0.606934,-0.721191,0.227295
1519423823143,0.605225,-0.727051,0.220459
1519423823148,0.603760,-0.731201,0.225586
1519423823176,0.606445,-0.727783,0.227295
1519423823218,0.609131,-0.724365,0.225830
1519423823241,0.604248,-0.724121,0.223145
1519423823282,0.606201,-0.723389,0.225342
1519423823311,0.607666,-0.723389,0.226318
1519423823342,0.610596,-0.724854,0.224609
1519423823371,0.611328,-0.723633,0.226807
1519423823415,0.611328,-0.719238,0.230957
1519423823440,0.609619,-0.722168,0.230469
1519423823525,0.606445,-0.722900,0.231201
1519423823531,0.601318,-0.726807,0.232178
1519423823594,0.599609,-0.724854,0.229980
1519423823598,0.603516,-0.724854,0.233154
1519423823685,0.604492,-0.724854,0.233643
1519423823687,0.603027,-0.725098,0.233643
1519423823689,0.601318,-0.724365,0.237305
1519423823706,0.604736,-0.722412,0.236572
1519423823757,0.609131,-0.719727,0.235840
1519423823760,0.606934,-0.714111,0.239746
1519423823804,0.602539,-0.725098,0.234619
1519423823832,0.598389,-0.725098,0.234863
1519423823855,0.597656,-0.722412,0.238281
1519423823917,0.598633,-0.722168,0.236084
1519423823922,0.602539,-0.724365,0.231934
1519423823969,0.604980,-0.722656,0.232666
1519423823993,0.607422,-0.721924,0.232422
1519423824038,0.610352,-0.723633,0.231201
1519423824061,0.609131,-0.720703,0.233887
1519423824102,0.607910,-0.723389,0.231689
1519423824137,0.604492,-0.724121,0.231689
1519423824167,0.604492,-0.722412,0.234131
1519423824191,0.602295,-0.719971,0.230469
1519423824219,0.606689,-0.727295,0.235107
1519423824254,0.605225,-0.730469,0.234863
1519423824297,0.604004,-0.725342,0.231934
1519423824319,0.607178,-0.721680,0.232666
1519423824349,0.611328,-0.721680,0.233887
1519423824394,0.608398,-0.721680,0.231445
1519423824422,0.607422,-0.721680,0.233887
1519423824506,0.604004,-0.717285,0.230957
1519423824510,0.609375,-0.721436,0.231934
1519423824532,0.611572,-0.723877,0.233643
1519423824536,0.609863,-0.715820,0.233643
1519423824593,0.614990,-0.714844,0.233398
1519423824620,0.609619,-0.719727,0.232178
1519423824681,0.610352,-0.720947,0.233398
1519423824685,0.607910,-0.721680,0.235840
1519423824771,0.608154,-0.716553,0.233643
1519423824777,0.607910,-0.718018,0.233398
1519423824785,0.604004,-0.718750,0.232422
1519423824799,0.606689,-0.716797,0.233398
1519423824829,0.606445,-0.720947,0.236084
1519423824895,0.605469,-0.726807,0.231689
1519423824906,0.609375,-0.719727,0.234375
1519423824933,0.608398,-0.719482,0.235596
1519423824980,0.604492,-0.725098,0.232178
1519423825006,0.607666,-0.719238,0.233643
1519423825032,0.612061,-0.718750,0.233398
1519423825078,0.604736,-0.720703,0.230713
1519423825109,0.608643,-0.724121,0.232422
1519423825137,0.609131,-0.717529,0.232666
1519423825174,0.613037,-0.716309,0.234619
1519423825204,0.617676,-0.718018,0.235352
1519423825241,0.611328,-0.718506,0.235352
1519423825272,0.605225,-0.720459,0.234863
1519423825351,0.604492,-0.728760,0.231934
1519423825354,0.605469,-0.724609,0.237549
1519423825372,0.608887,-0.712646,0.235107
1519423825440,0.609131,-0.717773,0.232422
1519423825444,0.606934,-0.720947,0.234131
1519423825466,0.603027,-0.727539,0.235352
1519423825523,0.598145,-0.726807,0.236084
1519423825527,0.602783,-0.728271,0.234619
1519423825618,0.605225,-0.722412,0.234131
1519423825621,0.603027,-0.724121,0.235352
1519423825632,0.601563,-0.722656,0.235352
1519423825666,0.602539,-0.728027,0.235107
1519423825676,0.602051,-0.725830,0.236816
1519423825720,0.601807,-0.720215,0.235352
1519423825807,0.604004,-0.723389,0.235107
1519423825814,0.603516,-0.721436,0.230469
1519423825818,0.607422,-0.717773,0.228027
1519423825890,0.608887,-0.717529,0.229248
1519423825894,0.610840,-0.724854,0.233887
1519423825972,0.608887,-0.723877,0.230469
1519423825976,0.608643,-0.718506,0.228027
1519423825980,0.611816,-0.721191,0.232422
1519423826006,0.609131,-0.722656,0.231201
1519423826052,0.601807,-0.723145,0.229492
1519423826083,0.606201,-0.725586,0.228027
1519423826131,0.611328,-0.726807,0.231689
1519423826154,0.607910,-0.720459,0.231689
1519423826187,0.608154,-0.721924,0.227295
1519423826211,0.606445,-0.726563,0.227539
1519423826240,0.604492,-0.725830,0.227051
1519423826288,0.603760,-0.723145,0.229980
1519423826293,0.606445,-0.723877,0.225586
1519423826362,0.609863,-0.724609,0.229492
1519423826366,0.604736,-0.723633,0.228760
1519423826408,0.605469,-0.725830,0.227295
1519423826459,0.604004,-0.725586,0.228516
1519423826466,0.605957,-0.726318,0.227051
1519423826489,0.605957,-0.723633,0.229004
1519423826530,0.606445,-0.722412,0.232422
1519423826570,0.605225,-0.721924,0.231201
1519423826600,0.606689,-0.722900,0.231689
1519423826635,0.608887,-0.722656,0.230225
1519423826662,0.611084,-0.720215,0.233887
1519423826701,0.612305,-0.720459,0.236328
1519423826723,0.606201,-0.718018,0.233887
1519423826760,0.610107,-0.723389,0.235352
1519423826813,0.614014,-0.723145,0.233154
1519423827085,0.610107,-0.715820,0.237793
1519423827111,0.606689,-0.710449,0.239014
1519423827144,0.607910,-0.708252,0.234131
1519423827170,0.614258,-0.719727,0.236816
1519423827197,0.612061,-0.721680,0.234619
1519423827224,0.610107,-0.716553,0.235352
1519423827226,0.611328,-0.719482,0.238281
1519423827227,0.617188,-0.716309,0.239746
1519423827228,0.614990,-0.711182,0.236816
1519423827239,0.614014,-0.711182,0.234375
1519423827242,0.615234,-0.703857,0.237793
1519423827244,0.620605,-0.704102,0.239746
1519423827245,0.617432,-0.713379,0.244873
1519423827247,0.613037,-0.719971,0.240479
1519423827274,0.611816,-0.721680,0.242676
1519423827315,0.609619,-0.712891,0.243652
1519423827345,0.604248,-0.718262,0.243896
1519423827408,0.600586,-0.720215,0.244141
1519423827412,0.603760,-0.728271,0.242676
1519423827436,0.606689,-0.717285,0.240723
1519423827499,0.611084,-0.709961,0.243896
1519423827519,0.609131,-0.713379,0.239990
1519423827582,0.609619,-0.718506,0.236084
1519423827586,0.612793,-0.716064,0.241699
1519423827606,0.613770,-0.711670,0.245117
1519423827635,0.620850,-0.710205,0.238770
1519423827679,0.629883,-0.703613,0.241455
1519423827706,0.630859,-0.705566,0.242676
1519423827739,0.615967,-0.698486,0.246338
1519423827753,0.612305,-0.712891,0.252686
1519423827809,0.615479,-0.719482,0.253662
1519423827836,0.616943,-0.712646,0.241699
1519423827863,0.611084,-0.705078,0.239502
1519423827909,0.622314,-0.702148,0.255127
1519423827919,0.635010,-0.700439,0.240967
1519423827960,0.629395,-0.684326,0.247314
1519423827986,0.641602,-0.691162,0.270996
1519423828019,0.635010,-0.699463,0.231934
1519423828063,0.625244,-0.699219,0.229492
1519423828089,0.622803,-0.679688,0.273193
1519423828118,0.617432,-0.697754,0.251709
1519423828167,0.624512,-0.707031,0.244385
1519423828193,0.633789,-0.697510,0.260498
1519423828221,0.628418,-0.688965,0.255859
1519423828264,0.619141,-0.694336,0.255615
1519423828289,0.616699,-0.710449,0.253662
1519423828317,0.620361,-0.702637,0.263672
1519423828366,0.622070,-0.693359,0.255859
1519423828387,0.628174,-0.695557,0.256592
1519423828434,0.631836,-0.708252,0.258057
1519423828465,0.624268,-0.702393,0.247559
1519423828490,0.622070,-0.693848,0.256836
1519423828538,0.613525,-0.718750,0.255859
1519423828543,0.614990,-0.718994,0.239502
1519423828585,0.625977,-0.695557,0.258057
1519423828618,0.625000,-0.681152,0.259521
1519423828638,0.626465,-0.693848,0.247559
1519423828691,0.632324,-0.700928,0.244873
1519423828700,0.628418,-0.699463,0.249512
1519423828734,0.626953,-0.702881,0.250732
1519423828766,0.628418,-0.703613,0.247070
1519423828810,0.623535,-0.696777,0.243164
1519423828835,0.609375,-0.699951,0.241943
1519423828866,0.619385,-0.719238,0.249512
1519423828914,0.627686,-0.717529,0.247070
1519423828936,0.627930,-0.707031,0.247314
1519423828985,0.621826,-0.682617,0.252197
1519423829008,0.631348,-0.681152,0.256348
1519423829037,0.629639,-0.697998,0.252441
1519423829081,0.622070,-0.715088,0.244629
1519423829109,0.619873,-0.710938,0.248047
1519423829136,0.625000,-0.700684,0.251221
1519423829168,0.622559,-0.702148,0.251221
1519423829208,0.612305,-0.707764,0.251465
1519423829233,0.601074,-0.715088,0.245850
1519423829276,0.588135,-0.733154,0.253662
1519423829299,0.590820,-0.741699,0.245850
1519423829330,0.597168,-0.732666,0.243408
1519423829381,0.607910,-0.702637,0.241943
1519423829390,0.614502,-0.694336,0.248291
1519423829432,0.609863,-0.699463,0.250732
1519423829477,0.600586,-0.727539,0.238037
1519423829483,0.608398,-0.732178,0.236572
1519423829527,0.613281,-0.716553,0.238525
1519423829553,0.615234,-0.707275,0.239990
1519423829603,0.619629,-0.711670,0.233398
1519423829624,0.623779,-0.709961,0.230225
1519423829648,0.618408,-0.711670,0.236328
1519423829700,0.618408,-0.716064,0.232422
1519423829722,0.628418,-0.718018,0.220703
1519423829748,0.632080,-0.707275,0.225586
1519423829796,0.629883,-0.704346,0.226807
1519423829823,0.631104,-0.705078,0.222168
1519423829855,0.643555,-0.684326,0.223877
1519423829878,0.645264,-0.677979,0.224854
1519423829924,0.647217,-0.691650,0.222412
1519423829947,0.648682,-0.702637,0.219482
1519423830001,0.638672,-0.697754,0.221191
1519423830027,0.637939,-0.694824,0.220459
1519423830057,0.638184,-0.705566,0.218262
1519423830087,0.631348,-0.708252,0.227783
1519423830108,0.631592,-0.703125,0.226074
1519423830150,0.641846,-0.702393,0.223633
1519423830178,0.636475,-0.699951,0.232422
1519423830211,0.633789,-0.697266,0.235596
1519423830253,0.636719,-0.706299,0.219482
1519423830259,0.629639,-0.703125,0.223877
1519423830297,0.629883,-0.694092,0.229248
1519423830327,0.630859,-0.694092,0.223633
1519423830369,0.630371,-0.697998,0.229736
1519423830395,0.630371,-0.698242,0.233398
1519423830442,0.643066,-0.708496,0.249023
1519423830466,0.656738,-0.706787,0.240967
1519423830512,0.646973,-0.697021,0.237305
1519423830544,0.631836,-0.695313,0.238770
1519423830624,0.622559,-0.701416,0.242676
1519423830627,0.612061,-0.707031,0.243896
1519423830630,0.602051,-0.693604,0.242676
1519423830705,0.612305,-0.692139,0.247314
1519423830709,0.623047,-0.705566,0.247314
1519423830782,0.622314,-0.704590,0.248047
1519423830785,0.620361,-0.714844,0.248779
1519423830787,0.619629,-0.711670,0.249023
1519423830884,0.620361,-0.704346,0.254639
1519423830886,0.620361,-0.705811,0.250488
1519423830892,0.615234,-0.707275,0.250000
1519423830963,0.614746,-0.706055,0.251709
1519423830965,0.613281,-0.707275,0.250000
1519423830978,0.614014,-0.710449,0.247559
1519423831044,0.611816,-0.705078,0.246582
1519423831046,0.616211,-0.704102,0.246094
1519423831124,0.622559,-0.704102,0.250732
1519423831126,0.622314,-0.711182,0.248291
1519423831149,0.615967,-0.709473,0.242676
1519423831223,0.613281,-0.708008,0.243164
1519423831225,0.609131,-0.721680,0.245850
1519423831296,0.610107,-0.722168,0.250000
1519423831308,0.609375,-0.711914,0.251465
1519423831310,0.609375,-0.710449,0.244385
1519423831338,0.609863,-0.717773,0.244873
1519423831377,0.609375,-0.713135,0.245117
1519423831401,0.612061,-0.713623,0.243164
1519423831487,0.614258,-0.719482,0.244141
1519423831491,0.611816,-0.722168,0.240234
1519423831568,0.612061,-0.713623,0.244141
1519423831573,0.609375,-0.714600,0.246338
1519423831576,0.609863,-0.720703,0.241455
1519423831651,0.613281,-0.718750,0.239502
1519423831655,0.608154,-0.705322,0.247070
1519423831658,0.606689,-0.706055,0.248291
1519423831719,0.603760,-0.725586,0.244385
1519423831723,0.604004,-0.724121,0.242432
1519423831760,0.605225,-0.712158,0.247559
1519423831809,0.610352,-0.718994,0.242920
1519423831836,0.609863,-0.718994,0.239990
1519423831857,0.607910,-0.707275,0.246582
1519423831925,0.615967,-0.719238,0.247803
1519423831933,0.617432,-0.724365,0.244385
1519423831974,0.613770,-0.716553,0.244629
1519423832018,0.610352,-0.714111,0.245361
1519423832024,0.603760,-0.713379,0.245361
1519423832066,0.601074,-0.715088,0.250732
1519423832092,0.599609,-0.721680,0.251465
1519423832126,0.597900,-0.721191,0.247803
1519423832152,0.598145,-0.721924,0.250732
1519423832205,0.597900,-0.725342,0.252197
1519423832234,0.601074,-0.726807,0.260010
1519423832334,0.604980,-0.725586,0.260742
1519423832362,0.597900,-0.723877,0.251465
1519423832585,0.596436,-0.725342,0.252930
1519423832632,0.594238,-0.721191,0.257080
1519423832639,0.585205,-0.724121,0.257568
1519423832646,0.580566,-0.730713,0.257568
1519423832650,0.575684,-0.730225,0.261475
1519423832653,0.576660,-0.730957,0.262451
1519423832655,0.577881,-0.732666,0.260498
1519423832659,0.584717,-0.726563,0.264893
1519423832661,0.582764,-0.728027,0.261719
1519423832663,0.583252,-0.724121,0.265381
1519423832664,0.586426,-0.727295,0.265381
1519423832683,0.585938,-0.737305,0.268555
1519423832708,0.587402,-0.730469,0.269775
1519423832734,0.589111,-0.721924,0.269775
1519423832784,0.591553,-0.722168,0.273193
1519423832809,0.588379,-0.723145,0.269043
1519423832834,0.590576,-0.718750,0.272705
1519423832879,0.588623,-0.723145,0.272949
1519423832913,0.590088,-0.725830,0.272705
1519423832950,0.587891,-0.730957,0.277100
1519423832982,0.590088,-0.724609,0.274902
1519423833004,0.594482,-0.698975,0.282715
1519423833032,0.595215,-0.707520,0.279297
1519423833083,0.589111,-0.718750,0.276855
1519423833115,0.579834,-0.718262,0.277344
1519423833136,0.588623,-0.715332,0.280029
1519423833179,0.592285,-0.716797,0.279785
1519423833211,0.588623,-0.722900,0.280518
1519423833235,0.582520,-0.717529,0.277588
1519423833281,0.586426,-0.717773,0.274902
1519423833308,0.589600,-0.722900,0.281738
1519423833313,0.591553,-0.722656,0.278320
1519423833374,0.596680,-0.718018,0.272705
1519423833404,0.595703,-0.714111,0.275635
1519423833434,0.595947,-0.709473,0.274170
1519423833477,0.597656,-0.717041,0.269287
1519423833480,0.601807,-0.724365,0.270020
1519423833523,0.601807,-0.716553,0.270752
1519423833568,0.602539,-0.712402,0.266357
1519423833590,0.598877,-0.714111,0.265625
1519423833617,0.598389,-0.713379,0.263428
1519423833663,0.597656,-0.711426,0.260010
1519423833691,0.604492,-0.719238,0.257324
1519423833720,0.598877,-0.721680,0.254395
1519423833767,0.581299,-0.704834,0.282959
1519423833791,0.557861,-0.721436,0.301514
1519423833813,0.576660,-0.802490,0.259766
1519423833865,0.612305,-0.823486,0.267822
1519423833880,0.629883,-0.743164,0.317139
1519423833914,0.676025,-0.638672,0.267578
1519423833962,0.673828,-0.560547,0.183105
1519423833979,0.671387,-0.616455,0.176025
1519423834026,0.660889,-0.589600,0.140381
1519423834051,0.831299,-0.608154,0.287109
1519423834081,0.822510,-0.689453,0.374023
1519423834106,0.811035,-0.645020,0.277100
1519423834153,0.730713,-0.555176,-0.017090
1519423834175,0.666504,-0.624756,-0.091064
1519423834202,0.677734,-0.561035,0.043945
1519423834247,0.707764,-0.541016,0.243896
1519423834272,0.745117,-0.580566,0.295166
1519423834292,0.756104,-0.603516,0.200684
1519423834346,0.767578,-0.635010,0.164307
1519423834369,0.730713,-0.608154,0.236084
1519423834394,0.688232,-0.618408,0.228516
1519423834438,0.714111,-0.658936,0.179443
1519423834469,0.721436,-0.601074,0.239502
1519423834497,0.736816,-0.534668,0.202393
1519423834547,0.711426,-0.665771,0.239502
1519423834570,0.705811,-0.645264,0.191895
1519423834599,0.645752,-0.665283,0.156982
1519423834646,0.662598,-0.671387,0.268555
1519423834670,0.658447,-0.700928,0.366943
1519423834699,0.652588,-0.712646,0.313232
1519423834732,0.653320,-0.700195,0.275879
1519423834784,0.656982,-0.653809,0.274658
1519423834813,0.646484,-0.643066,0.221924
1519423834837,0.677979,-0.665771,0.243408
1519423834867,0.702637,-0.664795,0.270020
1519423834897,0.694092,-0.641602,0.255371
1519423834948,0.670898,-0.609131,0.261230
1519423834955,0.673828,-0.608887,0.277100
1519423834973,0.678223,-0.647949,0.281494
1519423835025,0.635986,-0.671875,0.259766
1519423835059,0.644043,-0.712402,0.261719
1519423835082,0.655029,-0.701172,0.264648
1519423835111,0.658691,-0.644287,0.268799
1519423835146,0.666260,-0.634521,0.273926
1519423835171,0.677246,-0.634033,0.272949
1519423835222,0.646729,-0.673828,0.257324
1519423835252,0.633057,-0.701660,0.264160
1519423835311,0.655029,-0.691162,0.270508
1519423835313,0.652100,-0.660156,0.263916
1519423835415,0.656006,-0.659668,0.265381
1519423835419,0.656250,-0.661621,0.264160
1519423835422,0.646973,-0.673096,0.261475
1519423835492,0.648193,-0.677490,0.261963
1519423835496,0.645996,-0.679199,0.260742
1519423835508,0.637939,-0.682617,0.261230
1519423835555,0.635742,-0.691406,0.257080
1519423835559,0.637451,-0.689941,0.258057
1519423835605,0.641846,-0.681641,0.257324
1519423835636,0.640625,-0.680908,0.255371
1519423835665,0.636963,-0.688477,0.253418
1519423835720,0.632813,-0.691650,0.266846
1519423835724,0.630371,-0.691650,0.263672
1519423835774,0.644287,-0.684082,0.248047
1519423835817,0.646729,-0.663330,0.255859
1519423835821,0.644775,-0.667236,0.255615
1519423835864,0.664551,-0.683838,0.243896
1519423835893,0.669922,-0.690430,0.244873
1519423835931,0.658691,-0.666016,0.252197
1519423835964,0.648682,-0.659180,0.252441
1519423835986,0.638672,-0.675293,0.260742
1519423836018,0.643799,-0.692383,0.250732
1519423836066,0.650879,-0.695557,0.245361
1519423836095,0.649170,-0.678711,0.249268
1519423836141,0.639160,-0.673828,0.250488
1519423836170,0.634277,-0.680664,0.254883
1519423836200,0.631592,-0.683594,0.261230
1519423836227,0.653320,-0.690918,0.255127
1519423836268,0.663818,-0.683350,0.250000
1519423836299,0.660889,-0.660156,0.265137
1519423836318,0.657471,-0.665283,0.257324
1519423836350,0.655518,-0.666260,0.256348
1519423836396,0.650635,-0.670898,0.254395
1519423836426,0.651611,-0.676025,0.257324
1519423836454,0.651367,-0.673828,0.253906
1519423836552,0.655518,-0.674316,0.249756
1519423836556,0.654785,-0.674072,0.251953
1519423836559,0.649414,-0.678467,0.250000
1519423836650,0.649170,-0.678711,0.244141
1519423836655,0.655762,-0.682129,0.249268
1519423836658,0.658691,-0.675049,0.244629
1519423836735,0.655029,-0.669678,0.245605
1519423836738,0.649658,-0.673584,0.243652
1519423836748,0.650391,-0.684326,0.244629
1519423836774,0.655518,-0.674316,0.242920
1519423836806,0.656738,-0.669189,0.241699
1519423836833,0.656494,-0.674072,0.242432
1519423836935,0.653076,-0.682373,0.245117
1519423836939,0.657959,-0.675049,0.242188
1519423836944,0.656982,-0.666992,0.238037
1519423837018,0.655273,-0.679199,0.239746
1519423837122,0.655029,-0.683838,0.239746
1519423837148,0.652100,-0.679688,0.238037
1519423837175,0.658203,-0.677979,0.241455
1519423837200,0.654541,-0.679932,0.236328
1519423837227,0.654541,-0.677490,0.232910
1519423837254,0.658691,-0.672363,0.235107
1519423837312,0.651855,-0.676270,0.236816
1519423837326,0.647461,-0.686035,0.236816
1519423837352,0.650879,-0.687988,0.236328
1519423837379,0.652832,-0.677246,0.236572
1519423837405,0.652588,-0.675781,0.234619
1519423837431,0.654053,-0.680908,0.233398
1519423837459,0.654785,-0.682129,0.235596
1519423837485,0.657715,-0.687012,0.233398
1519423837490,0.658936,-0.687012,0.232422
1519423837493,0.657471,-0.670410,0.232422
1519423837515,0.656982,-0.669189,0.235352
1519423837561,0.655273,-0.688477,0.236084
1519423837584,0.653564,-0.685303,0.237305
1519423837665,0.649170,-0.680420,0.234375
1519423837669,0.655518,-0.679688,0.236084
1519423837680,0.650879,-0.680420,0.236328
1519423837762,0.646240,-0.679932,0.237549
1519423837765,0.650635,-0.682617,0.239258
1519423837791,0.650146,-0.681396,0.236084
1519423837813,0.647461,-0.681152,0.237793
1519423837865,0.651367,-0.680420,0.240723
1519423837885,0.649658,-0.677734,0.239502
1519423837912,0.655029,-0.679688,0.241699
1519423837954,0.654053,-0.677734,0.243408
1519423837978,0.653320,-0.675537,0.243408
1519423837998,0.654297,-0.676758,0.243408
1519423838058,0.653564,-0.685303,0.245117
1519423838062,0.651123,-0.677002,0.244385
1519423838103,0.650635,-0.672607,0.244629
1519423838147,0.650635,-0.682617,0.245117
1519423838178,0.653076,-0.675781,0.246094
1519423838200,0.651855,-0.671143,0.245850
1519423838246,0.649170,-0.682129,0.246826
1519423838272,0.652832,-0.679932,0.247070
1519423838296,0.655762,-0.674805,0.249512
1519423838352,0.649902,-0.677979,0.252197
1519423838357,0.649414,-0.678955,0.253662
1519423838410,0.653809,-0.675293,0.255615
1519423838435,0.654541,-0.672119,0.250000
1519423838465,0.647949,-0.679443,0.256592
1519423838510,0.645752,-0.679199,0.256104
1519423838532,0.648926,-0.679932,0.256348
1519423838570,0.647217,-0.679443,0.257813
1519423838595,0.647949,-0.677246,0.253906
1519423838642,0.651855,-0.673584,0.255371
1519423838662,0.650635,-0.672852,0.258789
1519423838692,0.645020,-0.672363,0.259033
1519423838745,0.645508,-0.674316,0.260742
1519423838748,0.649414,-0.677246,0.259521
1519423838775,0.649658,-0.677002,0.264648
1519423838842,0.644531,-0.669189,0.262939
1519423838846,0.644287,-0.675781,0.259766
1519423838888,0.646484,-0.681641,0.266113
1519423838911,0.642334,-0.673584,0.265869
1519423838960,0.643555,-0.675049,0.267090
1519423838975,0.646973,-0.679932,0.271484
1519423839031,0.643066,-0.682373,0.265137
1519423839057,0.640869,-0.676514,0.266113
1519423839081,0.641602,-0.677979,0.265381
1519423839110,0.635986,-0.687744,0.265381
1519423839164,0.641357,-0.680664,0.263916
1519423839187,0.644531,-0.677002,0.266846
1519423839216,0.644287,-0.674316,0.264404
1519423839240,0.644531,-0.676270,0.263672
1519423839285,0.646729,-0.683350,0.265381
1519423839326,0.644287,-0.677490,0.262939
1519423839351,0.643066,-0.682129,0.260986
1519423839376,0.645996,-0.678955,0.264404
1519423839406,0.646973,-0.676025,0.264404
1519423839454,0.636475,-0.675781,0.260986
1519423839458,0.626953,-0.686768,0.260742
1519423839518,0.623535,-0.702637,0.267334
1519423839526,0.625488,-0.697998,0.266602
1519423839578,0.627686,-0.686768,0.258301
1519423839605,0.633301,-0.690186,0.257813
1519423839652,0.639648,-0.685059,0.260010
1519423839657,0.639893,-0.685303,0.258789
1519423839708,0.639648,-0.688721,0.256592
1519423839736,0.638916,-0.684814,0.257568
1519423839762,0.635498,-0.685791,0.255127
1519423839813,0.623291,-0.686523,0.252930
1519423839842,0.624268,-0.687256,0.255371
1519423839868,0.632324,-0.702881,0.254395
1519423839894,0.637207,-0.693359,0.253174
1519423839922,0.647705,-0.688232,0.255127
1519423839966,0.654297,-0.681885,0.250488
1519423839992,0.646484,-0.678467,0.247070
1519423840036,0.639404,-0.683838,0.250977
1519423840060,0.631836,-0.696045,0.245850
1519423840097,0.635254,-0.695801,0.252197
1519423840134,0.636230,-0.685059,0.250488
1519423840156,0.638428,-0.685547,0.248291
1519423840186,0.644531,-0.690918,0.250000
1519423840232,0.643555,-0.686523,0.248535
1519423840265,0.640137,-0.689941,0.248047
1519423840292,0.639893,-0.684570,0.249756
1519423840378,0.642090,-0.684570,0.247070
1519423840384,0.638672,-0.687256,0.247559
1519423840391,0.634277,-0.688721,0.250732
1519423840460,0.639160,-0.692627,0.250000
1519423840464,0.637207,-0.695068,0.251953
1519423840489,0.635254,-0.686279,0.249512
1519423840512,0.633789,-0.691650,0.250244
1519423840535,0.635254,-0.691162,0.248779
1519423840586,0.633545,-0.690918,0.254150
1519423840608,0.634033,-0.691162,0.250000
1519423840658,0.637695,-0.693604,0.249512
1519423840682,0.638916,-0.689697,0.251709
1519423840711,0.638428,-0.684082,0.248779
1519423840757,0.638428,-0.687744,0.250732
1519423840778,0.635010,-0.687744,0.246094
1519423840808,0.635742,-0.689453,0.247070
1519423840848,0.638428,-0.689209,0.248535
1519423840877,0.635498,-0.690430,0.250244
1519423840901,0.636719,-0.692383,0.248047
1519423840935,0.634521,-0.694092,0.249023
1519423840965,0.634521,-0.691406,0.245605
1519423841012,0.634766,-0.693115,0.245361
1519423841051,0.638916,-0.691162,0.250244
1519423841081,0.638184,-0.688477,0.248291
1519423841108,0.635742,-0.694336,0.245117
1519423841136,0.634766,-0.691406,0.244385
1519423841190,0.633301,-0.693848,0.248535
1519423841215,0.628906,-0.694336,0.245605
1519423841222,0.632080,-0.697021,0.245850
1519423841281,0.636475,-0.689941,0.247803
1519423841285,0.636963,-0.688477,0.246582
1519423841329,0.633545,-0.689453,0.245605
1519423841380,0.635986,-0.693359,0.245361
1519423841384,0.638428,-0.687988,0.243896
1519423841435,0.638428,-0.687500,0.243896
1519423841460,0.637207,-0.691895,0.246094
1519423841492,0.640381,-0.696289,0.248535
1519423841547,0.640625,-0.685791,0.242188
1519423841553,0.638428,-0.686279,0.241943
1519423841622,0.635742,-0.696045,0.243164
1519423841626,0.635498,-0.694580,0.248291
1519423841649,0.633789,-0.690674,0.244385
1519423841709,0.640625,-0.691406,0.242188
1519423841736,0.639648,-0.689453,0.239258
1519423841794,0.645508,-0.685547,0.242188
1519423841807,0.646240,-0.680908,0.250000
1519423841812,0.639160,-0.691895,0.253906
1519423841889,0.644287,-0.690186,0.257568
1519423841894,0.642578,-0.696045,0.235352
1519423841898,0.626709,-0.698242,0.250244
1519423841972,0.611084,-0.692627,0.251221
1519423842002,0.631104,-0.696045,0.252686
1519423842027,0.634521,-0.695557,0.247314
1519423842057,0.633057,-0.699463,0.250000
1519423842079,0.639648,-0.684082,0.254883
1519423842108,0.653809,-0.667236,0.261475
1519423842157,0.656006,-0.678711,0.255371
1519423842195,0.659180,-0.676025,0.246338
1519423842220,0.652832,-0.654541,0.270752
1519423842246,0.645508,-0.672363,0.261475
1519423842273,0.632080,-0.680664,0.263428
1519423842307,0.628174,-0.692871,0.267822
1519423842336,0.626465,-0.684570,0.266602
1519423842503,0.628662,-0.685791,0.266113
1519423842506,0.633545,-0.689941,0.261230
1519423842509,0.617432,-0.682129,0.254150
1519423842512,0.619873,-0.697266,0.250488
1519423842514,0.618896,-0.710449,0.248291
1519423842589,0.620605,-0.710449,0.248047
1519423842593,0.621338,-0.694092,0.247314
1519423842595,0.626465,-0.692871,0.247314
1519423842678,0.636475,-0.702393,0.239746
1519423842681,0.647461,-0.703369,0.236572
1519423842692,0.656006,-0.692139,0.235596
1519423842760,0.656006,-0.682861,0.228027
1519423842763,0.659912,-0.682373,0.225586
1519423842842,0.659912,-0.690186,0.227051
1519423842846,0.652832,-0.690918,0.225342
1519423842848,0.648926,-0.684570,0.219482
1519423842946,0.652344,-0.685791,0.228516
1519423842949,0.645020,-0.688477,0.230713
1519423842951,0.643311,-0.688965,0.230957
1519423843030,0.644287,-0.688477,0.224121
1519423843034,0.649170,-0.691406,0.226074
1519423843099,0.656006,-0.676270,0.234619
1519423843103,0.657227,-0.675049,0.237549
1519423843127,0.648926,-0.681396,0.230225
1519423843150,0.644287,-0.693115,0.229004
1519423843190,0.644531,-0.695068,0.229980
1519423843213,0.648438,-0.684814,0.230225
1519423843246,0.650879,-0.686768,0.241455
1519423843296,0.649658,-0.693359,0.241211
1519423843318,0.651123,-0.691895,0.230469
1519423843343,0.650879,-0.677734,0.229980
1519423843374,0.650635,-0.670410,0.244873
1519423843427,0.644043,-0.696777,0.246338
1519423843458,0.646729,-0.684326,0.237305
1519423843463,0.650635,-0.680176,0.249023
1519423843512,0.645264,-0.679199,0.247803
1519423843534,0.647461,-0.684082,0.248291
1519423843562,0.656738,-0.671387,0.249512
1519423843610,0.659912,-0.677490,0.251221
1519423843622,0.658203,-0.672852,0.249512
1519423843675,0.656494,-0.675781,0.248291
1519423843703,0.656250,-0.678223,0.247803
1519423843741,0.652832,-0.675049,0.256348
1519423843771,0.645752,-0.667969,0.258545
1519423843800,0.640381,-0.673828,0.253174
1519423843828,0.643799,-0.679199,0.252197
1519423843859,0.647217,-0.672119,0.259277
1519423843911,0.651367,-0.677979,0.257813
1519423843923,0.650391,-0.674561,0.251709
1519423843962,0.653076,-0.669678,0.261475
1519423844003,0.655518,-0.678223,0.258057
1519423844034,0.653076,-0.688721,0.264648
1519423844062,0.645508,-0.678711,0.264160
1519423844106,0.645020,-0.681885,0.263672
1519423844128,0.641846,-0.679688,0.260742
