1519425687334,0.570557,-0.501953,0.062256
1519425687391,0.418213,-0.323242,0.149658
1519425687424,0.304932,-0.306152,0.144775
1519425687457,0.277344,-0.319580,0.139404
1519425687490,0.323730,-0.422119,0.185791
1519425687522,0.453125,-0.743652,0.175537
1519425687556,0.479492,-0.811035,0.239258
1519425687564,0.482178,-0.651855,0.316406
1519425687614,0.594971,-0.707031,0.168213
1519425687623,0.848389,-0.851563,0.317139
1519425687676,0.913086,-1.124268,0.654785
1519425687709,0.809326,-0.965576,0.589355
1519425687724,0.884277,-1.236572,0.149170
1519425687757,0.858154,-0.835938,-0.017334
1519425687791,1.002686,-0.370117,0.119141
1519425687824,1.267334,-0.389404,0.342041
1519425687855,1.053467,-0.883545,0.283203
1519425687888,0.648926,-0.478516,0.326416
1519425687930,0.388428,-0.442627,0.297119
1519425687962,0.230713,-0.468994,0.254395
1519425687994,0.169678,-0.409424,0.245605
1519425688027,0.277100,-0.469238,0.284668
1519425688061,0.334961,-0.456787,0.309326
1519425688093,0.372803,-0.458252,0.237549
1519425688125,0.456299,-0.648193,0.302002
1519425688133,0.518066,-0.686279,0.441162
1519425688189,0.741211,-0.870117,0.548828
1519425688220,0.806152,-1.061279,0.779785
1519425688253,0.618896,-1.265137,0.946777
1519425688289,0.614990,-1.217529,0.496338
1519425688303,0.692139,-1.017822,0.273682
1519425688333,0.625977,-0.454346,0.177002
1519425688366,0.812500,-0.829590,0.119385
1519425688400,0.858643,-1.172607,0.215820
1519425688456,0.778320,-1.029541,0.181641
1519425688464,0.542236,-0.512695,0.104248
1519425688519,0.402100,-0.174072,0.234619
1519425688551,0.338623,-0.104248,0.292725
1519425688584,0.326416,-0.315430,0.174072
1519425688616,0.367920,-0.626709,0.135498
1519425688619,0.402832,-0.838135,0.177734
1519425688674,0.414063,-0.628906,0.273193
1519425688707,0.387939,-0.639160,0.278564
1519425688712,0.493164,-0.929688,0.154541
1519425688771,0.894531,-1.109863,0.355225
1519425688802,0.812988,-0.684570,0.567139
1519425688837,0.698975,-0.931396,0.407471
1519425688870,0.593994,-1.486816,-0.089844
1519425688877,0.606934,-0.973633,-0.145996
1519425688935,0.720947,-0.684082,0.089355
1519425688967,0.714600,-0.735352,0.035400
1519425689001,0.730957,-0.858887,-0.094727
1519425689034,0.659424,-0.858154,-0.071777
1519425689067,0.510254,-0.685547,0.093750
1519425689099,0.420166,-0.494141,0.069824
1519425689112,0.381104,-0.450928,0.007080
1519425689145,0.445068,-0.451660,0.076660
1519425689205,0.547363,-0.485352,0.132080
1519425689213,0.676514,-0.615967,0.216797
1519425689241,0.721680,-0.561768,0.180664
1519425689278,0.667236,-0.480957,0.050781
1519425689310,0.781738,-0.669678,0.024170
1519425689345,0.847656,-0.727783,0.239258
1519425689370,0.724854,-0.649658,0.362305
1519425689403,0.884277,-0.872070,0.209229
1519425689435,1.132080,-1.162598,-0.052490
1519425689467,1.004639,-0.873535,-0.132324
1519425689499,0.733887,-0.587891,-0.245117
1519425689532,0.561279,-1.012207,-0.245850
1519425689566,0.516113,-1.229736,-0.143066
1519425689600,0.507813,-0.894043,-0.061768
1519425689633,0.493652,-0.564209,-0.099854
1519425689666,0.472900,-0.632324,-0.131592
1519425689698,0.462646,-0.632080,-0.084229
1519425689731,0.435791,-0.594727,0.007080
1519425689763,0.468018,-0.743164,0.062012
1519425689795,0.479980,-0.812988,0.019287
1519425689828,0.402344,-0.694336,0.064941
1519425689860,0.429443,-0.747559,0.163574
1519425689893,0.475830,-0.979492,0.122314
1519425689925,0.443604,-0.941650,-0.019531
1519425689964,0.385986,-0.975098,-0.058105
1519425689998,0.395996,-1.111816,0.129639
1519425690029,0.549072,-1.222412,0.656494
1519425690062,0.697510,-1.249268,0.148682
1519425690096,0.875732,-0.815674,0.171875
1519425690127,1.293945,-0.191406,0.458740
1519425690161,1.339355,-0.626221,0.409424
1519425690171,1.015137,-0.838623,0.338135
1519425690222,0.500732,-0.695068,0.218994
1519425690226,0.209229,-0.690674,0.162842
1519425690259,0.066895,-0.739746,0.192383
1519425690317,0.031738,-0.390625,0.272705
1519425690323,0.175781,-0.279297,0.315186
1519425690364,0.319336,-0.343994,0.302979
1519425690396,0.421631,-0.500488,0.288574
1519425690430,0.497070,-0.714355,0.340332
1519425690462,0.655273,-0.859619,0.359619
1519425690495,0.825684,-1.077881,0.329590
1519425690527,0.741211,-1.224854,0.391846
1519425690563,0.424561,-1.059814,0.476318
1519425690591,0.296143,-0.730469,0.363281
1519425690650,0.726563,-1.065918,0.349609
1519425690653,1.159424,-1.181396,0.405762
1519425690753,1.175781,-0.669678,0.374756
1519425690761,1.040771,-0.292236,0.190674
1519425690819,0.917236,-0.606689,0.123779
1519425690828,0.771240,-0.719727,0.116699
1519425690888,0.636230,-0.508545,0.047363
1519425690897,0.552490,-0.526855,0.036377
1519425690954,0.549805,-0.655029,0.015381
1519425690959,0.506592,-0.686523,-0.084229
1519425691022,0.495361,-0.897217,-0.066650
1519425691027,0.443848,-0.862305,0.006592
1519425691090,0.374756,-0.665039,-0.008301
1519425691098,0.429932,-0.816406,-0.037842
1519425691156,0.552734,-1.139404,-0.039307
1519425691160,0.647949,-0.688232,-0.047607
1519425691209,0.762939,-0.913330,-0.098633
1519425691213,0.752686,-0.890625,-0.097412
1519425691216,0.842773,-1.169678,-0.116943
1519425691245,0.600098,-1.785400,0.419678
1519425691278,0.052246,-1.110840,0.564453
1519425691311,-0.086426,-0.536865,0.291748
1519425691342,0.007813,-0.536865,0.151855
1519425691353,0.330078,-0.626953,0.091553
1519425691412,0.534668,-0.646729,0.077637
1519425691445,0.542725,-0.749023,0.022461
1519425691451,0.408447,-0.701904,0.064453
1519425691509,0.395996,-0.885742,0.170410
1519425691542,0.354736,-0.941406,0.214844
1519425691574,0.409180,-0.891846,0.144287
1519425691587,0.438477,-0.989746,0.139648
1519425691621,0.410645,-0.784912,0.174805
1519425691660,0.398682,-0.884033,0.231445
1519425691692,0.554199,-0.973145,0.310303
1519425691700,0.679932,-0.674805,0.289551
1519425691756,0.922119,-0.798584,-0.006348
1519425691789,0.623291,-0.812256,-0.101318
1519425691822,0.699219,-0.815430,-0.445068
1519425691853,0.537354,-1.646729,-1.152344
1519425691887,0.684570,-2.615967,-1.097900
1519425691931,0.653809,-1.448486,-0.458740
1519425691940,0.034180,-0.142090,-0.327881
1519425691992,0.000732,-0.802002,-0.533447
1519425692005,0.102051,-1.123535,-0.566162
1519425692038,0.282715,-0.910400,-0.380127
1519425692072,0.438965,-0.842041,-0.181396
1519425692103,0.400635,-1.090088,-0.304932
1519425692138,-0.069336,-1.312500,-0.353516
1519425692171,-0.288330,-1.136230,-0.134277
1519425692203,-0.346680,-0.854248,0.005127
1519425692236,-0.142822,-0.729492,0.022705
1519425692268,0.192627,-0.954346,0.147461
1519425692302,0.679443,-1.354248,0.113770
1519425692334,0.608643,-0.977051,-0.078613
1519425692349,0.275391,-0.543213,0.002197
1519425692407,0.205078,-0.908691,0.007813
1519425692422,0.398438,-1.625977,-0.176758
1519425692453,0.547119,-1.407227,-0.020020
1519425692485,0.650635,-1.175293,0.387451
1519425692518,1.022705,-0.554688,0.838867
1519425692552,0.853027,-0.780762,0.411621
1519425692583,0.481445,-1.003662,0.183838
1519425692641,0.307861,-0.848877,0.112793
1519425692650,0.306885,-0.714111,0.039795
1519425692703,0.242676,-0.822510,-0.006836
1519425692735,0.138672,-0.635742,0.053955
1519425692768,0.131836,-0.542480,0.214600
1519425692771,0.120850,-0.636230,0.359131
1519425692827,0.204102,-0.703369,0.311768
1519425692841,0.198242,-0.581055,0.290039
1519425692872,0.243896,-0.706055,0.305420
1519425692929,0.369629,-0.942139,0.319092
1519425692933,0.559570,-1.181396,0.381348
1519425692964,0.612549,-1.204590,0.419678
1519425693022,0.683105,-1.236572,0.511230
1519425693057,0.925781,-1.149170,0.619873
1519425693065,0.946777,-0.994873,0.265625
1519425693098,0.642822,-0.937256,-0.121826
1519425693129,0.704102,-0.871582,-0.040283
1519425693171,0.639648,-0.595215,0.096680
1519425693211,0.475098,-0.494873,0.156006
1519425693246,0.363281,-0.419922,0.176270
1519425693278,0.361816,-0.380371,0.229736
1519425693310,0.388672,-0.548096,0.285156
1519425693341,0.399658,-0.584961,0.225098
1519425693347,0.352783,-0.576660,0.160156
1519425693404,0.361084,-0.630615,0.115723
1519425693436,0.349609,-0.746338,0.099365
1519425693442,0.418457,-0.745850,0.083496
1519425693499,0.788818,-1.066162,0.236572
1519425693533,0.854004,-1.161865,0.704590
1519425693567,0.980225,-1.279785,0.755859
1519425693600,0.860840,-1.191650,-0.092773
1519425693632,0.823242,-0.752930,-0.154541
1519425693645,0.890137,-0.392578,0.042236
1519425693680,1.107422,-0.595459,0.163330
1519425693737,1.037109,-0.735352,0.136963
1519425693743,0.720947,-0.566895,0.161133
1519425693770,0.375977,-0.583252,0.267578
1519425693803,0.219482,-0.541260,0.273926
1519425693836,0.142334,-0.472412,0.208252
1519425693894,0.218994,-0.401123,0.139648
1519425693903,0.320801,-0.319092,0.170898
1519425693926,0.427002,-0.439941,0.284668
1519425693983,0.527344,-0.593018,0.421875
1519425694016,0.647949,-0.774658,0.396973
1519425694052,0.787598,-0.912109,0.403809
1519425694065,0.738525,-1.158203,0.518799
1519425694097,0.781494,-1.512451,0.874023
1519425694129,0.821533,-1.181152,0.395508
1519425694162,0.879883,-0.509033,0.232666
1519425694196,0.858643,-0.331299,0.153320
1519425694230,1.007813,-0.537598,0.003174
1519425694264,1.160889,-1.082764,-0.188232
1519425694297,0.869629,-1.071045,-0.139893
1519425694329,0.639648,-0.724609,0.065186
1519425694362,0.415039,-0.335938,0.306885
1519425694394,0.343506,-0.314209,0.356445
1519425694428,0.279541,-0.314453,0.303711
1519425694465,0.214355,-0.364746,0.205566
1519425694490,0.234131,-0.500732,0.166260
1519425694524,0.339355,-0.759033,0.233643
1519425694555,0.471680,-0.914063,0.250000
1519425694588,0.642090,-0.973389,0.149658
1519425694619,0.922852,-1.155029,0.261475
1519425694652,0.882080,-0.731934,0.681885
1519425694685,1.002441,-0.738281,0.676758
1519425694719,0.984131,-1.269775,0.141602
1519425694754,0.925537,-1.012207,-0.014160
1519425694785,0.923828,-0.459717,0.074219
1519425694792,1.028809,-0.279297,0.115234
1519425694850,0.925293,-0.540771,0.149170
1519425694892,0.736816,-0.455566,0.240479
1519425694894,0.512695,-0.373047,0.247314
1519425694953,0.383545,-0.412354,0.219727
1519425694960,0.281250,-0.472656,0.225342
1519425695002,0.270264,-0.495361,0.218994
1519425695042,0.320801,-0.451904,0.221436
1519425695071,0.407959,-0.494141,0.291016
1519425695104,0.452393,-0.539795,0.375977
1519425695136,0.571045,-0.712646,0.377930
1519425695169,0.791016,-0.805176,0.368652
1519425695205,0.939941,-0.929199,0.496582
1519425695241,0.814697,-1.349609,0.637451
1519425695272,0.790039,-1.406738,0.539551
1519425695285,0.886719,-0.760742,0.232178
1519425695344,0.823975,-0.427734,0.284180
1519425695375,0.928711,-0.285645,0.163818
1519425695381,0.967285,-0.694092,0.035400
1519425695409,0.830322,-1.090820,-0.165039
1519425695442,0.651855,-0.979980,-0.085449
1519425695474,0.483398,-0.471436,0.103760
1519425695507,0.346924,-0.175293,0.195557
1519425695540,0.308105,-0.275391,0.200195
1519425695571,0.302246,-0.351074,0.236084
1519425695630,0.375000,-0.597900,0.227051
1519425695639,0.393311,-0.670654,0.186035
1519425695667,0.411621,-0.662354,0.270020
1519425695749,0.669678,-0.754150,0.210449
1519425695752,1.078369,-1.041016,0.286133
1519425695818,1.080322,-1.295898,0.396729
1519425695826,0.893066,-0.496094,0.852539
1519425695885,0.982422,-1.277832,0.205566
1519425695893,0.896484,-1.103516,0.048584
1519425695951,0.968994,-0.438965,0.097656
1519425695957,1.017334,-0.244629,0.118652
1519425696019,0.956787,-0.459473,0.221680
1519425696025,0.642578,-0.594238,0.366211
1519425696087,0.387451,-0.600586,0.333252
1519425696156,0.269043,-0.579590,0.277344
1519425696223,0.175293,-0.327637,0.232666
1519425696232,0.230225,-0.248535,0.254883
1519425696242,0.302979,-0.376465,0.277588
1519425696245,0.338135,-0.364014,0.370605
1519425696249,0.418945,-0.508789,0.448975
1519425696252,0.601807,-0.741211,0.456543
1519425696304,0.949219,-1.050293,0.583252
1519425696336,0.828369,-1.182861,0.631348
1519425696343,0.473877,-1.366455,0.938477
1519425696395,0.621094,-1.063965,0.517578
1519425696403,0.759521,-0.210693,0.305664
1519425696431,0.774902,-0.167236,0.281494
1519425696488,1.106445,-0.501709,0.251953
1519425696502,1.327881,-0.921631,0.145996
1519425696535,1.090820,-1.206787,0.072266
1519425696568,0.616211,-0.695801,0.210693
1519425696626,0.398438,-0.286133,0.268311
1519425696635,0.268066,-0.110352,0.234131
1519425696688,0.205811,-0.192139,0.240723
1519425696720,0.188965,-0.280029,0.315430
1519425696753,0.315674,-0.667236,0.371094
1519425696785,0.462646,-0.780762,0.378174
1519425696816,0.536377,-0.672852,0.226074
1519425696819,0.858154,-0.760254,0.257568
1519425696868,1.175537,-1.133789,0.292480
1519425696908,1.007813,-1.187744,0.425049
1519425696914,0.840332,-0.857422,0.504883
1519425696974,0.764893,-0.787109,0.332275
1519425697007,0.810059,-0.618408,0.219971
1519425697051,1.035156,-0.415283,0.306641
1519425697084,1.197510,-0.387451,0.343262
1519425697092,0.962646,-0.486816,0.244629
1519425697116,0.637451,-0.488037,0.200195
1519425697151,0.350830,-0.465088,0.200928
1519425697182,0.204102,-0.404053,0.198730
1519425697240,0.175293,-0.465820,0.218262
1519425697248,0.342529,-0.388672,0.353027
1519425697304,0.426758,-0.345947,0.416016
1519425697317,0.504150,-0.481445,0.450195
1519425697349,0.564209,-0.739746,0.433838
1519425697382,0.677002,-0.663086,0.386230
1519425697415,0.937744,-0.792480,0.458252
1519425697446,0.896240,-0.937744,0.675537
1519425697478,0.936279,-0.991455,0.857666
1519425697512,0.981934,-0.811523,0.407471
1519425697544,0.917725,-0.678223,-0.071777
1519425697577,0.826904,-0.593994,-0.045410
1519425697611,0.810059,-0.728760,0.052734
1519425697642,0.935547,-1.079346,0.159912
1519425697676,0.724609,-0.872803,0.122070
1519425697708,0.489502,-0.518066,0.067383
1519425697748,0.347900,-0.293457,-0.028076
1519425697781,0.366699,-0.297363,-0.003174
1519425697790,0.421143,-0.281738,0.070801
1519425697840,0.593750,-0.484619,0.137939
1519425697872,0.583740,-0.635254,0.106445
1519425697877,0.593018,-0.542725,0.104004
1519425697937,0.688721,-0.535889,0.101807
1519425697943,0.983887,-0.555420,0.115234
1519425698001,1.255859,-0.827148,0.141113
1519425698035,1.278564,-1.106201,0.258057
1519425698044,1.247314,-0.939697,0.168213
1519425698099,0.924072,-0.829834,-0.066895
1519425698131,0.774658,-0.366211,-0.021240
1519425698144,0.785645,-0.303223,0.081543
1519425698203,0.926514,-0.440918,0.087402
1519425698235,0.745361,-0.765381,0.093018
1519425698246,0.528076,-0.785889,0.266602
1519425698298,0.434814,-0.658936,0.378418
1519425698331,0.341797,-0.380859,0.324463
1519425698363,0.338379,-0.278809,0.246094
1519425698368,0.368164,-0.325195,0.257568
1519425698424,0.385498,-0.312988,0.396729
1519425698454,0.368652,-0.487549,0.407227
1519425698460,0.388916,-0.699219,0.372803
1519425698513,0.677979,-0.839111,0.430908
1519425698545,0.911621,-0.962891,0.491943
1519425698559,0.820313,-1.320557,0.521973
1519425698617,0.897461,-1.412598,0.558350
1519425698626,0.967773,-0.565430,0.309570
1519425698680,0.920166,-0.277588,0.240723
1519425698713,0.957764,-0.190186,0.201660
1519425698744,1.094971,-0.648193,0.159180
1519425698778,0.954834,-0.760010,-0.009033
1519425698810,0.826172,-1.107422,0.052979
1519425698843,0.662354,-0.629150,0.110352
1519425698875,0.521484,-0.275391,0.120361
1519425698913,0.440186,-0.216553,0.073486
1519425698945,0.423584,-0.404785,0.093750
1519425698954,0.439453,-0.563965,0.135254
1519425699002,0.397949,-0.644775,0.114990
1519425699008,0.353760,-0.694580,0.149414
1519425699041,0.438721,-0.876709,0.360352
1519425699099,0.687988,-0.565430,0.121826
1519425699105,1.126465,-0.819092,0.265137
1519425699162,1.261719,-1.132813,0.556641
1519425699197,1.099609,-0.881104,0.494141
1519425699229,0.974854,-0.977295,0.164795
1519425699261,0.823486,-0.721191,0.041748
1519425699293,0.905762,-0.192627,0.088379
1519425699327,1.177490,-0.451172,0.209473
1519425699358,1.017334,-0.725586,0.165283
1519425699374,0.635986,-0.592285,0.194092
1519425699406,0.383789,-0.490967,0.246094
1519425699439,0.202148,-0.392090,0.219238
1519425699471,0.157715,-0.284912,0.222900
1519425699503,0.252930,-0.348877,0.286133
1519425699536,0.349609,-0.400879,0.319580
1519425699570,0.333740,-0.391357,0.255127
1519425699612,0.435303,-0.628906,0.292480
1519425699621,0.703369,-0.783691,0.435791
1519425699674,1.058838,-1.008057,0.497803
1519425699706,0.881592,-1.404053,0.459717
1519425699739,0.633057,-1.638184,0.630371
1519425699771,0.731934,-0.829834,0.309814
1519425699803,0.863525,-0.289307,0.227051
1519425699806,0.855225,-0.184326,0.129883
1519425699865,1.110352,-0.705566,0.102051
1519425699898,1.079590,-0.778809,0.016846
1519425699904,0.935791,-1.106445,0.110107
1519425699960,0.620605,-0.756592,0.151855
1519425699993,0.432617,-0.398438,0.159424
1519425700026,0.350098,-0.283691,0.113281
1519425700059,0.376465,-0.351563,0.084473
1519425700091,0.412842,-0.486572,0.073242
1519425700123,0.421631,-0.538086,0.055176
1519425700156,0.386475,-0.527588,0.122314
1519425700170,0.420654,-0.499023,0.264648
1519425700227,0.638672,-0.764404,0.240234
1519425700233,1.095215,-1.328125,0.102295
1519425700291,1.128662,-1.256836,0.271484
1519425700322,1.188232,-0.910645,0.516846
1519425700355,1.057373,-0.744385,0.412598
1519425700387,0.824219,-0.688232,0.119873
1519425700391,0.845459,-0.318359,0.059570
1519425700446,1.110107,-0.303711,0.060303
1519425700506,0.955322,-0.495850,-0.028076
1519425700511,0.709473,-0.649170,-0.048584
1519425700564,0.392334,-0.527588,0.129639
1519425700573,0.298096,-0.498291,0.268311
1519425700618,0.253418,-0.434326,0.312744
1519425700665,0.282471,-0.418945,0.230957
1519425700674,0.349854,-0.387939,0.243408
1519425700783,0.391357,-0.470459,0.325195
1519425700863,0.492920,-0.725830,0.434082
1519425700867,0.650879,-0.802979,0.413574
1519425700946,0.907471,-0.814697,0.409668
1519425700949,0.852051,-1.045898,0.416016
1519425701013,0.931152,-1.594238,0.526123
1519425701018,0.994141,-1.032715,0.428223
1519425701110,0.943359,-0.493652,0.271729
1519425701177,0.885498,-0.168457,0.135986
1519425701185,1.048096,-0.509521,-0.027344
1519425701275,1.075684,-1.089600,-0.253662
1519425701341,0.843262,-1.179688,-0.224365
1519425701352,0.562500,-0.674561,-0.038574
1519425701363,0.361328,-0.128662,0.135010
1519425701368,0.283936,-0.089111,0.146240
1519425701372,0.258057,-0.163086,0.157959
1519425701379,0.317871,-0.356934,0.213623
1519425701385,0.402832,-0.613770,0.254395
1519425701388,0.506592,-0.898682,0.216797
1519425701393,0.528809,-0.999023,0.026367
1519425701396,0.632324,-0.807129,0.066650
1519425701398,0.989014,-0.922607,0.291260
1519425701403,1.341553,-1.238770,0.854248
1519425701436,0.986572,-0.956543,0.073486
1519425701468,0.987305,-0.974365,0.010498
1519425701501,0.875732,-0.459717,0.046143
1519425701533,0.922363,-0.190918,0.067871
1519425701570,1.057373,-0.494629,0.037598
1519425701600,0.872070,-1.000732,0.030273
1519425701634,0.684082,-0.867920,0.186768
1519425701666,0.545654,-0.583984,0.295654
1519425701698,0.329346,-0.261719,0.251221
1519425701730,0.248291,-0.233154,0.175049
1519425701761,0.233643,-0.224609,0.162842
1519425701794,0.249756,-0.213135,0.176270
1519425701808,0.252197,-0.325439,0.200928
1519425701867,0.352539,-0.526367,0.303467
1519425701898,0.805176,-1.001953,0.451904
1519425701931,1.069336,-1.401855,0.586914
1519425701934,0.833984,-1.561768,0.822510
1519425701989,0.747559,-1.148682,0.273438
1519425701998,0.903809,-0.598633,0.157959
1519425702026,1.003174,-0.482178,0.190430
1519425702085,0.852295,-0.533691,-0.048340
1519425702118,0.923828,-0.649170,-0.121094
1519425702171,0.961670,-1.050293,0.010498
1519425702180,0.795898,-1.053467,0.098389
1519425702204,0.579346,-0.565918,0.135986
1519425702237,0.446289,-0.357910,0.134277
1519425702270,0.325195,-0.286133,0.131104
1519425702302,0.308105,-0.336426,0.083740
1519425702334,0.324951,-0.451904,0.055908
1519425702368,0.383301,-0.702148,0.124512
1519425702399,0.472168,-0.791748,0.272217
1519425702432,0.468506,-0.706787,0.051025
1519425702465,0.888672,-0.657227,0.150391
1519425702497,1.134766,-0.822266,0.472168
1519425702528,0.972900,-1.246338,0.321533
1519425702561,0.967529,-1.083496,0.028809
1519425702594,0.946045,-1.204590,-0.103760
1519425702608,0.817139,-1.014160,-0.175293
1519425702667,0.767334,-0.363770,-0.095215
1519425702700,1.051514,-0.164063,0.118164
1519425702731,1.126709,-0.631592,0.198242
1519425702763,0.732422,-0.609131,0.132080
1519425702802,0.574219,-0.372803,0.124023
1519425702812,0.465820,-0.258789,0.145264
1519425702864,0.327637,-0.264160,0.141602
1519425702896,0.348389,-0.207764,0.244629
1519425702928,0.335449,-0.350586,0.263184
1519425702962,0.414795,-0.684082,0.320801
1519425702994,0.484131,-0.847900,0.395020
1519425703002,0.663574,-0.754639,0.219238
1519425703039,0.968750,-0.793213,0.210938
1519425703097,0.927246,-0.896729,0.512451
1519425703106,0.865723,-1.476563,0.607422
1519425703156,0.845215,-0.625244,-0.102539
1519425703159,1.135498,-0.335205,0.152100
1519425703214,1.016602,-0.560059,0.143066
1519425703222,0.991943,-0.538818,0.013916
1519425703278,1.018799,-0.736084,-0.177002
1519425703312,0.893555,-1.167236,-0.161377
1519425703329,0.561523,-0.449463,-0.007324
1519425703384,0.451416,-0.230469,0.092529
1519425703413,0.458252,-0.247803,0.145996
1519425703427,0.442627,-0.456543,0.100586
1519425703454,0.426270,-0.605957,0.061768
1519425703512,0.431885,-0.624268,0.140137
1519425703544,0.424072,-0.617920,0.197266
1519425703550,0.494141,-0.483643,0.021729
1519425703577,1.092773,-0.755615,0.167969
1519425703637,1.248047,-1.287109,0.443848
1519425703646,0.991211,-0.864014,0.505127
1519425703694,1.033447,-0.367676,0.391357
1519425703728,1.003174,-1.013184,-0.080566
1519425703740,0.695801,-0.699707,-0.301758
1519425703797,0.716553,-0.284424,-0.157715
1519425703806,1.240967,-0.628662,0.180420
1519425703845,1.157715,-0.774902,0.063477
1519425703876,0.906006,-0.422607,0.180908
1519425703909,0.546631,-0.213867,0.250244
1519425703941,0.377441,-0.215820,0.173584
1519425703973,0.316406,-0.368896,0.163574
1519425704005,0.392822,-0.445801,0.274658
1519425704037,0.409912,-0.212891,0.273682
1519425704069,0.432129,-0.227051,0.302002
1519425704102,0.480225,-0.549316,0.294678
1519425704136,0.751709,-0.567871,0.199707
1519425704168,1.123291,-0.669678,0.229248
1519425704202,1.137207,-1.456055,0.740479
1519425704217,0.997559,-1.413818,0.659180
1519425704272,0.858398,-0.487793,0.054199
1519425704305,1.231201,-0.552490,0.327881
1519425704337,0.937256,-0.315918,0.141846
1519425704370,0.991699,-0.552734,0.017090
1519425704403,0.891113,-0.766846,-0.093750
1519425704435,0.772949,-1.063965,0.052979
1519425704468,0.591553,-0.607910,0.125488
1519425704501,0.412598,-0.242676,0.133301
1519425704533,0.415771,-0.249512,0.117920
1519425704539,0.472412,-0.306152,0.096924
1519425704592,0.534912,-0.473389,0.061279
1519425704633,0.584717,-0.609619,0.014648
1519425704639,0.640137,-0.688965,0.013916
1519425704693,0.588623,-0.645020,0.057861
1519425704702,0.697021,-0.450195,0.041016
1519425704760,0.955078,-0.533447,0.167725
1519425704792,1.217285,-1.378174,0.560059
1519425704798,0.970947,-1.299805,0.304443
1519425704856,0.992432,-1.057129,0.094238
1519425704887,0.981689,-0.871338,0.002686
1519425704920,0.941162,-0.427002,0.066162
1519425704953,0.945801,-0.000488,0.089844
1519425704985,1.039307,-0.210693,0.106934
1519425705018,0.909668,-0.461182,0.205322
1519425705032,0.664551,-0.609863,0.260010
1519425705089,0.446289,-0.618164,0.304199
1519425705104,0.335205,-0.451416,0.262939
1519425705136,0.279297,-0.315918,0.217529
1519425705169,0.266602,-0.252441,0.226807
1519425705201,0.327881,-0.318604,0.250488
1519425705234,0.414795,-0.431396,0.303711
1519425705266,0.644531,-0.693848,0.326172
1519425705299,0.951660,-0.902832,0.352051
1519425705332,1.098633,-1.133789,0.406006
1519425705364,0.720703,-1.293457,0.553223
1519425705395,0.783203,-1.013916,0.611572
1519425705428,0.950195,-0.485840,0.244141
1519425705469,1.004883,-0.328857,0.186768
1519425705502,0.998535,-0.237305,0.166748
1519425705508,1.136475,-0.518799,0.129395
1519425705562,0.971436,-0.546143,-0.108643
1519425705568,0.866699,-1.163086,-0.042236
1519425705600,0.690186,-0.892578,0.121582
1519425705657,0.469727,-0.365723,0.118896
1519425705663,0.373779,-0.167236,0.118896
1519425705736,0.364014,-0.267334,0.149170
1519425705742,0.404785,-0.476074,0.149902
1519425705803,0.450439,-0.631592,0.142090
1519425705809,0.459473,-0.743652,0.250000
1519425705938,0.544922,-0.834717,0.253906
1519425705944,0.830078,-0.594727,0.227783
1519425706005,1.109375,-0.776611,0.247559
1519425706011,1.212891,-1.020020,0.637939
1519425706074,0.988770,-0.987793,0.232666
1519425706079,0.994873,-1.074219,0.094482
1519425706140,1.016846,-0.517334,0.098145
1519425706146,1.076660,-0.083496,0.109131
1519425706213,1.284424,-0.346924,0.118652
1519425706247,0.969971,-0.489502,0.196777
1519425706254,0.681641,-0.524658,0.275879
1519425706260,0.400391,-0.497314,0.278564
1519425706265,0.201904,-0.384277,0.189209
1519425706272,0.146973,-0.306152,0.168213
1519425706284,0.191650,-0.292969,0.223633
1519425706317,0.309082,-0.291992,0.373535
1519425706350,0.428955,-0.397705,0.453857
1519425706382,0.579102,-0.755859,0.572510
1519425706414,0.868408,-0.726807,0.443115
1519425706446,1.216309,-0.936768,0.486816
1519425706478,1.019043,-1.323730,0.542725
1519425706512,0.955078,-1.242432,0.628174
1519425706569,0.988281,-0.245605,0.330811
1519425706572,0.776855,-0.065430,0.175293
1519425706628,0.958740,-0.323486,0.260986
1519425706665,1.051758,-0.477783,-0.066650
1519425706670,1.076660,-0.986816,-0.182861
1519425706711,0.747559,-0.901367,-0.003174
1519425706744,0.552246,-0.494141,0.161865
1519425706776,0.431396,-0.244385,0.226318
1519425706808,0.376709,-0.263184,0.258545
1519425706841,0.366211,-0.345459,0.248535
1519425706875,0.431152,-0.519531,0.196045
1519425706906,0.540039,-0.723877,0.204346
1519425706938,0.616943,-0.710449,0.269531
1519425706970,0.671875,-0.547607,0.141846
1519425707002,1.030029,-0.524414,0.180908
1519425707035,1.182861,-0.786865,0.333740
1519425707067,1.201172,-0.966309,0.414307
1519425707108,1.149902,-0.754150,0.199707
1519425707141,1.131592,-0.914795,0.173828
1519425707143,0.979492,-0.664307,0.075684
1519425707203,0.958252,-0.067139,0.018555
1519425707208,1.176025,-0.142334,0.060059
1519425707263,0.992432,-0.423828,0.162842
1519425707291,0.697754,-0.625488,0.183594
1519425707324,0.531250,-0.815674,0.283447
1519425707357,0.432373,-0.907959,0.312256
1519425707388,0.291748,-0.374756,0.256348
1519425707421,0.254639,-0.158936,0.377686
1519425707454,0.304199,-0.312988,0.451660
1519425707486,0.276611,-0.622314,0.380615
1519425707518,0.265869,-0.612061,0.294922
1519425707526,0.394287,-0.531982,0.309082
1519425707582,0.728271,-1.024170,0.531006
1519425707618,0.631592,-1.588379,0.718506
1519425707623,0.580811,-1.249756,0.630859
1519425707677,0.870850,-0.294434,0.267334
1519425707708,0.986816,-0.320557,0.420898
1519425707742,0.866211,-0.306885,0.364014
1519425707776,1.248779,-0.860107,0.117676
1519425707809,1.152832,-0.951904,0.133545
1519425707840,0.805420,-0.975830,0.180420
1519425707873,0.509766,-0.440674,0.224609
1519425707889,0.415039,-0.388672,0.205811
1519425707943,0.346191,-0.421387,0.161133
1519425707976,0.372559,-0.600586,0.147705
1519425708008,0.463867,-0.728027,0.190918
1519425708041,0.567871,-0.779053,0.229492
1519425708073,0.547607,-0.758301,0.101807
1519425708106,0.467285,-0.733887,-0.035889
1519425708109,0.457031,-0.713623,-0.063965
1519425708165,0.533203,-0.920166,0.385986
1519425708173,0.630859,-0.736816,0.564941
1519425708202,0.577637,-0.885010,0.333496
1519425708261,0.812012,-1.148682,0.237305
1519425708292,0.906006,-1.262451,0.156494
1519425708307,0.918945,-0.965820,0.138672
1519425708338,0.865967,-0.497070,0.209229
1519425708383,0.913818,-0.392334,0.292725
1519425708415,0.951172,-0.291260,0.428223
1519425708447,0.759277,-0.323486,0.449951
1519425708481,0.573975,-0.544922,0.336670
1519425708512,0.439209,-0.635498,0.329346
1519425708545,0.353516,-0.712402,0.181396
1519425708573,0.345947,-0.666504,0.072998
1519425708606,0.419922,-0.425537,0.171143
1519425708636,0.489990,-0.123047,0.331055
1519425708669,0.396729,-0.193604,0.315430
1519425708701,0.415039,-0.573242,0.309570
1519425708742,0.623535,-1.029297,0.509521
1519425708775,0.856689,-1.033447,0.547852
1519425708782,0.900879,-1.196045,0.408936
1519425708841,0.865479,-1.102539,0.431885
1519425708875,0.844482,-0.739258,0.436523
1519425708906,1.023193,-0.550781,0.392578
1519425708939,1.027100,-0.517578,0.180176
1519425708970,0.867676,-0.371338,0.002930
1519425709003,0.828857,-0.389160,-0.250244
1519425709035,0.940918,-1.058105,-0.261963
1519425709068,0.746094,-1.034180,-0.086914
1519425709101,0.618896,-0.523438,0.102539
1519425709142,0.460449,-0.207520,0.258545
1519425709174,0.429688,-0.306641,0.269287
1519425709180,0.433105,-0.482178,0.241211
1519425709234,0.450928,-0.720947,0.206299
1519425709239,0.474609,-0.866211,0.239014
1519425709266,0.511475,-0.772705,0.273682
1519425709324,0.543701,-0.687256,0.276855
1519425709357,0.696533,-0.734131,0.307617
1519425709390,0.954590,-0.821289,0.379395
1519425709397,1.042969,-0.664063,0.556152
1519425709453,1.002686,-0.793213,0.427979
1519425709467,1.044678,-0.894775,0.302979
1519425709523,0.813232,-0.678467,0.187744
1519425709537,0.745361,-0.322998,0.193604
1519425709569,0.951660,-0.293213,0.265625
1519425709602,1.057617,-0.418945,0.235107
1519425709635,0.878906,-0.621582,0.213379
1519425709668,0.604492,-0.539063,0.283691
1519425709700,0.383301,-0.528564,0.331299
1519425709733,0.250244,-0.453125,0.286865
1519425709766,0.228760,-0.385010,0.276611
1519425709797,0.324951,-0.409668,0.361084
1519425709850,0.359375,-0.428467,0.365479
1519425709853,0.476807,-0.519775,0.366455
1519425709885,0.677246,-0.552246,0.389160
1519425709918,0.844238,-0.632324,0.349609
1519425709950,0.920898,-0.880615,0.362793
1519425709983,0.756592,-1.423096,0.673828
1519425710015,0.780273,-1.486328,0.723877
1519425710047,0.958984,-0.517822,0.258057
1519425710081,0.934082,-0.067627,0.415283
1519425710139,0.966797,-0.166992,0.355225
1519425710145,1.063721,-0.687256,0.274658
1519425710197,0.871094,-1.290527,0.282471
1519425710229,0.616455,-0.894043,0.314697
1519425710235,0.443115,-0.463135,0.244629
1519425710288,0.354492,-0.216553,0.197021
1519425710320,0.340088,-0.228760,0.137451
1519425710352,0.369385,-0.309082,0.176758
1519425710367,0.407227,-0.471191,0.252930
1519425710399,0.450439,-0.630127,0.274170
1519425710432,0.453125,-0.657227,0.216553
1519425710465,0.635498,-0.761475,0.234131
1519425710500,0.926025,-0.838379,0.395020
1519425710533,1.078857,-1.023438,0.522705
1519425710566,0.955322,-0.949463,0.517822
1519425710599,0.946289,-1.104492,0.356689
1519425710630,0.884277,-1.072266,0.236572
1519425710664,0.862549,-0.452637,0.108398
1519425710736,0.926758,-0.227051,0.038330
1519425710741,1.174561,-0.479248,0.002197
1519425710804,1.096191,-0.529541,0.102051
1519425710872,0.824219,-0.366455,0.272705
1519425710938,0.582275,-0.381592,0.366455
1519425710943,0.388672,-0.409424,0.312500
1519425711006,0.268799,-0.343506,0.211670
1519425711072,0.256836,-0.301270,0.147217
1519425711076,0.350586,-0.222412,0.191895
1519425711141,0.428467,-0.247314,0.300781
1519425711146,0.498291,-0.458740,0.405762
1519425711208,0.671631,-0.849609,0.420898
1519425711213,0.955322,-1.096191,0.409424
1519425711237,1.037598,-1.253662,0.603516
1519425711242,0.998779,-1.431396,0.615723
1519425711247,0.898438,-0.755615,0.189453
1519425711253,1.061523,-0.432617,0.125000
1519425711258,0.895020,-0.208252,0.102295
1519425711265,0.900391,-0.269043,0.029785
1519425711314,0.926270,-0.561279,-0.116699
1519425711347,0.845215,-1.289795,0.011719
1519425711379,0.691650,-0.796631,0.104492
1519425711416,0.562500,-0.383057,0.136719
1519425711423,0.461670,-0.212891,0.078369
1519425711460,0.417236,-0.194092,0.040527
1519425711494,0.426270,-0.230957,0.064697
1519425711527,0.492676,-0.473633,0.145752
1519425711560,0.544189,-0.685303,0.159912
1519425711593,0.594971,-0.906250,0.136475
1519425711632,0.759521,-0.852295,0.264404
1519425711665,0.947021,-0.686035,0.337158
1519425711698,1.123535,-0.805420,0.367432
1519425711730,1.137695,-1.139404,0.110107
1519425711763,1.074463,-1.067871,-0.030518
1519425711771,1.002930,-0.962891,-0.047119
1519425711828,0.872314,-0.328369,0.122803
1519425711859,0.978516,-0.093994,0.160645
1519425711893,1.031250,-0.447754,0.075928
1519425711925,0.833740,-0.667969,0.057129
1519425711959,0.635498,-0.465332,0.203857
1519425711990,0.470215,-0.364014,0.276611
1519425712025,0.283936,-0.308594,0.184082
1519425712057,0.250000,-0.258545,0.172852
1519425712071,0.304688,-0.197510,0.217773
1519425712128,0.395020,-0.294678,0.268555
1519425712162,0.485840,-0.495605,0.334229
1519425712167,0.673096,-0.757080,0.515869
1519425712221,0.884277,-1.042725,0.524414
1519425712254,0.936768,-1.204590,0.556885
1519425712260,1.028809,-1.583984,0.869873
1519425712312,0.895264,-0.854248,0.255371
1519425712344,1.077637,-0.282715,0.261230
1519425712379,1.005615,-0.102051,0.077393
1519425712412,1.072021,-0.300293,-0.023438
1519425712421,1.112305,-0.676270,-0.201904
1519425712477,0.997559,-1.136475,-0.097168
1519425712491,0.651855,-0.659424,0.151367
1519425712523,0.484375,-0.371582,0.191162
1519425712556,0.409180,-0.166992,0.200684
1519425712587,0.363281,-0.248291,0.150146
1519425712620,0.375000,-0.412354,0.139893
1519425712653,0.425293,-0.588623,0.131592
1519425712687,0.515869,-0.621338,0.192871
1519425712743,0.570557,-0.672852,0.173584
1519425712749,0.695801,-0.669678,0.164551
1519425712802,1.084717,-0.854004,0.384521
1519425712835,1.219971,-1.210938,0.473633
1519425712841,1.219727,-1.027588,0.332764
1519425712894,1.043457,-0.994629,0.071045
1519425712907,0.795654,-0.711670,0.068115
1519425712940,0.783203,-0.387207,0.016357
1519425712973,1.028320,-0.262451,0.028809
1519425713005,1.160400,-0.589600,-0.020752
1519425713038,1.006348,-0.631348,-0.013428
1519425713070,0.677734,-0.351074,0.301025
1519425713102,0.452148,-0.311523,0.370850
1519425713160,0.327881,-0.293945,0.290771
1519425713165,0.235352,-0.306152,0.190918
1519425713224,0.255859,-0.236572,0.193115
1519425713255,0.352051,-0.211914,0.212646
1519425713287,0.491699,-0.431152,0.307129
1519425713294,0.688232,-0.679932,0.397949
1519425713334,0.960938,-0.941162,0.440430
1519425713373,1.147461,-1.201660,0.637451
1519425713382,1.082764,-1.515869,0.716064
1519425713439,1.076660,-0.926270,0.475342
1519425713472,1.008545,-0.302002,0.177002
1519425713504,0.849609,-0.175537,-0.002930
1519425713537,0.804932,-0.268555,-0.036621
1519425713569,1.028564,-0.814209,-0.098633
1519425713601,0.964355,-1.149902,-0.053467
1519425713634,0.776123,-0.936523,0.091064
1519425713690,0.547607,-0.515625,0.183350
1519425713693,0.425293,-0.323242,0.204834
1519425713706,0.334229,-0.245850,0.152100
1519425713765,0.284912,-0.282471,0.112793
1519425713797,0.339111,-0.418701,0.105225
1519425713803,0.426270,-0.513916,0.198486
1519425713857,0.604248,-0.594238,0.279297
1519425713888,0.792969,-0.656982,0.067871
1519425713921,1.059326,-0.933350,0.123779
1519425713954,1.125732,-1.370605,0.631104
1519425713987,1.052246,-1.100830,0.404541
1519425714018,1.023438,-1.039307,0.049316
1519425714050,1.057373,-0.608154,0.143799
1519425714083,1.054932,-0.075195,0.154785
1519425714115,1.290771,-0.172363,0.079590
1519425714132,1.051025,-0.588867,0.022217
1519425714161,0.802734,-0.447998,0.124268
1519425714218,0.550293,-0.300537,0.244385
1519425714252,0.302246,-0.220215,0.210938
1519425714285,0.202881,-0.222900,0.210205
1519425714290,0.218262,-0.247070,0.266113
1519425714344,0.260986,-0.331055,0.278809
1519425714350,0.304443,-0.428955,0.256836
1519425714383,0.411377,-0.554443,0.344238
1519425714442,0.852295,-0.726807,0.565430
1519425714448,1.146973,-0.828857,0.539795
1519425714504,1.056641,-1.456543,0.699219
1519425714536,1.010498,-1.635498,0.510254
1519425714550,0.999756,-0.435547,0.343018
1519425714583,0.979492,-0.231201,0.281982
1519425714614,0.810547,-0.064941,0.111816
1519425714648,0.966553,-0.424316,-0.052979
1519425714680,1.033447,-0.869873,-0.151855
1519425714737,0.892822,-1.031494,-0.166992
1519425714769,0.709473,-0.591064,0.029297
1519425714775,0.573730,-0.299561,0.140869
1519425714833,0.443848,-0.187500,0.160156
1519425714866,0.411133,-0.322021,0.128418
1519425714869,0.402832,-0.458008,0.146484
1519425714925,0.437744,-0.632080,0.194824
1519425714931,0.438965,-0.584229,0.211182
1519425714972,0.393066,-0.646240,0.188721
1519425714992,0.689941,-0.855469,0.346436
1519425715048,1.070557,-1.023682,0.418457
1519425715081,1.265381,-1.153076,0.284424
1519425715113,1.253662,-0.800537,0.129395
1519425715146,1.138672,-0.733643,0.029785
1519425715178,0.860107,-0.729736,-0.041748
1519425715211,0.788818,-0.404541,-0.027100
1519425715243,1.001953,-0.391602,0.029053
1519425715276,1.136719,-0.741699,0.014404
1519425715309,0.903076,-0.691406,0.013916
1519425715314,0.680176,-0.439697,0.229980
1519425715344,0.483398,-0.304688,0.318359
1519425715403,0.333496,-0.243164,0.227051
1519425715407,0.291504,-0.226318,0.185303
1519425715444,0.346924,-0.258545,0.205566
1519425715477,0.430176,-0.373291,0.205322
1519425715512,0.490967,-0.522705,0.236572
1519425715568,0.566895,-0.650146,0.304688
1519425715574,0.791260,-0.633301,0.405029
1519425715632,0.965576,-0.840576,0.374268
1519425715664,0.956787,-1.149658,0.477295
1519425715737,0.993652,-1.650879,0.954834
1519425715742,0.836670,-0.735840,0.256348
1519425715803,0.946045,-0.361328,0.172607
1519425715810,0.788574,-0.226318,0.029297
1519425715870,0.883789,-0.336426,-0.004395
1519425715874,1.046143,-0.539063,-0.099365
1519425715938,1.016357,-1.338379,-0.179199
1519425715943,0.723145,-0.841309,-0.049072
1519425716006,0.582275,-0.375732,0.080566
1519425716012,0.449463,-0.125244,0.116699
1519425716072,0.424805,-0.195313,0.110840
1519425716076,0.438965,-0.363770,0.146240
1519425716140,0.539795,-0.675293,0.167480
1519425716145,0.576904,-0.694092,0.208740
1519425716208,0.576416,-0.652344,0.289551
1519425716211,0.584473,-0.590820,0.127441
1519425716214,0.912109,-0.611572,0.170410
1519425716222,1.156738,-0.886475,0.232422
1519425716256,1.101074,-1.012207,0.392090
1519425716292,0.979492,-0.834717,0.184570
1519425716326,0.877930,-1.011230,0.006592
1519425716360,0.648682,-0.645264,0.011475
1519425716392,0.610107,-0.365479,-0.057617
1519425716424,0.865723,-0.425049,0.016846
1519425716457,1.052246,-0.655273,0.033936
1519425716491,0.929688,-0.832031,0.075684
1519425716523,0.761230,-0.686279,0.215088
1519425716556,0.559570,-0.391357,0.321289
1519425716589,0.485840,-0.330811,0.278564
1519425716622,0.455566,-0.371094,0.210938
1519425716655,0.438232,-0.249756,0.154541
1519425716688,0.432617,-0.244385,0.177490
1519425716720,0.484863,-0.388672,0.244385
1519425716754,0.617432,-0.601563,0.358643
1519425716786,0.791748,-0.657227,0.374023
1519425716824,0.967773,-0.878906,0.292236
1519425716854,0.798096,-1.329834,0.315186
1519425716885,0.776611,-1.582031,0.588623
1519425716893,0.791260,-0.892578,0.418701
1519425716942,0.922119,-0.391113,0.233887
1519425716984,0.946533,-0.245361,0.128174
1519425716987,0.888184,-0.261475,0.071777
1519425717017,0.911865,-0.278320,-0.159180
1519425717075,0.923828,-0.859863,-0.241211
1519425717111,0.869385,-1.313232,-0.111572
1519425717145,0.664063,-0.544434,0.113525
1519425717154,0.586182,-0.347412,0.158447
1519425717209,0.523682,-0.314941,0.125977
1519425717240,0.493164,-0.494141,0.077881
1519425717253,0.475098,-0.587402,0.041260
1519425717279,0.488770,-0.644775,0.069092
1519425717335,0.524902,-0.590088,0.148193
1519425717340,0.559326,-0.563721,0.285400
1519425717383,0.619873,-0.562988,0.206787
1519425717438,0.959717,-0.604736,0.166016
1519425717444,1.176270,-0.938721,0.254395
1519425717473,1.190674,-1.256592,0.315430
1519425717506,1.066162,-0.958496,0.101807
1519425717537,0.980225,-0.914795,0.114746
1519425717566,0.831055,-0.683105,0.124512
1519425717623,0.912598,-0.101074,0.080566
1519425717657,1.120361,-0.218994,-0.055908
1519425717690,1.034180,-0.580566,-0.157227
1519425717722,0.751221,-0.483643,-0.030273
1519425717754,0.586670,-0.341309,0.181396
1519425717768,0.457764,-0.286621,0.288818
1519425717801,0.398438,-0.343994,0.313965
1519425717834,0.431641,-0.401367,0.330322
1519425717866,0.460449,-0.427979,0.323730
1519425717924,0.446777,-0.428955,0.263672
1519425717933,0.476563,-0.479492,0.306641
1519425717957,0.559814,-0.512451,0.432617
1519425718015,0.869141,-0.706055,0.386963
1519425718023,1.109375,-1.126221,0.504639
1519425718047,0.985596,-1.417480,0.677002
1519425718105,0.843018,-0.967773,0.405518
1519425718137,0.919434,-0.337402,0.231445
1519425718146,0.856201,-0.384521,0.135254
1519425718185,0.674805,-0.351563,0.098877
1519425718223,0.850098,-0.487061,-0.006836
1519425718256,0.926758,-0.793701,-0.160889
1519425718287,0.871826,-1.356934,-0.245850
1519425718320,0.703857,-0.786133,-0.072266
1519425718355,0.582275,-0.411621,0.055176
1519425718390,0.512451,-0.142090,0.177734
1519425718422,0.503662,-0.317383,0.161621
1519425718453,0.504150,-0.502197,0.131836
1519425718487,0.543213,-0.622070,0.136963
1519425718521,0.564453,-0.608154,0.146484
1519425718552,0.597168,-0.534424,0.196289
1519425718584,0.926270,-0.710693,0.122803
1519425718598,1.276855,-1.032471,0.051514
1519425718632,1.191406,-1.088135,0.204834
1519425718663,1.053467,-0.634033,0.560791
1519425718721,0.994141,-0.579102,0.226074
1519425718753,0.913574,-0.750244,-0.135742
1519425718760,0.684570,-0.617676,-0.214111
1519425718810,0.626953,-0.373291,-0.181152
1519425718847,0.844971,-0.235107,-0.163330
1519425718880,0.908691,-0.369141,-0.036133
1519425718913,0.819336,-0.456055,0.089844
1519425718922,0.692139,-0.482178,0.157715
1519425718971,0.510010,-0.659424,0.162842
1519425719006,0.436523,-0.740479,0.108643
1519425719020,0.408447,-0.752197,0.042480
1519425719067,0.426270,-0.614014,0.036865
1519425719101,0.468994,-0.529785,0.085449
1519425719134,0.503174,-0.657715,0.067383
1519425719141,0.487549,-0.796875,0.116699
1519425719177,0.489746,-0.672119,0.132080
1519425719212,0.626953,-0.855713,0.089844
1519425719267,0.681396,-1.176025,-0.015137
1519425719302,0.691162,-1.180176,-0.125732
1519425719310,0.826172,-1.130371,-0.230713
1519425719360,1.103516,-0.815674,-0.199463
1519425719393,1.073242,-0.561279,-0.024658
1519425719403,0.975098,-0.559326,0.122803
1519425719463,0.742676,-0.385010,-0.153809
1519425719469,0.637451,-0.593506,-0.322266
1519425719498,0.565918,-0.572021,-0.490479
1519425719530,0.698486,-0.646729,-0.615479
1519425719562,0.650391,-0.680908,-0.615967
1519425719595,0.556641,-0.515625,-0.508057
1519425719629,0.431152,-0.425049,-0.332520
1519425719661,0.439941,-0.575684,-0.300537
1519425719694,0.413330,-0.490479,-0.227295
1519425719733,0.371094,-0.588867,-0.294678
1519425719764,0.366943,-0.857910,-0.387451
1519425719797,0.342529,-0.903564,-0.444580
1519425719837,0.495605,-0.670654,-0.546875
1519425719870,0.643311,-0.804932,-0.674316
1519425719877,0.763916,-1.303955,-0.719727
1519425719933,0.711426,-1.105469,-0.413086
1519425719966,0.738770,-0.335938,-0.267090
1519425719973,1.061523,-0.358154,0.522461
1519425720032,0.755859,-1.202393,0.615234
1519425720062,0.658936,-0.410645,0.386963
1519425720090,0.787598,-0.146729,0.287598
1519425720122,0.980469,-0.328369,0.302246
1519425720157,0.902344,-0.621338,0.295410
1519425720190,0.679688,-0.562012,0.268311
1519425720205,0.447510,-0.487061,0.289551
1519425720263,0.489502,-0.533936,0.321533
1519425720297,0.443604,-0.498291,0.341797
1519425720330,0.445313,-0.387207,0.313721
1519425720345,0.466797,-0.383789,0.354980
1519425720421,0.466553,-0.567871,0.511719
1519425720423,0.504395,-1.001465,0.400146
1519425720476,0.602295,-0.747803,0.156250
1519425720478,0.814697,-0.752930,0.311768
1519425720527,0.883545,-0.826172,0.530273
1519425720573,0.859131,-0.761475,0.093018
1519425720576,0.934570,-0.732422,-0.011963
1519425720656,1.039307,-0.693359,0.060059
1519425720658,0.847900,-0.505615,0.104492
1519425720665,0.794434,-0.756836,0.015869
1519425720775,0.682129,-0.970215,-0.068115
1519425720842,0.583496,-0.839600,-0.091553
1519425720845,0.549072,-0.595215,-0.090576
1519425720940,0.635010,-0.434326,-0.107422
1519425720948,0.643066,-0.440430,-0.083740
1519425721006,0.653809,-0.507568,-0.035156
1519425721018,0.659912,-0.509766,0.014160
1519425721104,0.683350,-0.497559,0.027832
1519425721174,0.668213,-0.485107,0.041992
1519425721188,0.708252,-0.457764,0.117188
1519425721267,0.812256,-0.473389,0.133301
1519425721334,0.930908,-0.527100,0.062744
1519425721345,1.125244,-0.598633,0.013672
1519425721370,1.043213,-0.586182,0.073242
1519425721373,0.898438,-0.598145,0.120117
1519425721382,1.036133,-0.871826,0.135986
1519425721385,1.060303,-1.131592,0.031250
1519425721389,0.963135,-1.036133,0.045654
1519425721432,0.747314,-0.646729,0.073486
1519425721443,0.671143,-0.437744,0.024658
1519425721451,0.812012,-0.421143,-0.050049
1519425721455,1.000488,-0.511475,0.084961
1519425721458,0.865234,-0.344727,0.239746
1519425721462,0.691406,-0.293213,0.350098
1519425721493,0.549316,-0.369141,0.238037
1519425721496,0.487305,-0.470947,0.208984
1519425721529,0.501221,-0.502686,0.253418
1519425721566,0.527588,-0.454346,0.304199
1519425721598,0.511475,-0.342773,0.332520
1519425721631,0.497803,-0.322998,0.346924
1519425721663,0.477295,-0.562500,0.371582
1519425721697,0.459717,-0.734375,0.465332
1519425721730,0.589111,-0.713135,0.456299
1519425721763,0.847412,-0.922607,0.476563
1519425721796,0.765381,-1.239502,0.548096
1519425721828,0.906494,-1.518066,0.644043
1519425721859,0.999756,-0.623535,0.389648
1519425721891,0.970215,-0.089600,0.182129
1519425721924,0.915527,-0.174805,0.175537
1519425721956,0.912842,-0.189209,0.171875
1519425721998,0.990723,-0.483398,-0.037842
1519425722002,0.942383,-1.041260,-0.170166
1519425722056,0.742432,-1.077637,-0.129883
1519425722089,0.613770,-0.536865,-0.058350
1519425722126,0.553467,-0.318604,0.022705
1519425722156,0.547363,-0.335693,0.100342
1519425722164,0.524414,-0.465088,0.123535
1519425722222,0.506592,-0.594238,0.148926
1519425722254,0.482178,-0.698975,0.181641
1519425722287,0.491943,-0.682861,0.197998
1519425722320,0.507813,-0.615479,0.133057
1519425722353,0.759033,-0.709961,0.117920
1519425722384,1.091797,-0.817871,0.338867
1519425722397,1.265381,-1.043213,0.494385
1519425722455,1.174072,-0.860596,0.126465
1519425722489,1.018066,-0.929443,0.029297
1519425722492,0.803467,-0.616211,0.041748
1519425722551,0.787842,-0.231445,-0.000244
1519425722584,1.048584,-0.368164,-0.041504
1519425722587,1.082031,-0.743652,-0.072998
1519425722649,0.815186,-0.723389,0.115967
1519425722652,0.619385,-0.441162,0.358154
1519425722684,0.438477,-0.295654,0.377197
1519425722716,0.349121,-0.316650,0.272217
1519425722749,0.351563,-0.331787,0.226807
1519425722781,0.388672,-0.274414,0.222900
1519425722823,0.412354,-0.292236,0.254395
1519425722855,0.440674,-0.502441,0.318848
1519425722889,0.542480,-0.765625,0.376221
1519425722920,0.784180,-0.788086,0.312744
1519425722953,1.021484,-1.129395,0.365723
1519425722984,0.764648,-1.490967,0.700195
1519425723017,0.719238,-1.112061,0.445557
1519425723050,0.911377,-0.286133,0.218994
1519425723086,1.065186,-0.194336,0.130615
1519425723118,0.935791,-0.368164,0.217773
1519425723125,0.978760,-0.324951,0.102051
1519425723183,1.021240,-0.595947,-0.112549
1519425723198,0.903809,-1.216797,-0.033936
1519425723233,0.726074,-0.720947,0.144531
1519425723266,0.586426,-0.354492,0.209229
1519425723299,0.504150,-0.265625,0.106934
1519425723333,0.484863,-0.302002,0.042969
1519425723366,0.497559,-0.408203,0.084961
1519425723398,0.564941,-0.560547,0.176514
1519425723430,0.586182,-0.695557,0.236572
1519425723461,0.534424,-0.651123,0.328613
1519425723519,0.669922,-0.465332,0.128418
1519425723524,0.989990,-0.534180,0.106689
1519425723553,1.118164,-1.025879,0.266846
1519425723610,0.903076,-1.238037,0.366699
1519425723623,0.891357,-0.689453,0.212891
1519425723656,1.037109,-0.608643,0.099609
1519425723691,0.964844,-0.379639,0.047852
1519425723726,0.970459,-0.140137,0.038086
1519425723741,1.149170,-0.166992,0.098877
1519425723774,1.202148,-0.689209,0.377930
1519425723811,0.959961,-0.666504,0.402832
1519425723843,0.665039,-0.547363,0.289063
1519425723876,0.390381,-0.509521,0.242432
1519425723932,0.283691,-0.469482,0.232666
1519425723938,0.217773,-0.301514,0.302979
1519425723998,0.124512,-0.114746,0.392090
1519425724054,0.254395,-0.285400,0.289307
1519425724059,0.352295,-0.409180,0.248779
1519425724100,0.593018,-0.522217,0.303955
1519425724146,0.848633,-0.684814,0.359863
1519425724150,0.892822,-1.410645,0.529785
1519425724182,0.432129,-1.564453,0.579346
1519425724229,0.322998,-1.258057,0.500000
1519425724234,1.107666,-0.019775,0.551025
1519425724310,1.013672,-0.604248,0.402588
1519425724314,1.224365,-0.432861,0.068604
1519425724320,1.115723,-0.405518,-0.091064
1519425724371,0.893799,-1.223877,0.008545
1519425724433,0.653320,-1.214844,0.056152
1519425724477,0.469482,-0.686523,0.004639
1519425724491,0.416016,-0.603516,0.016113
1519425724497,0.444824,-0.624268,0.017822
1519425724515,0.441650,-0.586914,0.076416
1519425724590,0.426025,-0.605957,0.050293
1519425724594,0.374268,-0.808594,0.020752
1519425724640,0.408936,-1.082031,0.164795
1519425724678,0.380127,-0.964355,0.555420
1519425724724,0.455811,-0.570068,0.235596
1519425724732,0.656250,-1.035400,0.291748
1519425724759,1.111572,-0.946289,0.015381
1519425724805,1.216064,-0.562744,0.107666
1519425724808,1.328857,-0.351318,0.151611
1519425724839,1.224121,-0.527588,0.190674
1519425724886,1.048584,-0.671387,0.213135
1519425724940,0.851563,-0.726807,0.259033
1519425724942,0.556152,-0.651367,0.168701
1519425724974,0.369629,-0.607910,0.128662
1519425725008,0.256592,-0.567871,0.184082
1519425725041,0.243652,-0.401855,0.311035
1519425725074,0.219971,-0.263428,0.336182
1519425725106,0.259277,-0.308594,0.330566
1519425725139,0.250977,-0.549561,0.238525
1519425725173,0.494385,-0.857666,0.304688
1519425725210,0.696533,-1.007813,0.305908
1519425725244,0.637451,-1.839600,0.275635
1519425725275,0.820557,-1.673340,0.617676
1519425725307,0.979492,-0.229004,0.532471
1519425725320,1.025391,-0.166016,0.373535
1519425725354,1.385986,-0.493652,0.335449
1519425725386,1.499023,-1.023438,0.202393
1519425725443,1.066650,-0.997559,-0.034668
1519425725476,0.786865,-0.819092,0.121338
1519425725482,0.528809,-0.465576,0.203613
1519425725534,0.343750,-0.137207,0.080566
1519425725566,0.244873,-0.095703,0.007813
1519425725571,0.220215,-0.163330,-0.024902
1519425725625,0.276855,-0.442383,0.039063
1519425725657,0.355713,-0.550537,0.082275
1519425725731,0.524658,-0.751709,0.171143
1519425725737,0.829834,-0.965576,0.184814
1519425725799,1.064453,-1.038330,0.212402
1519425725808,1.143555,-1.033203,0.433105
1519425725867,1.054932,-0.659668,0.782715
1519425725875,1.055664,-0.787842,0.394775
1519425725935,0.922852,-0.684570,0.143799
1519425725943,1.056152,-0.270264,0.195801
1519425726002,1.279541,-0.410400,0.137207
1519425726010,1.044678,-0.645020,0.107910
1519425726067,0.599609,-0.531006,0.309082
1519425726070,0.344971,-0.388672,0.321289
1519425726136,0.144775,-0.263428,0.266357
1519425726145,0.014893,-0.193848,0.182129
1519425726202,0.003662,-0.249268,0.110596
1519425726206,0.172607,-0.401855,0.215576
1519425726227,0.428955,-0.739014,0.342285
1519425726230,0.697754,-1.002197,0.557861
1519425726260,0.967529,-0.924805,0.829834
1519425726294,1.181885,-0.967041,0.811523
1519425726326,1.034912,-1.295166,0.700928
1519425726359,0.977051,-1.418945,0.405029
1519425726393,0.885986,-0.477051,0.157959
1519425726424,0.851563,-0.045410,0.145020
1519425726455,1.015381,-0.031250,0.045410
1519425726490,1.355469,-0.614014,-0.206787
1519425726523,1.274170,-1.003906,-0.383789
1519425726558,0.847168,-1.056396,-0.225098
1519425726589,0.418457,-0.215088,0.064453
1519425726622,0.211914,-0.110352,0.145996
1519425726654,0.179932,-0.150879,0.234619
1519425726686,0.385254,-0.529297,0.334473
1519425726718,0.507324,-0.679199,0.259521
1519425726751,0.566895,-0.712646,0.160400
1519425726784,0.714600,-0.848389,0.155762
1519425726816,1.046875,-0.968506,0.341797
1519425726851,1.159180,-0.881836,0.542969
1519425726883,1.015869,-0.539795,0.612793
1519425726916,1.043945,-0.965820,0.407227
1519425726953,0.934814,-0.931152,0.219971
1519425726966,0.789795,-0.585205,0.157227
1519425726997,0.861816,-0.380371,0.082275
1519425727032,0.949463,-0.368164,0.052490
1519425727088,1.044922,-0.569092,0.104492
1519425727093,0.940186,-0.334717,0.235596
1519425727122,0.636475,-0.330322,0.301025
1519425727180,0.333984,-0.394775,0.329590
1519425727189,0.213623,-0.391602,0.303223
1519425727213,0.199951,-0.258545,0.268066
1519425727272,0.218750,-0.263672,0.155518
1519425727304,0.321289,-0.367920,0.114258
1519425727313,0.431641,-0.510986,0.130371
1519425727366,0.628906,-0.988281,0.346191
1519425727380,1.019775,-1.213623,0.726807
1519425727412,1.233643,-0.839600,0.927734
1519425727446,0.979004,-1.279053,0.640625
1519425727503,1.067627,-1.230957,0.487549
1519425727509,0.899170,-0.462646,0.110596
1519425727564,1.013916,-0.535889,0.227539
1519425727594,1.023193,-0.471191,0.131592
1519425727597,1.010010,-0.567139,0.099121
1519425727652,0.740234,-0.640381,0.244385
1519425727685,0.442871,-0.561279,0.181885
1519425727717,0.246826,-0.288818,0.175293
1519425727770,0.157471,-0.080078,0.190430
1519425727775,0.230225,-0.087402,0.221436
1519425727817,0.360352,-0.259033,0.235107
1519425727848,0.588623,-0.594238,0.303467
1519425727881,0.747803,-0.703369,0.327637
1519425727917,0.839600,-0.812744,0.176025
1519425727925,1.288330,-0.830566,0.255615
1519425727981,1.333008,-1.081543,0.541260
1519425728014,1.163818,-0.912842,0.735107
1519425728046,1.028809,-0.881348,0.296387
1519425728078,0.996338,-0.531738,0.149414
1519425728085,1.021484,-0.081055,0.119385
1519425728137,1.294434,-0.278564,0.033203
1519425728170,1.040283,-0.477295,0.045654
1519425728176,0.719727,-0.611572,0.177490
1519425728241,0.343262,-0.578613,0.421387
1519425728246,0.185791,-0.352051,0.354492
1519425728300,0.146729,-0.177734,0.257080
1519425728332,0.169189,-0.062012,0.181885
1519425728340,0.209229,-0.055420,0.201660
1519425728396,0.316406,-0.304199,0.242920
1519425728428,0.639648,-0.853271,0.331543
1519425728461,1.057617,-1.117676,0.510742
1519425728493,1.408447,-0.923584,0.782715
1519425728526,0.996582,-1.828613,0.901611
1519425728558,0.909180,-1.274902,0.240967
1519425728590,0.969971,-0.286133,0.094971
1519425728606,0.923828,-0.091797,0.167725
1519425728662,1.028564,-0.218262,0.169189
1519425728664,1.117676,-0.650635,0.076172
1519425728722,1.006592,-1.008057,0.009521
1519425728755,0.643799,-0.854980,0.039551
1519425728760,0.411133,-0.286865,0.193115
1519425728814,0.226318,-0.077881,0.095459
1519425728846,0.193115,-0.117188,0.038574
1519425728858,0.315918,-0.298096,0.112793
1519425728915,0.562012,-0.408936,0.327881
1519425728924,0.679932,-0.679932,0.314453
1519425728976,0.704834,-0.778564,0.175781
1519425729009,1.228760,-0.821045,0.427490
1519425729023,1.449707,-1.053467,0.605957
1519425729077,1.258301,-1.107422,0.680664
1519425729110,1.123779,-1.059326,0.279297
1519425729144,1.015137,-0.697998,0.124756
1519425729153,0.967285,-0.146484,0.041504
1519425729203,1.049805,-0.185791,-0.010742
1519425729211,0.950195,-0.491943,-0.062256
1519425729264,0.681885,-0.474121,-0.010498
1519425729297,0.407227,-0.427002,0.233887
1519425729306,0.295166,-0.355957,0.318604
1519425729359,0.241455,-0.336670,0.290527
1519425729393,0.254639,-0.273193,0.182861
1519425729425,0.255615,-0.229492,0.225098
1519425729438,0.450928,-0.395264,0.327881
1519425729495,0.738037,-0.574707,0.564453
1519425729500,1.050049,-0.697266,0.854004
1519425729557,1.279053,-0.916016,0.941162
1519425729590,0.886719,-1.046143,1.174805
1519425729623,0.780518,-0.978027,0.831543
1519425729626,0.733887,-0.526123,0.350342
1519425729683,0.680176,-0.183838,0.050293
1519425729692,0.918213,-0.336182,0.161133
1519425729722,1.246582,-0.805176,0.321045
1519425729783,1.128174,-1.309326,0.129150
1519425729792,0.628418,-0.655518,0.092773
1519425729824,0.224365,-0.002930,0.105225
1519425729866,0.058594,-0.014893,0.039551
1519425729898,0.020508,-0.097168,0.035645
1519425729931,0.109863,-0.210938,0.145996
1519425729963,0.480469,-0.534912,0.308594
1519425729995,0.736572,-0.997803,0.419678
1519425730029,0.989502,-0.854736,0.446533
1519425730060,1.338379,-0.918457,0.393799
1519425730091,1.268799,-0.850586,0.529053
1519425730124,0.981689,-0.588867,0.729248
1519425730157,0.971191,-1.105713,0.352295
1519425730190,0.802246,-0.822021,0.141602
1519425730222,0.656494,-0.417969,0.104492
1519425730264,0.864746,-0.507324,0.189697
1519425730269,0.860840,-0.747070,0.172363
1519425730303,0.766602,-0.821777,0.185791
1519425730359,0.525146,-0.295166,0.398926
1519425730391,0.370361,-0.154541,0.314697
1519425730423,0.305420,-0.145264,0.193848
1519425730456,0.283936,-0.185791,0.141846
1519425730487,0.331055,-0.218506,0.226807
1519425730519,0.345459,-0.401611,0.218262
1519425730553,0.681885,-0.705566,0.517090
1519425730584,0.983887,-0.883057,0.588135
1519425730616,1.222900,-0.895264,0.634521
1519425730649,1.048828,-1.262939,0.830566
1519425730681,0.810303,-1.517334,0.801270
1519425730683,0.783203,-0.531006,0.468506
1519425730754,0.776855,-0.187256,0.142334
1519425730820,0.990723,-0.336426,0.133789
1519425730828,1.164795,-0.861816,0.029541
1519425730888,0.915771,-1.332520,-0.160156
1519425730896,0.564697,-0.607422,0.048584
1519425730956,0.292969,0.002686,0.237061
1519425730965,0.187744,-0.064209,0.213623
1519425731023,0.154297,-0.134521,0.183350
1519425731031,0.199463,-0.201904,0.149170
1519425731090,0.507568,-0.571777,0.311279
1519425731101,0.757080,-0.758789,0.562744
1519425731156,0.927002,-0.880371,0.186768
1519425731159,1.330566,-0.947266,0.382813
1519425731209,1.106689,-1.015869,0.895508
1519425731212,0.880615,-0.781494,0.927246
1519425731215,0.850830,-1.006836,0.471436
1519425731245,0.843018,-0.766113,0.211914
1519425731277,0.862061,-0.266113,0.138916
1519425731335,1.061523,-0.095215,0.070313
1519425731344,1.044189,-0.396240,0.161865
1519425731368,0.786377,-0.345459,0.431641
1519425731400,0.468750,-0.353271,0.453125
1519425731434,0.328125,-0.436768,0.398682
1519425731467,0.239258,-0.350342,0.288086
1519425731498,0.279297,-0.227783,0.213379
1519425731539,0.350830,-0.278320,0.303711
1519425731574,0.410156,-0.448730,0.402344
1519425731608,0.488037,-0.682129,0.569824
1519425731641,0.751953,-0.905762,0.645020
1519425731646,1.046875,-0.678223,0.613770
1519425731704,1.073975,-1.023193,0.932617
1519425731737,1.051514,-1.532715,0.916992
1519425731747,0.944092,-0.715088,0.593262
1519425731802,0.826172,0.026367,0.239990
1519425731834,0.937500,-0.015869,0.065430
1519425731867,1.104004,-0.346191,-0.106445
1519425731881,1.020508,-1.434570,-0.335938
1519425731916,0.726074,-1.019043,-0.105713
1519425731959,0.507080,-0.399902,0.117676
1519425731991,0.325439,-0.175781,0.118164
1519425732024,0.267090,-0.180176,0.086426
1519425732058,0.292480,-0.232910,0.149902
1519425732089,0.508301,-0.394043,0.329102
1519425732121,0.644775,-0.638672,0.479980
1519425732153,0.653809,-0.777100,0.415039
1519425732186,0.828125,-0.687744,0.211670
1519425732217,1.175049,-0.802246,0.495117
1519425732250,1.248291,-1.084961,0.625488
1519425732283,1.045898,-0.887451,0.398926
1519425732315,0.993408,-0.967041,0.278809
1519425732331,0.901855,-0.642090,0.135986
1519425732387,0.941406,-0.194580,0.064941
1519425732396,1.173096,-0.415527,0.066406
1519425732453,1.052246,-0.718018,-0.019775
1519425732483,0.731201,-0.375977,0.122559
1519425732489,0.525146,-0.196777,0.322998
1519425732547,0.399170,-0.191406,0.380859
1519425732581,0.324463,-0.263916,0.242188
1519425732612,0.329346,-0.265381,0.161133
1519425732645,0.388428,-0.254883,0.165039
1519425732676,0.406250,-0.391357,0.272461
1519425732709,0.562744,-0.591064,0.416748
1519425732726,0.888428,-0.883545,0.533203
1519425732759,1.269775,-0.834717,0.537598
1519425732774,1.329102,-1.120850,0.652100
1519425732816,1.246582,-1.283447,0.692627
1519425732857,0.949219,-0.343994,0.290771
1519425732891,0.734375,-0.030273,0.024170
1519425732923,0.810303,-0.163574,0.033691
1519425732956,1.065186,-0.660400,-0.208984
1519425732989,1.053711,-1.440430,-0.297852
1519425733020,0.816895,-0.921387,0.022705
1519425733052,0.514404,-0.344727,0.169189
1519425733085,0.373291,-0.117188,0.156738
1519425733117,0.289307,-0.079346,0.147949
1519425733159,0.306641,-0.213623,0.230469
1519425733191,0.417480,-0.376709,0.325684
1519425733196,0.547607,-0.639648,0.293945
1519425733249,0.632080,-0.830322,0.234375
1519425733257,0.775391,-0.778076,0.153320
1519425733285,0.973877,-0.932617,0.049805
1519425733342,1.090332,-1.070313,0.262207
1519425733376,1.036377,-0.511230,0.656494
1519425733409,1.163574,-0.504639,0.458496
1519425733442,1.006836,-1.154541,0.030273
1519425733475,0.849121,-0.674805,0.116455
1519425733506,0.880615,-0.386230,0.070068
1519425733538,1.035156,-0.570557,-0.071289
1519425733553,0.918457,-0.748047,-0.171143
1519425733610,0.740479,-0.530518,-0.053223
1519425733642,0.546387,-0.302734,0.193604
1519425733674,0.485596,-0.420898,0.303467
1519425733677,0.451172,-0.451904,0.282959
1519425733734,0.465820,-0.341309,0.310303
1519425733768,0.430908,-0.268311,0.256348
1519425733773,0.418457,-0.293213,0.227783
1519425733825,0.546387,-0.552734,0.368164
1519425733857,0.649170,-0.631592,0.447021
1519425733890,0.901123,-0.629150,0.456055
1519425733923,1.120117,-1.056641,0.549561
1519425733956,0.976807,-1.134521,0.857178
1519425733971,0.885986,-0.973389,0.703857
1519425734028,0.833252,-0.260010,0.208740
1519425734060,0.855957,-0.071777,0.082275
1519425734091,0.990234,-0.410889,0.104980
1519425734099,1.040771,-0.513428,-0.080566
1519425734171,1.012939,-1.061523,-0.226563
1519425734179,0.876221,-0.980469,-0.030273
1519425734203,0.682861,-0.406494,0.195801
1519425734236,0.590088,-0.207031,0.259521
1519425734269,0.555908,-0.321289,0.164307
1519425734301,0.538574,-0.382813,0.202393
1519425734333,0.520508,-0.395508,0.117432
1519425734365,0.546387,-0.501953,0.170898
1519425734406,0.554932,-0.497559,0.492188
1519425734438,0.515625,-0.596191,0.435059
1519425734473,0.620361,-0.621582,0.172119
1519425734505,1.032227,-0.570313,0.272705
1519425734537,1.152832,-0.769287,0.415039
1519425734571,1.042969,-0.650391,0.535889
1519425734602,0.753662,-0.392090,0.463135
1519425734634,0.815430,-0.786865,0.189209
1519425734670,0.864014,-0.928955,0.060547
1519425734703,0.954102,-0.471436,-0.046875
1519425734735,1.076660,-0.305908,-0.108887
1519425734769,1.157227,-0.417236,0.049316
1519425734783,1.036621,-0.790283,0.518311
1519425734814,0.775146,-0.827148,0.599609
1519425734846,0.531494,-0.341064,0.294922
1519425734878,0.397705,-0.168213,0.104004
1519425734911,0.410645,-0.315674,0.122559
1519425734944,0.443604,-0.447754,0.205078
1519425734977,0.504639,-0.499756,0.275391
1519425735011,0.501953,-0.418945,0.341309
1519425735041,0.421143,-0.347168,0.450195
1519425735073,0.480469,-0.519531,0.497314
1519425735106,0.675537,-0.728516,0.354980
1519425735138,0.918701,-0.895508,0.284668
1519425735171,1.169189,-1.216309,0.516602
1519425735204,1.420654,-1.623779,0.659668
1519425735238,1.298584,-0.633545,0.393799
1519425735271,0.720459,0.052979,0.099121
1519425735303,0.874023,0.171143,0.303955
1519425735334,0.925293,-0.303223,0.114258
1519425735367,0.968506,-1.131348,-0.105469
1519425735398,0.808105,-0.943115,0.135254
1519425735449,0.662354,-0.488770,0.270020
1519425735453,0.514648,-0.282227,0.156006
1519425735482,0.511475,-0.281738,0.079102
1519425735516,0.531982,-0.338623,0.033691
1519425735549,0.570313,-0.453125,-0.000732
1519425735589,0.598389,-0.574463,-0.005127
1519425735625,0.588135,-0.540283,0.114014
1519425735657,0.659424,-0.577393,0.387939
1519425735731,0.650391,-0.635010,0.484375
1519425735740,0.652100,-0.550537,0.253906
1519425735798,1.002930,-0.635254,0.445801
1519425735807,1.151123,-0.864014,0.484131
1519425735865,1.130615,-0.783936,0.448486
1519425735874,1.071289,-1.012207,0.330322
1519425735931,0.955566,-1.074219,0.227539
1519425735935,0.825195,-0.754639,0.173828
1519425735999,0.882813,-0.318848,-0.003418
1519425736069,1.029053,-0.249268,-0.092529
1519425736135,1.070557,-0.509033,-0.070557
1519425736140,1.007324,-0.408203,0.335205
1519425736204,0.792480,-0.405029,0.491699
1519425736212,0.574707,-0.405518,0.359863
1519425736223,0.346191,-0.300537,0.243164
1519425736231,0.281738,-0.235352,0.183594
1519425736239,0.265381,-0.243652,0.135742
1519425736249,0.260742,-0.207031,0.152588
1519425736282,0.350098,-0.310547,0.253906
1519425736318,0.427734,-0.510010,0.400635
1519425736350,0.604492,-0.624268,0.643066
1519425736383,0.825684,-0.548828,0.627930
1519425736391,0.986572,-0.878174,0.570313
1519425736417,0.933594,-1.590088,1.067871
1519425736447,0.991943,-1.059326,0.467285
1519425736481,1.101318,-0.356201,0.313232
1519425736512,0.918213,-0.064697,0.031494
1519425736545,1.106934,-0.313477,0.123535
1519425736580,1.219971,-0.889160,0.025635
1519425736613,0.888428,-1.517578,-0.096680
1519425736646,0.611572,-0.825684,0.053955
1519425736678,0.433105,-0.224854,0.118408
1519425736731,0.252441,-0.021484,0.088623
1519425736748,0.265625,-0.082520,0.076172
1519425736780,0.386475,-0.216309,0.113281
1519425736813,0.430908,-0.392578,0.135498
1519425736845,0.567871,-0.470215,0.222412
1519425736878,0.819336,-0.374268,0.255859
1519425736910,1.548096,-1.012207,0.180664
1519425736941,1.467285,-1.791992,0.268555
1519425736974,1.178711,-1.416748,0.339355
1519425737006,0.881836,-1.011963,0.266357
1519425737039,0.810059,-0.627930,0.127197
1519425737072,0.964600,-0.217285,0.149414
1519425737106,1.121826,-0.191895,0.083008
1519425737137,0.917236,-0.275635,0.042725
1519425737169,0.702148,-0.254639,0.075439
1519425737203,0.451660,-0.391846,0.105957
1519425737245,0.336426,-0.320801,0.092529
1519425737254,0.293701,-0.366211,0.085693
1519425737303,0.262207,-0.387451,0.168457
1519425737336,0.246582,-0.279785,0.255615
1519425737346,0.336914,-0.325684,0.335693
1519425737397,0.684326,-0.653320,0.434082
1519425737429,1.175537,-1.027100,0.519287
1519425737461,1.257324,-1.116699,0.568115
1519425737493,1.364258,-1.797852,0.790039
1519425737526,0.961670,-0.782227,0.350830
1519425737537,0.659424,-0.110840,0.050537
1519425737593,0.866943,-0.293701,0.076416
1519425737626,1.062256,-0.645264,0.137207
1519425737639,1.122803,-1.053467,0.052979
1519425737671,0.700439,-1.020508,-0.017578
1519425737704,0.436768,-0.574951,0.099121
1519425737737,0.278076,-0.241211,0.120361
1519425737772,0.171143,-0.029053,0.070557
1519425737829,0.206055,-0.087646,0.043701
1519425737837,0.384277,-0.267822,0.098633
1519425737889,0.665283,-0.497314,0.167236
1519425737921,0.820068,-0.664551,0.245605
1519425737929,1.052490,-0.920166,0.141357
1519425737978,1.346436,-1.105957,0.187500
1519425738013,1.017334,-0.967529,0.612549
1519425738043,0.969238,-0.824463,0.774414
1519425738056,0.965820,-1.131592,0.220703
1519425738089,0.884277,-0.678955,0.000000
1519425738121,0.941895,-0.260986,-0.021240
1519425738155,1.247070,-0.230957,0.028564
1519425738188,0.999023,-0.511719,0.005127
1519425738221,0.687988,-0.364014,0.109131
1519425738279,0.331299,-0.355469,0.263184
1519425738288,0.178955,-0.354736,0.318848
1519425738342,0.125000,-0.379883,0.292480
1519425738373,0.177002,-0.388184,0.279785
1519425738376,0.290527,-0.330566,0.338623
1519425738408,0.424805,-0.432129,0.373535
1519425738440,0.713623,-0.670654,0.457520
1519425738473,0.945801,-0.871582,0.426270
1519425738510,1.117676,-0.930176,0.468018
1519425738542,0.912842,-1.604492,0.891602
1519425738575,0.797363,-1.645996,0.818115
1519425738607,0.770996,-0.544434,0.216064
1519425738638,0.829834,-0.133545,0.164551
1519425738672,0.877930,-0.030762,0.177979
1519425738705,1.208740,-0.517334,0.149414
1519425738737,1.092773,-0.917236,-0.118896
1519425738770,0.837891,-1.254883,-0.135986
1519425738803,0.564941,-0.811279,0.143799
1519425738860,0.302246,-0.152588,0.225830
1519425738869,0.153564,-0.020996,0.107666
1519425738883,0.113770,-0.101318,0.065186
1519425738938,0.262939,-0.397705,0.215332
1519425738971,0.469482,-0.676025,0.319336
1519425739003,0.697754,-0.876221,0.346680
1519425739034,0.867920,-0.937744,0.181885
1519425739067,1.196777,-1.021973,0.388916
1519425739099,1.204834,-0.549316,0.792480
1519425739131,1.157471,-0.667480,0.580078
1519425739164,1.038086,-0.992432,0.271484
1519425739197,0.901611,-1.036865,0.202637
1519425739231,0.829590,-0.468506,0.127930
1519425739263,1.000732,-0.320313,0.019531
1519425739292,1.037598,-0.501221,-0.062744
1519425739324,0.757080,-0.571533,0.079590
1519425739355,0.503174,-0.347412,0.253906
1519425739389,0.353027,-0.290527,0.331543
1519425739420,0.285156,-0.321045,0.287842
1519425739453,0.242188,-0.331299,0.229736
1519425739463,0.296631,-0.241943,0.227539
1519425739520,0.399658,-0.249756,0.252686
1519425739553,0.518066,-0.552490,0.313232
1519425739584,0.667236,-0.823730,0.480225
1519425739616,0.974121,-1.161621,0.698242
1519425739649,1.132568,-1.072266,0.790527
1519425739681,0.989990,-1.175049,0.686279
1519425739696,0.894043,-0.970215,0.542236
1519425739754,0.829102,-0.410645,0.318359
1519425739788,0.784180,-0.226074,0.164063
1519425739819,1.031982,-0.336426,0.031250
1519425739854,1.230957,-0.719482,0.010254
1519425739862,1.127197,-0.856445,-0.022705
1519425739911,0.775391,-0.801514,0.074219
1519425739943,0.507568,-0.461914,0.171875
1519425739952,0.318604,-0.254639,0.235107
1519425740005,0.132813,-0.117920,0.148193
1519425740036,0.114502,-0.227539,0.136719
1519425740070,0.223145,-0.305664,0.264648
1519425740085,0.519531,-0.693115,0.415527
1519425740117,0.686768,-1.079590,0.319336
1519425740150,0.735596,-0.912109,0.174805
1519425740183,1.234863,-0.967529,0.331787
1519425740216,1.283691,-0.822510,0.796387
1519425740257,1.059082,-0.710449,0.715088
1519425740291,1.055664,-1.091309,0.248535
1519425740323,1.056396,-0.855957,0.218750
1519425740332,1.015381,-0.116699,0.190186
1519425740384,1.074463,-0.041748,0.064941
1519425740419,0.991943,-0.372559,0.093262
1519425740435,0.776611,-0.446533,0.165039
1519425740485,0.452148,-0.327637,0.282227
1519425740492,0.307129,-0.322266,0.317139
1519425740532,0.254395,-0.343750,0.262695
1519425740568,0.257568,-0.305176,0.133057
1519425740602,0.324951,-0.341797,0.149658
1519425740633,0.434814,-0.467041,0.235352
1519425740666,0.564697,-0.667969,0.461182
1519425740740,0.745361,-0.707031,0.651123
1519425740749,1.045898,-0.767090,0.655518
1519425740808,1.107666,-1.113037,0.890381
1519425740817,1.041260,-1.165283,1.076660
1519425740875,0.970703,-0.453857,0.441406
1519425740884,0.980225,-0.305176,0.277832
1519425740941,0.860596,-0.058105,0.159180
1519425741011,1.124756,-0.574951,0.125488
1519425741076,1.254150,-1.158691,0.113037
1519425741079,0.954834,-1.062744,0.021240
1519425741144,0.579102,-0.586914,0.055420
1519425741146,0.221436,-0.168701,0.028320
1519425741211,0.093262,-0.123291,-0.026123
1519425741214,0.107422,-0.201416,-0.025879
1519425741217,0.399902,-0.309814,0.187744
1519425741220,0.703369,-0.212891,0.532959
1519425741222,0.744629,-0.813232,0.425293
1519425741251,0.794189,-0.711426,0.260498
1519425741284,1.268311,-0.681152,0.485107
1519425741316,1.392578,-1.183838,0.532471
1519425741348,1.114014,-0.969971,0.662598
1519425741390,1.030273,-0.906982,0.328613
1519425741392,0.866211,-0.702148,0.152832
1519425741450,0.821533,-0.129395,0.048096
1519425741494,1.045898,-0.242432,-0.013428
1519425741503,1.112305,-0.582520,0.132813
1519425741552,0.842285,-0.554932,0.291504
1519425741557,0.657715,-0.386963,0.382568
1519425741615,0.469482,-0.204590,0.356689
1519425741647,0.265625,-0.174561,0.201416
1519425741654,0.178467,-0.181641,0.174805
1519425741712,0.190674,-0.096436,0.229980
1519425741744,0.374023,-0.130859,0.385742
1519425741778,0.570313,-0.431641,0.477051
1519425741790,0.672852,-0.785400,0.455078
1519425741848,1.007324,-0.723877,0.552246
1519425741856,1.395264,-0.932373,0.735840
1519425741908,1.173340,-1.589844,0.928223
1519425741942,0.967529,-0.819092,0.582764
1519425741973,0.874756,-0.048828,0.178711
1519425741978,0.762207,0.089844,0.036377
1519425742008,1.044678,-0.506592,0.089844
1519425742065,1.156006,-0.680664,0.121826
1519425742074,1.106689,-1.168457,0.041748
1519425742127,0.729004,-1.022217,0.188721
1519425742158,0.419189,-0.399170,0.234375
1519425742191,0.255615,-0.090332,0.151123
1519425742206,0.123047,-0.008789,0.036621
1519425742261,0.144043,-0.072266,0.069336
1519425742267,0.387695,-0.210938,0.178223
1519425742326,0.761719,-0.731445,0.173096
1519425742359,0.952881,-1.145508,0.078369
1519425742364,1.305420,-0.723877,0.350586
1519425742422,1.402100,-0.711670,0.595703
1519425742430,1.192871,-1.247559,0.549561
1519425742453,1.144775,-1.297852,0.237793
1519425742512,0.907715,-0.862793,0.072266
1519425742521,0.774170,-0.315674,0.054443
1519425742575,0.931885,-0.088623,0.003662
1519425742608,1.006836,-0.468018,-0.149414
1519425742622,0.746582,-0.504639,0.007568
1519425742654,0.587402,-0.275146,0.260010
1519425742686,0.375732,-0.292969,0.315918
1519425742720,0.237793,-0.365723,0.266846
1519425742778,0.212402,-0.284180,0.281494
1519425742809,0.307129,-0.246094,0.256592
1519425742842,0.352051,-0.268555,0.233154
1519425742850,0.459229,-0.395996,0.335449
1519425742900,0.831787,-0.718506,0.406494
1519425742931,1.117188,-0.950439,0.345703
1519425742935,1.209961,-1.148926,0.501221
1519425742990,0.996338,-1.884766,0.871094
1519425743023,0.946045,-1.182129,0.373535
1519425743037,0.889893,-0.195557,0.124512
1519425743096,0.758789,0.150879,0.065186
1519425743105,1.012207,-0.173828,0.089600
1519425743156,1.165527,-0.699707,0.004395
1519425743188,1.104980,-1.346191,-0.023926
1519425743221,0.755371,-1.106689,0.123047
1519425743254,0.470947,-0.518799,0.151611
1519425743287,0.256104,-0.110596,0.090332
1519425743318,0.173584,-0.003418,0.066650
1519425743356,0.255859,-0.117432,0.180176
1519425743388,0.383545,-0.460938,0.116455
1519425743419,0.483398,-0.740723,0.091064
1519425743422,0.619385,-0.836670,0.186035
1519425743465,0.869141,-0.626709,0.312744
1519425743497,0.998779,-0.905029,0.275879
1519425743530,1.126465,-1.173828,0.391602
1519425743589,1.194336,-1.016357,0.109619
1519425743598,1.171143,-0.912842,-0.072266
1519425743623,0.890137,-0.786621,-0.126953
1519425743680,0.841797,-0.147705,0.004883
1519425743685,1.183350,-0.375244,-0.090332
1519425743713,1.260986,-0.829834,-0.190918
1519425743758,0.838623,-0.441650,0.212402
1519425743795,0.489258,-0.181396,0.329102
1519425743826,0.319092,-0.271729,0.230225
1519425743867,0.246094,-0.309082,0.070313
1519425743900,0.266357,-0.292480,0.022705
1519425743933,0.385254,-0.234863,0.132080
1519425743966,0.488281,-0.350586,0.281738
1519425743975,0.547363,-0.591797,0.311523
1519425744000,0.621338,-0.728271,0.285889
1519425744056,1.090576,-0.770752,0.300293
1519425744061,1.220703,-1.272705,0.611816
1519425744119,0.945313,-1.701904,0.787598
1519425744150,0.723389,-0.603760,-0.183350
1519425744183,1.056885,-0.183838,0.110840
1519425744217,0.935791,-0.036621,0.156982
1519425744233,1.233887,-0.558838,0.211670
1519425744260,1.189697,-0.631348,-0.084717
1519425744298,1.085938,-1.188965,-0.178711
1519425744331,0.720703,-0.771240,0.118408
1519425744364,0.419434,-0.342041,0.116211
1519425744411,0.228516,-0.135010,0.058594
1519425744443,0.139404,-0.066162,0.074951
1519425744474,0.245117,-0.188232,0.060059
1519425744480,0.373779,-0.377441,0.051025
1519425744536,0.585693,-0.630127,0.135742
1519425744544,0.804688,-0.826660,0.166504
1519425744600,1.032227,-0.909180,0.235840
1519425744633,1.331787,-1.021240,0.300293
1519425744646,1.259766,-1.344727,0.537109
1519425744680,1.123291,-1.170410,0.272949
1519425744713,1.074463,-0.955566,0.080811
1519425744747,0.995361,-0.459229,0.100830
1519425744803,0.995361,-0.068604,0.060059
1519425744837,1.071289,-0.009521,-0.090088
1519425744845,0.875244,-0.354492,-0.118896
1519425744898,0.632080,-0.370850,0.011963
1519425744931,0.364746,-0.511719,0.177246
1519425744965,0.219482,-0.457031,0.288818
1519425744973,0.187988,-0.457520,0.362793
1519425745022,0.339844,-0.186768,0.447998
1519425745037,0.402832,-0.110840,0.317871
1519425745070,0.452148,-0.347900,0.251221
1519425745125,0.674316,-0.661865,0.361328
1519425745131,1.056396,-0.827148,0.411133
1519425745159,1.239258,-0.973877,0.459473
1519425745217,1.116455,-1.734619,0.812012
1519425745250,1.081543,-1.187744,0.507324
1519425745258,1.060059,-0.341553,0.201904
1519425745316,0.849854,0.155518,0.137939
1519425745348,1.123779,-0.185791,0.167725
1519425745382,1.177246,-0.386963,-0.008545
1519425745414,1.052979,-1.169434,-0.352783
1519425745447,0.750977,-1.130127,-0.053711
1519425745459,0.423340,-0.533203,0.059326
1519425745494,0.050537,-0.124756,-0.004639
1519425745525,0.197998,-0.225098,0.073242
1519425745557,0.320557,-0.297852,0.207275
1519425745615,0.541992,-0.309570,0.162354
1519425745620,0.735107,-0.440674,0.145508
1519425745647,0.794434,-0.539795,0.120117
1519425745722,1.200195,-0.780518,0.203857
1519425745730,1.301758,-1.062500,0.317383
1519425745790,1.206543,-1.481934,0.326904
1519425745798,1.166260,-0.953613,-0.002686
1519425745856,0.922852,-0.839111,-0.074951
1519425745925,0.736084,-0.377686,0.014893
1519425745992,1.021973,-0.022217,-0.004150
1519425746000,1.234375,-0.343506,-0.173828
1519425746059,0.880371,-0.739746,-0.117920
1519425746067,0.682373,-0.186523,0.299316
1519425746125,0.556885,-0.305420,0.375000
1519425746128,0.287354,-0.414795,0.197998
1519425746194,0.244629,-0.343750,0.260498
1519425746199,0.364990,-0.179932,0.329102
1519425746215,0.405762,-0.112305,0.205566
1519425746219,0.402100,-0.374756,0.144287
1519425746223,0.492920,-0.707031,0.301025
1519425746226,0.909180,-1.055420,0.604980
1519425746256,1.175781,-1.147217,0.572021
1519425746298,0.973389,-1.362061,0.479248
1519425746331,1.207520,-1.232422,0.649414
1519425746363,0.967773,-0.453125,0.375732
1519425746398,0.910645,-0.119873,0.220947
1519425746430,0.921387,0.064453,0.172607
1519425746461,1.183594,-0.391357,0.051758
1519425746494,1.241211,-1.008545,-0.272217
1519425746527,0.909180,-1.160645,-0.249023
1519425746558,0.482178,-0.525391,-0.039795
1519425746591,0.291992,-0.260742,0.056641
1519425746623,0.206299,-0.245361,0.130859
1519425746655,0.276855,-0.407715,0.269531
1519425746688,0.344727,-0.306396,0.348389
1519425746702,0.468750,-0.400391,0.379395
1519425746760,0.723389,-0.778320,0.374512
1519425746792,0.832275,-0.864990,0.298828
1519425746826,1.048096,-0.672607,0.514404
1519425746858,1.259766,-0.468506,0.800781
