1519648883988,-0.299072,0.696045,0.693848
1519648884022,-0.304199,0.588135,0.688965
1519648884055,-0.327637,0.708984,0.701172
1519648884087,-0.290771,0.867676,0.777832
1519648884120,-0.400879,0.786865,0.646484
1519648884152,-0.432617,0.819336,0.658936
1519648884184,-0.463867,0.534424,0.663818
1519648884217,-0.456055,0.584717,0.761963
1519648884249,-0.423096,0.537354,0.823242
1519648884282,-0.330078,0.548584,0.800049
1519648884314,-0.292969,0.504150,0.750977
1519648884346,-0.225830,0.493408,0.794922
1519648884378,-0.184326,0.625488,0.812500
1519648884412,-0.230469,0.435547,0.725830
1519648884450,-0.173828,0.593750,0.890625
1519648884479,-0.208984,0.498535,0.916260
1519648884493,-0.212646,0.437988,0.705322
1519648884525,-0.270264,0.611084,0.914795
1519648884558,-0.243408,0.498779,0.696533
1519648884589,-0.268799,0.530762,0.705566
1519648884625,-0.248047,0.497803,0.859131
1519648884659,-0.274902,0.521484,0.860107
1519648884692,-0.319092,0.562744,0.865234
1519648884723,-0.361328,0.540283,0.857910
1519648884756,-0.428711,0.542236,0.748779
1519648884788,-0.411621,0.531738,0.784424
1519648884820,-0.391357,0.529785,0.827881
1519648884879,-0.362061,0.528564,0.850830
1519648884887,-0.339111,0.530518,0.864746
1519648884900,-0.320557,0.529541,0.864990
1519648884957,-0.312500,0.524414,0.859375
1519648884990,-0.291504,0.478271,0.820068
1519648885022,-0.280518,0.499512,0.822754
1519648885054,-0.312988,0.488525,0.797607
1519648885087,-0.322998,0.494873,0.827148
1519648885120,-0.318359,0.491455,0.854492
1519648885152,-0.328125,0.484131,0.808350
1519648885207,-0.326172,0.508057,0.858887
1519648885215,-0.313477,0.448975,0.833008
1519648885241,-0.294189,0.585205,0.845947
1519648885273,-0.326172,0.545166,0.875977
1519648885288,-0.310547,0.489502,0.837402
1519648885342,-0.283691,0.479004,0.835449
1519648885375,-0.279541,0.487549,0.852783
1519648885383,-0.273926,0.500732,0.870117
1519648885440,-0.258545,0.471680,0.857178
1519648885473,-0.264893,0.651367,0.905273
1519648885506,-0.224854,0.266602,0.817139
1519648885539,-0.207764,0.564209,0.733398
1519648885570,-0.376221,0.768066,0.722412
1519648885607,-0.369629,0.352051,0.952148
1519648885639,-0.490967,0.562012,0.902588
1519648885671,-0.529541,0.431641,0.638672
1519648885685,-0.419922,0.569580,0.760010
1519648885718,-0.291260,0.498047,0.830078
1519648885752,-0.266846,0.440674,0.740234
1519648885823,-0.093018,0.554932,0.880859
1519648885825,-0.073730,0.572021,1.050293
1519648885891,-0.155762,0.408936,0.649902
1519648885893,-0.157471,0.485840,0.973877
1519648885932,-0.312012,0.285889,0.822021
1519648885964,-0.315430,0.205811,0.798340
1519648885967,-0.309570,0.568848,0.994141
1519648886024,-0.249023,0.415771,0.878418
1519648886032,-0.233154,0.595947,0.618652
1519648886088,-0.212158,0.666016,0.691650
1519648886130,-0.274170,0.407471,0.802246
1519648886136,-0.367188,0.686035,0.888916
1519648886163,-0.457275,0.622070,0.825195
1519648886221,-0.454590,0.403076,0.771240
1519648886254,-0.441650,0.380371,0.844971
1519648886296,-0.438721,0.476074,0.906738
1519648886318,-0.386719,0.448975,0.918945
1519648886349,-0.320557,0.556885,0.944336
1519648886382,-0.276611,0.530762,0.951416
1519648886417,-0.104492,0.251953,0.951416
1519648886450,-0.107910,0.429932,1.053955
1519648886458,-0.202881,0.493896,0.694580
1519648886512,-0.162354,0.361084,0.802490
1519648886544,-0.196533,0.479980,0.958496
1519648886553,-0.294678,0.491455,0.768311
1519648886605,-0.351563,0.542969,0.876953
1519648886614,-0.389160,0.504883,0.818848
1519648886671,-0.360596,0.572510,0.986328
1519648886705,-0.416016,0.511475,0.829834
1519648886711,-0.356934,0.317627,0.786621
1519648886768,-0.199463,0.614014,0.892578
1519648886801,-0.175293,0.436035,0.779541
1519648886834,-0.165527,0.282715,0.644775
1519648886866,-0.197266,0.604248,0.652588
1519648886898,-0.238281,0.725830,0.914551
1519648886912,-0.297363,0.575928,0.831299
1519648886945,-0.344727,0.533447,1.031982
1519648886978,-0.340332,0.544678,0.726074
1519648887035,-0.274170,0.428711,0.780518
1519648887044,-0.261230,0.464355,0.900146
1519648887069,-0.306641,0.537354,0.853271
1519648887127,-0.313965,0.481445,0.821045
1519648887135,-0.393066,0.557129,0.895264
1519648887161,-0.452393,0.478271,0.895020
1519648887219,-0.381836,0.489014,0.887207
1519648887251,-0.420654,0.459229,0.872314
1519648887283,-0.363525,0.569824,0.856934
1519648887316,-0.309570,0.301758,0.753662
1519648887328,-0.188232,0.221436,0.952393
1519648887362,0.003906,0.628662,0.942383
1519648887393,-0.026611,0.475586,1.120605
1519648887451,-0.158447,0.512939,0.808838
1519648887484,-0.130371,0.388916,0.665771
1519648887493,-0.201904,0.377197,0.981934
1519648887546,-0.361816,0.476563,0.838867
1519648887579,-0.338379,0.359863,0.791504
1519648887587,-0.300781,0.772949,1.029053
1519648887613,-0.340088,0.479736,0.692627
1519648887646,-0.174561,0.609863,0.553955
1519648887680,-0.177490,0.608398,0.871826
1519648887712,-0.252441,0.504395,0.739746
1519648887766,-0.338867,0.664063,0.930908
1519648887798,-0.454102,0.560303,0.995850
1519648887832,-0.500000,0.596680,1.038330
1519648887864,-0.497559,0.435303,0.971924
1519648887896,-0.483887,0.342529,0.850342
1519648887928,-0.440430,0.332031,0.814697
1519648887962,-0.267334,0.442139,0.881592
1519648887994,-0.228760,0.578613,0.827637
1519648888003,-0.129883,0.529297,0.821777
1519648888051,0.089600,0.561523,0.736816
1519648888060,0.088135,0.575928,1.123535
1519648888090,-0.041748,0.253662,0.744629
1519648888146,-0.046143,0.559082,0.720459
1519648888180,-0.200439,0.667480,0.884766
1519648888212,-0.386719,0.447021,0.788086
1519648888244,-0.499512,0.596680,0.999023
1519648888278,-0.521729,0.462402,0.830566
1519648888308,-0.433838,0.314209,0.798828
1519648888340,-0.338379,0.498535,0.997559
1519648888372,-0.291748,0.486328,0.849609
1519648888405,-0.196533,0.461670,0.861084
1519648888439,-0.342773,0.641602,0.958008
1519648888471,-0.286865,0.375000,0.722412
1519648888481,-0.231689,0.464844,0.750732
1519648888532,-0.238037,0.509766,0.838867
1519648888564,-0.258545,0.510498,0.833984
1519648888571,-0.265137,0.465820,0.793945
1519648888628,-0.265869,0.521484,0.938477
1519648888661,-0.240723,0.489258,0.839600
1519648888694,-0.236816,0.612305,0.886719
1519648888727,-0.256104,0.395508,0.785889
1519648888758,-0.150146,0.325195,0.590576
1519648888791,-0.256836,0.811768,0.975830
1519648888824,-0.309082,0.409424,0.671875
1519648888857,-0.346191,0.555176,1.032227
1519648888929,-0.384766,0.658203,0.908936
1519648888937,-0.361572,0.408203,0.766846
1519648888950,-0.330811,0.518799,0.838135
1519648888990,-0.348633,0.414551,0.802246
1519648889022,-0.369629,0.562988,0.793457
1519648889046,-0.335205,0.588867,0.814453
1519648889079,-0.281250,0.533691,0.854248
1519648889111,-0.256104,0.483154,0.815186
1519648889145,-0.249268,0.465820,0.827637
1519648889154,-0.258545,0.436768,0.871582
1519648889210,-0.266602,0.490479,0.836426
1519648889242,-0.273193,0.569336,0.873291
1519648889275,-0.288818,0.473389,0.882324
1519648889310,-0.377197,0.533203,0.823242
1519648889339,-0.442383,0.565186,0.815186
1519648889352,-0.425781,0.517822,0.854736
1519648889384,-0.360840,0.449707,0.836426
1519648889443,-0.380859,0.355713,0.735107
1519648889454,-0.325684,0.591797,1.012939
1519648889482,-0.142334,0.614014,0.793701
1519648889540,-0.174561,0.693115,1.032959
1519648889573,-0.259766,0.439941,0.740479
1519648889605,-0.132813,0.508301,0.608154
1519648889638,-0.235107,0.618652,0.837646
1519648889646,-0.295166,0.534424,0.836182
1519648889697,-0.364258,0.333740,0.849609
1519648889730,-0.401123,0.476563,0.921875
1519648889738,-0.368408,0.562012,0.777100
1519648889789,-0.347656,0.488037,0.779053
1519648889822,-0.336182,0.540039,0.819336
1519648889855,-0.345215,0.585938,0.756104
1519648889887,-0.418945,0.563232,0.718018
1519648889920,-0.459229,0.599365,0.791504
1519648889952,-0.439697,0.598145,0.793945
1519648889986,-0.335938,0.540527,0.801025
1519648890019,-0.268555,0.548584,0.832031
1519648890056,-0.257324,0.535889,0.836182
1519648890083,-0.272461,0.518799,0.816162
1519648890116,-0.279053,0.538818,0.816650
1519648890149,-0.285400,0.536133,0.783447
1519648890190,-0.342529,0.571777,0.733154
1519648890222,-0.373535,0.591309,0.775146
1519648890230,-0.387207,0.614990,0.783691
1519648890255,-0.408691,0.595459,0.794922
1519648890330,-0.383545,0.590088,0.793701
1519648890338,-0.363770,0.562256,0.799072
1519648890360,-0.376953,0.544434,0.769043
1519648890392,-0.405273,0.560303,0.764160
1519648890428,-0.404541,0.558105,0.756348
1519648890461,-0.428955,0.533447,0.763672
1519648890494,-0.427979,0.567627,0.760986
1519648890527,-0.401123,0.598877,0.771240
1519648890560,-0.368896,0.575928,0.773926
1519648890601,-0.375000,0.566162,0.777588
1519648890632,-0.385254,0.559326,0.783447
1519648890666,-0.398926,0.512207,0.758057
1519648890675,-0.466309,0.558105,0.739990
1519648890700,-0.490723,0.504883,0.721436
1519648890756,-0.419434,0.456787,0.739258
1519648890764,-0.351807,0.622070,0.819824
1519648890822,-0.333496,0.652100,0.808105
1519648890855,-0.270508,0.523682,1.018066
1519648890888,-0.349121,0.369141,1.046631
1519648890895,-0.407471,0.383545,0.847412
1519648890952,-0.339111,0.575195,0.777344
1519648890965,-0.321045,0.418457,0.805664
1519648890997,-0.280029,0.278564,0.906494
1519648891030,-0.250488,0.252930,1.024170
1519648891088,-0.206299,0.280273,0.892090
1519648891097,-0.193604,0.230469,0.713623
1519648891130,-0.393066,1.158447,0.638672
1519648891162,-0.432617,0.438721,0.757080
1519648891194,-0.412109,0.459229,0.823242
1519648891252,-0.508789,0.838867,0.760498
1519648891260,-0.444824,0.430664,0.721680
1519648891287,-0.497070,0.746094,0.656982
1519648891342,-0.427246,0.408447,0.942139
1519648891351,-0.306396,0.406250,0.895996
1519648891378,-0.395508,0.701172,0.843262
1519648891411,-0.299316,0.485596,0.794678
1519648891470,-0.261475,0.437256,0.875488
1519648891478,-0.266357,0.533691,0.920410
1519648891534,-0.304932,0.439453,0.854736
1519648891543,-0.304688,0.458008,0.831299
1519648891606,-0.312500,0.502930,0.821777
1519648891610,-0.338379,0.516357,0.819824
1519648891668,-0.352783,0.520020,0.804688
1519648891673,-0.344971,0.526611,0.801025
1519648891728,-0.365967,0.538818,0.781250
1519648891760,-0.354980,0.580811,0.798584
1519648891769,-0.344482,0.568115,0.827637
1519648891832,-0.343750,0.539551,0.789063
1519648891840,-0.332031,0.512207,0.793945
1519648891866,-0.313721,0.539063,0.826660
1519648891922,-0.312988,0.515381,0.821533
1519648891927,-0.323486,0.567139,0.814697
1519648891981,-0.334717,0.531982,0.792969
1519648892054,-0.339111,0.534912,0.787109
1519648892062,-0.329346,0.526855,0.775146
1519648892122,-0.309326,0.533936,0.767334
1519648892133,-0.307617,0.571289,0.807129
1519648892174,-0.310791,0.536133,0.794434
1519648892188,-0.301758,0.567139,0.777344
1519648892197,-0.337891,0.617676,0.781006
1519648892248,-0.316406,0.545898,0.792969
1519648892255,-0.306152,0.577393,0.827881
1519648892311,-0.314697,0.553711,0.809570
1519648892342,-0.310303,0.558105,0.793701
1519648892351,-0.273438,0.597412,0.884277
1519648892403,-0.345215,0.593018,0.879883
1519648892407,-0.405518,0.638916,0.855225
1519648892440,-0.454590,0.582275,0.682617
1519648892500,-0.415283,0.483154,0.750244
1519648892508,-0.276855,0.613770,0.797363
1519648892563,-0.151611,0.566162,0.832520
1519648892596,-0.160400,0.583740,0.801025
1519648892609,-0.185547,0.586670,0.785889
1519648892642,-0.197266,0.412109,0.786133
1519648892673,-0.299316,0.473877,0.801758
1519648892706,-0.308594,0.471191,0.915527
1519648892739,-0.274658,0.542480,1.088867
1519648892796,-0.314453,0.557861,0.708984
1519648892829,-0.251709,0.683838,0.851807
1519648892837,-0.322754,0.484863,0.891113
1519648892886,-0.292725,0.328613,0.681641
1519648892919,-0.436523,0.460938,0.818359
1519648892922,-0.527100,0.712402,0.956299
1519648892979,-0.617920,0.627930,0.855469
1519648893012,-0.533203,0.524170,0.692871
1519648893026,-0.481934,0.506836,0.640869
1519648893059,-0.285645,0.409912,0.791016
1519648893091,-0.170654,0.646240,0.881104
1519648893122,-0.117920,0.595947,0.953613
1519648893155,-0.124756,0.585938,1.025146
1519648893188,-0.355957,0.423584,0.844238
1519648893245,-0.222656,0.202881,0.735107
1519648893288,-0.170166,0.348145,0.861816
1519648893294,-0.174805,0.370850,0.762695
1519648893326,-0.075928,0.423096,0.915527
1519648893359,0.023438,0.691650,1.010254
1519648893391,-0.100098,0.428467,0.715576
1519648893423,-0.047363,0.711914,0.863037
1519648893437,-0.179932,0.452393,0.687256
1519648893469,-0.340820,0.473633,0.847900
1519648893506,-0.462158,0.566895,0.916260
1519648893535,-0.502686,0.309814,0.666016
1519648893592,-0.531006,0.466797,0.873779
1519648893626,-0.515625,0.573975,1.032471
1519648893657,-0.428223,0.355225,0.869141
1519648893689,-0.438477,0.603760,0.967041
1519648893722,-0.378418,0.452881,0.906738
1519648893755,-0.223145,0.482422,1.079590
1519648893789,-0.257568,0.372559,0.998535
1519648893796,-0.240967,0.415771,0.919678
1519648893853,-0.261963,0.400635,0.645508
1519648893861,-0.163086,0.368652,0.882324
1519648893885,-0.082520,0.316895,0.978516
1519648893946,-0.214111,0.477539,0.667480
1519648893951,-0.194580,0.491455,0.535889
1519648894010,-0.145020,0.379883,1.178223
1519648894042,-0.402100,0.239502,0.812012
1519648894073,-0.428711,0.469727,0.911865
1519648894081,-0.449707,0.345215,0.713867
1519648894139,-0.407715,0.412109,1.187256
1519648894166,-0.421143,0.371338,1.049805
1519648894199,-0.446289,0.533203,0.885986
1519648894233,-0.304932,0.391357,0.796631
1519648894266,-0.252930,0.260498,0.761719
1519648894305,-0.229248,0.430664,0.828613
1519648894336,-0.204102,0.488770,0.989990
1519648894369,-0.368164,0.550293,0.696533
1519648894372,-0.345215,0.549072,0.814209
1519648894428,-0.493164,0.503174,1.077881
1519648894433,-0.520752,0.593262,0.884033
1519648894465,-0.442627,0.415527,0.675293
1519648894525,-0.269775,0.484131,0.902100
1519648894534,-0.167480,0.496338,0.785400
1519648894588,-0.009521,0.539551,1.108398
1519648894625,-0.188721,0.396973,0.806152
1519648894633,-0.156250,0.456299,0.695801
1519648894665,-0.186523,0.318359,0.864502
1519648894698,-0.324463,0.344238,0.812012
1519648894731,-0.320313,0.321533,0.857910
1519648894790,-0.254639,0.583008,1.023438
1519648894821,-0.248779,0.290283,0.937988
1519648894854,-0.256592,0.333984,0.726563
1519648894862,-0.223389,0.610107,0.860352
1519648894911,-0.310791,0.403809,0.792480
1519648894944,-0.417236,0.613525,0.981934
1519648894950,-0.470947,0.459717,0.912842
1519648895003,-0.447266,0.449707,0.786865
1519648895036,-0.371094,0.327393,0.990234
1519648895050,-0.337402,0.408447,0.866211
1519648895107,-0.226563,0.467285,0.981201
1519648895113,-0.176758,0.553711,1.021484
1519648895185,-0.214600,0.452393,0.959473
1519648895193,-0.229736,0.443359,0.790527
1519648895255,-0.232666,0.468018,0.614502
1519648895263,-0.197021,0.509033,0.774170
1519648895303,-0.279541,0.549316,0.838623
1519648895310,-0.307617,0.516602,0.915771
1519648895361,-0.307129,0.446045,0.826660
1519648895421,-0.256348,0.515381,0.860840
1519648895425,-0.267090,0.407471,0.979492
1519648895446,-0.284912,0.408447,0.827637
1519648895496,-0.346924,0.407227,0.826904
1519648895529,-0.490234,0.675293,0.972900
1519648895537,-0.522217,0.712158,0.830811
1519648895587,-0.410889,0.493408,0.747559
1519648895595,-0.337646,0.474121,0.748779
1519648895651,-0.273682,0.503418,0.819336
1519648895683,-0.202148,0.386963,0.883301
1519648895717,-0.191162,0.481934,0.930908
1519648895748,-0.183350,0.483154,0.875488
1519648895781,-0.168701,0.501465,1.110107
1519648895813,-0.329590,0.452393,0.851074
1519648895847,-0.391846,0.385498,0.715820
1519648895880,-0.479248,0.536865,0.817871
1519648895893,-0.534668,0.608398,0.798828
1519648895925,-0.458740,0.552979,0.739014
1519648895984,-0.369873,0.366211,0.743164
1519648896015,-0.294189,0.416992,0.768555
1519648896020,-0.205566,0.477539,0.864746
1519648896075,-0.144287,0.562256,1.002441
1519648896106,-0.218018,0.503906,1.083496
1519648896112,-0.328369,0.433594,0.834473
1519648896165,-0.257568,0.273682,0.887695
1519648896199,-0.332031,0.217041,0.929688
1519648896211,-0.363770,0.256836,0.873291
1519648896267,-0.256348,0.455811,0.988525
1519648896275,-0.244385,0.505859,0.961670
1519648896328,-0.260254,0.431396,0.962891
1519648896361,-0.233154,0.181641,0.710205
1519648896394,-0.233154,0.693115,0.697754
1519648896426,-0.293213,0.767334,0.757080
1519648896459,-0.319092,0.440186,0.891846
1519648896493,-0.395264,0.858643,0.991455
1519648896526,-0.375000,0.539307,0.750000
1519648896559,-0.304688,0.382080,0.793701
1519648896567,-0.313965,0.540771,0.780518
1519648896592,-0.338623,0.600586,0.719238
1519648896650,-0.331299,0.486084,0.820801
1519648896657,-0.366211,0.602783,0.810303
1519648896727,-0.412354,0.563721,0.758301
1519648896736,-0.396729,0.546387,0.864990
1519648896761,-0.400879,0.516113,0.918457
1519648896794,-0.408691,0.462891,0.882080
1519648896825,-0.440186,0.511719,0.810059
1519648896858,-0.383789,0.503174,0.865723
1519648896891,-0.411621,0.475098,0.812744
1519648896922,-0.390869,0.428955,0.752441
1519648896981,-0.336182,0.462891,0.821533
1519648896988,-0.355469,0.483154,0.903076
1519648897039,-0.296875,0.434570,0.884277
1519648897044,-0.234863,0.475586,0.932861
1519648897072,-0.139893,0.403564,0.965820
1519648897138,-0.046875,0.488281,1.018799
1519648897144,-0.170654,0.489014,0.961914
1519648897176,-0.124512,0.408936,0.842773
1519648897208,-0.227539,0.286621,0.822754
1519648897240,-0.345459,0.268066,0.738281
1519648897274,-0.392090,0.492432,0.812012
1519648897314,-0.347168,0.551025,0.694092
1519648897341,-0.356689,0.634033,0.627197
1519648897371,-0.337646,0.531494,0.590088
1519648897428,-0.286865,0.712891,0.796387
1519648897461,-0.328369,0.597656,0.916016
1519648897469,-0.333252,0.468750,0.941895
1519648897506,-0.400146,0.564697,0.885254
1519648897539,-0.477051,0.430908,0.853760
1519648897571,-0.474121,0.450684,1.066895
1519648897629,-0.497314,0.357178,0.926514
1519648897637,-0.468018,0.398193,0.758057
1519648897662,-0.400635,0.572266,0.869385
1519648897720,-0.341064,0.455322,0.655762
1519648897728,-0.187500,0.571533,0.851807
1519648897754,-0.092773,0.535156,0.770508
1519648897788,0.095947,0.626465,1.145264
1519648897820,-0.164551,0.383057,0.752686
1519648897852,-0.149658,0.524170,0.690918
1519648897885,-0.174316,0.515869,0.761230
1519648897917,-0.216309,0.445557,0.792969
1519648897974,-0.283691,0.507324,0.821289
1519648898008,-0.324219,0.564941,0.854980
1519648898097,-0.349609,0.557373,0.852051
1519648898106,-0.393799,0.481445,0.888428
1519648898114,-0.428467,0.602295,0.827393
1519648898157,-0.400146,0.496826,0.779053
1519648898160,-0.416748,0.516357,0.810059
1519648898221,-0.404297,0.567139,0.801758
1519648898229,-0.311768,0.571777,0.802002
1519648898294,-0.250488,0.482178,0.816650
1519648898302,-0.232178,0.552734,0.843994
1519648898360,-0.209717,0.516846,0.781250
1519648898414,-0.209473,0.551025,0.745605
1519648898417,-0.301758,0.550049,0.819092
1519648898420,-0.345703,0.543457,0.836426
1519648898449,-0.380127,0.547852,0.854736
1519648898483,-0.383789,0.543701,0.856689
1519648898516,-0.368652,0.550049,0.842285
1519648898548,-0.342529,0.548828,0.806396
1519648898579,-0.340576,0.552734,0.795166
1519648898612,-0.335449,0.566406,0.796387
1519648898619,-0.315918,0.560059,0.767334
1519648898674,-0.297607,0.514648,0.813477
1519648898707,-0.295410,0.521240,0.785156
1519648898715,-0.287354,0.509277,0.902832
1519648898772,-0.283447,0.483643,0.681885
1519648898853,-0.206787,0.710938,0.828857
1519648898859,-0.334961,0.438477,0.847412
1519648898865,-0.288330,0.572754,0.724121
1519648898916,-0.368652,0.587158,0.744385
1519648898922,-0.314453,0.579590,0.814209
1519648898978,-0.384033,0.514648,0.925781
1519648898987,-0.339111,0.654785,0.767822
1519648899017,-0.312256,0.413330,0.724854
1519648899050,-0.302002,0.500244,0.815674
1519648899081,-0.326172,0.580322,0.804932
1519648899129,-0.348389,0.552246,0.748047
1519648899158,-0.325928,0.602051,0.763428
1519648899198,-0.304199,0.591064,0.802734
1519648899204,-0.292969,0.552246,0.822266
1519648899258,-0.305908,0.513672,0.865723
1519648899287,-0.332275,0.542725,0.866943
1519648899323,-0.332764,0.530029,0.843750
1519648899333,-0.329346,0.540039,0.801270
1519648899386,-0.322754,0.549316,0.787109
1519648899419,-0.329102,0.528809,0.789307
1519648899450,-0.335449,0.580811,0.801025
1519648899483,-0.327148,0.542969,0.806152
1519648899517,-0.327881,0.550293,0.814209
1519648899550,-0.328369,0.544922,0.806396
1519648899581,-0.328613,0.561279,0.802490
1519648899600,-0.318604,0.518311,0.801270
1519648899654,-0.321045,0.528320,0.782227
1519648899663,-0.318115,0.514648,0.757080
1519648899715,-0.305664,0.403076,0.723877
1519648899749,-0.341064,0.571045,0.799316
1519648899757,-0.290771,0.553955,1.109619
1519648899782,-0.388184,0.519287,0.879883
1519648899824,-0.353027,0.677002,0.828857
1519648899857,-0.492432,0.609375,0.874023
1519648899890,-0.426270,0.502930,0.739258
1519648899922,-0.384521,0.410400,0.765869
1519648899955,-0.309570,0.506836,0.785889
1519648899988,-0.157715,0.499023,0.823242
1519648900031,0.064697,0.580078,0.822754
1519648900061,0.082275,0.543457,1.065674
1519648900098,-0.103027,0.566162,0.946777
1519648900130,-0.069824,0.622314,0.707520
1519648900163,-0.148193,0.587646,0.919434
1519648900171,-0.208984,0.403076,0.951416
1519648900223,-0.330811,0.365479,0.839355
1519648900232,-0.423584,0.409912,0.683594
1519648900259,-0.528564,0.636719,0.814697
1519648900320,-0.501465,0.575195,0.972168
1519648900347,-0.406250,0.418213,0.884766
1519648900379,-0.348145,0.321777,0.703857
1519648900412,-0.197266,0.494385,0.900146
1519648900426,-0.192627,0.539551,0.850830
1519648900459,-0.194580,0.544189,0.904053
1519648900493,-0.211670,0.472168,0.810791
1519648900525,-0.229980,0.541992,1.035156
1519648900566,-0.316650,0.363770,0.833252
1519648900600,-0.274902,0.512695,0.914063
1519648900631,-0.309814,0.438232,0.732666
1519648900664,-0.154785,0.524658,0.936768
1519648900696,-0.027588,0.655029,0.977783
1519648900728,-0.113525,0.371826,0.947021
1519648900761,0.005371,0.439697,0.609375
1519648900794,-0.146729,0.851807,0.905273
1519648900826,-0.224365,0.396484,0.641602
1519648900840,-0.262207,0.523926,0.803223
1519648900898,-0.376953,0.621582,1.023193
1519648900929,-0.427979,0.326660,0.805908
1519648900964,-0.451172,0.470215,0.837402
1519648900995,-0.413086,0.461670,0.930420
1519648901028,-0.357422,0.387207,0.873291
1519648901036,-0.328613,0.686035,0.756104
1519648901093,-0.259766,0.526855,0.913574
1519648901153,-0.333252,0.487061,0.887695
1519648901162,-0.373047,0.393066,0.703613
1519648901212,-0.315430,0.428223,0.789795
1519648901218,-0.202637,0.456787,0.944092
1519648901274,-0.104492,0.409668,0.902832
1519648901283,-0.006348,0.714355,1.169678
1519648901338,-0.067383,0.329834,0.832764
1519648901341,-0.108643,0.417725,0.813232
1519648901412,-0.267334,0.520996,1.027344
1519648901415,-0.379883,0.171387,0.747559
1519648901529,-0.380859,0.479492,0.722656
1519648901538,-0.395996,0.643311,0.938232
1519648901546,-0.400146,0.497559,0.833496
1519648901635,-0.332520,0.445313,0.798584
1519648901644,-0.262207,0.545166,0.812988
1519648901652,-0.271240,0.656006,0.778809
1519648901661,-0.239746,0.504883,0.844482
1519648901678,-0.262451,0.550293,0.833984
1519648901693,-0.271484,0.532715,0.850098
1519648901726,-0.274658,0.509033,0.927979
1519648901759,-0.282471,0.551270,0.826172
1519648901791,-0.243408,0.524170,0.897217
1519648901845,-0.252197,0.557373,0.951660
1519648901851,-0.245850,0.376221,0.844727
1519648901909,-0.403076,0.611328,0.945068
1519648901917,-0.432129,0.420166,0.809814
1519648901967,-0.323242,0.435547,0.927002
1519648901972,-0.252441,0.491211,1.025146
1519648902004,-0.223389,0.577637,0.780518
1519648902063,-0.158691,0.432129,1.053955
1519648902072,-0.246826,0.397217,0.601318
1519648902100,-0.169922,0.310059,0.992920
1519648902160,-0.239258,0.431396,0.836426
1519648902220,-0.182373,0.262451,0.652344
1519648902228,-0.097900,0.790283,0.987061
1519648902278,-0.221191,0.404785,0.812012
1519648902281,-0.210449,0.324707,0.707031
1519648902318,-0.210449,0.516846,0.852295
1519648902350,-0.240234,0.466553,0.851318
1519648902383,-0.275146,0.411621,0.870605
1519648902392,-0.304443,0.462158,0.892334
1519648902442,-0.316162,0.496582,0.948242
1519648902476,-0.329590,0.465576,0.904053
1519648902490,-0.355225,0.463135,0.844971
1519648902524,-0.325439,0.519531,0.968750
1519648902555,-0.370605,0.523438,0.913818
1519648902587,-0.333008,0.439697,0.928955
1519648902619,-0.424805,0.484375,0.877930
1519648902652,-0.375488,0.328369,0.690918
1519648902684,-0.279053,0.497559,0.886963
1519648902717,-0.132568,0.564453,0.792480
1519648902749,-0.033447,0.499023,1.076172
1519648902808,-0.149902,0.426758,0.941162
1519648902840,-0.191895,0.476563,0.562744
1519648902848,-0.090820,0.229248,1.074463
1519648902885,-0.270508,0.422852,0.790283
1519648902917,-0.309326,0.362305,0.988525
1519648902949,-0.295654,0.464600,0.919678
1519648902987,-0.198242,0.292480,0.969238
1519648903054,-0.237305,0.553223,0.761475
1519648903064,-0.273682,0.689453,0.757080
1519648903125,-0.284668,0.357422,0.878418
1519648903131,-0.363037,0.636475,0.953125
1519648903136,-0.351318,0.502197,0.850586
1519648903191,-0.361328,0.330811,0.878662
1519648903248,-0.425049,0.436523,0.851074
1519648903254,-0.379639,0.429932,0.814697
1519648903299,-0.326416,0.454590,0.925537
1519648903308,-0.291504,0.430908,0.837402
1519648903344,-0.231934,0.366455,0.830566
1519648903349,-0.182861,0.494873,0.970215
1519648903403,-0.201904,0.393311,0.848877
1519648903435,-0.203613,0.426514,0.906250
1519648903467,-0.251953,0.474609,0.864990
1519648903502,-0.338379,0.399902,0.946777
1519648903534,-0.346191,0.446777,1.030029
1519648903567,-0.439209,0.375977,0.789307
1519648903600,-0.337891,0.359131,0.820068
1519648903630,-0.231445,0.488037,0.879395
1519648903664,-0.189209,0.411621,1.002197
1519648903696,-0.258057,0.487061,0.904297
1519648903712,-0.298340,0.499268,0.743164
1519648903768,-0.285156,0.489014,0.620361
1519648903802,-0.291260,0.464111,0.760986
1519648903833,-0.307129,0.394531,0.818359
1519648903866,-0.298584,0.379639,0.894043
1519648903899,-0.313477,0.414063,0.872559
1519648903932,-0.293213,0.425537,0.920166
1519648903938,-0.293457,0.525391,0.959961
1519648903993,-0.147705,0.400879,1.101074
1519648904001,-0.258057,0.410645,0.832764
1519648904030,-0.238281,0.494873,0.776611
1519648904089,-0.219727,0.452148,0.849365
1519648904098,-0.237549,0.542236,0.922607
1519648904152,-0.269287,0.487549,0.843506
1519648904185,-0.287842,0.529297,0.823975
1519648904217,-0.319092,0.518555,0.817383
1519648904226,-0.343262,0.526367,0.843994
1519648904281,-0.388184,0.502686,0.821533
1519648904313,-0.408691,0.503906,0.741455
1519648904346,-0.410889,0.515625,0.781982
1519648904379,-0.399902,0.536133,0.809570
1519648904405,-0.376221,0.534180,0.777344
1519648904411,-0.346191,0.590332,0.823975
1519648904469,-0.331055,0.532959,0.830566
1519648904544,-0.349365,0.523926,0.802979
1519648904552,-0.353271,0.515137,0.831055
1519648904611,-0.343262,0.549805,0.840820
1519648904619,-0.311035,0.466797,0.793945
1519648904652,-0.304199,0.560059,0.849854
1519648904656,-0.297363,0.526367,0.847656
1519648904686,-0.280029,0.449951,0.816895
1519648904719,-0.271484,0.516113,0.869385
1519648904753,-0.265381,0.465088,0.851074
1519648904786,-0.250488,0.427490,0.831055
1519648904819,-0.230713,0.527100,0.905518
1519648904851,-0.283447,0.470703,0.855957
1519648904884,-0.321777,0.433105,0.833008
1519648904921,-0.332764,0.481445,0.828369
1519648904952,-0.297852,0.442871,0.854980
1519648904984,-0.322998,0.521484,0.893311
1519648904996,-0.257080,0.459473,0.873535
1519648905050,-0.300781,0.411621,0.820068
1519648905081,-0.301270,0.415283,0.821777
1519648905113,-0.308838,0.461426,0.784912
1519648905146,-0.353760,0.526367,0.826416
1519648905180,-0.327881,0.487305,0.825928
1519648905211,-0.328613,0.554199,0.838135
1519648905244,-0.326660,0.506348,0.892578
1519648905278,-0.332275,0.501953,0.861816
1519648905310,-0.329834,0.515869,0.800293
1519648905342,-0.317139,0.503662,0.869385
1519648905357,-0.326904,0.527100,0.854004
1519648905390,-0.335938,0.504150,0.765625
1519648905423,-0.310303,0.507324,0.794189
1519648905455,-0.293945,0.511963,0.830566
1519648905488,-0.308350,0.511963,0.796875
1519648905547,-0.306641,0.506348,0.805664
1519648905580,-0.322266,0.518799,0.792969
1519648905588,-0.315430,0.503906,0.796875
1519648905614,-0.305908,0.559082,0.840820
1519648905687,-0.288330,0.555908,0.854492
1519648905696,-0.280518,0.538330,0.857422
1519648905722,-0.257324,0.552246,0.838135
1519648905753,-0.260742,0.553467,0.813721
1519648905795,-0.306885,0.561768,0.808105
1519648905826,-0.348389,0.553955,0.783203
1519648905859,-0.365234,0.539063,0.769043
1519648905868,-0.369141,0.565674,0.796387
1519648905926,-0.354004,0.545166,0.788330
1519648905958,-0.343750,0.554199,0.786377
1519648905992,-0.327637,0.556641,0.824219
1519648906024,-0.312988,0.556152,0.822021
1519648906055,-0.310547,0.553711,0.827881
1519648906058,-0.326416,0.682861,0.964844
1519648906115,-0.214844,0.229248,0.770508
1519648906124,-0.371826,0.820557,0.878906
1519648906177,-0.348145,0.381836,0.725586
1519648906192,-0.394043,0.505859,0.734131
1519648906223,-0.371094,0.532471,0.774170
1519648906257,-0.359131,0.550781,0.899658
1519648906290,-0.338379,0.539307,0.846191
1519648906328,-0.285645,0.484131,0.825928
1519648906353,-0.171875,0.511719,0.882324
1519648906410,-0.140381,0.425537,0.848389
1519648906414,-0.183838,0.417969,0.810303
1519648906472,-0.216797,0.468018,0.810791
1519648906509,-0.298828,0.341553,0.893799
1519648906538,-0.356201,0.476318,0.856689
1519648906547,-0.384277,0.520752,0.788574
1519648906597,-0.334961,0.609131,0.780762
1519648906611,-0.380859,0.741699,0.766113
1519648906644,-0.410400,0.571045,0.767090
1519648906701,-0.387695,0.480713,0.893066
1519648906709,-0.407227,0.567871,0.872559
1519648906760,-0.353271,0.402344,0.798584
1519648906792,-0.341309,0.556396,0.780762
1519648906824,-0.353271,0.522949,0.750488
1519648906830,-0.322998,0.424561,0.820557
1519648906889,-0.269531,0.684082,0.784912
1519648906922,-0.199219,0.489502,0.760254
1519648906966,-0.248291,0.503906,0.894775
1519648906971,-0.298340,0.515137,0.831055
1519648907026,-0.294922,0.549561,0.809570
1519648907039,-0.274414,0.540527,0.835938
1519648907071,-0.291260,0.530029,0.857910
1519648907104,-0.309570,0.519287,0.846680
1519648907136,-0.307617,0.494141,0.853271
1519648907170,-0.297119,0.505615,0.838135
1519648907202,-0.314209,0.516113,0.835205
1519648907235,-0.321289,0.499756,0.811035
1519648907267,-0.327148,0.503906,0.834229
1519648907300,-0.336426,0.524414,0.837891
1519648907333,-0.338135,0.517822,0.829834
1519648907362,-0.334229,0.500488,0.833496
1519648907395,-0.319336,0.538330,0.811279
1519648907427,-0.312744,0.528320,0.845947
1519648907461,-0.285889,0.563232,0.942139
1519648907494,-0.242676,0.538330,0.845947
1519648907527,-0.314209,0.580078,0.833740
1519648907560,-0.240234,0.406250,0.661377
1519648907592,-0.244629,0.538818,0.669434
1519648907664,-0.259521,0.631592,0.807861
1519648907672,-0.253174,0.612061,0.887939
1519648907733,-0.276855,0.431641,0.842041
1519648907741,-0.338623,0.570068,0.819580
1519648907773,-0.405518,0.474365,0.765625
1519648907780,-0.506104,0.496338,0.729004
1519648907820,-0.496094,0.448486,0.836914
1519648907852,-0.458008,0.532471,0.896484
1519648907866,-0.424072,0.546387,0.856201
1519648907898,-0.325195,0.514648,0.929443
1519648907931,-0.285400,0.390869,0.711426
1519648907963,-0.157227,0.509521,0.952881
1519648908022,-0.152588,0.420654,1.026611
1519648908032,-0.208008,0.432861,0.853027
1519648908084,-0.207031,0.523926,0.783447
1519648908116,-0.251465,0.333008,0.734619
1519648908150,-0.130127,0.467285,0.894287
1519648908183,-0.059570,0.441406,0.842285
1519648908191,-0.122559,0.610840,0.731201
1519648908247,-0.140381,0.666504,0.676270
1519648908279,-0.225098,0.379150,0.818848
1519648908288,-0.323242,0.476074,0.881592
1519648908350,-0.409668,0.446045,0.903320
1519648908353,-0.490479,0.578369,0.898926
1519648908382,-0.437988,0.443848,0.925293
1519648908441,-0.310547,0.493408,0.995117
1519648908445,-0.278320,0.491455,0.897705
1519648908499,-0.215332,0.389648,0.895996
1519648908534,-0.299805,0.409912,1.048584
1519648908566,-0.375977,0.380859,1.026855
1519648908599,-0.418213,0.378174,0.941406
1519648908630,-0.397949,0.175293,0.946045
1519648908664,-0.385254,0.325928,0.696777
1519648908695,-0.307617,0.288818,0.827637
1519648908727,-0.252930,0.332031,0.708252
1519648908760,-0.136719,0.669434,0.858643
1519648908769,-0.057617,0.509766,0.916748
1519648908799,0.131836,0.442383,1.112305
1519648908830,-0.072998,0.413330,0.981934
1519648908862,0.016602,0.209473,0.728027
1519648908895,-0.148926,0.791504,0.974121
1519648908927,-0.252441,0.562744,0.821533
1519648908960,-0.356689,0.267578,0.867676
1519648909018,-0.325195,0.496338,0.968506
1519648909027,-0.293213,0.296631,0.792969
1519648909080,-0.290771,0.350342,0.797363
1519648909113,-0.293945,0.433594,0.893311
1519648909146,-0.294434,0.498047,0.875732
1519648909154,-0.341797,0.539551,0.831543
1519648909205,-0.375977,0.690430,0.806396
1519648909238,-0.356934,0.599609,0.772949
1519648909246,-0.335205,0.516113,0.797363
1519648909296,-0.308838,0.497070,0.842285
1519648909337,-0.292480,0.525146,0.841309
1519648909359,-0.272949,0.519287,0.829590
1519648909391,-0.257568,0.553711,0.844971
1519648909424,-0.279785,0.523682,0.820557
1519648909456,-0.277588,0.505371,0.802979
1519648909489,-0.268311,0.572754,0.859375
1519648909526,-0.267822,0.564209,0.869385
1519648909560,-0.276611,0.564209,0.852051
1519648909593,-0.281738,0.561035,0.858154
1519648909625,-0.312012,0.503662,0.816406
1519648909659,-0.334473,0.540771,0.787354
1519648909690,-0.313477,0.524414,0.768555
1519648909723,-0.289307,0.597656,0.787354
1519648909732,-0.256836,0.573242,0.804443
1519648909783,-0.248535,0.548584,0.803955
1519648909791,-0.254150,0.551025,0.791748
1519648909820,-0.260498,0.539795,0.811035
1519648909877,-0.277832,0.567871,0.869385
1519648909910,-0.291260,0.555908,0.848877
1519648909942,-0.294678,0.574951,0.813965
1519648909975,-0.290771,0.579346,0.796143
1519648910008,-0.266602,0.569092,0.882568
1519648910040,-0.285889,0.589844,0.733398
1519648910072,-0.233398,0.580078,0.832520
1519648910105,-0.253174,0.566406,0.801270
1519648910138,-0.255859,0.543701,0.778809
1519648910171,-0.236572,0.571045,0.832764
1519648910204,-0.264648,0.538818,0.847900
1519648910236,-0.275146,0.522461,0.797363
1519648910269,-0.285156,0.587646,0.828613
1519648910301,-0.300293,0.632813,0.859131
1519648910309,-0.313232,0.563232,0.787354
1519648910358,-0.275146,0.640381,0.899902
1519648910393,-0.236572,0.524170,0.849609
1519648910424,-0.225342,0.417480,0.826660
1519648910456,-0.264404,0.546143,0.833984
1519648910488,-0.300781,0.567139,0.828613
1519648910522,-0.294434,0.462158,0.778320
1519648910554,-0.251709,0.524170,0.775146
1519648910585,-0.224609,0.475098,0.787598
1519648910619,-0.177246,0.566895,1.030029
1519648910652,-0.247803,0.563721,0.983643
1519648910685,-0.324707,0.534180,0.798828
1519648910720,-0.279053,0.419678,0.756592
1519648910793,-0.222656,0.525879,0.822998
1519648910801,-0.203613,0.481689,0.962158
1519648910858,-0.234619,0.536865,0.954590
1519648910864,-0.291992,0.494629,0.888672
1519648910924,-0.361328,0.489014,0.807129
1519648910933,-0.392334,0.569336,0.973389
1519648910957,-0.408936,0.436279,0.956299
1519648910962,-0.389404,0.343018,0.696045
1519648910992,-0.342529,0.611084,0.687012
1519648911051,-0.237061,0.428711,0.844727
1519648911059,-0.257568,0.522705,0.798828
1519648911083,-0.198486,0.435303,0.858887
1519648911142,-0.038818,0.397217,1.045166
1519648911175,-0.194824,0.444824,0.899902
1519648911207,-0.182617,0.442627,0.593506
1519648911216,-0.155762,0.412598,1.032715
1519648911271,-0.276855,0.331543,0.806396
1519648911302,-0.271729,0.242920,0.812988
1519648911339,-0.249756,0.529785,1.032227
1519648911368,-0.271484,0.412598,0.891113
1519648911377,-0.240967,0.490479,0.721191
1519648911427,-0.223877,0.550781,0.852295
1519648911460,-0.253418,0.645752,1.009521
1519648911462,-0.349121,0.558594,0.904297
1519648911520,-0.298828,0.507813,0.784424
1519648911553,-0.306152,0.496826,0.809814
1519648911586,-0.347168,0.406006,0.903320
1519648911619,-0.394775,0.462891,0.859131
1519648911651,-0.414551,0.571045,0.839355
1519648911687,-0.414795,0.534424,0.859863
1519648911720,-0.355713,0.490234,0.872314
1519648911753,-0.334229,0.447266,0.854492
1519648911785,-0.319824,0.463623,0.859619
1519648911817,-0.294922,0.425049,0.856445
1519648911850,-0.301514,0.483154,0.808350
1519648911882,-0.290039,0.508789,0.805664
1519648911915,-0.270020,0.545898,0.940186
1519648911947,-0.161377,0.446533,0.839111
1519648911952,-0.083252,0.656250,1.021973
1519648912007,-0.194336,0.402100,0.804688
1519648912016,-0.135986,0.386963,0.803711
1519648912088,-0.145020,0.360352,0.785156
1519648912096,-0.195313,0.462891,0.863525
1519648912120,-0.297119,0.521484,0.929932
1519648912151,-0.374512,0.488525,0.902588
1519648912185,-0.406006,0.505615,0.832520
1519648912218,-0.395752,0.451660,0.817383
1519648912251,-0.382813,0.423584,0.801025
1519648912285,-0.379150,0.500244,0.809814
1519648912316,-0.302490,0.533203,0.916748
1519648912346,-0.242432,0.550293,0.948486
1519648912404,-0.304199,0.500000,0.899170
1519648912407,-0.264160,0.415527,0.865967
1519648912441,-0.206543,0.366211,0.754150
1519648912498,-0.217041,0.432129,0.834229
1519648912505,-0.380371,0.834229,0.785156
1519648912536,-0.444336,0.516846,0.832764
1519648912566,-0.455566,0.564697,1.021729
1519648912599,-0.478271,0.491699,0.768799
1519648912636,-0.421875,0.567871,0.772705
1519648912669,-0.323975,0.440918,0.810059
1519648912703,-0.226074,0.381104,0.789795
1519648912735,-0.163086,0.485840,0.815674
1519648912767,-0.129639,0.556885,1.110596
1519648912800,-0.181641,0.472656,0.967773
1519648912834,-0.170898,0.272217,0.743652
1519648912865,-0.143311,0.517578,0.763916
1519648912898,-0.222412,0.572754,0.913086
1519648912931,-0.261719,0.535400,0.785400
1519648912962,-0.347900,0.590576,0.904785
1519648912995,-0.436523,0.535889,0.832031
1519648913029,-0.450928,0.527588,0.744385
1519648913061,-0.392334,0.357178,0.831055
1519648913093,-0.369385,0.505615,0.862305
1519648913126,-0.345459,0.508545,0.909912
1519648913158,-0.320801,0.492676,0.828857
1519648913191,-0.274170,0.419189,0.839600
1519648913224,-0.269043,0.401855,0.838379
1519648913255,-0.229248,0.550781,0.913574
1519648913289,-0.260010,0.481445,0.909668
1519648913321,-0.298584,0.471924,0.948730
1519648913366,-0.260742,0.463623,0.859863
1519648913398,-0.227783,0.399902,0.851563
1519648913404,-0.222900,0.499023,0.833496
1519648913463,-0.277344,0.355957,0.834717
1519648913495,-0.308838,0.321533,0.896240
1519648913500,-0.268311,0.491943,0.941162
1519648913555,-0.241455,0.318115,0.864258
1519648913564,-0.268311,0.580322,0.707520
1519648913596,-0.317627,0.791748,0.776123
1519648913657,-0.336914,0.643555,0.895996
1519648913665,-0.348633,0.584229,0.857910
1519648913690,-0.299316,0.519775,0.781982
1519648913748,-0.260254,0.370361,0.786377
1519648913782,-0.256348,0.536865,0.845459
1519648913790,-0.255615,0.501221,0.864258
1519648913843,-0.279053,0.621338,0.850830
1519648913912,-0.312256,0.495850,0.822510
1519648913920,-0.341797,0.549072,0.825684
1519648913978,-0.404541,0.525391,0.847656
1519648913984,-0.382324,0.393066,0.936768
1519648914014,-0.404297,0.357422,0.947021
1519648914020,-0.345459,0.442871,0.950928
1519648914079,-0.264404,0.467041,0.875488
1519648914087,-0.179932,0.475586,0.885498
1519648914136,-0.128418,0.579346,0.925781
1519648914145,-0.138916,0.696289,0.976318
1519648914196,-0.199463,0.470459,0.806641
1519648914229,-0.246338,0.294434,0.766113
1519648914262,-0.240234,0.489014,0.982666
1519648914293,-0.377441,0.391357,0.968262
1519648914326,-0.459717,0.335938,0.880859
1519648914358,-0.487793,0.355469,0.818604
1519648914389,-0.416260,0.404785,0.852295
1519648914421,-0.292480,0.435547,0.915527
1519648914454,-0.209473,0.376221,0.917969
1519648914486,-0.106445,0.423340,0.921387
1519648914522,0.274902,0.558594,1.098633
1519648914552,0.232422,0.339600,0.977783
1519648914557,0.010986,0.427002,0.865967
1519648914614,-0.116943,0.313965,0.751465
1519648914648,-0.211426,0.354736,0.847168
1519648914656,-0.300293,0.187988,0.761475
1519648914709,-0.385742,0.650879,0.916260
1519648914743,-0.389648,0.379395,1.011230
1519648914776,-0.406250,0.419189,0.963867
1519648914807,-0.355225,0.404541,0.784668
1519648914840,-0.291748,0.432129,0.747314
1519648914872,-0.347168,0.628174,0.743652
1519648914906,-0.280273,0.431885,0.972412
1519648914937,-0.323242,0.536621,1.037354
1519648914970,-0.337891,0.504395,0.836182
1519648915003,-0.261719,0.439209,0.773682
1519648915036,-0.245605,0.524170,0.983154
1519648915069,-0.300537,0.487305,0.803711
1519648915100,-0.218750,0.512939,0.847412
1519648915133,-0.230957,0.588379,0.927490
1519648915144,-0.354736,0.587402,0.904785
1519648915193,-0.294189,0.394775,0.788818
1519648915226,-0.270264,0.503662,0.873535
1519648915235,-0.261230,0.456299,0.854492
1519648915290,-0.272461,0.519287,0.888672
1519648915322,-0.288330,0.480469,0.843262
1519648915354,-0.297363,0.487793,0.811035
1519648915386,-0.297607,0.557129,0.823242
1519648915417,-0.332764,0.520508,0.807129
1519648915450,-0.342529,0.543213,0.839355
1519648915483,-0.331055,0.483643,0.824219
1519648915516,-0.316406,0.441162,0.810059
1519648915554,-0.328369,0.432373,0.823486
1519648915588,-0.305908,0.418213,0.817627
1519648915620,-0.188721,0.619629,0.828857
1519648915628,-0.130859,0.607910,1.043945
1519648915677,-0.210693,0.401855,0.670654
1519648915681,-0.137695,0.596680,0.680176
1519648915740,-0.215576,0.530762,0.944336
1519648915774,-0.404785,0.484375,0.685059
1519648915783,-0.407227,0.116699,0.923828
1519648915836,-0.402832,0.508545,1.183105
1519648915868,-0.448242,0.413330,1.018311
1519648915902,-0.427979,0.423584,0.862061
1519648915927,-0.369873,0.498535,0.843506
1519648915958,-0.209961,0.389648,0.858887
1519648915991,-0.179199,0.430908,0.861328
1519648916024,-0.069092,0.538574,0.849365
1519648916057,-0.062988,0.505859,1.177002
1519648916090,-0.247803,0.493652,0.804688
1519648916123,-0.152100,0.382813,0.685303
1519648916154,-0.242432,0.398438,0.758545
1519648916188,-0.321045,0.408447,0.905518
1519648916197,-0.329834,0.430176,0.892334
1519648916250,-0.300049,0.427246,1.035889
1519648916283,-0.362793,0.481689,0.832520
1519648916318,-0.273682,0.482910,0.872070
1519648916348,-0.187012,0.533936,0.995117
1519648916380,-0.265625,0.430420,0.893555
1519648916413,-0.273438,0.397461,0.686523
1519648916446,-0.266602,0.491943,0.972656
1519648916478,-0.317139,0.530762,0.943604
1519648916514,-0.320068,0.425537,0.838135
1519648916547,-0.285156,0.488037,0.835938
1519648916580,-0.285889,0.461914,0.858887
1519648916611,-0.306152,0.494141,0.867188
1519648916644,-0.282227,0.445557,0.872314
1519648916678,-0.267822,0.451416,0.889404
1519648916686,-0.276611,0.516846,0.893311
1519648916735,-0.319336,0.537354,0.838623
1519648916767,-0.267822,0.446777,0.942871
1519648916775,-0.302002,0.507568,0.920166
1519648916832,-0.227783,0.425537,0.904053
1519648916863,-0.155762,0.300293,0.732422
1519648916896,-0.111816,0.147705,0.653809
1519648916929,-0.278564,0.723145,0.833252
1519648916963,-0.315674,0.478760,0.799072
1519648917032,-0.352539,0.371338,0.949463
1519648917040,-0.528320,0.547852,0.916504
1519648917100,-0.387939,0.509766,0.809814
1519648917136,-0.321045,0.335693,0.838867
1519648917144,-0.275391,0.505615,0.814209
1519648917168,-0.242432,0.396240,0.910156
1519648917174,-0.186523,0.206787,0.983887
1519648917233,-0.294922,0.379639,0.737549
1519648917264,-0.341064,0.604004,0.929932
1519648917273,-0.371094,0.477539,0.922119
1519648917324,-0.381104,0.429932,0.877441
1519648917333,-0.305908,0.687256,0.858398
1519648917384,-0.276855,0.450439,0.729492
1519648917416,-0.209961,0.454102,0.739990
1519648917423,-0.172607,0.472168,0.840332
1519648917458,-0.270996,0.592285,0.854492
1519648917517,-0.304443,0.440918,0.890869
1519648917530,-0.338867,0.495361,0.880371
1519648917563,-0.357422,0.489502,0.754150
1519648917595,-0.334229,0.505859,0.905762
1519648917627,-0.344238,0.559570,0.850586
1519648917660,-0.324951,0.505127,0.818359
1519648917693,-0.256348,0.509033,0.901611
1519648917726,-0.291016,0.552246,0.843262
1519648917759,-0.308105,0.543457,0.901855
1519648917791,-0.343994,0.516602,0.820068
1519648917822,-0.359375,0.574707,0.769531
1519648917854,-0.345703,0.452393,0.778564
1519648917913,-0.293701,0.404297,1.010010
1519648917920,-0.386230,0.450684,0.789551
1519648917946,-0.314941,0.454102,0.908691
1519648918004,-0.226318,0.660889,0.804688
1519648918009,-0.247070,0.549316,1.017822
1519648918063,-0.270020,0.522949,0.826416
1519648918095,-0.258301,0.451416,0.671875
1519648918129,-0.231689,0.563965,0.819092
1519648918162,-0.244141,0.516357,0.798340
1519648918175,-0.256592,0.453369,0.792236
1519648918207,-0.291016,0.480225,0.808838
1519648918238,-0.325684,0.471680,0.810059
1519648918271,-0.337891,0.525146,0.871826
1519648918330,-0.321289,0.551758,0.915283
1519648918336,-0.309082,0.544434,0.866211
1519648918376,-0.286133,0.527832,0.829346
1519648918409,-0.292480,0.542480,0.852051
1519648918420,-0.316650,0.597412,0.903809
1519648918486,-0.287598,0.499756,0.848389
1519648918491,-0.285400,0.520752,0.834961
1519648918545,-0.255127,0.466797,0.723877
1519648918579,-0.200195,0.388428,0.989258
1519648918588,-0.225586,0.511719,1.003174
1519648918642,-0.297119,0.482910,0.788818
1519648918676,-0.276367,0.240479,0.766846
1519648918709,-0.417969,0.625488,0.823730
1519648918740,-0.510010,0.543213,0.907959
1519648918756,-0.531006,0.522217,0.865479
1519648918789,-0.487061,0.505615,0.855225
1519648918822,-0.428955,0.385986,0.780518
1519648918853,-0.280518,0.508789,0.797607
1519648918885,-0.113037,0.656494,0.899902
1519648918918,0.063232,0.511475,0.857666
1519648918951,-0.010742,0.536621,1.095947
1519648918982,0.007324,0.494873,0.664795
1519648919014,-0.000488,0.371094,0.839355
1519648919048,-0.146240,0.411133,0.810791
1519648919081,-0.253174,0.266357,0.667236
1519648919112,-0.465576,0.570313,0.700684
1519648919145,-0.690674,0.625244,0.760742
1519648919187,-0.631836,0.568604,1.016846
1519648919218,-0.565674,0.490723,1.072998
1519648919339,-0.475098,0.417236,0.819580
1519648919341,-0.444092,0.589600,0.724121
1519648919341,-0.312256,0.538574,0.780762
1519648919342,-0.259033,0.510254,0.776611
1519648919375,-0.258545,0.475586,0.767090
1519648919381,-0.241943,0.473633,0.849609
1519648919438,-0.247803,0.501221,0.858643
1519648919472,-0.225342,0.511719,0.914063
1519648919503,-0.229248,0.453125,0.995117
1519648919536,-0.281006,0.617432,0.930420
1519648919570,-0.221680,0.288330,0.549072
1519648919602,-0.288818,0.668945,0.871094
1519648919634,-0.360107,0.362793,0.749268
1519648919668,-0.389893,0.505615,0.812988
1519648919700,-0.345459,0.516113,0.958740
1519648919731,-0.184570,0.384521,0.840576
1519648919767,-0.058838,0.466064,1.159180
1519648919803,-0.084229,0.184082,0.704590
1519648919835,-0.268799,0.990234,0.818115
1519648919867,-0.395752,0.491455,0.715088
1519648919872,-0.435547,0.372314,0.724609
1519648919928,-0.556885,0.517578,0.876709
1519648919933,-0.443359,0.414551,0.669678
1519648919967,-0.388672,0.443115,0.877930
1519648920024,-0.261719,0.421387,0.841797
1519648920031,-0.210693,0.416504,0.914551
1519648920126,-0.104736,0.764648,1.098145
1519648920128,-0.191650,0.496582,0.805420
1519648920194,-0.154541,0.538574,0.665771
1519648920197,-0.246338,0.357178,0.894775
1519648920254,-0.335449,0.421143,0.733643
1519648920259,-0.339600,0.323486,0.957031
1519648920288,-0.345215,0.303955,0.795654
1519648920321,-0.174316,0.478760,1.129883
1519648920354,-0.219482,0.480469,1.024414
1519648920363,-0.218018,0.294678,0.811768
1519648920397,-0.222168,0.550293,0.830811
1519648920430,-0.261475,0.487549,0.859131
1519648920463,-0.305420,0.486084,0.942383
1519648920521,-0.374023,0.324219,0.881836
1519648920526,-0.342773,0.283691,0.823242
1519648920556,-0.244385,0.338135,0.817627
1519648920613,-0.158936,0.442627,0.917480
1519648920621,-0.167236,0.479736,0.915771
1519648920647,-0.224365,0.327393,0.862061
1519648920704,-0.296631,0.488281,0.811279
1519648920736,-0.336670,0.526123,0.789307
1519648920768,-0.354492,0.546387,0.812988
1519648920782,-0.359619,0.576416,0.845703
1519648920829,-0.338867,0.481201,0.877686
1519648920860,-0.306641,0.467529,0.883301
1519648920893,-0.230957,0.508545,0.924561
1519648920931,-0.235596,0.482666,0.884277
1519648920936,-0.257813,0.466797,0.859863
1519648920989,-0.264893,0.492676,0.833740
1519648921021,-0.244141,0.520264,0.826660
1519648921046,-0.249268,0.522705,0.846680
1519648921079,-0.274902,0.556885,0.881836
1519648921111,-0.263428,0.559326,0.850098
1519648921144,-0.237793,0.512695,0.821045
1519648921183,-0.246582,0.517578,0.879395
1519648921216,-0.239258,0.528320,0.865723
1519648921251,-0.232178,0.519043,0.819580
1519648921280,-0.232666,0.523193,0.821289
1519648921318,-0.237305,0.544434,0.839600
1519648921370,-0.234619,0.541748,0.830078
1519648921376,-0.232666,0.541260,0.839600
1519648921431,-0.233154,0.534424,0.850586
1519648921436,-0.238770,0.530029,0.847656
1519648921491,-0.256104,0.527832,0.832031
1519648921496,-0.243652,0.535889,0.847412
1519648921550,-0.230957,0.501709,0.843506
1519648921553,-0.242432,0.562500,0.835693
1519648921585,-0.266113,0.570801,0.825439
1519648921652,-0.267090,0.572998,0.795410
1519648921656,-0.250488,0.563232,0.839111
1519648921710,-0.236084,0.533447,0.818604
1519648921718,-0.224609,0.536865,0.781494
1519648921771,-0.193848,0.561523,0.785156
1519648921776,-0.203125,0.590576,0.815430
1519648921814,-0.196289,0.555664,0.855225
1519648921848,-0.226563,0.535889,0.837646
1519648921878,-0.264893,0.577637,0.854492
1519648921911,-0.282959,0.552979,0.877441
1519648921944,-0.325684,0.535156,0.865234
1519648921979,-0.308350,0.524414,0.875977
1519648922011,-0.253906,0.548340,0.866943
1519648922053,-0.188965,0.520020,0.829590
1519648922061,-0.177979,0.516357,0.782715
1519648922115,-0.175049,0.496094,0.792480
1519648922148,-0.192871,0.493652,0.847900
1519648922156,-0.214600,0.541992,0.944824
1519648922211,-0.249756,0.445313,0.853516
1519648922244,-0.279053,0.565430,0.900146
1519648922278,-0.310059,0.523926,0.862061
1519648922328,-0.264648,0.497803,0.965332
1519648922336,-0.236816,0.496338,0.829102
1519648922365,-0.194336,0.467773,0.800537
1519648922392,-0.240723,0.570313,0.886230
1519648922430,-0.312744,0.506592,0.779541
1519648922464,-0.206055,0.369873,0.965820
1519648922496,-0.212891,0.488281,0.784668
1519648922528,-0.066162,0.367920,0.987793
1519648922562,-0.093994,0.540283,1.037109
1519648922594,-0.240479,0.372070,1.010986
1519648922628,-0.208496,0.295410,0.934082
1519648922659,-0.141113,0.360596,0.899902
1519648922692,-0.040039,0.428711,1.001221
1519648922724,-0.113037,0.218506,0.961670
1519648922756,-0.118164,0.507813,0.772705
1519648922788,-0.141357,0.561279,0.596924
1519648922822,-0.193848,0.389404,0.834229
1519648922837,-0.189209,0.426025,0.919434
1519648922894,-0.207275,0.492432,1.034912
1519648922926,-0.273926,0.392822,0.913330
1519648922959,-0.316406,0.453857,1.109131
1519648922991,-0.339844,0.365723,0.924805
1519648923024,-0.291992,0.508789,0.870117
1519648923057,-0.287598,0.433838,0.888916
1519648923065,-0.249756,0.352051,0.813965
1519648923114,-0.174072,0.498779,0.927490
1519648923173,-0.182617,0.436523,0.901367
1519648923177,-0.202148,0.358398,0.841553
1519648923245,-0.164063,0.510498,0.925293
1519648923250,-0.162354,0.458252,0.946777
1519648923329,-0.179199,0.474609,0.893555
1519648923337,-0.190186,0.422607,0.864502
1519648923392,-0.212402,0.440430,0.882568
1519648923400,-0.236816,0.434082,0.879150
1519648923408,-0.216797,0.452637,0.906982
1519648923425,-0.220215,0.565918,0.939941
1519648923457,-0.179932,0.603271,1.010742
1519648923490,-0.123291,0.477295,0.746338
1519648923521,-0.130859,0.520996,0.739014
1519648923554,-0.214355,0.357910,0.959473
1519648923608,-0.371826,0.288574,0.729980
1519648923640,-0.426025,0.285889,0.797852
1519648923648,-0.484863,0.347900,1.084229
1519648923685,-0.454102,0.307373,0.873535
1519648923719,-0.467285,0.270996,0.752197
1519648923751,-0.363281,0.387451,0.983154
1519648923783,-0.238281,0.376465,0.834717
1519648923817,-0.233154,0.461914,0.811523
1519648923850,-0.120117,0.516113,1.015137
1519648923882,-0.126953,0.541748,1.138428
1519648923914,-0.232422,0.474121,0.971680
1519648923947,-0.301270,0.456299,0.902832
1519648923980,-0.190918,0.411865,0.914551
1519648924011,-0.232666,0.358398,0.861816
1519648924044,-0.199707,0.256104,0.891602
1519648924086,-0.205811,0.272705,0.765137
1519648924117,-0.296143,0.444092,0.900879
1519648924121,-0.326904,0.418457,0.885498
1519648924177,-0.303711,0.354980,0.741211
1519648924237,-0.311523,0.315186,0.807861
1519648924245,-0.336426,0.393799,0.890137
1519648924299,-0.273193,0.431885,0.842285
1519648924304,-0.253418,0.439209,0.958252
1519648924333,-0.298340,0.505371,0.860107
1519648924366,-0.289551,0.386230,0.875488
1519648924396,-0.375488,0.532959,0.867676
1519648924429,-0.382324,0.440186,0.952881
1519648924462,-0.357422,0.518066,1.082764
1519648924499,-0.310547,0.362549,0.983154
1519648924526,-0.297363,0.425293,0.915039
1519648924559,-0.287598,0.462891,0.758789
1519648924592,-0.265625,0.506348,0.775146
1519648924628,-0.278076,0.489014,0.819824
1519648924658,-0.298340,0.454590,0.855713
1519648924667,-0.261719,0.473389,0.832520
1519648924721,-0.244629,0.470459,0.873291
1519648924754,-0.273926,0.461182,0.844727
1519648924763,-0.301514,0.460938,0.833984
1519648924820,-0.305908,0.468994,0.867432
1519648924853,-0.317871,0.506592,0.892578
1519648924886,-0.314697,0.471924,0.883545
1519648924920,-0.311279,0.461670,0.865967
1519648924953,-0.292480,0.456543,0.859863
1519648924961,-0.295654,0.429688,0.843994
1519648925015,-0.281250,0.454102,0.857666
1519648925049,-0.279053,0.479004,0.862793
1519648925082,-0.281982,0.461426,0.866211
1519648925090,-0.287354,0.447266,0.868652
1519648925165,-0.307617,0.469971,0.857910
1519648925173,-0.317627,0.442627,0.871582
1519648925232,-0.315674,0.448242,0.851074
1519648925235,-0.308838,0.416504,0.847412
1519648925293,-0.291016,0.458740,0.854492
1519648925301,-0.281250,0.474121,0.861084
1519648925318,-0.280029,0.424805,0.834961
1519648925350,-0.289063,0.428223,0.913086
1519648925406,-0.262695,0.554688,0.835449
1519648925410,-0.226807,0.592285,0.968750
1519648925467,-0.279297,0.434814,0.856201
1519648925526,-0.308594,0.395752,0.742432
1519648925531,-0.306641,0.583740,0.744873
1519648925563,-0.224121,0.465088,1.017822
1519648925597,-0.238525,0.500000,0.937256
1519648925630,-0.266113,0.475342,0.898682
1519648925664,-0.309326,0.538086,0.776367
1519648925684,-0.347168,0.494141,0.921387
1519648925754,-0.247803,0.212158,0.767822
1519648925763,-0.312988,0.592041,0.904785
1519648925770,-0.318604,0.590820,0.907715
1519648925813,-0.214600,0.596191,0.840332
1519648925873,-0.225098,0.407715,0.997070
1519648925876,-0.300781,0.351074,0.786133
1519648925931,-0.322510,0.548096,0.746094
1519648925934,-0.338867,0.524658,0.810547
1519648925993,-0.315430,0.510742,0.870361
1519648925999,-0.300049,0.485352,0.829590
1519648926053,-0.249268,0.473633,0.866943
1519648926067,-0.198730,0.487305,1.032959
1519648926119,-0.098633,0.431152,0.838379
1519648926132,-0.071289,0.432129,0.957031
1519648926168,-0.095459,0.344482,0.825928
1519648926201,-0.202637,0.613037,0.841064
1519648926233,-0.283936,0.486816,0.786621
1519648926242,-0.291504,0.460205,0.819336
1519648926296,-0.261963,0.695313,0.864014
1519648926369,-0.245850,0.544922,0.773438
1519648926378,-0.275146,0.473877,0.757080
1519648926436,-0.292236,0.630859,0.831543
1519648926442,-0.317627,0.571289,0.828125
1519648926542,-0.345947,0.558105,0.802734
1519648926548,-0.357666,0.550049,0.822754
1519648926608,-0.353760,0.545166,0.796875
1519648926616,-0.367188,0.490723,0.805176
1519648926628,-0.384766,0.514893,0.848145
1519648926636,-0.380615,0.518555,0.858887
1519648926669,-0.369141,0.503418,0.839844
1519648926678,-0.333008,0.529297,0.827881
1519648926730,-0.231689,0.594971,0.853760
1519648926735,-0.190186,0.538086,0.842773
1519648926790,-0.179443,0.505859,0.834717
1519648926822,-0.207275,0.503418,0.832764
1519648926830,-0.233643,0.550781,0.816650
1519648926887,-0.259033,0.486084,0.822510
1519648926912,-0.312744,0.458740,0.871582
1519648926945,-0.366211,0.513916,0.832764
1519648926988,-0.348633,0.420166,0.838135
1519648926996,-0.361816,0.409424,0.835205
1519648927020,-0.367432,0.554443,0.767578
1519648927079,-0.291260,0.531738,0.928955
1519648927111,-0.326904,0.530029,0.784668
1519648927124,-0.343018,0.477295,0.745361
1519648927153,-0.286133,0.486084,0.842773
1519648927210,-0.272461,0.618652,0.927490
1519648927242,-0.289307,0.555908,0.879150
1519648927275,-0.360107,0.468506,0.840088
1519648927308,-0.332764,0.501953,0.791992
1519648927318,-0.350586,0.569092,0.807861
1519648927372,-0.278809,0.550781,0.932373
1519648927405,-0.195801,0.379395,0.895020
1519648927413,-0.325928,0.558594,1.056396
1519648927470,-0.365479,0.447021,0.648438
1519648927477,-0.299561,0.431641,0.780518
1519648927504,-0.247314,0.357666,0.781494
1519648927537,-0.156738,0.639404,0.812500
1519648927569,-0.038574,0.721191,0.989502
1519648927602,-0.108398,0.476074,0.969727
1519648927635,-0.169189,0.524414,0.678711
1519648927693,-0.222412,0.409668,0.845703
1519648927777,-0.304932,0.503662,0.953613
1519648927785,-0.407471,0.438232,0.859131
1519648927840,-0.398193,0.587402,0.877197
1519648927845,-0.373779,0.527344,0.773438
1519648927850,-0.249756,0.498047,0.982422
1519648927901,-0.251221,0.502197,0.979004
1519648927907,-0.268311,0.482178,0.821533
1519648927962,-0.220947,0.488770,0.928467
1519648927969,-0.215820,0.479492,0.889893
1519648927995,-0.260010,0.312256,0.778564
1519648928027,-0.179443,0.368164,0.746582
1519648928061,-0.210449,0.518066,0.817871
1519648928099,-0.259277,0.495605,0.795166
1519648928156,-0.287109,0.449951,0.847168
1519648928164,-0.308838,0.528809,0.873779
1519648928213,-0.322510,0.496826,0.823730
1519648928218,-0.318604,0.490479,0.917480
1519648928274,-0.309814,0.535645,0.926758
1519648928283,-0.328613,0.579834,0.854248
1519648928319,-0.296143,0.434326,0.865967
1519648928351,-0.339355,0.582764,0.821045
1519648928383,-0.297119,0.489990,0.770264
1519648928416,-0.283203,0.481689,0.825195
1519648928449,-0.241943,0.577393,0.854980
1519648928480,-0.218506,0.473877,0.834717
1519648928512,-0.233643,0.454346,0.807373
1519648928545,-0.297119,0.631104,0.804932
1519648928578,-0.358398,0.501465,0.846680
1519648928620,-0.435059,0.510986,0.846191
1519648928652,-0.397217,0.548584,0.843506
1519648928685,-0.312012,0.370850,0.895264
1519648928728,-0.285400,0.552734,0.824463
1519648928736,-0.270264,0.553223,0.847412
1519648928793,-0.251221,0.625977,0.873779
1519648928860,-0.315430,0.501709,0.877197
1519648928865,-0.397217,0.403809,0.839355
1519648928871,-0.432617,0.519531,0.859375
1519648928921,-0.417236,0.441650,0.829102
1519648928927,-0.405273,0.558105,0.791260
1519648928982,-0.363770,0.595947,0.797607
1519648928996,-0.262451,0.444824,0.845215
1519648929046,-0.197510,0.549805,0.833252
1519648929052,-0.204102,0.377441,0.779785
1519648929108,-0.201416,0.492920,1.175049
1519648929117,-0.280029,0.326416,0.765869
1519648929166,-0.237061,0.528809,0.778809
1519648929228,-0.328369,0.433350,0.970215
1519648929236,-0.320068,0.267090,0.797607
1519648929287,-0.254639,0.477539,0.739502
1519648929296,-0.281494,0.421875,0.850830
1519648929349,-0.114502,0.660156,0.857422
1519648929357,-0.051514,0.653076,1.070068
1519648929407,-0.088623,0.394531,0.654297
1519648929415,-0.118896,0.635010,0.704590
1519648929489,-0.144043,0.585693,0.875488
1519648929497,-0.320557,0.513672,0.706787
1519648929555,-0.369385,0.207031,0.803955
1519648929559,-0.387695,0.527588,1.021729
1519648929614,-0.335938,0.409180,0.896240
1519648929623,-0.291992,0.415283,1.089355
1519648929649,-0.291992,0.397705,1.016113
1519648929681,-0.315918,0.383545,0.872070
1519648929713,-0.314941,0.430420,0.907715
1519648929746,-0.339600,0.467773,0.833984
1519648929779,-0.234375,0.821289,0.834717
1519648929811,-0.297607,0.533203,0.995850
1519648929828,-0.239746,0.294922,0.813721
1519648929894,-0.205322,0.494629,0.796143
1519648929915,-0.225342,0.572998,0.869385
1519648929921,-0.241943,0.537598,0.809326
1519648929974,-0.262695,0.429932,0.745850
1519648930007,-0.257568,0.521484,0.796631
1519648930015,-0.292969,0.498779,0.896240
1519648930067,-0.316162,0.423340,0.869141
1519648930102,-0.307861,0.556152,0.886475
1519648930134,-0.294434,0.579346,0.897949
1519648930166,-0.290527,0.510498,0.874512
1519648930199,-0.286377,0.546143,0.891357
1519648930212,-0.322998,0.528320,0.872314
1519648930246,-0.289063,0.518555,0.904297
1519648930279,-0.352295,0.578369,0.930176
1519648930312,-0.367432,0.527588,0.805908
1519648930345,-0.344482,0.542969,0.811035
1519648930378,-0.291748,0.422363,0.904541
1519648930410,-0.254395,0.490967,0.914307
1519648930442,-0.195313,0.260742,0.743896
1519648930476,-0.062256,0.358643,0.884277
1519648930509,-0.167236,0.786377,0.985840
1519648930547,-0.223389,0.253906,0.878418
1519648930574,-0.184082,0.385010,0.794922
1519648930607,-0.172363,0.318359,0.853027
1519648930648,-0.169434,0.334473,0.751953
1519648930682,-0.229980,0.605469,0.794434
1519648930715,-0.234863,0.309570,0.940430
1519648930724,-0.355225,0.417969,0.987549
1519648930777,-0.340576,0.448242,0.852539
1519648930809,-0.310547,0.338379,0.818359
1519648930843,-0.304443,0.425049,0.955811
1519648930875,-0.318115,0.446533,0.923584
1519648930907,-0.303467,0.430664,0.876465
1519648930939,-0.308350,0.482910,0.903076
1519648930971,-0.322754,0.477783,0.890381
1519648931007,-0.342285,0.433105,0.865967
1519648931021,-0.348145,0.507568,0.879150
1519648931054,-0.345215,0.462646,0.864014
1519648931090,-0.319824,0.434326,0.827148
1519648931120,-0.287354,0.478760,0.825684
1519648931153,-0.265137,0.448486,0.813477
1519648931184,-0.249756,0.436523,0.838135
1519648931218,-0.256104,0.451416,1.065186
1519648931248,-0.262695,0.465576,0.826904
1519648931287,-0.096191,0.635010,1.032959
1519648931329,-0.238037,0.392090,0.802490
1519648931335,-0.213379,0.496094,0.631104
1519648931370,-0.201172,0.556152,0.774414
1519648931426,-0.266357,0.515625,0.765137
1519648931440,-0.313965,0.475830,0.761230
1519648931475,-0.345947,0.480713,0.843262
1519648931506,-0.410889,0.626953,0.910645
1519648931538,-0.434570,0.553955,0.914551
1519648931570,-0.468018,0.463867,1.015869
1519648931605,-0.369873,0.391357,0.751465
1519648931638,-0.296387,0.426025,0.822998
1519648931669,-0.321533,0.439941,0.780273
1519648931702,-0.291016,0.478516,0.843750
1519648931735,-0.266113,0.513184,0.841309
1519648931767,-0.252930,0.511475,0.841064
1519648931799,-0.270264,0.513672,0.831299
1519648931836,-0.214111,0.473633,0.950439
1519648931874,-0.248291,0.475342,0.817383
1519648931904,-0.248291,0.687744,0.885010
1519648931937,-0.317627,0.537354,0.902588
1519648931976,-0.244629,0.402100,0.698242
1519648932007,-0.258789,0.605469,0.846924
1519648932038,-0.256104,0.516113,0.969238
1519648932043,-0.290527,0.460449,0.795166
1519648932098,-0.371338,0.511475,0.963623
1519648932106,-0.312256,0.415283,0.859375
1519648932135,-0.232422,0.300293,0.677734
1519648932193,-0.288330,0.724365,1.008789
1519648932201,-0.344727,0.555176,0.740967
1519648932255,-0.327881,0.370605,0.705566
1519648932270,-0.343750,0.550049,1.001221
1519648932304,-0.347168,0.459229,0.812744
1519648932336,-0.356445,0.446533,0.789795
1519648932368,-0.347656,0.510498,0.905029
1519648932402,-0.302246,0.480713,0.857666
1519648932434,-0.248291,0.438965,0.846436
1519648932491,-0.273682,0.573486,0.802490
1519648932523,-0.287842,0.552979,0.832764
1519648932532,-0.255371,0.522217,0.839355
1519648932597,-0.273682,0.497070,0.895020
1519648932600,-0.265381,0.507080,0.893799
1519648932666,-0.308105,0.472900,0.736084
1519648932733,-0.260254,0.387451,0.784180
1519648932784,-0.274658,0.620361,0.828125
1519648932787,-0.310303,0.555420,0.811523
1519648932792,-0.273193,0.476318,0.915039
1519648932795,-0.269531,0.502930,0.891846
1519648932848,-0.241943,0.436768,0.875244
1519648932857,-0.257080,0.463867,0.910889
1519648932912,-0.218994,0.406494,0.769531
1519648932916,-0.243408,0.582520,0.737061
1519648932949,-0.346924,0.660156,0.863770
1519648932981,-0.388672,0.552734,0.796143
1519648933014,-0.369141,0.614502,0.869141
1519648933071,-0.452148,0.533203,0.856445
1519648933085,-0.437988,0.481689,0.742676
1519648933118,-0.431396,0.450684,0.734619
1519648933179,-0.333496,0.508789,0.810791
1519648933187,-0.316895,0.515137,0.854980
1519648933238,-0.306885,0.486084,0.806152
1519648933298,-0.196533,0.473389,0.902344
1519648933304,-0.244873,0.455566,0.934082
1519648933309,-0.268555,0.482910,0.962402
1519648933358,-0.289551,0.346680,0.858154
1519648933367,-0.251953,0.253174,0.732666
1519648933419,-0.212158,0.391113,0.838135
1519648933452,-0.213623,0.420166,0.860352
1519648933485,-0.166260,0.488281,0.842773
1519648933498,-0.115234,0.564697,1.020752
1519648933530,-0.136719,0.375977,0.781738
1519648933569,-0.138184,0.575195,0.753662
1519648933594,-0.229004,0.637207,0.838867
1519648933651,-0.246338,0.524414,0.853760
1519648933685,-0.292480,0.377197,0.848877
1519648933688,-0.314941,0.559814,0.912842
1519648933745,-0.320557,0.403320,0.788818
1519648933778,-0.340576,0.463867,0.749756
1519648933786,-0.370361,0.458496,0.978516
1519648933848,-0.415527,0.376709,0.890381
1519648933856,-0.428711,0.479980,0.837402
1519648933883,-0.355713,0.540771,0.905762
1519648933915,-0.361816,0.516113,0.844971
1519648933954,-0.354004,0.535645,0.802979
1519648933987,-0.310303,0.568604,0.859619
1519648934020,-0.214355,0.507080,0.895020
1519648934052,-0.234375,0.447266,0.890137
1519648934085,-0.259766,0.335938,0.760742
1519648934119,-0.254395,0.564697,0.761963
1519648934151,-0.281006,0.523926,0.806885
1519648934183,-0.321289,0.615723,0.906494
1519648934216,-0.299316,0.461426,0.986084
1519648934249,-0.376953,0.613770,1.022705
1519648934282,-0.366455,0.516846,0.732910
1519648934313,-0.298096,0.442871,0.702881
1519648934326,-0.259277,0.467529,0.790527
1519648934359,-0.250732,0.517822,0.910645
1519648934392,-0.261475,0.524414,0.898438
1519648934449,-0.279053,0.464600,0.897949
1519648934482,-0.298096,0.531982,0.784180
1519648934514,-0.240967,0.485596,0.801758
1519648934546,-0.240967,0.552979,0.980713
1519648934578,-0.281738,0.539307,1.022705
1519648934611,-0.369873,0.455322,0.577148
1519648934644,-0.249756,0.496094,0.740967
1519648934649,-0.326660,0.541748,0.859863
1519648934703,-0.261719,0.451660,0.900391
1519648934736,-0.274414,0.466309,0.885742
1519648934748,-0.263184,0.461670,0.893799
1519648934807,-0.292480,0.510498,0.794922
1519648934815,-0.295898,0.458740,0.859375
1519648934844,-0.329590,0.468750,0.842041
1519648934877,-0.327148,0.461182,0.815674
1519648934908,-0.323242,0.568359,1.013428
1519648934939,-0.412842,0.498047,0.771729
1519648934971,-0.330811,0.443604,0.905762
1519648935030,-0.413330,0.454346,0.940430
1519648935063,-0.414307,0.357178,0.782959
1519648935094,-0.331299,0.356689,0.815430
1519648935102,-0.283691,0.475342,0.906006
1519648935159,-0.265869,0.531494,0.891602
1519648935173,-0.088379,0.521484,0.789795
1519648935205,-0.027344,0.736572,1.015381
1519648935239,-0.199463,0.370361,0.762939
1519648935298,-0.177979,0.473389,0.755127
1519648935306,-0.203125,0.475098,0.843506
1519648935329,-0.231201,0.484863,0.852539
1519648935390,-0.276611,0.504639,0.864746
1519648935395,-0.302734,0.474609,0.862061
1519648935424,-0.320313,0.460938,0.870850
1519648935457,-0.328369,0.511475,0.887451
1519648935514,-0.308350,0.501953,0.861816
1519648935520,-0.301758,0.542480,0.856934
1519648935575,-0.282715,0.507324,0.897461
1519648935589,-0.310059,0.547119,0.910645
1519648935622,-0.326904,0.441162,0.770020
1519648935680,-0.269043,0.450439,0.864502
1519648935752,-0.256348,0.479248,0.880615
1519648935760,-0.267334,0.540039,0.838379
1519648935820,-0.271729,0.395752,0.809326
1519648935828,-0.293213,0.514893,0.798828
1519648935853,-0.298340,0.531982,0.805908
1519648935856,-0.332275,0.584961,0.760010
1519648935888,-0.307861,0.505615,0.801025
1519648935919,-0.296875,0.505127,0.845947
1519648935951,-0.314209,0.509277,0.863525
1519648935984,-0.307129,0.521240,0.838867
1519648936002,-0.316406,0.552246,0.822510
1519648936057,-0.348389,0.553711,0.795654
1519648936090,-0.343506,0.558105,0.824707
1519648936122,-0.370605,0.523438,0.853760
1519648936156,-0.394531,0.573730,0.774902
1519648936189,-0.340576,0.559326,0.792969
1519648936222,-0.310059,0.544434,0.808105
1519648936254,-0.300781,0.496582,0.838135
1519648936288,-0.297607,0.487061,0.868652
1519648936293,-0.315918,0.510498,0.864746
1519648936347,-0.317627,0.536621,0.776367
1519648936380,-0.314453,0.569824,0.778076
1519648936406,-0.294434,0.519043,0.780518
1519648936439,-0.293457,0.581055,0.783447
1519648936472,-0.301514,0.572021,0.777100
1519648936505,-0.354248,0.563721,0.751709
1519648936536,-0.336426,0.578125,0.826904
1519648936548,-0.347412,0.458008,0.885010
1519648936605,-0.429199,0.509277,0.855469
1519648936638,-0.411621,0.594727,0.805664
1519648936670,-0.356689,0.422607,0.860840
1519648936704,-0.389648,0.580322,0.750000
1519648936737,-0.278076,0.496338,0.751709
1519648936769,-0.186768,0.416016,0.894043
1519648936791,-0.236084,0.507568,1.056152
1519648936824,-0.269043,0.641113,0.837402
1519648936854,-0.350586,0.491699,0.930176
1519648936888,-0.369141,0.407959,0.683838
1519648936921,-0.323975,0.406982,0.673340
1519648936951,-0.281494,0.444824,0.724609
1519648936984,-0.240967,0.607422,0.880371
1519648937016,-0.264404,0.540771,0.897705
1519648937049,-0.247559,0.509521,0.790039
1519648937081,-0.194580,0.522461,0.968018
1519648937113,-0.207031,0.539307,0.753418
1519648937146,-0.275391,0.542969,0.784668
1519648937180,-0.275146,0.459229,0.820313
1519648937222,-0.298584,0.520264,0.778564
1519648937254,-0.307861,0.512695,0.813477
1519648937286,-0.298584,0.527344,0.826416
1519648937318,-0.348633,0.611816,0.770020
1519648937349,-0.364746,0.539795,0.819580
1519648937382,-0.373291,0.564941,0.808350
1519648937416,-0.383301,0.587158,0.759766
1519648937424,-0.379150,0.546387,0.773926
1519648937450,-0.409180,0.536377,0.797852
1519648937484,-0.432617,0.524902,0.822998
1519648937516,-0.424072,0.522461,0.804932
1519648937548,-0.412598,0.519775,0.795654
1519648937580,-0.412354,0.509766,0.779785
1519648937621,-0.381348,0.603760,0.768311
1519648937654,-0.363281,0.541504,0.803955
1519648937688,-0.327881,0.543945,0.760986
1519648937721,-0.344482,0.520996,0.838379
1519648937758,-0.310547,0.489990,0.892090
1519648937791,-0.265869,0.422119,0.875732
1519648937825,-0.284912,0.489746,1.002197
1519648937833,-0.276611,0.497070,0.948975
1519648937887,-0.261719,0.532959,0.958496
1519648937920,-0.265137,0.488770,0.890625
1519648937928,-0.219727,0.399902,0.863281
1519648937984,-0.225098,0.365479,0.764404
1519648938018,-0.289795,0.328125,0.691406
1519648938048,-0.267334,0.420898,0.706299
1519648938080,-0.293701,0.484375,0.914795
1519648938114,-0.319092,0.476074,0.839844
1519648938148,-0.324463,0.511963,0.852539
1519648938180,-0.329346,0.473633,0.859619
1519648938211,-0.354004,0.455566,0.862549
1519648938244,-0.372559,0.459717,0.831299
1519648938277,-0.378906,0.482910,0.827148
1519648938310,-0.352539,0.497803,0.859863
1519648938341,-0.322998,0.510986,0.848389
1519648938374,-0.301758,0.481689,0.893311
1519648938417,-0.303467,0.531982,0.900391
1519648938425,-0.239502,0.367432,0.816895
1519648938475,-0.285889,0.545410,0.879150
1519648938483,-0.289307,0.567383,0.890625
1519648938511,-0.245850,0.547607,0.854736
1519648938567,-0.210449,0.398193,0.810791
1519648938575,-0.248779,0.435791,0.922119
1519648938631,-0.263672,0.449219,0.845215
1519648938665,-0.268799,0.460693,0.854736
1519648938698,-0.293945,0.503174,0.801758
1519648938708,-0.282959,0.516846,0.830811
1519648938763,-0.286133,0.538330,0.805420
1519648938777,-0.295410,0.520020,0.830566
1519648938850,-0.265381,0.531982,0.843506
1519648938858,-0.259521,0.534424,0.855469
1519648938916,-0.277832,0.598389,0.860596
1519648938922,-0.281494,0.517822,0.808594
1519648938983,-0.254150,0.506104,0.817139
1519648938986,-0.239746,0.546631,0.865967
1519648939000,-0.237061,0.472168,0.880615
1519648939058,-0.355713,0.561768,0.814453
1519648939066,-0.310791,0.528564,0.862061
1519648939091,-0.298340,0.541504,0.845215
1519648939148,-0.305908,0.568115,0.835449
1519648939154,-0.306885,0.581299,0.807373
1519648939199,-0.327881,0.544922,0.850342
1519648939233,-0.349365,0.591797,0.813477
1519648939267,-0.414307,0.568359,0.831543
1519648939299,-0.446289,0.458008,0.798340
1519648939332,-0.384277,0.551270,0.818604
1519648939362,-0.262939,0.455811,0.863281
1519648939395,-0.267090,0.428955,0.857422
1519648939428,-0.285400,0.397217,0.751221
1519648939461,-0.252686,0.423828,0.777100
1519648939493,-0.198975,0.464111,0.940430
1519648939526,-0.272217,0.663330,0.876465
1519648939558,-0.283203,0.460205,0.875000
1519648939571,-0.340332,0.395996,0.970459
1519648939629,-0.325928,0.523926,0.773438
1519648939663,-0.239502,0.423340,0.912842
1519648939673,-0.235352,0.437744,0.892090
1519648939729,-0.237549,0.509033,0.835693
1519648939736,-0.207275,0.369385,0.941406
1519648939795,-0.197998,0.611816,1.072754
1519648939828,-0.172119,0.416992,0.861328
1519648939860,-0.194580,0.473389,0.800293
1519648939893,-0.207764,0.482910,0.793701
1519648939929,-0.213867,0.433594,0.849854
1519648939956,-0.252930,0.320557,0.866699
1519648939988,-0.329590,0.376221,0.877930
1519648940003,-0.354492,0.425049,0.895264
1519648940061,-0.346680,0.477051,0.898926
1519648940066,-0.382813,0.483887,0.815918
1519648940120,-0.341797,0.478760,0.826416
1519648940152,-0.323730,0.465820,0.860840
1519648940160,-0.300293,0.454834,0.815674
1519648940185,-0.295166,0.450195,0.810547
1519648940247,-0.291260,0.438721,0.956055
1519648940255,-0.300781,0.654541,0.865479
1519648940283,-0.284424,0.338867,0.850830
1519648940341,-0.279297,0.375488,0.741455
1519648940373,-0.330322,0.440674,0.730713
1519648940406,-0.375977,0.595459,0.854004
1519648940420,-0.396973,0.601563,0.855469
1519648940478,-0.464111,0.581787,0.898438
1519648940486,-0.435303,0.492432,0.711182
1519648940540,-0.380859,0.480469,0.756348
1519648940572,-0.305664,0.509033,0.787354
1519648940604,-0.243164,0.380371,0.750000
1519648940609,-0.255615,0.698486,0.948975
1519648940641,-0.175049,0.337158,1.009277
1519648940675,-0.238770,0.428711,0.821045
1519648940708,-0.240234,0.503174,0.851807
1519648940740,-0.293213,0.501709,0.807861
1519648940772,-0.269531,0.454102,0.817383
1519648940804,-0.301514,0.402832,0.955322
1519648940845,-0.351807,0.320557,0.927002
1519648940878,-0.349365,0.323486,0.898926
1519648940910,-0.359131,0.408447,0.902588
1519648940941,-0.333984,0.422607,0.928223
1519648940974,-0.301025,0.414551,0.900146
1519648941007,-0.260742,0.517822,0.811523
1519648941040,-0.162354,0.441895,0.816650
1519648941072,-0.363281,0.730469,0.667725
1519648941105,-0.301025,0.481934,0.921387
1519648941138,-0.349609,0.501465,0.962158
1519648941171,-0.369141,0.462646,0.808594
1519648941207,-0.314209,0.462646,0.767578
1519648941222,-0.275391,0.307373,0.813721
1519648941253,-0.289551,0.407959,0.842773
1519648941285,-0.311523,0.469482,0.892822
1519648941318,-0.370850,0.461182,0.926514
1519648941350,-0.476563,0.397461,0.906982
1519648941382,-0.479980,0.491455,0.766846
1519648941415,-0.464111,0.575684,0.780029
1519648941473,-0.410889,0.485596,0.872803
1519648941482,-0.404541,0.429199,0.768311
1519648941526,-0.376221,0.461182,0.812744
1519648941560,-0.320801,0.534668,0.916260
1519648941590,-0.258789,0.437256,0.863770
1519648941597,-0.214600,0.484619,1.040039
1519648941655,-0.228027,0.472656,0.862793
1519648941688,-0.179688,0.305908,0.699951
1519648941697,-0.155273,0.457764,0.792725
1519648941751,-0.194092,0.402100,0.726318
1519648941786,-0.252686,0.473389,0.882813
1519648941798,-0.297607,0.494629,0.904785
1519648941830,-0.375977,0.418457,0.841309
1519648941888,-0.363037,0.516357,0.878906
1519648941897,-0.362061,0.546387,0.867676
1519648941965,-0.372559,0.470459,0.813965
1519648941968,-0.356934,0.573242,0.952881
1519648942033,-0.380127,0.465820,0.849121
1519648942095,-0.301270,0.443115,0.879395
1519648942101,-0.353027,0.575684,0.984131
1519648942106,-0.375000,0.442871,0.799316
1519648942130,-0.331787,0.461670,0.744873
1519648942163,-0.256348,0.634277,0.768799
1519648942196,-0.183838,0.502441,0.872070
1519648942256,-0.282715,0.484863,0.795166
1519648942264,-0.248779,0.515381,0.785400
1519648942286,-0.273682,0.529785,0.699219
1519648942345,-0.314941,0.631104,0.770020
1519648942353,-0.352539,0.604980,0.871338
1519648942378,-0.382324,0.527588,0.960938
1519648942436,-0.428223,0.552246,0.982666
1519648942448,-0.430664,0.552490,0.811035
1519648942482,-0.391602,0.550537,0.739990
1519648942514,-0.326416,0.454834,0.767090
1519648942547,-0.291016,0.534912,0.794434
1519648942583,-0.240234,0.574707,0.812012
1519648942615,-0.115234,0.520996,0.816650
1519648942648,-0.173096,0.462158,0.789551
1519648942683,-0.257813,0.499756,0.812988
1519648942715,-0.309814,0.411133,0.772217
1519648942745,-0.539551,0.538574,0.844482
1519648942779,-0.612061,0.385986,0.888672
1519648942810,-0.490723,0.568359,0.971191
1519648942834,-0.485107,0.433594,0.808350
1519648942867,-0.398193,0.535156,0.804443
1519648942928,-0.330566,0.434570,0.786621
1519648942934,-0.245361,0.442627,0.800537
1519648942959,-0.161377,0.396484,0.894531
1519648942991,-0.150391,0.376953,1.084473
1519648943050,-0.214844,0.427979,0.916260
1519648943081,-0.193115,0.361572,0.734619
1519648943089,-0.184082,0.502197,0.973389
1519648943148,-0.280029,0.415771,0.971191
1519648943183,-0.272705,0.357422,0.999756
1519648943214,-0.227051,0.451660,0.782959
1519648943245,-0.198242,0.465576,0.573486
1519648943251,-0.156494,0.714355,0.644043
1519648943305,-0.265137,0.564209,0.788818
