1519648617553,-0.569580,0.596680,0.789063
1519648617586,-0.580078,0.766846,0.811279
1519648617622,-0.532471,0.805176,0.694336
1519648617653,-0.447266,0.855957,0.783447
1519648617689,-0.435791,0.641602,0.792725
1519648617692,-0.381592,0.859863,0.679199
1519648617748,-0.204834,0.657227,0.708008
1519648617781,-0.028320,0.823486,0.641357
1519648617784,-0.083496,1.153076,0.760010
1519648617840,-0.143799,0.680664,0.583008
1519648617872,-0.301758,0.923828,0.719482
1519648617905,-0.097412,0.921387,0.564941
1519648617937,0.031982,0.866943,0.414795
1519648617969,0.114014,0.709961,0.568359
1519648618003,0.019043,0.707764,0.665527
1519648618035,-0.061279,0.701904,0.643799
1519648618093,-0.076416,0.752197,0.568604
1519648618096,0.003662,0.756348,0.603516
1519648618158,-0.006592,0.742188,0.544434
1519648618166,-0.035645,0.898682,0.566895
1519648618218,-0.170898,0.862305,0.580811
1519648618224,-0.239014,0.939941,0.649902
1519648618278,-0.274170,0.933350,0.718018
1519648618284,-0.232666,0.875488,0.841797
1519648618346,-0.182617,0.627441,0.757324
1519648618351,-0.092041,0.602783,0.730225
1519648618407,-0.053711,0.575439,0.740234
1519648618416,0.030273,0.562744,0.737061
1519648618472,0.023438,0.565186,0.759033
1519648618477,-0.086182,0.640625,0.781494
1519648618532,-0.244873,0.585449,0.919189
1519648618538,-0.339111,0.589844,0.974609
1519648618594,-0.370117,0.551270,0.898193
1519648618602,-0.256836,0.535645,0.864014
1519648618645,-0.203369,0.505371,0.862549
1519648618678,-0.031250,0.796875,0.762695
1519648618712,-0.083252,0.671143,0.727783
1519648618744,-0.119385,0.509033,0.609375
1519648618777,-0.085693,0.499268,0.541016
1519648618810,-0.153320,0.696289,0.957275
1519648618843,-0.239258,0.565430,0.830078
1519648618851,-0.269531,0.567383,0.741699
1519648618907,-0.273438,0.673828,0.770752
1519648618920,-0.255859,0.658691,0.795166
1519648618971,-0.244629,0.645020,0.791504
1519648619008,-0.231689,0.641113,0.841553
1519648619036,-0.235107,0.581787,0.838867
1519648619069,-0.229248,0.593018,0.819092
1519648619102,-0.219482,0.614258,0.770264
1519648619134,-0.188232,0.623047,0.795898
1519648619167,-0.187500,0.642822,0.771973
1519648619200,-0.185059,0.645752,0.807861
1519648619232,-0.204590,0.692139,0.817139
1519648619240,-0.270264,0.658936,0.826416
1519648619290,-0.283203,0.551758,0.811279
1519648619322,-0.245361,0.579590,0.818848
1519648619335,-0.266602,0.579346,0.736816
1519648619398,-0.239990,0.632568,0.689941
1519648619407,-0.246826,0.628174,0.683105
1519648619432,-0.229980,0.627441,0.721436
1519648619464,-0.176270,0.607666,0.800537
1519648619521,-0.154053,0.626465,0.816650
1519648619554,-0.200684,0.627441,0.755615
1519648619563,-0.163086,0.543945,0.891113
1519648619618,-0.217285,0.636475,0.820801
1519648619649,-0.225342,0.680420,0.809814
1519648619683,-0.253662,0.716309,0.772705
1519648619714,-0.274902,0.629395,0.743408
1519648619720,-0.284424,0.613037,0.743652
1519648619773,-0.306885,0.584473,0.760986
1519648619806,-0.293457,0.622803,0.770264
1519648619812,-0.254150,0.667236,0.784668
1519648619871,-0.240723,0.632324,0.770752
1519648619880,-0.243896,0.665283,0.756836
1519648619935,-0.239258,0.667480,0.782227
1519648619968,-0.252197,0.610107,0.737305
1519648620001,-0.230225,0.621582,0.704834
1519648620032,-0.211426,0.701416,0.850830
1519648620063,-0.234131,0.620605,0.813232
1519648620096,-0.184570,0.564697,0.846680
1519648620128,-0.127930,0.367676,0.680420
1519648620142,-0.164307,0.854736,0.645020
1519648620176,-0.324951,0.759033,0.669434
1519648620208,-0.338867,0.749023,1.030273
1519648620250,-0.409668,0.639404,0.792236
1519648620282,-0.350830,0.622314,0.585938
1519648620315,-0.264893,0.609375,0.829102
1519648620351,-0.232422,0.549805,0.715332
1519648620384,-0.145508,0.572754,0.814453
1519648620392,-0.070801,0.571777,0.897217
1519648620448,-0.116699,0.535645,0.781250
1519648620481,-0.147461,0.610107,0.536865
1519648620513,-0.096436,0.576660,1.027100
1519648620546,-0.243896,0.400146,0.638184
1519648620558,-0.198975,0.758301,0.776367
1519648620632,-0.179932,0.601318,0.857178
1519648620644,-0.267334,0.644043,0.762695
1519648620698,-0.274658,0.550781,0.802979
1519648620703,-0.301025,0.631104,0.875732
1519648620738,-0.242432,0.614990,0.784912
1519648620771,-0.222168,0.606201,0.794189
1519648620803,-0.197510,0.765381,0.677979
1519648620836,-0.172607,0.784668,0.733398
1519648620869,-0.237793,0.652344,0.915771
1519648620878,-0.271484,0.610596,0.842041
1519648620933,-0.269531,0.660156,0.661133
1519648620965,-0.268066,0.713867,0.748047
1519648620974,-0.219727,0.717285,0.903076
1519648621030,-0.245361,0.577637,0.715332
1519648621062,-0.180664,0.585938,0.735352
1519648621094,-0.183105,0.621094,0.808594
1519648621127,-0.100586,0.501221,0.919189
1519648621167,-0.137451,0.446289,0.883789
1519648621191,-0.169189,0.477295,0.718994
1519648621224,-0.144775,0.631104,0.820313
1519648621258,-0.212402,0.718506,0.841553
1519648621290,-0.222656,0.630615,0.794189
1519648621329,-0.165527,0.632813,0.798096
1519648621335,-0.181152,0.583740,0.880127
1519648621394,-0.227295,0.644287,0.870117
1519648621427,-0.229492,0.590332,0.906494
1519648621460,-0.140137,0.551514,0.866943
1519648621468,-0.152100,0.503418,0.862061
1519648621531,-0.229004,0.595947,0.749756
1519648621536,-0.213379,0.591797,0.836426
1519648621565,-0.258301,0.613770,0.760742
1519648621622,-0.205322,0.424316,0.969482
1519648621632,-0.172119,0.532471,0.685547
1519648621655,-0.086914,0.382324,0.589600
1519648621689,-0.082275,0.866211,0.594238
1519648621746,-0.168701,0.678955,0.777100
1519648621751,-0.171387,0.587891,0.970947
1519648621792,-0.209961,0.670166,0.951416
1519648621824,-0.266113,0.612061,0.686279
1519648621857,-0.181152,0.614746,0.812012
1519648621890,-0.209961,0.716064,0.930176
1519648621923,-0.216797,0.601807,0.817627
1519648621955,-0.161133,0.593262,0.765625
1519648621988,-0.161865,0.556641,0.783447
1519648622021,-0.198730,0.679688,0.745605
1519648622053,-0.224121,0.651611,0.760010
1519648622086,-0.207764,0.581787,0.780762
1519648622119,-0.208496,0.591553,0.760010
1519648622151,-0.199707,0.583252,0.786133
1519648622169,-0.171387,0.605713,0.836426
1519648622226,-0.184326,0.631836,0.816406
1519648622259,-0.181396,0.675049,0.860596
1519648622275,-0.253174,0.627930,0.777344
1519648622329,-0.258301,0.801270,0.682861
1519648622334,-0.282471,0.642090,0.910645
1519648622389,-0.262695,0.541748,0.818848
1519648622421,-0.224854,0.572266,0.827393
1519648622454,-0.177490,0.573486,0.774658
1519648622487,-0.141602,0.582520,0.738281
1519648622496,-0.138672,0.577881,0.750488
1519648622518,-0.140869,0.582031,0.829102
1519648622587,-0.165283,0.597900,0.848389
1519648622596,-0.198730,0.586182,0.810303
1519648622621,-0.226807,0.586670,0.781494
1519648622653,-0.252930,0.606934,0.811523
1519648622686,-0.247314,0.591553,0.811035
1519648622717,-0.226318,0.626953,0.838379
1519648622751,-0.195313,0.592041,0.817383
1519648622783,-0.184326,0.567139,0.808105
1519648622839,-0.188232,0.577637,0.792236
1519648622872,-0.194824,0.632813,0.831543
1519648622905,-0.190186,0.650635,0.856934
1519648622914,-0.203613,0.561279,0.838623
1519648622964,-0.095947,0.548340,0.945313
1519648623006,-0.138916,0.477783,0.851807
1519648623014,-0.118896,0.509521,0.794678
1519648623064,-0.062012,0.490723,0.716309
1519648623073,-0.122803,0.435791,0.678223
1519648623123,-0.149902,0.591309,0.744385
1519648623158,-0.168457,0.678467,0.903564
1519648623186,-0.221436,0.545166,0.917969
1519648623218,-0.295654,0.681641,0.796875
1519648623257,-0.249756,0.615234,1.002197
1519648623266,-0.207764,0.592773,0.863525
1519648623321,-0.100098,0.561279,0.934570
1519648623327,-0.040527,0.367432,0.874512
1519648623385,-0.087158,0.379395,0.538330
1519648623402,-0.034424,0.611084,0.563965
1519648623432,-0.075195,0.606689,0.843994
1519648623465,-0.127930,0.653809,0.891113
1519648623497,-0.147217,0.578613,0.957764
1519648623530,-0.184082,0.566162,0.984375
1519648623563,-0.222900,0.591309,0.938232
1519648623595,-0.333252,0.542480,0.934814
1519648623652,-0.252197,0.582275,0.987793
1519648623657,-0.205811,0.696533,0.936279
1519648623686,-0.129150,0.527344,0.824463
1519648623755,-0.023438,0.459473,0.868652
1519648623759,0.066650,0.425537,0.822021
1519648623823,0.151611,0.366699,0.880371
1519648623859,-0.003174,0.356689,0.684326
1519648623865,0.073242,0.327148,0.690430
1519648623895,0.015869,0.762939,0.957275
1519648623926,-0.177246,0.671143,1.143799
1519648623961,-0.225586,0.547607,0.891357
1519648623997,-0.184570,0.462891,0.747559
1519648624029,-0.033936,0.461182,0.822266
1519648624062,-0.004150,0.639648,0.878174
1519648624070,-0.061035,0.628418,0.816650
1519648624119,-0.140625,0.483887,0.801514
1519648624152,-0.165527,0.623535,0.797363
1519648624170,-0.256836,0.688721,0.761719
1519648624226,-0.251709,0.562500,0.797119
1519648624228,-0.276611,0.621582,0.829834
1519648624273,-0.258789,0.560791,0.862061
1519648624306,-0.198486,0.486572,0.851563
1519648624338,-0.149658,0.539551,0.893555
1519648624371,-0.157715,0.675049,0.822266
1519648624404,-0.178955,0.634033,0.809570
1519648624437,-0.201660,0.637207,0.791992
1519648624470,-0.191895,0.540527,0.708984
1519648624502,-0.145020,0.547607,0.689209
1519648624535,-0.120117,0.509277,0.834717
1519648624567,-0.101807,0.604736,0.929932
1519648624600,-0.093506,0.545654,0.927002
1519648624633,-0.120361,0.628174,0.866455
1519648624647,-0.122803,0.583496,0.748291
1519648624703,-0.091553,0.768066,1.062500
1519648624711,-0.279785,0.650146,0.780273
1519648624739,-0.289551,0.478516,0.783691
1519648624796,-0.315186,0.656982,0.785645
1519648624829,-0.204834,0.558350,0.733643
1519648624862,-0.173096,0.616211,0.800049
1519648624898,-0.096924,0.691895,0.779053
1519648624929,-0.048584,0.323730,0.739502
1519648624961,-0.062012,0.786377,0.934570
1519648624994,-0.091797,0.594238,0.654053
1519648625035,-0.198975,0.683105,0.698730
1519648625058,-0.219238,0.572754,0.791992
1519648625089,-0.240723,0.719238,0.835205
1519648625123,-0.190186,0.578125,0.707031
1519648625155,-0.174805,0.499512,0.760498
1519648625190,-0.125244,0.612793,0.877197
1519648625226,-0.129639,0.689941,0.836914
1519648625229,-0.129150,0.610352,0.845459
1519648625281,-0.197021,0.607910,0.846924
1519648625344,-0.212891,0.616943,0.835693
1519648625347,-0.195801,0.623535,0.849365
1519648625370,-0.201660,0.568359,0.756836
1519648625422,-0.189941,0.603760,0.817627
1519648625427,-0.191406,0.583496,0.822998
1519648625487,-0.202148,0.601563,0.817383
1519648625496,-0.189209,0.586182,0.827881
1519648625524,-0.174072,0.623291,0.865234
1519648625556,-0.188477,0.586426,0.795410
1519648625589,-0.096436,0.666504,0.895264
1519648625646,-0.136475,0.545654,0.744873
1519648625680,-0.139648,0.367676,0.688477
1519648625687,-0.110840,0.534424,0.718018
1519648625711,-0.145508,0.752197,0.770508
1519648625769,-0.210693,0.796143,0.959229
1519648625776,-0.306152,0.570557,0.735352
1519648625802,-0.247803,0.555908,0.654297
1519648625847,-0.171143,0.677246,0.955811
1519648625879,-0.230713,0.548584,0.876221
1519648625912,-0.238770,0.622559,0.787354
1519648625946,-0.225342,0.563965,0.695068
1519648625979,-0.202881,0.634766,0.746338
1519648626011,-0.179199,0.565918,0.766846
1519648626044,-0.146729,0.626709,0.864014
1519648626077,-0.145996,0.622559,0.810059
1519648626108,-0.155762,0.638916,0.761230
1519648626146,-0.145020,0.625000,0.801025
1519648626178,-0.148438,0.620361,0.819824
1519648626191,-0.152100,0.621826,0.813477
1519648626241,-0.174805,0.617188,0.796875
1519648626254,-0.167480,0.661621,0.823242
1519648626287,-0.165039,0.649902,0.813965
1519648626348,-0.142578,0.629395,0.786865
1519648626354,-0.139893,0.669922,0.794189
1519648626407,-0.154541,0.663086,0.785645
1519648626440,-0.153564,0.636230,0.770752
1519648626473,-0.155273,0.642090,0.756348
1519648626506,-0.150879,0.661621,0.765381
1519648626539,-0.168701,0.651855,0.768066
1519648626550,-0.178467,0.667236,0.779541
1519648626608,-0.174805,0.682373,0.819092
1519648626651,-0.166992,0.659668,0.813477
1519648626656,-0.246338,0.704102,0.755127
1519648626670,-0.197266,0.737061,0.853516
1519648626727,-0.242432,0.762451,0.800293
1519648626762,-0.274658,0.663818,0.753662
1519648626772,-0.290283,0.547119,0.695313
1519648626864,-0.233154,0.541748,0.697021
1519648626868,-0.140869,0.549072,0.749756
1519648626932,-0.106201,0.560547,0.798584
1519648626935,-0.125977,0.511963,0.782471
1519648626977,-0.123291,0.527344,0.793945
1519648626980,-0.190918,0.553955,0.750000
1519648627011,-0.245117,0.635254,0.756836
1519648627044,-0.265137,0.645020,0.772705
1519648627077,-0.258301,0.630859,0.801758
1519648627114,-0.248779,0.641357,0.818115
1519648627145,-0.246094,0.630859,0.823975
1519648627182,-0.229492,0.632813,0.839355
1519648627211,-0.251953,0.614502,0.818115
1519648627243,-0.210449,0.608398,0.831787
1519648627249,-0.222412,0.570068,0.796143
1519648627307,-0.241455,0.595459,0.726563
1519648627364,-0.251465,0.622070,0.851074
1519648627366,-0.274658,0.656250,0.688232
1519648627427,-0.130127,0.678955,0.972900
1519648627435,-0.198242,0.637451,0.851563
1519648627487,-0.148682,0.486572,0.690674
1519648627495,-0.023926,0.550537,1.020020
1519648627512,-0.092041,0.530762,0.860107
1519648627568,-0.113770,0.463867,0.794189
1519648627601,-0.147217,0.540771,0.874756
1519648627634,-0.169189,0.577637,0.848633
1519648627666,-0.201904,0.731934,0.836670
1519648627697,-0.222900,0.311035,0.764404
1519648627729,-0.143311,0.495605,0.635010
1519648627762,-0.124756,0.612793,0.855957
1519648627793,-0.145752,0.848389,0.748779
1519648627826,-0.159912,0.603027,0.874756
1519648627828,-0.257568,0.835693,0.796875
1519648627885,-0.227051,0.469238,0.721191
1519648627902,-0.094971,0.658691,1.022461
1519648627931,-0.195068,0.550049,0.743896
1519648627992,-0.122070,0.692871,0.791016
1519648627997,-0.157715,0.660889,0.796143
1519648628052,-0.172363,0.652832,0.805664
1519648628063,-0.173828,0.582275,0.812500
1519648628115,-0.160645,0.605957,0.834229
1519648628172,-0.141357,0.630615,0.832520
1519648628178,-0.131592,0.601807,0.838867
1519648628231,-0.133789,0.598145,0.814941
1519648628239,-0.104492,0.572021,0.818604
1519648628272,-0.089355,0.583984,0.815674
1519648628304,-0.075684,0.596680,0.843018
1519648628345,-0.097656,0.572998,0.829590
1519648628378,-0.134521,0.622559,0.767090
1519648628411,-0.149170,0.618652,0.768311
1519648628420,-0.169434,0.623535,0.793457
1519648628470,-0.154053,0.649414,0.803223
1519648628503,-0.135498,0.639404,0.793701
1519648628511,-0.117676,0.621094,0.823975
1519648628564,-0.120850,0.633301,0.823975
1519648628599,-0.129395,0.620117,0.795410
1519648628631,-0.119385,0.641357,0.800537
1519648628664,-0.120850,0.657471,0.825439
1519648628696,-0.142334,0.742432,0.832031
1519648628727,-0.223389,0.625488,0.798096
1519648628741,-0.307617,0.654053,0.742432
1519648628828,-0.240967,0.650879,0.736084
1519648628834,-0.202637,0.665039,0.867432
1519648628891,-0.160156,0.657715,0.849854
1519648628897,-0.150635,0.609131,0.837891
1519648628902,-0.134033,0.548584,0.805908
1519648628954,-0.081055,0.466553,0.766357
1519648628962,-0.020264,0.451416,0.793213
1519648629017,-0.059082,0.552246,0.768311
1519648629027,-0.067871,0.541260,0.794434
1519648629081,-0.137207,0.575195,0.833252
1519648629115,-0.216553,0.649414,0.842041
1519648629146,-0.246582,0.656494,0.816895
1519648629176,-0.237793,0.632324,0.847900
1519648629211,-0.204102,0.631104,0.794434
1519648629245,-0.130615,0.549561,0.857178
1519648629277,-0.152832,0.552246,0.812012
1519648629286,-0.137451,0.610352,0.863037
1519648629335,-0.141113,0.575439,0.845703
1519648629366,-0.075684,0.615479,0.901855
1519648629371,-0.114502,0.632080,0.842041
1519648629429,-0.126465,0.530029,0.754150
1519648629463,-0.108643,0.563965,0.792969
1519648629496,-0.137207,0.607666,0.841797
1519648629546,-0.168701,0.605469,0.825928
1519648629551,-0.130127,0.610596,0.853271
1519648629606,-0.113281,0.615723,0.928711
1519648629615,-0.097900,0.709717,0.837158
1519648629665,-0.108154,0.508545,0.910645
1519648629715,-0.191895,0.266846,0.663330
1519648629724,-0.252441,0.812012,0.615967
1519648629748,-0.158936,0.815674,0.902832
1519648629781,-0.292480,0.636719,0.898682
1519648629815,-0.307373,0.602051,0.811279
1519648629846,-0.229248,0.604004,0.752441
1519648629878,-0.144775,0.608887,0.807373
1519648629911,-0.096436,0.551025,0.771973
1519648629983,-0.028320,0.652588,0.948486
1519648629988,-0.158936,0.562500,0.962891
1519648630051,-0.208496,0.356934,0.663086
1519648630055,-0.110596,0.511475,0.849121
1519648630097,-0.114746,0.482422,0.768799
1519648630099,0.024414,0.596191,0.790771
1519648630131,-0.043457,0.457520,0.976807
1519648630164,-0.048584,0.539795,0.707031
1519648630196,-0.024658,0.721924,0.807617
1519648630228,-0.117676,0.477783,1.098389
1519648630261,-0.186768,0.644775,0.971436
1519648630294,-0.186768,0.508789,0.832275
1519648630325,-0.203369,0.578125,0.823730
1519648630358,-0.265137,0.572754,0.775635
1519648630393,-0.234131,0.615723,0.758789
1519648630434,-0.194824,0.561279,0.926270
1519648630440,-0.209717,0.555908,0.891113
1519648630491,-0.189209,0.406250,0.852295
1519648630525,-0.179199,0.649902,0.919922
1519648630556,-0.208496,0.394775,1.045166
1519648630590,-0.175781,0.358643,1.020264
1519648630620,-0.127930,0.491455,0.815674
1519648630653,-0.024902,0.504395,0.853760
1519648630687,-0.053955,0.492432,0.801514
1519648630717,-0.059814,0.443604,0.662354
1519648630750,0.018066,0.674316,0.649170
1519648630784,0.005127,0.424805,0.974609
1519648630815,-0.128906,0.578369,0.928467
1519648630848,-0.165039,0.414063,1.055176
1519648630881,-0.257324,0.570068,0.931396
1519648630914,-0.237549,0.488770,0.859863
1519648630947,-0.155762,0.501465,0.921875
1519648630985,-0.136719,0.615234,0.962891
1519648631017,-0.179688,0.553955,0.862793
1519648631025,-0.144287,0.486084,0.734131
1519648631083,-0.082764,0.541748,0.757813
1519648631108,-0.107910,0.508057,0.872559
1519648631116,-0.112549,0.657227,0.830078
1519648631180,-0.177002,0.584473,0.954834
1519648631205,-0.249512,0.670654,0.956055
1519648631217,-0.362793,0.601807,0.813965
1519648631276,-0.275391,0.607910,0.754639
1519648631307,-0.125000,0.516357,0.712158
1519648631316,0.048584,0.456543,0.839844
1519648631371,0.001221,0.517090,0.991455
1519648631431,-0.124512,0.485352,0.955566
1519648631439,-0.154541,0.440918,0.699463
1519648631491,-0.084473,0.343750,0.854492
1519648631498,-0.115967,0.614746,0.908691
1519648631527,-0.237549,0.536377,0.761963
1519648631560,-0.230957,0.540527,0.854736
1519648631593,-0.226563,0.520020,0.898926
1519648631607,-0.138184,0.343262,0.844727
1519648631666,-0.157959,0.105225,0.611572
1519648631674,-0.162354,0.477295,0.789307
1519648631700,-0.166992,0.547852,0.796631
1519648631731,-0.280029,0.729736,0.966553
1519648631771,-0.251709,0.581299,0.676025
1519648631804,-0.129150,0.483887,1.073486
1519648631837,-0.238525,0.462402,0.788330
1519648631868,-0.123535,0.415771,0.824707
1519648631901,-0.099854,0.892578,0.837646
1519648631939,-0.186768,0.475342,0.907227
1519648631971,-0.161621,0.420654,0.701172
1519648632003,-0.077881,0.505127,0.683838
1519648632045,-0.065674,0.545898,0.883545
1519648632054,-0.125488,0.534180,0.937500
1519648632102,-0.115967,0.577881,1.097412
1519648632136,-0.131836,0.499512,0.921875
1519648632169,-0.114502,0.468262,0.812500
1519648632200,-0.103760,0.518555,0.826172
1519648632232,-0.125977,0.543457,0.913086
1519648632264,-0.239746,0.505615,0.853760
1519648632297,-0.250488,0.644775,0.824219
1519648632330,-0.233887,0.562012,0.745850
1519648632362,-0.147705,0.594482,0.765381
1519648632396,-0.054688,0.497314,0.847656
1519648632429,-0.043701,0.483154,0.884521
1519648632462,-0.047119,0.497070,0.919189
1519648632470,-0.063477,0.476563,0.945801
1519648632519,-0.098389,0.494141,1.015137
1519648632552,-0.141357,0.390625,0.892822
1519648632586,-0.121094,0.545166,0.804443
1519648632619,-0.226563,0.586914,0.822266
1519648632649,-0.267822,0.604004,0.818604
1519648632682,-0.301025,0.613770,0.821045
1519648632715,-0.271729,0.704590,0.798584
1519648632747,-0.215576,0.498535,0.731445
1519648632779,-0.119873,0.441162,0.848633
1519648632812,0.034424,0.502197,0.897705
1519648632827,-0.100586,0.477295,1.031494
1519648632884,-0.096924,0.557373,0.969727
1519648632891,-0.194336,0.364990,0.897461
1519648632949,-0.164063,0.494873,0.814941
1519648632981,-0.198975,0.407227,0.855957
1519648633013,-0.145996,0.472900,0.900146
1519648633086,-0.121094,0.488037,0.851563
1519648633092,-0.133301,0.252441,0.866455
1519648633153,-0.132568,0.677734,0.796143
1519648633158,-0.220215,0.568115,0.726563
1519648633218,-0.199951,0.555908,0.875732
1519648633224,-0.277344,0.601563,1.005859
1519648633233,-0.254883,0.621582,0.801025
1519648633266,-0.200928,0.533203,0.746582
1519648633299,-0.166260,0.510742,0.830811
1519648633306,-0.197510,0.516846,0.859619
1519648633362,-0.164307,0.457031,0.833496
1519648633394,-0.156494,0.592041,0.847168
1519648633427,-0.196533,0.534424,0.859131
1519648633460,-0.240479,0.588135,0.880371
1519648633493,-0.252930,0.639404,0.891846
1519648633525,-0.306152,0.607666,0.907959
1519648633558,-0.344971,0.552002,0.923096
1519648633593,-0.333252,0.481689,0.802490
1519648633625,-0.249268,0.532471,0.839111
1519648633631,-0.265137,0.527588,0.738525
1519648633696,-0.089355,0.494141,0.875000
1519648633728,0.013916,0.493164,0.917725
1519648633734,0.069092,0.458008,0.992432
1519648633786,-0.038818,0.412354,0.965820
1519648633792,-0.048340,0.415527,0.796387
1519648633845,0.023438,0.446533,0.803223
1519648633880,-0.017578,0.384521,0.781006
1519648633885,-0.087158,0.461914,0.851074
1519648633943,-0.155273,0.420410,0.811523
1519648633976,-0.254639,0.464600,1.015381
1519648634008,-0.246826,0.589355,1.076416
1519648634041,-0.263184,0.427979,0.856934
1519648634057,-0.095703,0.597900,0.670898
1519648634086,-0.041748,0.577637,0.862061
1519648634144,-0.079102,0.446289,0.896240
1519648634185,-0.126465,0.622070,0.901611
1519648634209,-0.133301,0.405762,1.058594
1519648634214,-0.200928,0.580811,1.014648
1519648634268,-0.311768,0.502441,0.972412
1519648634274,-0.264648,0.464111,0.947510
1519648634306,-0.131836,0.444092,1.015381
1519648634361,-0.186768,0.743652,0.651367
1519648634393,0.033447,0.362305,0.899170
1519648634426,0.070801,0.464600,0.872803
1519648634459,0.106689,0.319336,0.947998
1519648634472,-0.028564,0.408691,0.947021
1519648634505,-0.044678,0.265625,0.652344
1519648634538,-0.006104,0.440918,0.811523
1519648634569,-0.070313,0.659912,0.929199
1519648634628,-0.136230,0.497070,0.910645
1519648634660,-0.130615,0.521729,0.988770
1519648634693,-0.165527,0.421387,0.814941
1519648634700,-0.051270,0.355225,0.787842
1519648634756,-0.011963,0.471436,0.950928
1519648634788,-0.058105,0.473877,0.956543
1519648634794,-0.093018,0.530029,0.908447
1519648634851,-0.107910,0.537842,0.859619
1519648634856,-0.125732,0.550537,0.855957
1519648634893,-0.165283,0.599365,0.778320
1519648634926,-0.138916,0.545410,0.839844
1519648634959,-0.136475,0.566162,0.883057
1519648634991,-0.130615,0.565186,0.904541
1519648635024,-0.124512,0.568604,0.887207
1519648635056,-0.119141,0.577393,0.847900
1519648635087,-0.118164,0.589355,0.840820
1519648635121,-0.123047,0.605225,0.832520
1519648635153,-0.110596,0.592529,0.800537
1519648635187,-0.113037,0.610352,0.781494
1519648635217,-0.110107,0.626953,0.779297
1519648635250,-0.114502,0.631592,0.793701
1519648635283,-0.132324,0.631104,0.810059
1519648635324,-0.155273,0.602051,0.837891
1519648635335,-0.158203,0.586182,0.842529
1519648635367,-0.139893,0.624023,0.838135
1519648635425,-0.130371,0.640625,0.769287
1519648635459,-0.119385,0.647461,0.840332
1519648635490,-0.174561,0.704590,0.785645
1519648635499,-0.121094,0.656494,0.855469
1519648635554,-0.158447,0.617676,0.719482
1519648635587,-0.114258,0.524658,0.810791
1519648635612,-0.141113,0.727783,0.910156
1519648635643,-0.199951,0.572021,0.781006
1519648635651,-0.170410,0.600098,0.765869
1519648635707,-0.165771,0.535156,0.802979
1519648635740,-0.144043,0.594971,0.846436
1519648635747,-0.155029,0.636719,0.860596
1519648635810,-0.114502,0.450195,0.881836
1519648635819,-0.118408,0.501465,0.821045
1519648635873,-0.150635,0.600830,0.750488
1519648635906,-0.104736,0.495361,0.787842
1519648635912,-0.085205,0.562500,0.800049
1519648635970,-0.117920,0.541504,0.765137
1519648636004,-0.169189,0.636475,0.767578
1519648636036,-0.164063,0.677734,0.831787
1519648636068,-0.193359,0.621582,0.861816
1519648636101,-0.219727,0.673096,0.865723
1519648636114,-0.180908,0.586182,0.852783
1519648636146,-0.186035,0.636475,0.836914
1519648636221,-0.178467,0.607910,0.803223
1519648636224,-0.143799,0.596191,0.826660
1519648636286,-0.128662,0.583252,0.821045
1519648636291,-0.117920,0.611084,0.864990
1519648636339,-0.136963,0.606934,0.883301
1519648636347,-0.171143,0.594482,0.770264
1519648636397,-0.161377,0.615234,0.766602
1519648636403,-0.087402,0.546387,0.819092
1519648636431,-0.078125,0.572510,0.796631
1519648636490,-0.053223,0.636963,0.778076
1519648636499,-0.076660,0.582764,0.861328
1519648636536,-0.114746,0.566406,0.884766
1519648636568,-0.156738,0.624023,0.911133
1519648636601,-0.175293,0.510498,0.755371
1519648636632,-0.129639,0.535645,0.717041
1519648636665,-0.098389,0.600830,0.904297
1519648636698,-0.145996,0.641357,0.830322
1519648636729,-0.161621,0.552979,0.797607
1519648636768,-0.145508,0.598389,0.802979
1519648636798,-0.112549,0.596436,0.811768
1519648636832,-0.094482,0.545410,0.818359
1519648636864,-0.071777,0.571533,0.847900
1519648636892,-0.082764,0.586670,0.843018
1519648636926,-0.120605,0.590332,0.834961
1519648636970,-0.119141,0.588623,0.812256
1519648637026,-0.119141,0.591553,0.831299
1519648637031,-0.136963,0.591797,0.833008
1519648637093,-0.111572,0.590332,0.823486
1519648637099,-0.094727,0.678223,0.976318
1519648637153,-0.165039,0.705566,0.846191
1519648637166,-0.212402,0.580566,0.754883
1519648637186,-0.310059,0.616699,0.729980
1519648637217,-0.333496,0.559082,0.821533
1519648637250,-0.219238,0.687500,0.858154
1519648637284,-0.151855,0.557861,0.856934
1519648637316,-0.127441,0.531738,0.886475
1519648637357,-0.095947,0.446533,0.824219
1519648637389,-0.026123,0.530518,0.871094
1519648637394,0.111328,0.516113,0.942139
1519648637449,-0.011719,0.516113,0.837402
1519648637482,0.044189,0.465088,0.512695
1519648637514,0.096680,0.490234,0.785889
1519648637547,-0.128662,0.572021,0.910645
1519648637579,-0.279541,0.479004,0.837891
1519648637611,-0.278076,0.638428,0.824951
1519648637644,-0.382080,0.856689,0.857910
1519648637677,-0.429443,0.608643,0.824463
1519648637708,-0.357910,0.328369,0.745361
1519648637722,-0.294922,0.515381,0.755859
1519648637780,-0.189697,0.450195,0.881836
1519648637812,-0.130371,0.555664,0.837158
1519648637844,-0.103516,0.559326,0.896484
1519648637904,-0.113770,0.619141,0.820801
1519648637906,-0.085449,0.610840,0.893555
1519648637970,-0.145996,0.593994,0.844971
1519648637979,-0.193359,0.656006,0.877441
1519648637990,-0.220703,0.583984,0.845459
1519648638024,-0.148438,0.423340,1.009033
1519648638083,-0.146729,0.532959,1.019043
1519648638089,-0.071533,0.485352,0.813232
1519648638144,0.000977,0.281738,0.458496
1519648638152,0.052979,0.460205,0.678467
1519648638222,-0.025146,0.654297,0.942139
1519648638227,-0.059082,0.507324,0.987793
1519648638257,-0.145508,0.556152,0.949951
1519648638289,-0.159424,0.568359,0.786621
1519648638321,-0.217773,0.381104,0.871582
1519648638353,-0.155762,0.558105,0.938477
1519648638386,-0.212646,0.512207,0.780029
1519648638418,-0.188965,0.641113,0.825684
1519648638451,-0.209473,0.688232,0.820313
1519648638460,-0.146973,0.651123,0.898193
1519648638514,-0.152100,0.503906,0.794678
1519648638522,-0.085693,0.478027,0.835449
1519648638577,-0.112793,0.586670,0.764893
1519648638591,-0.062012,0.597656,0.920898
1519648638624,-0.130371,0.531982,0.861816
1519648638656,-0.122070,0.588867,0.849609
1519648638692,-0.146729,0.632813,0.902100
1519648638726,-0.172119,0.600342,0.870850
1519648638757,-0.172119,0.499268,0.786133
1519648638790,-0.167480,0.457764,0.704102
1519648638825,-0.114990,0.543457,0.805176
1519648638855,-0.083984,0.663330,0.851807
1519648638887,-0.105469,0.590332,0.876709
1519648638923,-0.102539,0.558838,0.868408
1519648638952,-0.116211,0.544678,0.855225
1519648638992,-0.145020,0.548340,0.842285
1519648639048,-0.164063,0.542480,0.778809
1519648639054,-0.126953,0.602295,0.814697
1519648639111,-0.135254,0.645020,0.908447
1519648639116,-0.141357,0.586426,0.817139
1519648639170,-0.120605,0.549316,0.868164
1519648639175,-0.116211,0.583496,0.801270
1519648639235,-0.126709,0.565430,0.782715
1519648639241,-0.113037,0.544922,0.965576
1519648639309,-0.191650,0.637939,0.779541
1519648639315,-0.100098,0.498779,1.048340
1519648639426,-0.165039,0.543945,0.854004
1519648639432,-0.153076,0.471680,0.944580
1519648639544,-0.186279,0.522461,0.912354
1519648639549,-0.200195,0.402588,0.683350
1519648639597,-0.129639,0.498535,0.957275
1519648639600,-0.165527,0.523193,0.822754
1519648639603,-0.091309,0.434326,0.880859
1519648639606,-0.170166,0.546143,0.941650
1519648639609,-0.199707,0.270996,0.708984
1519648639638,-0.116211,0.416992,0.783447
1519648639674,-0.151855,0.555908,0.827393
1519648639680,-0.136963,0.546143,0.840820
1519648639739,-0.142822,0.513672,0.854980
1519648639771,-0.175293,0.468506,0.880615
1519648639803,-0.169189,0.486328,0.915283
1519648639837,-0.161133,0.532227,0.950439
1519648639852,-0.169189,0.516357,0.957275
1519648639883,-0.168213,0.540771,1.049072
1519648639916,-0.206543,0.431885,0.957520
1519648639949,-0.206543,0.465332,0.924561
1519648640007,-0.231689,0.478760,0.700684
1519648640016,-0.216309,0.510010,0.808594
1519648640067,-0.193359,0.574463,0.986084
1519648640100,-0.200928,0.487549,0.853027
1519648640108,-0.117432,0.498047,0.892334
1519648640159,-0.053467,0.412598,1.009521
1519648640175,-0.119873,0.431885,0.863037
1519648640219,-0.091309,0.450195,0.633301
1519648640252,-0.008789,0.518066,1.046631
1519648640266,-0.167480,0.441650,0.891113
1519648640299,-0.184814,0.310303,0.960938
1519648640336,-0.230469,0.452637,0.869629
1519648640366,-0.154785,0.580322,0.845703
1519648640397,-0.161133,0.536865,0.865479
1519648640460,-0.169922,0.346924,0.769531
1519648640466,-0.212646,0.550537,0.804932
1519648640519,-0.215576,0.706787,0.900879
1519648640551,-0.228027,0.703369,1.001953
1519648640586,-0.264648,0.489258,0.720703
1519648640595,-0.210938,0.567139,0.769775
1519648640648,-0.162598,0.484863,0.861816
1519648640654,-0.133545,0.483643,0.860352
1519648640695,-0.080322,0.571045,0.887939
1519648640730,-0.117432,0.569580,0.870605
1519648640763,-0.141846,0.541992,0.907471
1519648640795,-0.163086,0.521729,0.937012
1519648640828,-0.160645,0.552490,0.944580
1519648640861,-0.180420,0.543945,0.954346
1519648640893,-0.184082,0.542969,0.902832
1519648640926,-0.161377,0.459229,0.779053
1519648640959,-0.121826,0.505127,0.782715
1519648640990,-0.084229,0.509766,0.822510
1519648641024,-0.130127,0.587158,0.841553
1519648641057,-0.179688,0.516357,0.775635
1519648641097,-0.163330,0.500732,0.917969
1519648641130,-0.189941,0.504883,0.854980
1519648641162,-0.091309,0.568604,0.975586
1519648641167,-0.064453,0.629395,1.124023
1519648641221,-0.244141,0.647217,0.800049
1519648641227,-0.145752,0.478760,0.624756
1519648641256,-0.120605,0.384766,0.905518
1519648641314,-0.212646,0.353027,0.727295
1519648641347,-0.196777,0.616943,0.877686
1519648641380,-0.250000,0.544922,0.825928
1519648641412,-0.183838,0.565430,0.635010
1519648641444,-0.172119,0.650635,0.750000
1519648641478,-0.177490,0.532959,0.772461
1519648641492,-0.193359,0.583252,0.791016
1519648641550,-0.197021,0.594238,0.787109
1519648641582,-0.185059,0.583496,0.812744
1519648641594,-0.166504,0.536865,0.840820
1519648641650,-0.141602,0.583008,0.881104
1519648641656,-0.144775,0.569824,0.902344
1519648641708,-0.152100,0.593506,0.851318
1519648641742,-0.166748,0.561035,0.894775
1519648641751,-0.177734,0.604248,0.881836
1519648641799,-0.180420,0.608154,0.829346
1519648641831,-0.162354,0.607910,0.815918
1519648641865,-0.152344,0.623047,0.793213
1519648641872,-0.139893,0.574463,0.807129
1519648641909,-0.137451,0.596436,0.811523
1519648641941,-0.130127,0.590820,0.821777
1519648641975,-0.122314,0.581787,0.826172
1519648642011,-0.125977,0.610107,0.844482
1519648642044,-0.145264,0.597412,0.822021
1519648642077,-0.139404,0.635742,0.815918
1519648642109,-0.150879,0.593018,0.810547
1519648642142,-0.178711,0.644775,0.855713
1519648642174,-0.211182,0.600342,0.854980
1519648642208,-0.228516,0.553467,0.796631
1519648642239,-0.203125,0.579834,0.772705
1519648642271,-0.149414,0.552002,0.812988
1519648642303,-0.111816,0.542725,0.723877
1519648642345,-0.057129,0.509277,1.035400
1519648642378,-0.121338,0.606689,0.802246
1519648642449,-0.133545,0.668701,0.925293
1519648642455,-0.198242,0.522705,0.818359
1519648642519,-0.111084,0.385986,0.687988
1519648642527,-0.104004,0.444824,0.700928
1519648642580,-0.105957,0.508545,0.832275
1519648642589,-0.113770,0.583252,0.862793
1519648642597,-0.129395,0.632080,0.856201
1519648642624,-0.175537,0.660400,0.843750
1519648642655,-0.215820,0.624268,0.867188
1519648642688,-0.220947,0.604248,0.863525
1519648642721,-0.221191,0.605469,0.812744
1519648642762,-0.149658,0.566406,0.822998
1519648642793,-0.116943,0.577637,0.837158
1519648642826,-0.107666,0.568359,0.841797
1519648642859,-0.121338,0.574707,0.842285
1519648642891,-0.134033,0.569336,0.833252
1519648642923,-0.136719,0.585693,0.847900
1519648642957,-0.129883,0.580811,0.841064
1519648642988,-0.135254,0.569824,0.799561
1519648643022,-0.103516,0.622314,0.800049
1519648643079,-0.127197,0.543701,0.853027
1519648643088,-0.156494,0.593506,0.818848
1519648643138,-0.142090,0.593506,0.809326
1519648643143,-0.139893,0.583008,0.840088
1519648643204,-0.142334,0.593994,0.851563
1519648643213,-0.143799,0.616455,0.826660
1519648643238,-0.151611,0.590088,0.814453
1519648643292,-0.172363,0.603760,0.812988
1519648643300,-0.196777,0.604980,0.812500
1519648643351,-0.208984,0.601807,0.803955
1519648643359,-0.188965,0.592773,0.818848
1519648643407,-0.171143,0.602051,0.829346
1519648643441,-0.141602,0.583008,0.854004
1519648643449,-0.139404,0.541016,0.884033
1519648643506,-0.162354,0.532715,0.831543
1519648643518,-0.117920,0.595459,0.948730
1519648643555,-0.117188,0.503418,0.788086
1519648643589,-0.103516,0.553223,0.975586
1519648643619,-0.167480,0.495117,0.873779
1519648643653,-0.082275,0.538330,0.951660
1519648643686,-0.063477,0.384521,0.915283
1519648643718,-0.118408,0.238281,0.698242
1519648643776,-0.113281,0.458008,0.677490
1519648643784,-0.147705,0.621338,0.745605
1519648643833,-0.198730,0.772949,0.881348
1519648643839,-0.287354,0.713379,0.939209
1519648643868,-0.266357,0.524658,0.744385
1519648643925,-0.177490,0.478271,0.855225
1519648643933,-0.172607,0.570557,0.953613
1519648643971,-0.188232,0.522217,0.882813
1519648644002,-0.171875,0.504639,0.830078
1519648644038,-0.155518,0.538086,0.875977
1519648644070,-0.172363,0.528320,0.849121
1519648644104,-0.177734,0.520508,0.843994
1519648644136,-0.167236,0.544678,0.865479
1519648644168,-0.164307,0.531494,0.864258
1519648644201,-0.165527,0.552002,0.878174
1519648644257,-0.150391,0.573242,0.879883
1519648644265,-0.163086,0.582275,0.863037
1519648644321,-0.120361,0.432617,0.735840
1519648644354,-0.084473,0.414063,0.815918
1519648644363,-0.093750,0.556885,0.856201
1519648644423,-0.126953,0.550049,0.911133
1519648644426,-0.138184,0.560791,0.871338
1519648644457,-0.142578,0.535889,0.810303
1519648644520,-0.144043,0.587158,0.832764
1519648644528,-0.156006,0.589111,0.820068
1519648644572,-0.169434,0.601807,0.832031
1519648644605,-0.165283,0.627930,0.830322
1519648644637,-0.181641,0.591309,0.794678
1519648644647,-0.188232,0.678467,0.821533
1519648644699,-0.234619,0.690918,0.825684
1519648644733,-0.268799,0.667725,0.790039
1519648644765,-0.205078,0.741699,0.718018
1519648644782,-0.120605,0.608887,0.783691
1519648644837,-0.160400,0.630371,0.807373
1519648644844,-0.154297,0.595215,0.824707
1519648644897,-0.116211,0.645020,0.766357
1519648644928,-0.076416,0.713135,0.699707
1519648644934,-0.037354,0.678467,0.681641
1519648644963,-0.061768,0.645264,0.714111
1519648645021,-0.052979,0.673340,0.766602
1519648645053,-0.068848,0.630615,0.776855
1519648645062,-0.059570,0.666016,0.752930
1519648645093,-0.070068,0.587646,0.752197
1519648645151,0.004395,0.755859,0.799561
1519648645185,-0.082031,0.717041,0.801758
1519648645206,-0.104980,0.685303,0.754883
1519648645229,-0.129395,0.725342,0.809814
1519648645263,-0.177246,0.903320,0.815186
1519648645296,-0.281494,0.661377,0.714844
1519648645328,-0.299805,0.740967,0.772949
1519648645384,-0.178223,0.517822,0.811279
1519648645387,-0.065186,0.536377,0.818115
1519648645417,-0.023682,0.505127,0.886475
1519648645480,-0.002197,0.446045,0.800781
1519648645487,0.040283,0.452393,0.882568
1519648645514,-0.063477,0.426758,0.804932
1519648645586,-0.130371,0.577637,0.815918
1519648645594,-0.141846,0.400146,0.877197
1519648645651,-0.141357,0.581055,0.929932
1519648645654,-0.182617,0.717773,1.006836
1519648645697,-0.198975,0.529297,0.890381
1519648645730,-0.199707,0.373779,0.774902
1519648645763,-0.108643,0.645264,0.823730
1519648645795,-0.117920,0.680908,0.799316
1519648645799,-0.164551,0.602051,0.797119
1519648645850,-0.100098,0.576172,0.873291
1519648645882,-0.125732,0.548828,0.906250
1519648645890,-0.170166,0.403320,0.772949
1519648645946,-0.068359,0.561035,0.678223
1519648645979,-0.115967,0.915771,1.014404
1519648645993,-0.201660,0.494629,0.935791
1519648646051,-0.181641,0.516602,0.860840
1519648646061,-0.159668,0.650635,0.861816
1519648646113,-0.145752,0.456787,0.730225
1519648646147,-0.016846,0.678223,0.826660
1519648646180,-0.109375,0.445801,0.785156
1519648646211,-0.058105,0.593506,0.917969
1519648646242,-0.106201,0.515869,0.948486
1519648646275,-0.211670,0.736328,0.765137
1519648646308,-0.287354,0.631592,0.634277
1519648646340,-0.167725,0.860840,0.932617
1519648646374,-0.160156,0.463135,0.796387
1519648646385,-0.151611,0.693359,0.758789
1519648646425,-0.074951,0.613770,0.747314
1519648646459,-0.163818,0.585938,0.791504
1519648646493,-0.307617,0.762939,0.834717
1519648646526,-0.415527,0.654541,0.775146
1519648646559,-0.392090,0.613525,0.692627
1519648646590,-0.233398,0.629639,0.879639
1519648646623,-0.130371,0.439453,0.828369
1519648646654,-0.053223,0.461670,0.937988
1519648646687,-0.012207,0.401611,0.909180
1519648646721,0.093994,0.550049,1.050781
1519648646752,-0.074951,0.467041,0.928467
1519648646785,-0.165039,0.464844,0.855957
1519648646830,-0.113037,0.543457,0.957275
1519648646836,-0.070557,0.512207,0.934082
1519648646894,-0.125977,0.363770,0.678711
1519648646926,-0.072021,0.413086,0.601563
1519648646959,-0.090332,0.500977,0.780762
1519648646967,-0.185303,0.622314,0.952393
1519648647019,-0.316650,0.595703,1.053467
1519648647028,-0.351074,0.516846,0.972900
1519648647057,-0.286865,0.466309,0.925537
1519648647132,-0.175049,0.582031,0.875732
1519648647141,-0.165771,0.628662,0.949463
1519648647165,-0.190918,0.431641,0.888184
1519648647203,-0.225342,0.422119,0.754883
1519648647237,-0.226074,0.561035,0.833984
1519648647270,-0.272949,0.540527,0.812012
1519648647303,-0.147705,0.538086,0.851074
1519648647336,-0.101074,0.479980,0.905273
1519648647369,-0.137939,0.479004,0.904785
1519648647406,0.021973,0.472412,0.933350
1519648647438,0.044189,0.478027,1.136719
1519648647470,-0.056885,0.295166,0.796387
1519648647505,0.054688,0.502686,0.681152
1519648647536,-0.032959,0.610596,0.894043
1519648647545,-0.138672,0.550781,0.855713
1519648647604,-0.214600,0.621094,0.845703
1519648647608,-0.190186,0.501709,0.793701
1519648647650,-0.194336,0.382080,0.762939
1519648647707,-0.171387,0.542969,0.882080
1519648647714,-0.163330,0.588379,0.900391
1519648647742,-0.184570,0.649414,0.882568
1519648647773,-0.202881,0.639893,0.865234
1519648647806,-0.250977,0.641602,0.774414
1519648647838,-0.254150,0.670410,0.823486
1519648647873,-0.215576,0.666260,0.810547
1519648647932,-0.146484,0.549316,0.804199
1519648647935,-0.113525,0.602051,0.766357
1519648647993,-0.144775,0.669678,0.780029
1519648648006,-0.150146,0.638916,0.780518
1519648648056,-0.141113,0.652100,0.760498
1519648648100,-0.162354,0.658936,0.791016
1519648648109,-0.166016,0.615723,0.775879
1519648648133,-0.149902,0.636719,0.774170
1519648648166,-0.146240,0.643799,0.791992
1519648648217,-0.155273,0.652588,0.760254
1519648648219,-0.149658,0.622070,0.752930
1519648648277,-0.153809,0.668457,0.784912
1519648648279,-0.139404,0.577881,0.829102
1519648648344,-0.146240,0.577881,0.806152
1519648648348,-0.131348,0.710205,0.791992
1519648648410,-0.151611,0.575928,0.813965
1519648648468,-0.131592,0.621338,0.835205
1519648648472,-0.143311,0.643799,0.788818
1519648648527,-0.172363,0.641846,0.816650
1519648648533,-0.154053,0.620605,0.792969
1519648648564,-0.121338,0.605957,0.821289
1519648648567,-0.118896,0.626465,0.800293
1519648648622,-0.130127,0.630371,0.757568
1519648648695,-0.132324,0.592041,0.854980
1519648648698,-0.184082,0.575439,0.929932
1519648648763,-0.148926,0.586914,0.787109
1519648648766,-0.221924,0.707275,0.700928
1519648648818,-0.191650,0.579102,0.822754
1519648648834,-0.186768,0.491455,0.810303
1519648648839,-0.131348,0.557129,0.906250
1519648648867,-0.165283,0.557861,0.888428
1519648648899,-0.168213,0.519775,0.854980
1519648648932,-0.177734,0.550537,0.929688
1519648648968,-0.188232,0.467529,0.891846
1519648648998,-0.160400,0.537354,0.879150
1519648649030,-0.124268,0.486816,0.866943
1519648649062,-0.138672,0.493408,0.799805
1519648649095,-0.087891,0.478271,0.857178
1519648649152,-0.032227,0.485107,0.947510
1519648649157,-0.082764,0.498291,0.860107
1519648649185,-0.111084,0.498291,0.835693
1519648649217,-0.047607,0.538086,0.659668
1519648649250,-0.020996,0.586914,0.871582
1519648649287,-0.105957,0.498291,0.910889
1519648649322,-0.185303,0.454102,0.844727
1519648649355,-0.207520,0.548340,0.855957
1519648649390,-0.216064,0.562744,0.895508
1519648649422,-0.230225,0.585205,0.878906
1519648649456,-0.190186,0.550049,0.910889
1519648649488,-0.151611,0.532227,0.869873
1519648649521,-0.116943,0.568604,0.824951
1519648649554,-0.115479,0.543213,0.856689
1519648649562,-0.118896,0.538330,0.867188
1519648649618,-0.118896,0.584961,0.827148
1519648649650,-0.121338,0.556152,0.828613
1519648649659,-0.113281,0.573242,0.855713
1519648649722,-0.117676,0.580566,0.831299
1519648649728,-0.110596,0.558350,0.845459
1519648649785,-0.113525,0.575684,0.844482
1519648649817,-0.137695,0.582520,0.827637
1519648649824,-0.126465,0.580078,0.832764
1519648649881,-0.119385,0.590332,0.863281
1519648649913,-0.122070,0.593018,0.882324
1519648649946,-0.116455,0.555420,0.836914
1519648649979,-0.136475,0.550293,0.856934
1519648650012,-0.101807,0.553467,0.780029
1519648650044,-0.087891,0.502197,0.839355
1519648650076,-0.122314,0.531494,0.740234
1519648650107,-0.139404,0.381592,0.842041
1519648650140,-0.124023,0.656738,0.871826
1519648650142,-0.125977,0.572510,0.891113
1519648650203,-0.114502,0.574219,0.935303
1519648650231,-0.169678,0.539307,0.818604
1519648650239,-0.123047,0.500488,0.783691
1519648650300,-0.118652,0.561035,0.801758
1519648650306,-0.142578,0.444336,0.806885
1519648650365,-0.077637,0.531250,0.933105
1519648650397,-0.104004,0.496094,0.892090
1519648650429,-0.216309,0.659424,0.778564
1519648650462,-0.243896,0.633545,0.921875
1519648650494,-0.197998,0.628174,0.846680
1519648650528,-0.220215,0.530762,0.841553
1519648650560,-0.168945,0.655762,0.777832
1519648650593,-0.072998,0.550537,0.824951
1519648650625,-0.076660,0.472656,0.872070
1519648650657,-0.002441,0.567383,0.832031
1519648650690,-0.113525,0.457031,0.928955
1519648650722,-0.178711,0.427246,0.857910
1519648650728,-0.140625,0.443848,0.784180
1519648650781,-0.089111,0.574463,0.836426
1519648650813,-0.088135,0.516113,0.824219
1519648650819,-0.082764,0.516113,0.840088
1519648650878,-0.126465,0.541992,0.925781
1519648650910,-0.148438,0.568115,0.843994
1519648650942,-0.144043,0.559814,0.889404
1519648650971,-0.102051,0.469482,0.885010
1519648651004,-0.128662,0.339844,0.828369
1519648651037,-0.110352,0.499268,0.811523
1519648651069,-0.163086,0.615479,0.878906
1519648651102,-0.201172,0.583984,0.897217
1519648651134,-0.191895,0.550049,0.879150
1519648651167,-0.204834,0.595947,0.697510
1519648651202,-0.153564,0.597168,0.714355
1519648651233,-0.121826,0.594727,0.854736
1519648651267,-0.129639,0.521729,0.924072
1519648651300,-0.164063,0.593262,0.828125
1519648651303,-0.178955,0.526367,0.843018
1519648651359,-0.165283,0.498779,0.868652
1519648651393,-0.131104,0.527100,0.856689
1519648651425,-0.091797,0.445557,0.836426
1519648651457,-0.044922,0.571777,0.811523
1519648651490,-0.096191,0.555420,0.845459
1519648651523,-0.137695,0.488281,0.894287
1519648651555,-0.236328,0.586914,0.859619
1519648651588,-0.190430,0.538330,0.936035
1519648651620,-0.193359,0.515137,0.887451
1519648651653,-0.163574,0.581299,0.832764
1519648651685,-0.119385,0.538574,0.837891
1519648651718,-0.122314,0.559326,0.840332
1519648651750,-0.160645,0.561768,0.849609
1519648651756,-0.180420,0.582764,0.856689
1519648651826,-0.172852,0.564209,0.878174
1519648651894,-0.166504,0.544922,0.843506
1519648651900,-0.145752,0.560547,0.839844
1519648651939,-0.150391,0.540771,0.860107
1519648651944,-0.134033,0.549805,0.838379
1519648651972,-0.124756,0.533936,0.829102
1519648652005,-0.170654,0.572266,0.859375
1519648652038,-0.243652,0.604736,0.853760
1519648652070,-0.240234,0.500488,0.841553
1519648652103,-0.214844,0.542969,0.873535
1519648652135,-0.222168,0.562012,0.818359
1519648652168,-0.187012,0.523193,0.861816
1519648652173,-0.163818,0.471191,0.924561
1519648652250,-0.095459,0.501953,0.832275
1519648652254,-0.103760,0.419922,0.921631
1519648652284,-0.130371,0.437988,0.907715
1519648652316,-0.088135,0.327148,0.713623
1519648652350,-0.036621,0.561523,0.907471
1519648652382,-0.114014,0.514648,0.949707
1519648652415,-0.084473,0.454102,0.878662
1519648652447,-0.131104,0.383057,0.924561
1519648652479,-0.147705,0.507080,0.951660
1519648652513,-0.214355,0.572021,0.889160
1519648652545,-0.259277,0.585938,0.820313
1519648652577,-0.263428,0.548340,0.838379
1519648652610,-0.208496,0.542725,0.916504
1519648652643,-0.171875,0.502686,0.825195
1519648652675,-0.091553,0.529541,0.911865
1519648652707,-0.130859,0.488525,0.877686
1519648652743,-0.122314,0.376953,0.658936
1519648652750,-0.056641,0.574707,0.831543
1519648652806,-0.141113,0.751465,0.845459
1519648652839,-0.203613,0.458740,0.957275
1519648652846,-0.266113,0.532959,0.912598
1519648652903,-0.204102,0.632813,0.761963
1519648652936,-0.144531,0.628174,0.824707
1519648652969,-0.229004,0.623779,0.840088
1519648653002,-0.189697,0.414307,0.930664
1519648653033,-0.154053,0.505127,0.840088
1519648653067,0.002686,0.508789,0.908691
1519648653099,-0.104248,0.469727,0.934570
1519648653131,-0.120361,0.295898,0.828125
1519648653163,-0.088867,0.240479,0.732910
1519648653200,-0.048340,0.927246,0.921143
1519648653233,-0.201904,0.419434,0.913818
1519648653265,-0.145264,0.417725,0.868652
1519648653297,-0.190674,0.564697,0.889648
1519648653312,-0.208252,0.528809,0.885010
1519648653348,-0.189209,0.508789,0.865967
1519648653403,-0.140381,0.499268,0.886230
1519648653409,-0.145264,0.491211,0.867676
1519648653436,-0.155518,0.531006,0.884766
1519648653493,-0.178223,0.486572,0.886230
1519648653499,-0.174316,0.523682,0.869629
1519648653531,-0.189209,0.556152,0.849609
1519648653563,-0.187744,0.523438,0.924805
1519648653621,-0.195801,0.468262,0.869629
1519648653626,-0.122070,0.559570,0.925293
1519648653683,-0.187988,0.459229,0.879395
1519648653716,-0.134766,0.357178,0.912109
1519648653730,-0.103271,0.170410,0.848877
1519648653763,-0.040771,0.548584,0.724609
1519648653820,-0.070068,0.530273,1.054932
1519648653825,-0.215088,0.548096,0.869385
1519648653882,-0.128418,0.478271,0.890869
1519648653915,-0.134521,0.426514,0.934082
1519648653920,-0.164551,0.508545,0.785156
1519648653974,-0.141602,0.388916,0.839355
1519648653979,-0.163330,0.535645,1.023438
1519648654011,-0.207520,0.523926,0.917725
1519648654070,-0.198486,0.425293,0.847900
1519648654077,-0.178223,0.562256,0.836426
1519648654133,-0.160645,0.533691,0.880127
1519648654146,-0.128418,0.494385,0.828125
1519648654179,-0.123779,0.501465,0.897949
1519648654215,-0.129883,0.525879,0.895020
1519648654243,-0.126953,0.540283,0.875732
1519648654275,-0.141357,0.497314,0.878662
1519648654329,-0.164551,0.517822,0.930908
1519648654379,-0.151367,0.442871,0.869873
1519648654384,-0.172363,0.457764,0.829346
1519648654412,-0.196289,0.524170,0.809082
1519648654445,-0.167969,0.588135,0.841309
1519648654477,-0.177246,0.636963,0.825684
1519648654510,-0.136475,0.663330,0.875488
1519648654543,-0.131836,0.757324,0.854736
1519648654584,-0.048096,0.760010,0.796387
1519648654617,0.005615,0.699951,0.763916
1519648654622,0.028076,0.695313,0.738281
1519648654680,-0.035400,0.714355,0.705322
1519648654712,0.028076,0.604736,0.677246
1519648654745,0.031738,0.510742,0.793213
1519648654777,0.015381,0.560303,0.788330
1519648654811,-0.043701,0.555908,0.839600
1519648654843,-0.061768,0.640869,0.809082
1519648654876,-0.054688,0.608887,0.858643
1519648654948,-0.065186,0.553711,0.925537
1519648654954,-0.119141,0.504150,0.890625
1519648655017,-0.112549,0.490234,0.859375
1519648655022,-0.097900,0.481445,0.882568
1519648655058,-0.099365,0.500488,0.886230
1519648655063,-0.086670,0.470215,0.861572
1519648655092,-0.086914,0.475098,0.856934
1519648655129,-0.110352,0.504395,0.905273
1519648655161,-0.110840,0.504883,0.912109
1519648655194,-0.125244,0.496338,0.906982
1519648655203,-0.131348,0.471924,0.906982
1519648655257,-0.127197,0.464600,0.942139
1519648655290,-0.172363,0.492676,0.916016
1519648655323,-0.217041,0.509521,0.893799
1519648655359,-0.218506,0.461426,0.875977
1519648655364,-0.168213,0.486084,0.861084
1519648655402,-0.088867,0.459229,0.870117
1519648655445,-0.056885,0.478027,0.872803
1519648655477,-0.015869,0.434814,0.891846
1519648655510,-0.024414,0.393066,0.881104
1519648655542,-0.021973,0.420898,0.889648
1519648655576,-0.054443,0.419434,0.886963
1519648655607,-0.137207,0.409912,0.909668
1519648655640,-0.136963,0.432861,0.943359
1519648655673,-0.130371,0.445557,0.909668
1519648655705,-0.111084,0.441650,0.942871
1519648655737,-0.105225,0.442139,0.904297
1519648655770,-0.121826,0.443604,0.900635
1519648655803,-0.141602,0.455322,0.906494
1519648655835,-0.147949,0.468750,0.895752
1519648655867,-0.158936,0.474365,0.886963
1519648655900,-0.154541,0.466309,0.920898
1519648655933,-0.174561,0.441650,0.917236
1519648655939,-0.158447,0.495117,0.898682
1519648655995,-0.152588,0.467773,0.899658
1519648656028,-0.149902,0.419922,0.869873
1519648656034,-0.171631,0.437256,0.722656
1519648656092,0.024414,0.500977,0.909424
1519648656124,-0.134521,0.509033,0.965088
1519648656156,-0.120850,0.376221,1.008057
1519648656170,-0.163574,0.450928,0.911133
1519648656203,-0.224854,0.463135,0.905029
1519648656233,-0.197510,0.571777,0.894775
1519648656266,-0.140381,0.411621,0.808594
1519648656325,-0.197021,0.564941,0.852295
1519648656360,-0.199219,0.766602,1.007324
1519648656389,-0.120361,0.545410,0.914063
1519648656398,-0.125488,0.387451,0.784668
1519648656454,-0.081055,0.553955,0.719971
1519648656486,-0.062988,0.519287,0.879639
1519648656518,-0.143066,0.542725,0.885254
1519648656524,-0.203857,0.594727,0.875244
1519648656577,-0.202881,0.484619,0.965576
1519648656610,-0.185791,0.618896,0.843750
1519648656616,-0.157959,0.488281,0.874268
1519648656672,-0.119141,0.516113,0.823486
1519648656705,-0.071045,0.451660,0.932861
1519648656738,-0.108887,0.462646,0.885010
1519648656770,-0.103516,0.545166,0.832764
1519648656802,-0.104248,0.533447,0.890625
1519648656835,-0.163086,0.569580,0.879150
1519648656867,-0.134521,0.465088,0.869629
1519648656901,-0.142334,0.489502,0.913818
1519648656933,-0.161133,0.500732,0.913086
1519648656967,-0.122314,0.522217,0.906006
1519648657000,-0.119385,0.511475,0.874512
1519648657033,-0.109131,0.503906,0.856689
1519648657068,-0.083984,0.560791,1.004639
1519648657101,-0.104492,0.497070,0.818115
1519648657107,-0.055420,0.474121,0.921631
1519648657160,-0.052734,0.337646,0.927734
1519648657166,-0.172607,0.320801,0.872559
1519648657199,-0.173828,0.505615,0.852295
1519648657255,-0.263428,0.617188,0.949463
1519648657263,-0.300293,0.626465,0.992676
1519648657319,-0.330811,0.447510,0.918701
1519648657371,-0.278076,0.513916,0.868896
1519648657376,-0.178223,0.559814,0.838867
1519648657418,-0.092529,0.424316,0.870850
1519648657450,0.023682,0.430908,0.868652
1519648657482,0.176758,0.470947,0.920654
1519648657515,0.193359,0.440186,1.213135
1519648657548,0.076416,0.520508,0.719727
1519648657581,0.124512,0.314209,0.882080
1519648657586,-0.061523,0.521973,0.881592
1519648657639,-0.242432,0.404297,0.772705
1519648657670,-0.263672,0.444092,0.806641
1519648657678,-0.307617,0.532227,0.915527
1519648657735,-0.227539,0.477539,0.900635
1519648657768,-0.218506,0.353516,0.935303
1519648657800,-0.274658,0.397217,0.780029
1519648657814,-0.175293,0.532471,0.923340
1519648657846,-0.132813,0.720215,1.016113
1519648657878,-0.187012,0.687256,0.907959
1519648657936,-0.171387,0.406494,0.878906
1519648657996,-0.087646,0.385742,0.911377
1519648658002,-0.047363,0.349609,0.801270
1519648658008,-0.061035,0.469971,0.854492
1519648658076,-0.088867,0.506836,0.856201
1519648658081,-0.061768,0.492432,0.971924
1519648658144,-0.106934,0.678711,1.047607
1519648658149,-0.179443,0.310547,0.772705
1519648658196,-0.080811,0.389160,0.848145
1519648658209,-0.089111,0.501709,0.905762
1519648658258,-0.103516,0.543213,0.961914
1519648658262,-0.138916,0.550049,0.945313
1519648658318,-0.170166,0.503174,0.849854
1519648658378,-0.192627,0.512939,0.882324
1519648658384,-0.098633,0.436279,0.797363
1519648658423,-0.106689,0.423340,0.918457
1519648658429,-0.122803,0.456055,0.835693
1519648658521,-0.062012,0.499268,1.023438
1519648658527,-0.120117,0.459961,0.881592
1519648658532,-0.114502,0.483643,0.895752
1519648658587,-0.135986,0.465576,0.894531
1519648658591,-0.170654,0.462891,0.867432
1519648658652,-0.153320,0.523682,0.886475
1519648658657,-0.127686,0.514160,0.888428
1519648658710,-0.106689,0.522705,0.825684
1519648658717,-0.109131,0.502930,0.864502
1519648658770,-0.106445,0.505859,0.861572
1519648658781,-0.124268,0.518555,0.894775
1519648658827,-0.125000,0.526611,0.860840
1519648658895,-0.139648,0.484863,0.833984
1519648658900,-0.135010,0.475098,0.841553
1519648658955,-0.141113,0.513672,0.929932
1519648658960,-0.144775,0.577637,0.958008
1519648659018,-0.157715,0.477783,0.906494
1519648659026,-0.148438,0.438232,0.794434
1519648659083,-0.121094,0.407471,0.689697
1519648659088,0.002197,0.592773,0.864502
1519648659144,-0.103516,0.686768,1.149414
1519648659149,-0.267822,0.479736,0.970947
1519648659198,-0.297607,0.506836,0.922607
1519648659206,-0.280518,0.487793,0.867676
1519648659235,-0.256836,0.421631,0.876953
1519648659299,-0.131348,0.427002,0.866699
1519648659301,-0.098877,0.475342,0.766846
1519648659333,-0.018066,0.450684,0.831787
1519648659366,0.058105,0.460449,0.978271
1519648659399,-0.119385,0.477539,0.997803
1519648659431,-0.144531,0.370605,0.761963
1519648659463,-0.049561,0.520508,0.778076
1519648659496,-0.067139,0.497803,0.789307
1519648659529,-0.063965,0.535889,0.852295
1519648659563,-0.069580,0.462891,0.923828
1519648659594,-0.138184,0.470947,1.031738
1519648659630,-0.176514,0.503418,0.932373
1519648659661,-0.239014,0.439209,0.909668
1519648659694,-0.311035,0.489258,0.919189
1519648659727,-0.353516,0.618652,0.903076
1519648659759,-0.225830,0.499756,0.932617
1519648659791,-0.229248,0.542236,0.875488
1519648659824,-0.115479,0.564209,0.832275
1519648659864,-0.062500,0.466309,0.930664
1519648659870,-0.099121,0.412354,0.856934
1519648659932,-0.094971,0.479248,0.913574
1519648659940,-0.080566,0.259766,0.861572
1519648659996,0.002441,0.390869,0.618408
1519648660002,-0.035645,1.020020,1.206787
1519648660059,-0.146240,0.373779,0.918213
1519648660120,-0.201904,0.343750,0.851563
1519648660128,-0.135498,0.513184,0.732666
1519648660180,-0.106445,0.582520,0.981934
1519648660188,-0.164551,0.546143,0.861084
1519648660216,-0.216309,0.458008,0.822021
1519648660247,-0.238525,0.652832,0.900391
1519648660280,-0.249023,0.544922,0.822266
1519648660285,-0.238281,0.546631,0.801270
1519648660344,-0.153564,0.463623,0.892822
1519648660378,-0.143311,0.541748,0.903076
1519648660387,-0.158447,0.526611,0.901367
1519648660440,-0.189453,0.506836,0.864746
1519648660472,-0.180664,0.522461,0.864258
1519648660505,-0.175293,0.524170,0.862061
1519648660537,-0.178223,0.530762,0.857666
1519648660570,-0.164795,0.537109,0.861816
1519648660603,-0.156738,0.532959,0.856689
1519648660636,-0.173340,0.518555,0.869141
1519648660649,-0.158936,0.524170,0.888916
1519648660706,-0.153809,0.527588,0.867188
1519648660739,-0.178223,0.552979,0.954590
1519648660771,-0.215332,0.574463,0.951172
1519648660776,-0.251953,0.553955,0.820801
1519648660830,-0.289795,0.573242,0.804443
1519648660862,-0.229492,0.435547,0.812012
1519648660867,-0.158691,0.461670,0.857422
1519648660928,-0.115723,0.416504,0.825439
1519648660936,-0.124268,0.436279,0.767334
1519648661043,-0.040527,0.400391,0.902832
1519648661051,-0.035889,0.463379,1.022705
1519648661107,-0.131348,0.422607,1.072754
1519648661110,-0.203125,0.621338,0.983398
1519648661113,-0.246094,0.449707,0.750488
1519648661184,-0.208496,0.690674,0.886230
1519648661192,-0.267090,0.522949,0.837402
1519648661248,-0.204590,0.513428,0.751465
1519648661255,-0.179688,0.517578,0.793457
1519648661316,-0.236084,0.490967,0.727295
1519648661319,-0.175049,0.558594,0.900879
1519648661356,-0.210205,0.477539,0.861816
1519648661359,-0.200928,0.555176,0.792480
1519648661416,-0.180664,0.491943,0.885986
1519648661426,-0.176758,0.535889,0.942383
1519648661449,-0.183105,0.531738,0.856689
1519648661489,-0.131348,0.547852,0.912598
1519648661554,-0.172363,0.604004,0.899658
1519648661562,-0.228516,0.573730,0.844482
1519648661615,-0.301514,0.633789,0.789307
1519648661620,-0.239014,0.467773,0.759033
1519648661676,-0.195801,0.539307,0.819336
1519648661684,-0.101563,0.416748,0.822510
1519648661737,-0.016846,0.503174,0.897949
1519648661743,-0.053711,0.505859,0.887207
1519648661797,-0.124756,0.464355,0.808594
1519648661830,-0.117188,0.524902,0.847168
1519648661838,-0.125000,0.515137,0.884277
1519648661918,-0.149170,0.455566,0.914795
1519648661924,-0.187988,0.537598,0.820068
1519648661979,-0.180420,0.594727,0.820801
1519648661984,-0.201660,0.597900,0.807861
1519648662039,-0.227295,0.549072,0.845947
1519648662048,-0.236328,0.593262,0.833984
1519648662072,-0.212891,0.561279,0.833984
1519648662105,-0.192627,0.549561,0.857422
1519648662138,-0.174316,0.559814,0.864990
1519648662170,-0.162842,0.583496,0.835205
1519648662202,-0.163818,0.570313,0.838867
1519648662236,-0.166748,0.577393,0.841064
1519648662266,-0.166260,0.572754,0.831299
1519648662307,-0.157959,0.573486,0.828369
1519648662310,-0.164063,0.568359,0.834473
1519648662369,-0.161377,0.576416,0.829102
1519648662400,-0.157471,0.566406,0.819092
1519648662434,-0.162598,0.560059,0.852051
1519648662464,-0.157959,0.569092,0.861572
1519648662490,-0.149414,0.572754,0.820801
1519648662523,-0.144287,0.548096,0.815918
1519648662555,-0.152344,0.550537,0.839355
1519648662589,-0.161377,0.566162,0.822021
1519648662623,-0.145264,0.572998,0.833008
1519648662654,-0.156738,0.576904,0.831299
1519648662686,-0.184326,0.596191,0.737305
1519648662727,-0.131104,0.607178,0.984863
1519648662761,-0.172607,0.558838,0.957764
1519648662792,-0.243652,0.723633,0.766357
1519648662825,-0.166260,0.589111,0.846436
1519648662863,-0.116943,0.400879,0.703125
1519648662893,-0.103027,0.517334,0.718994
1519648662898,-0.119385,0.606934,0.757080
1519648662953,-0.144531,0.628174,0.942139
1519648662985,-0.173096,0.508789,0.855225
1519648662992,-0.155762,0.504150,0.826660
1519648663048,-0.133545,0.561768,0.858398
1519648663081,-0.145264,0.569336,0.860107
1519648663113,-0.154053,0.558350,0.840332
1519648663127,-0.131348,0.562256,0.855469
1519648663187,-0.127441,0.562744,0.867920
1519648663195,-0.150879,0.575439,0.862793
1519648663249,-0.158691,0.533447,0.813232
1519648663278,-0.143066,0.550781,0.841797
1519648663311,-0.157227,0.543701,0.864258
1519648663343,-0.179199,0.580566,0.873047
1519648663374,-0.110596,0.500977,0.799072
1519648663409,-0.125977,0.475830,0.756104
1519648663422,-0.072998,0.561768,0.936523
1519648663478,-0.122070,0.600586,0.900879
1519648663484,-0.147949,0.541748,0.840088
1519648663544,-0.202637,0.597412,0.897705
1519648663553,-0.267334,0.586182,0.977783
1519648663578,-0.291016,0.628906,0.983887
1519648663636,-0.405762,0.568115,0.907471
1519648663644,-0.357910,0.500488,0.865967
1519648663694,-0.276367,0.528076,0.683594
1519648663727,-0.120117,0.416992,0.736328
1519648663772,0.123291,0.492432,0.924805
1519648663781,0.204102,0.363281,0.944580
1519648663810,0.062012,0.515625,0.875000
1519648663841,0.134033,0.426758,0.778564
1519648663873,-0.037109,0.346191,0.850586
1519648663905,-0.242920,0.350830,0.811768
1519648663948,-0.320068,0.466309,0.836914
1519648663979,-0.390381,0.428955,0.786133
1519648664012,-0.408936,0.644043,0.935547
1519648664045,-0.399170,0.596436,0.960938
1519648664079,-0.347900,0.464600,0.906738
1519648664111,-0.326660,0.542236,0.788574
1519648664144,-0.192139,0.445068,0.872559
1519648664174,-0.091797,0.540771,0.912842
1519648664210,-0.031006,0.587402,1.051270
1519648664249,-0.127930,0.512695,1.022461
1519648664315,-0.179443,0.359375,0.809326
1519648664329,-0.038086,0.375977,1.080078
1519648664381,-0.104980,0.607422,0.835449
1519648664384,0.039063,0.385254,1.005371
1519648664418,-0.075439,0.364502,0.873779
1519648664421,-0.072754,0.374756,0.751953
1519648664453,-0.017090,0.404541,0.781982
1519648664509,-0.114014,0.742432,0.897949
1519648664543,-0.229248,0.462402,0.881104
1519648664552,-0.320557,0.722168,1.110107
1519648664602,-0.372559,0.701416,0.887207
1519648664610,-0.322021,0.379395,0.790771
1519648664635,-0.270020,0.377686,0.756836
1519648664693,-0.023926,0.514160,0.958008
1519648664726,-0.038818,0.406738,1.092041
1519648664739,-0.135498,0.376465,0.837158
1519648664778,-0.077393,0.489746,0.559570
1519648664808,-0.042725,0.503906,0.930176
1519648664842,-0.151367,0.556396,0.796387
1519648664873,-0.178955,0.393555,0.999512
1519648664906,-0.199707,0.463867,0.954834
1519648664939,-0.169922,0.492188,1.016846
1519648664972,-0.187256,0.297607,0.713379
1519648665004,-0.127930,0.508301,0.731689
1519648665052,-0.126465,0.710205,0.777344
1519648665083,-0.172852,0.721680,0.825928
1519648665088,-0.196045,0.601807,0.707275
1519648665118,-0.136963,0.510498,0.858154
1519648665176,-0.189941,0.457031,0.855957
1519648665185,-0.195801,0.489014,0.876221
1519648665238,-0.152100,0.520264,0.966064
1519648665270,-0.183838,0.484131,0.950684
1519648665303,-0.164551,0.574707,0.911865
1519648665336,-0.125000,0.434570,0.936035
1519648665371,-0.137939,0.556641,0.909424
1519648665404,-0.141602,0.481934,0.838623
1519648665435,-0.117920,0.539551,0.855469
1519648665468,-0.137207,0.528320,0.848145
1519648665500,-0.133301,0.508545,0.862793
1519648665505,-0.108887,0.549316,0.896484
1519648665566,-0.110596,0.510010,0.858154
1519648665598,-0.111572,0.530273,0.862549
1519648665604,-0.123779,0.536621,0.858887
1519648665657,-0.131104,0.567383,0.867188
1519648665689,-0.134766,0.535400,0.886475
1519648665722,-0.118408,0.499756,0.868896
1519648665733,-0.123535,0.546631,0.857422
1519648665761,-0.141357,0.527832,0.859863
1519648665820,-0.147217,0.570801,0.809326
1519648665853,-0.122070,0.575195,0.845703
1519648665883,-0.111328,0.597168,0.923096
1519648665916,-0.167725,0.521240,0.818359
1519648665932,-0.173584,0.560547,0.926758
1519648665964,-0.216309,0.572754,0.861084
1519648665996,-0.215820,0.574463,0.773682
1519648666029,-0.228516,0.600586,0.780273
1519648666072,-0.176514,0.531250,0.789063
1519648666104,-0.150391,0.504883,0.874512
1519648666138,-0.144531,0.501465,0.866699
1519648666170,-0.092773,0.477783,0.937500
1519648666179,-0.071045,0.433594,0.942383
1519648666236,-0.124512,0.475098,0.856201
1519648666267,-0.163818,0.565186,0.867432
1519648666299,-0.184814,0.580078,0.846924
1519648666333,-0.175537,0.537598,0.829102
1519648666349,-0.176758,0.556396,0.833496
1519648666378,-0.183105,0.550537,0.846191
1519648666433,-0.160400,0.511719,0.851563
1519648666465,-0.154541,0.536865,0.845703
1519648666498,-0.166748,0.534668,0.886963
1519648666530,-0.219238,0.545654,0.881348
1519648666565,-0.179932,0.530029,0.894531
1519648666599,-0.186035,0.521729,0.907227
1519648666631,-0.164795,0.506592,0.876465
1519648666661,-0.150879,0.506348,0.872314
1519648666665,-0.161865,0.523438,0.847900
1519648666724,-0.149414,0.480469,0.854980
1519648666738,-0.163330,0.511963,0.833496
1519648666816,-0.121094,0.499268,0.952881
1519648666821,-0.171875,0.447998,0.982910
1519648666877,-0.155518,0.434814,0.966553
1519648666884,-0.058350,0.508545,1.040771
1519648666937,-0.091309,0.333008,0.820801
1519648666945,-0.112793,0.358154,0.739746
1519648666985,-0.111328,0.343506,0.674072
1519648666991,-0.130371,0.540039,0.640625
1519648667049,-0.111328,0.540527,0.929443
1519648667082,-0.168213,0.524170,0.996338
1519648667114,-0.194580,0.543701,1.025146
1519648667128,-0.175049,0.602783,1.125732
1519648667160,-0.279297,0.479004,0.803955
1519648667193,-0.297363,0.420166,0.879395
1519648667233,-0.240479,0.500244,0.839111
1519648667256,-0.282959,0.539551,0.831299
1519648667315,-0.188965,0.483398,0.967285
1519648667320,-0.162598,0.453857,0.867188
1519648667348,-0.100098,0.588867,0.837402
1519648667421,-0.079590,0.435303,0.958984
1519648667426,-0.114746,0.356934,0.861816
1519648667489,-0.099121,0.413330,0.655029
1519648667495,-0.046143,0.563965,0.620605
1519648667538,-0.068115,0.654541,1.100830
1519648667552,-0.212158,0.446045,0.846680
1519648667586,-0.255859,0.699707,0.955322
1519648667612,-0.410156,0.485596,0.909668
1519648667645,-0.338867,0.462402,0.929688
1519648667682,-0.289795,0.468018,0.953125
1519648667715,-0.250732,0.499756,0.830811
1519648667748,-0.123047,0.491943,0.906006
1519648667780,-0.034424,0.510498,1.072998
1519648667813,-0.037842,0.541992,1.095703
1519648667845,-0.100098,0.508545,0.941162
1519648667877,-0.049561,0.486328,0.909912
1519648667908,-0.101563,0.302002,0.785400
1519648667941,-0.065186,0.382324,0.777100
1519648667954,-0.103516,0.287842,0.680664
1519648667988,-0.112549,0.364502,0.884521
1519648668045,-0.219971,0.647461,0.876221
1519648668079,-0.264648,0.727539,0.741211
1519648668111,-0.202148,0.512207,0.676270
1519648668144,-0.192383,0.411133,0.850586
1519648668175,-0.180664,0.504150,1.079834
1519648668209,-0.227783,0.529053,0.991211
1519648668217,-0.315430,0.553711,0.871338
1519648668268,-0.383301,0.652832,0.989014
1519648668272,-0.348389,0.477783,0.900635
1519648668328,-0.258789,0.461670,0.906250
1519648668360,-0.115479,0.406982,0.783691
1519648668374,-0.023682,0.476074,0.879883
1519648668407,-0.027344,0.500000,0.821045
1519648668440,0.040283,0.393066,0.839600
1519648668473,0.018799,0.425293,0.909668
1519648668505,-0.060791,0.433594,0.845215
1519648668539,-0.143555,0.440186,0.908447
1519648668572,-0.200684,0.424561,0.929932
1519648668606,-0.243408,0.423828,0.957031
1519648668643,-0.247559,0.456299,0.951660
1519648668676,-0.230713,0.593262,0.858887
1519648668707,-0.152344,0.552490,1.053711
1519648668740,-0.260742,0.471924,0.910400
1519648668773,-0.273193,0.418457,0.748047
1519648668806,-0.209717,0.541260,0.776367
1519648668837,-0.168945,0.500000,0.787354
1519648668891,-0.145996,0.548828,0.868408
1519648668896,-0.139160,0.492676,0.885986
1519648668925,-0.145752,0.522705,0.861572
1519648668958,-0.195557,0.540039,0.861084
1519648668990,-0.219482,0.512451,0.885986
1519648669023,-0.228271,0.504883,0.910889
1519648669057,-0.223389,0.537598,0.883301
1519648669089,-0.218018,0.526367,0.860840
1519648669121,-0.141357,0.547852,0.861816
1519648669154,-0.149658,0.469727,0.894775
1519648669196,-0.187988,0.468994,0.863281
1519648669228,-0.188232,0.519287,0.897705
1519648669263,-0.159668,0.561035,0.938232
1519648669273,-0.243652,0.544189,0.923584
1519648669324,-0.254150,0.371338,0.686035
1519648669357,-0.191650,0.526123,0.780762
1519648669366,-0.154541,0.555908,0.947266
1519648669422,-0.100830,0.597656,0.796387
1519648669453,0.000488,0.490479,1.191406
1519648669486,-0.269531,0.514893,0.770752
1519648669517,-0.223145,0.551514,0.685059
1519648669550,-0.197754,0.498535,0.881104
1519648669564,-0.235107,0.526611,0.890137
1519648669600,-0.245850,0.506592,0.843750
1519648669633,-0.223877,0.488037,0.835938
1519648669690,-0.207764,0.538086,0.897217
1519648669723,-0.217773,0.525879,0.856689
1519648669756,-0.191162,0.545898,0.850098
1519648669764,-0.170410,0.527344,0.882568
1519648669818,-0.156982,0.505127,0.838135
1519648669851,-0.185059,0.506592,0.896729
1519648669857,-0.186035,0.518555,0.845459
1519648669910,-0.162354,0.496826,1.017578
1519648669919,-0.104492,0.393555,0.719482
1519648669948,-0.045410,0.595459,0.637207
1519648670015,-0.025879,0.511963,0.980469
1519648670024,-0.109619,0.428711,0.925537
1519648670049,-0.131348,0.645264,0.879395
1519648670080,-0.161133,0.582520,0.760010
1519648670140,-0.188232,0.479248,0.726563
1519648670148,-0.236328,0.461426,0.761230
1519648670199,-0.252441,0.484863,0.982178
1519648670239,-0.254150,0.369629,0.925049
1519648670262,-0.224121,0.546631,0.905029
1519648670295,-0.212646,0.602783,0.894043
1519648670327,-0.224121,0.643311,0.918213
1519648670330,-0.224121,0.619873,0.957764
1519648670388,-0.239502,0.482178,0.843018
1519648670419,-0.239258,0.483398,0.816650
1519648670453,-0.159180,0.447998,0.860352
1519648670486,-0.140381,0.628418,0.938477
1519648670556,-0.143799,0.494141,0.852051
1519648670565,-0.121094,0.377930,1.104248
1519648670625,-0.236572,0.483154,0.908203
1519648670633,-0.208740,0.482666,0.739502
1519648670658,-0.160889,0.456787,0.799072
1519648670662,-0.101318,0.464844,0.809082
1519648670717,-0.004150,0.494629,0.859863
1519648670751,0.056641,0.426514,0.970947
1519648670765,-0.086670,0.463135,0.831299
1519648670796,-0.135498,0.367432,0.830811
1519648670828,-0.184326,0.435791,0.911133
1519648670862,-0.196045,0.471436,0.961426
1519648670896,-0.192383,0.589844,1.033203
1519648670929,-0.244141,0.426758,1.069336
1519648670962,-0.187256,0.400879,0.974121
1519648670994,-0.151367,0.229004,0.708496
1519648671026,-0.060303,0.332764,0.676270
1519648671060,-0.108643,0.398926,0.678223
1519648671092,-0.090088,0.729980,0.866455
1519648671124,-0.149414,0.569336,1.190430
1519648671157,-0.232178,0.455322,0.899658
1519648671199,-0.214111,0.440430,0.774902
1519648671231,-0.121582,0.393066,0.786621
1519648671261,-0.099609,0.497559,1.055664
1519648671344,-0.142578,0.472656,0.951172
1519648671353,-0.173340,0.448975,0.891602
1519648671364,-0.169678,0.520996,0.890869
1519648671405,-0.189941,0.512451,0.882568
1519648671414,-0.184326,0.498291,0.884033
1519648671450,-0.154053,0.494873,0.870361
1519648671458,-0.142822,0.506592,0.902588
1519648671509,-0.171875,0.533691,0.853760
1519648671545,-0.158447,0.514893,0.868896
1519648671579,-0.163330,0.519531,0.907227
1519648671591,-0.169922,0.547119,0.864258
1519648671623,-0.146729,0.519775,0.865967
1519648671683,-0.135498,0.477295,0.791504
1519648671715,-0.084717,0.449951,0.832520
1519648671747,-0.072998,0.576172,0.915771
1519648671756,-0.120117,0.451904,0.845215
1519648671812,-0.115234,0.537598,0.894531
1519648671844,-0.150391,0.355469,0.927734
1519648671877,-0.182129,0.461426,0.951172
1519648671882,-0.165283,0.503662,0.884277
1519648671934,-0.199463,0.487549,0.698242
1519648671968,-0.250244,0.835693,0.797363
1519648671982,-0.275879,0.733398,0.747559
1519648672064,-0.352539,0.737793,0.709717
1519648672073,-0.054688,0.734863,0.853516
1519648672124,0.183350,0.856201,0.715576
1519648672133,0.069336,0.765137,0.647217
1519648672183,0.071045,0.793213,0.612549
1519648672191,0.070557,0.693115,0.601074
1519648672215,0.121094,0.760742,0.569824
1519648672248,0.143799,0.746826,0.577393
1519648672280,0.078857,0.753418,0.666016
1519648672313,0.070557,0.771484,0.754639
1519648672345,0.030273,0.786621,0.645020
1519648672379,-0.009277,0.739258,0.776123
1519648672421,-0.065186,0.728271,0.817139
1519648672453,-0.089844,0.577881,0.711426
1519648672462,-0.095459,0.647461,0.837646
1519648672515,0.000244,0.606445,0.847412
1519648672522,-0.047119,0.638916,0.738037
1519648672554,-0.009766,0.596436,0.834229
1519648672614,-0.072021,0.554932,0.780518
1519648672621,-0.158691,0.579590,0.843750
1519648672677,-0.102783,0.593018,0.905273
1519648672731,-0.079834,0.594238,0.787598
1519648672737,-0.136475,0.571777,0.810059
1519648672765,-0.217773,0.726318,0.862793
1519648672798,-0.157959,0.561035,0.938721
1519648672840,-0.136475,0.451904,0.857666
1519648672872,-0.201416,0.555664,0.876465
1519648672904,-0.182861,0.461670,0.854248
1519648672936,-0.124512,0.508545,0.814209
1519648672970,-0.014404,0.289063,0.791260
1519648673001,-0.059570,0.422852,0.876709
1519648673034,-0.074219,0.560059,0.879150
1519648673039,-0.157471,0.815674,0.890381
1519648673093,-0.155273,0.519043,0.823730
1519648673126,-0.118408,0.606934,0.773193
1519648673135,-0.089844,0.658447,0.721436
1519648673188,-0.042236,0.753418,0.785889
1519648673202,-0.034180,0.589600,0.779541
1519648673242,-0.148193,0.746338,0.774902
1519648673294,-0.122314,0.707031,0.727051
1519648673326,-0.041260,0.674316,0.762207
1519648673334,-0.065674,0.710693,0.716309
1519648673388,-0.101807,0.689453,0.812256
1519648673420,-0.128906,0.610352,0.831543
1519648673454,-0.144775,0.659668,0.762451
1519648673492,-0.100830,0.598389,0.830566
1519648673524,-0.144775,0.583496,0.840576
1519648673530,-0.173828,0.655273,0.822754
1519648673582,-0.209961,0.593262,0.884766
1519648673656,-0.232666,0.520020,0.834961
1519648673665,-0.272217,0.616943,0.872559
1519648673724,-0.272461,0.562500,0.761230
1519648673733,-0.265625,0.489014,0.722656
1519648673780,-0.090820,0.349609,0.771973
1519648673788,0.112549,0.413574,0.938477
1519648673797,0.118896,0.385742,0.945801
1519648673840,0.046387,0.543945,0.918213
1519648673872,-0.114746,0.533447,0.859131
1519648673903,-0.215088,0.516357,0.883057
1519648673919,-0.257568,0.516602,0.898682
1519648673952,-0.201904,0.458008,0.920166
1519648673986,-0.165771,0.498535,0.909912
1519648674013,-0.096191,0.475342,0.908447
1519648674072,-0.094238,0.549805,0.862793
1519648674105,-0.117676,0.553467,0.845703
1519648674113,-0.098389,0.537109,0.847168
1519648674163,-0.090820,0.519287,0.846924
1519648674195,-0.106201,0.530518,0.853516
1519648674204,-0.098145,0.482666,0.862305
1519648674253,-0.092041,0.493164,0.878418
1519648674287,-0.111084,0.467285,0.887207
1519648674318,-0.126709,0.505127,0.893066
1519648674351,-0.127930,0.502686,0.874512
1519648674384,-0.147461,0.495605,0.890381
1519648674418,-0.149902,0.495117,0.890137
1519648674430,-0.134766,0.494873,0.877930
1519648674488,-0.138184,0.504395,0.879150
1519648674521,-0.160889,0.481445,0.894775
1519648674528,-0.174561,0.523193,0.857910
1519648674585,-0.172607,0.516846,0.868408
1519648674593,-0.185303,0.497314,0.903809
1519648674643,-0.185547,0.524902,0.867188
1519648674648,-0.217285,0.539795,0.862793
1519648674682,-0.251953,0.508789,0.883545
1519648674715,-0.287842,0.558105,0.869141
1519648674747,-0.267334,0.503662,0.885742
1519648674780,-0.232666,0.533936,0.857422
1519648674811,-0.181641,0.478271,0.866455
1519648674853,-0.136475,0.431396,0.930176
1519648674886,-0.131348,0.507080,0.933594
1519648674917,-0.123291,0.487305,1.093018
1519648674950,-0.291016,0.445068,0.927002
1519648674983,-0.216309,0.338867,0.699951
1519648675016,-0.104248,0.416504,0.846680
1519648675047,-0.071777,0.389648,0.767578
1519648675080,0.082031,0.374268,1.007324
1519648675111,-0.044189,0.305420,0.862305
1519648675145,-0.030029,0.317871,0.670654
1519648675178,0.004883,0.696533,0.800537
1519648675211,-0.189697,0.562256,0.942871
1519648675226,-0.314697,0.701660,0.885010
1519648675290,-0.378662,0.640137,0.769287
1519648675294,-0.251465,0.439209,0.879150
1519648675327,-0.064209,0.550049,0.861328
1519648675360,-0.056885,0.511230,0.851074
1519648675397,-0.084961,0.382813,1.033936
1519648675430,-0.261475,0.512695,0.746338
1519648675463,-0.248291,0.541260,0.838379
1519648675495,-0.256104,0.547607,0.830566
1519648675526,-0.181152,0.555664,0.755127
1519648675558,-0.068359,0.404785,0.971924
1519648675591,-0.125977,0.570313,0.927246
1519648675635,-0.110840,0.575195,0.880615
1519648675644,-0.101807,0.438965,0.747803
1519648675698,-0.066895,0.518066,0.759766
1519648675731,-0.077393,0.630859,0.973145
1519648675739,-0.154541,0.527588,0.894287
1519648675795,-0.154785,0.562744,0.867432
1519648675828,-0.160645,0.650146,0.796143
1519648675861,-0.138672,0.569092,0.801270
1519648675893,-0.106201,0.582275,0.856689
1519648675925,-0.097168,0.578369,0.829590
1519648675957,-0.088379,0.568604,0.854004
1519648675990,-0.139160,0.596436,0.831055
1519648676022,-0.120850,0.598389,0.823975
1519648676064,-0.148926,0.610352,0.895752
1519648676097,-0.141846,0.592773,0.799561
1519648676134,-0.083740,0.581543,0.793945
1519648676160,-0.115234,0.593750,0.919678
1519648676193,-0.172852,0.535400,0.802979
1519648676227,-0.112793,0.602539,0.817383
1519648676236,-0.115967,0.614258,0.843506
1519648676284,-0.137451,0.501465,0.810547
1519648676290,-0.125732,0.624756,0.868896
1519648676323,-0.149902,0.541748,0.897949
1519648676384,-0.186035,0.541504,0.911621
1519648676394,-0.227295,0.537842,0.877197
1519648676445,-0.210693,0.609131,0.882568
1519648676458,-0.157959,0.476563,0.779785
1519648676491,-0.103271,0.406738,0.844971
1519648676524,-0.142578,0.584717,0.845215
1519648676572,-0.137939,0.428955,0.893066
1519648676605,-0.113281,0.491943,0.851318
1519648676657,-0.113525,0.490723,0.790039
1519648676670,-0.210693,0.580322,0.967041
1519648676709,-0.222168,0.466797,0.891113
1519648676712,-0.130615,0.482910,0.883301
1519648676784,-0.064941,0.427979,0.877197
1519648676793,-0.091553,0.513428,0.715576
1519648676850,-0.107666,0.497070,0.886230
1519648676901,-0.170166,0.667969,0.967529
1519648676912,-0.159668,0.562012,0.714355
1519648676918,-0.118896,0.524658,0.629395
1519648676963,-0.095947,0.589844,1.026611
1519648676968,-0.202393,0.644043,0.922119
1519648677025,-0.254639,0.582764,0.823486
1519648677058,-0.232910,0.506104,0.880615
1519648677092,-0.257324,0.610107,0.860107
1519648677125,-0.265137,0.508789,0.858643
1519648677157,-0.201172,0.604980,0.912354
1519648677189,-0.214355,0.579346,0.851074
1519648677221,-0.187012,0.488770,0.805664
