1519672404176,-0.447998,0.449219,-0.111328
1519672404210,-0.303467,0.396240,0.017334
1519672404242,-0.303467,0.611328,-0.000244
1519672404247,0.226318,2.239258,0.119873
1519672404278,1.173096,2.366211,-0.016113
1519672404336,1.737305,2.062744,0.254883
1519672404348,1.478027,1.869629,0.319092
1519672404413,1.025635,1.244141,0.398193
1519672404415,0.594971,0.684570,0.377686
1519672404449,0.483398,0.379150,0.346436
1519672404482,0.398682,0.110352,0.279053
1519672404515,0.382568,-0.073730,0.178711
1519672404548,0.451660,-0.351563,0.189453
1519672404582,0.548828,-0.477051,0.191650
1519672404613,0.881836,0.180908,0.311523
1519672404647,0.950684,0.891602,0.337402
1519672404679,1.095459,1.537842,0.579590
1519672404712,1.267822,1.545410,0.847900
1519672404745,0.715332,1.522461,0.675537
1519672404751,0.517090,1.796143,0.656982
1519672404809,0.160645,1.227783,0.362549
1519672404841,-0.110596,0.902588,0.116943
1519672404874,-0.291504,0.705811,-0.028564
1519672404908,-0.604004,0.449707,-0.195068
1519672404922,-0.853027,0.386963,-0.433838
1519672404956,-1.007813,0.275391,-0.588135
1519672404989,-0.921387,0.500488,-0.533203
1519672405021,-0.806152,0.975098,-0.437012
1519672405057,0.011963,3.211426,-0.819580
1519672405089,0.735352,2.603760,-0.185791
1519672405123,0.989502,2.495117,0.283203
1519672405155,1.262939,1.711426,0.561035
1519672405186,0.701172,0.659424,0.551270
1519672405219,0.597900,0.370117,0.473145
1519672405252,0.636475,0.101318,0.500244
1519672405286,0.913818,0.011719,0.470703
1519672405321,0.908447,-0.192871,0.335449
1519672405334,0.924561,-0.240723,0.151367
1519672405390,0.998535,0.135010,0.094971
1519672405406,0.917725,0.677490,0.077393
1519672405439,1.143555,2.203857,0.122070
1519672405471,0.840576,2.500732,0.628906
1519672405504,0.288818,2.498535,0.512695
1519672405537,0.115479,2.546631,0.295898
1519672405570,-0.295166,1.408691,0.075195
1519672405606,-0.336182,0.615967,-0.227539
1519672405639,-0.703613,0.977051,-0.436523
1519672405695,-0.762695,0.307617,-0.082031
1519672405700,-0.859619,0.034668,-0.248291
1519672405729,-1.002930,-0.169189,-0.378174
1519672405772,-0.861816,-0.004883,-0.353516
1519672405804,-0.882080,0.569336,-0.378418
1519672405836,-0.528809,2.653320,-0.940674
1519672405869,-0.042969,2.580078,-0.819092
1519672405902,0.529541,2.893066,-0.422119
1519672405935,0.642822,2.104004,-0.260254
1519672405967,0.430664,1.120605,0.395264
1519672406000,0.327148,0.823975,0.416504
1519672406036,0.396729,0.497314,0.305664
1519672406110,0.659424,-0.024658,0.283203
1519672406115,0.747803,-0.285156,0.201172
1519672406143,0.796875,-0.139160,0.201660
1519672406153,0.871338,0.227051,0.160400
1519672406206,0.607910,0.604004,0.195313
1519672406209,0.984863,1.856201,0.190430
1519672406264,0.771240,2.677979,0.632813
1519672406267,0.217773,2.221436,0.423584
1519672406338,0.138428,2.192383,0.184814
1519672406408,-0.081543,1.704834,0.075195
1519672406411,-0.335938,1.060547,-0.072998
1519672406477,-0.441895,0.659912,-0.251465
1519672406482,-0.701172,0.205322,-0.470459
1519672406487,-0.869873,-0.035645,-0.524902
1519672406545,-1.073975,-0.002441,-0.401123
1519672406553,-0.910645,0.432861,-0.515137
1519672406612,-0.805176,0.753418,-0.444092
1519672406615,-0.554688,1.891846,-0.499023
1519672406630,0.679688,2.823975,-0.661865
1519672406687,0.951660,3.103760,-0.180908
1519672406692,1.236328,2.269043,0.156982
1519672406750,0.753174,1.218750,0.229248
1519672406783,0.542969,0.908936,0.346680
1519672406787,0.585205,0.554932,0.492920
1519672406817,0.630859,-0.051270,0.623291
1519672406851,0.748291,-0.135498,0.551270
1519672406884,0.743164,-0.237305,0.415527
1519672406917,0.925537,-0.106445,0.171387
1519672406950,0.970947,0.388916,0.153076
1519672406979,0.809082,1.117676,0.070801
1519672407036,1.432129,2.089111,0.525635
1519672407068,0.748047,2.675049,0.334961
1519672407071,0.147217,2.523193,0.002930
1519672407128,0.048584,1.781250,-0.160156
1519672407160,-0.246582,1.283203,-0.164063
1519672407165,-0.426514,0.878418,-0.211182
1519672407220,-0.613525,0.302734,-0.234619
1519672407251,-0.836670,0.069092,-0.315430
1519672407284,-0.916504,-0.028076,-0.378418
1519672407317,-0.916260,0.101074,-0.476807
1519672407349,-0.740234,0.484863,-0.473389
1519672407382,-0.428955,1.623535,-0.440186
1519672407415,0.880615,2.737061,-0.665283
1519672407448,0.863770,2.658203,-0.398682
1519672407482,0.947510,2.219971,0.066895
1519672407515,0.729004,1.416016,0.350342
1519672407547,0.451660,1.098389,0.403320
1519672407580,0.521484,0.784668,0.511475
1519672407613,0.496826,0.262939,0.612305
1519672407645,0.527344,0.047607,0.512207
1519672407654,0.600586,-0.113770,0.348633
1519672407703,0.860352,-0.226563,0.172607
1519672407735,0.895752,0.100098,0.155273
1519672407740,1.223877,0.907959,-0.120361
1519672407799,1.358887,2.251465,0.247559
1519672407831,0.768799,2.243408,0.234863
1519672407867,0.458984,2.279541,0.088135
1519672407899,0.163818,1.868652,0.033936
1519672407929,-0.212891,1.285889,-0.121338
1519672407965,-0.447754,0.952393,-0.355469
1519672407999,-0.589355,0.495605,-0.517822
1519672408031,-0.906982,0.187256,-0.610107
1519672408064,-1.028320,0.051270,-0.540283
1519672408072,-0.931641,0.275635,-0.564209
1519672408127,-0.721924,0.654785,-0.582275
1519672408160,-0.293213,1.869385,-0.486328
1519672408194,0.808594,2.669189,-0.771484
1519672408227,0.931641,2.636475,-0.493896
1519672408232,1.072021,2.276855,-0.066406
1519672408283,0.996826,1.373291,0.238770
1519672408295,0.587891,0.922363,0.346191
1519672408346,0.520264,0.533447,0.327393
1519672408380,0.645752,-0.157471,0.479248
1519672408412,0.883301,-0.369873,0.478271
1519672408441,0.806885,-0.315186,0.496338
1519672408474,1.177490,0.030762,0.233643
1519672408507,1.090332,0.335938,-0.057373
1519672408540,1.346924,1.687988,-0.749512
1519672408574,1.875488,2.222168,0.320801
1519672408607,1.298828,1.901123,0.895020
1519672408616,0.840820,2.230469,0.388184
1519672408667,0.380859,2.069336,-0.110107
1519672408699,-0.108887,1.275635,-0.241455
1519672408708,-0.363281,0.888672,-0.398193
1519672408763,-0.616211,0.522217,-0.524170
1519672408771,-0.908447,0.260010,-0.549316
1519672408827,-1.071533,0.182861,-0.447754
1519672408860,-0.875977,0.284424,-0.412354
1519672408867,-0.761719,0.478027,-0.378418
1519672408904,-0.450928,1.073730,-0.246094
1519672408938,0.444092,2.883301,-0.514160
1519672408972,1.758057,3.312744,-0.224609
1519672409029,1.867188,3.052490,0.172852
1519672409040,1.281006,1.389404,0.458008
1519672409068,0.800781,0.784668,0.533691
1519672409127,0.612549,0.398926,0.489502
1519672409157,0.825439,-0.074219,0.689941
1519672409170,0.865723,-0.456299,0.763672
1519672409202,0.790039,-0.953125,0.697021
1519672409259,1.022461,-0.844971,0.232422
1519672409263,1.242188,-0.251953,0.039063
1519672409293,1.690430,1.016602,-0.087646
1519672409352,2.205078,2.595703,0.534180
1519672409361,1.417480,2.073242,0.572754
1519672409409,0.774902,2.256592,0.405762
1519672409441,0.480469,2.054932,0.314209
1519672409474,-0.113525,1.375977,0.107666
1519672409482,-0.519775,1.021973,-0.192383
1519672409533,-0.791016,0.670410,-0.527100
1519672409566,-1.150391,0.520752,-0.576904
1519672409598,-1.242188,0.431396,-0.475586
1519672409634,-0.794922,0.750244,-0.342285
1519672409637,-0.213135,1.623047,-0.207275
1519672409694,0.331055,2.475098,-0.204346
1519672409725,1.645996,2.903564,-0.316406
1519672409735,1.557617,2.669434,0.324707
1519672409789,1.762207,1.910645,0.417969
1519672409823,1.077148,0.907227,0.248291
1519672409857,0.874756,0.387451,0.315430
1519672409865,0.786377,0.004150,0.343994
1519672409921,0.729492,-0.291748,0.152100
1519672409953,0.755615,-0.431396,0.053711
1519672409986,0.911865,-0.686523,0.067383
1519672410018,0.980957,-0.677002,0.132568
1519672410050,0.947021,-0.205322,0.066895
1519672410054,1.720459,1.449463,0.216309
1519672410110,1.999512,2.815186,0.437256
1519672410143,1.016846,2.689453,0.197754
1519672410148,0.667480,2.445801,0.179932
1519672410206,0.135498,1.617920,0.061279
1519672410240,-0.313965,1.115234,-0.207520
1519672410271,-0.615479,0.787598,-0.306641
1519672410304,-1.062500,0.370361,-0.512207
1519672410318,-1.153076,0.226563,-0.514893
1519672410350,-1.043213,0.437988,-0.569580
1519672410383,-0.687256,1.078613,-0.534180
1519672410440,-0.135742,1.947754,-0.390869
1519672410473,0.859131,3.208252,-0.533203
1519672410478,1.509521,2.305420,-0.047119
1519672410535,1.522949,2.153809,0.317383
1519672410569,1.445557,1.627686,0.281250
1519672410602,0.758301,0.770264,0.256592
1519672410635,0.640137,0.232910,0.428223
1519672410644,0.549805,-0.181885,0.515869
1519672410694,0.613037,-0.600342,0.332520
1519672410727,0.667236,-0.732422,0.230957
1519672410736,1.011230,-0.681885,0.117676
1519672410787,1.300293,0.080566,0.130859
1519672410813,1.604980,0.973877,-0.086182
1519672410848,1.852051,2.182373,0.489502
1519672410881,1.183105,2.137939,0.534424
1519672410915,0.786621,2.171631,0.327148
1519672410947,0.517578,2.156738,0.287109
1519672410980,0.000244,1.359131,0.015137
1519672411013,-0.345459,0.986572,-0.183594
1519672411046,-0.563721,0.704834,-0.338867
1519672411119,-1.037109,0.394531,-0.623779
1519672411127,-1.090820,0.236816,-0.666260
1519672411185,-1.071777,0.392090,-0.597412
1519672411192,-0.661377,0.994141,-0.405273
1519672411252,0.167236,2.945313,-0.470703
1519672411255,1.743652,3.500732,-0.510986
1519672411321,1.603027,2.572021,0.382080
1519672411324,1.706543,1.777588,0.596191
1519672411389,1.162842,1.040283,0.422119
1519672411398,0.783691,0.199707,0.500488
1519672411454,0.596191,-0.247559,0.539551
1519672411457,0.579102,-0.472656,0.345947
1519672411523,0.555176,-0.748291,0.136963
1519672411532,0.855957,-0.719727,0.020020
1519672411576,1.128662,-0.440918,-0.027344
1519672411584,1.490479,0.790039,-0.098389
1519672411591,2.019531,2.160889,0.252930
1519672411611,1.614746,2.198975,0.561523
1519672411669,0.857178,2.165039,0.496582
1519672411678,0.727783,2.227783,0.459473
1519672411706,0.252197,1.783936,0.284912
1519672411764,-0.298828,1.101807,-0.103027
1519672411770,-0.432861,0.823975,-0.181152
1519672411799,-0.726807,0.578369,-0.334229
1519672411832,-0.945313,0.429688,-0.497803
1519672411866,-0.903320,0.396729,-0.419922
1519672411899,-0.739014,0.565674,-0.302979
1519672411931,-0.177490,1.732910,-0.338867
1519672411966,0.793701,3.210938,-0.560791
1519672411997,1.585938,2.675781,-0.470947
1519672412031,1.385254,2.131836,-0.040039
1519672412063,1.537354,1.629395,0.084229
1519672412096,1.076172,1.073242,0.228516
1519672412129,0.730957,0.458740,0.373291
1519672412160,0.673096,-0.041260,0.446777
1519672412193,0.744629,-0.390625,0.384033
1519672412225,0.622070,-0.548828,0.271729
1519672412257,0.815430,-0.610107,0.221191
1519672412290,0.998047,-0.296387,0.200195
1519672412323,1.088379,0.471436,0.072754
1519672412355,1.531982,1.864746,0.332520
1519672412388,1.414307,2.301514,0.492920
1519672412420,0.732178,2.427246,0.212646
1519672412451,0.572754,2.264893,0.137939
1519672412484,0.146240,1.725098,0.073975
1519672412517,-0.412598,1.115479,-0.208496
1519672412551,-0.657959,0.774170,-0.331787
1519672412561,-0.940430,0.496338,-0.493896
1519672412615,-0.987061,0.265625,-0.553955
1519672412648,-0.852783,0.398682,-0.537354
1519672412659,-0.677734,0.556396,-0.432617
1519672412717,-0.554688,1.219238,-0.387451
1519672412730,0.264893,3.119141,-0.646484
1519672412765,1.188232,2.826172,-0.480957
1519672412798,1.268555,2.455078,0.083008
1519672412831,1.128418,1.594727,0.281982
1519672412863,0.837402,0.917969,0.244873
1519672412896,0.697998,0.372803,0.367676
1519672412930,0.718262,-0.033203,0.462891
1519672412962,0.678955,-0.470215,0.450195
1519672412995,0.606201,-0.668945,0.275391
1519672413026,0.858398,-0.507080,0.093018
1519672413058,0.956543,-0.076660,0.047119
1519672413091,1.302002,1.412842,-0.125000
1519672413131,1.468994,2.396729,0.194092
1519672413139,0.855713,2.282471,0.176514
1519672413193,0.172607,2.370117,-0.064453
1519672413227,0.046143,2.206055,-0.030762
1519672413258,-0.295410,1.516602,-0.026123
1519672413291,-0.438965,0.717529,-0.000488
1519672413323,-0.487549,0.432861,0.002930
1519672413373,-0.462402,0.352783,0.056885
1519672413376,-0.495850,0.182373,0.215088
1519672413407,-0.529297,0.064209,0.092773
1519672413440,-0.729004,0.162109,0.080811
1519672413473,-0.824463,1.974854,0.172852
1519672413507,0.887451,3.687744,-0.062744
1519672413539,0.660889,2.623291,-0.108154
1519672413571,0.312256,2.129150,-0.323975
1519672413603,0.761963,1.182373,-0.145020
1519672413636,0.359619,0.734375,-0.011963
1519672413668,0.403320,0.194824,0.341064
1519672413701,0.551270,-0.025879,0.496338
1519672413737,0.799561,-0.432617,0.401123
1519672413769,1.067383,-0.687500,0.108154
1519672413802,1.014893,-0.327881,0.169678
1519672413834,1.050537,0.413574,0.034668
1519672413870,1.388428,2.001221,0.398438
1519672413901,1.285889,2.091064,0.464844
1519672413934,0.815674,2.272705,0.128662
1519672413965,0.547363,2.288086,-0.064941
1519672413998,0.082275,1.717041,-0.052734
1519672414006,-0.198975,1.279541,-0.097412
1519672414060,-0.309326,0.786133,-0.234131
1519672414094,-0.614502,0.522949,-0.392578
1519672414104,-0.974121,0.333496,-0.500732
1519672414158,-1.049561,0.261475,-0.459229
1519672414189,-0.944092,0.256348,-0.409180
1519672414222,-0.737793,0.628174,-0.392822
1519672414253,0.441162,3.038330,-0.831299
1519672414287,1.587646,3.103760,-0.995850
1519672414320,1.357910,3.019287,-0.581543
1519672414333,1.233398,1.504395,-0.380371
1519672414366,0.870850,0.858643,-0.158691
1519672414425,0.650391,0.557129,0.032715
1519672414458,0.582764,0.206787,0.238525
1519672414467,0.556152,-0.005615,0.330322
1519672414520,0.494873,-0.260742,0.232666
1519672414553,0.657471,-0.372070,0.077881
1519672414586,0.663574,-0.048340,0.032959
1519672414591,0.563477,0.317871,0.075928
1519672414655,0.892822,2.062744,0.398193
1519672414664,1.147705,1.808838,0.304932
1519672414700,0.724121,2.112793,0.235596
1519672414734,0.375977,1.994385,0.194336
1519672414748,-0.052490,1.626221,0.114746
1519672414805,-0.266113,1.346191,0.002441
1519672414837,-0.708496,0.889404,-0.137207
1519672414846,-1.061035,0.519287,-0.490234
1519672414900,-1.374268,0.356201,-0.899902
1519672414933,-1.053955,0.384766,-0.796143
1519672414966,-0.695557,0.557861,-0.754150
1519672414999,-0.341309,1.402344,-0.905029
1519672415032,1.113037,2.922119,-1.672607
1519672415040,1.648682,2.175293,-1.040527
1519672415067,1.459717,2.015625,-0.748779
1519672415124,0.910400,1.437988,-0.553223
1519672415134,0.677246,1.033447,-0.247559
1519672415169,0.728027,0.831787,0.238525
1519672415202,0.738770,0.435303,0.782959
1519672415236,0.528076,-0.042969,0.515625
1519672415267,0.583496,-0.368164,0.300781
1519672415327,0.792480,-0.086426,0.245361
1519672415330,0.854736,0.084229,0.336670
1519672415364,0.738281,0.281250,0.035889
1519672415410,1.192139,2.228516,-0.183350
1519672415445,1.254150,2.367432,-0.077881
1519672415493,0.914551,2.056641,0.234375
1519672415502,0.852295,2.070801,0.098877
1519672415530,0.318359,1.673828,-0.175049
1519672415576,-0.164063,1.272705,-0.383545
1519672415612,-0.435059,0.792969,-0.416504
1519672415658,-0.619629,0.453125,-0.354248
1519672415667,-0.921875,0.154297,-0.263672
1519672415723,-1.059082,0.103516,-0.412109
1519672415728,-0.989014,0.283936,-0.491943
1519672415775,-0.711914,0.807129,-0.498779
1519672415820,0.361084,2.847168,-1.134277
1519672415822,1.179443,2.895020,-0.811035
1519672415855,1.236572,2.526123,-0.182373
1519672415903,0.912354,1.601563,-0.065186
1519672415908,0.726074,1.049072,0.029297
1519672415999,0.645020,0.707275,0.272705
1519672416007,0.812744,0.395508,0.464600
1519672416015,0.852539,-0.008057,0.503662
1519672416028,0.794922,-0.269043,0.463379
1519672416094,0.928711,-0.355469,0.296143
1519672416199,1.062256,-0.262207,0.309082
1519672416266,1.013428,0.062256,0.315674
1519672416274,1.767822,1.244873,-0.410645
1519672416363,2.129150,2.248779,-0.614990
1519672416372,1.932617,2.258301,-0.213867
1519672416430,1.204590,2.753906,-1.026367
1519672416433,0.418457,2.126465,-0.968750
1519672416497,-0.081055,1.430420,-0.707275
1519672416513,-0.455811,0.739990,-0.444092
1519672416565,-0.668213,0.476074,-0.419434
1519672416570,-0.810303,0.272217,-0.388672
1519672416632,-0.925293,0.207764,-0.202881
1519672416637,-1.132568,-0.234375,-0.064941
1519672416654,-1.195313,-0.779541,0.192627
1519672416658,-0.312744,-0.683594,0.442627
1519672416668,1.255615,1.134766,-0.930176
1519672416670,2.860107,4.687012,-3.787842
1519672416672,2.179443,1.519531,-2.145264
1519672416691,2.768066,-4.989258,-1.266357
1519672416724,1.163574,-0.995850,-0.324463
1519672416756,0.149170,-0.033691,-0.138428
1519672416789,-0.349365,0.806885,0.101563
1519672416831,0.127686,0.756836,0.148193
1519672416836,0.484863,-0.182861,-0.468994
1519672416894,0.507080,-0.581543,-0.836670
1519672416927,0.995361,-0.440674,-0.310303
1519672416960,1.152832,-0.089111,-0.328613
1519672416992,1.150635,0.573975,0.011475
1519672417001,1.012695,1.478760,0.313965
1519672417051,0.619385,1.861328,0.872314
1519672417083,0.454590,1.600830,0.803955
1519672417088,0.254883,1.489990,0.789307
1519672417145,-0.219482,1.236816,0.512939
1519672417177,-0.464355,0.890381,0.283691
1519672417214,-0.654785,0.285400,0.029053
1519672417229,-0.937500,0.068359,-0.114014
1519672417259,-0.897949,0.111816,-0.190186
1519672417292,-0.694092,0.408203,-0.302246
1519672417324,-0.496338,1.007080,-0.138672
1519672417357,0.214355,2.646484,-0.290039
1519672417390,0.604736,2.434326,-0.071533
1519672417423,0.427490,2.027832,-0.045410
1519672417456,0.472656,1.849365,0.316650
1519672417487,0.353027,1.417725,0.384521
1519672417520,0.253662,0.847900,0.613525
1519672417553,0.303223,0.479248,0.611084
1519672417591,0.522705,0.116699,0.438721
1519672417622,0.769531,-0.233398,0.229004
1519672417636,0.970215,-0.231934,-0.002930
1519672417669,1.114746,0.078857,-0.196777
1519672417725,1.001465,0.833984,-0.085205
1519672417758,0.913574,1.633545,-0.250732
1519672417790,0.707031,2.223877,-0.315430
1519672417823,-0.178711,2.390381,-0.188965
1519672417856,-0.090820,2.313232,-0.187988
1519672417890,-0.101807,1.943604,-0.113770
1519672417922,-0.114258,1.341309,-0.077148
1519672417955,-0.111572,0.815674,-0.069092
1519672417963,-0.206299,0.495361,-0.080078
1519672418013,-0.425293,0.070557,-0.134766
1519672418046,-0.683350,-0.094238,-0.314941
1519672418060,-0.863525,-0.061768,-0.393311
1519672418117,-0.903564,0.450195,-0.405273
1519672418126,-0.662109,2.136475,-0.582520
1519672418153,0.317139,3.241943,-0.596924
1519672418210,0.575439,2.980957,-0.301758
1519672418243,0.799805,2.375000,0.169922
1519672418252,0.891602,1.621094,0.542969
1519672418306,0.725586,0.687744,0.686035
1519672418340,0.707520,0.220215,0.743408
1519672418371,0.789063,-0.069092,0.544922
1519672418404,0.926514,-0.302734,0.321045
1519672418438,0.901855,-0.347900,0.181885
1519672418450,0.865723,-0.248291,0.090332
1519672418494,0.790771,0.030518,0.084961
1519672418526,0.731689,0.627197,0.054443
1519672418533,0.766113,1.742676,0.139893
1519672418592,0.585938,2.383057,0.160156
1519672418625,0.252197,2.754883,0.139160
1519672418634,-0.093018,2.592041,0.040283
1519672418704,-0.421143,1.833496,-0.186523
1519672418707,-0.661133,1.273926,-0.314453
1519672418737,-0.895264,0.911377,-0.405273
1519672418770,-0.996826,0.541504,-0.430420
1519672418803,-1.012451,0.318359,-0.407715
1519672418836,-0.957275,0.281250,-0.473389
1519672418877,-0.694824,0.522949,-0.552734
1519672418909,-0.459229,1.014160,-0.743408
1519672418942,0.018311,2.204834,-0.796387
1519672418974,1.531982,3.195557,-0.810303
1519672418982,1.422852,2.637207,-0.546143
1519672419038,1.628662,2.206055,-0.220459
1519672419071,1.179443,1.243896,0.134277
1519672419103,0.871582,0.713623,0.495850
1519672419135,0.707764,0.187012,0.717529
1519672419155,0.713623,-0.377930,0.784912
1519672419188,0.808838,-0.565674,0.583008
1519672419220,1.066406,-0.595947,0.235596
1519672419253,1.520264,0.256592,0.009277
1519672419294,1.625244,1.169678,0.140137
1519672419327,1.489502,1.548096,0.337158
1519672419367,0.978760,1.944824,0.536377
1519672419400,0.279053,1.882568,0.367920
1519672419404,0.199951,2.057129,0.302734
1519672419459,0.072510,1.485596,0.065430
1519672419492,-0.348877,1.122559,-0.273438
1519672419501,-0.775879,1.013184,-0.402588
1519672419558,-1.064697,0.723877,-0.457520
1519672419563,-1.090332,0.515869,-0.425537
1519672419620,-1.149902,0.532715,-0.545654
1519672419652,-0.815186,0.876465,-0.563477
1519672419659,-0.547363,1.291504,-0.629639
1519672419700,0.223145,3.175781,-0.640137
1519672419733,2.239258,3.159424,-0.527588
1519672419774,1.572266,2.422119,-0.317871
1519672419806,1.763184,1.914795,-0.072510
1519672419839,1.240234,1.066650,0.228516
1519672419871,1.070313,0.390137,0.434570
1519672419904,1.088623,-0.321045,0.497559
1519672419936,1.044922,-0.672363,0.486328
1519672419969,1.130371,-0.733154,0.379150
1519672420000,1.200439,-0.494385,0.118896
1519672420034,1.142090,-0.005127,0.205322
1519672420066,1.258057,1.099121,0.035400
1519672420099,1.511963,2.387207,0.291748
1519672420131,0.737549,2.503906,0.231201
1519672420164,0.301025,2.597900,0.035400
1519672420196,0.205566,2.185059,0.088623
1519672420229,-0.290283,1.338867,-0.047363
1519672420261,-0.555664,0.879150,-0.253906
1519672420293,-0.810791,0.628418,-0.381348
1519672420325,-1.274414,0.437988,-0.616699
1519672420357,-1.289307,0.318115,-0.632568
1519672420360,-1.044678,0.465576,-0.643311
1519672420417,-0.374756,1.603760,-0.537598
1519672420451,0.615234,3.512207,-0.619873
1519672420465,1.874756,3.169434,-0.334961
1519672420523,1.679932,2.418213,0.027344
1519672420532,1.589355,1.865479,0.163574
1519672420583,1.103027,1.109619,0.246338
1519672420616,0.761719,0.309082,0.414063
1519672420625,0.606689,-0.196045,0.406982
1519672420679,0.565918,-0.414551,0.283203
1519672420711,0.677979,-0.492920,0.190186
1519672420744,0.738037,-0.439697,0.087891
1519672420776,0.816406,-0.250977,0.058350
1519672420809,0.662842,0.653320,0.081055
1519672420841,0.998291,2.019043,0.142578
1519672420856,0.958496,2.334229,0.534424
1519672420914,0.106445,2.287109,0.541504
1519672420946,0.243652,2.145508,0.610596
1519672420955,0.051758,1.608887,0.490234
1519672421005,-0.443115,0.939209,-0.049805
1519672421013,-0.794434,0.869141,-0.297119
1519672421081,-1.015625,0.464844,-0.348389
1519672421153,-1.024414,0.228027,-0.372559
1519672421161,-0.845459,0.323486,-0.339600
1519672421216,-0.595459,0.556885,-0.289063
1519672421222,-0.376709,1.180664,-0.380127
1519672421285,0.325439,2.894775,-0.466064
1519672421292,1.055664,2.244629,-0.127686
1519672421351,0.616211,2.297607,0.035400
1519672421359,0.727295,2.067871,0.148438
1519672421419,0.446777,1.257813,0.221924
1519672421422,0.256348,0.774658,0.308350
1519672421487,0.385986,0.337891,0.395752
1519672421496,0.457764,-0.152832,0.384766
1519672421556,0.718506,-0.158203,0.493408
1519672421564,0.860596,-0.591553,0.196777
1519672421581,1.010742,-0.311035,0.094971
1519672421586,0.924805,0.671875,0.120850
1519672421613,1.297119,2.244873,-0.307129
1519672421617,0.896729,2.921875,-0.296387
1519672421674,0.141846,2.595459,-0.195801
1519672421707,-0.034668,2.265381,-0.186035
1519672421721,-0.227539,1.618164,-0.173340
1519672421754,-0.551270,0.799805,-0.260498
1519672421812,-0.632324,0.433105,-0.366943
1519672421816,-0.770752,-0.008301,-0.494141
1519672421871,-0.919922,-0.044922,-0.418945
1519672421904,-0.796387,0.234375,-0.357422
1519672421912,-0.706055,0.431641,-0.501953
1519672421962,-0.479980,1.559570,-0.859863
1519672421995,0.244385,2.913818,-1.130615
1519672422027,1.071533,2.900635,-0.883057
1519672422060,0.975342,2.423340,-0.515869
1519672422090,0.841797,1.790771,-0.365723
1519672422124,0.638428,1.213623,-0.022949
1519672422138,0.634277,0.686035,0.385498
1519672422171,0.636963,0.138184,0.450928
1519672422228,0.770752,-0.328125,0.447510
1519672422233,0.817383,-0.741699,0.293701
1519672422291,0.962891,-0.625244,0.143311
1519672422332,1.089600,-0.187988,0.149658
1519672422335,1.404053,1.570068,-0.092041
1519672422391,1.545654,2.644775,0.028076
1519672422394,0.966553,2.318115,0.181641
1519672422452,0.395264,2.503174,-0.019043
1519672422486,0.067871,2.155273,-0.145020
1519672422494,-0.220459,1.384766,-0.155762
1519672422543,-0.510742,0.727539,-0.249512
1519672422577,-0.750000,0.450928,-0.343750
1519672422609,-1.007813,0.292236,-0.419189
1519672422618,-0.999512,0.325195,-0.554932
1519672422671,-0.895264,0.546143,-0.688965
1519672422703,-0.719727,0.849609,-0.642578
1519672422736,-0.131592,2.675293,-1.205811
1519672422768,0.847168,2.435303,-1.212646
1519672422784,1.021484,2.485840,-1.030518
1519672422817,1.452393,2.070313,-0.847412
1519672422850,1.607666,1.289307,-0.423096
1519672422884,1.262207,0.843506,0.046631
1519672422917,1.239502,0.094971,0.869629
1519672422958,0.857910,0.041260,0.549805
1519672422990,0.737305,-0.090576,0.511963
1519672423022,0.514648,0.010254,-0.121094
1519672423054,0.798584,0.503662,-0.223633
1519672423086,0.783203,0.749268,0.295166
1519672423118,0.632568,1.146973,0.235107
1519672423150,0.583740,1.830322,0.046387
1519672423183,0.450928,1.603027,-0.481445
1519672423216,0.475342,1.701904,-0.554443
1519672423249,0.102539,1.867920,-0.539063
1519672423281,-0.164551,1.090332,-0.794189
1519672423314,-0.297119,0.590576,-0.647949
1519672423356,-0.104248,0.502441,0.125244
1519672423362,-0.392090,0.230225,-0.168213
1519672423417,-0.460205,0.145264,-0.290283
1519672423450,-0.343994,0.345947,-0.539307
1519672423454,-0.082275,0.599609,-0.947510
1519672423510,0.354980,0.758789,-1.539307
1519672423518,0.302979,0.985352,-1.302979
1519672423573,0.699219,1.478516,-1.111572
1519672423614,0.687012,1.640137,-1.070313
1519672423622,0.682373,1.453125,-0.698975
1519672423648,0.472168,1.149170,-0.551025
1519672423679,0.284668,0.588379,0.100342
1519672423736,0.199951,0.021484,0.089844
1519672423749,0.391602,-0.337891,0.012207
1519672423782,0.829102,0.023438,0.077148
1519672423814,1.116455,0.370850,-0.018555
1519672423847,1.325439,0.422852,-0.728027
1519672423881,1.040039,1.072998,-1.343750
1519672423913,1.005127,1.191895,-1.469482
1519672423947,0.548340,1.201172,-1.678467
1519672423979,0.051025,0.849609,-1.433838
1519672424010,-0.075928,0.631348,-1.012207
1519672424043,-0.427002,0.466064,-0.573242
1519672424075,-0.509033,0.246094,-0.229248
1519672424107,-0.552246,0.026855,-0.336670
1519672424140,-0.406494,-0.036621,-0.401367
1519672424181,-0.073242,0.111572,-0.824219
1519672424213,0.242920,0.228027,-1.041260
1519672424245,1.054932,0.235107,-1.783936
1519672424278,1.243164,0.610840,-1.430664
1519672424311,1.156738,1.490234,-1.011963
1519672424317,1.144531,1.831543,-0.874756
1519672424374,1.101074,2.062744,-0.176758
1519672424382,0.818848,1.797852,0.004883
1519672424411,0.442627,0.679443,0.259766
1519672424470,0.760742,0.489990,-0.084717
1519672424474,1.098633,-0.182373,0.114502
1519672424533,1.348389,-0.541260,0.401367
1519672424567,1.406982,-0.217285,-0.079590
1519672424580,1.472656,0.026611,-0.478271
1519672424612,1.873535,0.607910,-0.558350
1519672424646,1.529297,1.822754,-0.494873
1519672424678,1.009521,2.125244,-0.471191
1519672424709,0.733643,2.446289,-0.397949
1519672424767,0.303223,2.103027,-0.540527
1519672424798,-0.187744,1.627686,-0.656494
1519672424801,-0.522705,0.943848,-0.739502
1519672424857,-1.004639,0.329834,-1.076172
1519672424892,-1.416992,-0.094727,-1.112305
1519672424895,-1.384766,-0.016846,-0.979248
1519672424952,-1.055420,0.181152,-0.825439
1519672424960,-0.709229,0.712891,-0.726563
1519672424997,0.062744,2.658447,-0.981934
1519672425056,1.299805,3.589844,-0.272461
1519672425064,1.219238,3.225830,0.165283
1519672425112,1.117920,2.497070,0.271240
1519672425145,0.772461,1.167236,0.384033
1519672425177,0.608887,0.662842,0.503174
1519672425209,0.502686,0.297119,0.413818
1519672425242,0.763428,-0.200684,0.403564
1519672425276,0.791504,-0.457031,0.247314
1519672425312,0.836670,-0.733398,-0.035645
1519672425345,0.944824,-0.414063,0.068115
1519672425378,0.735596,0.438965,0.346191
1519672425386,1.351318,2.291016,0.467285
1519672425436,0.915039,3.011963,0.363770
1519672425440,0.023438,2.883301,0.362793
1519672425494,0.046631,2.651855,0.475098
1519672425527,-0.183350,1.581543,0.102783
1519672425560,-0.332764,0.862305,-0.199219
1519672425592,-0.449463,0.534912,-0.402100
1519672425625,-0.714111,0.182373,-0.639404
1519672425659,-0.981689,0.036865,-0.838867
1519672425691,-1.114990,0.042725,-0.890869
1519672425723,-0.767090,0.533936,-0.530029
1519672425756,-0.613770,1.763916,-0.463379
1519672425761,0.166748,2.959717,-0.465820
1519672425813,1.202881,3.093750,0.007324
1519672425846,1.305176,2.745361,0.311768
1519672425852,1.025635,1.588379,0.443848
1519672425910,0.679932,0.817383,0.542236
1519672425942,0.520752,0.366943,0.484131
1519672425975,0.603760,-0.066162,0.397217
1519672426008,0.891846,-0.512451,0.271484
1519672426040,0.975098,-0.803955,0.162842
1519672426113,1.186768,-0.659912,0.103516
1519672426118,1.227783,0.440674,0.033447
1519672426181,1.739990,2.361816,0.173096
1519672426186,1.737793,2.966553,0.345459
1519672426247,0.305664,2.616943,0.381592
1519672426316,0.210205,2.249756,0.299805
1519672426384,0.017334,1.792725,0.008057
1519672426389,-0.451660,0.981445,-0.386963
1519672426451,-0.622070,0.650146,-0.514648
1519672426456,-0.862793,0.162354,-0.730713
1519672426517,-1.055664,-0.126221,-0.697998
1519672426520,-0.917725,-0.020752,-0.525391
1519672426585,-0.681641,0.172363,-0.408447
1519672426589,-0.364746,1.588867,-0.529297
1519672426612,0.368408,3.476563,-0.754395
1519672426615,1.628906,3.523193,-0.354736
1519672426619,1.318115,2.641357,0.037842
1519672426622,1.057617,1.714844,0.025391
1519672426651,0.743652,0.900391,0.207764
1519672426667,0.555664,0.301025,0.372314
1519672426725,0.564453,-0.052734,0.314453
1519672426757,0.711914,-0.444092,0.215576
1519672426789,1.007813,-0.840576,0.010986
1519672426794,1.180420,-0.619385,-0.021729
1519672426822,1.084717,-0.010498,0.142822
1519672426879,1.389404,1.916748,0.099365
1519672426882,1.417969,2.671387,0.277832
1519672426938,0.646240,2.642822,0.224121
1519672426971,0.403320,2.521484,0.122314
1519672427004,0.133057,1.834961,-0.001709
1519672427037,-0.318848,1.124268,-0.260498
1519672427070,-0.496826,0.719971,-0.371094
1519672427084,-0.841797,0.416016,-0.458740
1519672427141,-1.178223,0.188721,-0.530029
1519672427173,-1.225098,0.249023,-0.583984
1519672427205,-1.093018,0.541504,-0.586182
1519672427214,-0.631836,1.089355,-0.675293
1519672427272,0.276611,3.313721,-0.981201
1519672427303,1.536133,3.343262,-0.998535
1519672427307,1.458252,3.062256,-0.413330
1519672427363,1.515381,1.833984,0.275146
1519672427366,1.309570,1.110840,0.481201
1519672427399,1.094238,0.309814,0.403076
1519672427453,0.990967,-0.494873,0.517334
1519672427464,1.014893,-0.723877,0.484375
1519672427522,0.987549,-0.632324,0.277588
1519672427554,1.177002,-0.478027,0.060303
1519672427586,1.039063,-0.291748,0.110596
1519672427619,1.147217,0.779297,0.000000
1519672427651,1.779053,2.965820,0.357178
1519672427684,1.218018,2.436035,0.605225
1519672427718,0.329346,2.645508,0.476563
1519672427751,0.349121,2.452881,0.223145
1519672427785,-0.522217,1.440674,-0.074707
1519672427796,-0.796387,1.122803,-0.389648
1519672427842,-1.008057,0.697754,-0.612793
1519672427875,-1.198242,0.378418,-0.479980
1519672427889,-1.102051,0.347900,-0.301758
1519672427922,-0.754150,0.644043,-0.329834
1519672427955,-0.451416,1.164795,-0.331055
1519672427987,0.203613,3.411133,-0.495361
1519672428019,1.760742,2.831787,0.588379
1519672428052,1.603760,2.145752,0.554199
1519672428083,1.542236,1.770264,0.468994
1519672428115,1.002686,0.741211,0.352783
1519672428149,0.807373,0.251953,0.357178
1519672428164,0.732910,-0.099854,0.375732
1519672428222,0.796387,-0.698975,0.252686
1519672428254,0.862061,-0.979492,0.106934
1519672428260,1.150391,-0.872803,0.010742
1519672428318,1.065430,-0.405518,0.143799
1519672428350,1.385498,0.625732,0.191406
1519672428383,2.071045,2.484619,0.652588
1519672428416,1.532471,2.253662,0.836914
1519672428449,1.067383,2.231201,0.727051
1519672428480,0.706543,2.191162,0.479980
1519672428513,-0.028320,1.338623,-0.043457
1519672428546,-0.433350,1.028320,-0.334961
1519672428579,-0.734131,0.742188,-0.543945
1519672428611,-1.268555,0.495850,-0.731934
1519672428643,-1.264648,0.650146,-0.531494
1519672428676,-1.144043,1.021240,-0.447021
1519672428707,-0.361084,2.049561,-0.480713
1519672428733,0.673340,3.492676,-0.359863
1519672428765,1.743652,3.273926,-0.125732
1519672428797,1.974121,2.481934,0.298584
1519672428829,1.562256,1.695068,0.188232
1519672428862,1.138916,0.865479,0.093750
1519672428895,0.718750,0.133057,0.267578
1519672428928,0.579102,-0.222656,0.297119
1519672428961,0.622803,-0.435059,0.040771
1519672428993,0.833252,-0.823975,-0.159424
1519672429026,1.254639,-0.479980,-0.172852
1519672429058,1.460693,0.010254,-0.126465
1519672429090,1.365967,1.495850,-0.043945
1519672429132,1.473389,2.949219,0.508545
1519672429143,1.304688,2.032471,1.134766
1519672429199,0.676270,1.993408,1.525879
1519672429207,0.426758,2.039551,1.174072
1519672429262,-0.015137,1.309082,0.664063
1519672429295,-0.529785,0.615234,0.035156
1519672429301,-0.700195,0.315918,-0.224121
1519672429328,-0.971436,0.123779,-0.316650
1519672429361,-1.226807,0.155762,-0.082520
1519672429394,-1.229492,0.321777,-0.148926
1519672429426,-1.014893,0.464111,-0.493408
1519672429459,-0.409180,2.242676,-0.479492
1519672429492,0.877441,4.083252,-0.422119
1519672429533,2.028564,3.427002,-0.081055
1519672429565,1.633301,2.288818,0.182129
1519672429598,1.268555,1.433838,0.302002
1519672429631,0.853516,0.758301,0.530273
1519672429663,0.493896,0.357422,0.801514
1519672429696,0.470947,-0.041992,0.952881
1519672429728,0.634033,-0.583984,0.478027
1519672429761,1.063477,-0.812744,-0.129395
1519672429792,1.296631,-0.450928,-0.170166
1519672429824,1.125488,0.329346,0.187012
1519672429857,1.012207,1.236816,0.578613
1519672429890,0.813965,2.204346,1.041992
1519672429905,0.683350,2.405518,0.630371
1519672429963,0.479980,2.581055,0.646484
1519672430013,0.440430,2.007568,0.534424
1519672430018,-0.361328,1.253174,0.204102
1519672430047,-0.694580,0.879639,-0.233887
1519672430079,-0.967773,0.579590,-0.470215
1519672430115,-1.180664,0.299561,-0.661865
1519672430147,-1.265625,0.077393,-0.535400
1519672430188,-0.974121,0.339355,-0.335205
1519672430220,-0.546143,1.284424,-0.296387
1519672430253,-0.010010,2.890381,-0.465088
1519672430286,1.406006,3.313965,-0.557129
1519672430292,1.651855,3.120361,-0.155273
1519672430345,1.388428,1.765137,0.005615
1519672430378,0.907959,1.217041,0.108154
1519672430384,0.723389,0.830322,0.532959
1519672430441,0.705811,0.225098,0.697510
1519672430475,0.880127,-0.323242,0.573730
1519672430507,1.021729,-0.711914,0.447754
1519672430539,1.179199,-0.733887,0.139893
1519672430571,1.429688,-0.277588,0.008545
1519672430604,1.223633,0.708252,-0.050537
1519672430636,1.437256,2.624756,0.529053
1519672430669,1.456299,2.615479,0.949951
1519672430701,0.802002,2.390625,0.743164
1519672430734,0.676025,1.892578,0.446289
1519672430740,-0.002686,1.255615,0.195313
1519672430794,-0.311768,0.980957,-0.097656
1519672430825,-0.631104,0.748047,-0.624268
1519672430857,-0.934570,0.540771,-0.892090
1519672430890,-1.122070,0.417480,-0.806641
1519672430922,-0.932617,0.524170,-0.401855
1519672430955,-0.625244,0.860840,-0.299561
1519672430988,-0.395752,1.717529,0.063232
1519672431020,0.973633,3.746094,-0.146729
1519672431093,1.612793,3.154297,0.309082
1519672431099,1.706299,2.430664,0.507813
1519672431160,1.237305,1.271484,0.548584
1519672431229,0.864990,0.766113,0.493652
1519672431295,0.597900,0.283447,0.423584
1519672431301,0.718994,-0.257568,0.433838
1519672431363,0.885986,-0.503662,0.280029
1519672431369,0.895508,-0.651611,0.114502
1519672431430,1.045898,-0.576172,0.002441
1519672431436,1.048096,-0.108398,0.125488
1519672431499,1.060791,0.959961,0.143066
1519672431504,1.885498,2.975830,0.787842
1519672431566,1.237549,2.601563,0.751709
1519672431572,0.727051,2.361816,0.612793
1519672431603,0.471436,1.789063,0.534668
1519672431609,-0.047363,1.220459,0.314697
1519672431614,-0.382813,0.879150,0.009277
1519672431620,-0.677002,0.564453,-0.325439
1519672431625,-0.908691,0.398926,-0.512207
1519672431653,-1.038086,0.248779,-0.504150
1519672431685,-0.933594,0.277832,-0.326904
1519672431718,-0.626709,0.654541,-0.217285
1519672431750,-0.277100,1.585205,-0.206543
1519672431784,0.645752,3.357666,-0.380859
1519672431816,1.437256,2.934814,-0.194336
1519672431848,1.343262,2.465088,-0.025879
1519672431881,1.246826,1.550537,0.221436
1519672431915,0.723877,0.807129,0.312988
1519672431949,0.606445,0.512207,0.388184
1519672431980,0.676514,0.117188,0.421631
1519672432013,0.936279,-0.238281,0.424072
1519672432029,0.870117,-0.410400,0.422119
1519672432086,1.066162,-0.343018,0.326660
1519672432119,0.946533,-0.293213,0.426270
1519672432122,0.947998,0.361328,0.378662
1519672432177,1.638916,2.495850,0.441650
1519672432210,1.655029,2.654053,0.474121
1519672432216,0.820801,2.677246,0.482666
1519672432269,0.475830,2.325928,0.115723
1519672432302,0.066895,1.389404,-0.140137
1519672432334,-0.308105,0.805176,-0.386963
1519672432366,-0.637695,0.528076,-0.559570
1519672432399,-0.875488,0.355713,-0.676514
1519672432432,-1.010986,0.224609,-0.693359
1519672432445,-1.025391,0.203613,-0.621582
1519672432478,-0.803223,0.465576,-0.376709
1519672432536,-0.388916,1.789307,-0.356689
1519672432573,1.341309,3.365479,-0.547363
1519672432578,1.331055,2.715576,-0.133301
1519672432632,1.373291,2.263916,0.307861
1519672432664,1.014160,1.327881,0.250732
1519672432696,0.744385,0.911621,0.195068
1519672432703,0.691895,0.543457,0.405273
1519672432755,0.583740,-0.024414,0.399170
1519672432763,0.756104,-0.390869,0.301758
1519672432792,0.779541,-0.574951,0.265381
1519672432849,1.013184,-0.508545,0.114502
1519672432863,1.153320,0.310059,-0.019287
1519672432895,1.293213,2.212402,-0.955811
1519672432928,0.918701,3.053711,-0.500732
1519672432986,0.622314,1.365723,1.061523
1519672432992,1.187500,1.224121,1.048828
1519672433049,0.375000,2.069580,0.051270
1519672433082,-0.185791,1.183350,-0.092041
1519672433113,-0.558350,0.251465,-0.192871
1519672433145,-0.755371,-0.146484,-0.449219
1519672433178,-0.943359,-0.055664,-0.833008
1519672433210,-1.072754,0.081543,-0.771973
1519672433242,-0.889404,-0.186035,-0.416260
1519672433245,-0.865234,-0.059814,-0.320801
1519672433276,-0.772461,1.066162,-0.892090
1519672433309,1.077393,3.364014,-1.382080
1519672433367,1.485840,3.105225,-0.878418
1519672433372,1.225342,2.460205,-0.627441
1519672433429,0.645020,1.245850,-0.223389
1519672433462,0.638428,1.202393,0.144531
1519672433494,0.573975,0.834229,0.445068
1519672433526,0.723877,0.303711,0.872803
1519672433558,0.871582,0.039551,0.561523
1519672433560,0.957275,-0.374512,0.099609
1519672433617,1.135254,-0.285156,0.076172
1519672433651,0.954590,0.467529,0.387939
1519672433664,0.986328,1.645264,0.116211
1519672433722,1.057373,2.568848,0.222168
1519672433727,0.620117,2.365723,0.039795
1519672433783,0.183594,2.214600,-0.001221
1519672433815,0.010010,1.616211,-0.097656
1519672433822,-0.301758,1.043213,-0.244873
1519672433878,-0.543457,0.713379,-0.386963
1519672433911,-0.768555,0.327881,-0.495850
1519672433943,-0.885498,0.171143,-0.424316
1519672433979,-0.923828,0.096924,-0.395508
1519672433986,-0.827148,0.059082,-0.440918
1519672434043,-0.701660,0.149658,-0.292480
1519672434075,-0.651367,0.953369,-0.186035
1519672434089,1.272949,3.479492,-1.101563
1519672434147,2.784912,3.859619,-0.705322
1519672434152,1.635498,2.599121,-0.285156
1519672434205,0.771240,1.273682,0.169434
1519672434238,0.601074,1.066162,0.285889
1519672434245,0.571533,0.705322,0.517090
1519672434296,0.672119,0.143066,0.504883
1519672434329,0.765869,-0.250732,0.495605
1519672434361,0.742920,-0.415283,0.463867
1519672434367,0.781250,-0.587646,0.315674
1519672434425,0.669434,-0.502930,0.200439
1519672434458,0.345703,-0.197754,0.187256
1519672434491,1.457275,2.736084,0.384033
1519672434505,1.393799,3.017822,0.381592
1519672434550,0.658691,2.932129,0.151611
1519672434583,0.241943,2.010010,0.134277
1519672434615,-0.137695,1.404541,0.035156
1519672434621,-0.425049,0.801514,-0.117676
1519672434674,-0.735596,0.232910,-0.353760
1519672434706,-1.174805,0.319580,-0.582520
1519672434739,-1.153564,0.528564,-0.273682
1519672434771,-1.042480,0.150635,-0.621338
1519672434804,-0.834473,0.529785,-0.595947
1519672434837,-0.118896,2.390381,-0.807617
1519672434868,1.894775,3.566162,-0.712646
1519672434901,1.900879,3.424561,-0.288086
1519672434920,1.662598,2.009766,0.149414
1519672434979,0.988281,1.086670,0.334717
1519672434984,0.742920,0.594971,0.318115
1519672435041,0.741943,0.044678,0.352295
1519672435072,0.851807,-0.463135,0.406982
1519672435105,0.937500,-0.589844,0.392822
1519672435108,0.941895,-0.659668,0.298340
1519672435162,0.953125,-0.401855,0.188477
1519672435195,1.129639,0.313965,-0.053223
1519672435200,1.416504,2.420410,0.017578
1519672435256,1.245850,2.348877,0.517334
1519672435289,0.613281,2.000977,0.567383
1519672435302,0.607910,2.237793,0.203613
1519672435334,-0.027100,1.639160,-0.100098
1519672435367,-0.418701,1.108398,-0.327393
1519672435400,-0.639160,0.723877,-0.352051
1519672435433,-0.901367,0.431885,-0.377197
1519672435466,-1.046143,0.295410,-0.410889
1519672435524,-1.086914,0.190186,-0.427002
1519672435578,-0.809082,0.581055,-0.595215
1519672435583,-0.516357,1.428955,-0.458984
1519672435633,0.193359,3.305664,-1.024414
1519672435639,1.919189,3.281006,-0.548584
1519672435689,1.944092,2.602539,-0.113770
1519672435695,1.845459,1.625244,0.203369
1519672435761,1.119141,0.710938,0.128418
1519672435764,1.005371,0.207031,0.232178
1519672435797,0.907959,-0.801514,0.503906
1519672435843,0.566895,-1.515625,0.715088
1519672435847,0.832520,-0.756592,0.484619
1519672435904,1.121094,-0.303223,0.275635
1519672435958,1.359131,0.072754,0.269043
1519672435961,1.461914,0.426025,0.133057
1519672436005,2.090088,1.521973,0.216309
1519672436013,1.958740,2.155762,0.486816
1519672436110,1.802490,1.906250,0.381592
1519672436116,1.488770,2.142822,0.157715
1519672436206,0.492676,1.709717,-0.218750
1519672436289,-0.234619,1.135010,-0.344482
1519672436355,-0.670898,0.908691,-0.476807
1519672436361,-0.881104,0.895996,-0.583496
1519672436376,-0.986328,1.021240,-0.658203
1519672436383,-0.822998,0.989502,-0.633057
1519672436389,-0.266602,1.173096,-0.575928
1519672436396,0.243164,1.625244,-0.427734
1519672436400,1.092285,2.606934,-0.658691
1519672436414,1.885742,2.443848,-0.214600
1519672436444,1.977051,2.213135,0.010986
1519672436476,1.750732,1.615234,0.046631
1519672436509,0.958496,0.635986,0.184082
1519672436576,0.731201,0.073242,0.396729
1519672436579,0.643066,-0.301025,0.498535
1519672436644,0.735352,-0.572754,0.467285
1519672436646,0.729248,-0.786377,0.358154
1519672436698,0.952637,-0.743896,0.245117
1519672436700,1.141357,-0.245117,0.298584
1519672436732,1.439941,0.895264,0.006104
1519672436768,2.174316,2.198730,0.368408
1519672436797,1.395020,2.398926,0.497070
1519672436830,0.727539,2.365234,0.201416
1519672436865,0.509033,2.276123,0.118896
1519672436897,-0.213867,1.139893,-0.198242
1519672436930,-0.545654,0.884521,-0.366943
1519672436947,-0.731445,0.785889,-0.393066
1519672436976,-1.032959,0.600586,-0.416992
1519672437034,-0.917969,0.627686,-0.489502
1519672437066,-0.708252,0.854492,-0.503174
1519672437100,-0.247803,1.613281,-0.438232
1519672437108,0.483887,3.088135,-0.469482
1519672437131,1.751465,2.830322,-0.334473
1519672437190,1.444336,2.127686,0.375244
1519672437198,1.515625,1.698730,0.372803
1519672437247,1.202393,1.128174,0.317139
1519672437280,0.944336,0.151367,0.447998
1519672437312,0.836670,-0.239502,0.462891
1519672437345,0.810791,-0.593506,0.367676
1519672437359,0.822021,-0.856689,0.216309
1519672437392,1.048584,-0.742920,0.117432
1519672437439,1.144287,-0.385742,0.156738
1519672437470,1.458740,1.012939,-0.024902
1519672437503,2.005127,2.463623,0.166016
1519672437511,1.531738,2.494629,0.600098
1519672437568,0.527588,2.283447,0.341309
1519672437600,0.558350,2.343750,0.262939
1519672437606,0.178711,1.602539,0.209717
1519672437662,-0.315430,0.760742,-0.138916
1519672437693,-0.552734,0.591553,-0.212646
1519672437725,-0.909668,0.547852,-0.401123
1519672437758,-1.089600,0.442627,-0.567871
1519672437792,-0.961182,0.468018,-0.551025
1519672437830,-0.670898,0.856201,-0.575684
1519672437861,-0.194092,1.905273,-0.564697
1519672437894,0.697754,3.447021,-0.731689
1519672437927,1.743652,2.691406,-0.371094
1519672437958,2.024170,2.401855,-0.112793
1519672437992,1.674316,1.550293,0.213867
1519672438024,1.199707,0.824219,0.461914
1519672438056,1.024658,-0.013428,0.543701
1519672438090,1.064453,-0.438721,0.714600
1519672438098,0.995117,-0.740723,0.694092
1519672438147,1.042236,-0.915527,0.410156
1519672438190,1.250977,-0.622559,0.204834
1519672438198,1.260010,0.144775,0.208252
1519672438224,1.979248,2.291016,0.070068
1519672438255,1.716064,2.973389,0.604736
1519672438314,0.752441,2.480957,0.412109
1519672438346,0.425049,2.504883,0.115234
1519672438352,0.023438,1.758545,-0.122314
1519672438411,-0.493408,1.039307,-0.320557
1519672438443,-0.739990,0.657959,-0.455322
1519672438477,-1.023926,0.357910,-0.526367
1519672438485,-1.095947,0.227539,-0.534668
1519672438536,-0.892334,0.319580,-0.593506
1519672438544,-0.619385,0.877197,-0.650879
1519672438573,-0.343750,1.807373,-0.498047
1519672438629,0.839111,3.544678,-0.490479
1519672438638,1.129150,2.680664,-0.094727
1519672438693,1.660156,2.383545,0.002930
1519672438726,1.429932,1.578125,-0.068604
1519672438759,1.042236,0.867432,0.094727
1519672438767,0.887939,0.499756,0.345459
1519672438826,0.830078,0.016846,0.490723
1519672438857,0.815674,-0.276855,0.513916
1519672438890,0.862061,-0.378662,0.481445
1519672438922,0.977539,0.041504,-0.035889
1519672438975,1.060059,0.749268,0.076660
1519672438983,0.840088,0.745605,0.131104
1519672439008,1.747314,1.733643,1.545898
1519672439040,1.673584,1.416260,1.918457
1519672439071,1.094238,2.194580,1.251221
1519672439104,0.310791,1.649902,0.602051
1519672439136,-0.245361,1.096191,0.248291
1519672439169,-0.509766,0.836914,0.045410
1519672439201,-0.754883,0.459961,-0.150879
1519672439236,-0.921143,0.250488,-0.210205
1519672439266,-1.002930,0.296387,-0.279053
1519672439299,-0.785400,0.518311,-0.250244
1519672439333,-0.770996,0.593750,-0.063232
1519672439364,-0.337891,2.081055,0.160645
1519672439396,0.958252,3.591309,0.967285
1519672439429,0.778809,3.121826,0.938232
1519672439462,0.684570,2.105225,0.591064
1519672439494,0.654053,1.192871,0.590576
1519672439526,0.593262,0.732910,0.568848
1519672439560,0.623779,0.209717,0.588867
1519672439593,0.826416,-0.436279,0.296387
1519672439601,0.918213,-0.676514,-0.053467
1519672439655,0.984863,-0.655518,-0.036621
1519672439688,1.347900,0.106934,0.112061
1519672439721,1.220459,1.136719,0.623779
1519672439757,1.398926,2.133057,0.701172
1519672439764,1.354736,2.346191,1.277588
1519672439821,0.670166,2.474854,1.082275
1519672439853,0.530029,2.234375,0.661377
1519672439886,-0.160889,1.281738,0.076416
1519672439919,-0.614258,0.903564,-0.520996
1519672439924,-0.706787,0.624756,-0.752930
1519672439979,-0.884521,0.358643,-0.767090
1519672440011,-0.847412,0.432861,-0.381104
1519672440019,-0.763428,0.472168,-0.193604
1519672440072,-0.587646,0.623535,-0.229004
1519672440104,-0.596680,1.337402,-0.243896
1519672440136,0.081543,3.096680,-0.053955
1519672440169,1.385010,3.040527,0.227295
1519672440202,1.218750,2.803223,0.177002
1519672440252,1.232178,2.029541,0.335693
1519672440254,0.812988,1.086914,0.460693
1519672440286,0.750977,0.540039,0.519043
1519672440318,0.771484,-0.114990,0.396484
1519672440350,0.788818,-0.671143,0.221436
1519672440383,0.801025,-0.870605,0.109619
1519672440415,0.931641,-0.799561,-0.040039
1519672440448,1.166504,-0.191406,0.090332
1519672440481,1.212646,0.966309,0.335205
1519672440513,1.843750,2.653076,0.462891
1519672440545,1.274902,2.706787,0.783936
1519672440578,0.499268,2.497314,0.482422
1519672440611,0.570068,2.187256,0.374512
1519672440669,0.028809,1.159668,0.182617
1519672440672,-0.270020,0.791260,-0.036621
1519672440705,-0.604004,0.557617,-0.400879
1519672440737,-1.120361,0.301270,-0.810303
1519672440770,-1.320068,0.102051,-0.641846
1519672440802,-1.375488,0.299561,-0.733154
1519672440835,-0.940674,0.720703,-0.591309
1519672440867,-0.366943,2.648193,-0.308105
1519672440900,0.688721,4.634033,0.187744
1519672440932,2.275879,3.827148,0.932373
1519672440964,1.653076,1.082275,0.928223
1519672440997,1.333252,0.751709,0.510742
1519672441029,0.976563,0.239746,0.065674
1519672441102,0.931152,-0.175781,0.046143
1519672441106,0.708984,-0.409912,0.084229
1519672441169,0.626221,-0.634277,-0.187012
1519672441172,0.862061,-0.617676,-0.248535
1519672441237,1.165283,-0.293457,-0.243652
1519672441239,1.221924,1.032471,0.385742
1519672441305,1.592773,3.416504,1.484863
1519672441310,1.603271,0.826172,1.122314
1519672441372,1.273438,1.185791,1.551758
1519672441375,0.978271,2.074463,1.190918
1519672441441,0.139893,1.765137,0.650879
1519672441444,-0.617188,1.054199,0.074463
1519672441508,-1.051514,0.688965,-0.256104
1519672441513,-1.084961,0.460449,-0.346680
1519672441575,-1.140381,0.305664,-0.376465
1519672441580,-0.961182,0.366699,-0.292969
1519672441602,-0.569336,0.663086,-0.035400
1519672441616,-0.293457,1.847900,0.432861
1519672441649,0.893311,4.001221,0.311279
1519672441658,1.762207,3.419434,0.466064
1519672441716,1.599854,1.717041,0.631836
1519672441748,1.061523,1.154541,0.692627
1519672441756,0.779053,0.600342,0.611816
1519672441812,0.616699,-0.090088,0.438965
1519672441844,0.674072,-0.378906,0.281738
1519672441876,0.768311,-0.506836,0.140869
1519672441910,1.160400,-0.129395,-0.020264
1519672441943,1.292480,0.420898,-0.221436
1519672441976,0.793457,0.621094,-0.052979
1519672442007,0.563477,1.587646,0.672607
1519672442039,0.828125,2.388672,0.844971
1519672442043,0.435303,2.286865,0.748535
1519672442099,0.207031,2.015381,0.589111
1519672442131,-0.153320,1.322998,0.353271
1519672442137,-0.535889,0.802979,0.123291
1519672442197,-0.578369,0.707520,-0.083984
1519672442230,-0.728760,0.358154,-0.196533
1519672442260,-0.960205,0.047363,-0.461670
1519672442293,-0.983887,-0.045654,-0.365234
1519672442326,-0.755127,0.306396,-0.095947
1519672442359,-0.728760,1.388672,0.133789
1519672442390,-0.089111,3.403809,-0.185303
1519672442422,1.454346,3.396240,-0.178223
1519672442425,1.639648,2.383057,0.368164
1519672442481,1.020020,1.433105,0.729736
1519672442514,0.723145,0.837891,0.659668
1519672442547,0.779785,0.232910,0.487061
1519672442590,0.872559,-0.262207,0.451416
1519672442598,0.883057,-0.459473,0.339355
1519672442626,0.941895,-0.536865,0.213867
1519672442657,1.056641,-0.594971,-0.032227
1519672442690,1.088379,-0.117676,0.137207
1519672442747,1.331787,1.267090,0.259766
1519672442752,1.996338,2.745605,0.726318
1519672442813,1.231689,2.395996,0.803955
1519672442821,0.521240,2.429199,0.498291
1519672442876,0.178955,2.025391,0.284180
1519672442909,-0.249023,1.276123,0.120361
1519672442915,-0.532227,0.803223,-0.172363
1519672442970,-0.921143,0.407227,-0.508545
1519672443002,-1.157227,0.182129,-0.589844
1519672443010,-1.171387,0.101807,-0.457520
1519672443061,-0.862549,0.581055,-0.452637
1519672443092,-0.528320,1.087402,-0.371582
1519672443124,-0.038574,3.023438,-0.237061
1519672443156,1.151123,3.685303,-0.023926
1519672443188,1.750977,2.625977,0.114990
1519672443221,1.574463,2.084717,0.220459
1519672443253,1.052002,1.017578,0.451172
1519672443286,0.843262,0.251709,0.475342
1519672443320,0.862305,-0.372559,0.479736
1519672443352,0.887451,-0.896240,0.332275
1519672443366,0.951416,-1.102783,0.031494
1519672443424,1.202881,-0.782715,-0.135254
1519672443457,1.558350,0.007568,0.131348
1519672443488,1.902100,1.835205,0.115723
1519672443491,2.125000,3.053467,0.752930
1519672443523,1.041748,2.793945,0.782471
1519672443555,0.153320,2.290771,0.455811
1519672443590,0.176025,2.080811,0.228027
1519672443622,-0.427979,0.978516,-0.126953
1519672443656,-0.693359,0.600586,-0.401123
1519672443687,-0.963623,0.351807,-0.547852
1519672443720,-1.104248,0.173340,-0.496582
1519672443752,-0.861084,0.300537,-0.401855
1519672443784,-0.779785,0.438232,-0.390137
1519672443817,-0.452637,1.189697,-0.432373
1519672443849,0.201904,3.429199,-0.299561
1519672443882,1.483887,3.805176,-0.232422
1519672443939,1.536377,2.667725,0.055420
1519672443947,1.562256,2.073486,0.412842
1519672443971,1.132813,1.191162,0.637451
1519672444029,0.874268,0.147705,0.603271
1519672444031,0.983398,-0.565674,0.590820
1519672444092,0.964844,-0.963623,0.513916
1519672444124,1.056396,-1.207275,0.024414
1519672444129,1.357910,-0.826904,-0.211426
1519672444187,1.467285,-0.388428,0.055176
1519672444200,2.219727,1.854492,0.172363
1519672444233,2.736328,3.311279,0.851807
1519672444265,1.561523,2.246826,1.018555
1519672444323,0.803711,2.210693,0.534912
1519672444328,0.512207,2.134766,0.386230
1519672444385,-0.075684,1.444824,0.145752
1519672444418,-0.772949,0.830322,-0.191895
1519672444451,-1.100830,0.603516,-0.515869
1519672444453,-1.364746,0.382080,-0.726563
1519672444509,-1.190186,0.512695,-0.608887
1519672444516,-0.828613,0.873047,-0.520020
1519672444551,-0.460449,1.878174,-0.452148
1519672444608,0.667969,3.578613,-0.091309
1519672444613,1.057129,2.970703,-0.036865
1519672444671,1.575928,3.029541,-0.035645
1519672444703,1.587402,2.172363,-0.011230
1519672444736,1.229004,1.319336,0.474854
1519672444743,1.052734,0.499023,0.604004
1519672444799,0.962158,-0.641602,0.526367
1519672444832,0.928955,-1.139648,0.368408
1519672444864,0.984375,-1.039551,-0.058594
1519672444897,1.417480,-0.542236,-0.383301
1519672444899,1.550781,0.405029,-0.098389
1519672444955,1.864746,1.886963,-0.079590
1519672444988,1.907227,3.293701,0.654053
1519672445001,0.802979,2.854736,0.402832
1519672445034,0.269043,2.638672,0.301270
1519672445066,0.025146,1.872803,0.253174
1519672445099,-0.255371,1.155518,-0.014160
1519672445132,-0.418213,0.581299,-0.335938
1519672445164,-0.884277,0.115479,-0.625732
1519672445197,-1.309082,0.105957,-0.635742
1519672445229,-1.470215,0.450439,-0.841797
1519672445262,-0.994141,0.693604,-0.832031
1519672445308,-0.580322,1.346680,-0.636230
1519672445313,-0.008057,3.537598,-0.628906
1519672445372,2.133057,3.358887,-0.348389
1519672445404,1.691650,2.806396,0.108398
1519672445409,1.705078,2.077881,0.383789
1519672445467,0.906738,0.871826,0.364502
1519672445499,0.810059,0.317871,0.450439
1519672445534,0.981934,-0.349854,0.560303
1519672445566,0.878906,-0.895508,0.313721
1519672445574,0.929199,-1.084229,0.015381
1519672445631,1.246826,-0.670410,-0.230957
1519672445663,1.659912,0.325928,-0.067871
1519672445696,2.196045,2.075195,-0.147705
1519672445728,2.530762,3.359619,0.495361
1519672445761,1.322021,2.626221,0.241699
1519672445793,0.513672,2.188477,0.042725
1519672445807,0.311523,1.777588,-0.091064
1519672445867,-0.359131,1.136719,-0.453369
1519672445897,-0.738525,0.816162,-0.652344
1519672445900,-0.999023,0.456299,-0.691895
1519672445957,-1.134033,0.434326,-0.765137
1519672445990,-1.033936,0.589844,-0.817139
1519672445999,-0.754150,0.710449,-0.664551
1519672446049,-0.295898,1.828369,-0.499268
1519672446114,0.454590,3.594971,-0.666504
1519672446117,1.553711,3.329590,-0.225586
1519672446182,1.784668,2.660400,0.224609
1519672446185,1.788574,1.837158,0.179199
1519672446250,1.174561,0.774170,0.493164
1519672446319,0.862549,-0.199463,0.718506
1519672446386,0.826172,-0.450928,0.574707
1519672446392,0.867188,-0.819580,0.352783
1519672446452,1.090576,-0.952881,-0.129639
1519672446455,1.336426,-0.648193,-0.196289
1519672446520,1.476074,-0.092285,-0.025391
1519672446525,2.279297,2.180420,-0.021484
1519672446573,2.078613,3.014893,0.187500
1519672446576,0.926025,2.578857,0.077148
1519672446579,0.312744,2.573975,-0.024170
1519672446582,0.106689,1.858154,-0.094482
1519672446585,-0.411377,1.169189,-0.288818
1519672446610,-0.743408,0.857178,-0.462402
1519672446654,-0.859619,0.679932,-0.469482
1519672446695,-0.976807,0.511475,-0.266357
1519672446727,-0.803955,0.500000,-0.239990
1519672446761,-0.638184,1.078857,-0.601563
1519672446793,-0.246338,1.656006,-0.524414
1519672446824,0.568848,3.019287,-0.552734
1519672446857,1.842773,2.696777,-0.498291
1519672446862,1.600586,2.610840,-0.127686
1519672446915,1.361816,1.428467,0.244629
1519672446947,0.968750,0.745117,0.502441
1519672446952,0.771240,-0.058105,0.488525
1519672447011,0.767578,-0.733887,0.312744
1519672447044,0.813965,-0.911133,0.180908
1519672447077,1.001465,-0.816895,0.032471
1519672447090,1.416016,-0.459473,0.011230
1519672447121,1.399414,0.284912,0.125000
1519672447153,1.748535,2.065674,0.137451
1519672447187,1.624756,2.800537,0.731445
1519672447245,0.681885,2.371338,0.572998
1519672447277,0.409912,2.451416,0.370117
1519672447309,-0.014404,1.615967,0.132080
1519672447342,-0.504395,0.895264,-0.074219
1519672447376,-0.813965,0.565918,-0.188477
1519672447407,-1.023193,0.337402,-0.323242
1519672447440,-1.284424,0.341553,-0.534424
1519672447449,-1.043701,0.478027,-0.655518
1519672447482,-0.627197,1.138916,-0.571533
1519672447514,-0.182373,2.109863,-0.579346
1519672447546,0.480713,3.493652,-0.644287
1519672447578,1.884033,2.420898,-0.334229
1519672447611,1.720703,2.258545,0.003418
1519672447644,1.552734,1.670410,0.204590
1519672447677,1.022217,0.628662,0.441406
1519672447709,0.960693,-0.061523,0.548340
1519672447741,0.907959,-0.559082,0.513916
1519672447775,0.979980,-0.972168,0.382568
1519672447808,1.074219,-1.016602,0.223389
1519672447841,1.298096,-0.775146,-0.017822
1519672447877,1.640381,0.759521,-0.001953
1519672447932,2.444336,3.174316,0.056152
1519672447936,2.297852,2.874512,1.000732
1519672447966,0.634766,2.240967,0.480469
1519672447999,0.500000,2.378418,0.241455
1519672448032,0.028809,1.557617,0.071045
1519672448066,-0.636475,0.761475,-0.188232
1519672448097,-0.811279,0.515869,-0.478516
1519672448131,-1.114258,0.270264,-0.629395
1519672448162,-1.187256,0.216064,-0.571045
1519672448195,-1.024658,0.446289,-0.629395
1519672448227,-0.771729,0.665283,-0.562256
1519672448259,-0.164795,2.438965,-0.506836
1519672448292,1.015137,3.939453,-0.280518
1519672448324,1.386719,2.518311,0.426758
1519672448357,1.394287,2.068848,0.581055
1519672448390,1.228271,1.447754,0.570313
1519672448399,0.787354,0.612305,0.573730
1519672448457,0.643555,-0.092285,0.322998
1519672448491,0.672607,-0.564453,0.106445
1519672448523,0.642090,-1.072754,-0.053467
1519672448555,0.875977,-0.916016,-0.316650
1519672448588,1.298340,-0.566650,-0.335449
1519672448621,1.700928,0.425781,-0.152344
1519672448651,2.775879,3.000977,0.197266
1519672448683,1.842773,2.742676,0.676514
1519672448700,0.715088,2.345703,0.485840
1519672448728,0.524658,2.090576,0.371826
1519672448785,0.126953,1.543457,0.033936
1519672448818,-0.363525,0.992920,-0.291504
1519672448850,-0.721191,0.668213,-0.500977
1519672448853,-1.073242,0.379883,-0.644531
1519672448884,-1.207031,0.233398,-0.654785
1519672448943,-1.012207,0.457520,-0.643799
1519672448950,-0.824951,0.760498,-0.633789
1519672449002,-0.385498,1.704346,-0.491211
1519672449035,0.703613,3.355469,-0.500244
1519672449067,1.803223,2.668213,0.147949
1519672449099,1.748535,2.656494,0.426270
1519672449113,1.396484,1.343018,0.491699
1519672449145,0.998047,0.601563,0.569092
1519672449213,0.818604,-0.246094,0.672363
1519672449218,0.866455,-0.674316,0.486084
1519672449247,0.782471,-0.881348,0.249756
1519672449279,1.026611,-0.984131,-0.002441
1519672449312,1.402100,-0.511230,-0.141846
1519672449345,1.443848,0.683594,0.108398
1519672449381,2.368408,2.838379,0.371094
1519672449414,1.719727,2.434570,1.005127
1519672449446,0.609375,1.947754,0.712891
1519672449480,0.512939,2.287842,0.512451
1519672449512,-0.313232,1.386475,0.041260
1519672449526,-0.735352,0.858643,-0.273926
1519672449584,-0.906250,0.515137,-0.526855
1519672449616,-1.187500,0.164551,-0.591309
1519672449647,-1.143066,0.179443,-0.430176
1519672449679,-0.867188,0.416748,-0.523193
1519672449712,-0.556641,0.948975,-0.229980
1519672449744,0.111572,3.097900,-0.312012
1519672449776,1.431152,4.232910,-0.436035
1519672449810,1.545166,1.938232,0.235596
1519672449842,1.446289,1.958984,0.374023
1519672449844,1.223389,1.424805,0.481445
1519672449902,0.794189,0.340332,0.449707
1519672449934,0.780029,-0.316895,0.428955
1519672449942,0.784180,-0.845947,0.286621
1519672450000,0.649170,-1.004150,0.105225
1519672450031,1.013916,-0.861572,-0.041260
1519672450064,1.458496,-0.411377,-0.081543
1519672450095,2.151611,1.751221,0.017822
1519672450127,2.818848,2.960938,0.480225
1519672450161,1.672607,2.379639,0.937744
1519672450193,0.526123,2.325684,0.578125
1519672450225,0.554932,2.286621,0.397705
1519672450258,0.083984,1.493896,0.161133
1519672450290,-0.248779,0.736572,-0.136230
1519672450295,-0.744141,0.464355,-0.427002
1519672450331,-1.161377,0.444580,-0.806641
1519672450389,-1.462891,0.303467,-0.991455
1519672450397,-1.135986,0.566406,-0.721436
1519672450446,-0.888916,0.824219,-0.629639
1519672450492,-0.362061,2.468018,-0.648682
1519672450497,0.658936,3.501709,-0.498047
1519672450527,1.099854,2.778076,0.127197
1519672450559,1.677490,2.939697,0.489990
1519672450593,1.594727,2.022461,0.435059
1519672450625,1.223877,1.200684,0.703857
1519672450682,0.934082,0.035400,0.746826
1519672450713,1.091309,-0.518066,0.564209
1519672450727,1.253174,-0.944092,0.175781
1519672450761,1.162109,-1.077881,-0.158203
1519672450792,1.602539,-0.654541,-0.164063
1519672450824,1.731689,0.511230,-0.109375
1519672450857,2.306152,3.008057,0.262939
1519672450890,1.678711,3.154785,0.810303
1519672450922,0.487305,2.548584,0.715088
1519672450955,0.354492,2.696533,0.568359
1519672450989,0.118896,1.773438,0.297119
1519672451021,-0.307129,0.927979,-0.177734
1519672451094,-0.741455,0.535645,-0.698242
1519672451103,-1.190674,0.375244,-0.980713
1519672451160,-1.453125,0.229980,-0.910889
1519672451230,-1.202393,0.628418,-0.741211
1519672451295,-0.932617,0.746582,-0.529297
1519672451298,-0.661133,1.097656,-0.430176
1519672451363,0.286865,4.041016,-0.544434
1519672451372,1.527832,4.030273,-0.116943
1519672451431,1.660889,3.345703,0.069092
1519672451435,1.603027,1.962891,0.226563
1519672451497,1.139648,0.968262,0.320801
1519672451500,0.938477,0.242188,0.458496
1519672451567,1.075684,-0.506348,0.482178
1519672451575,1.145264,-0.801758,0.156738
1519672451582,1.066895,-1.010010,0.087891
1519672451587,1.561768,-0.535889,-0.230957
1519672451593,1.499756,0.311768,-0.164795
1519672451597,1.758057,2.130615,-0.114258
1519672451628,1.379639,3.476807,0.310547
1519672451661,0.409912,2.766846,0.548584
1519672451694,0.135254,2.408203,0.630615
1519672451725,0.022949,1.736572,0.379395
1519672451774,-0.484863,1.077393,-0.226563
1519672451782,-0.687012,0.713135,-0.473389
1519672451831,-0.983154,0.479736,-0.738525
1519672451836,-1.264404,0.304199,-0.885254
1519672451893,-1.289551,0.421143,-0.885498
1519672451926,-1.030273,0.746338,-0.703613
1519672451934,-0.693359,1.354492,-0.560059
1519672451991,0.126709,3.439941,-0.544434
1519672452004,1.139404,2.990967,-0.015137
1519672452037,1.150879,2.741943,0.256836
1519672452095,1.456055,2.071289,0.745361
1519672452104,1.195313,0.892090,0.931152
1519672452157,0.917236,0.233154,1.057129
1519672452190,0.887695,-0.179932,0.916504
1519672452223,0.926025,-0.560547,0.436279
1519672452255,1.020264,-0.596191,0.003418
1519672452260,1.371826,-0.008301,-0.214844
1519672452315,1.471924,0.971436,-0.326416
1519672452348,1.133545,1.589600,-0.140137
1519672452351,0.660400,2.163574,0.385498
1519672452407,0.281982,1.953369,0.706543
1519672452420,-0.394775,2.425537,1.075439
1519672452454,-0.262695,2.238037,1.188965
1519672452487,-0.431885,1.321777,0.254883
1519672452520,-0.593018,0.788330,-0.133301
1519672452551,-0.670166,0.704834,-0.534668
1519672452585,-1.218018,0.077148,-1.073242
1519672452640,-1.301025,-0.006592,-0.877197
1519672452673,-1.131592,0.255859,-0.574463
1519672452705,-0.937744,0.320313,-0.380615
1519672452713,-0.663086,1.573730,-0.347168
1519672452769,0.332275,2.959717,0.677734
1519672452785,0.626221,3.125488,0.710938
1519672452817,0.904785,2.839844,0.672607
1519672452833,0.894531,1.799805,0.533691
1519672452889,0.854492,1.042480,0.525635
1519672452895,0.773438,0.440918,0.520752
1519672452954,0.809570,-0.134766,0.494385
1519672452986,0.994141,-0.819092,0.327393
1519672453017,0.948975,-0.869873,0.160889
1519672453052,1.251709,-0.682617,0.097656
1519672453085,1.395996,-0.249023,0.176270
1519672453118,2.058594,1.651855,-0.104004
1519672453150,2.716797,3.274902,0.676025
1519672453182,1.104248,2.290771,0.791016
1519672453216,0.453369,2.468750,0.495605
1519672453221,0.014404,2.240234,0.299316
1519672453286,-0.652344,1.398193,-0.002686
1519672453292,-0.662842,0.881592,-0.147705
1519672453321,-0.760498,0.528320,-0.314941
1519672453379,-0.916504,0.293457,-0.462158
1519672453387,-0.995361,0.282227,-0.575684
1519672453436,-0.895996,0.555176,-0.656982
1519672453470,-0.583984,1.168457,-0.671875
1519672453503,-0.104248,2.593994,-0.629639
1519672453535,0.802979,3.405518,-0.708252
1519672453567,1.365479,3.167480,-0.255859
1519672453599,1.998535,2.664063,0.040771
1519672453632,1.586670,1.811768,0.166016
1519672453647,0.979980,0.891846,0.424072
1519672453703,0.870850,0.155762,0.618164
1519672453709,0.965088,-0.473389,0.626465
1519672453768,1.128418,-1.176270,0.293213
1519672453800,1.132568,-1.181152,0.070313
1519672453808,1.398193,-0.790283,-0.026855
1519672453857,1.738281,0.647949,0.105957
1519672453863,2.496582,2.509033,0.088867
1519672453894,2.238037,3.352539,0.494629
1519672453927,0.624512,2.411133,0.521484
1519672453960,0.458252,2.378174,0.372559
1519672454019,0.351074,1.818359,0.212158
1519672454051,-0.177734,0.933350,-0.244385
1519672454065,-0.400391,0.774902,-0.392578
1519672454098,-0.794678,0.710938,-0.683838
1519672454131,-1.361572,0.401367,-0.915527
1519672454163,-1.306641,0.394043,-0.833496
1519672454201,-1.019775,0.666504,-0.624268
1519672454234,-0.634766,1.504395,-0.579346
1519672454267,0.100586,3.593750,-0.513428
1519672454298,1.407715,3.487061,-0.044678
1519672454333,1.482910,2.931641,0.396484
1519672454366,1.669678,1.920410,0.486572
1519672454398,1.263916,1.060303,0.521484
1519672454430,0.904297,0.264648,0.484375
1519672454462,0.824463,-0.282227,0.367676
1519672454476,0.762207,-0.609619,0.046875
1519672454510,1.006348,-0.907959,-0.145752
1519672454542,1.237793,-0.729248,-0.255615
1519672454576,1.284668,-0.407715,-0.194336
1519672454633,1.425781,1.082275,-0.085693
1519672454666,1.965576,2.898193,0.405273
1519672454674,1.413818,3.093018,0.578125
1519672454723,0.379639,2.508545,0.669434
1519672454757,0.445801,2.196533,0.520752
1519672454765,0.050781,1.551758,0.138428
1519672454815,-0.396240,0.942871,-0.322754
1519672454846,-0.650635,0.659668,-0.460449
1519672454879,-1.010010,0.423096,-0.597412
1519672454920,-1.341309,0.182617,-0.739014
1519672454923,-1.262695,0.395264,-0.726074
1519672454980,-0.881348,0.906494,-0.675293
1519672455012,-0.126465,2.581055,-0.691650
1519672455046,0.874268,3.694336,-0.589355
1519672455077,1.618896,3.053711,-0.156006
1519672455110,1.637207,2.322266,0.224365
1519672455143,1.458496,1.524170,0.374756
1519672455179,0.987061,0.746338,0.356689
1519672455212,0.844482,-0.184570,0.528809
1519672455244,0.796875,-0.458984,0.343750
1519672455247,0.894043,-0.632324,0.128418
1519672455278,1.060303,-0.772461,-0.054199
1519672455343,1.281006,-0.584229,-0.016846
1519672455347,1.201172,-0.229980,0.131348
1519672455377,1.683838,1.744629,-0.161865
1519672455410,1.983154,3.352539,0.363037
1519672455445,1.115234,2.773193,0.560059
1519672455512,0.347168,2.353760,0.308105
1519672455515,0.240479,2.035889,0.348877
1519672455569,-0.274658,1.352783,0.219482
1519672455577,-0.753174,0.770996,-0.213379
1519672455626,-0.944580,0.531250,-0.646729
1519672455647,-1.163086,0.269287,-0.860596
1519672455701,-1.225342,0.208008,-0.934326
1519672455704,-0.794189,0.870850,-0.909668
1519672455758,-0.213379,1.957764,-0.727051
1519672455791,0.996338,3.455322,-0.656982
1519672455838,1.667725,2.515625,-0.093506
1519672455846,1.420410,2.293945,0.330322
1519672455874,1.388916,1.592773,0.428223
1519672455921,1.027100,0.917480,0.533691
1519672455927,0.812500,0.256836,0.608154
1519672455956,0.725342,-0.372559,0.488037
1519672456005,0.813232,-0.575928,0.284424
1519672456038,0.945801,-0.662109,0.112305
1519672456107,1.269531,-0.558350,-0.095703
1519672456116,1.353027,0.153809,0.025879
1519672456204,1.629150,2.104736,-0.177979
1519672456274,1.524658,3.041016,0.884521
1519672456339,0.573242,2.492432,0.871582
1519672456345,-0.255615,2.270020,0.790771
1519672456375,-0.144531,1.581543,0.544189
1519672456384,-0.460938,0.616943,0.194336
1519672456390,-0.624756,0.155029,-0.087646
1519672456393,-0.761230,-0.178223,-0.423096
1519672456396,-0.896240,-0.181152,-0.567871
1519672456411,-0.997559,-0.023438,-0.550049
1519672456444,-0.710205,0.808350,-0.294678
1519672456477,-0.461426,1.510254,-0.223877
1519672456510,-0.478516,2.063721,-0.114502
1519672456584,0.742676,2.758545,-0.195313
1519672456593,1.176758,3.047852,-0.070313
1519672456651,1.229248,2.223877,0.157471
1519672456669,0.791260,1.335938,0.314209
1519672456677,0.700439,0.977539,0.353760
1519672456702,0.699463,0.322998,0.375000
1519672456734,0.953125,-0.314697,0.375000
1519672456766,1.194580,-0.529541,0.369385
1519672456803,1.197266,-0.616699,0.212158
1519672456832,1.278320,-0.371094,0.024170
1519672456865,1.201660,0.590088,-0.129395
1519672456894,1.700684,2.537842,0.066162
1519672456926,0.958984,2.775391,0.390137
1519672456957,0.197510,2.475586,0.091064
1519672456992,0.024414,2.124756,-0.056152
1519672457023,-0.423340,1.075684,-0.095947
1519672457056,-0.647217,0.677734,-0.327148
1519672457069,-0.672852,0.302002,-0.278564
1519672457129,-0.928955,0.069336,-0.225342
1519672457161,-0.913330,0.102051,-0.121582
1519672457170,-0.893799,0.251221,-0.246094
1519672457221,-0.643311,0.805664,-0.311768
1519672457255,-0.362061,2.059326,-0.459961
1519672457286,0.574951,3.333008,-0.733154
1519672457319,1.124756,2.801758,-0.384766
1519672457352,1.322754,2.124512,-0.038574
1519672457385,0.941406,1.479980,0.029541
1519672457418,0.611816,0.840820,0.245605
1519672457449,0.547119,0.456543,0.314209
1519672457481,0.567871,-0.026611,0.331299
1519672457514,0.851563,-0.536621,0.167725
1519672457546,0.913330,-0.778809,0.093506
1519672457578,1.084473,-0.614258,0.005859
1519672457612,1.271729,0.277832,0.006348
1519672457646,1.881104,1.968018,-0.291016
1519672457655,2.101563,2.839355,0.375732
1519672457705,0.797119,2.188965,0.411133
1519672457738,0.390381,2.084717,0.197754
1519672457747,0.140381,1.779053,0.031494
1519672457803,-0.625977,1.055664,-0.340820
1519672457835,-0.733154,0.710938,-0.454834
1519672457868,-0.926270,0.343994,-0.545166
1519672457880,-1.081787,0.141602,-0.480225
1519672457912,-0.979004,0.262695,-0.440430
1519672457944,-0.846191,0.533691,-0.464355
1519672457977,-0.445801,1.593018,-0.527832
1519672458036,0.122070,3.050537,-0.724121
1519672458047,1.072998,3.113770,-0.649170
1519672458076,1.281494,2.633057,-0.099854
1519672458134,1.351807,1.881104,0.059814
1519672458143,1.018799,1.179688,0.295898
1519672458197,0.741699,0.268311,0.520264
1519672458200,0.709961,-0.314941,0.531982
1519672458232,0.838867,-0.576660,0.329590
1519672458264,0.856445,-0.838135,0.081543
1519672458297,0.982422,-0.649658,-0.098877
1519672458329,1.271240,-0.018066,-0.146973
1519672458362,1.602539,1.548340,-0.422852
1519672458395,1.901367,2.695313,0.010254
1519672458452,1.075439,2.441162,0.286377
1519672458485,0.434326,2.336670,0.157715
1519672458494,0.446289,2.013672,0.196289
1519672458548,-0.115479,1.060791,0.028320
1519672458581,-0.791992,0.633301,-0.486084
1519672458612,-0.935059,0.424561,-0.604004
1519672458615,-1.021729,0.178467,-0.505371
1519672458671,-1.000000,0.348877,-0.440430
1519672458712,-0.811035,0.837891,-0.608398
1519672458715,-0.590820,1.355713,-0.656982
1519672458772,0.246826,3.373779,-0.785889
1519672458781,1.373779,3.462891,-0.831299
1519672458834,1.633057,2.890869,-0.519775
1519672458865,1.633545,1.894043,-0.068604
1519672458872,1.230713,1.120361,0.151855
1519672458929,0.838379,0.361328,0.283936
1519672458961,0.708740,-0.416992,0.437988
1519672458993,0.820557,-0.602539,0.383789
1519672459028,0.993896,-0.747559,0.190674
1519672459061,1.177734,-0.912109,-0.059570
1519672459074,1.326416,-0.475586,-0.096191
1519672459107,1.684814,0.738525,-0.244629
1519672459139,2.405518,3.252441,0.240479
1519672459172,1.805664,1.265137,0.898926
1519672459204,0.953857,1.850098,0.689697
1519672459238,0.587402,2.528564,0.516602
1519672459271,-0.051514,1.704102,0.443604
1519672459304,-0.288574,1.127441,0.200684
1519672459335,-0.490234,0.870117,0.038330
1519672459367,-0.796387,0.741211,-0.027832
1519672459399,-0.984863,0.689697,-0.167969
1519672459452,-0.850586,0.625488,-0.164307
1519672459465,-0.728760,0.831299,-0.073730
1519672459498,-0.152100,1.788086,0.091309
1519672459530,1.135254,3.045410,0.636963
1519672459563,1.577148,2.686523,0.767334
1519672459571,1.674561,2.427490,0.895752
1519672459627,1.403564,1.189209,0.660645
1519672459660,0.859619,0.529785,0.499268
1519672459692,0.647461,0.093506,0.365479
1519672459724,0.588623,-0.498779,0.231445
1519672459757,0.793701,-0.723633,-0.001221
1519672459789,0.874023,-1.004883,-0.182861
1519672459822,1.068359,-0.719971,-0.218994
1519672459854,1.024658,-0.440674,-0.073730
1519672459868,1.893311,1.298584,0.478760
1519672459926,2.477783,2.444092,1.135742
1519672459958,1.162354,2.339600,1.019287
1519672459993,0.535645,2.389648,1.166016
1519672460025,0.337891,1.737305,0.549072
1519672460058,-0.214844,1.196533,0.132568
1519672460060,-0.520752,0.932373,-0.042725
1519672460117,-0.763672,0.560059,-0.364990
1519672460149,-1.013916,0.325195,-0.497803
1519672460152,-0.986816,0.304688,-0.388672
1519672460208,-0.762939,0.663086,-0.323242
1519672460242,-0.610107,1.203857,-0.239258
1519672460274,0.055908,2.625000,-0.081787
1519672460315,1.129395,3.035156,0.041992
1519672460321,0.892090,2.541504,0.137695
1519672460375,1.389160,2.197998,0.377197
1519672460408,1.021484,1.142090,0.405029
1519672460439,0.679199,0.552734,0.491699
1519672460473,0.526123,-0.045166,0.509277
1519672460505,0.685791,-0.567139,0.330078
1519672460536,0.861572,-0.691650,0.184326
1519672460569,0.997559,-0.666504,0.031982
1519672460602,1.360596,-0.118652,-0.038818
1519672460607,1.609375,1.130615,0.101807
1519672460661,1.883545,2.451904,0.381348
1519672460692,1.090332,2.316406,0.505615
1519672460698,0.409668,2.111572,0.868896
1519672460733,0.283203,1.871338,0.601318
1519672460791,-0.259766,1.205078,-0.014893
1519672460825,-0.500977,1.100586,-0.314453
1519672460855,-0.614502,0.617432,-0.543945
1519672460890,-0.868896,0.396729,-0.666016
1519672460920,-0.952393,0.609863,-0.652344
1519672460932,-1.103027,0.866943,-0.642334
1519672460990,-0.989014,1.416992,-0.621582
1519672461023,-0.077881,2.914795,-0.838623
1519672461026,1.027344,3.092529,-0.834717
1519672461099,1.142578,2.547607,-0.181152
1519672461110,1.660156,2.027100,0.159180
1519672461165,1.342529,1.003418,0.338135
1519672461168,0.963623,0.417725,0.477295
1519672461233,0.889648,-0.158447,0.458740
1519672461242,0.808838,-0.481445,0.328857
1519672461302,0.860352,-0.644531,0.022217
1519672461310,1.034424,-0.578125,-0.118408
1519672461367,1.223633,-0.259277,-0.069824
1519672461371,1.319336,0.410889,0.170898
1519672461436,1.945068,2.178711,0.141846
1519672461504,1.827393,2.866455,0.385742
1519672461513,0.808594,2.752441,0.483398
1519672461571,0.649414,2.636719,0.219482
1519672461575,0.154053,1.975830,-0.047363
1519672461581,-0.505127,1.101563,-0.389893
1519672461588,-0.711670,0.743164,-0.449463
1519672461613,-1.068115,0.496094,-0.547363
1519672461673,-1.281006,0.206787,-0.713867
1519672461681,-1.053223,0.413330,-0.720215
1519672461711,-0.714111,1.071777,-0.584229
1519672461750,0.020264,2.661621,-0.476318
1519672461775,0.836182,2.941406,-0.521729
1519672461808,1.167480,2.236084,-0.229736
1519672461840,1.889160,2.280762,0.219727
1519672461872,1.470215,1.493652,0.260254
1519672461907,1.032715,0.812744,0.374756
1519672461949,0.720947,0.134033,0.491943
1519672461982,0.646484,-0.225830,0.541992
1519672461990,0.740723,-0.512207,0.385742
1519672462041,0.839600,-0.559570,0.141602
1519672462050,1.148193,0.027100,0.059326
1519672462076,1.149414,0.709717,0.059570
1519672462141,1.381592,1.207275,0.076904
1519672462144,1.172363,2.074463,0.474121
1519672462200,0.822021,2.187500,0.572266
1519672462234,0.443115,2.166504,0.411133
1519672462266,0.339600,1.855713,0.304688
1519672462299,-0.235840,1.226563,0.006592
1519672462313,-0.809326,0.808350,-0.344971
1519672462344,-1.125488,0.567627,-0.483398
1519672462403,-1.322510,0.374023,-0.476563
1519672462434,-1.078369,0.417236,-0.257568
1519672462467,-0.812744,0.846924,-0.361572
1519672462499,-0.530762,1.503906,-0.491455
1519672462531,0.238281,3.154053,-0.611572
1519672462563,0.985107,2.879395,-0.565918
1519672462567,1.174805,2.613037,-0.077637
1519672462622,1.432861,1.920410,0.162842
1519672462629,1.052734,1.197021,0.420898
1519672462661,0.738281,0.561035,0.488770
1519672462720,0.589111,-0.098877,0.566162
1519672462729,0.909912,-0.437500,0.398193
1519672462784,1.099365,-0.909180,0.114502
1519672462817,1.144287,-0.783203,-0.164795
1519672462848,1.298340,-0.266113,-0.086914
1519672462856,1.337646,0.520508,0.059326
1519672462913,1.825439,2.890137,0.367188
1519672462946,1.647949,2.510498,0.845947
1519672462979,0.909668,2.498291,0.688477
1519672463012,0.592773,2.173096,0.702881
1519672463044,0.113281,1.471191,0.343018
1519672463049,-0.436523,1.001465,-0.059814
1519672463104,-0.660400,0.714600,-0.309570
1519672463117,-0.935547,0.381348,-0.250488
1519672463150,-1.142334,0.082764,-0.223389
1519672463181,-0.970703,0.700684,-0.286621
1519672463214,-0.861572,1.001221,-0.468506
1519672463246,-0.550781,1.496826,-0.358887
1519672463292,0.466553,3.311279,-0.350586
1519672463325,1.427246,2.669922,-0.002686
1519672463358,1.568604,2.509277,0.404053
1519672463391,1.531250,1.671143,0.312500
1519672463425,0.985596,1.043701,0.259277
1519672463433,0.835205,0.521729,0.351318
1519672463482,0.659912,-0.100586,0.438477
1519672463515,0.677002,-0.403809,0.283691
1519672463529,0.725586,-0.530029,0.079102
1519672463586,1.001465,-0.582031,0.037109
1519672463595,1.131592,-0.376221,-0.017822
1519672463647,1.146729,0.092773,0.052490
1519672463679,1.670898,1.951172,-0.015869
1519672463687,1.473145,2.595215,0.467773
